Data from BCF92_1_FLMS019251_12-24-42-605.txt Node
Date: Tue Feb 12 12:24:42 CET 2019
User: luk
Spectrometer: FLMS01925
Trigger mode: 0
Integration Time (sec): 7.319000E-1
Scans to average: 1
Electric dark correction enabled: true
Nonlinearity correction enabled: true
Boxcar width: 0
XAxis mode: Wavelengths
Number of Pixels in Spectrum: 2048
>>>>>Begin Spectral Data<<<<<
187.103	-180.87
187.574	-180.87
188.045	-180.87
188.516	-146.72
188.987	-67.11
189.458	-158.1
189.929	-92.69
190.4	-15.97
190.871	-67.11
191.342	-141.03
191.813	-106.9
192.284	-7.45
192.754	-24.49
193.225	-10.29
193.696	-47.22
194.166	43.64
194.637	114.54
195.107	123.05
195.578	69.17
196.048	128.72
196.518	191.05
196.989	176.88
197.459	236.34
197.929	193.88
198.399	312.72
198.869	270.3
199.339	208.03
199.809	360.76
200.279	363.59
200.749	275.95
201.219	338.16
201.689	324.02
202.159	383.36
202.628	335.33
203.098	290.1
203.568	321.2
204.037	445.48
204.507	372.07
204.976	372.07
205.445	315.54
205.915	363.59
206.384	312.72
206.853	462.41
207.323	321.2
207.792	309.89
208.261	442.66
208.73	349.46
209.199	349.46
209.668	357.94
210.137	380.54
210.606	408.78
211.075	405.96
211.543	360.76
212.012	389.01
212.481	287.27
212.95	357.94
213.418	405.96
213.887	389.01
214.355	374.89
214.824	380.54
215.292	343.81
215.76	253.32
216.229	340.98
216.697	324.02
217.165	326.85
217.633	256.15
218.101	318.37
218.569	431.37
219.037	434.19
219.505	422.9
219.973	332.5
220.441	244.83
220.909	307.06
221.377	324.02
221.844	312.72
222.312	301.41
222.78	321.2
223.247	391.84
223.715	264.64
224.182	304.23
224.65	309.89
225.117	357.94
225.584	326.85
226.052	335.33
226.519	343.81
226.986	307.06
227.453	275.95
227.92	343.81
228.387	411.61
228.854	352.29
229.321	386.19
229.788	346.64
230.255	256.15
230.722	374.89
231.189	357.94
231.655	307.06
232.122	349.46
232.589	253.32
233.055	431.37
233.522	462.41
233.988	363.59
234.454	298.58
234.921	340.98
235.387	397.49
235.853	372.07
236.32	329.68
236.786	386.19
237.252	295.75
237.718	431.37
238.184	372.07
238.65	346.64
239.116	335.33
239.582	335.33
240.047	250.49
240.513	411.61
240.979	326.85
241.445	338.16
241.91	343.81
242.376	227.85
242.841	340.98
243.307	304.23
243.772	304.23
244.238	448.3
244.703	504.72
245.168	363.59
245.633	304.23
246.099	343.81
246.564	270.3
247.029	417.25
247.494	352.29
247.959	349.46
248.424	284.44
248.889	298.58
249.353	400.31
249.818	346.64
250.283	287.27
250.748	363.59
251.212	301.41
251.677	363.59
252.141	304.23
252.606	261.81
253.07	329.68
253.535	275.95
253.999	307.06
254.463	343.81
254.927	346.64
255.392	227.85
255.856	391.84
256.32	329.68
256.784	273.12
257.248	315.54
257.712	301.41
258.176	451.12
258.64	352.29
259.103	324.02
259.567	366.42
260.031	309.89
260.495	315.54
260.958	357.94
261.422	349.46
261.885	380.54
262.349	352.29
262.812	389.01
263.275	338.16
263.739	355.11
264.202	383.36
264.665	324.02
265.128	227.85
265.591	315.54
266.054	352.29
266.517	422.9
266.98	338.16
267.443	222.19
267.906	264.64
268.369	329.68
268.832	352.29
269.294	405.96
269.757	309.89
270.22	290.1
270.682	357.94
271.145	374.89
271.607	332.5
272.07	414.43
272.532	389.01
272.994	332.5
273.456	391.84
273.919	662.48
274.381	355.11
274.843	437.01
275.305	414.43
275.767	338.16
276.229	501.9
276.691	369.24
277.153	394.66
277.614	230.68
278.076	304.23
278.538	295.75
279	366.42
279.461	343.81
279.923	414.43
280.384	355.11
280.846	357.94
281.307	380.54
281.769	363.59
282.23	360.76
282.691	391.84
283.152	439.84
283.613	383.36
284.075	273.12
284.536	439.84
284.997	405.96
285.458	349.46
285.918	309.89
286.379	487.8
286.84	428.54
287.301	383.36
287.762	360.76
288.222	357.94
288.683	329.68
289.143	338.16
289.604	355.11
290.064	343.81
290.525	372.07
290.985	465.23
291.445	428.54
291.906	290.1
292.366	312.72
292.826	326.85
293.286	408.78
293.746	338.16
294.206	400.31
294.666	338.16
295.126	360.76
295.586	408.78
296.046	309.89
296.506	408.78
296.965	383.36
297.425	298.58
297.884	453.95
298.344	346.64
298.804	476.52
299.263	383.36
299.722	340.98
300.182	403.13
300.641	394.66
301.1	301.41
301.559	355.11
302.019	369.24
302.478	411.61
302.937	405.96
303.396	355.11
303.855	561.1
304.314	343.81
304.772	611.81
305.231	372.07
305.69	346.64
306.149	321.2
306.607	340.98
307.066	352.29
307.524	428.54
307.983	372.07
308.441	414.43
308.9	470.88
309.358	420.08
309.816	535.74
310.275	332.5
310.733	338.16
311.191	422.9
311.649	340.98
312.107	403.13
312.565	431.37
313.023	332.5
313.481	363.59
313.939	340.98
314.397	343.81
314.854	346.64
315.312	335.33
315.77	397.49
316.227	357.94
316.685	352.29
317.142	287.27
317.6	422.9
318.057	397.49
318.514	389.01
318.972	312.72
319.429	397.49
319.886	318.37
320.343	340.98
320.8	442.66
321.257	349.46
321.714	403.13
322.171	437.01
322.628	357.94
323.085	346.64
323.542	309.89
323.998	394.66
324.455	270.3
324.912	411.61
325.368	366.42
325.825	403.13
326.281	394.66
326.738	434.19
327.194	391.84
327.65	273.12
328.107	349.46
328.563	372.07
329.019	420.08
329.475	270.3
329.931	369.24
330.387	287.27
330.843	270.3
331.299	374.89
331.755	377.72
332.211	377.72
332.666	403.13
333.122	405.96
333.578	352.29
334.033	290.1
334.489	425.72
334.944	281.61
335.4	490.62
335.855	459.59
336.31	389.01
336.766	292.92
337.221	338.16
337.676	397.49
338.131	377.72
338.586	403.13
339.041	372.07
339.496	360.76
339.951	403.13
340.406	403.13
340.861	394.66
341.316	389.01
341.771	383.36
342.225	366.42
342.68	355.11
343.134	355.11
343.589	301.41
344.043	405.96
344.498	357.94
344.952	329.68
345.406	679.36
345.861	383.36
346.315	298.58
346.769	422.9
347.223	335.33
347.677	301.41
348.131	366.42
348.585	346.64
349.039	431.37
349.493	377.72
349.947	372.07
350.401	448.3
350.854	360.76
351.308	521.64
351.762	380.54
352.215	445.48
352.669	281.61
353.122	366.42
353.575	250.49
354.029	366.42
354.482	261.81
354.935	264.64
355.388	397.49
355.842	380.54
356.295	482.16
356.748	482.16
357.201	346.64
357.654	386.19
358.106	360.76
358.559	292.92
359.012	355.11
359.465	338.16
359.917	357.94
360.37	445.48
360.823	366.42
361.275	329.68
361.728	349.46
362.18	355.11
362.632	408.78
363.085	340.98
363.537	380.54
363.989	219.36
364.441	425.72
364.893	357.94
365.345	357.94
365.797	321.2
366.249	453.95
366.701	456.77
367.153	281.61
367.605	309.89
368.057	278.78
368.508	369.24
368.96	357.94
369.411	338.16
369.863	482.16
370.314	405.96
370.766	389.01
371.217	389.01
371.669	389.01
372.12	530.1
372.571	315.54
373.022	295.75
373.473	307.06
373.924	335.33
374.375	366.42
374.826	428.54
375.277	420.08
375.728	307.06
376.179	343.81
376.63	363.59
377.08	355.11
377.531	346.64
377.981	273.12
378.432	425.72
378.883	420.08
379.333	324.02
379.783	360.76
380.234	312.72
380.684	332.5
381.134	431.37
381.584	400.31
382.034	377.72
382.485	422.9
382.935	403.13
383.385	487.8
383.834	335.33
384.284	301.41
384.734	352.29
385.184	422.9
385.634	301.41
386.083	468.05
386.533	394.66
386.982	335.33
387.432	442.66
387.881	292.92
388.331	352.29
388.78	468.05
389.229	366.42
389.679	335.33
390.128	400.31
390.577	318.37
391.026	363.59
391.475	352.29
391.924	236.34
392.373	312.72
392.822	386.19
393.27	380.54
393.719	397.49
394.168	383.36
394.617	462.41
395.065	386.19
395.514	417.25
395.962	380.54
396.411	343.81
396.859	315.54
397.307	391.84
397.756	349.46
398.204	355.11
398.652	380.54
399.1	366.42
399.548	377.72
399.996	575.19
400.444	290.1
400.892	264.64
401.34	369.24
401.788	329.68
402.236	253.32
402.683	338.16
403.131	369.24
403.579	445.48
404.026	307.06
404.474	391.84
404.921	383.36
405.369	428.54
405.816	403.13
406.263	403.13
406.71	360.76
407.158	304.23
407.605	343.81
408.052	355.11
408.499	360.76
408.946	377.72
409.393	326.85
409.84	369.24
410.286	352.29
410.733	394.66
411.18	369.24
411.626	400.31
412.073	394.66
412.52	346.64
412.966	411.61
413.413	383.36
413.859	363.59
414.305	372.07
414.752	411.61
415.198	363.59
415.644	360.76
416.09	357.94
416.536	292.92
416.982	335.33
417.428	397.49
417.874	366.42
418.32	360.76
418.766	315.54
419.211	264.64
419.657	403.13
420.103	357.94
420.548	315.54
420.994	451.12
421.439	369.24
421.885	292.92
422.33	372.07
422.776	383.36
423.221	417.25
423.666	332.5
424.111	445.48
424.556	456.77
425.001	281.61
425.446	315.54
425.891	397.49
426.336	318.37
426.781	437.01
427.226	343.81
427.671	468.05
428.115	346.64
428.56	431.37
429.005	428.54
429.449	391.84
429.894	437.01
430.338	411.61
430.782	301.41
431.227	338.16
431.671	372.07
432.115	417.25
432.559	335.33
433.003	360.76
433.447	411.61
433.891	321.2
434.335	366.42
434.779	355.11
435.223	389.01
435.667	369.24
436.111	1105.8
436.554	369.24
436.998	425.72
437.442	357.94
437.885	292.92
438.328	380.54
438.772	343.81
439.215	315.54
439.659	355.11
440.102	343.81
440.545	417.25
440.988	290.1
441.431	275.95
441.874	437.01
442.317	301.41
442.76	417.25
443.203	343.81
443.646	273.12
444.089	456.77
444.531	338.16
444.974	372.07
445.417	352.29
445.859	414.43
446.302	386.19
446.744	349.46
447.186	343.81
447.629	403.13
448.071	394.66
448.513	453.95
448.956	428.54
449.398	386.19
449.84	360.76
450.282	451.12
450.724	352.29
451.166	326.85
451.607	493.44
452.049	360.76
452.491	377.72
452.933	329.68
453.374	468.05
453.816	468.05
454.257	377.72
454.699	386.19
455.14	369.24
455.582	244.83
456.023	318.37
456.464	397.49
456.905	386.19
457.347	434.19
457.788	394.66
458.229	403.13
458.67	346.64
459.111	363.59
459.552	352.29
459.992	270.3
460.433	338.16
460.874	338.16
461.315	425.72
461.755	408.78
462.196	411.61
462.636	434.19
463.077	343.81
463.517	338.16
463.957	324.02
464.398	369.24
464.838	318.37
465.278	465.23
465.718	417.25
466.158	422.9
466.598	309.89
467.038	414.43
467.478	476.52
467.918	343.81
468.358	420.08
468.798	431.37
469.237	298.58
469.677	324.02
470.117	431.37
470.556	431.37
470.996	437.01
471.435	329.68
471.874	332.5
472.314	340.98
472.753	357.94
473.192	411.61
473.631	363.59
474.07	340.98
474.509	352.29
474.948	264.64
475.387	414.43
475.826	391.84
476.265	346.64
476.704	391.84
477.143	290.1
477.581	496.26
478.02	411.61
478.458	405.96
478.897	417.25
479.335	445.48
479.774	372.07
480.212	380.54
480.65	428.54
481.089	304.23
481.527	437.01
481.965	377.72
482.403	400.31
482.841	281.61
483.279	394.66
483.717	501.9
484.155	346.64
484.592	369.24
485.03	411.61
485.468	445.48
485.905	397.49
486.343	304.23
486.781	405.96
487.218	425.72
487.655	465.23
488.093	391.84
488.53	360.76
488.967	394.66
489.405	360.76
489.842	437.01
490.279	411.61
490.716	518.82
491.153	383.36
491.59	411.61
492.027	389.01
492.463	403.13
492.9	377.72
493.337	473.7
493.773	437.01
494.21	448.3
494.647	451.12
495.083	442.66
495.519	456.77
495.956	422.9
496.392	535.74
496.828	535.74
497.265	442.66
497.701	437.01
498.137	357.94
498.573	465.23
499.009	437.01
499.445	504.72
499.881	468.05
500.316	496.26
500.752	470.88
501.188	575.19
501.624	468.05
502.059	516
502.495	372.07
502.93	389.01
503.366	1181.3
503.801	499.08
504.236	496.26
504.672	490.62
505.107	442.66
505.542	411.61
505.977	448.3
506.412	451.12
506.847	335.33
507.282	442.66
507.717	510.36
508.152	417.25
508.587	473.7
509.021	541.37
509.456	369.24
509.891	437.01
510.325	451.12
510.76	501.9
511.194	434.19
511.628	473.7
512.063	473.7
512.497	484.98
512.931	482.16
513.366	442.66
513.8	524.46
514.234	445.48
514.668	439.84
515.102	411.61
515.536	476.52
515.969	487.8
516.403	487.8
516.837	513.18
517.271	487.8
517.704	437.01
518.138	578.01
518.571	499.08
519.005	504.72
519.438	549.83
519.871	304.23
520.305	510.36
520.738	476.52
521.171	552.65
521.604	603.36
522.037	569.55
522.47	516
522.903	566.74
523.336	434.19
523.769	510.36
524.202	510.36
524.634	451.12
525.067	459.59
525.5	499.08
525.932	549.83
526.365	459.59
526.797	394.66
527.23	479.34
527.662	459.59
528.094	428.54
528.527	372.07
528.959	445.48
529.391	521.64
529.823	445.48
530.255	524.46
530.687	575.19
531.119	437.01
531.551	437.01
531.982	437.01
532.414	425.72
532.846	484.98
533.277	501.9
533.709	451.12
534.14	547.01
534.572	445.48
535.003	417.25
535.435	437.01
535.866	451.12
536.297	431.37
536.728	442.66
537.159	484.98
537.59	473.7
538.022	434.19
538.452	544.19
538.883	487.8
539.314	377.72
539.745	394.66
540.176	465.23
540.606	465.23
541.037	431.37
541.468	425.72
541.898	417.25
542.328	391.84
542.759	487.8
543.189	493.44
543.619	468.05
544.05	530.1
544.48	405.96
544.91	453.95
545.34	479.34
545.77	476.52
546.2	456.77
546.63	439.84
547.06	442.66
547.489	470.88
547.919	431.37
548.349	476.52
548.778	428.54
549.208	374.89
549.637	428.54
550.067	459.59
550.496	408.78
550.926	411.61
551.355	340.98
551.784	366.42
552.213	389.01
552.642	403.13
553.071	521.64
553.5	374.89
553.929	391.84
554.358	414.43
554.787	411.61
555.216	352.29
555.645	459.59
556.073	422.9
556.502	439.84
556.93	442.66
557.359	295.75
557.787	372.07
558.216	324.02
558.644	417.25
559.072	431.37
559.5	391.84
559.929	451.12
560.357	445.48
560.785	411.61
561.213	391.84
561.641	394.66
562.068	434.19
562.496	425.72
562.924	357.94
563.352	417.25
563.779	422.9
564.207	369.24
564.634	343.81
565.062	405.96
565.489	530.1
565.917	499.08
566.344	445.48
566.771	369.24
567.198	338.16
567.625	343.81
568.053	386.19
568.48	408.78
568.907	360.76
569.333	383.36
569.76	437.01
570.187	476.52
570.614	335.33
571.04	10240.56
571.467	608.99
571.894	439.84
572.32	391.84
572.747	479.34
573.173	476.52
573.599	462.41
574.026	434.19
574.452	445.48
574.878	380.54
575.304	391.84
575.73	479.34
576.156	403.13
576.582	408.78
577.008	394.66
577.434	422.9
577.86	431.37
578.285	343.81
578.711	431.37
579.137	377.72
579.562	386.19
579.988	459.59
580.413	453.95
580.838	442.66
581.264	459.59
581.689	420.08
582.114	524.46
582.539	1318.13
582.964	391.84
583.39	462.41
583.814	482.16
584.239	470.88
584.664	352.29
585.089	247.66
585.514	417.25
585.939	400.31
586.363	411.61
586.788	386.19
587.212	405.96
587.637	479.34
588.061	425.72
588.485	357.94
588.91	346.64
589.334	468.05
589.758	470.88
590.182	451.12
590.606	383.36
591.03	405.96
591.454	448.3
591.878	332.5
592.302	389.01
592.726	468.05
593.15	332.5
593.573	394.66
593.997	499.08
594.42	346.64
594.844	357.94
595.267	403.13
595.691	332.5
596.114	453.95
596.537	321.2
596.96	394.66
597.384	355.11
597.807	357.94
598.23	352.29
598.653	476.52
599.076	349.46
599.499	414.43
599.921	355.11
600.344	369.24
600.767	414.43
601.189	411.61
601.612	309.89
602.034	420.08
602.457	394.66
602.879	592.09
603.302	391.84
603.724	295.75
604.146	414.43
604.568	434.19
604.991	329.68
605.413	366.42
605.835	453.95
606.257	400.31
606.678	380.54
607.1	386.19
607.522	397.49
607.944	470.88
608.365	414.43
608.787	422.9
609.209	493.44
609.63	335.33
610.051	383.36
610.473	428.54
610.894	374.89
611.315	366.42
611.737	422.9
612.158	405.96
612.579	355.11
613	521.64
613.421	340.98
613.842	487.8
614.263	428.54
614.683	397.49
615.104	312.72
615.525	470.88
615.945	431.37
616.366	304.23
616.787	414.43
617.207	372.07
617.627	400.31
618.048	414.43
618.468	326.85
618.888	338.16
619.308	355.11
619.728	380.54
620.148	377.72
620.568	434.19
620.988	468.05
621.408	374.89
621.828	417.25
622.248	437.01
622.668	386.19
623.087	403.13
623.507	239.17
623.926	439.84
624.346	321.2
624.765	403.13
625.185	360.76
625.604	290.1
626.023	258.98
626.442	329.68
626.861	456.77
627.28	338.16
627.699	372.07
628.118	321.2
628.537	442.66
628.956	504.72
629.375	456.77
629.794	372.07
630.212	318.37
630.631	448.3
631.049	332.5
631.468	442.66
631.886	383.36
632.305	357.94
632.723	355.11
633.141	363.59
633.559	397.49
633.978	264.64
634.396	439.84
634.814	352.29
635.232	335.33
635.65	352.29
636.067	397.49
636.485	360.76
636.903	284.44
637.321	383.36
637.738	397.49
638.156	425.72
638.573	315.54
638.991	420.08
639.408	456.77
639.825	295.75
640.243	456.77
640.66	360.76
641.077	335.33
641.494	363.59
641.911	312.72
642.328	374.89
642.745	456.77
643.162	428.54
643.579	386.19
643.995	484.98
644.412	442.66
644.829	318.37
645.245	349.46
645.662	335.33
646.078	360.76
646.495	374.89
646.911	284.44
647.327	400.31
647.743	417.25
648.159	439.84
648.576	261.81
648.992	442.66
649.408	380.54
649.824	343.81
650.239	287.27
650.655	437.01
651.071	346.64
651.487	400.31
651.902	346.64
652.318	301.41
652.733	338.16
653.149	287.27
653.564	329.68
653.979	417.25
654.395	439.84
654.81	343.81
655.225	284.44
655.64	442.66
656.055	355.11
656.47	343.81
656.885	295.75
657.3	374.89
657.715	504.72
658.13	284.44
658.544	414.43
658.959	312.72
659.374	335.33
659.788	383.36
660.202	397.49
660.617	530.1
661.031	349.46
661.445	451.12
661.86	377.72
662.274	431.37
662.688	389.01
663.102	383.36
663.516	400.31
663.93	437.01
664.344	340.98
664.758	374.89
665.171	338.16
665.585	414.43
665.999	372.07
666.412	346.64
666.826	352.29
667.239	417.25
667.653	275.95
668.066	405.96
668.479	389.01
668.892	324.02
669.306	411.61
669.719	335.33
670.132	383.36
670.545	386.19
670.958	366.42
671.37	340.98
671.783	298.58
672.196	434.19
672.609	335.33
673.021	420.08
673.434	340.98
673.846	357.94
674.259	369.24
674.671	377.72
675.084	374.89
675.496	335.33
675.908	321.2
676.32	326.85
676.732	340.98
677.144	442.66
677.556	411.61
677.968	352.29
678.38	389.01
678.792	340.98
679.204	425.72
679.615	324.02
680.027	352.29
680.439	261.81
680.85	403.13
681.262	507.54
681.673	389.01
682.084	369.24
682.496	369.24
682.907	338.16
683.318	343.81
683.729	414.43
684.14	332.5
684.551	372.07
684.962	304.23
685.373	352.29
685.784	355.11
686.194	425.72
686.605	343.81
687.016	417.25
687.426	357.94
687.837	335.33
688.247	389.01
688.657	307.06
689.068	383.36
689.478	309.89
689.888	315.54
690.298	307.06
690.708	312.72
691.118	315.54
691.528	346.64
691.938	366.42
692.348	250.49
692.758	225.02
693.168	389.01
693.577	366.42
693.987	312.72
694.396	324.02
694.806	389.01
695.215	414.43
695.625	357.94
696.034	355.11
696.443	394.66
696.852	340.98
697.262	355.11
697.671	343.81
698.08	346.64
698.489	349.46
698.897	386.19
699.306	352.29
699.715	420.08
700.124	405.96
700.532	411.61
700.941	431.37
701.35	397.49
701.758	516
702.166	326.85
702.575	403.13
702.983	312.72
703.391	442.66
703.799	405.96
704.208	405.96
704.616	349.46
705.024	473.7
705.432	357.94
705.839	332.5
706.247	394.66
706.655	434.19
707.063	287.27
707.47	400.31
707.878	403.13
708.285	389.01
708.693	442.66
709.1	363.59
709.508	312.72
709.915	304.23
710.322	386.19
710.729	442.66
711.136	352.29
711.543	332.5
711.95	225.02
712.357	386.19
712.764	459.59
713.171	357.94
713.578	329.68
713.984	281.61
714.391	335.33
714.797	366.42
715.204	383.36
715.61	374.89
716.017	405.96
716.423	355.11
716.829	408.78
717.236	349.46
717.642	335.33
718.048	332.5
718.454	363.59
718.86	397.49
719.266	462.41
719.671	355.11
720.077	386.19
720.483	312.72
720.889	386.19
721.294	417.25
721.7	352.29
722.105	459.59
722.511	417.25
722.916	369.24
723.321	439.84
723.726	448.3
724.132	304.23
724.537	377.72
724.942	309.89
725.347	422.9
725.752	270.3
726.156	326.85
726.561	352.29
726.966	301.41
727.371	329.68
727.775	389.01
728.18	287.27
728.584	301.41
728.989	428.54
729.393	448.3
729.798	301.41
730.202	352.29
730.606	456.77
731.01	377.72
731.414	315.54
731.818	355.11
732.222	414.43
732.626	414.43
733.03	290.1
733.434	366.42
733.837	386.19
734.241	377.72
734.645	377.72
735.048	343.81
735.452	256.15
735.855	267.47
736.258	386.19
736.662	437.01
737.065	442.66
737.468	332.5
737.871	343.81
738.274	318.37
738.677	372.07
739.08	363.59
739.483	374.89
739.886	374.89
740.289	352.29
740.691	258.98
741.094	374.89
741.497	312.72
741.899	442.66
742.302	374.89
742.704	389.01
743.106	318.37
743.508	304.23
743.911	357.94
744.313	386.19
744.715	397.49
745.117	380.54
745.519	405.96
745.921	479.34
746.323	357.94
746.724	329.68
747.126	405.96
747.528	411.61
747.929	312.72
748.331	417.25
748.732	363.59
749.134	405.96
749.535	374.89
749.936	394.66
750.338	411.61
750.739	397.49
751.14	315.54
751.541	329.68
751.942	349.46
752.343	307.06
752.744	420.08
753.144	349.46
753.545	329.68
753.946	383.36
754.346	397.49
754.747	380.54
755.148	518.82
755.548	352.29
755.948	377.72
756.349	318.37
756.749	366.42
757.149	349.46
757.549	437.01
757.949	357.94
758.349	239.17
758.749	352.29
759.149	389.01
759.549	405.96
759.949	372.07
760.348	482.16
760.748	386.19
761.148	374.89
761.547	326.85
761.947	405.96
762.346	315.54
762.745	408.78
763.145	295.75
763.544	434.19
763.943	473.7
764.342	360.76
764.741	420.08
765.14	340.98
765.539	301.41
765.938	468.05
766.336	377.72
766.735	318.37
767.134	397.49
767.532	287.27
767.931	284.44
768.329	397.49
768.728	431.37
769.126	408.78
769.525	499.08
769.923	329.68
770.321	380.54
770.719	431.37
771.117	307.06
771.515	329.68
771.913	408.78
772.311	422.9
772.709	352.29
773.106	363.59
773.504	312.72
773.902	374.89
774.299	380.54
774.697	527.28
775.094	369.24
775.491	332.5
775.889	267.47
776.286	394.66
776.683	270.3
777.08	247.66
777.477	210.87
777.874	439.84
778.271	372.07
778.668	417.25
779.065	332.5
779.462	383.36
779.858	405.96
780.255	445.48
780.652	439.84
781.048	437.01
781.444	428.54
781.841	360.76
782.237	307.06
782.633	349.46
783.03	332.5
783.426	338.16
783.822	309.89
784.218	363.59
784.614	394.66
785.01	346.64
785.405	355.11
785.801	278.78
786.197	357.94
786.593	360.76
786.988	338.16
787.384	391.84
787.779	343.81
788.174	360.76
788.57	360.76
788.965	360.76
789.36	383.36
789.755	324.02
790.15	355.11
790.545	315.54
790.94	298.58
791.335	372.07
791.73	309.89
792.125	374.89
792.52	355.11
792.914	357.94
793.309	405.96
793.703	386.19
794.098	369.24
794.492	403.13
794.887	315.54
795.281	456.77
795.675	369.24
796.069	473.7
796.463	332.5
796.857	360.76
797.251	324.02
797.645	355.11
798.039	360.76
798.433	380.54
798.826	355.11
799.22	394.66
799.614	318.37
800.007	287.27
800.401	422.9
800.794	357.94
801.187	366.42
801.581	340.98
801.974	261.81
802.367	414.43
802.76	394.66
803.153	278.78
803.546	273.12
803.939	408.78
804.332	383.36
804.725	315.54
805.117	405.96
805.51	369.24
805.903	256.15
806.295	383.36
806.688	270.3
807.08	383.36
807.472	349.46
807.865	338.16
808.257	400.31
808.649	394.66
809.041	343.81
809.433	309.89
809.825	394.66
810.217	324.02
810.609	445.48
811.001	386.19
811.392	420.08
811.784	411.61
812.175	298.58
812.567	442.66
812.958	448.3
813.35	352.29
813.741	284.44
814.132	459.59
814.524	346.64
814.915	360.76
815.306	312.72
815.697	290.1
816.088	383.36
816.479	518.82
816.87	456.77
817.26	394.66
817.651	366.42
818.042	383.36
818.432	372.07
818.823	408.78
819.213	451.12
819.604	408.78
819.994	343.81
820.384	315.54
820.775	346.64
821.165	349.46
821.555	295.75
821.945	403.13
822.335	338.16
822.725	315.54
823.114	389.01
823.504	374.89
823.894	360.76
824.284	349.46
824.673	326.85
825.063	437.01
825.452	307.06
825.842	428.54
826.231	501.9
826.62	332.5
827.009	394.66
827.399	369.24
827.788	383.36
828.177	397.49
828.566	335.33
828.954	496.26
829.343	479.34
829.732	366.42
830.121	566.74
830.509	417.25
830.898	394.66
831.286	329.68
831.675	374.89
832.063	442.66
832.452	338.16
832.84	287.27
833.228	340.98
833.616	346.64
834.004	352.29
834.392	417.25
834.78	307.06
835.168	278.78
835.556	417.25
835.944	397.49
836.331	422.9
836.719	408.78
837.107	451.12
837.494	507.54
837.881	346.64
838.269	352.29
838.656	261.81
839.043	355.11
839.431	479.34
839.818	349.46
840.205	352.29
840.592	307.06
840.979	420.08
841.366	312.72
841.752	394.66
842.139	346.64
842.526	357.94
842.912	420.08
843.299	321.2
843.685	445.48
844.072	372.07
844.458	405.96
844.844	284.44
845.231	408.78
845.617	363.59
846.003	400.31
846.389	355.11
846.775	318.37
847.161	431.37
847.547	352.29
847.933	414.43
848.318	352.29
848.704	301.41
849.09	357.94
849.475	408.78
849.861	411.61
850.246	329.68
850.631	411.61
851.017	405.96
851.402	420.08
851.787	307.06
852.172	431.37
852.557	307.06
852.942	253.32
853.327	425.72
853.712	397.49
854.097	420.08
854.481	346.64
854.866	448.3
855.25	383.36
855.635	414.43
856.019	403.13
856.404	377.72
856.788	349.46
857.172	332.5
857.557	451.12
857.941	304.23
858.325	352.29
858.709	468.05
859.093	380.54
859.477	343.81
859.86	451.12
860.244	380.54
860.628	499.08
861.012	394.66
861.395	369.24
861.779	366.42
862.162	405.96
862.545	380.54
862.929	338.16
863.312	468.05
863.695	295.75
864.078	349.46
864.461	394.66
864.844	321.2
865.227	448.3
865.61	340.98
865.993	287.27
866.376	383.36
866.758	324.02
867.141	434.19
867.523	346.64
867.906	425.72
868.288	389.01
868.671	349.46
869.053	335.33
869.435	292.92
869.817	360.76
870.199	267.47
870.581	405.96
870.963	360.76
871.345	400.31
871.727	321.2
872.109	287.27
872.491	315.54
872.872	422.9
873.254	369.24
873.635	335.33
874.017	453.95
874.398	349.46
874.779	425.72
875.161	309.89
875.542	383.36
875.923	335.33
876.304	304.23
876.685	417.25
877.066	357.94
877.447	417.25
877.828	411.61
878.208	428.54
878.589	315.54
878.97	473.7
879.35	338.16
879.731	374.89
880.111	377.72
880.491	321.2
880.872	355.11
881.252	394.66
881.632	420.08
882.012	425.72
882.392	380.54
882.772	425.72
883.152	338.16
883.532	470.88
883.912	360.76
884.291	338.16
884.671	321.2
885.051	338.16
885.43	304.23
885.81	338.16
886.189	366.42
886.568	391.84
886.948	428.54
887.327	377.72
887.706	349.46
888.085	374.89
888.464	343.81
888.843	479.34
889.222	357.94
889.601	422.9
889.979	324.02
890.358	386.19
890.737	437.01
891.115	321.2
891.494	357.94
891.872	439.84
892.25	267.47
892.629	451.12
893.007	453.95
893.385	439.84
893.763	326.85
894.141	422.9
894.519	377.72
894.897	380.54
895.275	349.46
895.653	338.16
896.03	369.24
896.408	284.44
896.786	315.54
897.163	377.72
897.541	411.61
897.918	417.25
898.295	329.68
898.673	242
899.05	374.89
899.427	611.81
899.804	309.89
900.181	312.72
900.558	431.37
900.935	414.43
901.312	340.98
901.688	403.13
902.065	360.76
902.442	335.33
902.818	343.81
903.195	369.24
903.571	400.31
903.947	332.5
904.324	372.07
904.7	465.23
905.076	439.84
905.452	227.85
905.828	335.33
906.204	338.16
906.58	369.24
906.956	405.96
907.331	442.66
907.707	383.36
908.083	394.66
908.458	490.62
908.834	338.16
909.209	329.68
909.585	366.42
909.96	332.5
910.335	380.54
910.71	332.5
911.086	329.68
911.461	437.01
911.836	227.85
912.21	315.54
912.585	403.13
912.96	357.94
913.335	332.5
913.709	397.49
914.084	366.42
914.459	439.84
914.833	355.11
915.207	391.84
915.582	420.08
915.956	267.47
916.33	292.92
916.704	369.24
917.078	349.46
917.452	386.19
917.826	292.92
918.2	389.01
918.574	275.95
918.948	247.66
919.321	267.47
919.695	394.66
920.068	380.54
920.442	408.78
920.815	360.76
921.189	309.89
921.562	422.9
921.935	389.01
922.308	340.98
922.681	389.01
923.054	403.13
923.427	386.19
923.8	329.68
924.173	340.98
924.546	369.24
924.919	321.2
925.291	357.94
925.664	397.49
926.036	335.33
926.409	309.89
926.781	335.33
927.153	360.76
927.526	420.08
927.898	332.5
928.27	222.19
928.642	321.2
929.014	338.16
929.386	374.89
929.758	403.13
930.129	377.72
930.501	448.3
930.873	315.54
931.244	352.29
931.616	394.66
931.987	346.64
932.359	434.19
932.73	389.01
933.101	391.84
933.472	332.5
933.843	321.2
934.214	442.66
934.585	397.49
934.956	411.61
935.327	437.01
935.698	403.13
936.069	408.78
936.439	357.94
936.81	357.94
937.18	389.01
937.551	298.58
937.921	453.95
938.292	456.77
938.662	309.89
939.032	482.16
939.402	324.02
939.772	335.33
940.142	335.33
940.512	301.41
940.882	366.42
941.252	394.66
941.621	360.76
941.991	417.25
942.361	366.42
942.73	403.13
943.1	338.16
943.469	411.61
943.838	479.34
944.208	403.13
944.577	258.98
944.946	349.46
945.315	357.94
945.684	397.49
946.053	400.31
946.422	372.07
946.791	292.92
947.159	400.31
947.528	374.89
947.897	374.89
948.265	338.16
948.634	405.96
949.002	453.95
949.371	346.64
949.739	391.84
950.107	377.72
950.475	377.72
950.843	403.13
951.211	349.46
951.579	338.16
951.947	318.37
952.315	278.78
952.683	389.01
953.05	275.95
953.418	394.66
953.785	295.75
954.153	422.9
954.52	324.02
954.888	363.59
955.255	405.96
955.622	340.98
955.989	408.78
956.356	456.77
956.723	352.29
957.09	394.66
957.457	312.72
957.824	437.01
958.191	290.1
958.557	386.19
958.924	281.61
959.291	400.31
959.657	309.89
960.023	558.28
960.39	290.1
960.756	355.11
961.122	459.59
961.488	357.94
961.855	335.33
962.221	417.25
962.586	324.02
962.952	405.96
963.318	332.5
963.684	501.9
964.05	417.25
964.415	355.11
964.781	326.85
965.146	374.89
965.512	374.89
965.877	468.05
966.242	380.54
966.608	355.11
966.973	425.72
967.338	374.89
967.703	346.64
968.068	264.64
968.433	420.08
968.797	473.7
969.162	295.75
969.527	417.25
969.891	284.44
970.256	312.72
970.62	281.61
970.985	357.94
971.349	298.58
971.714	386.19
972.078	349.46
972.442	292.92
972.806	298.58
973.17	386.19
973.534	301.41
973.898	400.31
974.262	377.72
974.625	324.02
974.989	363.59
975.353	366.42
975.716	374.89
976.08	329.68
976.443	394.66
976.806	437.01
977.17	335.33
977.533	284.44
977.896	261.81
978.259	422.9
978.622	541.37
978.985	445.48
979.348	352.29
979.711	397.49
980.073	357.94
980.436	389.01
980.799	346.64
981.161	363.59
981.524	346.64
981.886	304.23
982.248	403.13
982.611	383.36
982.973	403.13
983.335	349.46
983.697	275.95
984.059	338.16
984.421	298.58
984.783	332.5
985.145	309.89
985.506	205.2
985.868	422.9
986.23	307.06
986.591	374.89
986.953	391.84
987.314	324.02
987.675	340.98
988.037	6398.47
988.398	572.37
988.759	321.2
989.12	343.81
989.481	307.06
989.842	324.02
990.203	411.61
990.564	357.94
990.924	278.78
991.285	6107.8
991.646	524.46
992.006	290.1
992.367	377.72
992.727	428.54
993.087	321.2
993.448	425.72
993.808	349.46
994.168	425.72
994.528	360.76
994.888	329.68
995.248	377.72
995.608	349.46
995.967	377.72
996.327	372.07
996.687	357.94
997.046	346.64
997.406	422.9
997.765	318.37
998.125	394.66
998.484	287.27
998.843	462.41
999.202	318.37
999.561	273.12
999.92	304.23
1000.279	295.75
1000.638	287.27
1000.997	374.89
1001.356	352.29
1001.715	372.07
1002.073	340.98
1002.432	403.13
1002.79	307.06
1003.149	340.98
1003.507	462.41
1003.865	324.02
1004.224	468.05
1004.582	391.84
1004.94	431.37
1005.298	377.72
1005.656	298.58
1006.014	346.64
1006.371	360.76
1006.729	340.98
1007.087	476.52
1007.445	357.94
1007.802	439.84
1008.16	326.85
1008.517	369.24
1008.874	340.98
1009.232	394.66
1009.589	625.88
1009.946	360.76
1010.303	264.64
1010.66	386.19
1011.017	394.66
1011.374	448.3
1011.731	298.58
1012.087	312.72
1012.444	335.33
1012.801	389.01
1013.157	326.85
1013.513	284.44
1013.87	343.81
1014.226	389.01
1014.582	335.33
1014.939	377.72
1015.295	324.02
1015.651	386.19
1016.007	273.12
1016.363	383.36
1016.719	318.37
1017.074	315.54
1017.43	273.12
1017.786	453.95
1018.141	298.58
1018.497	425.72
1018.852	372.07
1019.208	386.19
1019.563	278.78
1019.918	346.64
1020.273	383.36
1020.628	394.66
1020.983	290.1
1021.338	309.89
1021.693	281.61
1022.048	343.81
1022.403	298.58
1022.757	349.46
1023.112	374.89
1023.467	230.68
1023.821	391.84
1024.175	290.1
1024.53	383.36
1024.884	374.89
1025.238	318.37
1025.592	360.76
1025.946	332.5
1026.3	400.31
1026.654	340.98
1027.008	403.13
1027.362	473.7
1027.716	312.72
1028.069	329.68
1028.423	335.33
1028.777	360.76
1029.13	355.11
1029.483	360.76
1029.837	420.08
1030.19	394.66
1030.543	360.76
1030.896	324.02
1031.249	315.54
1031.602	380.54
1031.955	400.31
1032.308	355.11
1032.661	411.61
1033.013	400.31
1033.366	326.85
1033.719	391.84
1034.071	324.02
1034.424	340.98
1034.776	250.49
1035.128	355.11
1035.48	434.19
1035.833	434.19
1036.185	312.72
1036.537	312.72
1036.889	312.72
