Data from SCSF78-405_irradiation_FLMS019251_00-16-27-941.txt Node
Date: Sat Feb 23 00:16:27 PST 2019
User: mu3e
Spectrometer: FLMS01925
Trigger mode: 0
Integration Time (sec): 1.206000E-2
Scans to average: 10
Electric dark correction enabled: true
Nonlinearity correction enabled: true
Boxcar width: 0
XAxis mode: Wavelengths
Number of Pixels in Spectrum: 2048
>>>>>Begin Spectral Data<<<<<
187.103	-105.14
187.574	-105.14
188.045	-105.14
188.516	-137.56
188.987	-133.87
189.458	-102.87
189.929	-113.11
190.4	-125.62
190.871	-125.9
191.342	-88.37
191.813	-69.9
192.284	-52.28
192.754	-20.18
193.225	9.92
193.696	39.72
194.166	53.34
194.637	92.77
195.107	78.59
195.578	118
196.048	153.42
196.518	151.44
196.989	170.42
197.459	184.02
197.929	239.79
198.399	269.5
198.869	262.71
199.339	279.68
199.809	300.05
200.279	331.14
200.749	320.12
201.219	371.55
201.689	344.99
202.159	362.23
202.628	352.34
203.098	362.23
203.568	404.32
204.037	391.61
204.507	390.76
204.976	384.83
205.445	389.63
205.915	393.3
206.384	391.04
206.853	390.76
207.323	364.77
207.792	406.86
208.261	366.19
208.73	381.44
209.199	373.53
209.668	386.81
210.137	392.74
210.606	358.84
211.075	371.55
211.543	360.82
212.012	364.77
212.481	341.04
212.95	364.49
213.418	370.99
213.887	356.86
214.355	351.78
214.824	350.65
215.292	354.04
215.76	326.9
216.229	354.6
216.697	344.71
217.165	337.36
217.633	329.73
218.101	350.36
218.569	334.25
219.037	335.38
219.505	356.01
219.973	366.47
220.441	344.15
220.909	322.66
221.377	341.88
221.844	335.38
222.312	328.6
222.78	333.97
223.247	365.9
223.715	363.36
224.182	339.62
224.65	368.16
225.117	351.49
225.584	338.49
226.052	340.75
226.519	349.8
226.986	338.21
227.453	360.82
227.92	382.57
228.387	367.88
228.854	368.16
229.321	345.84
229.788	346.41
230.255	354.32
230.722	355.17
231.189	362.23
231.655	356.3
232.122	371.55
232.589	358.56
233.055	365.62
233.522	366.75
233.988	339.34
234.454	357.14
234.921	363.93
235.387	379.75
235.853	375.23
236.32	389.07
236.786	367.32
237.252	365.34
237.718	369.29
238.184	363.36
238.65	330.3
239.116	351.49
239.582	383.7
240.047	380.88
240.513	367.03
240.979	377.2
241.445	359.4
241.91	344.43
242.376	367.88
242.841	343.86
243.307	351.21
243.772	366.47
244.238	378.05
244.703	356.58
245.168	349.8
245.633	364.77
246.099	374.66
246.564	377.2
247.029	359.97
247.494	380.03
247.959	384.27
248.424	359.97
248.889	364.49
249.353	361.38
249.818	361.67
250.283	366.47
250.748	355.17
251.212	372.68
251.677	383.7
252.141	353.75
252.606	379.46
253.07	381.72
253.535	354.88
253.999	376.64
254.463	381.72
254.927	368.73
255.392	351.21
255.856	359.69
256.32	378.05
256.784	346.12
257.248	348.95
257.712	349.52
258.176	373.25
258.64	411.38
259.103	377.2
259.567	382.29
260.031	363.93
260.495	381.16
260.958	379.18
261.422	356.3
261.885	367.6
262.349	367.03
262.812	377.49
263.275	372.68
263.739	370.71
264.202	359.4
264.665	371.27
265.128	374.38
265.591	381.44
266.054	369.58
266.517	398.67
266.98	361.1
267.443	372.4
267.906	369.86
268.369	382.57
268.832	369.29
269.294	400.65
269.757	366.19
270.22	370.71
270.682	385.96
271.145	391.89
271.607	380.59
272.07	380.31
272.532	370.99
272.994	397.54
273.456	374.1
273.919	383.42
274.381	372.4
274.843	360.25
275.305	377.77
275.767	370.14
276.229	374.1
276.691	383.14
277.153	367.88
277.614	375.23
278.076	373.53
278.538	396.69
279	391.89
279.461	386.24
279.923	391.04
280.384	387.94
280.846	393.87
281.307	398.67
281.769	356.86
282.23	401.21
282.691	394.43
283.152	375.23
283.613	373.53
284.075	384.27
284.536	386.81
284.997	369.86
285.458	385.96
285.918	389.35
286.379	400.36
286.84	381.16
287.301	371.84
287.762	361.67
288.222	379.75
288.683	384.27
289.143	393.02
289.604	373.25
290.064	370.14
290.525	392.17
290.985	373.81
291.445	374.38
291.906	382.01
292.366	411.38
292.826	396.41
293.286	380.03
293.746	383.7
294.206	395
294.666	383.42
295.126	380.59
295.586	387.65
296.046	379.46
296.506	409.12
296.965	397.54
297.425	416.46
297.884	396.97
298.344	377.77
298.804	410.25
299.263	382.85
299.722	380.03
300.182	379.18
300.641	411.09
301.1	393.87
301.559	408.27
302.019	412.51
302.478	426.9
302.937	404.6
303.396	362.51
303.855	386.52
304.314	398.67
304.772	406.86
305.231	389.63
305.69	393.87
306.149	417.02
306.607	368.16
307.066	377.77
307.524	387.94
307.983	400.36
308.441	389.91
308.9	397.82
309.358	406.29
309.816	374.1
310.275	392.17
310.733	384.83
311.191	395.84
311.649	403.75
312.107	389.63
312.565	381.16
313.023	394.72
313.481	389.63
313.939	396.41
314.397	385.68
314.854	404.88
315.312	386.81
315.77	393.59
316.227	394.43
316.685	389.91
317.142	408.83
317.6	367.6
318.057	397.82
318.514	407.71
318.972	399.23
319.429	419
319.886	393.87
320.343	388.22
320.8	387.09
321.257	399.8
321.714	413.92
322.171	407.14
322.628	407.42
323.085	393.3
323.542	397.82
323.998	422.1
324.455	410.81
324.912	371.84
325.368	392.74
325.825	398.39
326.281	377.2
326.738	396.97
327.194	404.6
327.65	398.1
328.107	409.12
328.563	400.65
329.019	384.27
329.475	393.02
329.931	415.05
330.387	391.33
330.843	399.8
331.299	412.22
331.755	400.36
332.211	413.92
332.666	397.54
333.122	405.45
333.578	389.63
334.033	400.08
334.489	398.95
334.944	376.92
335.4	407.99
335.855	392.17
336.31	378.9
336.766	376.64
337.221	402.9
337.676	385.96
338.131	402.06
338.586	382.57
339.041	383.98
339.496	409.4
339.951	403.75
340.406	406.01
340.861	401.21
341.316	395
341.771	394.43
342.225	387.09
342.68	407.99
343.134	402.34
343.589	406.86
344.043	411.66
344.498	405.45
344.952	373.25
345.406	398.95
345.861	407.99
346.315	403.19
346.769	430.86
347.223	407.99
347.677	398.67
348.131	408.55
348.585	406.29
349.039	420.69
349.493	415.89
349.947	413.92
350.401	404.6
350.854	369.86
351.308	424.08
351.762	387.94
352.215	398.95
352.669	397.82
353.122	392.74
353.575	406.86
354.029	400.36
354.482	408.83
354.935	423.52
355.388	393.02
355.842	435.94
356.295	415.33
356.748	417.3
357.201	419.28
357.654	387.65
358.106	391.33
358.559	429.44
359.012	400.65
359.465	420.98
359.917	417.87
360.37	415.61
360.823	406.01
361.275	406.29
361.728	419
362.18	413.35
362.632	413.92
363.085	407.14
363.537	395.56
363.989	421.82
364.441	404.88
364.893	424.65
365.345	396.69
365.797	423.23
366.249	408.83
366.701	409.68
367.153	404.88
367.605	393.3
368.057	405.73
368.508	399.52
368.96	410.25
369.411	444.4
369.863	405.45
370.314	407.71
370.766	417.3
371.217	424.65
371.669	401.21
372.12	397.82
372.571	429.73
373.022	395
373.473	396.41
373.924	409.68
374.375	410.81
374.826	390.76
375.277	389.07
375.728	421.82
376.179	408.55
376.63	408.55
377.08	424.65
377.531	429.16
377.981	411.94
378.432	416.18
378.883	404.03
379.333	439.89
379.783	414.48
380.234	439.89
380.684	404.03
381.134	405.16
381.584	419
382.034	408.83
382.485	407.99
382.935	441.86
383.385	420.13
383.834	435.37
384.284	398.39
384.734	402.34
385.184	422.95
385.634	433.68
386.083	433.68
386.533	420.69
386.982	424.93
387.432	415.61
387.881	407.99
388.331	435.09
388.78	393.59
389.229	402.06
389.679	437.35
390.128	442.15
390.577	434.24
391.026	419
391.475	395.56
391.924	426.9
392.373	427.19
392.822	441.02
393.27	442.43
393.719	427.47
394.168	437.91
394.617	435.94
395.065	443.56
395.514	421.82
395.962	411.09
396.411	434.53
396.859	434.24
397.307	437.35
397.756	451.18
398.204	444.12
398.652	422.67
399.1	424.08
399.548	455.97
399.996	458.23
400.444	431.7
400.892	426.34
401.34	444.4
401.788	444.12
402.236	439.89
402.683	424.08
403.131	440.45
403.579	465.29
404.026	470.36
404.474	442.71
404.921	456.82
405.369	481.08
405.816	455.97
406.263	441.3
406.71	424.36
407.158	463.59
407.605	493.5
408.052	449.48
408.499	470.08
408.946	484.75
409.393	475.72
409.84	498.29
410.286	497.44
410.733	509.29
411.18	533.53
411.626	556.93
412.073	606.51
412.52	680.82
412.966	740.72
413.413	890.41
413.859	1014.87
414.305	1200.63
414.752	1478.44
415.198	1823.47
415.644	2180.53
416.09	2646.68
416.536	3196.96
416.982	3797.92
417.428	4451.39
417.874	5213.6
418.32	5957.47
418.766	6765.3
419.211	7809.6
419.657	8682.89
420.103	9823.87
420.548	10592.81
420.994	11846.67
421.439	12922.59
421.885	13783.08
422.33	15198.95
422.776	16230.75
423.221	17170.13
423.666	18293.16
424.111	19617.29
424.556	20387.65
425.001	21690.99
425.446	22981.79
425.891	24285.94
426.336	25024.94
426.781	26167.03
427.226	28191.31
427.671	28686.55
428.115	29558.53
428.56	31128.84
429.005	32590.3
429.449	32923.09
429.894	34253.9
430.338	35301.89
430.782	35403.72
431.227	36768.35
431.671	37257.41
432.115	38563.81
432.559	39473.31
433.003	39324.45
433.447	40317.66
433.891	40584.92
434.335	40911.46
434.779	41734.07
435.223	41940.83
435.667	41938.6
436.111	42418.19
436.554	42310.88
436.998	41841.89
437.442	42063.13
437.885	43743.91
438.328	42485.54
438.772	42812.82
439.215	43255.45
439.659	42909.89
440.102	43311.06
440.545	42550.16
440.988	42386.14
441.431	43285.62
441.874	42809.08
442.317	43023.44
442.76	42536.49
443.203	42028.89
443.646	42694.39
444.089	42411.73
444.531	42877.78
444.974	41697.89
445.417	42830.98
445.859	41725.89
446.302	42860.35
446.744	42206.84
447.186	43314.05
447.629	42380.43
448.071	42257.74
448.513	42495.23
448.956	43750.16
449.398	42892.46
449.84	41691.94
450.282	42368.01
450.724	42989.07
451.166	42719.26
451.607	42404.28
452.049	42407.01
452.491	43505.91
452.933	43180.42
453.374	43718.93
453.816	44187.16
454.257	43680.95
454.699	44739.34
455.14	44524
455.582	44142.6
456.023	44125.82
456.464	44276.08
456.905	44878.77
457.347	44874.49
457.788	43944.66
458.229	44071.76
458.67	45113.9
459.111	43236.5
459.552	43351.71
459.992	43178.42
460.433	43004.02
460.874	42013.76
461.315	43169.95
461.755	42205.35
462.196	41945.05
462.636	41144.6
463.077	40863.03
463.517	40969.05
463.957	41230.43
464.398	40793.85
464.838	40991.54
465.278	39874.17
465.718	40052.83
466.158	39071.16
466.598	39442.06
467.038	39079.02
467.478	39591.95
467.918	39699.29
468.358	38922.94
468.798	38553.5
469.237	38578.05
469.677	38699.37
470.117	39338.72
470.556	36997.17
470.996	37536.15
471.435	37580.75
471.874	38418.23
472.314	37987.9
472.753	37056.16
473.192	37273.57
473.631	36923.74
474.07	37277.49
474.509	37169.02
474.948	37397.99
475.387	36720.65
475.826	35950.44
476.265	37479.07
476.704	37122.25
477.143	37363.45
477.581	37011.36
478.02	37647.15
478.458	36547.7
478.897	37032.17
479.335	38096.06
479.774	37544.73
480.212	37701.56
480.65	37639.56
481.089	37482.99
481.527	36973.42
481.965	36497.07
482.403	38434.19
482.841	38101.21
483.279	38176.52
483.717	38083.8
484.155	37630
484.592	38051.18
485.03	38189.03
485.468	37217.74
485.905	37517.78
486.343	37841.77
486.781	37412.2
487.218	36668.05
487.655	36814.11
488.093	35934.31
488.53	37190.56
488.967	36339.1
489.405	36294.6
489.842	35499.46
490.279	35459.16
490.716	35209.6
491.153	35614.26
491.59	34857.34
492.027	34445.9
492.463	33987.28
492.9	33360.03
493.337	33334.91
493.773	33341.74
494.21	32688.55
494.647	32435.97
495.083	31827.44
495.519	31333.68
495.956	31421.95
496.392	30742.51
496.828	30696.41
497.265	29916.86
497.701	30064.02
498.137	29731.61
498.573	28970.46
499.009	29501.88
499.445	28794.56
499.881	28290.82
500.316	28535.27
500.752	27659.03
501.188	27487.96
501.624	27403.75
502.059	26344.6
502.495	26283.29
502.93	26184.44
503.366	26273.72
503.801	25816.14
504.236	25493.76
504.672	25089.34
505.107	24816.44
505.542	24326.8
505.977	24392.77
506.412	23781.47
506.847	24102
507.282	23632.59
507.717	23261.91
508.152	23314.22
508.587	23086.95
509.021	22444.27
509.456	22149.54
509.891	22094.63
510.325	22155.23
510.76	21848.43
511.194	21552.81
511.628	21545.87
512.063	21163.54
512.497	21139.99
512.931	20573.62
513.366	20465.13
513.8	20460.16
514.234	19934.9
514.668	19858.07
515.102	20038.82
515.536	19268.05
515.969	19469.71
516.403	19080.99
516.837	18764.7
517.271	18757.46
517.704	18474.85
518.138	18306.64
518.571	18110.63
519.005	17871.78
519.438	17731.56
519.871	17597.28
520.305	17165.37
520.738	17104.78
521.171	16726.19
521.604	16816.68
522.037	16559.2
522.47	16380.83
522.903	15945.96
523.336	15981.38
523.769	15903.25
524.202	15373.65
524.634	15441.35
525.067	15202.22
525.5	15102.74
525.932	14936.46
526.365	14613.97
526.797	14510.77
527.23	14571.84
527.662	14004.36
528.094	13845.06
528.527	13782.07
528.959	13475.54
529.391	13339.75
529.823	12929.95
530.255	12977.91
530.687	12649.86
531.119	12488.47
531.551	12425.67
531.982	12051.04
532.414	11966.72
532.846	11733.71
533.277	11573.47
533.709	11237.81
534.14	11252.13
534.572	11095.37
535.003	10979.96
535.435	10777.39
535.866	10625.38
536.297	10309.72
536.728	10345.67
537.159	10237.27
537.59	10055
538.022	9919.91
538.452	9709.22
538.883	9551.43
539.314	9460.34
539.745	9197.91
540.176	9141.03
540.606	8889.21
541.037	8927.54
541.468	8726.46
541.898	8658.51
542.328	8541.47
542.759	8339.36
543.189	8364.06
543.619	8220.51
544.05	7998.4
544.48	7896.99
544.91	7871.7
545.34	7698.39
545.77	7593.63
546.2	7553.63
546.63	7417.35
547.06	7408.19
547.489	7226.68
547.919	7088.21
548.349	7063.8
548.778	7027.05
549.208	6870.49
549.637	6756.35
550.067	6648.43
550.496	6663.7
550.926	6547.26
551.355	6359.71
551.784	6426.49
552.213	6274.41
552.642	6158.37
553.071	6143.3
553.5	6093.83
553.929	5874.51
554.358	5871.59
554.787	5831.02
555.216	5728.58
555.645	5671.22
556.073	5553.48
556.502	5525.29
556.93	5442.26
557.359	5378.62
557.787	5340.79
558.216	5275.48
558.644	5204
559.072	5130.59
559.5	5096.94
559.929	5063.82
560.357	5015.71
560.785	4933.61
561.213	4916.22
561.641	4851.98
562.068	4803.23
562.496	4767.33
562.924	4740.26
563.352	4740.52
563.779	4699.77
564.207	4684.22
564.634	4617.14
565.062	4540.07
565.489	4539
565.917	4453.54
566.344	4505.69
566.771	4426.11
567.198	4388.99
567.625	4302.05
568.053	4263
568.48	4209.37
568.907	4174.05
569.333	4090.96
569.76	3972.94
570.187	4010.49
570.614	3881.01
571.04	4044.8
571.467	3823.91
571.894	3814.98
572.32	3678.16
572.747	3601.94
573.173	3579.69
573.599	3565.3
574.026	3432.45
574.452	3426.74
574.878	3374.52
575.304	3308.11
575.73	3228.3
576.156	3196.69
576.582	3180.87
577.008	3114.04
577.434	3050.98
577.86	2987.88
578.285	3004.27
578.711	2930.74
579.137	2886.43
579.562	2800.47
579.988	2778.28
580.413	2690.3
580.838	2671.1
581.264	2707.3
581.689	2654.36
582.114	2606.61
582.539	2579.97
582.964	2514.59
583.39	2501.4
583.814	2447.78
584.239	2431.55
584.664	2395.5
585.089	2360.81
585.514	2308.48
585.939	2281.47
586.363	2285.88
586.788	2215.02
587.212	2181.64
587.637	2163.7
588.061	2170.32
588.485	2120.35
588.91	2097.7
589.334	2042.43
589.758	2046.58
590.182	1959.74
590.606	1950.05
591.03	1924.59
591.454	1899.67
591.878	1868.92
592.302	1931.78
592.726	1843.71
593.15	1861.44
593.573	1799.08
593.997	1783.27
594.42	1731.94
594.844	1746.65
595.267	1724.17
595.691	1698.64
596.114	1665.59
596.537	1624.19
596.96	1665.03
597.384	1651.98
597.807	1596.4
598.23	1584.44
598.653	1573.32
599.076	1618.91
599.499	1561.64
599.921	1515.74
600.344	1556.08
600.767	1481.5
601.189	1532.15
601.612	1512.4
602.034	1520.75
602.457	1469.81
602.879	1462.57
603.302	1449.48
603.724	1459.22
604.146	1438.61
604.568	1406.29
604.991	1447.25
605.413	1449.48
605.835	1402.67
606.257	1376.19
606.678	1414.1
607.1	1392.64
607.522	1429.98
607.944	1407.97
608.365	1374.52
608.787	1320.13
609.209	1293.07
609.63	1325.16
610.051	1303.39
610.473	1288.6
610.894	1313.16
611.315	1298.65
611.737	1263.76
612.158	1255.1
612.579	1228.57
613	1225.78
613.421	1203.43
613.842	1185.26
614.263	1180.79
614.683	1167.38
615.104	1174.64
615.525	1115.92
615.945	1173.53
616.366	1143.05
616.787	1119.28
617.207	1093.82
617.627	1048.76
618.048	1058.56
618.468	1075.91
618.888	1024.68
619.308	1018.79
619.728	1028.32
620.148	998.35
620.568	993.86
620.988	976.49
621.408	993.58
621.828	938.93
622.248	938.09
622.668	959.11
623.087	935.56
623.507	936.12
623.926	904.15
624.346	896.02
624.765	876.38
625.185	901.07
625.604	878.34
626.023	890.97
626.442	887.88
626.861	861.5
627.28	852.52
627.699	832.03
628.118	822.48
628.537	817.43
628.956	797.77
629.375	815.74
629.794	813.21
630.212	829.5
630.631	793.55
631.049	807.88
631.468	796.36
631.886	775.57
632.305	783.72
632.723	746.34
633.141	778.66
633.559	771.64
633.978	773.32
634.396	735.1
634.814	748.03
635.232	717.95
635.65	727.23
636.067	714.01
636.485	729.47
636.903	692.35
637.321	737.35
637.738	730.04
638.156	708.95
638.573	707.82
638.991	678.29
639.408	723.85
639.825	673.22
640.243	705.29
640.66	694.88
641.077	685.32
641.494	666.75
641.911	673.5
642.328	690.67
642.745	688.98
643.162	638.04
643.579	645.64
643.995	643.11
644.412	659.72
644.829	642.55
645.245	638.32
645.662	646.21
646.078	631.85
646.495	616.93
646.911	633.54
647.327	647.33
647.743	628.19
648.159	630.72
648.576	624.81
648.992	596.09
649.408	638.61
649.824	619.74
650.239	601.16
650.655	591.02
651.071	601.44
651.487	597.21
651.902	575.81
652.318	592.43
652.733	558.62
653.149	586.51
653.564	581.44
653.979	557.21
654.395	562.28
654.81	575.52
655.225	568.76
655.64	565.38
656.055	580.31
656.47	557.21
656.885	534.38
657.3	550.16
657.715	548.47
658.13	531
658.544	549.6
658.959	549.04
659.374	550.73
659.788	540.3
660.202	546.5
660.617	522.54
661.031	528.18
661.445	523.1
661.86	545.94
662.274	520.28
662.688	545.94
663.102	540.3
663.516	539.45
663.93	498.57
664.344	531.28
664.758	522.26
665.171	517.75
665.585	502.52
665.999	505.06
666.412	530.72
666.826	545.94
667.239	485.32
667.653	514.08
668.066	487.57
668.479	507.88
668.892	526.77
669.306	506.47
669.719	509.01
670.132	487.29
670.545	493.5
670.958	500.26
671.37	493.78
671.783	494.06
672.196	475.72
672.609	492.65
673.021	499.42
673.434	492.08
673.846	504.21
674.259	504.49
674.671	489.26
675.084	444.4
675.496	478.55
675.908	505.06
676.32	503.93
676.732	484.47
677.144	500.83
677.556	485.32
677.968	495.19
678.38	441.58
678.792	481.37
679.204	460.49
679.615	458.23
680.027	475.44
680.439	465.85
680.85	476.29
681.262	495.75
681.673	463.31
682.084	488.42
682.496	434.53
682.907	443.84
683.318	459.36
683.729	468.95
684.14	467.82
684.551	446.94
684.962	458.23
685.373	470.36
685.784	461.9
686.194	440.45
686.605	452.02
687.016	433.96
687.426	439.04
687.837	426.62
688.247	430.29
688.657	423.52
689.068	466.41
689.478	431.42
689.888	440.73
690.298	450.33
690.708	429.16
691.118	458.51
691.528	425.77
691.938	452.87
692.348	429.73
692.758	438.48
693.168	461.34
693.577	425.49
693.987	442.43
694.396	466.41
694.806	443.84
695.215	463.03
695.625	435.94
696.034	452.87
696.443	452.31
696.852	430.57
697.262	419.56
697.671	438.19
698.08	421.26
698.489	420.98
698.897	424.65
699.306	425.21
699.715	440.17
700.124	436.5
700.532	421.26
700.941	448.64
701.35	410.81
701.758	446.1
702.166	437.35
702.575	434.24
702.983	437.91
703.391	418.15
703.799	422.95
704.208	435.37
704.616	444.12
705.024	412.51
705.432	436.78
705.839	444.4
706.247	422.1
706.655	409.12
707.063	409.96
707.47	422.95
707.878	439.04
708.285	407.42
708.693	425.49
709.1	403.47
709.508	420.41
709.915	420.98
710.322	420.13
710.729	403.47
711.136	428.32
711.543	402.62
711.95	424.08
712.357	407.42
712.764	424.36
713.171	417.87
713.578	422.1
713.984	374.94
714.391	437.63
714.797	409.4
715.204	424.93
715.61	418.72
716.017	422.67
716.423	416.74
716.829	401.78
717.236	404.32
717.642	399.23
718.048	436.78
718.454	397.82
718.86	392.74
719.266	395.84
719.671	396.13
720.077	385.96
720.483	398.95
720.889	394.72
721.294	410.81
721.7	411.66
722.105	398.39
722.511	408.55
722.916	394.15
723.321	403.47
723.726	409.96
724.132	393.02
724.537	413.35
724.942	383.98
725.347	398.1
725.752	409.12
726.156	399.8
726.561	386.52
726.966	430.01
727.371	431.42
727.775	407.14
728.18	394.15
728.584	380.88
728.989	441.86
729.393	412.22
729.798	428.6
730.202	412.51
730.606	404.32
731.01	385.11
731.414	380.31
731.818	381.44
732.222	397.82
732.626	421.82
733.03	370.71
733.434	423.52
733.837	400.65
734.241	383.7
734.645	412.22
735.048	398.95
735.452	387.94
735.855	409.68
736.258	405.16
736.662	411.66
737.065	390.2
737.468	365.9
737.871	416.74
738.274	407.42
738.677	403.75
739.08	415.33
739.483	361.67
739.886	393.87
740.289	384.83
740.691	401.49
741.094	394.72
741.497	404.88
741.899	401.21
742.302	389.07
742.704	394.72
743.106	403.47
743.508	402.9
743.911	406.86
744.313	400.36
744.715	382.85
745.117	405.73
745.519	404.6
745.921	396.97
746.323	398.67
746.724	371.27
747.126	395.84
747.528	389.91
747.929	393.02
748.331	428.32
748.732	403.19
749.134	409.68
749.535	412.22
749.936	409.96
750.338	417.3
750.739	383.42
751.14	402.34
751.541	394.43
751.942	393.87
752.343	395.84
752.744	396.97
753.144	393.02
753.545	410.53
753.946	416.46
754.346	408.83
754.747	398.95
755.148	386.81
755.548	369.01
755.948	387.65
756.349	403.75
756.749	399.23
757.149	391.89
757.549	396.41
757.949	367.03
758.349	399.8
758.749	408.55
759.149	410.53
759.549	413.63
759.949	378.9
760.348	392.46
760.748	393.02
761.148	411.66
761.547	374.94
761.947	402.06
762.346	410.81
762.745	393.59
763.145	387.09
763.544	391.33
763.943	395.28
764.342	382.29
764.741	385.96
765.14	378.05
765.539	373.81
765.938	409.96
766.336	380.31
766.735	391.61
767.134	406.29
767.532	383.42
767.931	388.78
768.329	415.61
768.728	402.62
769.126	410.25
769.525	372.68
769.923	397.82
770.321	371.27
770.719	376.92
771.117	376.07
771.515	383.7
771.913	396.41
772.311	397.54
772.709	381.44
773.106	387.37
773.504	381.72
773.902	403.19
774.299	388.22
774.697	378.9
775.094	390.48
775.491	382.85
775.889	406.01
776.286	366.47
776.683	393.3
777.08	375.51
777.477	366.75
777.874	387.09
778.271	397.26
778.668	390.76
779.065	384.83
779.462	389.07
779.858	378.9
780.255	391.04
780.652	360.25
781.048	419.85
781.444	404.03
781.841	389.91
782.237	381.44
782.633	383.98
783.03	363.08
783.426	400.08
783.822	372.12
784.218	373.25
784.614	393.87
785.01	355.73
785.405	406.58
785.801	390.48
786.197	377.2
786.593	371.27
786.988	376.64
787.384	394.15
787.779	392.74
788.174	395.84
788.57	370.71
788.965	387.65
789.36	392.74
789.755	375.51
790.15	395
790.545	375.51
790.94	369.58
791.335	354.04
791.73	358.56
792.125	386.52
792.52	401.78
792.914	378.05
793.309	388.78
793.703	393.3
794.098	383.14
794.492	366.75
794.887	407.42
795.281	381.72
795.675	379.46
796.069	398.39
796.463	366.19
796.857	359.97
797.251	396.97
797.645	405.16
798.039	395.28
798.433	386.24
798.826	380.88
799.22	387.94
799.614	380.03
800.007	388.5
800.401	389.91
800.794	386.52
801.187	404.88
801.581	386.24
801.974	411.94
802.367	368.45
802.76	383.14
803.153	372.4
803.546	366.75
803.939	382.29
804.332	370.42
804.725	375.79
805.117	396.41
805.51	387.94
805.903	382.85
806.295	379.75
806.688	402.62
807.08	401.78
807.472	393.87
807.865	398.95
808.257	409.12
808.649	374.94
809.041	381.16
809.433	386.81
809.825	369.01
810.217	402.06
810.609	396.13
811.001	381.72
811.392	381.72
811.784	421.54
812.175	388.78
812.567	377.77
812.958	403.19
813.35	386.52
813.741	385.39
814.132	385.39
814.524	360.25
814.915	386.81
815.306	376.36
815.697	382.29
816.088	388.22
816.479	383.42
816.87	378.05
817.26	377.77
817.651	408.27
818.042	380.03
818.432	407.14
818.823	394.43
819.213	395.28
819.604	368.73
819.994	383.7
820.384	381.44
820.775	387.37
821.165	392.17
821.555	383.42
821.945	388.78
822.335	368.16
822.725	399.23
823.114	376.07
823.504	389.63
823.894	366.19
824.284	398.39
824.673	380.03
825.063	406.01
825.452	394.15
825.842	371.55
826.231	383.7
826.62	395.84
827.009	384.27
827.399	368.16
827.788	375.79
828.177	364.49
828.566	358.27
828.954	409.96
829.343	374.66
829.732	378.62
830.121	396.97
830.509	391.33
830.898	383.42
831.286	392.74
831.675	380.03
832.063	396.69
832.452	405.45
832.84	367.03
833.228	385.96
833.616	384.55
834.004	384.55
834.392	383.7
834.78	378.33
835.168	385.39
835.556	362.51
835.944	381.72
836.331	370.99
836.719	392.74
837.107	385.68
837.494	370.99
837.881	379.75
838.269	357.14
838.656	372.97
839.043	381.72
839.431	422.95
839.818	396.41
840.205	348.67
840.592	385.68
840.979	354.04
841.366	387.65
841.752	386.52
842.139	389.35
842.526	394.43
842.912	373.53
843.299	387.65
843.685	376.07
844.072	382.85
844.458	387.09
844.844	394.72
845.231	379.46
845.617	383.7
846.003	383.7
846.389	400.08
846.775	369.86
847.161	393.59
847.547	392.46
847.933	395.28
848.318	374.38
848.704	370.99
849.09	356.58
849.475	370.14
849.861	397.26
850.246	379.46
850.631	365.34
851.017	376.92
851.402	371.84
851.787	385.39
852.172	369.86
852.557	373.81
852.942	362.23
853.327	402.34
853.712	366.19
854.097	390.48
854.481	383.42
854.866	357.43
855.25	380.59
855.635	404.88
856.019	382.85
856.404	384.27
856.788	408.55
857.172	379.75
857.557	377.2
857.941	391.33
858.325	375.51
858.709	383.98
859.093	369.29
859.477	377.49
859.86	403.75
860.244	360.82
860.628	388.5
861.012	373.25
861.395	383.7
861.779	383.98
862.162	393.59
862.545	355.45
862.929	382.85
863.312	409.4
863.695	367.03
864.078	397.82
864.461	357.71
864.844	392.46
865.227	363.64
865.61	375.51
865.993	381.16
866.376	374.94
866.758	367.03
867.141	391.04
867.523	378.05
867.906	370.42
868.288	369.01
868.671	396.13
869.053	382.29
869.435	361.67
869.817	404.88
870.199	391.04
870.581	363.93
870.963	371.27
871.345	378.62
871.727	366.19
872.109	354.04
872.491	393.02
872.872	348.38
873.254	378.62
873.635	382.29
874.017	356.3
874.398	382.01
874.779	404.03
875.161	411.38
875.542	389.63
875.923	396.41
876.304	356.01
876.685	371.84
877.066	357.14
877.447	370.14
877.828	370.14
878.208	356.86
878.589	379.46
878.97	393.3
879.35	396.41
879.731	384.27
880.111	380.88
880.491	399.23
880.872	388.5
881.252	367.03
881.632	374.94
882.012	371.84
882.392	376.92
882.772	374.66
883.152	380.59
883.532	364.77
883.912	370.99
884.291	387.37
884.671	366.75
885.051	366.47
885.43	377.77
885.81	397.82
886.189	379.75
886.568	377.2
886.948	364.77
887.327	375.79
887.706	356.58
888.085	369.86
888.464	357.71
888.843	368.45
889.222	363.64
889.601	360.82
889.979	379.18
890.358	362.51
890.737	355.17
891.115	393.59
891.494	391.33
891.872	382.85
892.25	358.56
892.629	392.74
893.007	358.56
893.385	389.91
893.763	380.31
894.141	366.19
894.519	382.29
894.897	390.48
895.275	370.99
895.653	378.62
896.03	374.94
896.408	373.53
896.786	378.62
897.163	375.79
897.541	370.14
897.918	388.5
898.295	375.23
898.673	384.27
899.05	362.8
899.427	362.51
899.804	354.88
900.181	378.05
900.558	358.84
900.935	361.38
901.312	369.58
901.688	372.12
902.065	385.39
902.442	348.95
902.818	354.6
903.195	378.05
903.571	387.37
903.947	362.51
904.324	363.08
904.7	364.21
905.076	372.97
905.452	378.33
905.828	403.47
906.204	377.2
906.58	380.31
906.956	384.27
907.331	361.95
907.707	389.07
908.083	394.43
908.458	392.74
908.834	397.54
909.209	369.86
909.585	363.36
909.96	393.59
910.335	365.9
910.71	357.43
911.086	389.91
911.461	382.01
911.836	350.36
912.21	371.27
912.585	371.55
912.96	349.23
913.335	359.69
913.709	349.23
914.084	357.43
914.459	376.64
914.833	389.07
915.207	384.27
915.582	361.67
915.956	395.28
916.33	381.44
916.704	384.55
917.078	356.01
917.452	361.38
917.826	356.58
918.2	377.49
918.574	404.03
918.948	370.42
919.321	374.94
919.695	355.73
920.068	376.64
920.442	359.4
920.815	365.9
921.189	391.61
921.562	378.33
921.935	374.38
922.308	367.03
922.681	395.56
923.054	401.49
923.427	397.54
923.8	367.03
924.173	376.36
924.546	386.52
924.919	373.81
925.291	360.82
925.664	361.38
926.036	355.17
926.409	344.71
926.781	375.51
927.153	377.2
927.526	343.86
927.898	329.73
928.27	348.1
928.642	352.91
929.014	371.84
929.386	359.69
929.758	393.02
930.129	375.79
930.501	391.89
930.873	363.08
931.244	372.4
931.616	366.19
931.987	360.25
932.359	360.82
932.73	369.29
933.101	351.49
933.472	394.15
933.843	354.04
934.214	358.84
934.585	364.77
934.956	394.43
935.327	379.18
935.698	355.17
936.069	369.01
936.439	357.99
936.81	376.36
937.18	350.65
937.551	358.56
937.921	361.1
938.292	353.75
938.662	383.14
939.032	389.91
939.402	345.28
939.772	364.21
940.142	377.49
940.512	360.82
940.882	389.63
941.252	372.68
941.621	382.01
941.991	384.83
942.361	370.14
942.73	379.18
943.1	358.56
943.469	380.88
943.838	358.27
944.208	378.62
944.577	356.86
944.946	346.69
945.315	410.53
945.684	362.8
946.053	375.79
946.422	398.1
946.791	376.07
947.159	375.79
947.528	385.96
947.897	351.78
948.265	394.43
948.634	357.99
949.002	377.49
949.371	370.99
949.739	375.51
950.107	365.9
950.475	375.51
950.843	380.88
951.211	380.59
951.579	365.62
951.947	378.62
952.315	378.33
952.683	361.38
953.05	361.95
953.418	352.34
953.785	367.6
954.153	373.25
954.52	376.92
954.888	379.46
955.255	356.01
955.622	398.1
955.989	376.36
956.356	378.62
956.723	361.95
957.09	377.2
957.457	380.59
957.824	352.06
958.191	369.29
958.557	395.56
958.924	365.9
959.291	350.36
959.657	377.77
960.023	372.97
960.39	362.23
960.756	369.86
961.122	371.55
961.488	361.67
961.855	353.19
962.221	373.53
962.586	391.33
962.952	372.4
963.318	396.41
963.684	388.5
964.05	344.99
964.415	376.36
964.781	356.58
965.146	360.25
965.512	364.21
965.877	338.21
966.242	363.36
966.608	369.29
966.973	366.47
967.338	363.08
967.703	363.64
968.068	372.68
968.433	357.71
968.797	378.62
969.162	350.08
969.527	360.54
969.891	377.2
970.256	353.47
970.62	374.38
970.985	380.88
971.349	354.04
971.714	357.71
972.078	375.51
972.442	363.08
972.806	386.24
973.17	352.62
973.534	378.33
973.898	368.73
974.262	382.85
974.625	357.71
974.989	371.84
975.353	368.73
975.716	372.4
976.08	384.83
976.443	379.46
976.806	345.56
977.17	369.01
977.533	365.62
977.896	371.55
978.259	369.58
978.622	373.81
978.985	368.16
979.348	363.93
979.711	387.94
980.073	366.47
980.436	386.52
980.799	378.33
981.161	375.51
981.524	369.58
981.886	363.93
982.248	377.2
982.611	351.78
982.973	375.51
983.335	389.91
983.697	379.18
984.059	344.15
984.421	387.09
984.783	376.64
985.145	352.06
985.506	343.3
985.868	357.71
986.23	366.19
986.591	386.24
986.953	355.45
987.314	373.53
987.675	374.66
988.037	446.38
988.398	373.53
988.759	354.32
989.12	371.27
989.481	372.97
989.842	372.12
990.203	371.84
990.564	370.99
990.924	386.81
991.285	517.18
991.646	365.9
992.006	363.64
992.367	381.44
992.727	382.29
993.087	366.75
993.448	361.38
993.808	376.64
994.168	366.19
994.528	374.66
994.888	380.88
995.248	387.65
995.608	353.47
995.967	375.23
996.327	387.09
996.687	369.58
997.046	366.75
997.406	392.74
997.765	367.6
998.125	365.06
998.484	381.16
998.843	367.88
999.202	364.77
999.561	374.1
999.92	345.84
1000.279	352.34
1000.638	379.18
1000.997	411.66
1001.356	374.38
1001.715	367.32
1002.073	360.54
1002.432	364.21
1002.79	354.6
1003.149	377.49
1003.507	365.9
1003.865	346.97
1004.224	357.14
1004.582	395.28
1004.94	374.1
1005.298	360.54
1005.656	351.78
1006.014	357.14
1006.371	382.29
1006.729	386.24
1007.087	365.9
1007.445	352.91
1007.802	375.23
1008.16	359.4
1008.517	385.96
1008.874	352.91
1009.232	392.17
1009.589	366.19
1009.946	369.29
1010.303	372.97
1010.66	343.3
1011.017	380.88
1011.374	394.43
1011.731	347.82
1012.087	343.02
1012.444	388.22
1012.801	378.62
1013.157	386.52
1013.513	368.45
1013.87	356.58
1014.226	351.21
1014.582	358.27
1014.939	360.82
1015.295	362.23
1015.651	382.85
1016.007	374.38
1016.363	350.08
1016.719	374.94
1017.074	370.14
1017.43	361.1
1017.786	359.97
1018.141	365.06
1018.497	329.17
1018.852	387.37
1019.208	364.49
1019.563	377.49
1019.918	401.78
1020.273	403.47
1020.628	342.17
1020.983	369.58
1021.338	338.49
1021.693	375.23
1022.048	378.9
1022.403	374.66
1022.757	376.64
1023.112	393.02
1023.467	369.86
1023.821	379.18
1024.175	379.46
1024.53	342.45
1024.884	348.38
1025.238	366.47
1025.592	354.6
1025.946	357.14
1026.3	369.86
1026.654	347.82
1027.008	382.01
1027.362	354.6
1027.716	383.42
1028.069	380.31
1028.423	368.73
1028.777	361.67
1029.13	354.88
1029.483	385.11
1029.837	359.69
1030.19	401.21
1030.543	385.11
1030.896	371.27
1031.249	373.81
1031.602	380.03
1031.955	351.49
1032.308	338.21
1032.661	376.07
1033.013	380.31
1033.366	370.42
1033.719	386.24
1034.071	372.97
1034.424	379.75
1034.776	379.75
1035.128	370.71
1035.48	369.01
1035.833	377.49
1036.185	366.75
1036.537	366.75
1036.889	366.75
