Data from SCSF78-405_irradiation_FLMS019251_00-20-27-911.txt Node
Date: Sat Feb 23 00:20:27 PST 2019
User: mu3e
Spectrometer: FLMS01925
Trigger mode: 0
Integration Time (sec): 1.206000E-2
Scans to average: 10
Electric dark correction enabled: true
Nonlinearity correction enabled: true
Boxcar width: 0
XAxis mode: Wavelengths
Number of Pixels in Spectrum: 2048
>>>>>Begin Spectral Data<<<<<
187.103	-111.19
187.574	-111.19
188.045	-111.19
188.516	-128.82
188.987	-133.37
189.458	-116.02
189.929	-147.31
190.4	-127.68
190.871	-92.99
191.342	-83.32
191.813	-49.51
192.284	-24.23
192.754	-27.63
193.225	-5.2
193.696	25.18
194.166	70.29
194.637	82.77
195.107	106.31
195.578	93.55
196.048	125.87
196.518	168.94
196.989	184.23
197.459	189.04
197.929	243.96
198.399	236.04
198.869	284.7
199.339	302.24
199.809	314.68
200.279	350.57
200.749	338.99
201.219	373.18
201.689	340.4
202.159	361.31
202.628	356.51
203.098	386.45
203.568	381.93
204.037	394.93
204.507	391.26
204.976	418.65
205.445	403.4
205.915	386.45
206.384	399.45
206.853	387.87
207.323	393.23
207.792	404.25
208.261	369.79
208.73	396.34
209.199	388.71
209.668	392.67
210.137	382.5
210.606	388.43
211.075	365.55
211.543	382.22
212.012	374.03
212.481	364.14
212.95	386.17
213.418	391.82
213.887	364.14
214.355	356.51
214.824	374.87
215.292	362.16
215.76	387.02
216.229	351.14
216.697	381.93
217.165	325.14
217.633	374.03
218.101	364.7
218.569	325.99
219.037	367.53
219.505	354.53
219.973	326.83
220.441	351.71
220.909	365.83
221.377	346.34
221.844	356.23
222.312	362.44
222.78	344.92
223.247	385.89
223.715	352.27
224.182	353.68
224.65	347.75
225.117	356.51
225.584	340.97
226.052	333.34
226.519	355.38
226.986	351.99
227.453	369.79
227.92	383.35
228.387	375.44
228.854	351.14
229.321	343.79
229.788	375.72
230.255	352.27
230.722	345.77
231.189	353.12
231.655	355.1
232.122	361.03
232.589	346.34
233.055	355.1
233.522	366.4
233.988	371.2
234.454	364.14
234.921	342.1
235.387	364.7
235.853	364.7
236.32	359.62
236.786	381.37
237.252	351.71
237.718	353.97
238.184	372.05
238.65	379.39
239.116	355.94
239.582	345.21
240.047	357.92
240.513	360.46
240.979	389.56
241.445	374.59
241.91	387.58
242.376	393.8
242.841	384.19
243.307	376.29
243.772	392.95
244.238	390.41
244.703	358.2
245.168	370.07
245.633	352.27
246.099	362.16
246.564	354.81
247.029	374.87
247.494	366.12
247.959	354.81
248.424	351.14
248.889	358.77
249.353	376.57
249.818	373.18
250.283	375.16
250.748	373.46
251.212	372.05
251.677	373.74
252.141	360.46
252.606	399.16
253.07	361.59
253.535	384.76
253.999	381.65
254.463	370.64
254.927	375.72
255.392	353.4
255.856	361.88
256.32	348.6
256.784	350.86
257.248	367.81
257.712	367.81
258.176	389.28
258.64	376.29
259.103	385.89
259.567	381.09
260.031	368.94
260.495	372.9
260.958	388.43
261.422	397.19
261.885	388.43
262.349	388.71
262.812	386.45
263.275	395.77
263.739	364.99
264.202	349.73
264.665	361.59
265.128	386.45
265.591	361.59
266.054	353.97
266.517	379.68
266.98	400.29
267.443	378.83
267.906	388.15
268.369	383.63
268.832	407.35
269.294	371.2
269.757	386.17
270.22	374.59
270.682	361.59
271.145	395.49
271.607	379.68
272.07	382.78
272.532	366.96
272.994	379.68
273.456	379.11
273.919	390.41
274.381	409.05
274.843	403.12
275.305	404.53
275.767	383.63
276.229	387.87
276.691	354.25
277.153	401.42
277.614	401.7
278.076	372.33
278.538	381.65
279	380.52
279.461	382.5
279.923	390.69
280.384	380.24
280.846	370.64
281.307	403.12
281.769	357.64
282.23	397.47
282.691	389
283.152	383.06
283.613	358.49
284.075	368.66
284.536	376.85
284.997	383.35
285.458	385.32
285.918	382.5
286.379	389.84
286.84	377.98
287.301	383.91
287.762	378.83
288.222	358.2
288.683	419.78
289.143	378.26
289.604	420.9
290.064	396.06
290.525	379.96
290.985	394.93
291.445	392.1
291.906	379.11
292.366	379.39
292.826	394.36
293.286	384.19
293.746	415.26
294.206	403.4
294.666	389.28
295.126	388.71
295.586	376
296.046	395.49
296.506	401.42
296.965	406.22
297.425	394.08
297.884	396.9
298.344	401.7
298.804	391.82
299.263	390.41
299.722	380.8
300.182	374.03
300.641	386.45
301.1	378.55
301.559	367.81
302.019	400.86
302.478	413.28
302.937	406.79
303.396	381.93
303.855	398.6
304.314	402.83
304.772	427.12
305.231	387.58
305.69	399.16
306.149	363.85
306.607	399.16
307.066	417.8
307.524	401.42
307.983	389.28
308.441	396.06
308.9	392.67
309.358	406.51
309.816	393.23
310.275	394.64
310.733	408.48
311.191	425.99
311.649	411.87
312.107	396.9
312.565	402.55
313.023	402.27
313.481	387.87
313.939	387.02
314.397	406.79
314.854	396.06
315.312	385.61
315.77	413.28
316.227	374.59
316.685	398.6
317.142	391.54
317.6	396.9
318.057	394.64
318.514	390.69
318.972	400.29
319.429	370.92
319.886	403.4
320.343	397.47
320.8	404.25
321.257	393.8
321.714	389.56
322.171	394.08
322.628	405.94
323.085	411.87
323.542	388.15
323.998	427.96
324.455	405.09
324.912	405.38
325.368	395.21
325.825	418.36
326.281	395.49
326.738	388.15
327.194	396.9
327.65	390.69
328.107	406.79
328.563	412.15
329.019	414.13
329.475	371.77
329.931	395.21
330.387	385.32
330.843	394.36
331.299	401.7
331.755	384.19
332.211	404.53
332.666	392.39
333.122	416.11
333.578	395.21
334.033	387.02
334.489	395.49
334.944	407.63
335.4	418.65
335.855	404.25
336.31	395.77
336.766	412.15
337.221	398.32
337.676	399.16
338.131	401.7
338.586	394.93
339.041	404.25
339.496	375.72
339.951	373.46
340.406	423.16
340.861	388.15
341.316	416.67
341.771	407.92
342.225	398.32
342.68	400.86
343.134	402.55
343.589	423.45
344.043	430.78
344.498	396.9
344.952	408.48
345.406	387.02
345.861	418.36
346.315	422.03
346.769	374.31
347.223	400.86
347.677	398.32
348.131	386.17
348.585	392.67
349.039	413
349.493	400.01
349.947	404.53
350.401	385.04
350.854	413.56
351.308	426.27
351.762	421.47
352.215	392.67
352.669	423.73
353.122	395.77
353.575	430.22
354.029	405.09
354.482	401.14
354.935	398.6
355.388	410.46
355.842	401.7
356.295	424.86
356.748	417.8
357.201	440.66
357.654	409.61
358.106	413.56
358.559	408.2
359.012	414.69
359.465	409.33
359.917	399.45
360.37	411.59
360.823	415.82
361.275	403.68
361.728	399.73
362.18	414.69
362.632	404.25
363.085	411.59
363.537	426.83
363.989	414.69
364.441	408.76
364.893	414.13
365.345	372.05
365.797	414.13
366.249	425.7
366.701	398.32
367.153	405.09
367.605	437.28
368.057	401.99
368.508	419.49
368.96	377.98
369.411	417.23
369.863	413.28
370.314	407.63
370.766	407.63
371.217	412.72
371.669	428.24
372.12	411.87
372.571	408.48
373.022	411.31
373.473	419.49
373.924	420.06
374.375	414.69
374.826	396.9
375.277	416.67
375.728	403.12
376.179	417.23
376.63	417.23
377.08	440.1
377.531	416.11
377.981	425.14
378.432	407.63
378.883	405.66
379.333	425.42
379.783	401.14
380.234	402.55
380.684	437.84
381.134	407.35
381.584	433.04
382.034	386.17
382.485	404.81
382.935	424.29
383.385	432.48
383.834	407.63
384.284	415.26
384.734	415.26
385.184	416.95
385.634	421.19
386.083	424.86
386.533	427.12
386.982	424.01
387.432	421.47
387.881	409.05
388.331	431.91
388.78	410.46
389.229	425.14
389.679	444.9
390.128	419.49
390.577	430.5
391.026	422.6
391.475	413
391.924	409.89
392.373	403.12
392.822	446.59
393.27	412.43
393.719	412.43
394.168	430.5
394.617	436.43
395.065	430.78
395.514	426.83
395.962	414.69
396.411	453.65
396.859	440.1
397.307	429.37
397.756	426.55
398.204	435.58
398.652	429.09
399.1	434.17
399.548	441.23
399.996	455.34
400.444	439.82
400.892	443.77
401.34	463.52
401.788	456.75
402.236	415.54
402.683	425.14
403.131	434.74
403.579	455.06
404.026	440.95
404.474	455.62
404.921	449.41
405.369	458.44
405.816	471.42
406.263	456.19
406.71	457.88
407.158	464.93
407.605	470.58
408.052	468.32
408.499	484.4
408.946	499.63
409.393	479.04
409.84	516.55
410.286	503.3
410.733	497.94
411.18	552.07
411.626	564.18
412.073	610.94
412.52	659.93
412.966	740.93
413.413	862.84
413.859	1051.21
414.305	1240.23
414.752	1477.25
415.198	1792.35
415.644	2187.92
416.09	2650.18
416.536	3193.35
416.982	3835.75
417.428	4465.3
417.874	5211.4
418.32	6008.26
418.766	6770.49
419.211	7840.59
419.657	8693.72
420.103	9829.47
420.548	10611.21
420.994	11866.24
421.439	12872.01
421.885	13755.7
422.33	15245.72
422.776	16179.22
423.221	17093.94
423.666	18203.21
424.111	19524.41
424.556	20375.17
425.001	21782.03
425.446	23024.93
425.891	24098.49
426.336	24925.8
426.781	26094.11
427.226	28118.13
427.671	28686.74
428.115	29540.4
428.56	31050.25
429.005	32499.79
429.449	32964.48
429.894	34194.8
430.338	35189.76
430.782	35309.16
431.227	36775.88
431.671	37128.07
432.115	38478.07
432.559	39412.22
433.003	39493.18
433.447	40417.27
433.891	40570.04
434.335	41034
434.779	41579.9
435.223	41815.31
435.667	41979.47
436.111	42334.41
436.554	42383.85
436.998	41873.57
437.442	41956.4
437.885	43812.58
438.328	42405.71
438.772	42780.41
439.215	43214.5
439.659	42867.01
440.102	43124.53
440.545	42485.72
440.988	42426.58
441.431	43178.61
441.874	42756.77
442.317	42884.19
442.76	42547.37
443.203	42003.28
443.646	42625.68
444.089	42314.29
444.531	42766.72
444.974	41776.64
445.417	42560.54
445.859	41802.91
446.302	42850.34
446.744	42000.55
447.186	43226.97
447.629	42241.53
448.071	42204.79
448.513	42368.94
448.956	43630.94
449.398	42920.04
449.84	41615.07
450.282	42387.08
450.724	42966.85
451.166	42593.61
451.607	42443.23
452.049	42534.69
452.491	43553.03
452.933	43263.87
453.374	43638.18
453.816	44129.51
454.257	43821.08
454.699	44613.76
455.14	44507.63
455.582	44151.3
456.023	44191.36
456.464	44278.52
456.905	44907.35
457.347	44869.15
457.788	44044.67
458.229	44090.97
458.67	45030.31
459.111	43218.99
459.552	43312.74
459.992	43194.81
460.433	42952.65
460.874	42042.73
461.315	43244.17
461.755	42293.43
462.196	41804.15
462.636	41087.16
463.077	40835.04
463.517	40877.3
463.957	41275.4
464.398	40761.43
464.838	40895.34
465.278	39878.05
465.718	40036
466.158	39021.68
466.598	39598.28
467.038	38998.58
467.478	39420.59
467.918	39600.99
468.358	38839.58
468.798	38678.19
469.237	38629.31
469.677	38539.69
470.117	39320.45
470.556	36938.12
470.996	37504.73
471.435	37522.62
471.874	38264.79
472.314	37918.69
472.753	37073.23
473.192	37226.74
473.631	36988.78
474.07	36986.58
474.509	37189.52
474.948	37359.72
475.387	36544.7
475.826	35927.9
476.265	37531.19
476.704	36919.76
477.143	37230.9
477.581	37188.05
478.02	37557.9
478.458	36429.27
478.897	37024.27
479.335	38082.02
479.774	37517.23
480.212	37826.51
480.65	37707.63
481.089	37435.16
481.527	37057.56
481.965	36467.66
482.403	38255.22
482.841	38125.68
483.279	38004.76
483.717	37983.18
484.155	37615.48
484.592	38016.78
485.03	38158.31
485.468	37263.72
485.905	37411.15
486.343	37829.94
486.781	37262
487.218	36856.14
487.655	36769.76
488.093	35923.75
488.53	37300.2
488.967	36394.06
489.405	36241.25
489.842	35446.64
490.279	35463.74
490.716	35171.2
491.153	35480.84
491.59	35039.86
492.027	34365.81
492.463	34123.81
492.9	33353.63
493.337	33301.93
493.773	33280.48
494.21	32566.1
494.647	32368.38
495.083	31715.95
495.519	31310.45
495.956	31477.73
496.392	30846.6
496.828	30557.79
497.265	29910.21
497.701	30029.31
498.137	29807.46
498.573	29062.25
499.009	29524.04
499.445	28674.76
499.881	28196.38
500.316	28562.34
500.752	27640.37
501.188	27585.55
501.624	27417.16
502.059	26289.6
502.495	26222.4
502.93	26102.69
503.366	26268.02
503.801	25709.54
504.236	25490.26
504.672	24999.8
505.107	24784.65
505.542	24187.39
505.977	24188.87
506.412	23755.53
506.847	24043.81
507.282	23577.06
507.717	23389.39
508.152	23249.27
508.587	23060.97
509.021	22450.88
509.456	22080.72
509.891	22119.3
510.325	22138.35
510.76	21834.76
511.194	21549.28
511.628	21659.73
512.063	20971.81
512.497	21140.42
512.931	20671.61
513.366	20419.38
513.8	20499.08
514.234	19848.56
514.668	19906.99
515.102	20054.16
515.536	19276.95
515.969	19415.88
516.403	18999.19
516.837	18641.69
517.271	18756.4
517.704	18372.22
518.138	18138.29
518.571	18063.61
519.005	17838.48
519.438	17682.24
519.871	17603.47
520.305	17152.54
520.738	17217.89
521.171	16685.52
521.604	16824.13
522.037	16608.79
522.47	16281.64
522.903	15990.87
523.336	15897.66
523.769	15923.79
524.202	15392.47
524.634	15421.91
525.067	15219.53
525.5	15076.23
525.932	14978.73
526.365	14605.08
526.797	14459.22
527.23	14468.56
527.662	13882.68
528.094	13851.07
528.527	13738.49
528.959	13510.17
529.391	13318.65
529.823	12807.02
530.255	12919.22
530.687	12654.63
531.119	12487.14
531.551	12405.77
531.982	12048.17
532.414	11991.37
532.846	11743.08
533.277	11585.4
533.709	11291.94
534.14	11260.76
534.572	10991.67
535.003	10930.74
535.435	10729.91
535.866	10613.01
536.297	10299.12
536.728	10317.61
537.159	10198.66
537.59	10023.03
538.022	9897.45
538.452	9696.79
538.883	9528.4
539.314	9478.86
539.745	9288.81
540.176	9115.62
540.606	8862.98
541.037	8970.71
541.468	8800.53
541.898	8662.6
542.328	8597.73
542.759	8424.02
543.189	8314.86
543.619	8244.12
544.05	8035.33
544.48	7900.06
544.91	7792.05
545.34	7751.34
545.77	7622.05
546.2	7570.82
546.63	7340.84
547.06	7331.41
547.489	7166.83
547.919	6976.83
548.349	7045.62
548.778	7022
549.208	6894.08
549.637	6759.71
550.067	6655.48
550.496	6659.69
550.926	6521.36
551.355	6340.37
551.784	6454.38
552.213	6252.15
552.642	6187.13
553.071	6162.8
553.5	6061.47
553.929	5837.58
554.358	5870.47
554.787	5753.21
555.216	5711.79
555.645	5655.48
556.073	5639.27
556.502	5577.34
556.93	5393.2
557.359	5323.66
557.787	5351.38
558.216	5269.81
558.644	5193.79
559.072	5181.78
559.5	5075.51
559.929	5029.81
560.357	5059.21
560.785	4947.45
561.213	4941.03
561.641	4819.24
562.068	4839.06
562.496	4680.39
562.924	4725.18
563.352	4723.3
563.779	4670.2
564.207	4686.03
564.634	4611.17
565.062	4609.55
565.489	4448.1
565.917	4508.04
566.344	4455.36
566.771	4455.89
567.198	4374.93
567.625	4323.79
568.053	4288.25
568.48	4281.52
568.907	4199.6
569.333	4095.48
569.76	4037.44
570.187	4051.48
570.614	3928.54
571.04	4072.54
571.467	3825.47
571.894	3773.48
572.32	3639.04
572.747	3653.42
573.173	3600.25
573.599	3506.3
574.026	3452.5
574.452	3409.54
574.878	3393.22
575.304	3320.84
575.73	3255.48
576.156	3190.89
576.582	3137.98
577.008	3116.7
577.434	3088.32
577.86	2949.54
578.285	2948.45
578.711	2949.54
579.137	2877.88
579.562	2733.27
579.988	2840.93
580.413	2711.62
580.838	2674.32
581.264	2673.5
581.689	2645.24
582.114	2593.36
582.539	2560.4
582.964	2561.5
583.39	2481.53
583.814	2404.51
584.239	2412.77
584.664	2389.65
585.089	2361.57
585.514	2285.81
585.939	2291.88
586.363	2238.95
586.788	2235.91
587.212	2218.81
587.637	2175.77
588.061	2153.14
588.485	2114.48
588.91	2111.17
589.334	2059.5
589.758	2011.4
590.182	2002.55
590.606	1931.71
591.03	1949.15
591.454	1897.38
591.878	1894.89
592.302	1890.73
592.726	1856.38
593.15	1869.13
593.573	1813.15
593.997	1792.35
594.42	1721.33
594.844	1727.16
595.267	1722.16
595.691	1695.51
596.114	1679.41
596.537	1669.96
596.96	1639.41
597.384	1625.24
597.807	1595.77
598.23	1601.89
598.653	1589.93
599.076	1588.82
599.499	1587.71
599.921	1522.9
600.344	1546.55
600.767	1532.36
601.189	1504.81
601.612	1490.34
602.034	1470.57
602.457	1474.75
602.879	1486.16
603.302	1487.56
603.724	1396.75
604.146	1473.36
604.568	1424.06
604.991	1432.97
605.413	1424.89
605.835	1451.08
606.257	1408.73
606.678	1373.89
607.1	1444.11
607.522	1425.17
607.944	1355.49
608.365	1378.91
608.787	1317
609.209	1313.09
609.63	1298.3
610.051	1307.51
610.473	1287.42
610.894	1286.58
611.315	1273.18
611.737	1229.62
612.158	1219.84
612.579	1225.43
613	1230.74
613.421	1222.91
613.842	1164.79
614.263	1167.59
614.683	1156.4
615.104	1180.16
615.525	1148.85
615.945	1133.75
616.366	1091.23
616.787	1106.9
617.207	1112.78
617.627	1072.48
618.048	1061.29
618.468	1060.17
618.888	1022.37
619.308	1049.53
619.728	1003.6
620.148	1001.36
620.568	1003.88
620.988	991.55
621.408	974.18
621.828	975.86
622.248	969.41
622.668	952.88
623.087	951.75
623.507	909.41
623.926	941.94
624.346	909.69
624.765	892.3
625.185	884.44
625.604	860.03
626.023	861.71
626.442	862.56
626.861	893.42
627.28	832.8
627.699	857.78
628.118	817.07
628.537	870.13
628.956	826.34
629.375	830.55
629.794	822.69
630.212	825.5
630.631	810.9
631.049	794.89
631.468	778.31
631.886	781.4
632.305	766.23
632.723	757.8
633.141	768.19
633.559	769.6
633.978	745.71
634.396	753.58
634.814	739.53
635.232	746.83
635.65	738.68
636.067	705.22
636.485	704.1
636.903	720.41
637.321	693.13
637.738	712.53
638.156	718.44
638.573	722.94
638.991	718.16
639.408	685.53
639.825	667.24
640.243	673.71
640.66	706.06
641.077	655.14
641.494	666.12
641.911	675.97
642.328	660.21
642.745	666.68
643.162	661.9
643.579	643.04
643.995	636
644.412	639.66
644.829	654.58
645.245	637.97
645.662	634.59
646.078	631.5
646.495	627.56
646.911	602.5
647.327	572.92
647.743	627.84
648.159	619.39
648.576	626.43
648.992	629.53
649.408	622.77
649.824	566.72
650.239	617.98
650.655	626.43
651.071	605.03
651.487	593.48
651.902	597.99
652.318	607.56
652.733	597.14
653.149	585.31
653.564	597.71
653.979	576.86
654.395	584.75
654.81	579.96
655.225	594.61
655.64	537.97
656.055	581.65
656.47	563.62
656.885	563.34
657.3	567
657.715	551.78
658.13	541.07
658.544	547.28
658.959	553.48
659.374	555.45
659.788	541.36
660.202	555.17
660.617	548.12
661.031	551.5
661.445	538.54
661.86	516.55
662.274	557.14
662.688	519.37
663.102	519.09
663.516	524.72
663.93	544.18
664.344	512.04
664.758	516.27
665.171	522.47
665.585	533.18
665.999	530.93
666.412	510.06
666.826	502.73
667.239	487.78
667.653	526.42
668.066	502.73
668.479	497.37
668.892	523.32
669.306	496.53
669.719	493.14
670.132	480.17
670.545	523.88
670.958	515.7
671.37	533.75
671.783	508.37
672.196	536.85
672.609	500.76
673.021	485.81
673.434	491.17
673.846	468.88
674.259	491.73
674.671	489.48
675.084	466.63
675.496	488.07
675.908	495.96
676.32	496.24
676.732	463.24
677.144	477.35
677.556	506.12
677.968	449.41
678.38	472.27
678.792	474.81
679.204	474.24
679.615	483.83
680.027	472.27
680.439	484.68
680.85	465.78
681.262	476.5
681.673	479.89
682.084	462.11
682.496	489.19
682.907	471.42
683.318	471.99
683.729	451.39
684.14	458.73
684.551	449.41
684.962	464.65
685.373	439.82
685.784	445.18
686.194	455.34
686.605	455.06
687.016	457.88
687.426	457.6
687.837	447.72
688.247	427.12
688.657	469.73
689.068	453.36
689.478	458.44
689.888	440.66
690.298	433.61
690.708	448.85
691.118	469.17
691.528	460.7
691.938	457.6
692.348	434.74
692.758	436.15
693.168	456.75
693.577	433.89
693.987	450.54
694.396	441.51
694.806	420.06
695.215	431.91
695.625	448
696.034	417.8
696.443	426.55
696.852	445.74
697.262	437.56
697.671	447.16
698.08	460.42
698.489	426.83
698.897	445.46
699.306	463.24
699.715	449.13
700.124	449.98
700.532	430.5
700.941	398.03
701.35	426.55
701.758	437.56
702.166	405.38
702.575	452.8
702.983	442.64
703.391	438.41
703.799	429.09
704.208	432.76
704.616	413.85
705.024	425.42
705.432	414.41
705.839	414.69
706.247	429.37
706.655	434.17
707.063	401.14
707.47	412.43
707.878	415.82
708.285	438.97
708.693	431.91
709.1	418.08
709.508	425.99
709.915	425.14
710.322	416.11
710.729	422.32
711.136	436.71
711.543	431.35
711.95	410.74
712.357	418.36
712.764	443.49
713.171	404.81
713.578	379.39
713.984	414.41
714.391	421.19
714.797	420.06
715.204	411.31
715.61	390.97
716.017	399.45
716.423	389.28
716.829	405.94
717.236	434.45
717.642	438.12
718.048	384.76
718.454	421.47
718.86	426.55
719.266	411.02
719.671	398.03
720.077	416.67
720.483	413
720.889	414.41
721.294	422.88
721.7	401.42
722.105	385.61
722.511	415.82
722.916	401.99
723.321	423.16
723.726	406.79
724.132	404.81
724.537	414.41
724.942	409.89
725.347	429.94
725.752	413.28
726.156	416.39
726.561	408.2
726.966	400.29
727.371	402.83
727.775	398.6
728.18	413.85
728.584	394.08
728.989	411.02
729.393	381.09
729.798	398.32
730.202	414.69
730.606	408.2
731.01	417.52
731.414	399.16
731.818	427.12
732.222	392.39
732.626	386.45
733.03	416.95
733.434	401.99
733.837	394.08
734.241	420.06
734.645	409.61
735.048	419.49
735.452	383.91
735.855	385.89
736.258	418.65
736.662	401.7
737.065	409.61
737.468	391.82
737.871	424.29
738.274	392.67
738.677	417.8
739.08	403.68
739.483	390.41
739.886	395.49
740.289	417.8
740.691	403.12
741.094	392.39
741.497	404.25
741.899	389.84
742.302	383.63
742.704	410.46
743.106	390.69
743.508	419.49
743.911	421.47
744.313	406.79
744.715	403.4
745.117	408.2
745.519	378.26
745.921	393.23
746.323	398.03
746.724	395.49
747.126	393.8
747.528	393.8
747.929	390.13
748.331	390.97
748.732	381.65
749.134	379.68
749.535	383.91
749.936	383.35
750.338	389.28
750.739	400.86
751.14	416.11
751.541	391.54
751.942	394.64
752.343	397.47
752.744	398.6
753.144	411.02
753.545	393.51
753.946	413.28
754.346	406.51
754.747	398.88
755.148	395.49
755.548	385.61
755.948	405.09
756.349	399.16
756.749	408.76
757.149	395.49
757.549	417.23
757.949	408.76
758.349	412.15
758.749	403.4
759.149	403.96
759.549	409.05
759.949	391.54
760.348	389.28
760.748	384.19
761.148	408.48
761.547	388.43
761.947	389.84
762.346	389.84
762.745	405.66
763.145	410.18
763.544	396.34
763.943	398.03
764.342	398.32
764.741	398.88
765.14	395.21
765.539	390.97
765.938	413
766.336	397.19
766.735	400.01
767.134	385.61
767.532	391.82
767.931	367.53
768.329	409.89
768.728	380.8
769.126	393.8
769.525	399.45
769.923	386.45
770.321	387.87
770.719	387.58
771.117	358.2
771.515	379.39
771.913	392.1
772.311	374.87
772.709	391.26
773.106	406.79
773.504	385.61
773.902	385.89
774.299	421.47
774.697	398.88
775.094	392.39
775.491	396.06
775.889	399.16
776.286	395.21
776.683	404.81
777.08	386.45
777.477	403.12
777.874	391.82
778.271	399.73
778.668	382.5
779.065	389.56
779.462	389.28
779.858	372.9
780.255	399.45
780.652	385.32
781.048	389
781.444	372.9
781.841	398.88
782.237	392.67
782.633	396.34
783.03	388.71
783.426	379.39
783.822	399.73
784.218	427.12
784.614	388.43
785.01	376.85
785.405	394.08
785.801	402.55
786.197	387.58
786.593	383.06
786.988	402.55
787.384	418.36
787.779	396.62
788.174	397.47
788.57	385.32
788.965	369.79
789.36	392.67
789.755	385.61
790.15	397.75
790.545	402.83
790.94	412.72
791.335	388.43
791.73	378.55
792.125	392.95
792.52	416.95
792.914	392.67
793.309	381.37
793.703	380.52
794.098	369.79
794.492	394.36
794.887	380.24
795.281	390.69
795.675	378.55
796.069	400.29
796.463	361.59
796.857	397.19
797.251	380.52
797.645	365.27
798.039	395.21
798.433	406.51
798.826	379.96
799.22	375.16
799.614	371.77
800.007	389.56
800.401	387.58
800.794	400.01
801.187	381.65
801.581	405.09
801.974	395.21
802.367	412.15
802.76	396.34
803.153	383.06
803.546	390.13
803.939	366.68
804.332	406.22
804.725	395.77
805.117	377.13
805.51	418.08
805.903	408.48
806.295	398.6
806.688	386.74
807.08	380.8
807.472	379.68
807.865	413.85
808.257	403.12
808.649	397.75
809.041	391.54
809.433	378.55
809.825	384.76
810.217	401.7
810.609	389.56
811.001	375.16
811.392	374.87
811.784	377.13
812.175	406.22
812.567	360.18
812.958	369.51
813.35	382.5
813.741	363.57
814.132	383.06
814.524	358.49
814.915	379.68
815.306	381.09
815.697	361.03
816.088	389.56
816.479	403.4
816.87	378.26
817.26	396.06
817.651	399.73
818.042	408.76
818.432	371.77
818.823	390.41
819.213	370.35
819.604	407.35
819.994	387.3
820.384	392.1
820.775	379.68
821.165	375.72
821.555	391.26
821.945	379.11
822.335	382.5
822.725	394.93
823.114	389.56
823.504	396.9
823.894	389
824.284	386.17
824.673	387.3
825.063	405.94
825.452	390.69
825.842	400.29
826.231	390.69
826.62	373.46
827.009	387.58
827.399	393.51
827.788	372.9
828.177	357.64
828.566	384.48
828.954	372.61
829.343	377.42
829.732	383.91
830.121	420.62
830.509	361.59
830.898	363.85
831.286	360.18
831.675	389.56
832.063	355.1
832.452	387.87
832.84	385.89
833.228	372.9
833.616	368.94
834.004	393.23
834.392	381.93
834.78	400.01
835.168	414.41
835.556	398.03
835.944	385.89
836.331	387.58
836.719	387.02
837.107	392.1
837.494	390.69
837.881	372.33
838.269	377.42
838.656	367.25
839.043	376.85
839.431	395.77
839.818	345.21
840.205	370.92
840.592	369.22
840.979	370.07
841.366	388.43
841.752	383.35
842.139	380.52
842.526	387.02
842.912	368.94
843.299	383.63
843.685	394.08
844.072	371.48
844.458	395.49
844.844	389
845.231	392.39
845.617	376.29
846.003	399.16
846.389	392.67
846.775	381.37
847.161	340.4
847.547	389.28
847.933	395.21
848.318	363.29
848.704	382.22
849.09	372.33
849.475	377.42
849.861	379.68
850.246	381.93
850.631	383.91
851.017	389.56
851.402	381.65
851.787	398.6
852.172	373.74
852.557	388.43
852.942	374.59
853.327	391.54
853.712	386.45
854.097	393.8
854.481	367.81
854.866	369.79
855.25	400.58
855.635	371.77
856.019	390.97
856.404	382.22
856.788	382.78
857.172	375.44
857.557	375.44
857.941	398.88
858.325	394.08
858.709	392.67
859.093	371.48
859.477	379.39
859.86	386.17
860.244	355.94
860.628	367.81
861.012	383.06
861.395	383.91
861.779	369.22
862.162	379.96
862.545	390.97
862.929	389.28
863.312	365.83
863.695	394.36
864.078	380.8
864.461	394.08
864.844	401.99
865.227	409.89
865.61	378.83
865.993	396.06
866.376	372.61
866.758	377.98
867.141	401.42
867.523	381.65
867.906	389.28
868.288	372.05
868.671	403.12
869.053	395.77
869.435	379.96
869.817	403.12
870.199	404.25
870.581	383.91
870.963	374.31
871.345	380.52
871.727	385.32
872.109	368.38
872.491	373.46
872.872	371.77
873.254	380.52
873.635	374.87
874.017	378.55
874.398	369.79
874.779	370.64
875.161	368.09
875.542	391.82
875.923	373.46
876.304	381.37
876.685	376.29
877.066	381.37
877.447	370.35
877.828	385.32
878.208	385.89
878.589	374.59
878.97	341.25
879.35	383.63
879.731	410.74
880.111	362.44
880.491	385.61
880.872	373.74
881.252	375.72
881.632	368.09
882.012	385.61
882.392	375.72
882.772	370.07
883.152	400.86
883.532	379.96
883.912	392.67
884.291	379.68
884.671	398.6
885.051	386.74
885.43	372.33
885.81	369.22
886.189	357.07
886.568	374.03
886.948	400.29
887.327	348.6
887.706	338.99
888.085	401.14
888.464	399.16
888.843	377.7
889.222	362.44
889.601	360.75
889.979	375.72
890.358	403.96
890.737	368.94
891.115	390.69
891.494	375.16
891.872	383.35
892.25	371.2
892.629	366.4
893.007	370.07
893.385	392.95
893.763	364.42
894.141	369.51
894.519	372.61
894.897	367.25
895.275	350.86
895.653	381.93
896.03	377.42
896.408	384.48
896.786	391.82
897.163	386.74
897.541	379.39
897.918	390.41
898.295	377.7
898.673	376.57
899.05	389
899.427	378.26
899.804	348.6
900.181	360.75
900.558	391.82
900.935	377.13
901.312	369.79
901.688	368.66
902.065	374.87
902.442	384.76
902.818	368.38
903.195	409.05
903.571	394.36
903.947	384.48
904.324	366.12
904.7	380.52
905.076	389
905.452	387.87
905.828	343.51
906.204	355.66
906.58	358.2
906.956	367.25
907.331	375.44
907.707	400.01
908.083	384.48
908.458	350.29
908.834	382.5
909.209	365.83
909.585	395.49
909.96	384.76
910.335	386.45
910.71	389
911.086	382.78
911.461	404.81
911.836	363.85
912.21	366.96
912.585	378.55
912.96	368.09
913.335	366.12
913.709	378.83
914.084	403.12
914.459	383.63
914.833	370.92
915.207	379.68
915.582	371.2
915.956	353.68
916.33	374.31
916.704	365.27
917.078	390.41
917.452	354.25
917.826	388.15
918.2	337.29
918.574	346.62
918.948	400.86
919.321	372.05
919.695	404.81
920.068	385.04
920.442	373.46
920.815	345.49
921.189	395.21
921.562	369.79
921.935	387.3
922.308	376.85
922.681	350.29
923.054	377.98
923.427	368.66
923.8	350.86
924.173	366.96
924.546	386.74
924.919	407.07
925.291	397.19
925.664	386.17
926.036	368.09
926.409	355.94
926.781	373.18
927.153	375.44
927.526	333.62
927.898	389.28
928.27	370.07
928.642	375.44
929.014	385.89
929.386	385.32
929.758	383.91
930.129	343.51
930.501	368.09
930.873	359.05
931.244	377.7
931.616	385.04
931.987	376.29
932.359	366.96
932.73	388.71
933.101	356.23
933.472	369.79
933.843	392.67
934.214	375.72
934.585	374.59
934.956	363.29
935.327	376.85
935.698	377.7
936.069	363.01
936.439	384.48
936.81	363.85
937.18	400.01
937.551	364.99
937.921	372.9
938.292	362.16
938.662	383.91
939.032	375.16
939.402	358.49
939.772	344.08
940.142	361.88
940.512	396.62
940.882	356.79
941.252	366.96
941.621	363.29
941.991	389.84
942.361	364.7
942.73	393.51
943.1	364.99
943.469	378.55
943.838	387.3
944.208	386.74
944.577	368.09
944.946	370.92
945.315	370.92
945.684	348.31
946.053	359.9
946.422	385.32
946.791	376.57
947.159	364.99
947.528	391.82
947.897	369.79
948.265	386.74
948.634	380.52
949.002	372.61
949.371	381.37
949.739	365.55
950.107	361.88
950.475	383.06
950.843	347.75
951.211	381.93
951.579	363.57
951.947	383.06
952.315	394.64
952.683	391.26
953.05	392.67
953.418	353.12
953.785	386.45
954.153	359.62
954.52	384.48
954.888	371.77
955.255	358.2
955.622	370.35
955.989	364.42
956.356	387.3
956.723	381.37
957.09	359.9
957.457	334.18
957.824	382.22
958.191	347.47
958.557	355.38
958.924	355.66
959.291	353.97
959.657	378.83
960.023	383.35
960.39	381.65
960.756	346.9
961.122	375.72
961.488	358.49
961.855	386.17
962.221	374.31
962.586	369.79
962.952	383.06
963.318	381.65
963.684	389.84
964.05	379.11
964.415	396.9
964.781	368.66
965.146	378.55
965.512	363.85
965.877	374.31
966.242	369.51
966.608	391.26
966.973	358.2
967.338	363.01
967.703	408.2
968.068	384.76
968.433	337.86
968.797	373.74
969.162	355.1
969.527	388.15
969.891	378.83
970.256	379.96
970.62	376.29
970.985	379.39
971.349	381.37
971.714	388.43
972.078	352.55
972.442	394.93
972.806	371.48
973.17	392.67
973.534	381.65
973.898	361.03
974.262	388.71
974.625	396.34
974.989	380.52
975.353	356.79
975.716	374.03
976.08	372.33
976.443	359.05
976.806	388.15
977.17	381.09
977.533	373.46
977.896	391.54
978.259	376.85
978.622	341.25
978.985	401.14
979.348	336.44
979.711	350.57
980.073	345.49
980.436	369.51
980.799	357.64
981.161	377.98
981.524	399.16
981.886	390.13
982.248	393.23
982.611	363.29
982.973	387.87
983.335	403.68
983.697	378.83
984.059	369.22
984.421	366.68
984.783	389.28
985.145	375.44
985.506	391.82
985.868	356.51
986.23	360.75
986.591	362.72
986.953	378.55
987.314	355.1
987.675	379.96
988.037	518.8
988.398	355.66
988.759	368.09
989.12	379.39
989.481	387.3
989.842	379.96
990.203	341.81
990.564	370.92
990.924	350.86
991.285	490.04
991.646	383.35
992.006	355.38
992.367	365.27
992.727	368.66
993.087	362.16
993.448	357.92
993.808	359.9
994.168	362.72
994.528	381.65
994.888	366.12
995.248	356.51
995.608	359.05
995.967	364.7
996.327	374.59
996.687	373.46
997.046	372.9
997.406	371.77
997.765	360.46
998.125	368.09
998.484	387.02
998.843	370.35
999.202	375.44
999.561	359.9
999.92	346.34
1000.279	390.97
1000.638	382.5
1000.997	365.55
1001.356	342.94
1001.715	355.1
1002.073	380.8
1002.432	352.55
1002.79	361.59
1003.149	371.77
1003.507	384.76
1003.865	373.18
1004.224	357.64
1004.582	360.18
1004.94	369.79
1005.298	340.68
1005.656	365.55
1006.014	368.09
1006.371	381.37
1006.729	383.35
1007.087	378.55
1007.445	371.2
1007.802	349.44
1008.16	374.31
1008.517	389.28
1008.874	371.77
1009.232	367.25
1009.589	381.09
1009.946	376.85
1010.303	367.81
1010.66	378.83
1011.017	373.46
1011.374	376.29
1011.731	384.48
1012.087	370.07
1012.444	382.22
1012.801	410.18
1013.157	357.07
1013.513	356.23
1013.87	357.64
1014.226	374.03
1014.582	379.39
1014.939	392.39
1015.295	369.51
1015.651	380.24
1016.007	351.14
1016.363	374.03
1016.719	391.82
1017.074	364.14
1017.43	391.26
1017.786	388.71
1018.141	384.76
1018.497	381.37
1018.852	377.98
1019.208	370.07
1019.563	363.29
1019.918	377.42
1020.273	352.84
1020.628	374.31
1020.983	372.9
1021.338	368.38
1021.693	356.51
1022.048	350.29
1022.403	379.68
1022.757	369.79
1023.112	375.16
1023.467	356.79
1023.821	370.07
1024.175	402.27
1024.53	366.96
1024.884	382.5
1025.238	365.83
1025.592	389
1025.946	390.13
1026.3	377.13
1026.654	350.29
1027.008	393.23
1027.362	355.94
1027.716	358.77
1028.069	346.62
1028.423	358.49
1028.777	361.59
1029.13	353.4
1029.483	369.22
1029.837	367.81
1030.19	353.12
1030.543	365.27
1030.896	372.33
1031.249	365.83
1031.602	340.4
1031.955	349.16
1032.308	371.77
1032.661	354.81
1033.013	366.96
1033.366	372.33
1033.719	376.57
1034.071	340.12
1034.424	372.61
1034.776	371.48
1035.128	377.13
1035.48	325.99
1035.833	354.53
1036.185	366.96
1036.537	366.96
1036.889	366.96
