Data from SCSF78-405_irradiation_FLMS019251_00-12-27-970.txt Node
Date: Sat Feb 23 00:12:27 PST 2019
User: mu3e
Spectrometer: FLMS01925
Trigger mode: 0
Integration Time (sec): 1.206000E-2
Scans to average: 10
Electric dark correction enabled: true
Nonlinearity correction enabled: true
Boxcar width: 0
XAxis mode: Wavelengths
Number of Pixels in Spectrum: 2048
>>>>>Begin Spectral Data<<<<<
187.103	-93.29
187.574	-93.29
188.045	-93.29
188.516	-129.4
188.987	-101.25
189.458	-131.68
189.929	-114.9
190.4	-81.35
190.871	-96.13
191.342	-95.28
191.813	-44.7
192.284	-57.2
192.754	-12.6
193.225	-19.13
193.696	7.56
194.166	72.54
194.637	75.38
195.107	86.72
195.578	104.87
196.048	148.24
196.518	156.74
196.989	158.72
197.459	227.25
197.929	232.91
198.399	276.48
198.869	261.77
199.339	320.88
199.809	307.59
200.279	326.25
200.749	326.53
201.219	337.56
201.689	379.94
202.159	372.03
202.628	372.6
203.098	400.84
203.568	391.52
204.037	400.56
204.507	389.83
204.976	409.88
205.445	398.02
205.915	393.78
206.384	408.75
206.853	431.33
207.323	397.73
207.792	387.28
208.261	387.85
208.73	383.61
209.199	405.08
209.668	372.03
210.137	365.53
210.606	378.53
211.075	402.25
211.543	371.75
212.012	386.44
212.481	372.6
212.95	384.74
213.418	363.27
213.887	363.55
214.355	356.21
214.824	351.69
215.292	340.95
215.76	384.46
216.229	337.27
216.697	354.8
217.165	377.96
217.633	377.96
218.101	345.19
218.569	371.75
219.037	374.01
219.505	351.12
219.973	365.53
220.441	379.66
220.909	364.4
221.377	342.64
221.844	371.75
222.312	340.67
222.78	364.12
223.247	344.62
223.715	311.83
224.182	371.18
224.65	345.47
225.117	344.91
225.584	387
226.052	351.97
226.519	354.51
226.986	383.33
227.453	337.56
227.92	369.49
228.387	366.1
228.854	362.71
229.321	359.32
229.788	365.25
230.255	352.54
230.722	357.62
231.189	376.55
231.655	363.55
232.122	364.97
232.589	403.38
233.055	385.31
233.522	387
233.988	354.8
234.454	338.12
234.921	357.34
235.387	366.95
235.853	365.53
236.32	356.21
236.786	351.4
237.252	381.07
237.718	350.56
238.184	359.03
238.65	360.16
239.116	366.95
239.582	365.53
240.047	382.76
240.513	361.58
240.979	357.62
241.445	365.53
241.91	350.56
242.376	366.1
242.841	381.07
243.307	363.55
243.772	382.48
244.238	345.19
244.703	385.02
245.168	364.68
245.633	382.2
246.099	382.2
246.564	402.25
247.029	370.34
247.494	366.38
247.959	374.57
248.424	389.54
248.889	374.01
249.353	343.49
249.818	361.29
250.283	377.96
250.748	373.16
251.212	399.99
251.677	373.73
252.141	341.51
252.606	346.88
253.07	369.77
253.535	375.14
253.999	377.4
254.463	422.3
254.927	345.19
255.392	385.02
255.856	379.94
256.32	379.66
256.784	358.47
257.248	372.31
257.712	408.46
258.176	371.75
258.64	383.61
259.103	368.64
259.567	389.26
260.031	384.74
260.495	373.44
260.958	377.12
261.422	388.98
261.885	365.81
262.349	368.92
262.812	394.91
263.275	383.61
263.739	381.63
264.202	376.83
264.665	411.85
265.128	368.36
265.591	369.21
266.054	405.64
266.517	406.21
266.98	381.92
267.443	377.12
267.906	394.91
268.369	375.99
268.832	396.6
269.294	399.15
269.757	396.6
270.22	362.14
270.682	375.42
271.145	371.47
271.607	380.5
272.07	370.34
272.532	415.52
272.994	382.76
273.456	385.59
273.919	381.63
274.381	411.85
274.843	402.25
275.305	392.37
275.767	404.23
276.229	379.09
276.691	391.52
277.153	367.51
277.614	373.73
278.076	383.61
278.538	403.66
279	384.46
279.461	398.02
279.923	403.66
280.384	397.17
280.846	371.18
281.307	392.93
281.769	398.02
282.23	373.44
282.691	373.44
283.152	370.62
283.613	409.59
284.075	393.78
284.536	387.85
284.997	369.21
285.458	420.32
285.918	360.73
286.379	377.4
286.84	381.07
287.301	380.22
287.762	379.37
288.222	420.89
288.683	400.56
289.143	373.44
289.604	404.23
290.064	401.69
290.525	391.8
290.985	398.58
291.445	392.09
291.906	396.89
292.366	394.91
292.826	385.59
293.286	383.89
293.746	365.53
294.206	392.09
294.666	401.4
295.126	383.33
295.586	392.09
296.046	392.09
296.506	400.28
296.965	407.05
297.425	421.73
297.884	426.25
298.344	401.97
298.804	385.31
299.263	387.85
299.722	416.65
300.182	396.04
300.641	405.36
301.1	392.09
301.559	388.13
302.019	385.87
302.478	407.05
302.937	426.82
303.396	409.59
303.855	416.93
304.314	397.45
304.772	410.72
305.231	405.36
305.69	390.96
306.149	416.65
306.607	410.16
307.066	397.45
307.524	382.2
307.983	404.51
308.441	415.24
308.9	406.49
309.358	396.6
309.816	409.03
310.275	402.82
310.733	414.68
311.191	403.66
311.649	419.76
312.107	403.1
312.565	374.86
313.023	400.84
313.481	440.65
313.939	396.32
314.397	420.89
314.854	430.49
315.312	402.53
315.77	400.28
316.227	387.85
316.685	407.05
317.142	399.71
317.6	410.16
318.057	398.86
318.514	407.05
318.972	389.83
319.429	370.62
319.886	412.42
320.343	386.15
320.8	390.39
321.257	414.39
321.714	405.08
322.171	402.53
322.628	399.43
323.085	405.92
323.542	422.86
323.998	407.9
324.455	385.59
324.912	410.72
325.368	421.45
325.825	434.15
326.281	418.35
326.738	399.43
327.194	384.18
327.65	405.92
328.107	395.76
328.563	420.89
329.019	385.87
329.475	399.99
329.931	409.31
330.387	390.67
330.843	409.59
331.299	401.97
331.755	440.36
332.211	411.01
332.666	412.13
333.122	430.77
333.578	381.35
334.033	399.43
334.489	415.81
334.944	397.45
335.4	380.22
335.855	412.42
336.31	409.31
336.766	398.86
337.221	413.83
337.676	425.4
338.131	436.98
338.586	423.71
339.041	400.28
339.496	392.37
339.951	421.17
340.406	421.17
340.861	403.95
341.316	395.47
341.771	390.96
342.225	409.31
342.68	382.48
343.134	400.56
343.589	390.11
344.043	415.52
344.498	417.22
344.952	388.98
345.406	403.95
345.861	381.35
346.315	385.87
346.769	416.37
347.223	425.12
347.677	429.07
348.131	422.3
348.585	415.52
349.039	411.57
349.493	413.55
349.947	401.4
350.401	419.19
350.854	381.07
351.308	405.92
351.762	414.96
352.215	419.48
352.669	444.6
353.122	418.06
353.575	440.65
354.029	414.39
354.482	427.38
354.935	417.5
355.388	427.38
355.842	413.26
356.295	423.99
356.748	385.87
357.201	422.3
357.654	398.02
358.106	387.85
358.559	396.04
359.012	444.6
359.465	410.44
359.917	407.33
360.37	412.13
360.823	420.04
361.275	416.37
361.728	404.23
362.18	474.51
362.632	429.07
363.085	407.62
363.537	398.58
363.989	422.86
364.441	417.22
364.893	416.93
365.345	414.11
365.797	409.59
366.249	425.12
366.701	420.6
367.153	424.84
367.605	371.18
368.057	427.38
368.508	410.44
368.96	421.17
369.411	422.58
369.863	423.15
370.314	407.05
370.766	432.18
371.217	412.98
371.669	438.39
372.12	414.96
372.571	388.98
373.022	422.58
373.473	435.28
373.924	416.93
374.375	411.85
374.826	427.94
375.277	418.35
375.728	405.36
376.179	441.49
376.63	399.71
377.08	440.65
377.531	416.65
377.981	417.5
378.432	405.92
378.883	413.83
379.333	405.36
379.783	468.58
380.234	405.64
380.684	419.19
381.134	431.05
381.584	418.91
382.034	438.11
382.485	400.84
382.935	414.11
383.385	415.81
383.834	434.15
384.284	426.53
384.734	423.71
385.184	418.91
385.634	440.93
386.083	411.85
386.533	424.27
386.982	429.64
387.432	425.4
387.881	399.15
388.331	438.67
388.78	428.79
389.229	442.62
389.679	430.49
390.128	415.52
390.577	421.73
391.026	446.57
391.475	412.7
391.924	430.2
392.373	443.75
392.822	416.65
393.27	427.38
393.719	429.92
394.168	436.69
394.617	442.9
395.065	430.49
395.514	412.13
395.962	436.13
396.411	434.15
396.859	448.55
397.307	439.52
397.756	420.6
398.204	462.66
398.652	454.19
399.1	436.69
399.548	464.07
399.996	446.01
400.444	482.97
400.892	453.35
401.34	450.81
401.788	457.01
402.236	439.52
402.683	482.41
403.131	436.69
403.579	473.66
404.026	492.84
404.474	434.15
404.921	449.11
405.369	453.35
405.816	472.82
406.263	449.96
406.71	474.23
407.158	474.51
407.605	492
408.052	463.79
408.499	483.53
408.946	505.25
409.393	478.18
409.84	499.61
410.286	489.18
410.733	515.69
411.18	546.98
411.626	578.25
412.073	636.55
412.52	682.42
412.966	749.91
413.413	878.25
413.859	1068.27
414.305	1256.69
414.752	1497
415.198	1798.43
415.644	2223.49
416.09	2665.25
416.536	3167.7
416.982	3775.36
417.428	4481.95
417.874	5239.13
418.32	6005.86
418.766	6866.73
419.211	7828.31
419.657	8695.52
420.103	9870.14
420.548	10612.22
420.994	11846.85
421.439	12887.23
421.885	13880.64
422.33	15205.42
422.776	16197.78
423.221	17075.9
423.666	18329.28
424.111	19492.29
424.556	20357.27
425.001	21760.98
425.446	23133.03
425.891	24182.69
426.336	25060.01
426.781	26344.76
427.226	28073.36
427.671	28638.33
428.115	29627.78
428.56	31169.73
429.005	32506.35
429.449	33039.07
429.894	34397.27
430.338	35295.47
430.782	35373.36
431.227	36981.42
431.671	37404.28
432.115	38676.94
432.559	39676.56
433.003	39375.05
433.447	40391.84
433.891	40797.97
434.335	40918.3
434.779	41794.47
435.223	42032.79
435.667	41927.86
436.111	42343.09
436.554	42332.16
436.998	41918.44
437.442	42238.29
437.885	43953.09
438.328	42445.2
438.772	42781.14
439.215	43337.17
439.659	42870.48
440.102	43177.84
440.545	42484.96
440.988	42528.96
441.431	43195.79
441.874	42745.06
442.317	43162.14
442.76	42509.57
443.203	41919.68
443.646	42620.45
444.089	42230.35
444.531	42878.94
444.974	41710.2
445.417	42741.58
445.859	41869.09
446.302	43089.63
446.744	42192.36
447.186	43338.91
447.629	42427.81
448.071	42518.76
448.513	42408.92
448.956	43748.83
449.398	42955.13
449.84	41843.8
450.282	42328.68
450.724	42830.91
451.166	42633.63
451.607	42572.46
452.049	42670.43
452.491	43648.65
452.933	43136.23
453.374	43589.47
453.816	44224.65
454.257	43778.57
454.699	44695.82
455.14	44536.71
455.582	44274.5
456.023	44285.27
456.464	44465.74
456.905	44811.85
457.347	44806.57
457.788	43958.84
458.229	44075.93
458.67	45148.04
459.111	43306.99
459.552	43294.27
459.992	43250.88
460.433	43054
460.874	42057.6
461.315	43137.22
461.755	42170.76
462.196	41855.7
462.636	41169.75
463.077	40713.74
463.517	40883.95
463.957	41316.96
464.398	40855.29
464.838	41073.79
465.278	39940.12
465.718	40119.8
466.158	39111.4
466.598	39413.19
467.038	39118.53
467.478	39490.46
467.918	39638.4
468.358	38919.43
468.798	38556.37
469.237	38596.39
469.677	38592.96
470.117	39252.55
470.556	37081.54
470.996	37611.05
471.435	37827.23
471.874	38417.91
472.314	38111.19
472.753	37193.42
473.192	37379.3
473.631	36892.34
474.07	37056.81
474.509	37216.2
474.948	37381.26
475.387	36756.53
475.826	35980.43
476.265	37565.97
476.704	37081.78
477.143	37488.79
477.581	37119.48
478.02	37625.76
478.458	36474.25
478.897	37127.07
479.335	38147.25
479.774	37707.37
480.212	37758.35
480.65	37637.27
481.089	37349.17
481.527	36998.8
481.965	36603.88
482.403	38247.84
482.841	38177.43
483.279	38130.57
483.717	38085.19
484.155	37641.44
484.592	37897.59
485.03	38213.98
485.468	37392.03
485.905	37388.6
486.343	38067.78
486.781	37480.46
487.218	36835.57
487.655	36583.58
488.093	35969.43
488.53	37285.5
488.967	36461.29
489.405	36302.84
489.842	35484.73
490.279	35418.54
490.716	35231.98
491.153	35556.54
491.59	35068.16
492.027	34405.57
492.463	34078.67
492.9	33483.34
493.337	33454.57
493.773	33409.45
494.21	32703.83
494.647	32462.23
495.083	31822.73
495.519	31583.05
495.956	31356.04
496.392	30860.73
496.828	30667.55
497.265	29989.52
497.701	30071.02
498.137	29923.13
498.573	29044.16
499.009	29547.22
499.445	28778.35
499.881	28298.08
500.316	28547.42
500.752	27610.5
501.188	27601.93
501.624	27479.81
502.059	26416.36
502.495	26272.42
502.93	26175.54
503.366	26302.34
503.801	25634.15
504.236	25536.17
504.672	25142.6
505.107	24800.13
505.542	24403.52
505.977	24296.69
506.412	23860.99
506.847	24121.13
507.282	23556.58
507.717	23331.16
508.152	23355.58
508.587	23019.98
509.021	22392.53
509.456	22146
509.891	22287.95
510.325	22202.14
510.76	21884.98
511.194	21580.22
511.628	21681.75
512.063	21158.5
512.497	21109.91
512.931	20669.36
513.366	20577.02
513.8	20596.38
514.234	19926.87
514.668	19878.14
515.102	20136.41
515.536	19325.99
515.969	19566.45
516.403	19073.93
516.837	18800.02
517.271	18747.41
517.704	18411.89
518.138	18297.82
518.571	18083.07
519.005	17788.73
519.438	17726.73
519.871	17632.46
520.305	17286.46
520.738	17130.99
521.171	16791.53
521.604	16904.3
522.037	16724.11
522.47	16301.2
522.903	16108.9
523.336	15993.36
523.769	16056.41
524.202	15378.1
524.634	15429.69
525.067	15235.13
525.5	15042.21
525.932	14902.86
526.365	14597.49
526.797	14438.76
527.23	14489.49
527.662	13982.29
528.094	13826.26
528.527	13752.14
528.959	13515.47
529.391	13305.46
529.823	12901.95
530.255	12932.15
530.687	12703.13
531.119	12534.15
531.551	12484.33
531.982	12182.86
532.414	11937.33
532.846	11697.92
533.277	11696.64
533.709	11339.2
534.14	11230.06
534.572	11076.61
535.003	10943.02
535.435	10791.91
535.866	10614.02
536.297	10344.82
536.728	10351.5
537.159	10208.92
537.59	9995.49
538.022	9939.9
538.452	9696
538.883	9513.42
539.314	9485.04
539.745	9258.82
540.176	9176.89
540.606	8989.59
541.037	8902.85
541.468	8783.93
541.898	8648.83
542.328	8637.16
542.759	8415.43
543.189	8297.42
543.619	8202.73
544.05	8063.45
544.48	7899.26
544.91	7838.48
545.34	7679.25
545.77	7573.94
546.2	7553.03
546.63	7409.41
547.06	7347.89
547.489	7218.47
547.919	7019.09
548.349	7137.18
548.778	7018.57
549.208	6890.12
549.637	6751.01
550.067	6636.76
550.496	6666.52
550.926	6508.43
551.355	6386.82
551.784	6439.07
552.213	6245
552.642	6142.16
553.071	6105.91
553.5	6053.78
553.929	5884.24
554.358	5892.45
554.787	5785.57
555.216	5788.49
555.645	5626.77
556.073	5547.28
556.502	5583.44
556.93	5419.02
557.359	5344.17
557.787	5331.64
558.216	5250.06
558.644	5183.63
559.072	5124.1
559.5	5075.49
559.929	5045.56
560.357	5029.79
560.785	4928.98
561.213	4933.53
561.641	4816.54
562.068	4889.37
562.496	4753.04
562.924	4730.52
563.352	4717.38
563.779	4669.65
564.207	4716.85
564.634	4638.79
565.062	4590.48
565.489	4544.83
565.917	4480.61
566.344	4422.8
566.771	4479.26
567.198	4389.18
567.625	4305.2
568.053	4223.84
568.48	4225.46
568.907	4202.82
569.333	4073.6
569.76	3995.28
570.187	4050.65
570.614	3910.95
571.04	4060.1
571.467	3841.42
571.894	3788.9
572.32	3678.62
572.747	3667.5
573.173	3602.13
573.599	3516.88
574.026	3444.6
574.452	3431.01
574.878	3340.15
575.304	3291.69
575.73	3260.91
576.156	3198.78
576.582	3200.42
577.008	3110.68
577.434	3068.65
577.86	3001.73
578.285	2971.67
578.711	2926.56
579.137	2877.86
579.562	2769.71
579.988	2815.72
580.413	2748.33
580.838	2719.82
581.264	2711.32
581.689	2652.35
582.114	2577.14
582.539	2578.51
582.964	2530.44
583.39	2501.03
583.814	2485.37
584.239	2384.13
584.664	2367.61
585.089	2349.16
585.514	2293.51
585.939	2276.43
586.363	2281.39
586.788	2243.34
587.212	2208.87
587.637	2193.14
588.061	2142.63
588.485	2120.27
588.91	2097.89
589.334	2089.88
589.758	2016.91
590.182	1982.34
590.606	1969.89
591.03	1947.47
591.454	1916.47
591.878	1905.39
592.302	1901.52
592.726	1893.49
593.15	1868
593.573	1822.28
593.997	1775.42
594.42	1752.67
594.844	1704.93
595.267	1702.16
595.691	1707.43
596.114	1690.77
596.537	1685.5
596.96	1663.56
597.384	1648.84
597.807	1623.27
598.23	1612.71
598.653	1574.35
599.076	1537.91
599.499	1591.86
599.921	1571.84
600.344	1542.08
600.767	1540.69
601.189	1506.47
601.612	1506.19
602.034	1530.95
602.457	1459.69
602.879	1472.78
603.302	1465.54
603.724	1462.76
604.146	1442.98
604.568	1461.09
604.991	1429.05
605.413	1449.11
605.835	1433.79
606.257	1422.65
606.678	1406.21
607.1	1384.75
607.522	1398.96
607.944	1379.17
608.365	1372.2
608.787	1365.51
609.209	1344.87
609.63	1320.33
610.051	1350.73
610.473	1313.63
610.894	1322
611.315	1323.12
611.737	1286
612.158	1292.7
612.579	1252.78
613	1266.18
613.421	1229.88
613.842	1181.54
614.263	1167.29
614.683	1164.21
615.104	1169.25
615.525	1156.67
615.945	1127.3
616.366	1066.31
616.787	1111.92
617.207	1101.85
617.627	1113.6
618.048	1059.59
618.468	1069.95
618.888	1044.47
619.308	1044.75
619.728	1030.47
620.148	997.98
620.568	969.12
620.988	1004.42
621.408	988.73
621.828	981.73
622.248	963.51
622.668	930.99
623.087	956.78
623.507	940.8
623.926	937.16
624.346	939.68
624.765	940.24
625.185	904.35
625.604	916.69
626.023	889.2
626.442	865.34
626.861	900.14
627.28	881.62
627.699	868.99
628.118	869.84
628.537	856.92
628.956	820.99
629.375	852.71
629.794	849.91
630.212	841.2
630.631	781.66
631.049	794.03
631.468	802.17
631.886	803.86
632.305	804.7
632.723	779.42
633.141	783.07
633.559	751.88
633.978	746.54
634.396	765.93
634.814	743.16
635.232	730.79
635.65	733.89
636.067	739.51
636.485	731.64
636.903	734.45
637.321	750.47
637.738	703.8
638.156	711.39
638.573	697.33
638.991	720.39
639.408	708.3
639.825	682.7
640.243	694.52
640.66	678.2
641.077	686.64
641.494	664.97
641.911	673.13
642.328	651.47
642.745	683.54
643.162	647.24
643.579	677.07
643.995	655.12
644.412	653.15
644.829	634.58
645.245	634.86
645.662	639.36
646.078	643.02
646.495	589.24
646.911	633.17
647.327	627.82
647.743	618.53
648.159	626.98
648.576	616.84
648.992	607.55
649.408	584.45
649.824	597.13
650.239	601.91
650.655	611.77
651.071	626.13
651.487	588.68
651.902	582.2
652.318	574.87
652.733	559.94
653.149	581.35
653.564	590.93
653.979	590.37
654.395	579.94
654.81	568.39
655.225	580.51
655.64	584.45
656.055	561.35
656.47	572.62
656.885	579.38
657.3	572.62
657.715	563.88
658.13	557.12
658.544	562.19
658.959	543.31
659.374	552.89
659.788	518.79
660.202	565.58
660.617	532.88
661.031	536.27
661.445	556.84
661.86	546.13
662.274	554.3
662.688	538.52
663.102	555.71
663.516	538.52
663.93	543.31
664.344	548.1
664.758	539.93
665.171	521.04
665.585	536.55
665.999	563.6
666.412	535.42
666.826	533.45
667.239	530.63
667.653	504.69
668.066	514.84
668.479	502.43
668.892	511.74
669.306	521.61
669.719	509.2
670.132	497.64
670.545	510.89
670.958	489.46
671.37	508.92
671.783	504.12
672.196	492.56
672.609	484.66
673.021	487.2
673.434	508.07
673.846	465.76
674.259	505.82
674.671	508.64
675.084	495.38
675.496	505.25
675.908	499.05
676.32	487.2
676.732	487.2
677.144	462.09
677.556	495.95
677.968	499.61
678.38	503.28
678.792	467.74
679.204	488.05
679.615	478.46
680.027	485.23
680.439	468.87
680.85	488.05
681.262	497.92
681.673	441.78
682.084	464.35
682.496	436.98
682.907	453.35
683.318	487.48
683.729	464.35
684.14	486.64
684.551	464.92
684.962	466.04
685.373	458.99
685.784	484.1
686.194	474.79
686.605	460.12
687.016	454.76
687.426	454.19
687.837	445.16
688.247	434.15
688.657	462.09
689.068	449.68
689.478	460.97
689.888	462.09
690.298	464.07
690.708	466.61
691.118	485.23
691.528	466.04
691.938	461.81
692.348	458.14
692.758	422.3
693.168	426.53
693.577	454.19
693.987	468.3
694.396	438.39
694.806	442.9
695.215	429.07
695.625	445.16
696.034	462.66
696.443	435.85
696.852	443.75
697.262	453.35
697.671	433.87
698.08	455.89
698.489	446.01
698.897	420.89
699.306	453.91
699.715	451.94
700.124	438.95
700.532	422.3
700.941	421.17
701.35	453.63
701.758	447.14
702.166	444.88
702.575	437.26
702.983	444.88
703.391	449.11
703.799	437.26
704.208	440.93
704.616	421.45
705.024	432.18
705.432	442.34
705.839	421.17
706.247	450.52
706.655	432.46
707.063	430.2
707.47	424.84
707.878	433.31
708.285	431.33
708.693	429.07
709.1	421.45
709.508	425.4
709.915	418.35
710.322	446.29
710.729	424.84
711.136	436.69
711.543	425.4
711.95	423.71
712.357	402.53
712.764	428.23
713.171	404.51
713.578	413.55
713.984	409.03
714.391	440.36
714.797	410.44
715.204	438.67
715.61	433.59
716.017	428.79
716.423	417.22
716.829	420.04
717.236	420.89
717.642	435.28
718.048	423.15
718.454	413.26
718.86	407.33
719.266	429.36
719.671	437.82
720.077	430.77
720.483	427.66
720.889	409.03
721.294	409.31
721.7	403.38
722.105	396.04
722.511	408.75
722.916	404.51
723.321	423.99
723.726	423.99
724.132	418.91
724.537	395.47
724.942	416.09
725.347	401.12
725.752	445.73
726.156	405.64
726.561	397.73
726.966	423.99
727.371	388.98
727.775	414.96
728.18	385.31
728.584	407.05
728.989	399.15
729.393	411.85
729.798	445.16
730.202	399.43
730.606	411.29
731.01	427.1
731.414	419.76
731.818	392.65
732.222	436.98
732.626	413.55
733.03	398.02
733.434	442.62
733.837	409.59
734.241	402.53
734.645	424.27
735.048	414.39
735.452	392.09
735.855	404.79
736.258	416.09
736.662	378.81
737.065	413.83
737.468	403.38
737.871	424.27
738.274	392.09
738.677	388.41
739.08	399.71
739.483	405.08
739.886	405.64
740.289	421.45
740.691	411.85
741.094	420.04
741.497	405.64
741.899	437.54
742.302	418.63
742.704	406.21
743.106	410.16
743.508	430.2
743.911	417.78
744.313	395.76
744.715	391.8
745.117	419.76
745.519	408.18
745.921	419.76
746.323	423.43
746.724	400.28
747.126	398.58
747.528	401.97
747.929	401.97
748.331	383.61
748.732	388.41
749.134	411.01
749.535	397.73
749.936	418.91
750.338	380.79
750.739	402.53
751.14	430.77
751.541	399.99
751.942	375.42
752.343	419.48
752.744	390.11
753.144	403.1
753.545	415.24
753.946	398.58
754.346	398.3
754.747	400.28
755.148	416.09
755.548	400.56
755.948	380.5
756.349	398.86
756.749	404.51
757.149	385.02
757.549	396.04
757.949	379.66
758.349	394.34
758.749	402.82
759.149	408.75
759.549	392.93
759.949	375.14
760.348	407.33
760.748	409.03
761.148	392.09
761.547	392.93
761.947	425.97
762.346	412.13
762.745	404.51
763.145	395.19
763.544	416.65
763.943	399.99
764.342	404.51
764.741	380.22
765.14	394.06
765.539	396.04
765.938	434.44
766.336	387
766.735	420.89
767.134	395.19
767.532	407.33
767.931	388.98
768.329	407.62
768.728	396.6
769.126	377.12
769.525	404.79
769.923	401.12
770.321	386.15
770.719	383.61
771.117	388.98
771.515	387.28
771.913	409.88
772.311	410.72
772.709	418.06
773.106	423.99
773.504	409.31
773.902	401.97
774.299	398.86
774.697	443.47
775.094	394.06
775.491	393.78
775.889	383.89
776.286	387
776.683	411.01
777.08	419.76
777.477	411.85
777.874	381.35
778.271	407.9
778.668	387.57
779.065	396.04
779.462	388.41
779.858	386.15
780.255	407.33
780.652	400.28
781.048	397.45
781.444	402.53
781.841	390.96
782.237	384.46
782.633	399.71
783.03	385.59
783.426	375.42
783.822	410.16
784.218	385.87
784.614	379.94
785.01	394.63
785.405	413.26
785.801	418.91
786.197	385.31
786.593	400.28
786.988	400.56
787.384	408.46
787.779	392.09
788.174	378.25
788.57	403.66
788.965	392.09
789.36	377.4
789.755	388.13
790.15	394.06
790.545	386.15
790.94	379.09
791.335	393.21
791.73	407.05
792.125	403.95
792.52	368.08
792.914	394.06
793.309	403.38
793.703	412.13
794.098	377.68
794.492	387.57
794.887	413.83
795.281	392.65
795.675	379.37
796.069	398.3
796.463	404.79
796.857	418.35
797.251	408.75
797.645	381.92
798.039	392.93
798.433	392.37
798.826	385.02
799.22	392.37
799.614	374.01
800.007	397.45
800.401	370.62
800.794	389.83
801.187	395.19
801.581	414.68
801.974	393.21
802.367	384.74
802.76	381.35
803.153	354.8
803.546	368.36
803.939	375.99
804.332	403.1
804.725	385.02
805.117	402.53
805.51	342.93
805.903	380.5
806.295	404.79
806.688	398.3
807.08	343.49
807.472	362.42
807.865	379.66
808.257	409.31
808.649	395.47
809.041	396.32
809.433	374.01
809.825	400.56
810.217	403.38
810.609	394.91
811.001	393.5
811.392	389.83
811.784	403.38
812.175	397.17
812.567	390.11
812.958	412.7
813.35	398.02
813.741	387.57
814.132	382.76
814.524	416.37
814.915	410.16
815.306	407.33
815.697	366.38
816.088	381.92
816.479	376.83
816.87	399.15
817.26	388.98
817.651	395.76
818.042	393.5
818.432	394.91
818.823	406.49
819.213	400.56
819.604	407.05
819.994	397.73
820.384	392.09
820.775	416.09
821.165	408.75
821.555	380.5
821.945	408.75
822.335	395.76
822.725	364.4
823.114	392.93
823.504	379.09
823.894	373.73
824.284	375.42
824.673	367.23
825.063	384.18
825.452	379.09
825.842	389.54
826.231	388.41
826.62	379.66
827.009	373.73
827.399	381.92
827.788	403.1
828.177	382.76
828.566	401.4
828.954	379.09
829.343	379.09
829.732	368.08
830.121	403.66
830.509	369.49
830.898	389.26
831.286	378.25
831.675	389.83
832.063	388.98
832.452	372.6
832.84	402.25
833.228	396.04
833.616	403.66
834.004	390.11
834.392	398.02
834.78	409.88
835.168	422.02
835.556	402.82
835.944	411.57
836.331	386.72
836.719	407.33
837.107	408.18
837.494	385.59
837.881	372.6
838.269	407.33
838.656	383.33
839.043	405.64
839.431	399.15
839.818	410.72
840.205	383.05
840.592	401.97
840.979	383.05
841.366	397.73
841.752	382.2
842.139	380.22
842.526	394.06
842.912	394.63
843.299	390.96
843.685	411.01
844.072	385.59
844.458	378.53
844.844	388.98
845.231	387.57
845.617	405.08
846.003	386.44
846.389	396.89
846.775	395.19
847.161	408.46
847.547	365.25
847.933	374.29
848.318	360.73
848.704	377.4
849.09	398.3
849.475	386.44
849.861	417.5
850.246	396.6
850.631	403.38
851.017	392.93
851.402	377.96
851.787	397.73
852.172	422.02
852.557	412.42
852.942	396.04
853.327	391.52
853.712	381.07
854.097	389.83
854.481	395.19
854.866	412.7
855.25	407.62
855.635	380.22
856.019	392.65
856.404	388.7
856.788	379.37
857.172	363.55
857.557	374.86
857.941	379.94
858.325	399.99
858.709	412.42
859.093	379.09
859.477	399.15
859.86	368.36
860.244	375.7
860.628	387.85
861.012	386.44
861.395	383.61
861.779	392.65
862.162	392.93
862.545	366.1
862.929	355.08
863.312	418.06
863.695	395.76
864.078	366.95
864.461	383.89
864.844	386.15
865.227	359.6
865.61	381.63
865.993	391.8
866.376	400.56
866.758	390.11
867.141	379.37
867.523	383.89
867.906	392.93
868.288	373.44
868.671	366.66
869.053	373.44
869.435	357.06
869.817	362.14
870.199	379.94
870.581	376.55
870.963	396.6
871.345	364.12
871.727	362.42
872.109	382.2
872.491	402.25
872.872	390.11
873.254	408.46
873.635	341.23
874.017	364.97
874.398	380.22
874.779	377.68
875.161	372.31
875.542	390.96
875.923	404.23
876.304	365.53
876.685	380.5
877.066	378.25
877.447	382.76
877.828	379.09
878.208	368.36
878.589	404.23
878.97	407.05
879.35	380.22
879.731	372.88
880.111	366.1
880.491	379.94
880.872	387.85
881.252	374.01
881.632	377.68
882.012	372.88
882.392	383.33
882.772	374.57
883.152	376.55
883.532	381.35
883.912	380.22
884.291	364.97
884.671	379.66
885.051	386.15
885.43	393.21
885.81	392.37
886.189	384.46
886.568	387.28
886.948	379.09
887.327	378.25
887.706	379.09
888.085	394.63
888.464	376.55
888.843	378.81
889.222	384.46
889.601	396.6
889.979	368.36
890.358	374.86
890.737	386.15
891.115	358.47
891.494	377.68
891.872	395.76
892.25	350.27
892.629	379.37
893.007	387.57
893.385	382.76
893.763	365.53
894.141	397.45
894.519	394.91
894.897	401.97
895.275	381.63
895.653	368.36
896.03	392.37
896.408	366.95
896.786	342.36
897.163	364.12
897.541	361.58
897.918	394.06
898.295	362.42
898.673	380.22
899.05	374.29
899.427	401.4
899.804	383.61
900.181	379.09
900.558	382.76
900.935	387.57
901.312	366.38
901.688	385.59
902.065	366.38
902.442	404.79
902.818	388.41
903.195	368.64
903.571	382.48
903.947	375.7
904.324	371.18
904.7	388.13
905.076	348.01
905.452	378.53
905.828	377.12
906.204	399.15
906.58	389.26
906.956	372.31
907.331	413.55
907.707	382.48
908.083	383.61
908.458	368.08
908.834	384.18
909.209	370.05
909.585	360.16
909.96	379.09
910.335	384.46
910.71	389.83
911.086	387.57
911.461	363.84
911.836	352.82
912.21	375.99
912.585	373.73
912.96	389.83
913.335	355.36
913.709	375.7
914.084	366.95
914.459	362.99
914.833	353.1
915.207	401.97
915.582	356.21
915.956	381.35
916.33	381.92
916.704	387.85
917.078	382.48
917.452	368.92
917.826	359.88
918.2	379.09
918.574	359.03
918.948	382.76
919.321	376.83
919.695	356.21
920.068	366.95
920.442	365.25
920.815	395.19
921.189	370.9
921.562	367.51
921.935	362.99
922.308	360.16
922.681	365.25
923.054	377.4
923.427	393.21
923.8	383.61
924.173	384.18
924.546	382.76
924.919	385.31
925.291	375.14
925.664	420.89
926.036	361.29
926.409	366.1
926.781	395.19
927.153	372.6
927.526	379.09
927.898	387.57
928.27	375.7
928.642	384.46
929.014	379.09
929.386	376.27
929.758	376.27
930.129	380.79
930.501	374.01
930.873	377.4
931.244	383.89
931.616	366.38
931.987	382.2
932.359	379.09
932.73	386.15
933.101	372.31
933.472	380.22
933.843	388.41
934.214	391.24
934.585	383.61
934.956	383.33
935.327	379.09
935.698	397.17
936.069	387.85
936.439	343.21
936.81	374.29
937.18	372.88
937.551	367.23
937.921	369.77
938.292	367.79
938.662	387
939.032	372.31
939.402	368.08
939.772	365.81
940.142	394.06
940.512	379.37
940.882	394.91
941.252	402.53
941.621	374.57
941.991	374.01
942.361	398.58
942.73	380.22
943.1	368.92
943.469	375.99
943.838	386.44
944.208	362.71
944.577	376.55
944.946	381.07
945.315	381.07
945.684	373.73
946.053	366.66
946.422	383.61
946.791	410.16
947.159	369.21
947.528	356.77
947.897	385.59
948.265	399.15
948.634	378.53
949.002	381.63
949.371	396.6
949.739	377.12
950.107	381.92
950.475	382.48
950.843	371.75
951.211	384.18
951.579	375.14
951.947	386.44
952.315	393.21
952.683	363.84
953.05	399.71
953.418	386.15
953.785	377.96
954.153	368.08
954.52	360.73
954.888	379.37
955.255	391.24
955.622	391.8
955.989	403.66
956.356	374.01
956.723	379.37
957.09	388.7
957.457	386.72
957.824	399.15
958.191	385.02
958.557	371.18
958.924	382.2
959.291	369.49
959.657	390.39
960.023	362.14
960.39	383.05
960.756	384.18
961.122	378.25
961.488	383.33
961.855	395.47
962.221	369.49
962.586	363.84
962.952	373.73
963.318	381.92
963.684	365.53
964.05	402.82
964.415	385.59
964.781	378.53
965.146	358.47
965.512	346.6
965.877	373.44
966.242	391.24
966.608	384.46
966.973	377.4
967.338	392.93
967.703	358.75
968.068	383.89
968.433	369.49
968.797	362.71
969.162	364.12
969.527	378.81
969.891	381.35
970.256	373.73
970.62	395.76
970.985	375.99
971.349	363.84
971.714	383.61
972.078	357.34
972.442	374.86
972.806	374.01
973.17	383.33
973.534	412.42
973.898	345.19
974.262	362.71
974.625	372.88
974.989	380.22
975.353	392.09
975.716	387.28
976.08	386.15
976.443	357.9
976.806	381.35
977.17	363.27
977.533	358.47
977.896	393.21
978.259	380.79
978.622	372.88
978.985	382.76
979.348	385.59
979.711	366.38
980.073	385.31
980.436	378.81
980.799	372.31
981.161	398.86
981.524	385.59
981.886	374.01
982.248	352.25
982.611	393.21
982.973	364.97
983.335	376.83
983.697	371.47
984.059	364.68
984.421	361.86
984.783	351.12
985.145	374.29
985.506	370.62
985.868	355.93
986.23	378.53
986.591	366.38
986.953	382.2
987.314	368.64
987.675	388.41
988.037	547.54
988.398	389.83
988.759	377.12
989.12	389.83
989.481	372.31
989.842	378.53
990.203	370.9
990.564	351.69
990.924	372.31
991.285	519.91
991.646	379.37
992.006	387.28
992.367	374.29
992.727	363.27
993.087	350.27
993.448	382.2
993.808	352.82
994.168	382.76
994.528	366.38
994.888	362.99
995.248	372.6
995.608	362.14
995.967	374.01
996.327	379.37
996.687	359.88
997.046	364.68
997.406	390.39
997.765	373.73
998.125	382.2
998.484	378.25
998.843	383.61
999.202	372.31
999.561	376.83
999.92	372.03
1000.279	364.97
1000.638	371.47
1000.997	371.47
1001.356	383.05
1001.715	367.51
1002.073	353.95
1002.432	370.05
1002.79	398.86
1003.149	370.62
1003.507	383.89
1003.865	352.82
1004.224	374.57
1004.582	364.97
1004.94	365.25
1005.298	383.33
1005.656	386.72
1006.014	381.92
1006.371	373.16
1006.729	376.55
1007.087	375.42
1007.445	366.38
1007.802	389.54
1008.16	377.4
1008.517	371.47
1008.874	366.66
1009.232	383.05
1009.589	362.71
1009.946	394.34
1010.303	367.79
1010.66	390.11
1011.017	368.08
1011.374	359.6
1011.731	364.12
1012.087	366.66
1012.444	374.86
1012.801	363.84
1013.157	364.12
1013.513	391.24
1013.87	369.77
1014.226	380.22
1014.582	368.36
1014.939	371.47
1015.295	367.79
1015.651	396.6
1016.007	372.03
1016.363	361.01
1016.719	388.98
1017.074	355.36
1017.43	371.47
1017.786	387.57
1018.141	359.32
1018.497	380.5
1018.852	378.25
1019.208	375.42
1019.563	370.62
1019.918	396.89
1020.273	370.05
1020.628	355.08
1020.983	381.07
1021.338	385.87
1021.693	363.55
1022.048	355.08
1022.403	392.37
1022.757	363.84
1023.112	361.01
1023.467	376.27
1023.821	365.53
1024.175	368.36
1024.53	388.98
1024.884	381.07
1025.238	364.68
1025.592	377.12
1025.946	353.1
1026.3	368.36
1026.654	368.08
1027.008	359.03
1027.362	350.56
1027.716	389.83
1028.069	387.28
1028.423	364.68
1028.777	376.83
1029.13	348.58
1029.483	393.78
1029.837	406.21
1030.19	365.81
1030.543	372.6
1030.896	364.12
1031.249	390.11
1031.602	388.7
1031.955	379.09
1032.308	382.76
1032.661	366.95
1033.013	359.03
1033.366	374.01
1033.719	383.33
1034.071	376.55
1034.424	387.57
1034.776	356.77
1035.128	374.86
1035.48	369.21
1035.833	364.4
1036.185	361.58
1036.537	361.58
1036.889	361.58
