Data from BCF20_3_FLMS019251_15-03-18-754.txt Node
Date: Mon Feb 11 15:03:18 CET 2019
User: luk
Spectrometer: FLMS01925
Trigger mode: 0
Integration Time (sec): 5.829400E-1
Scans to average: 1
Electric dark correction enabled: true
Nonlinearity correction enabled: true
Boxcar width: 0
XAxis mode: Wavelengths
Number of Pixels in Spectrum: 2048
>>>>>Begin Spectral Data<<<<<
187.103	-97.13
187.574	-97.13
188.045	-97.13
188.516	-185.31
188.987	-119.88
189.458	-108.5
189.929	-151.17
190.4	-97.13
190.871	-156.86
191.342	-45.97
191.813	-119.88
192.284	2.31
192.754	-11.89
193.225	61.9
193.696	-14.73
194.166	22.18
194.637	73.25
195.107	172.46
195.578	146.96
196.048	127.12
196.518	98.77
196.989	254.56
197.459	175.29
197.929	229.09
198.399	333.74
198.869	313.95
199.339	384.6
199.809	345.05
200.279	333.74
200.749	333.74
201.219	353.52
201.689	376.13
202.159	401.55
202.628	390.25
203.098	345.05
203.568	390.25
204.037	373.3
204.507	356.35
204.976	469.29
205.445	373.3
205.915	378.95
206.384	455.18
206.853	441.07
207.323	429.78
207.792	398.72
208.261	373.3
208.73	435.42
209.199	404.37
209.668	415.66
210.137	435.42
210.606	404.37
211.075	429.78
211.543	489.04
212.012	443.89
212.481	322.43
212.95	387.42
213.418	432.6
213.887	333.74
214.355	350.7
214.824	322.43
215.292	401.55
215.76	311.13
216.229	356.35
216.697	296.99
217.165	401.55
217.633	339.39
218.101	390.25
218.569	514.42
219.037	362
219.505	429.78
219.973	387.42
220.441	322.43
220.909	367.65
221.377	387.42
221.844	432.6
222.312	384.6
222.78	407.19
223.247	435.42
223.715	424.13
224.182	401.55
224.65	381.78
225.117	398.72
225.584	378.95
226.052	407.19
226.519	356.35
226.986	296.99
227.453	265.88
227.92	407.19
228.387	410.02
228.854	333.74
229.321	333.74
229.788	452.36
230.255	455.18
230.722	418.49
231.189	373.3
231.655	458
232.122	364.83
232.589	282.85
233.055	313.95
233.522	432.6
233.988	350.7
234.454	407.19
234.921	381.78
235.387	443.89
235.853	378.95
236.32	274.36
236.786	410.02
237.252	443.89
237.718	452.36
238.184	305.47
238.65	356.35
239.116	390.25
239.582	384.6
240.047	404.37
240.513	364.83
240.979	305.47
241.445	288.5
241.91	274.36
242.376	280.02
242.841	378.95
243.307	313.95
243.772	435.42
244.238	378.95
244.703	398.72
245.168	362
245.633	370.48
246.099	350.7
246.564	362
247.029	424.13
247.494	455.18
247.959	325.26
248.424	347.87
248.889	387.42
249.353	441.07
249.818	345.05
250.283	336.57
250.748	342.22
251.212	378.95
251.677	381.78
252.141	390.25
252.606	364.83
253.07	378.95
253.535	474.93
253.999	381.78
254.463	345.05
254.927	350.7
255.392	395.9
255.856	449.54
256.32	359.18
256.784	333.74
257.248	393.07
257.712	370.48
258.176	466.47
258.64	404.37
259.103	356.35
259.567	330.92
260.031	313.95
260.495	429.78
260.958	449.54
261.422	356.35
261.885	412.84
262.349	387.42
262.812	398.72
263.275	336.57
263.739	373.3
264.202	429.78
264.665	367.65
265.128	401.55
265.591	376.13
266.054	325.26
266.517	432.6
266.98	328.09
267.443	333.74
267.906	412.84
268.369	364.83
268.832	345.05
269.294	460.82
269.757	424.13
270.22	412.84
270.682	452.36
271.145	339.39
271.607	393.07
272.07	508.78
272.532	305.47
272.994	398.72
273.456	438.25
273.919	742.46
274.381	359.18
274.843	404.37
275.305	463.65
275.767	426.96
276.229	325.26
276.691	398.72
277.153	426.96
277.614	494.68
278.076	342.22
278.538	415.66
279	378.95
279.461	370.48
279.923	443.89
280.384	367.65
280.846	387.42
281.307	362
281.769	426.96
282.23	333.74
282.691	390.25
283.152	316.78
283.613	353.52
284.075	364.83
284.536	418.49
284.997	424.13
285.458	364.83
285.918	367.65
286.379	378.95
286.84	426.96
287.301	311.13
287.762	345.05
288.222	446.71
288.683	356.35
289.143	359.18
289.604	463.65
290.064	407.19
290.525	333.74
290.985	497.5
291.445	393.07
291.906	393.07
292.366	376.13
292.826	418.49
293.286	455.18
293.746	398.72
294.206	308.3
294.666	390.25
295.126	443.89
295.586	424.13
296.046	350.7
296.506	345.05
296.965	407.19
297.425	412.84
297.884	401.55
298.344	393.07
298.804	401.55
299.263	426.96
299.722	441.07
300.182	384.6
300.641	438.25
301.1	390.25
301.559	443.89
302.019	404.37
302.478	359.18
302.937	353.52
303.396	384.6
303.855	491.86
304.314	393.07
304.772	613.04
305.231	299.82
305.69	364.83
306.149	429.78
306.607	376.13
307.066	463.65
307.524	395.9
307.983	356.35
308.441	466.47
308.9	424.13
309.358	370.48
309.816	477.75
310.275	508.78
310.733	480.57
311.191	441.07
311.649	404.37
312.107	367.65
312.565	404.37
313.023	424.13
313.481	410.02
313.939	359.18
314.397	362
314.854	505.96
315.312	458
315.77	407.19
316.227	483.39
316.685	410.02
317.142	449.54
317.6	333.74
318.057	353.52
318.514	393.07
318.972	339.39
319.429	404.37
319.886	345.05
320.343	282.85
320.8	393.07
321.257	404.37
321.714	443.89
322.171	401.55
322.628	443.89
323.085	438.25
323.542	387.42
323.998	345.05
324.455	384.6
324.912	486.21
325.368	404.37
325.825	435.42
326.281	345.05
326.738	410.02
327.194	353.52
327.65	336.57
328.107	469.29
328.563	401.55
329.019	350.7
329.475	407.19
329.931	426.96
330.387	458
330.843	345.05
331.299	370.48
331.755	381.78
332.211	393.07
332.666	395.9
333.122	294.16
333.578	364.83
334.033	421.31
334.489	364.83
334.944	494.68
335.4	494.68
335.855	418.49
336.31	407.19
336.766	395.9
337.221	477.75
337.676	449.54
338.131	443.89
338.586	398.72
339.041	387.42
339.496	497.5
339.951	426.96
340.406	395.9
340.861	384.6
341.316	378.95
341.771	336.57
342.225	393.07
342.68	364.83
343.134	398.72
343.589	373.3
344.043	426.96
344.498	370.48
344.952	429.78
345.406	801.47
345.861	280.02
346.315	319.61
346.769	376.13
347.223	381.78
347.677	387.42
348.131	460.82
348.585	390.25
349.039	429.78
349.493	359.18
349.947	429.78
350.401	404.37
350.854	299.82
351.308	460.82
351.762	274.36
352.215	410.02
352.669	296.99
353.122	294.16
353.575	376.13
354.029	384.6
354.482	441.07
354.935	469.29
355.388	353.52
355.842	491.86
356.295	472.11
356.748	370.48
357.201	424.13
357.654	491.86
358.106	350.7
358.559	370.48
359.012	381.78
359.465	401.55
359.917	350.7
360.37	353.52
360.823	438.25
361.275	364.83
361.728	407.19
362.18	376.13
362.632	463.65
363.085	347.87
363.537	480.57
363.989	381.78
364.441	390.25
364.893	387.42
365.345	370.48
365.797	373.3
366.249	404.37
366.701	373.3
367.153	356.35
367.605	404.37
368.057	387.42
368.508	370.48
368.96	347.87
369.411	316.78
369.863	398.72
370.314	486.21
370.766	472.11
371.217	381.78
371.669	359.18
372.12	395.9
372.571	415.66
373.022	353.52
373.473	421.31
373.924	466.47
374.375	393.07
374.826	376.13
375.277	299.82
375.728	362
376.179	350.7
376.63	443.89
377.08	441.07
377.531	345.05
377.981	347.87
378.432	426.96
378.883	559.52
379.333	415.66
379.783	441.07
380.234	410.02
380.684	376.13
381.134	418.49
381.584	432.6
382.034	489.04
382.485	458
382.935	384.6
383.385	438.25
383.834	384.6
384.284	407.19
384.734	390.25
385.184	421.31
385.634	342.22
386.083	438.25
386.533	398.72
386.982	548.24
387.432	429.78
387.881	441.07
388.331	342.22
388.78	412.84
389.229	401.55
389.679	376.13
390.128	421.31
390.577	373.3
391.026	333.74
391.475	265.88
391.924	333.74
392.373	407.19
392.822	370.48
393.27	474.93
393.719	407.19
394.168	367.65
394.617	415.66
395.065	415.66
395.514	438.25
395.962	472.11
396.411	299.82
396.859	421.31
397.307	421.31
397.756	460.82
398.204	410.02
398.652	441.07
399.1	407.19
399.548	424.13
399.996	443.89
400.444	486.21
400.892	364.83
401.34	477.75
401.788	362
402.236	429.78
402.683	381.78
403.131	418.49
403.579	469.29
404.026	347.87
404.474	342.22
404.921	410.02
405.369	370.48
405.816	424.13
406.263	313.95
406.71	429.78
407.158	429.78
407.605	494.68
408.052	435.42
408.499	381.78
408.946	387.42
409.393	421.31
409.84	483.39
410.286	356.35
410.733	432.6
411.18	412.84
411.626	424.13
412.073	370.48
412.52	407.19
412.966	469.29
413.413	463.65
413.859	390.25
414.305	404.37
414.752	398.72
415.198	412.84
415.644	364.83
416.09	418.49
416.536	376.13
416.982	407.19
417.428	469.29
417.874	328.09
418.32	308.3
418.766	328.09
419.211	432.6
419.657	424.13
420.103	410.02
420.548	446.71
420.994	426.96
421.439	424.13
421.885	441.07
422.33	441.07
422.776	412.84
423.221	455.18
423.666	531.33
424.111	404.37
424.556	472.11
425.001	469.29
425.446	395.9
425.891	404.37
426.336	477.75
426.781	539.79
427.226	452.36
427.671	347.87
428.115	347.87
428.56	418.49
429.005	460.82
429.449	443.89
429.894	426.96
430.338	500.32
430.782	426.96
431.227	432.6
431.671	441.07
432.115	455.18
432.559	390.25
433.003	438.25
433.447	412.84
433.891	370.48
434.335	418.49
434.779	441.07
435.223	432.6
435.667	345.05
436.111	489.04
436.554	342.22
436.998	466.47
437.442	463.65
437.885	458
438.328	412.84
438.772	412.84
439.215	282.85
439.659	387.42
440.102	441.07
440.545	452.36
440.988	373.3
441.431	359.18
441.874	395.9
442.317	421.31
442.76	421.31
443.203	466.47
443.646	426.96
444.089	477.75
444.531	441.07
444.974	418.49
445.417	407.19
445.859	359.18
446.302	446.71
446.744	443.89
447.186	460.82
447.629	443.89
448.071	342.22
448.513	407.19
448.956	452.36
449.398	443.89
449.84	441.07
450.282	424.13
450.724	336.57
451.166	466.47
451.607	536.97
452.049	449.54
452.491	452.36
452.933	494.68
453.374	520.06
453.816	435.42
454.257	426.96
454.699	443.89
455.14	528.51
455.582	455.18
456.023	429.78
456.464	415.66
456.905	503.14
457.347	500.32
457.788	424.13
458.229	410.02
458.67	449.54
459.111	378.95
459.552	491.86
459.992	486.21
460.433	418.49
460.874	460.82
461.315	367.65
461.755	469.29
462.196	472.11
462.636	370.48
463.077	421.31
463.517	429.78
463.957	424.13
464.398	404.37
464.838	539.79
465.278	508.78
465.718	483.39
466.158	480.57
466.598	432.6
467.038	404.37
467.478	596.14
467.918	545.43
468.358	610.22
468.798	582.06
469.237	556.7
469.677	624.3
470.117	790.23
470.556	933.37
470.996	981.03
471.435	1160.16
471.874	1389.07
472.314	1647.86
472.753	1975.01
473.192	2372.43
473.631	2718.59
474.07	3289.65
474.509	3921.9
474.948	4662.54
475.387	5394.92
475.826	6119.54
476.265	7267.34
476.704	8319.13
477.143	9657.46
477.581	10662.61
478.02	12090.82
478.458	12899.28
478.897	14748.45
479.335	16541.44
479.774	17535.8
480.212	19193.13
480.65	20851.12
481.089	22314.78
481.527	23571.5
481.965	24896.16
482.403	27677.43
482.841	28914.56
483.279	30606.2
483.717	32452.11
484.155	33581.01
484.592	35569.85
485.03	36838.62
485.468	37122.54
485.905	39510.52
486.343	40824.78
486.781	40923.62
487.218	42065.16
487.655	43164.26
488.093	43715.73
488.53	46474.12
488.967	46357.42
489.405	47408.75
489.842	47559.64
490.279	47861.99
490.716	48226.91
491.153	49702.53
491.59	50014.26
492.027	49760.08
492.463	50742.14
492.9	50258.73
493.337	50440.63
493.773	51074.25
494.21	50819.05
494.647	50766
495.083	50858.86
495.519	50885.41
495.956	51466.98
496.392	51295.7
496.828	51167.54
497.265	50501.36
497.701	50949.19
498.137	50771.3
498.573	49781.01
499.009	51394.66
499.445	50393.13
499.881	50245.57
500.316	50506.64
500.752	49176
501.188	49376.34
501.624	50290.34
502.059	48626.65
502.495	48605.98
502.93	48957.96
503.366	50137.72
503.801	48572.4
504.236	48353.11
504.672	48039.16
505.107	48105.99
505.542	46873.15
505.977	47360.2
506.412	47018.31
506.847	47454.76
507.282	47273.36
507.717	47041.24
508.152	46276.29
508.587	46491.88
509.021	45389.2
509.456	45570.77
509.891	45689.4
510.325	45570.77
510.76	45009.04
511.194	44963.78
511.628	45230.49
512.063	43983.23
512.497	44983.89
512.931	43695.74
513.366	43718.23
513.8	43530.92
514.234	42718.56
514.668	42964.96
515.102	43321.33
515.536	42094.94
515.969	42124.72
516.403	41715.53
516.837	41284.66
517.271	41420.79
517.704	41010.13
518.138	40609.9
518.571	40755.6
519.005	39830.61
519.438	39554.82
519.871	39394.86
520.305	38861.31
520.738	38696.72
521.171	38262.19
521.604	38596.03
522.037	38117.45
522.47	37587.9
522.903	36877.78
523.336	37293.94
523.769	36618.44
524.202	35831.24
524.634	35924.1
525.067	35623.59
525.5	35381.79
525.932	35147.38
526.365	34349.33
526.797	34156.61
527.23	34085.87
527.662	33656.6
528.094	33047
528.527	32708.1
528.959	32420.41
529.391	31688.99
529.823	31011.09
530.255	31330.55
530.687	30496.42
531.119	30010.87
531.551	30088.96
531.982	29461.64
532.414	29495.83
532.846	28633.57
533.277	28398.92
533.709	27684.77
534.14	27880.5
534.572	27001.72
535.003	26999.27
535.435	26406.19
535.866	26612.12
536.297	25493.31
536.728	26256.6
537.159	25517.87
537.59	25019.09
538.022	24910.91
538.452	24512.43
538.883	24113.62
539.314	23854.96
539.745	23117.6
540.176	23349.54
540.606	22448.27
541.037	22831.22
541.468	22047.67
541.898	21990.77
542.328	21839.81
542.759	21044.57
543.189	21505.55
543.619	20878.4
544.05	20205.61
544.48	20362.11
544.91	19840.21
545.34	19583.99
545.77	19790.47
546.2	19574.04
546.63	19223.02
547.06	19215.55
547.489	18729.58
547.919	18347.87
548.349	18689.68
548.778	18133.15
549.208	17805.85
549.637	17885.83
550.067	17725.85
550.496	17430.73
550.926	17278.07
551.355	16857.32
551.784	17052.73
552.213	16476.22
552.642	16328.18
553.071	16338.22
553.5	16112.29
553.929	15576.99
554.358	15730.38
554.787	15488.94
555.216	15368.16
555.645	14861.9
556.073	14851.82
556.502	14771.14
556.93	14523.94
557.359	14528.99
557.787	14160.34
558.216	13932.86
558.644	13649.52
559.072	13935.39
559.5	13816.52
559.929	13510.28
560.357	13426.7
560.785	13071.82
561.213	13436.83
561.641	12856.13
562.068	13107.33
562.496	13010.94
562.924	12848.52
563.352	12736.79
563.779	12627.55
564.207	12866.29
564.634	12589.43
565.062	12589.43
565.489	12172.3
565.917	12396.22
566.344	12200.3
566.771	11971.1
567.198	12302.09
567.625	11588.58
568.053	11532.42
568.48	11381.74
568.907	11302.53
569.333	11284.64
569.76	10547.2
570.187	10739.51
570.614	10731.82
571.04	20642.68
571.467	10215.99
571.894	10149.16
572.32	9904.77
572.747	9969.11
573.173	9466.59
573.599	9306.49
574.026	9278.07
574.452	9316.83
574.878	9197.96
575.304	8931.47
575.73	8571.11
576.156	8347.73
576.582	8498.42
577.008	8225.5
577.434	8350.33
577.86	7837.31
578.285	7933.81
578.711	7743.36
579.137	7740.75
579.562	7285.68
579.988	7463.71
580.413	7102.16
580.838	7086.42
581.264	7052.3
581.689	6960.4
582.114	6855.29
582.539	7795.56
582.964	6665.86
583.39	6729.04
583.814	6164.5
584.239	6196.23
584.664	6101.02
585.089	5968.64
585.514	5883.84
585.939	6077.2
586.363	5886.49
586.788	5764.47
587.212	5644.97
587.637	5575.87
588.061	5424.21
588.485	5248.33
588.91	5448.17
589.334	5168.29
589.758	5267
590.182	5181.63
590.606	5040.08
591.03	5058.79
591.454	4860.86
591.878	4678.63
592.302	4689.36
592.726	4818.01
593.15	4692.04
593.573	4318.53
593.997	4533.68
594.42	4372.36
594.844	4307.76
595.267	4278.13
595.691	4208.07
596.114	4094.79
596.537	4159.54
596.96	3970.56
597.384	4205.38
597.807	3975.96
598.23	3838.04
598.653	3838.04
599.076	3667.37
599.499	3794.72
599.921	3708.03
600.344	3702.61
600.767	3621.26
601.189	3748.68
601.612	3561.55
602.034	3501.81
602.457	3515.39
602.879	3756.81
603.302	3496.37
603.724	3531.68
604.146	3501.81
604.568	3167.02
604.991	3357.7
605.413	3395.79
605.835	3229.72
606.257	3229.72
606.678	3237.89
607.1	3393.07
607.522	3156.11
607.944	3327.77
608.365	3224.27
608.787	3087.89
609.209	3240.62
609.63	3139.74
610.051	3022.36
610.473	2964.97
610.894	3109.73
611.315	2869.24
611.737	3049.67
612.158	2748.74
612.579	2765.18
613	2973.17
613.421	2754.22
613.842	2559.43
614.263	2671.97
614.683	2487.98
615.104	2520.96
615.525	2526.46
615.945	2435.73
616.366	2276.01
616.787	2421.97
617.207	2394.45
617.627	2193.28
618.048	2179.48
618.468	2187.76
618.888	2113.22
619.308	2055.2
619.728	2129.79
620.148	2041.38
620.568	2033.09
620.988	1947.34
621.408	2055.2
621.828	1983.31
622.248	1922.42
622.668	2071.78
623.087	1980.54
623.507	1806.06
623.926	1853.18
624.346	1794.97
624.765	1797.74
625.185	1775.56
625.604	1781.1
626.023	1750.59
626.442	1692.3
626.861	1739.49
627.28	1478.21
627.699	1575.6
628.118	1553.35
628.537	1547.79
628.956	1631.19
629.375	1617.3
629.794	1556.13
630.212	1506.05
630.631	1564.47
631.049	1450.36
631.468	1469.86
631.886	1450.36
632.305	1486.56
632.723	1361.19
633.141	1347.24
633.559	1397.43
633.978	1302.61
634.396	1333.3
634.814	1308.19
635.232	1358.4
635.65	1271.91
636.067	1230.02
636.485	1305.4
636.903	1216.05
637.321	1224.43
637.738	1313.77
638.156	1255.15
638.573	1134.99
638.991	1235.61
639.408	1369.55
639.825	1101.43
640.243	1271.91
640.66	1039.85
641.077	1179.73
641.494	1090.24
641.911	1129.4
642.328	1095.83
642.745	1076.24
643.162	1073.44
643.579	1101.43
643.995	986.63
644.412	1031.45
644.829	868.85
645.245	964.21
645.662	950.19
646.078	874.47
646.495	891.3
646.911	995.04
647.327	1014.65
647.743	919.35
648.159	885.69
648.576	888.5
648.992	919.35
649.408	882.88
649.824	846.4
650.239	739.65
650.655	894.11
651.071	829.55
651.487	880.08
651.902	764.95
652.318	717.16
652.733	767.76
653.149	784.61
653.564	837.98
653.979	748.08
654.395	739.65
654.81	804.28
655.225	722.78
655.64	857.63
656.055	750.89
656.47	880.08
656.885	812.7
657.3	804.28
657.715	804.28
658.13	739.65
658.544	781.8
658.959	714.34
659.374	739.65
659.788	717.16
660.202	677.78
660.617	823.94
661.031	722.78
661.445	694.66
661.86	649.64
662.274	753.7
662.688	815.51
663.102	697.47
663.516	705.91
663.93	638.38
664.344	719.97
664.758	722.78
665.171	646.82
665.585	728.4
665.999	593.32
666.412	646.82
666.826	663.71
667.239	621.49
667.653	593.32
668.066	638.38
668.479	705.91
668.892	579.24
669.306	629.93
669.719	689.03
670.132	576.42
670.545	621.49
670.958	621.49
671.37	635.56
671.783	590.51
672.196	742.46
672.609	573.61
673.021	534.15
673.434	514.42
673.846	576.42
674.259	579.24
674.671	517.24
675.084	576.42
675.496	514.42
675.908	607.41
676.32	542.61
676.732	522.87
677.144	596.14
677.556	531.33
677.968	489.04
678.38	596.14
678.792	565.15
679.204	528.51
679.615	601.77
680.027	548.24
680.439	483.39
680.85	596.14
681.262	601.77
681.673	553.88
682.084	514.42
682.496	562.33
682.907	590.51
683.318	480.57
683.729	517.24
684.14	491.86
684.551	534.15
684.962	570.79
685.373	536.97
685.784	477.75
686.194	525.69
686.605	446.71
687.016	514.42
687.426	469.29
687.837	435.42
688.247	384.6
688.657	531.33
689.068	474.93
689.478	469.29
689.888	441.07
690.298	455.18
690.708	432.6
691.118	370.48
691.528	520.06
691.938	472.11
692.348	446.71
692.758	435.42
693.168	477.75
693.577	477.75
693.987	472.11
694.396	412.84
694.806	401.55
695.215	503.14
695.625	424.13
696.034	443.89
696.443	491.86
696.852	458
697.262	429.78
697.671	441.07
698.08	384.6
698.489	474.93
698.897	435.42
699.306	347.87
699.715	489.04
700.124	489.04
700.532	347.87
700.941	407.19
701.35	404.37
701.758	531.33
702.166	441.07
702.575	410.02
702.983	359.18
703.391	421.31
703.799	319.61
704.208	438.25
704.616	401.55
705.024	432.6
705.432	356.35
705.839	412.84
706.247	483.39
706.655	486.21
707.063	384.6
707.47	435.42
707.878	463.65
708.285	387.42
708.693	505.96
709.1	364.83
709.508	446.71
709.915	472.11
710.322	407.19
710.729	545.43
711.136	390.25
711.543	452.36
711.95	466.47
712.357	426.96
712.764	446.71
713.171	356.35
713.578	455.18
713.984	401.55
714.391	449.54
714.797	446.71
715.204	463.65
715.61	497.5
716.017	384.6
716.423	449.54
716.829	390.25
717.236	472.11
717.642	359.18
718.048	483.39
718.454	398.72
718.86	333.74
719.266	472.11
719.671	353.52
720.077	415.66
720.483	480.57
720.889	536.97
721.294	404.37
721.7	373.3
722.105	432.6
722.511	407.19
722.916	480.57
723.321	426.96
723.726	500.32
724.132	463.65
724.537	455.18
724.942	407.19
725.347	455.18
725.752	350.7
726.156	308.3
726.561	469.29
726.966	404.37
727.371	429.78
727.775	505.96
728.18	446.71
728.584	322.43
728.989	381.78
729.393	551.06
729.798	376.13
730.202	469.29
730.606	362
731.01	410.02
731.414	296.99
731.818	328.09
732.222	418.49
732.626	415.66
733.03	407.19
733.434	395.9
733.837	404.37
734.241	393.07
734.645	415.66
735.048	370.48
735.452	398.72
735.855	410.02
736.258	336.57
736.662	404.37
737.065	573.61
737.468	474.93
737.871	356.35
738.274	426.96
738.677	319.61
739.08	404.37
739.483	342.22
739.886	288.5
740.289	410.02
740.691	356.35
741.094	325.26
741.497	373.3
741.899	435.42
742.302	288.5
742.704	390.25
743.106	398.72
743.508	376.13
743.911	412.84
744.313	441.07
744.715	463.65
745.117	424.13
745.519	429.78
745.921	328.09
746.323	410.02
746.724	347.87
747.126	446.71
747.528	460.82
747.929	370.48
748.331	407.19
748.732	342.22
749.134	339.39
749.535	330.92
749.936	460.82
750.338	415.66
750.739	503.14
751.14	393.07
751.541	418.49
751.942	342.22
752.343	296.99
752.744	412.84
753.144	404.37
753.545	393.07
753.946	378.95
754.346	390.25
754.747	514.42
755.148	500.32
755.548	376.13
755.948	418.49
756.349	373.3
756.749	401.55
757.149	452.36
757.549	429.78
757.949	364.83
758.349	336.57
758.749	373.3
759.149	330.92
759.549	421.31
759.949	356.35
760.348	500.32
760.748	308.3
761.148	452.36
761.547	373.3
761.947	373.3
762.346	362
762.745	491.86
763.145	415.66
763.544	415.66
763.943	398.72
764.342	376.13
764.741	362
765.14	381.78
765.539	376.13
765.938	469.29
766.336	424.13
766.735	364.83
767.134	285.68
767.532	412.84
767.931	322.43
768.329	553.88
768.728	373.3
769.126	401.55
769.525	503.14
769.923	407.19
770.321	381.78
770.719	359.18
771.117	333.74
771.515	395.9
771.913	342.22
772.311	387.42
772.709	364.83
773.106	350.7
773.504	330.92
773.902	294.16
774.299	378.95
774.697	508.78
775.094	336.57
775.491	345.05
775.889	364.83
776.286	367.65
776.683	398.72
777.08	426.96
777.477	384.6
777.874	356.35
778.271	407.19
778.668	333.74
779.065	494.68
779.462	370.48
779.858	395.9
780.255	410.02
780.652	463.65
781.048	421.31
781.444	404.37
781.841	438.25
782.237	378.95
782.633	415.66
783.03	395.9
783.426	426.96
783.822	364.83
784.218	378.95
784.614	404.37
785.01	393.07
785.405	342.22
785.801	339.39
786.197	362
786.593	421.31
786.988	319.61
787.384	463.65
787.779	393.07
788.174	364.83
788.57	407.19
788.965	362
789.36	342.22
789.755	381.78
790.15	395.9
790.545	353.52
790.94	410.02
791.335	356.35
791.73	364.83
792.125	438.25
792.52	350.7
792.914	384.6
793.309	345.05
793.703	429.78
794.098	330.92
794.492	432.6
794.887	319.61
795.281	435.42
795.675	381.78
796.069	458
796.463	271.53
796.857	401.55
797.251	412.84
797.645	410.02
798.039	390.25
798.433	342.22
798.826	412.84
799.22	345.05
799.614	373.3
800.007	395.9
800.401	435.42
800.794	350.7
801.187	328.09
801.581	438.25
801.974	336.57
802.367	333.74
802.76	313.95
803.153	353.52
803.546	313.95
803.939	387.42
804.332	294.16
804.725	342.22
805.117	373.3
805.51	426.96
805.903	401.55
806.295	426.96
806.688	333.74
807.08	330.92
807.472	387.42
807.865	333.74
808.257	460.82
808.649	441.07
809.041	311.13
809.433	435.42
809.825	559.52
810.217	336.57
810.609	387.42
811.001	429.78
811.392	390.25
811.784	441.07
812.175	336.57
812.567	418.49
812.958	336.57
813.35	474.93
813.741	370.48
814.132	410.02
814.524	296.99
814.915	342.22
815.306	347.87
815.697	364.83
816.088	305.47
816.479	435.42
816.87	339.39
817.26	359.18
817.651	424.13
818.042	393.07
818.432	395.9
818.823	460.82
819.213	364.83
819.604	407.19
819.994	370.48
820.384	381.78
820.775	421.31
821.165	429.78
821.555	342.22
821.945	353.52
822.335	342.22
822.725	384.6
823.114	404.37
823.504	463.65
823.894	328.09
824.284	469.29
824.673	393.07
825.063	370.48
825.452	426.96
825.842	398.72
826.231	491.86
826.62	421.31
827.009	342.22
827.399	426.96
827.788	373.3
828.177	322.43
828.566	367.65
828.954	508.78
829.343	426.96
829.732	308.3
830.121	429.78
830.509	469.29
830.898	302.64
831.286	370.48
831.675	395.9
832.063	449.54
832.452	401.55
832.84	438.25
833.228	421.31
833.616	387.42
834.004	381.78
834.392	373.3
834.78	494.68
835.168	373.3
835.556	458
835.944	426.96
836.331	393.07
836.719	330.92
837.107	370.48
837.494	333.74
837.881	393.07
838.269	308.3
838.656	356.35
839.043	393.07
839.431	373.3
839.818	432.6
840.205	328.09
840.592	333.74
840.979	393.07
841.366	376.13
841.752	384.6
842.139	398.72
842.526	345.05
842.912	483.39
843.299	373.3
843.685	364.83
844.072	384.6
844.458	378.95
844.844	376.13
845.231	398.72
845.617	311.13
846.003	449.54
846.389	339.39
846.775	339.39
847.161	458
847.547	435.42
847.933	347.87
848.318	251.73
848.704	376.13
849.09	350.7
849.475	350.7
849.861	393.07
850.246	328.09
850.631	373.3
851.017	376.13
851.402	364.83
851.787	438.25
852.172	443.89
852.557	398.72
852.942	395.9
853.327	390.25
853.712	438.25
854.097	435.42
854.481	373.3
854.866	268.7
855.25	328.09
855.635	347.87
856.019	429.78
856.404	376.13
856.788	376.13
857.172	398.72
857.557	376.13
857.941	472.11
858.325	339.39
858.709	356.35
859.093	311.13
859.477	362
859.86	426.96
860.244	387.42
860.628	435.42
861.012	345.05
861.395	308.3
861.779	364.83
862.162	294.16
862.545	350.7
862.929	362
863.312	378.95
863.695	384.6
864.078	285.68
864.461	342.22
864.844	426.96
865.227	474.93
865.61	280.02
865.993	401.55
866.376	384.6
866.758	415.66
867.141	432.6
867.523	449.54
867.906	277.19
868.288	415.66
868.671	376.13
869.053	429.78
869.435	381.78
869.817	378.95
870.199	353.52
870.581	316.78
870.963	393.07
871.345	426.96
871.727	486.21
872.109	356.35
872.491	302.64
872.872	342.22
873.254	387.42
873.635	370.48
874.017	384.6
874.398	393.07
874.779	412.84
875.161	435.42
875.542	410.02
875.923	364.83
876.304	359.18
876.685	339.39
877.066	384.6
877.447	339.39
877.828	378.95
878.208	342.22
878.589	438.25
878.97	443.89
879.35	359.18
879.731	294.16
880.111	299.82
880.491	336.57
880.872	322.43
881.252	393.07
881.632	330.92
882.012	469.29
882.392	359.18
882.772	395.9
883.152	449.54
883.532	395.9
883.912	429.78
884.291	376.13
884.671	336.57
885.051	336.57
885.43	381.78
885.81	364.83
886.189	328.09
886.568	359.18
886.948	376.13
887.327	410.02
887.706	395.9
888.085	398.72
888.464	410.02
888.843	458
889.222	429.78
889.601	347.87
889.979	429.78
890.358	401.55
890.737	412.84
891.115	336.57
891.494	257.39
891.872	353.52
892.25	345.05
892.629	395.9
893.007	455.18
893.385	421.31
893.763	407.19
894.141	441.07
894.519	455.18
894.897	390.25
895.275	356.35
895.653	280.02
896.03	398.72
896.408	356.35
896.786	390.25
897.163	395.9
897.541	347.87
897.918	384.6
898.295	362
898.673	373.3
899.05	381.78
899.427	635.56
899.804	393.07
900.181	342.22
900.558	483.39
900.935	342.22
901.312	322.43
901.688	330.92
902.065	390.25
902.442	438.25
902.818	378.95
903.195	339.39
903.571	373.3
903.947	316.78
904.324	376.13
904.7	345.05
905.076	438.25
905.452	325.26
905.828	460.82
906.204	328.09
906.58	356.35
906.956	477.75
907.331	376.13
907.707	359.18
908.083	387.42
908.458	429.78
908.834	362
909.209	339.39
909.585	387.42
909.96	305.47
910.335	364.83
910.71	426.96
911.086	387.42
911.461	441.07
911.836	398.72
912.21	294.16
912.585	460.82
912.96	407.19
913.335	410.02
913.709	418.49
914.084	393.07
914.459	342.22
914.833	359.18
915.207	328.09
915.582	370.48
915.956	415.66
916.33	401.55
916.704	313.95
917.078	353.52
917.452	494.68
917.826	347.87
918.2	367.65
918.574	393.07
918.948	316.78
919.321	291.33
919.695	313.95
920.068	407.19
920.442	449.54
920.815	455.18
921.189	336.57
921.562	370.48
921.935	364.83
922.308	387.42
922.681	356.35
923.054	274.36
923.427	489.04
923.8	350.7
924.173	345.05
924.546	316.78
924.919	412.84
925.291	328.09
925.664	404.37
926.036	401.55
926.409	342.22
926.781	401.55
927.153	319.61
927.526	404.37
927.898	345.05
928.27	322.43
928.642	367.65
929.014	407.19
929.386	296.99
929.758	345.05
930.129	299.82
930.501	407.19
930.873	325.26
931.244	322.43
931.616	480.57
931.987	373.3
932.359	364.83
932.73	449.54
933.101	373.3
933.472	350.7
933.843	432.6
934.214	469.29
934.585	336.57
934.956	370.48
935.327	511.6
935.698	339.39
936.069	401.55
936.439	319.61
936.81	325.26
937.18	305.47
937.551	330.92
937.921	412.84
938.292	418.49
938.662	404.37
939.032	302.64
939.402	333.74
939.772	328.09
940.142	432.6
940.512	376.13
940.882	370.48
941.252	446.71
941.621	302.64
941.991	429.78
942.361	407.19
942.73	376.13
943.1	362
943.469	296.99
943.838	376.13
944.208	393.07
944.577	333.74
944.946	376.13
945.315	305.47
945.684	345.05
946.053	415.66
946.422	356.35
946.791	328.09
947.159	336.57
947.528	282.85
947.897	421.31
948.265	384.6
948.634	364.83
949.002	410.02
949.371	421.31
949.739	362
950.107	364.83
950.475	373.3
950.843	407.19
951.211	435.42
951.579	325.26
951.947	401.55
952.315	432.6
952.683	353.52
953.05	299.82
953.418	376.13
953.785	390.25
954.153	384.6
954.52	350.7
954.888	395.9
955.255	390.25
955.622	260.22
955.989	347.87
956.356	387.42
956.723	370.48
957.09	469.29
957.457	359.18
957.824	268.7
958.191	356.35
958.557	393.07
958.924	299.82
959.291	410.02
959.657	364.83
960.023	452.36
960.39	398.72
960.756	384.6
961.122	469.29
961.488	424.13
961.855	342.22
962.221	362
962.586	415.66
962.952	474.93
963.318	384.6
963.684	525.69
964.05	398.72
964.415	330.92
964.781	285.68
965.146	381.78
965.512	497.5
965.877	412.84
966.242	435.42
966.608	356.35
966.973	370.48
967.338	353.52
967.703	418.49
968.068	362
968.433	412.84
968.797	528.51
969.162	429.78
969.527	319.61
969.891	393.07
970.256	395.9
970.62	438.25
970.985	393.07
971.349	367.65
971.714	359.18
972.078	438.25
972.442	370.48
972.806	376.13
973.17	373.3
973.534	359.18
973.898	319.61
974.262	393.07
974.625	407.19
974.989	347.87
975.353	387.42
975.716	395.9
976.08	285.68
976.443	410.02
976.806	330.92
977.17	514.42
977.533	342.22
977.896	345.05
978.259	390.25
978.622	508.78
978.985	390.25
979.348	271.53
979.711	311.13
980.073	311.13
980.436	370.48
980.799	339.39
981.161	489.04
981.524	367.65
981.886	322.43
982.248	342.22
982.611	364.83
982.973	294.16
983.335	350.7
983.697	390.25
984.059	362
984.421	311.13
984.783	302.64
985.145	342.22
985.506	311.13
985.868	342.22
986.23	356.35
986.591	325.26
986.953	401.55
987.314	294.16
987.675	305.47
988.037	8131.81
988.398	579.24
988.759	395.9
989.12	432.6
989.481	472.11
989.842	441.07
990.203	322.43
990.564	387.42
990.924	384.6
991.285	6784.29
991.646	522.87
992.006	401.55
992.367	339.39
992.727	393.07
993.087	313.95
993.448	435.42
993.808	316.78
994.168	353.52
994.528	347.87
994.888	443.89
995.248	339.39
995.608	410.02
995.967	311.13
996.327	336.57
996.687	288.5
997.046	342.22
997.406	350.7
997.765	299.82
998.125	410.02
998.484	362
998.843	514.42
999.202	359.18
999.561	367.65
999.92	282.85
1000.279	387.42
1000.638	407.19
1000.997	313.95
1001.356	362
1001.715	263.05
1002.073	339.39
1002.432	404.37
1002.79	291.33
1003.149	313.95
1003.507	373.3
1003.865	410.02
1004.224	285.68
1004.582	263.05
1004.94	398.72
1005.298	308.3
1005.656	345.05
1006.014	345.05
1006.371	412.84
1006.729	299.82
1007.087	407.19
1007.445	441.07
1007.802	328.09
1008.16	328.09
1008.517	395.9
1008.874	443.89
1009.232	438.25
1009.589	652.45
1009.946	342.22
1010.303	342.22
1010.66	373.3
1011.017	353.52
1011.374	410.02
1011.731	418.49
1012.087	350.7
1012.444	347.87
1012.801	390.25
1013.157	322.43
1013.513	330.92
1013.87	330.92
1014.226	263.05
1014.582	322.43
1014.939	328.09
1015.295	384.6
1015.651	350.7
1016.007	345.05
1016.363	469.29
1016.719	359.18
1017.074	421.31
1017.43	285.68
1017.786	356.35
1018.141	305.47
1018.497	353.52
1018.852	311.13
1019.208	311.13
1019.563	322.43
1019.918	404.37
1020.273	339.39
1020.628	362
1020.983	418.49
1021.338	316.78
1021.693	421.31
1022.048	285.68
1022.403	342.22
1022.757	313.95
1023.112	302.64
1023.467	305.47
1023.821	350.7
1024.175	328.09
1024.53	353.52
1024.884	500.32
1025.238	342.22
1025.592	381.78
1025.946	347.87
1026.3	367.65
1026.654	356.35
1027.008	305.47
1027.362	285.68
1027.716	336.57
1028.069	384.6
1028.423	339.39
1028.777	319.61
1029.13	356.35
1029.483	426.96
1029.837	268.7
1030.19	393.07
1030.543	350.7
1030.896	429.78
1031.249	359.18
1031.602	330.92
1031.955	342.22
1032.308	347.87
1032.661	359.18
1033.013	415.66
1033.366	395.9
1033.719	452.36
1034.071	387.42
1034.424	370.48
1034.776	229.09
1035.128	353.52
1035.48	381.78
1035.833	424.13
1036.185	359.18
1036.537	359.18
1036.889	359.18
