Data from BCF20_3_FLMS019251_15-07-07-242.txt Node
Date: Mon Feb 11 15:07:07 CET 2019
User: luk
Spectrometer: FLMS01925
Trigger mode: 0
Integration Time (sec): 9.932400E-1
Scans to average: 1
Electric dark correction enabled: true
Nonlinearity correction enabled: true
Boxcar width: 0
XAxis mode: Wavelengths
Number of Pixels in Spectrum: 2048
>>>>>Begin Spectral Data<<<<<
187.103	-140.85
187.574	-140.85
188.045	-140.85
188.516	-157.92
188.987	29.63
189.458	-98.2
189.929	-123.79
190.4	-4.44
190.871	-101.04
191.342	-132.32
191.813	-126.63
192.284	18.28
192.754	-132.32
193.225	46.65
193.696	-12.96
194.166	1.24
194.637	196.89
195.107	94.88
195.578	92.04
196.048	165.73
196.518	114.72
196.989	168.56
197.459	185.56
197.929	194.05
198.399	473.87
198.869	222.37
199.339	222.37
199.809	276.13
200.279	420.25
200.749	363.77
201.219	377.89
201.689	287.44
202.159	253.5
202.628	290.27
203.098	375.07
203.568	315.72
204.037	343.99
204.507	366.59
204.976	411.78
205.445	380.72
205.915	307.24
206.384	349.64
206.853	310.07
207.323	338.33
207.792	519
208.261	329.86
208.73	397.66
209.199	406.13
209.668	346.81
210.137	301.58
210.606	414.61
211.075	358.12
211.543	375.07
212.012	445.66
212.481	321.37
212.95	360.94
213.418	434.37
213.887	346.81
214.355	360.94
214.824	230.86
215.292	324.2
215.76	304.41
216.229	276.13
216.697	278.96
217.165	315.72
217.633	315.72
218.101	352.46
218.569	558.46
219.037	304.41
219.505	454.12
219.973	414.61
220.441	392.01
220.909	276.13
221.377	408.96
221.844	369.42
222.312	304.41
222.78	394.84
223.247	281.79
223.715	295.93
224.182	372.24
224.65	341.16
225.117	363.77
225.584	284.62
226.052	261.99
226.519	352.46
226.986	318.55
227.453	375.07
227.92	188.39
228.387	403.31
228.854	256.33
229.321	250.67
229.788	454.12
230.255	360.94
230.722	389.19
231.189	389.19
231.655	335.51
232.122	318.55
232.589	324.2
233.055	281.79
233.522	445.66
233.988	293.1
234.454	363.77
234.921	406.13
235.387	386.37
235.853	360.94
236.32	295.93
236.786	273.3
237.252	318.55
237.718	544.37
238.184	312.89
238.65	312.89
239.116	301.58
239.582	335.51
240.047	312.89
240.513	332.68
240.979	343.99
241.445	276.13
241.91	400.49
242.376	366.59
242.841	462.59
243.307	355.29
243.772	298.76
244.238	343.99
244.703	462.59
245.168	358.12
245.633	327.03
246.099	315.72
246.564	315.72
247.029	318.55
247.494	293.1
247.959	329.86
248.424	301.58
248.889	335.51
249.353	482.34
249.818	363.77
250.283	307.24
250.748	383.54
251.212	315.72
251.677	293.1
252.141	307.24
252.606	442.83
253.07	312.89
253.535	375.07
253.999	352.46
254.463	403.31
254.927	278.96
255.392	270.47
255.856	301.58
256.32	352.46
256.784	253.5
257.248	304.41
257.712	352.46
258.176	530.27
258.64	358.12
259.103	389.19
259.567	358.12
260.031	414.61
260.495	346.81
260.958	411.78
261.422	338.33
261.885	360.94
262.349	338.33
262.812	304.41
263.275	366.59
263.739	420.25
264.202	476.69
264.665	397.66
265.128	414.61
265.591	383.54
266.054	318.55
266.517	414.61
266.98	335.51
267.443	321.37
267.906	318.55
268.369	493.62
268.832	389.19
269.294	253.5
269.757	298.76
270.22	375.07
270.682	451.3
271.145	327.03
271.607	321.37
272.07	581
272.532	290.27
272.994	318.55
273.456	448.48
273.919	856.57
274.381	338.33
274.843	423.07
275.305	380.72
275.767	394.84
276.229	408.96
276.691	397.66
277.153	287.44
277.614	377.89
278.076	346.81
278.538	397.66
279	239.35
279.461	355.29
279.923	541.55
280.384	310.07
280.846	335.51
281.307	369.42
281.769	310.07
282.23	369.42
282.691	377.89
283.152	276.13
283.613	338.33
284.075	343.99
284.536	451.3
284.997	372.24
285.458	276.13
285.918	363.77
286.379	377.89
286.84	516.18
287.301	335.51
287.762	332.68
288.222	290.27
288.683	298.76
289.143	377.89
289.604	372.24
290.064	304.41
290.525	332.68
290.985	564.1
291.445	400.49
291.906	194.05
292.366	397.66
292.826	372.24
293.286	375.07
293.746	377.89
294.206	431.54
294.666	369.42
295.126	397.66
295.586	318.55
296.046	247.84
296.506	324.2
296.965	349.64
297.425	369.42
297.884	386.37
298.344	341.16
298.804	417.43
299.263	352.46
299.722	343.99
300.182	278.96
300.641	284.62
301.1	329.86
301.559	414.61
302.019	276.13
302.478	349.64
302.937	358.12
303.396	420.25
303.855	592.27
304.314	383.54
304.772	685.16
305.231	287.44
305.69	375.07
306.149	389.19
306.607	380.72
307.066	406.13
307.524	456.94
307.983	369.42
308.441	406.13
308.9	524.64
309.358	363.77
309.816	569.73
310.275	332.68
310.733	295.93
311.191	400.49
311.649	375.07
312.107	377.89
312.565	293.1
313.023	375.07
313.481	411.78
313.939	335.51
314.397	298.76
314.854	346.81
315.312	442.83
315.77	507.72
316.227	293.1
316.685	270.47
317.142	281.79
317.6	442.83
318.057	454.12
318.514	307.24
318.972	352.46
319.429	459.77
319.886	211.04
320.343	329.86
320.8	307.24
321.257	386.37
321.714	411.78
322.171	502.08
322.628	392.01
323.085	363.77
323.542	386.37
323.998	343.99
324.455	276.13
324.912	406.13
325.368	369.42
325.825	471.05
326.281	377.89
326.738	417.43
327.194	307.24
327.65	372.24
328.107	428.72
328.563	372.24
329.019	397.66
329.475	312.89
329.931	437.19
330.387	352.46
330.843	199.72
331.299	380.72
331.755	366.59
332.211	366.59
332.666	358.12
333.122	343.99
333.578	332.68
334.033	304.41
334.489	490.8
334.944	349.64
335.4	519
335.855	485.16
336.31	267.64
336.766	389.19
337.221	459.77
337.676	324.2
338.131	375.07
338.586	406.13
339.041	360.94
339.496	434.37
339.951	298.76
340.406	363.77
340.861	363.77
341.316	318.55
341.771	366.59
342.225	372.24
342.68	408.96
343.134	352.46
343.589	397.66
344.043	377.89
344.498	261.99
344.952	403.31
345.406	960.36
345.861	392.01
346.315	434.37
346.769	335.51
347.223	366.59
347.677	386.37
348.131	355.29
348.585	287.44
349.039	355.29
349.493	332.68
349.947	312.89
350.401	304.41
350.854	276.13
351.308	468.23
351.762	321.37
352.215	394.84
352.669	375.07
353.122	377.89
353.575	383.54
354.029	343.99
354.482	273.3
354.935	380.72
355.388	513.36
355.842	335.51
356.295	360.94
356.748	278.96
357.201	372.24
357.654	400.49
358.106	383.54
358.559	341.16
359.012	377.89
359.465	307.24
359.917	360.94
360.37	392.01
360.823	329.86
361.275	473.87
361.728	312.89
362.18	414.61
362.632	411.78
363.085	341.16
363.537	329.86
363.989	343.99
364.441	343.99
364.893	310.07
365.345	363.77
365.797	346.81
366.249	366.59
366.701	327.03
367.153	253.5
367.605	290.27
368.057	355.29
368.508	394.84
368.96	194.05
369.411	360.94
369.863	485.16
370.314	496.44
370.766	408.96
371.217	341.16
371.669	442.83
372.12	471.05
372.571	471.05
373.022	380.72
373.473	437.19
373.924	499.26
374.375	490.8
374.826	366.59
375.277	411.78
375.728	360.94
376.179	352.46
376.63	428.72
377.08	451.3
377.531	270.47
377.981	301.58
378.432	448.48
378.883	550.01
379.333	425.9
379.783	295.93
380.234	327.03
380.684	315.72
381.134	406.13
381.584	372.24
382.034	504.9
382.485	346.81
382.935	267.64
383.385	386.37
383.834	312.89
384.284	485.16
384.734	293.1
385.184	423.07
385.634	335.51
386.083	332.68
386.533	346.81
386.982	386.37
387.432	473.87
387.881	377.89
388.331	389.19
388.78	513.36
389.229	386.37
389.679	335.51
390.128	366.59
390.577	377.89
391.026	315.72
391.475	239.35
391.924	389.19
392.373	310.07
392.822	321.37
393.27	403.31
393.719	273.3
394.168	366.59
394.617	327.03
395.065	417.43
395.514	411.78
395.962	403.31
396.411	315.72
396.859	380.72
397.307	471.05
397.756	281.79
398.204	298.76
398.652	482.34
399.1	366.59
399.548	304.41
399.996	510.54
400.444	389.19
400.892	400.49
401.34	298.76
401.788	318.55
402.236	392.01
402.683	321.37
403.131	440.01
403.579	310.07
404.026	284.62
404.474	400.49
404.921	349.64
405.369	284.62
405.816	366.59
406.263	284.62
406.71	327.03
407.158	250.67
407.605	341.16
408.052	304.41
408.499	431.54
408.946	392.01
409.393	335.51
409.84	245.01
410.286	363.77
410.733	392.01
411.18	332.68
411.626	400.49
412.073	293.1
412.52	386.37
412.966	473.87
413.413	394.84
413.859	298.76
414.305	380.72
414.752	278.96
415.198	375.07
415.644	431.54
416.09	440.01
416.536	383.54
416.982	434.37
417.428	431.54
417.874	261.99
418.32	352.46
418.766	380.72
419.211	389.19
419.657	335.51
420.103	414.61
420.548	352.46
420.994	428.72
421.439	310.07
421.885	343.99
422.33	423.07
422.776	256.33
423.221	487.98
423.666	310.07
424.111	411.78
424.556	343.99
425.001	343.99
425.446	358.12
425.891	355.29
426.336	349.64
426.781	626.06
427.226	315.72
427.671	383.54
428.115	400.49
428.56	380.72
429.005	445.66
429.449	358.12
429.894	408.96
430.338	603.53
430.782	310.07
431.227	417.43
431.671	377.89
432.115	324.2
432.559	270.47
433.003	355.29
433.447	295.93
433.891	327.03
434.335	355.29
434.779	307.24
435.223	473.87
435.667	375.07
436.111	1669.04
436.554	304.41
436.998	346.81
437.442	386.37
437.885	363.77
438.328	389.19
438.772	369.42
439.215	327.03
439.659	380.72
440.102	363.77
440.545	315.72
440.988	417.43
441.431	318.55
441.874	338.33
442.317	307.24
442.76	352.46
443.203	414.61
443.646	352.46
444.089	386.37
444.531	431.54
444.974	420.25
445.417	400.49
445.859	369.42
446.302	329.86
446.744	335.51
447.186	358.12
447.629	394.84
448.071	315.72
448.513	425.9
448.956	304.41
449.398	281.79
449.84	425.9
450.282	442.83
450.724	343.99
451.166	420.25
451.607	578.18
452.049	315.72
452.491	397.66
452.933	389.19
453.374	544.37
453.816	408.96
454.257	335.51
454.699	431.54
455.14	389.19
455.582	358.12
456.023	284.62
456.464	349.64
456.905	408.96
457.347	564.1
457.788	366.59
458.229	375.07
458.67	386.37
459.111	386.37
459.552	397.66
459.992	349.64
460.433	459.77
460.874	335.51
461.315	386.37
461.755	504.9
462.196	375.07
462.636	411.78
463.077	338.33
463.517	375.07
463.957	304.41
464.398	397.66
464.838	310.07
465.278	363.77
465.718	307.24
466.158	335.51
466.598	403.31
467.038	304.41
467.478	448.48
467.918	318.55
468.358	485.16
468.798	423.07
469.237	375.07
469.677	360.94
470.117	414.61
470.556	335.51
470.996	473.87
471.435	295.93
471.874	403.31
472.314	287.44
472.753	377.89
473.192	442.83
473.631	335.51
474.07	327.03
474.509	468.23
474.948	406.13
475.387	228.03
475.826	451.3
476.265	324.2
476.704	383.54
477.143	386.37
477.581	437.19
478.02	341.16
478.458	417.43
478.897	465.41
479.335	465.41
479.774	372.24
480.212	403.31
480.65	386.37
481.089	346.81
481.527	442.83
481.965	437.19
482.403	310.07
482.841	414.61
483.279	428.72
483.717	437.19
484.155	389.19
484.592	445.66
485.03	372.24
485.468	324.2
485.905	411.78
486.343	473.87
486.781	428.72
487.218	408.96
487.655	372.24
488.093	360.94
488.53	324.2
488.967	329.86
489.405	397.66
489.842	425.9
490.279	465.41
490.716	513.36
491.153	380.72
491.59	425.9
492.027	372.24
492.463	358.12
492.9	411.78
493.337	315.72
493.773	338.33
494.21	380.72
494.647	332.68
495.083	372.24
495.519	363.77
495.956	386.37
496.392	400.49
496.828	389.19
497.265	375.07
497.701	431.54
498.137	392.01
498.573	270.47
499.009	360.94
499.445	375.07
499.881	420.25
500.316	423.07
500.752	386.37
501.188	392.01
501.624	290.27
502.059	397.66
502.495	428.72
502.93	375.07
503.366	1477.17
503.801	372.24
504.236	278.96
504.672	329.86
505.107	358.12
505.542	366.59
505.977	380.72
506.412	434.37
506.847	375.07
507.282	434.37
507.717	293.1
508.152	383.54
508.587	349.64
509.021	369.42
509.456	360.94
509.891	301.58
510.325	307.24
510.76	335.51
511.194	327.03
511.628	352.46
512.063	389.19
512.497	403.31
512.931	310.07
513.366	284.62
513.8	392.01
514.234	366.59
514.668	298.76
515.102	349.64
515.536	324.2
515.969	473.87
516.403	276.13
516.837	462.59
517.271	414.61
517.704	428.72
518.138	403.31
518.571	355.29
519.005	499.26
519.438	389.19
519.871	335.51
520.305	411.78
520.738	411.78
521.171	442.83
521.604	428.72
522.037	524.64
522.47	592.27
522.903	366.59
523.336	363.77
523.769	442.83
524.202	445.66
524.634	389.19
525.067	338.33
525.5	267.64
525.932	538.73
526.365	502.08
526.797	298.76
527.23	335.51
527.662	389.19
528.094	507.72
528.527	338.33
528.959	338.33
529.391	473.87
529.823	377.89
530.255	397.66
530.687	403.31
531.119	471.05
531.551	420.25
531.982	355.29
532.414	392.01
532.846	490.8
533.277	377.89
533.709	318.55
534.14	400.49
534.572	417.43
535.003	338.33
535.435	349.64
535.866	448.48
536.297	372.24
536.728	454.12
537.159	341.16
537.59	324.2
538.022	366.59
538.452	550.01
538.883	499.26
539.314	437.19
539.745	406.13
540.176	343.99
540.606	394.84
541.037	329.86
541.468	304.41
541.898	408.96
542.328	310.07
542.759	420.25
543.189	403.31
543.619	307.24
544.05	459.77
544.48	372.24
544.91	448.48
545.34	411.78
545.77	375.07
546.2	360.94
546.63	392.01
547.06	343.99
547.489	445.66
547.919	301.58
548.349	425.9
548.778	406.13
549.208	411.78
549.637	423.07
550.067	343.99
550.496	327.03
550.926	425.9
551.355	372.24
551.784	310.07
552.213	213.87
552.642	312.89
553.071	423.07
553.5	358.12
553.929	287.44
554.358	358.12
554.787	315.72
555.216	451.3
555.645	321.37
556.073	473.87
556.502	400.49
556.93	324.2
557.359	318.55
557.787	406.13
558.216	392.01
558.644	327.03
559.072	360.94
559.5	392.01
559.929	301.58
560.357	372.24
560.785	392.01
561.213	425.9
561.641	445.66
562.068	445.66
562.496	307.24
562.924	400.49
563.352	406.13
563.779	360.94
564.207	343.99
564.634	324.2
565.062	360.94
565.489	420.25
565.917	425.9
566.344	315.72
566.771	327.03
567.198	414.61
567.625	239.35
568.053	394.84
568.48	397.66
568.907	363.77
569.333	456.94
569.76	420.25
570.187	397.66
570.614	476.69
571.04	17972.35
571.467	867.8
571.894	369.42
572.32	454.12
572.747	392.01
573.173	440.01
573.599	420.25
574.026	445.66
574.452	420.25
574.878	343.99
575.304	352.46
575.73	250.67
576.156	360.94
576.582	341.16
577.008	327.03
577.434	363.77
577.86	335.51
578.285	363.77
578.711	358.12
579.137	442.83
579.562	431.54
579.988	310.07
580.413	414.61
580.838	304.41
581.264	335.51
581.689	392.01
582.114	366.59
582.539	1921.38
582.964	386.37
583.39	451.3
583.814	360.94
584.239	389.19
584.664	366.59
585.089	386.37
585.514	471.05
585.939	420.25
586.363	406.13
586.788	428.72
587.212	380.72
587.637	406.13
588.061	380.72
588.485	278.96
588.91	295.93
589.334	270.47
589.758	459.77
590.182	485.16
590.606	327.03
591.03	442.83
591.454	335.51
591.878	338.33
592.302	301.58
592.726	493.62
593.15	301.58
593.573	389.19
593.997	448.48
594.42	225.2
594.844	349.64
595.267	298.76
595.691	462.59
596.114	310.07
596.537	346.81
596.96	375.07
597.384	310.07
597.807	375.07
598.23	349.64
598.653	389.19
599.076	307.24
599.499	394.84
599.921	386.37
600.344	425.9
600.767	377.89
601.189	476.69
601.612	335.51
602.034	307.24
602.457	468.23
602.879	744.22
603.302	397.66
603.724	400.49
604.146	403.31
604.568	349.64
604.991	431.54
605.413	335.51
605.835	417.43
606.257	315.72
606.678	295.93
607.1	414.61
607.522	428.72
607.944	578.18
608.365	408.96
608.787	228.03
609.209	490.8
609.63	369.42
610.051	290.27
610.473	420.25
610.894	375.07
611.315	389.19
611.737	411.78
612.158	389.19
612.579	295.93
613	465.41
613.421	321.37
613.842	349.64
614.263	445.66
614.683	261.99
615.104	318.55
615.525	394.84
615.945	358.12
616.366	253.5
616.787	329.86
617.207	363.77
617.627	392.01
618.048	360.94
618.468	332.68
618.888	324.2
619.308	324.2
619.728	411.78
620.148	290.27
620.568	451.3
620.988	456.94
621.408	411.78
621.828	264.81
622.248	287.44
622.668	499.26
623.087	360.94
623.507	343.99
623.926	366.59
624.346	360.94
624.765	459.77
625.185	358.12
625.604	343.99
626.023	428.72
626.442	425.9
626.861	383.54
627.28	394.84
627.699	310.07
628.118	273.3
628.537	377.89
628.956	476.69
629.375	431.54
629.794	423.07
630.212	465.41
630.631	519
631.049	425.9
631.468	499.26
631.886	321.37
632.305	335.51
632.723	442.83
633.141	366.59
633.559	397.66
633.978	383.54
634.396	440.01
634.814	369.42
635.232	343.99
635.65	420.25
636.067	471.05
636.485	408.96
636.903	315.72
637.321	304.41
637.738	471.05
638.156	366.59
638.573	397.66
638.991	454.12
639.408	566.91
639.825	304.41
640.243	406.13
640.66	329.86
641.077	425.9
641.494	408.96
641.911	397.66
642.328	431.54
642.745	380.72
643.162	417.43
643.579	403.31
643.995	369.42
644.412	538.73
644.829	315.72
645.245	397.66
645.662	355.29
646.078	360.94
646.495	332.68
646.911	324.2
647.327	550.01
647.743	338.33
648.159	482.34
648.576	264.81
648.992	417.43
649.408	360.94
649.824	273.3
650.239	377.89
650.655	315.72
651.071	397.66
651.487	448.48
651.902	403.31
652.318	270.47
652.733	403.31
653.149	295.93
653.564	366.59
653.979	321.37
654.395	324.2
654.81	327.03
655.225	329.86
655.64	389.19
656.055	327.03
656.47	355.29
656.885	369.42
657.3	295.93
657.715	485.16
658.13	375.07
658.544	456.94
658.959	343.99
659.374	256.33
659.788	431.54
660.202	307.24
660.617	451.3
661.031	400.49
661.445	428.72
661.86	329.86
662.274	369.42
662.688	403.31
663.102	394.84
663.516	448.48
663.93	278.96
664.344	389.19
664.758	327.03
665.171	261.99
665.585	366.59
665.999	360.94
666.412	349.64
666.826	482.34
667.239	301.58
667.653	219.54
668.066	301.58
668.479	561.28
668.892	298.76
669.306	355.29
669.719	411.78
670.132	400.49
670.545	304.41
670.958	394.84
671.37	349.64
671.783	298.76
672.196	462.59
672.609	295.93
673.021	352.46
673.434	346.81
673.846	355.29
674.259	403.31
674.671	295.93
675.084	363.77
675.496	293.1
675.908	372.24
676.32	343.99
676.732	324.2
677.144	250.67
677.556	318.55
677.968	329.86
678.38	417.43
678.792	383.54
679.204	284.62
679.615	380.72
680.027	335.51
680.439	369.42
680.85	448.48
681.262	533.09
681.673	259.16
682.084	377.89
682.496	332.68
682.907	445.66
683.318	380.72
683.729	392.01
684.14	411.78
684.551	389.19
684.962	440.01
685.373	343.99
685.784	355.29
686.194	338.33
686.605	321.37
687.016	335.51
687.426	349.64
687.837	315.72
688.247	295.93
688.657	332.68
689.068	389.19
689.478	369.42
689.888	284.62
690.298	493.62
690.708	310.07
691.118	349.64
691.528	321.37
691.938	346.81
692.348	293.1
692.758	327.03
693.168	341.16
693.577	440.01
693.987	310.07
694.396	386.37
694.806	329.86
695.215	386.37
695.625	420.25
696.034	406.13
696.443	295.93
696.852	459.77
697.262	324.2
697.671	324.2
698.08	346.81
698.489	312.89
698.897	310.07
699.306	372.24
699.715	372.24
700.124	304.41
700.532	372.24
700.941	406.13
701.35	273.3
701.758	471.05
702.166	358.12
702.575	318.55
702.983	346.81
703.391	363.77
703.799	338.33
704.208	343.99
704.616	363.77
705.024	440.01
705.432	408.96
705.839	369.42
706.247	468.23
706.655	482.34
707.063	329.86
707.47	250.67
707.878	304.41
708.285	298.76
708.693	343.99
709.1	301.58
709.508	363.77
709.915	341.16
710.322	440.01
710.729	558.46
711.136	423.07
711.543	273.3
711.95	363.77
712.357	471.05
712.764	383.54
713.171	281.79
713.578	442.83
713.984	295.93
714.391	310.07
714.797	301.58
715.204	425.9
715.61	369.42
716.017	312.89
716.423	366.59
716.829	411.78
717.236	332.68
717.642	366.59
718.048	389.19
718.454	366.59
718.86	343.99
719.266	513.36
719.671	321.37
720.077	355.29
720.483	315.72
720.889	400.49
721.294	372.24
721.7	349.64
722.105	338.33
722.511	358.12
722.916	349.64
723.321	335.51
723.726	403.31
724.132	312.89
724.537	372.24
724.942	375.07
725.347	406.13
725.752	383.54
726.156	349.64
726.561	352.46
726.966	363.77
727.371	465.41
727.775	454.12
728.18	363.77
728.584	341.16
728.989	318.55
729.393	538.73
729.798	386.37
730.202	392.01
730.606	420.25
731.01	256.33
731.414	400.49
731.818	352.46
732.222	355.29
732.626	261.99
733.03	355.29
733.434	321.37
733.837	414.61
734.241	366.59
734.645	420.25
735.048	281.79
735.452	327.03
735.855	315.72
736.258	383.54
736.662	487.98
737.065	510.54
737.468	341.16
737.871	375.07
738.274	369.42
738.677	363.77
739.08	335.51
739.483	403.31
739.886	392.01
740.289	394.84
740.691	397.66
741.094	360.94
741.497	389.19
741.899	456.94
742.302	318.55
742.704	256.33
743.106	273.3
743.508	321.37
743.911	366.59
744.313	369.42
744.715	293.1
745.117	261.99
745.519	372.24
745.921	473.87
746.323	406.13
746.724	386.37
747.126	346.81
747.528	431.54
747.929	312.89
748.331	397.66
748.732	290.27
749.134	276.13
749.535	233.69
749.936	423.07
750.338	290.27
750.739	434.37
751.14	349.64
751.541	304.41
751.942	310.07
752.343	377.89
752.744	383.54
753.144	392.01
753.545	358.12
753.946	434.37
754.346	366.59
754.747	589.45
755.148	687.98
755.548	327.03
755.948	332.68
756.349	383.54
756.749	471.05
757.149	290.27
757.549	403.31
757.949	383.54
758.349	312.89
758.749	406.13
759.149	304.41
759.549	338.33
759.949	324.2
760.348	490.8
760.748	397.66
761.148	369.42
761.547	341.16
761.947	327.03
762.346	372.24
762.745	482.34
763.145	360.94
763.544	414.61
763.943	425.9
764.342	290.27
764.741	423.07
765.14	318.55
765.539	355.29
765.938	485.16
766.336	264.81
766.735	310.07
767.134	375.07
767.532	355.29
767.931	329.86
768.329	535.91
768.728	332.68
769.126	369.42
769.525	462.59
769.923	261.99
770.321	434.37
770.719	428.72
771.117	355.29
771.515	278.96
771.913	307.24
772.311	434.37
772.709	386.37
773.106	287.44
773.504	293.1
773.902	346.81
774.299	383.54
774.697	572.55
775.094	400.49
775.491	397.66
775.889	360.94
776.286	352.46
776.683	321.37
777.08	343.99
777.477	329.86
777.874	335.51
778.271	335.51
778.668	389.19
779.065	281.79
779.462	341.16
779.858	366.59
780.255	372.24
780.652	360.94
781.048	476.69
781.444	335.51
781.841	400.49
782.237	471.05
782.633	278.96
783.03	335.51
783.426	298.76
783.822	327.03
784.218	270.47
784.614	377.89
785.01	366.59
785.405	264.81
785.801	301.58
786.197	352.46
786.593	417.43
786.988	473.87
787.384	377.89
787.779	377.89
788.174	346.81
788.57	431.54
788.965	420.25
789.36	315.72
789.755	400.49
790.15	230.86
790.545	324.2
790.94	346.81
791.335	386.37
791.73	327.03
792.125	541.55
792.52	456.94
792.914	377.89
793.309	363.77
793.703	425.9
794.098	245.01
794.492	406.13
794.887	377.89
795.281	459.77
795.675	479.52
796.069	524.64
796.463	346.81
796.857	490.8
797.251	310.07
797.645	400.49
798.039	355.29
798.433	287.44
798.826	298.76
799.22	276.13
799.614	372.24
800.007	411.78
800.401	321.37
800.794	411.78
801.187	377.89
801.581	335.51
801.974	473.87
802.367	428.72
802.76	406.13
803.153	338.33
803.546	372.24
803.939	431.54
804.332	278.96
804.725	318.55
805.117	397.66
805.51	431.54
805.903	352.46
806.295	225.2
806.688	284.62
807.08	329.86
807.472	386.37
807.865	397.66
808.257	369.42
808.649	476.69
809.041	318.55
809.433	392.01
809.825	521.82
810.217	338.33
810.609	403.31
811.001	448.48
811.392	434.37
811.784	341.16
812.175	284.62
812.567	383.54
812.958	377.89
813.35	406.13
813.741	307.24
814.132	312.89
814.524	284.62
814.915	360.94
815.306	318.55
815.697	352.46
816.088	406.13
816.479	397.66
816.87	392.01
817.26	341.16
817.651	533.09
818.042	307.24
818.432	363.77
818.823	406.13
819.213	363.77
819.604	358.12
819.994	403.31
820.384	312.89
820.775	392.01
821.165	324.2
821.555	310.07
821.945	360.94
822.335	394.84
822.725	360.94
823.114	349.64
823.504	338.33
823.894	278.96
824.284	487.98
824.673	386.37
825.063	363.77
825.452	380.72
825.842	327.03
826.231	420.25
826.62	369.42
827.009	363.77
827.399	428.72
827.788	352.46
828.177	346.81
828.566	434.37
828.954	572.55
829.343	476.69
829.732	273.3
830.121	654.21
830.509	434.37
830.898	343.99
831.286	403.31
831.675	431.54
832.063	420.25
832.452	321.37
832.84	293.1
833.228	440.01
833.616	335.51
834.004	369.42
834.392	349.64
834.78	521.82
835.168	352.46
835.556	451.3
835.944	394.84
836.331	471.05
836.719	448.48
837.107	437.19
837.494	369.42
837.881	335.51
838.269	321.37
838.656	343.99
839.043	310.07
839.431	490.8
839.818	389.19
840.205	298.76
840.592	298.76
840.979	293.1
841.366	349.64
841.752	327.03
842.139	304.41
842.526	321.37
842.912	329.86
843.299	335.51
843.685	493.62
844.072	307.24
844.458	406.13
844.844	358.12
845.231	377.89
845.617	298.76
846.003	352.46
846.389	363.77
846.775	338.33
847.161	428.72
847.547	394.84
847.933	295.93
848.318	250.67
848.704	318.55
849.09	307.24
849.475	346.81
849.861	324.2
850.246	425.9
850.631	476.69
851.017	256.33
851.402	372.24
851.787	377.89
852.172	462.59
852.557	431.54
852.942	321.37
853.327	352.46
853.712	366.59
854.097	358.12
854.481	335.51
854.866	343.99
855.25	301.58
855.635	270.47
856.019	327.03
856.404	327.03
856.788	360.94
857.172	406.13
857.557	307.24
857.941	358.12
858.325	301.58
858.709	324.2
859.093	211.04
859.477	250.67
859.86	411.78
860.244	366.59
860.628	524.64
861.012	372.24
861.395	375.07
861.779	338.33
862.162	321.37
862.545	383.54
862.929	380.72
863.312	284.62
863.695	363.77
864.078	445.66
864.461	324.2
864.844	445.66
865.227	533.09
865.61	295.93
865.993	281.79
866.376	355.29
866.758	445.66
867.141	425.9
867.523	375.07
867.906	256.33
868.288	360.94
868.671	338.33
869.053	332.68
869.435	403.31
869.817	423.07
870.199	346.81
870.581	335.51
870.963	338.33
871.345	377.89
871.727	389.19
872.109	247.84
872.491	315.72
872.872	403.31
873.254	332.68
873.635	366.59
874.017	392.01
874.398	312.89
874.779	377.89
875.161	264.81
875.542	366.59
875.923	389.19
876.304	315.72
876.685	332.68
877.066	383.54
877.447	360.94
877.828	377.89
878.208	301.58
878.589	507.72
878.97	499.26
879.35	358.12
879.731	360.94
880.111	327.03
880.491	329.86
880.872	324.2
881.252	315.72
881.632	290.27
882.012	471.05
882.392	386.37
882.772	383.54
883.152	307.24
883.532	372.24
883.912	372.24
884.291	352.46
884.671	312.89
885.051	386.37
885.43	301.58
885.81	363.77
886.189	397.66
886.568	287.44
886.948	386.37
887.327	411.78
887.706	307.24
888.085	476.69
888.464	383.54
888.843	493.62
889.222	423.07
889.601	431.54
889.979	312.89
890.358	295.93
890.737	349.64
891.115	332.68
891.494	380.72
891.872	360.94
892.25	341.16
892.629	454.12
893.007	479.52
893.385	360.94
893.763	335.51
894.141	358.12
894.519	397.66
894.897	360.94
895.275	454.12
895.653	298.76
896.03	400.49
896.408	341.16
896.786	324.2
897.163	346.81
897.541	321.37
897.918	496.44
898.295	261.99
898.673	230.86
899.05	315.72
899.427	766.7
899.804	414.61
900.181	318.55
900.558	423.07
900.935	358.12
901.312	267.64
901.688	315.72
902.065	380.72
902.442	349.64
902.818	372.24
903.195	332.68
903.571	290.27
903.947	332.68
904.324	380.72
904.7	352.46
905.076	519
905.452	327.03
905.828	445.66
906.204	445.66
906.58	267.64
906.956	442.83
907.331	454.12
907.707	440.01
908.083	406.13
908.458	394.84
908.834	369.42
909.209	307.24
909.585	380.72
909.96	425.9
910.335	375.07
910.71	355.29
911.086	397.66
911.461	462.59
911.836	377.89
912.21	358.12
912.585	417.43
912.96	414.61
913.335	369.42
913.709	366.59
914.084	411.78
914.459	324.2
914.833	366.59
915.207	321.37
915.582	377.89
915.956	355.29
916.33	315.72
916.704	338.33
917.078	355.29
917.452	485.16
917.826	321.37
918.2	397.66
918.574	329.86
918.948	270.47
919.321	324.2
919.695	383.54
920.068	397.66
920.442	369.42
920.815	341.16
921.189	383.54
921.562	533.09
921.935	437.19
922.308	406.13
922.681	295.93
923.054	363.77
923.427	499.26
923.8	327.03
924.173	431.54
924.546	369.42
924.919	301.58
925.291	476.69
925.664	261.99
926.036	403.31
926.409	310.07
926.781	406.13
927.153	392.01
927.526	414.61
927.898	304.41
928.27	360.94
928.642	352.46
929.014	451.3
929.386	394.84
929.758	392.01
930.129	324.2
930.501	397.66
930.873	341.16
931.244	369.42
931.616	293.1
931.987	338.33
932.359	420.25
932.73	380.72
933.101	355.29
933.472	329.86
933.843	414.61
934.214	454.12
934.585	389.19
934.956	304.41
935.327	623.25
935.698	281.79
936.069	420.25
936.439	423.07
936.81	301.58
937.18	386.37
937.551	352.46
937.921	459.77
938.292	445.66
938.662	338.33
939.032	425.9
939.402	397.66
939.772	315.72
940.142	360.94
940.512	358.12
940.882	366.59
941.252	403.31
941.621	375.07
941.991	307.24
942.361	423.07
942.73	423.07
943.1	298.76
943.469	341.16
943.838	459.77
944.208	462.59
944.577	287.44
944.946	389.19
945.315	318.55
945.684	389.19
946.053	397.66
946.422	355.29
946.791	338.33
947.159	420.25
947.528	343.99
947.897	341.16
948.265	276.13
948.634	392.01
949.002	256.33
949.371	343.99
949.739	290.27
950.107	366.59
950.475	383.54
950.843	411.78
951.211	411.78
951.579	389.19
951.947	327.03
952.315	369.42
952.683	343.99
953.05	360.94
953.418	372.24
953.785	363.77
954.153	298.76
954.52	343.99
954.888	425.9
955.255	386.37
955.622	341.16
955.989	360.94
956.356	377.89
956.723	428.72
957.09	335.51
957.457	476.69
957.824	329.86
958.191	349.64
958.557	482.34
958.924	315.72
959.291	341.16
959.657	358.12
960.023	640.14
960.39	440.01
960.756	341.16
961.122	363.77
961.488	366.59
961.855	445.66
962.221	414.61
962.586	245.01
962.952	471.05
963.318	366.59
963.684	581
964.05	456.94
964.415	343.99
964.781	338.33
965.146	287.44
965.512	502.08
965.877	338.33
966.242	343.99
966.608	346.81
966.973	383.54
967.338	349.64
967.703	386.37
968.068	253.5
968.433	519
968.797	550.01
969.162	312.89
969.527	278.96
969.891	389.19
970.256	346.81
970.62	293.1
970.985	315.72
971.349	349.64
971.714	383.54
972.078	360.94
972.442	341.16
972.806	346.81
973.17	375.07
973.534	442.83
973.898	386.37
974.262	318.55
974.625	462.59
974.989	386.37
975.353	538.73
975.716	392.01
976.08	358.12
976.443	250.67
976.806	403.31
977.17	372.24
977.533	298.76
977.896	360.94
978.259	318.55
978.622	659.84
978.985	369.42
979.348	389.19
979.711	352.46
980.073	352.46
980.436	338.33
980.799	377.89
981.161	349.64
981.524	261.99
981.886	403.31
982.248	352.46
982.611	349.64
982.973	375.07
983.335	369.42
983.697	434.37
984.059	471.05
984.421	380.72
984.783	307.24
985.145	343.99
985.506	366.59
985.868	389.19
986.23	327.03
986.591	318.55
986.953	468.23
987.314	321.37
987.675	332.68
988.037	10869.21
988.398	696.41
988.759	366.59
989.12	315.72
989.481	440.01
989.842	372.24
990.203	293.1
990.564	338.33
990.924	425.9
991.285	11329.68
991.646	628.88
992.006	358.12
992.367	397.66
992.727	276.13
993.087	315.72
993.448	338.33
993.808	411.78
994.168	358.12
994.528	332.68
994.888	363.77
995.248	369.42
995.608	343.99
995.967	372.24
996.327	406.13
996.687	307.24
997.046	298.76
997.406	332.68
997.765	278.96
998.125	408.96
998.484	216.7
998.843	535.91
999.202	343.99
999.561	287.44
999.92	239.35
1000.279	335.51
1000.638	293.1
1000.997	332.68
1001.356	360.94
1001.715	318.55
1002.073	411.78
1002.432	482.34
1002.79	242.18
1003.149	318.55
1003.507	454.12
1003.865	327.03
1004.224	366.59
1004.582	366.59
1004.94	392.01
1005.298	312.89
1005.656	358.12
1006.014	343.99
1006.371	366.59
1006.729	360.94
1007.087	569.73
1007.445	321.37
1007.802	400.49
1008.16	315.72
1008.517	437.19
1008.874	355.29
1009.232	321.37
1009.589	822.88
1009.946	375.07
1010.303	310.07
1010.66	445.66
1011.017	321.37
1011.374	425.9
1011.731	346.81
1012.087	389.19
1012.444	355.29
1012.801	355.29
1013.157	281.79
1013.513	281.79
1013.87	281.79
1014.226	462.59
1014.582	321.37
1014.939	352.46
1015.295	329.86
1015.651	346.81
1016.007	278.96
1016.363	417.43
1016.719	295.93
1017.074	358.12
1017.43	343.99
1017.786	400.49
1018.141	284.62
1018.497	380.72
1018.852	343.99
1019.208	360.94
1019.563	270.47
1019.918	420.25
1020.273	293.1
1020.628	327.03
1020.983	482.34
1021.338	358.12
1021.693	437.19
1022.048	397.66
1022.403	222.37
1022.757	406.13
1023.112	383.54
1023.467	315.72
1023.821	369.42
1024.175	293.1
1024.53	335.51
1024.884	352.46
1025.238	301.58
1025.592	321.37
1025.946	278.96
1026.3	383.54
1026.654	318.55
1027.008	360.94
1027.362	298.76
1027.716	366.59
1028.069	284.62
1028.423	329.86
1028.777	380.72
1029.13	332.68
1029.483	366.59
1029.837	471.05
1030.19	307.24
1030.543	264.81
1030.896	281.79
1031.249	332.68
1031.602	366.59
1031.955	408.96
1032.308	423.07
1032.661	471.05
1033.013	242.18
1033.366	304.41
1033.719	256.33
1034.071	355.29
1034.424	298.76
1034.776	321.37
1035.128	256.33
1035.48	332.68
1035.833	462.59
1036.185	377.89
1036.537	377.89
1036.889	377.89
