Data from BCF20_3_FLMS019251_15-09-16-898.txt Node
Date: Mon Feb 11 15:09:16 CET 2019
User: luk
Spectrometer: FLMS01925
Trigger mode: 0
Integration Time (sec): 2.212710E0
Scans to average: 1
Electric dark correction enabled: true
Nonlinearity correction enabled: true
Boxcar width: 0
XAxis mode: Wavelengths
Number of Pixels in Spectrum: 2048
>>>>>Begin Spectral Data<<<<<
187.103	-275.21
187.574	-275.21
188.045	-275.21
188.516	-395
188.987	34.77
189.458	-73.15
189.929	-121.48
190.4	-81.67
190.871	-184.07
191.342	-306.56
191.813	-58.94
192.284	202.02
192.754	-124.32
193.225	-90.2
193.696	-10.65
194.166	40.45
194.637	125.53
195.107	233.16
195.578	91.51
196.048	221.84
196.518	134.03
196.989	216.17
197.459	224.67
197.929	148.2
198.399	557.93
198.869	380.19
199.339	255.8
199.809	464.88
200.279	645.24
200.749	337.8
201.219	275.6
201.689	411.25
202.159	261.45
202.628	318.02
203.098	408.43
203.568	337.8
204.037	428.19
204.507	357.59
204.976	397.13
205.445	334.98
205.915	346.28
206.384	346.28
206.853	354.76
207.323	363.24
207.792	377.36
208.261	360.41
208.73	388.66
209.199	490.27
209.668	425.37
210.137	501.55
210.606	323.67
211.075	569.2
211.543	467.7
212.012	422.55
212.481	281.26
212.95	343.46
213.418	580.47
213.887	473.34
214.355	552.3
214.824	391.48
215.292	292.57
215.76	366.06
216.229	261.45
216.697	425.37
217.165	541.02
217.633	425.37
218.101	495.91
218.569	875.69
219.037	411.25
219.505	690.26
219.973	524.11
220.441	329.33
220.909	349.11
221.377	529.75
221.844	476.17
222.312	405.61
222.78	380.19
223.247	385.84
223.715	272.77
224.182	442.3
224.65	447.95
225.117	541.02
225.584	419.72
226.052	323.67
226.519	368.89
226.986	343.46
227.453	323.67
227.92	312.36
228.387	569.2
228.854	332.15
229.321	383.01
229.788	416.9
230.255	484.63
230.722	535.38
231.189	563.57
231.655	334.98
232.122	431.01
232.589	351.93
233.055	332.15
233.522	690.26
233.988	292.57
234.454	459.24
234.921	459.24
235.387	574.84
235.853	351.93
236.32	385.84
236.786	286.91
237.252	366.06
237.718	679.01
238.184	442.3
238.65	397.13
239.116	371.71
239.582	456.42
240.047	244.48
240.513	425.37
240.979	391.48
241.445	340.63
241.91	298.23
242.376	286.91
242.841	462.06
243.307	326.5
243.772	295.4
244.238	258.63
244.703	507.19
245.168	425.37
245.633	419.72
246.099	233.16
246.564	312.36
247.029	402.78
247.494	196.35
247.959	419.72
248.424	309.54
248.889	252.97
249.353	529.75
249.818	388.66
250.283	312.36
250.748	343.46
251.212	416.9
251.677	323.67
252.141	416.9
252.606	405.61
253.07	383.01
253.535	346.28
253.999	332.15
254.463	329.33
254.927	374.54
255.392	447.95
255.856	405.61
256.32	388.66
256.784	272.77
257.248	493.09
257.712	518.47
258.176	639.61
258.64	405.61
259.103	374.54
259.567	326.5
260.031	340.63
260.495	507.19
260.958	504.37
261.422	402.78
261.885	385.84
262.349	357.59
262.812	351.93
263.275	366.06
263.739	512.83
264.202	481.81
264.665	428.19
265.128	402.78
265.591	450.77
266.054	315.19
266.517	580.47
266.98	402.78
267.443	286.91
267.906	368.89
268.369	301.05
268.832	422.55
269.294	360.41
269.757	445.13
270.22	383.01
270.682	450.77
271.145	535.38
271.607	368.89
272.07	732.44
272.532	306.71
272.994	357.59
273.456	467.7
273.919	1504.48
274.381	391.48
274.843	504.37
275.305	529.75
275.767	366.06
276.229	431.01
276.691	416.9
277.153	377.36
277.614	436.66
278.076	292.57
278.538	464.88
279	408.43
279.461	377.36
279.923	766.17
280.384	301.05
280.846	397.13
281.307	306.71
281.769	467.7
282.23	464.88
282.691	569.2
283.152	329.33
283.613	312.36
284.075	269.94
284.536	498.73
284.997	360.41
285.458	385.84
285.918	281.26
286.379	368.89
286.84	600.19
287.301	284.09
287.762	312.36
288.222	374.54
288.683	343.46
289.143	301.05
289.604	402.78
290.064	394.31
290.525	504.37
290.985	760.55
291.445	405.61
291.906	269.94
292.366	340.63
292.826	411.25
293.286	422.55
293.746	380.19
294.206	402.78
294.666	464.88
295.126	433.84
295.586	394.31
296.046	303.88
296.506	478.99
296.965	543.84
297.425	337.8
297.884	555.11
298.344	374.54
298.804	512.83
299.263	442.3
299.722	414.08
300.182	323.67
300.641	295.4
301.1	326.5
301.559	419.72
302.019	264.28
302.478	411.25
302.937	414.08
303.396	526.93
303.855	864.47
304.314	439.48
304.772	1208.89
305.231	439.48
305.69	366.06
306.149	394.31
306.607	419.72
307.066	529.75
307.524	487.45
307.983	501.55
308.441	600.19
308.9	729.63
309.358	498.73
309.816	808.32
310.275	337.8
310.733	374.54
311.191	411.25
311.649	481.81
312.107	512.83
312.565	459.24
313.023	357.59
313.481	360.41
313.939	269.94
314.397	275.6
314.854	371.71
315.312	535.38
315.77	515.65
316.227	425.37
316.685	405.61
317.142	301.05
317.6	507.19
318.057	366.06
318.514	405.61
318.972	380.19
319.429	445.13
319.886	312.36
320.343	354.76
320.8	318.02
321.257	428.19
321.714	546.66
322.171	805.51
322.628	462.06
323.085	238.82
323.542	301.05
323.998	309.54
324.455	292.57
324.912	397.13
325.368	346.28
325.825	642.42
326.281	354.76
326.738	447.95
327.194	318.02
327.65	411.25
328.107	357.59
328.563	366.06
329.019	591.74
329.475	397.13
329.931	433.84
330.387	473.34
330.843	309.54
331.299	445.13
331.755	306.71
332.211	366.06
332.666	295.4
333.122	399.96
333.578	507.19
334.033	391.48
334.489	473.34
334.944	323.67
335.4	878.5
335.855	577.65
336.31	388.66
336.766	340.63
337.221	360.41
337.676	329.33
338.131	419.72
338.586	557.93
339.041	363.24
339.496	639.61
339.951	408.43
340.406	470.52
340.861	399.96
341.316	374.54
341.771	495.91
342.225	374.54
342.68	433.84
343.134	422.55
343.589	357.59
344.043	368.89
344.498	436.66
344.952	411.25
345.406	1699.07
345.861	349.11
346.315	349.11
346.769	394.31
347.223	383.01
347.677	309.54
348.131	238.82
348.585	368.89
349.039	453.59
349.493	289.74
349.947	388.66
350.401	346.28
350.854	281.26
351.308	679.01
351.762	286.91
352.215	603.01
352.669	309.54
353.122	368.89
353.575	278.43
354.029	349.11
354.482	349.11
354.935	507.19
355.388	450.77
355.842	501.55
356.295	447.95
356.748	267.11
357.201	397.13
357.654	447.95
358.106	394.31
358.559	298.23
359.012	411.25
359.465	334.98
359.917	552.3
360.37	380.19
360.823	332.15
361.275	478.99
361.728	371.71
362.18	391.48
362.632	524.11
363.085	315.19
363.537	383.01
363.989	301.05
364.441	478.99
364.893	388.66
365.345	318.02
365.797	323.67
366.249	354.76
366.701	354.76
367.153	343.46
367.605	306.71
368.057	320.84
368.508	309.54
368.96	303.88
369.411	343.46
369.863	447.95
370.314	653.68
370.766	405.61
371.217	436.66
371.669	388.66
372.12	687.45
372.571	476.17
373.022	397.13
373.473	456.42
373.924	631.16
374.375	447.95
374.826	515.65
375.277	425.37
375.728	383.01
376.179	397.13
376.63	354.76
377.08	732.44
377.531	320.84
377.981	363.24
378.432	487.45
378.883	754.93
379.333	442.3
379.783	303.88
380.234	329.33
380.684	391.48
381.134	442.3
381.584	380.19
382.034	633.98
382.485	504.37
382.935	399.96
383.385	436.66
383.834	303.88
384.284	470.52
384.734	303.88
385.184	411.25
385.634	366.06
386.083	323.67
386.533	450.77
386.982	419.72
387.432	524.11
387.881	343.46
388.331	360.41
388.78	447.95
389.229	442.3
389.679	428.19
390.128	462.06
390.577	425.37
391.026	462.06
391.475	334.98
391.924	368.89
392.373	301.05
392.822	360.41
393.27	459.24
393.719	399.96
394.168	349.11
394.617	411.25
395.065	278.43
395.514	495.91
395.962	478.99
396.411	312.36
396.859	320.84
397.307	563.57
397.756	459.24
398.204	360.41
398.652	619.9
399.1	433.84
399.548	329.33
399.996	794.27
400.444	425.37
400.892	318.02
401.34	332.15
401.788	340.63
402.236	343.46
402.683	264.28
403.131	453.59
403.579	416.9
404.026	284.09
404.474	337.8
404.921	394.31
405.369	351.93
405.816	306.71
406.263	351.93
406.71	459.24
407.158	414.08
407.605	329.33
408.052	289.74
408.499	543.84
408.946	371.71
409.393	337.8
409.84	368.89
410.286	360.41
410.733	442.3
411.18	295.4
411.626	493.09
412.073	366.06
412.52	363.24
412.966	588.92
413.413	380.19
413.859	377.36
414.305	383.01
414.752	442.3
415.198	272.77
415.644	450.77
416.09	383.01
416.536	346.28
416.982	380.19
417.428	431.01
417.874	363.24
418.32	278.43
418.766	428.19
419.211	298.23
419.657	346.28
420.103	385.84
420.548	450.77
420.994	436.66
421.439	366.06
421.885	366.06
422.33	318.02
422.776	493.09
423.221	574.84
423.666	388.66
424.111	439.48
424.556	515.65
425.001	433.84
425.446	397.13
425.891	405.61
426.336	402.78
426.781	973.84
427.226	371.71
427.671	414.08
428.115	385.84
428.56	439.48
429.005	670.57
429.449	295.4
429.894	405.61
430.338	628.35
430.782	498.73
431.227	478.99
431.671	436.66
432.115	368.89
432.559	315.19
433.003	447.95
433.447	388.66
433.891	343.46
434.335	490.27
434.779	329.33
435.223	439.48
435.667	445.13
436.111	653.68
436.554	332.15
436.998	385.84
437.442	351.93
437.885	411.25
438.328	442.3
438.772	337.8
439.215	295.4
439.659	476.17
440.102	416.9
440.545	442.3
440.988	334.98
441.431	272.77
441.874	414.08
442.317	334.98
442.76	363.24
443.203	326.5
443.646	244.48
444.089	450.77
444.531	377.36
444.974	402.78
445.417	588.92
445.859	608.64
446.302	368.89
446.744	320.84
447.186	416.9
447.629	555.11
448.071	295.4
448.513	462.06
448.956	388.66
449.398	408.43
449.84	510.01
450.282	464.88
450.724	244.48
451.166	315.19
451.607	740.88
452.049	397.13
452.491	543.84
452.933	512.83
453.374	690.26
453.816	529.75
454.257	526.93
454.699	442.3
455.14	450.77
455.582	605.82
456.023	419.72
456.464	377.36
456.905	611.45
457.347	594.56
457.788	320.84
458.229	363.24
458.67	445.13
459.111	318.02
459.552	416.9
459.992	399.96
460.433	538.2
460.874	269.94
461.315	346.28
461.755	605.82
462.196	326.5
462.636	507.19
463.077	431.01
463.517	439.48
463.957	394.31
464.398	329.33
464.838	476.17
465.278	374.54
465.718	295.4
466.158	402.78
466.598	459.24
467.038	312.36
467.478	600.19
467.918	374.54
468.358	653.68
468.798	411.25
469.237	235.99
469.677	329.33
470.117	549.48
470.556	419.72
470.996	552.3
471.435	340.63
471.874	329.33
472.314	275.6
472.753	289.74
473.192	374.54
473.631	374.54
474.07	374.54
474.509	360.41
474.948	281.26
475.387	306.71
475.826	549.48
476.265	301.05
476.704	481.81
477.143	459.24
477.581	684.63
478.02	569.2
478.458	580.47
478.897	642.42
479.335	371.71
479.774	371.71
480.212	473.34
480.65	360.41
481.089	368.89
481.527	543.84
481.965	391.48
482.403	323.67
482.841	306.71
483.279	546.66
483.717	560.75
484.155	416.9
484.592	518.47
485.03	633.98
485.468	603.01
485.905	681.82
486.343	763.36
486.781	914.97
487.218	1060.67
487.655	1214.48
488.093	1381.92
488.53	1654.63
488.967	2133.76
489.405	2508.42
489.842	3083.63
490.279	3920.38
490.716	4494.55
491.153	5025.22
491.59	5797.48
492.027	6672.28
492.463	7783.65
492.9	8665.66
493.337	9990.83
493.773	11198.84
494.21	12308.29
494.647	13749.32
495.083	14840.32
495.519	15987.8
495.956	17381.78
496.392	18887.74
496.828	20191.79
497.265	20877.01
497.701	22703.86
498.137	23656.4
498.573	24867.73
499.009	26939.1
499.445	27497.4
499.881	28360.88
500.316	30102.23
500.752	30326.71
501.188	31580.34
501.624	32565.32
502.059	32892.02
502.495	34118.64
502.93	35167.98
503.366	39142.59
503.801	36538.79
504.236	37500.77
504.672	37812
505.107	38133.24
505.542	38005.7
505.977	39506.67
506.412	39624.83
506.847	40660.37
507.282	40727.05
507.717	41048.3
508.152	41999.26
508.587	41914.93
509.021	41711.66
509.456	42334.37
509.891	42908.79
510.325	43247.61
510.76	42811.71
511.194	43776.79
511.628	43661.86
512.063	42971.03
512.497	44204.58
512.931	43821.78
513.366	44400.02
513.8	44026.85
514.234	43437.17
514.668	43994.33
515.102	44547.97
515.536	43147.91
515.969	44389.99
516.403	43549.49
516.837	43504.56
517.271	44359.91
517.704	43250.11
518.138	43192.77
518.571	42844.07
519.005	43140.43
519.438	42565.47
519.871	42898.83
520.305	42396.47
520.738	42376.6
521.171	42053.84
521.604	42426.28
522.037	42096.03
522.47	41890.14
522.903	40830.8
523.336	40630.73
523.769	41231.31
524.202	40470.28
524.634	40435.73
525.067	39666.68
525.5	39671.61
525.932	39767.65
526.365	39398.4
526.797	38692.88
527.23	38840.27
527.662	37576.72
528.094	37591.42
528.527	36888.64
528.959	36516.78
529.391	36453.19
529.823	35194.84
530.255	35285.18
530.687	34992.21
531.119	34767.66
531.551	34160.11
531.982	33699.13
532.414	33869.85
532.846	33450.39
533.277	32519
533.709	31904.62
534.14	32170.37
534.572	31621.79
535.003	31889.99
535.435	31395.02
535.866	31234.08
536.297	30255.96
536.728	30848.75
537.159	30899.97
537.59	30580.43
538.022	30075.39
538.452	30438.94
538.883	29833.77
539.314	29604.32
539.745	28991.36
540.176	29113.5
540.606	28509.99
541.037	28216.63
541.468	28067.46
541.898	27896.25
542.328	27668.71
542.759	27397.04
543.189	27578.17
543.619	26698.97
544.05	26711.23
544.48	26245.41
544.91	26206.17
545.34	25840.58
545.77	25430.53
546.2	25661.37
546.63	25054.58
547.06	24789.03
547.489	24798.87
547.919	23966.91
548.349	24427.37
548.778	24085.14
549.208	23538.05
549.637	23503.53
550.067	23052.04
550.496	23306.21
550.926	23012.54
551.355	22516.08
551.784	22607.51
552.213	22305.97
552.642	21692.37
553.071	21717.12
553.5	21598.27
553.929	21013.42
554.358	20886.93
554.787	20678.51
555.216	20586.67
555.645	20740.55
556.073	20328.43
556.502	19709.48
556.93	19316.25
557.359	19258.98
557.787	19141.91
558.216	19388.45
558.644	18730.67
559.072	18788.02
559.5	18723.19
559.929	18660.85
560.357	18713.22
560.785	18294.05
561.213	18493.71
561.641	18351.46
562.068	18109.27
562.496	17706.95
562.924	17891.92
563.352	17701.95
563.779	18139.24
564.207	17699.45
564.634	17576.91
565.062	17814.44
565.489	17209.08
565.917	16973.67
566.344	17374.27
566.771	17021.27
567.198	16835.86
567.625	16482.33
568.053	16243.94
568.48	16198.76
568.907	16216.33
569.333	15852.13
569.76	15485.01
570.187	15681.19
570.614	15210.67
571.04	51739.43
571.467	14618.4
571.894	14570.47
572.32	14199.34
572.747	14277.64
573.173	14141.23
573.599	13731.61
574.026	13486.06
574.452	13425.27
574.878	13237.76
575.304	12880.09
575.73	12801.39
576.156	12321.02
576.582	12412.59
577.008	12181.05
577.434	12043.54
577.86	11656.05
578.285	11921.25
578.711	11364.98
579.137	11416.07
579.562	11060.72
579.988	10958.34
580.413	10983.94
580.838	10653.48
581.264	10550.89
581.689	10435.42
582.114	10332.72
582.539	13789.8
582.964	10235.1
583.39	10013.98
583.814	9761.68
584.239	9431.58
584.664	9581.23
585.089	9201.67
585.514	9534.8
585.939	9103.41
586.363	9030.97
586.788	8816.03
587.212	8753.83
587.637	8663.07
588.061	8413.84
588.485	8028.77
588.91	7958.41
589.334	8057.43
589.758	8000.11
590.182	7927.13
590.606	7634.8
591.03	7726.22
591.454	7467.47
591.878	7260.63
592.302	7433.46
592.726	7407.29
593.15	6979.94
593.573	6872.21
593.997	6935.28
594.42	6537.92
594.844	6545.83
595.267	6411.33
595.691	6477.28
596.114	6318.94
596.537	6221.18
596.96	6139.21
597.384	6078.36
597.807	5781.55
598.23	5755.01
598.653	5781.55
599.076	5606.27
599.499	5433.36
599.921	5587.66
600.344	5265.5
600.767	5529.16
601.189	5483.93
601.612	5124.07
602.034	5217.49
602.457	5308.16
602.879	5927.41
603.302	4953.02
603.724	4781.68
604.146	4663.71
604.568	4559.03
604.991	4682.49
605.413	4368.16
605.835	4577.83
606.257	4319.71
606.678	4440.79
607.1	4454.23
607.522	4317.01
607.944	4513.36
608.365	4314.32
608.787	4052.78
609.209	4311.63
609.63	3942.01
610.051	3909.56
610.473	3966.33
610.894	4020.37
611.315	3993.36
611.737	3914.97
612.158	3828.39
612.579	3820.27
613	4483.8
613.421	3871.69
613.842	4106.76
614.263	4025.77
614.683	4001.46
615.104	3879.81
615.525	3960.93
615.945	3798.61
616.366	3774.24
616.787	3711.93
617.207	3684.82
617.627	3627.87
618.048	3546.45
618.468	3554.59
618.888	3459.52
619.308	3369.78
619.728	3290.84
620.148	3369.78
620.568	3277.22
620.988	3505.71
621.408	3157.3
621.828	3105.46
622.248	3200.93
622.668	3192.75
623.087	3132.75
623.507	2990.77
623.926	2886.86
624.346	2941.56
624.765	3018.09
625.185	2812.95
625.604	2686.88
626.023	2755.42
626.442	2706.08
626.861	2979.83
627.28	2549.64
627.699	2535.9
628.118	2431.43
628.537	2588.09
628.956	2747.2
629.375	2686.88
629.794	2530.41
630.212	2522.16
630.631	2651.22
631.049	2279.97
631.468	2293.75
631.886	2335.08
632.305	2431.43
632.723	2153.09
633.141	2050.88
633.559	2155.85
633.978	2056.41
634.396	2274.46
634.814	2147.57
635.232	2039.83
635.65	2037.06
636.067	1854.39
636.485	1898.71
636.903	1746.25
637.321	1751.8
637.738	2266.19
638.156	1843.31
638.573	1765.67
638.991	2075.76
639.408	2023.24
639.825	1654.63
640.243	1787.86
640.66	1682.41
641.077	1699.07
641.494	1754.58
641.911	1821.13
642.328	1804.5
642.745	1629.63
643.162	1704.62
643.579	1565.69
643.995	1610.18
644.412	1901.48
644.829	1390.29
645.245	1434.87
645.662	1342.89
646.078	1498.92
646.495	1432.08
646.911	1437.66
647.327	1459.94
647.743	1331.73
648.159	1426.51
648.576	1259.17
648.992	1473.86
649.408	1340.1
649.824	1253.58
650.239	1306.62
650.655	1295.46
651.071	1267.54
651.487	1367.98
651.902	1331.73
652.318	1200.51
652.733	1234.04
653.149	1119.44
653.564	1208.89
653.979	1158.59
654.395	1125.03
654.81	1169.77
655.225	1024.27
655.64	1057.87
656.055	1077.47
656.47	1055.07
656.885	1060.67
657.3	1071.87
657.715	1340.1
658.13	1141.81
658.544	1136.22
658.959	1099.85
659.374	1071.87
659.788	1161.38
660.202	1024.27
660.617	1323.36
661.031	1085.86
661.445	993.46
661.86	1015.87
662.274	1206.1
662.688	1203.31
663.102	940.21
663.516	1178.16
663.93	886.92
664.344	1038.28
664.758	982.25
665.171	940.21
665.585	906.55
665.999	1024.27
666.412	875.69
666.826	1021.47
667.239	1085.86
667.653	777.41
668.066	830.78
668.479	1309.41
668.892	721.2
669.306	861.66
669.719	819.55
670.132	917.77
670.545	889.72
670.958	819.55
671.37	872.89
671.783	777.41
672.196	985.05
672.609	774.6
673.021	783.03
673.434	794.27
673.846	718.39
674.259	732.44
674.671	738.07
675.084	721.2
675.496	833.59
675.908	619.9
676.32	617.09
676.732	749.31
677.144	690.26
677.556	768.98
677.968	802.7
678.38	777.41
678.792	799.89
679.204	650.87
679.615	931.8
680.027	588.92
680.439	679.01
680.85	802.7
681.262	923.38
681.673	574.84
682.084	628.35
682.496	701.51
682.907	679.01
683.318	650.87
683.729	667.75
684.14	749.31
684.551	577.65
684.962	515.65
685.373	524.11
685.784	572.02
686.194	676.19
686.605	538.2
687.016	636.79
687.426	721.2
687.837	439.48
688.247	526.93
688.657	569.2
689.068	586.11
689.478	605.82
689.888	515.65
690.298	541.02
690.708	495.91
691.118	583.29
691.528	518.47
691.938	507.19
692.348	543.84
692.758	442.3
693.168	501.55
693.577	538.2
693.987	459.24
694.396	498.73
694.806	459.24
695.215	445.13
695.625	495.91
696.034	529.75
696.443	408.43
696.852	681.82
697.262	484.63
697.671	414.08
698.08	532.57
698.489	476.17
698.897	495.91
699.306	363.24
699.715	399.96
700.124	419.72
700.532	419.72
700.941	510.01
701.35	470.52
701.758	799.89
702.166	425.37
702.575	526.93
702.983	368.89
703.391	411.25
703.799	487.45
704.208	473.34
704.616	394.31
705.024	535.38
705.432	456.42
705.839	414.08
706.247	577.65
706.655	785.84
707.063	478.99
707.47	394.31
707.878	332.15
708.285	397.13
708.693	286.91
709.1	383.01
709.508	318.02
709.915	343.46
710.322	493.09
710.729	844.82
711.136	402.78
711.543	464.88
711.95	343.46
712.357	462.06
712.764	447.95
713.171	422.55
713.578	334.98
713.984	230.33
714.391	301.05
714.797	298.23
715.204	286.91
715.61	462.06
716.017	326.5
716.423	428.19
716.829	315.19
717.236	343.46
717.642	334.98
718.048	504.37
718.454	487.45
718.86	227.5
719.266	749.31
719.671	326.5
720.077	484.63
720.483	334.98
720.889	493.09
721.294	433.84
721.7	289.74
722.105	408.43
722.511	343.46
722.916	416.9
723.321	360.41
723.726	574.84
724.132	385.84
724.537	388.66
724.942	493.09
725.347	425.37
725.752	397.13
726.156	380.19
726.561	445.13
726.966	478.99
727.371	467.7
727.775	515.65
728.18	258.63
728.584	428.19
728.989	337.8
729.393	867.27
729.798	399.96
730.202	515.65
730.606	385.84
731.01	357.59
731.414	385.84
731.818	377.36
732.222	326.5
732.626	323.67
733.03	416.9
733.434	368.89
733.837	490.27
734.241	425.37
734.645	354.76
735.048	329.33
735.452	383.01
735.855	354.76
736.258	383.01
736.662	462.06
737.065	662.13
737.468	493.09
737.871	332.15
738.274	419.72
738.677	380.19
739.08	354.76
739.483	416.9
739.886	439.48
740.289	515.65
740.691	411.25
741.094	275.6
741.497	368.89
741.899	594.56
742.302	309.54
742.704	258.63
743.106	298.23
743.508	416.9
743.911	343.46
744.313	422.55
744.715	318.02
745.117	383.01
745.519	284.09
745.921	428.19
746.323	320.84
746.724	244.48
747.126	278.43
747.528	690.26
747.929	204.85
748.331	349.11
748.732	377.36
749.134	292.57
749.535	346.28
749.936	673.38
750.338	216.17
750.739	563.57
751.14	261.45
751.541	332.15
751.942	394.31
752.343	380.19
752.744	402.78
753.144	284.09
753.545	394.31
753.946	459.24
754.346	309.54
754.747	586.11
755.148	999.06
755.548	380.19
755.948	411.25
756.349	377.36
756.749	402.78
757.149	286.91
757.549	580.47
757.949	450.77
758.349	366.06
758.749	315.19
759.149	303.88
759.549	332.15
759.949	346.28
760.348	636.79
760.748	329.33
761.148	323.67
761.547	371.71
761.947	303.88
762.346	354.76
762.745	555.11
763.145	422.55
763.544	261.45
763.943	543.84
764.342	337.8
764.741	278.43
765.14	326.5
765.539	318.02
765.938	701.51
766.336	295.4
766.735	298.23
767.134	340.63
767.532	323.67
767.931	340.63
768.329	690.26
768.728	275.6
769.126	357.59
769.525	625.53
769.923	476.17
770.321	380.19
770.719	405.61
771.117	337.8
771.515	416.9
771.913	425.37
772.311	343.46
772.709	363.24
773.106	244.48
773.504	402.78
773.902	337.8
774.299	518.47
774.697	1010.27
775.094	326.5
775.491	275.6
775.889	397.13
776.286	323.67
776.683	399.96
777.08	204.85
777.477	247.31
777.874	267.11
778.271	286.91
778.668	241.65
779.065	374.54
779.462	425.37
779.858	416.9
780.255	670.57
780.652	377.36
781.048	583.29
781.444	326.5
781.841	306.71
782.237	416.9
782.633	235.99
783.03	332.15
783.426	306.71
783.822	250.14
784.218	346.28
784.614	312.36
785.01	275.6
785.405	306.71
785.801	329.33
786.197	366.06
786.593	416.9
786.988	309.54
787.384	560.75
787.779	289.74
788.174	405.61
788.57	493.09
788.965	354.76
789.36	337.8
789.755	320.84
790.15	301.05
790.545	354.76
790.94	264.28
791.335	238.82
791.73	230.33
792.125	574.84
792.52	416.9
792.914	349.11
793.309	244.48
793.703	433.84
794.098	334.98
794.492	549.48
794.887	329.33
795.281	631.16
795.675	524.11
796.069	597.37
796.463	377.36
796.857	346.28
797.251	306.71
797.645	247.31
798.039	374.54
798.433	303.88
798.826	337.8
799.22	357.59
799.614	351.93
800.007	470.52
800.401	397.13
800.794	244.48
801.187	269.94
801.581	402.78
801.974	399.96
802.367	425.37
802.76	219
803.153	136.87
803.546	264.28
803.939	388.66
804.332	258.63
804.725	247.31
805.117	346.28
805.51	473.34
805.903	315.19
806.295	368.89
806.688	380.19
807.08	315.19
807.472	464.88
807.865	481.81
808.257	405.61
808.649	478.99
809.041	368.89
809.433	481.81
809.825	884.11
810.217	255.8
810.609	394.31
811.001	456.42
811.392	303.88
811.784	512.83
812.175	349.11
812.567	431.01
812.958	473.34
813.35	334.98
813.741	383.01
814.132	261.45
814.524	284.09
814.915	363.24
815.306	252.97
815.697	318.02
816.088	334.98
816.479	453.59
816.87	464.88
817.26	433.84
817.651	656.5
818.042	411.25
818.432	442.3
818.823	476.17
819.213	422.55
819.604	318.02
819.994	422.55
820.384	267.11
820.775	346.28
821.165	405.61
821.555	357.59
821.945	343.46
822.335	258.63
822.725	450.77
823.114	153.87
823.504	326.5
823.894	309.54
824.284	611.45
824.673	357.59
825.063	343.46
825.452	374.54
825.842	349.11
826.231	791.46
826.62	366.06
827.009	467.7
827.399	419.72
827.788	284.09
828.177	284.09
828.566	445.13
828.954	889.72
829.343	447.95
829.732	357.59
830.121	791.46
830.509	709.95
830.898	363.24
831.286	309.54
831.675	484.63
832.063	498.73
832.452	301.05
832.84	244.48
833.228	569.2
833.616	351.93
834.004	521.29
834.392	411.25
834.78	422.55
835.168	207.68
835.556	459.24
835.944	453.59
836.331	456.42
836.719	501.55
837.107	445.13
837.494	416.9
837.881	436.66
838.269	360.41
838.656	292.57
839.043	332.15
839.431	830.78
839.818	366.06
840.205	329.33
840.592	340.63
840.979	258.63
841.366	320.84
841.752	354.76
842.139	301.05
842.526	414.08
842.912	476.17
843.299	298.23
843.685	490.27
844.072	416.9
844.458	411.25
844.844	374.54
845.231	258.63
845.617	230.33
846.003	312.36
846.389	394.31
846.775	244.48
847.161	295.4
847.547	292.57
847.933	320.84
848.318	436.66
848.704	286.91
849.09	357.59
849.475	357.59
849.861	501.55
850.246	366.06
850.631	603.01
851.017	371.71
851.402	275.6
851.787	428.19
852.172	664.94
852.557	383.01
852.942	363.24
853.327	332.15
853.712	374.54
854.097	329.33
854.481	312.36
854.866	408.43
855.25	349.11
855.635	459.24
856.019	284.09
856.404	315.19
856.788	391.48
857.172	221.84
857.557	349.11
857.941	397.13
858.325	284.09
858.709	462.06
859.093	224.67
859.477	323.67
859.86	487.45
860.244	301.05
860.628	667.75
861.012	538.2
861.395	292.57
861.779	221.84
862.162	292.57
862.545	250.14
862.929	383.01
863.312	431.01
863.695	247.31
864.078	408.43
864.461	295.4
864.844	397.13
865.227	600.19
865.61	323.67
865.993	295.4
866.376	368.89
866.758	447.95
867.141	600.19
867.523	450.77
867.906	233.16
868.288	360.41
868.671	445.13
869.053	357.59
869.435	414.08
869.817	546.66
870.199	267.11
870.581	332.15
870.963	394.31
871.345	399.96
871.727	450.77
872.109	315.19
872.491	303.88
872.872	487.45
873.254	337.8
873.635	363.24
874.017	504.37
874.398	284.09
874.779	357.59
875.161	295.4
875.542	532.57
875.923	366.06
876.304	318.02
876.685	371.71
877.066	414.08
877.447	261.45
877.828	399.96
878.208	510.01
878.589	510.01
878.97	631.16
879.35	357.59
879.731	281.26
880.111	334.98
880.491	329.33
880.872	414.08
881.252	281.26
881.632	385.84
882.012	495.91
882.392	504.37
882.772	608.64
883.152	346.28
883.532	380.19
883.912	566.39
884.291	281.26
884.671	431.01
885.051	394.31
885.43	269.94
885.81	532.57
886.189	357.59
886.568	391.48
886.948	397.13
887.327	538.2
887.706	357.59
888.085	642.42
888.464	377.36
888.843	830.78
889.222	501.55
889.601	512.83
889.979	385.84
890.358	411.25
890.737	388.66
891.115	416.9
891.494	196.35
891.872	318.02
892.25	349.11
892.629	557.93
893.007	560.75
893.385	405.61
893.763	272.77
894.141	318.02
894.519	557.93
894.897	309.54
895.275	397.13
895.653	306.71
896.03	340.63
896.408	428.19
896.786	326.5
897.163	351.93
897.541	221.84
897.918	521.29
898.295	278.43
898.673	295.4
899.05	329.33
899.427	1259.17
899.804	284.09
900.181	366.06
900.558	577.65
900.935	464.88
901.312	289.74
901.688	238.82
902.065	490.27
902.442	380.19
902.818	334.98
903.195	298.23
903.571	351.93
903.947	399.96
904.324	388.66
904.7	360.41
905.076	642.42
905.452	363.24
905.828	501.55
906.204	439.48
906.58	334.98
906.956	414.08
907.331	712.76
907.707	445.13
908.083	555.11
908.458	445.13
908.834	394.31
909.209	419.72
909.585	439.48
909.96	306.71
910.335	264.28
910.71	250.14
911.086	380.19
911.461	408.43
911.836	447.95
912.21	371.71
912.585	374.54
912.96	462.06
913.335	368.89
913.709	332.15
914.084	368.89
914.459	385.84
914.833	380.19
915.207	258.63
915.582	281.26
915.956	428.19
916.33	301.05
916.704	377.36
917.078	323.67
917.452	510.01
917.826	312.36
918.2	292.57
918.574	399.96
918.948	258.63
919.321	301.05
919.695	332.15
920.068	402.78
920.442	388.66
920.815	464.88
921.189	354.76
921.562	738.07
921.935	422.55
922.308	320.84
922.681	470.52
923.054	337.8
923.427	501.55
923.8	326.5
924.173	388.66
924.546	264.28
924.919	323.67
925.291	320.84
925.664	267.11
926.036	360.41
926.409	320.84
926.781	320.84
927.153	433.84
927.526	467.7
927.898	374.54
928.27	354.76
928.642	247.31
929.014	343.46
929.386	269.94
929.758	193.52
930.129	286.91
930.501	532.57
930.873	326.5
931.244	402.78
931.616	318.02
931.987	399.96
932.359	504.37
932.73	250.14
933.101	422.55
933.472	397.13
933.843	586.11
934.214	591.74
934.585	318.02
934.956	405.61
935.327	976.65
935.698	419.72
936.069	343.46
936.439	363.24
936.81	312.36
937.18	399.96
937.551	346.28
937.921	653.68
938.292	464.88
938.662	269.94
939.032	439.48
939.402	383.01
939.772	453.59
940.142	210.51
940.512	272.77
940.882	385.84
941.252	385.84
941.621	278.43
941.991	371.71
942.361	498.73
942.73	431.01
943.1	261.45
943.469	292.57
943.838	690.26
944.208	493.09
944.577	334.98
944.946	414.08
945.315	227.5
945.684	391.48
946.053	354.76
946.422	490.27
946.791	388.66
947.159	272.77
947.528	269.94
947.897	450.77
948.265	252.97
948.634	383.01
949.002	261.45
949.371	278.43
949.739	289.74
950.107	349.11
950.475	250.14
950.843	470.52
951.211	518.47
951.579	484.63
951.947	340.63
952.315	391.48
952.683	264.28
953.05	346.28
953.418	323.67
953.785	284.09
954.153	394.31
954.52	366.06
954.888	360.41
955.255	343.46
955.622	301.05
955.989	391.48
956.356	603.01
956.723	351.93
957.09	360.41
957.457	394.31
957.824	207.68
958.191	179.36
958.557	549.48
958.924	385.84
959.291	318.02
959.657	315.19
960.023	1021.47
960.39	320.84
960.756	346.28
961.122	425.37
961.488	306.71
961.855	343.46
962.221	343.46
962.586	303.88
962.952	586.11
963.318	391.48
963.684	687.45
964.05	546.66
964.415	374.54
964.781	301.05
965.146	366.06
965.512	662.13
965.877	433.84
966.242	363.24
966.608	490.27
966.973	343.46
967.338	315.19
967.703	411.25
968.068	244.48
968.433	625.53
968.797	783.03
969.162	431.01
969.527	298.23
969.891	258.63
970.256	371.71
970.62	315.19
970.985	323.67
971.349	416.9
971.714	419.72
972.078	380.19
972.442	346.28
972.806	478.99
973.17	397.13
973.534	459.24
973.898	360.41
974.262	366.06
974.625	507.19
974.989	340.63
975.353	541.02
975.716	351.93
976.08	269.94
976.443	255.8
976.806	351.93
977.17	391.48
977.533	385.84
977.896	357.59
978.259	303.88
978.622	1133.42
978.985	456.42
979.348	385.84
979.711	383.01
980.073	385.84
980.436	354.76
980.799	433.84
981.161	436.66
981.524	272.77
981.886	312.36
982.248	298.23
982.611	411.25
982.973	315.19
983.335	334.98
983.697	315.19
984.059	394.31
984.421	264.28
984.783	272.77
985.145	388.66
985.506	402.78
985.868	368.89
986.23	332.15
986.591	346.28
986.953	541.02
987.314	235.99
987.675	309.54
988.037	24011.25
988.398	884.11
988.759	402.78
989.12	402.78
989.481	478.99
989.842	450.77
990.203	281.26
990.564	230.33
990.924	320.84
991.285	25305.24
991.646	943.01
992.006	272.77
992.367	315.19
992.727	326.5
993.087	301.05
993.448	292.57
993.808	312.36
994.168	306.71
994.528	238.82
994.888	366.06
995.248	447.95
995.608	383.01
995.967	289.74
996.327	233.16
996.687	394.31
997.046	258.63
997.406	272.77
997.765	241.65
998.125	241.65
998.484	340.63
998.843	707.14
999.202	419.72
999.561	326.5
999.92	354.76
1000.279	318.02
1000.638	241.65
1000.997	312.36
1001.356	306.71
1001.715	309.54
1002.073	357.59
1002.432	507.19
1002.79	303.88
1003.149	255.8
1003.507	405.61
1003.865	315.19
1004.224	351.93
1004.582	397.13
1004.94	557.93
1005.298	267.11
1005.656	346.28
1006.014	346.28
1006.371	295.4
1006.729	303.88
1007.087	693.07
1007.445	349.11
1007.802	383.01
1008.16	204.85
1008.517	414.08
1008.874	394.31
1009.232	408.43
1009.589	1139.01
1009.946	431.01
1010.303	281.26
1010.66	436.66
1011.017	442.3
1011.374	555.11
1011.731	385.84
1012.087	391.48
1012.444	281.26
1012.801	470.52
1013.157	278.43
1013.513	233.16
1013.87	292.57
1014.226	334.98
1014.582	456.42
1014.939	394.31
1015.295	337.8
1015.651	261.45
1016.007	241.65
1016.363	524.11
1016.719	295.4
1017.074	453.59
1017.43	301.05
1017.786	473.34
1018.141	269.94
1018.497	357.59
1018.852	351.93
1019.208	360.41
1019.563	312.36
1019.918	346.28
1020.273	269.94
1020.628	414.08
1020.983	555.11
1021.338	366.06
1021.693	388.66
1022.048	261.45
1022.403	360.41
1022.757	431.01
1023.112	298.23
1023.467	275.6
1023.821	278.43
1024.175	244.48
1024.53	170.87
1024.884	309.54
1025.238	292.57
1025.592	394.31
1025.946	303.88
1026.3	261.45
1026.654	281.26
1027.008	318.02
1027.362	340.63
1027.716	289.74
1028.069	363.24
1028.423	329.33
1028.777	233.16
1029.13	312.36
1029.483	349.11
1029.837	464.88
1030.19	244.48
1030.543	309.54
1030.896	185.03
1031.249	346.28
1031.602	244.48
1031.955	303.88
1032.308	456.42
1032.661	507.19
1033.013	343.46
1033.366	303.88
1033.719	255.8
1034.071	247.31
1034.424	306.71
1034.776	258.63
1035.128	329.33
1035.48	286.91
1035.833	487.45
1036.185	318.02
1036.537	318.02
1036.889	318.02
