Data from SCSF78-405_irradiation_FLMS019251_08-35-27-914.txt Node
Date: Fri Feb 22 08:35:27 PST 2019
User: mu3e
Spectrometer: FLMS01925
Trigger mode: 0
Integration Time (sec): 1.206000E-2
Scans to average: 10
Electric dark correction enabled: true
Nonlinearity correction enabled: true
Boxcar width: 0
XAxis mode: Wavelengths
Number of Pixels in Spectrum: 2048
>>>>>Begin Spectral Data<<<<<
187.103	-105.62
187.574	-105.62
188.045	-105.62
188.516	-125.81
188.987	-121.83
189.458	-105.91
189.929	-113.87
190.4	-90.27
190.871	-80.32
191.342	-87.71
191.813	-61
192.284	-42.81
192.754	-5.04
193.225	6.88
193.696	1.49
194.166	21.36
194.637	51.16
195.107	64.78
195.578	147
196.048	144.16
196.518	149.26
196.989	166.83
197.459	202.8
197.929	226.58
198.399	279.49
198.869	310.31
199.339	305.79
199.809	313.99
200.279	349.04
200.749	338.58
201.219	364.86
201.689	373.34
202.159	369.1
202.628	367.69
203.098	390
203.568	382.09
204.037	394.24
204.507	397.91
204.976	376.73
205.445	377.57
205.915	416.55
206.384	401.02
206.853	393.11
207.323	413.44
207.792	427.84
208.261	385.48
208.73	397.06
209.199	391.41
209.668	382.94
210.137	400.45
210.606	396.78
211.075	384.64
211.543	400.45
212.012	407.79
212.481	378.99
212.95	403.28
213.418	378.14
213.887	369.95
214.355	347.91
214.824	358.65
215.292	377.01
215.76	384.35
216.229	379.55
216.697	380.12
217.165	362.32
217.633	361.75
218.101	382.09
218.569	350.45
219.037	368.25
219.505	380.96
219.973	362.32
220.441	373.9
220.909	367.97
221.377	343.95
221.844	345.08
222.312	351.58
222.78	369.95
223.247	343.39
223.715	364.58
224.182	365.99
224.65	392.54
225.117	350.45
225.584	370.23
226.052	361.19
226.519	369.38
226.986	358.36
227.453	369.95
227.92	364.01
228.387	384.35
228.854	355.25
229.321	395.09
229.788	375.03
230.255	367.69
230.722	366.56
231.189	390.85
231.655	364.01
232.122	383.51
232.589	395.37
233.055	382.94
233.522	377.29
233.988	356.39
234.454	354.69
234.921	347.34
235.387	386.33
235.853	379.27
236.32	375.88
236.786	371.92
237.252	377.29
237.718	377.57
238.184	396.22
238.65	385.77
239.116	362.6
239.582	386.33
240.047	362.88
240.513	396.5
240.979	391.13
241.445	389.72
241.91	351.02
242.376	360.34
242.841	376.73
243.307	382.66
243.772	380.12
244.238	386.9
244.703	364.86
245.168	350.73
245.633	364.86
246.099	383.79
246.564	391.7
247.029	353.84
247.494	367.4
247.959	359.78
248.424	380.68
248.889	363.17
249.353	394.52
249.818	361.75
250.283	382.09
250.748	360.91
251.212	367.97
251.677	409.77
252.141	395.09
252.606	357.23
253.07	381.25
253.535	389.15
253.999	357.52
254.463	404.97
254.927	392.26
255.392	402.71
255.856	378.99
256.32	387.18
256.784	383.79
257.248	378.7
257.712	391.41
258.176	410.9
258.64	374.18
259.103	392.83
259.567	381.53
260.031	381.53
260.495	384.35
260.958	401.3
261.422	378.99
261.885	390.85
262.349	374.75
262.812	380.68
263.275	381.53
263.739	369.66
264.202	412.03
264.665	398.19
265.128	384.92
265.591	387.46
266.054	391.98
266.517	394.24
266.98	402.99
267.443	393.96
267.906	379.83
268.369	363.17
268.832	397.63
269.294	389.44
269.757	401.02
270.22	371.08
270.682	397.06
271.145	399.32
271.607	392.26
272.07	400.73
272.532	397.06
272.994	377.86
273.456	379.27
273.919	410.62
274.381	394.52
274.843	383.22
275.305	374.47
275.767	379.83
276.229	368.82
276.691	401.86
277.153	380.4
277.614	399.6
278.076	393.96
278.538	381.53
279	381.53
279.461	391.41
279.923	398.19
280.384	395.93
280.846	395.09
281.307	380.68
281.769	380.4
282.23	390
282.691	412.88
283.152	392.83
283.613	390.28
284.075	404.97
284.536	385.48
284.997	389.15
285.458	382.38
285.918	395.93
286.379	406.38
286.84	390
287.301	363.73
287.762	408.64
288.222	391.41
288.683	404.97
289.143	395.93
289.604	385.48
290.064	380.4
290.525	427.84
290.985	410.9
291.445	412.31
291.906	394.52
292.366	373.9
292.826	392.54
293.286	398.76
293.746	413.16
294.206	386.9
294.666	394.8
295.126	406.66
295.586	387.46
296.046	406.38
296.506	367.4
296.965	380.4
297.425	379.55
297.884	381.81
298.344	416.55
298.804	371.08
299.263	396.78
299.722	404.69
300.182	395.65
300.641	419.37
301.1	411.75
301.559	399.04
302.019	421.91
302.478	393.39
302.937	395.93
303.396	405.82
303.855	400.73
304.314	372.21
304.772	404.4
305.231	415.42
305.69	385.77
306.149	386.05
306.607	356.1
307.066	402.99
307.524	400.17
307.983	401.86
308.441	380.68
308.9	394.24
309.358	412.59
309.816	404.97
310.275	382.66
310.733	416.83
311.191	402.43
311.649	406.1
312.107	411.46
312.565	422.19
313.023	430.1
313.481	408.64
313.939	395.93
314.397	400.45
314.854	419.93
315.312	428.69
315.77	401.02
316.227	399.6
316.685	413.44
317.142	419.37
317.6	400.45
318.057	414.01
318.514	413.72
318.972	401.3
319.429	387.46
319.886	418.52
320.343	392.26
320.8	372.49
321.257	429.53
321.714	406.38
322.171	428.97
322.628	398.19
323.085	430.1
323.542	391.98
323.998	400.73
324.455	430.1
324.912	399.32
325.368	387.46
325.825	444.49
326.281	418.52
326.738	420.22
327.194	406.38
327.65	394.52
328.107	401.58
328.563	416.83
329.019	428.4
329.475	436.59
329.931	408.08
330.387	423.04
330.843	406.95
331.299	416.55
331.755	394.8
332.211	403.28
332.666	428.4
333.122	425.86
333.578	402.99
334.033	384.92
334.489	408.92
334.944	403.84
335.4	389.44
335.855	397.35
336.31	417.39
336.766	377.86
337.221	412.03
337.676	409.21
338.131	447.88
338.586	395.65
339.041	432.64
339.496	421.35
339.951	421.06
340.406	405.25
340.861	416.55
341.316	386.9
341.771	410.05
342.225	422.76
342.68	435.46
343.134	390.85
343.589	434.05
344.043	404.4
344.498	403.84
344.952	395.09
345.406	429.25
345.861	400.73
346.315	394.24
346.769	413.72
347.223	413.44
347.677	424.45
348.131	425.86
348.585	418.52
349.039	411.46
349.493	418.52
349.947	400.45
350.401	424.45
350.854	408.64
351.308	396.22
351.762	420.5
352.215	434.9
352.669	420.78
353.122	431.51
353.575	402.71
354.029	407.23
354.482	435.46
354.935	437.15
355.388	417.96
355.842	405.82
356.295	404.12
356.748	418.8
357.201	428.97
357.654	426.14
358.106	412.59
358.559	448.44
359.012	428.69
359.465	418.52
359.917	412.31
360.37	390.85
360.823	418.8
361.275	425.02
361.728	424.17
362.18	432.92
362.632	440.26
363.085	397.35
363.537	439.41
363.989	422.47
364.441	410.05
364.893	438.28
365.345	422.47
365.797	424.45
366.249	421.63
366.701	410.33
367.153	429.81
367.605	406.66
368.057	407.79
368.508	394.52
368.96	430.1
369.411	435.18
369.863	411.75
370.314	412.88
370.766	445.9
371.217	440.82
371.669	442.8
372.12	424.17
372.571	455.78
373.022	402.99
373.473	430.66
373.924	447.6
374.375	422.19
374.826	432.64
375.277	416.83
375.728	440.26
376.179	423.89
376.63	448.16
377.08	430.66
377.531	423.32
377.981	423.89
378.432	450.98
378.883	407.51
379.333	413.72
379.783	431.23
380.234	444.21
380.684	434.33
381.134	421.63
381.584	427.56
382.034	415.42
382.485	411.46
382.935	443.08
383.385	438
383.834	448.73
384.284	426.99
384.734	456.06
385.184	427.27
385.634	426.43
386.083	414.85
386.533	428.4
386.982	416.83
387.432	444.49
387.881	456.34
388.331	440.54
388.78	439.98
389.229	443.93
389.679	425.86
390.128	438.28
390.577	441.95
391.026	417.96
391.475	426.71
391.924	448.16
392.373	442.23
392.822	447.03
393.27	452.39
393.719	462.55
394.168	434.61
394.617	426.43
395.065	451.27
395.514	452.96
395.962	450.14
396.411	436.02
396.859	456.34
397.307	437.44
397.756	449.85
398.204	451.27
398.652	450.14
399.1	451.27
399.548	447.31
399.996	462.55
400.444	480.33
400.892	428.12
401.34	471.3
401.788	439.98
402.236	468.76
402.683	434.33
403.131	469.61
403.579	455.78
404.026	468.76
404.474	464.25
404.921	459.17
405.369	492.17
405.816	502.61
406.263	492.46
406.71	489.63
407.158	483.15
407.605	479.76
408.052	510.5
408.499	498.38
408.946	534.47
409.393	509.38
409.84	514.45
410.286	533.34
410.733	530.8
411.18	564.91
411.626	582.37
412.073	623.77
412.52	687.66
412.966	795.04
413.413	930.6
413.859	1108.18
414.305	1333.61
414.752	1659.57
415.198	1947.09
415.644	2369.71
416.09	2925.63
416.536	3487.98
416.982	4202.98
417.428	4986.92
417.874	5821.29
418.32	6740.65
418.766	7670.27
419.211	8834.63
419.657	9886.52
420.103	11193.15
420.548	12108.68
420.994	13551.08
421.439	14850.34
421.885	15949.05
422.33	17452.78
422.776	18710.16
423.221	19895.45
423.666	21304.15
424.111	22760.61
424.556	23819.99
425.001	25281.84
425.446	26864.8
425.891	28174.02
426.336	29153
426.781	30554.76
427.226	32991.19
427.671	33642.25
428.115	34609.22
428.56	36347.74
429.005	38134.65
429.449	38777.07
429.894	40305.4
430.338	41467.36
430.782	41654.6
431.227	43497.01
431.671	43907.22
432.115	45605.37
432.559	46572.15
433.003	46664.63
433.447	47436.64
433.891	47898.46
434.335	48613.76
434.779	49332.62
435.223	49628.61
435.667	49587.6
436.111	50271.14
436.554	50247.71
436.998	49699.69
437.442	49910.69
437.885	51949.18
438.328	50543.14
438.772	50819.88
439.215	51347.6
439.659	50985.65
440.102	51365.26
440.545	50722.83
440.988	50541.02
441.431	51589.88
441.874	50967.57
442.317	51215.6
442.76	50745.35
443.203	50178.77
443.646	51083.34
444.089	50420.07
444.531	51221.74
444.974	49811.67
445.417	50946.03
445.859	49836.8
446.302	51284.24
446.744	50385.52
447.186	51664.57
447.629	50724.68
448.071	50799.18
448.513	50844.56
448.956	52349.95
449.398	51297.6
449.84	50095.44
450.282	50832.61
450.724	51619.69
451.166	51000.28
451.607	50980.07
452.049	51056.18
452.491	52275.43
452.933	51812.9
453.374	52506.39
453.816	53040.38
454.257	52529.05
454.699	53726.08
455.14	53504.52
455.582	53218.39
456.023	53148.65
456.464	53341.79
456.905	53956.37
457.347	53814.11
457.788	52916.94
458.229	53037.07
458.67	54127.1
459.111	52166.83
459.552	52277.88
459.992	52065.21
460.433	52047.61
460.874	50847.48
461.315	52204
461.755	51061.24
462.196	50571.69
462.636	49723.75
463.077	49317.53
463.517	49626.78
463.957	49838.64
464.398	49308.94
464.838	49491.57
465.278	48363.19
465.718	48693.63
466.158	47373.26
466.598	48052.81
467.038	47436.64
467.478	47902.82
467.918	48298.78
468.358	47279.78
468.798	46928.17
469.237	46769.63
469.677	46664.37
470.117	47691.79
470.556	45074.97
470.996	45673.27
471.435	45833.67
471.874	46555.13
472.314	46229.19
472.753	45229.26
473.192	45380.67
473.631	44959.53
474.07	45398.56
474.509	45278.37
474.948	45583.67
475.387	44852.21
475.826	43799.97
476.265	45717.21
476.704	45164.06
477.143	45573.83
477.581	45299.53
478.02	45988.16
478.458	44628.45
478.897	45144.93
479.335	46585.86
479.774	45907.23
480.212	46114.96
480.65	46269.48
481.089	45699.28
481.527	45159.78
481.965	44849.69
482.403	46861.98
482.841	46537.87
483.279	46765.05
483.717	46731.73
484.155	46152.69
484.592	46757.67
485.03	46827.63
485.468	45661.41
485.905	45968.69
486.343	46623.97
486.781	45775.05
487.218	45105.67
487.655	45265.28
488.093	44298.96
488.53	45856.17
488.967	44787.89
489.405	44685.18
489.842	43757.99
490.279	43771.98
490.716	43272.73
491.153	43754.74
491.59	43172.02
492.027	42481.64
492.463	41921.82
492.9	41241.89
493.337	40999.28
493.773	41171.64
494.21	40321.93
494.647	39928.45
495.083	39235.73
495.519	38869.45
495.956	38787.39
496.392	38076.76
496.828	37883.28
497.265	36980.6
497.701	37196.03
498.137	36768.68
498.573	35887.47
499.009	36414
499.445	35468.03
499.881	35061.24
500.316	35439.94
500.752	34236.9
501.188	34007.84
501.624	34000.52
502.059	32772.01
502.495	32467.74
502.93	32366.08
503.366	32575.26
503.801	31906.51
504.236	31801.42
504.672	31013.56
505.107	30833.08
505.542	30218.81
505.977	30299.08
506.412	29651.61
506.847	29875.45
507.282	29342.51
507.717	29057.01
508.152	29034.3
508.587	28679.54
509.021	27861.69
509.456	27666.94
509.891	27669.63
510.325	27519.37
510.76	27165.6
511.194	26999.3
511.628	26959.37
512.063	26247.31
512.497	26274.53
512.931	25757.79
513.366	25566.04
513.8	25603.36
514.234	24815.78
514.668	24858.81
515.102	25092.61
515.536	24149.36
515.969	24282.57
516.403	23826.65
516.837	23458.83
517.271	23360.67
517.704	22948.54
518.138	22888.54
518.571	22547.16
519.005	22235.44
519.438	22223.81
519.871	21938.59
520.305	21515.98
520.738	21535.3
521.171	20966.98
521.604	21051.8
522.037	20846.93
522.47	20465.95
522.903	20088.35
523.336	19917.08
523.769	19822.34
524.202	19226.54
524.634	19310.96
525.067	18939.52
525.5	18769.01
525.932	18643.82
526.365	18221.58
526.797	18083.98
527.23	18167.65
527.662	17510.57
528.094	17245.81
528.527	17295.63
528.959	17029.72
529.391	16712.73
529.823	16136.68
530.255	16255.43
530.687	15950.06
531.119	15587.83
531.551	15599.91
531.982	15192.73
532.414	15023.97
532.846	14677.87
533.277	14597.65
533.709	14193.22
534.14	14082.54
534.572	13933.9
535.003	13745.72
535.435	13476.63
535.866	13294.97
536.297	12993.47
536.728	13063.23
537.159	12832.55
537.59	12577.77
538.022	12436.43
538.452	12221.46
538.883	11929.34
539.314	11955.58
539.745	11626.89
540.176	11494.41
540.606	11130.24
541.037	11214.37
541.468	10989.77
541.898	10831.78
542.328	10835.62
542.759	10545.44
543.189	10515.68
543.619	10331.63
544.05	10101.88
544.48	9965.54
544.91	9906.6
545.34	9693.07
545.77	9582.97
546.2	9472.04
546.63	9337.78
547.06	9334.68
547.489	9088.86
547.919	8810.27
548.349	8926.84
548.778	8812.08
549.208	8661.71
549.637	8547.53
550.067	8401.04
550.496	8379.21
550.926	8191.71
551.355	8008.38
551.784	8013.07
552.213	7847.26
552.642	7759.84
553.071	7729.03
553.5	7604.16
553.929	7337.32
554.358	7456.16
554.787	7270.52
555.216	7280.22
555.645	7103.77
556.073	7014.8
556.502	6979.87
556.93	6783.53
557.359	6720.38
557.787	6703.54
558.216	6617.7
558.644	6522.3
559.072	6447.94
559.5	6399.13
559.929	6331.02
560.357	6341.84
560.785	6227.72
561.213	6233.54
561.641	6094.7
562.068	6013.44
562.496	5966.29
562.924	5912.23
563.352	5850.46
563.779	5888.11
564.207	5885.2
564.634	5814.39
565.062	5774.85
565.489	5701.05
565.917	5671.84
566.344	5586.8
566.771	5547.18
567.198	5508.08
567.625	5464.71
568.053	5315.55
568.48	5336.34
568.907	5256.1
569.333	5186.2
569.76	5059.89
570.187	5073.52
570.614	4914.16
571.04	5030.23
571.467	4789.65
571.894	4701.73
572.32	4630.64
572.747	4548.49
573.173	4512.49
573.599	4452.55
574.026	4292.17
574.452	4233.17
574.878	4229.67
575.304	4167.93
575.73	4059.73
576.156	4017.33
576.582	3998.69
577.008	3878.39
577.434	3854.85
577.86	3730.02
578.285	3743.56
578.711	3642.18
579.137	3581.67
579.562	3481.19
579.988	3497.49
580.413	3449.94
580.838	3349.3
581.264	3355.83
581.689	3314.19
582.114	3212.04
582.539	3188.05
582.964	3143.87
583.39	3107.85
583.814	3017.47
584.239	2981.41
584.664	2971.29
585.089	2934.66
585.514	2857.51
585.939	2828.49
586.363	2782.48
586.788	2741.92
587.212	2752.89
587.637	2661.03
588.061	2700.25
588.485	2644.29
588.91	2609.71
589.334	2563.03
589.758	2546.55
590.182	2473.99
590.606	2450.34
591.03	2395.31
591.454	2328.4
591.878	2348.78
592.302	2331.98
592.726	2289.83
593.15	2297.82
593.573	2209.59
593.997	2186.14
594.42	2173.72
594.844	2132.86
595.267	2086.74
595.691	2101.66
596.114	2109.39
596.537	2037.54
596.96	1984.72
597.384	2023.72
597.807	1981.13
598.23	1960.93
598.653	1979.47
599.076	1936.3
599.499	1940.73
599.921	1898.09
600.344	1879.26
600.767	1872.89
601.189	1855.71
601.612	1835.48
602.034	1882.58
602.457	1829.66
602.879	1783.91
603.302	1823.28
603.724	1746.74
604.146	1746.74
604.568	1768.93
604.991	1731.48
605.413	1764.22
605.835	1747.85
606.257	1707.61
606.678	1710.66
607.1	1720.1
607.522	1718.99
607.944	1690.11
608.365	1679.56
608.787	1670.95
609.209	1618.44
609.63	1601.21
610.051	1635.4
610.473	1587.03
610.894	1591.76
611.315	1542.53
611.737	1527.79
612.158	1494.39
612.579	1493.84
613	1492.44
613.421	1476.02
613.842	1449.29
614.263	1426.16
614.683	1385.48
615.104	1382.97
615.525	1349.51
615.945	1347.56
616.366	1345.05
616.787	1323.01
617.207	1307.11
617.627	1256.31
618.048	1273.9
618.468	1283.11
618.888	1251.84
619.308	1275.85
619.728	1209.1
620.148	1220.56
620.568	1213.85
620.988	1189.54
621.408	1170.26
621.828	1147.05
622.248	1130.28
622.668	1135.59
623.087	1126.08
623.507	1103.14
623.926	1129.16
624.346	1102.02
624.765	1101.74
625.185	1092.51
625.604	1051.09
626.023	1069.84
626.442	1034.57
626.861	1029.8
627.28	1010.76
627.699	978.82
628.118	979.94
628.537	989.19
628.956	952.19
629.375	992.83
629.794	934.53
630.212	976.58
630.631	914.34
631.049	921.91
631.468	930.04
631.886	916.58
632.305	909.57
632.723	888.81
633.141	865.8
633.559	917.7
633.978	870.85
634.396	862.43
634.814	856.54
635.232	898.63
635.65	829.31
636.067	847
636.485	855.7
636.903	839.98
637.321	841.94
637.738	792.23
638.156	795.04
638.573	811.05
638.991	806.84
639.408	823.69
639.825	770.6
640.243	804.59
640.66	776.22
641.077	788.58
641.494	753.74
641.911	770.32
642.328	801.79
642.745	727.59
643.162	773.97
643.579	759.92
643.995	717.19
644.412	733.22
644.829	742.49
645.245	739.68
645.662	715.78
646.078	745.31
646.495	711
646.911	709.88
647.327	725.06
647.743	696.94
648.159	703.69
648.576	695.25
648.992	664.87
649.408	685.69
649.824	671.34
650.239	690.19
650.655	686.53
651.071	660.08
651.487	673.03
651.902	642.64
652.318	694.41
652.733	661.21
653.149	638.69
653.564	659.52
653.979	639.54
654.395	609.69
654.81	662.62
655.225	611.95
655.64	617.02
656.055	630.81
656.47	628.28
656.885	623.21
657.3	640.66
657.715	602.94
658.13	632.22
658.544	611.95
658.959	590.82
659.374	604.06
659.788	607.72
660.202	582.66
660.617	600.4
661.031	600.68
661.445	592.8
661.86	598.99
662.274	565.19
662.688	597.3
663.102	583.5
663.516	576.18
663.93	597.58
664.344	572.51
664.758	560.68
665.171	597.02
665.585	588.85
665.999	578.71
666.412	544.62
666.826	551.1
667.239	572.51
667.653	558.42
668.066	557.02
668.479	569.13
668.892	556.45
669.306	529.39
669.719	529.96
670.132	559.83
670.545	539.26
670.958	529.96
671.37	532.49
671.783	526.29
672.196	537.29
672.609	522.06
673.021	558.71
673.434	530.52
673.846	532.21
674.259	533.06
674.671	526.86
675.084	559.55
675.496	507.68
675.908	558.99
676.32	551.1
676.732	502.33
677.144	506.84
677.556	500.35
677.968	529.39
678.38	524.6
678.792	509.66
679.204	472.71
679.615	505.15
680.027	500.92
680.439	510.79
680.85	509.94
681.262	480.61
681.673	492.74
682.084	496.69
682.496	493.58
682.907	507.68
683.318	474.12
683.729	484.28
684.14	491.61
684.551	518.4
684.962	497.53
685.373	473.27
685.784	494.43
686.194	509.66
686.605	482.3
687.016	478.92
687.426	493.3
687.837	483.15
688.247	480.89
688.657	436.87
689.068	464.53
689.478	457.76
689.888	469.61
690.298	480.61
690.708	471.02
691.118	490.48
691.528	487.38
691.938	462.27
692.348	484.56
692.758	438.56
693.168	466.22
693.577	493.3
693.987	452.68
694.396	453.8
694.806	461.71
695.215	465.66
695.625	468.76
696.034	474.68
696.443	440.54
696.852	448.73
697.262	457.76
697.671	443.93
698.08	464.81
698.489	434.9
698.897	459.73
699.306	459.45
699.715	424.45
700.124	454.09
700.532	444.49
700.941	475.81
701.35	470.73
701.758	457.19
702.166	463.12
702.575	458.88
702.983	436.59
703.391	433.2
703.799	478.92
704.208	432.07
704.616	425.58
705.024	453.52
705.432	458.32
705.839	440.26
706.247	461.42
706.655	448.44
707.063	436.31
707.47	430.66
707.878	442.23
708.285	439.69
708.693	439.13
709.1	461.42
709.508	415.42
709.915	433.77
710.322	452.11
710.729	450.98
711.136	409.21
711.543	420.78
711.95	426.71
712.357	436.59
712.764	408.64
713.171	437.15
713.578	418.24
713.984	428.12
714.391	404.12
714.797	431.51
715.204	408.92
715.61	443.08
716.017	424.17
716.423	435.74
716.829	407.23
717.236	419.09
717.642	432.64
718.048	432.64
718.454	441.11
718.86	428.4
719.266	427.84
719.671	416.26
720.077	417.68
720.483	417.11
720.889	394.8
721.294	435.74
721.7	410.33
722.105	419.37
722.511	415.42
722.916	423.89
723.321	449.85
723.726	421.63
724.132	417.96
724.537	421.91
724.942	393.67
725.347	423.89
725.752	447.6
726.156	452.39
726.561	404.12
726.966	426.43
727.371	423.6
727.775	405.25
728.18	400.73
728.584	408.92
728.989	421.35
729.393	439.98
729.798	431.51
730.202	416.83
730.606	416.83
731.01	426.14
731.414	411.18
731.818	439.41
732.222	414.01
732.626	416.83
733.03	409.77
733.434	392.83
733.837	419.37
734.241	416.55
734.645	423.89
735.048	426.99
735.452	414.01
735.855	380.4
736.258	388.59
736.662	424.17
737.065	412.03
737.468	407.79
737.871	408.64
738.274	402.99
738.677	438.28
739.08	421.35
739.483	429.25
739.886	395.65
740.289	395.37
740.691	419.09
741.094	427.84
741.497	407.23
741.899	407.51
742.302	405.82
742.704	419.93
743.106	411.75
743.508	426.99
743.911	408.64
744.313	424.45
744.715	407.79
745.117	396.5
745.519	378.42
745.921	443.93
746.323	419.65
746.724	408.08
747.126	426.43
747.528	416.26
747.929	406.38
748.331	406.38
748.732	405.82
749.134	398.76
749.535	421.91
749.936	419.65
750.338	411.75
750.739	422.19
751.14	411.75
751.541	432.92
751.942	410.9
752.343	428.4
752.744	427.56
753.144	414.29
753.545	403.84
753.946	409.77
754.346	360.62
754.747	408.92
755.148	437.15
755.548	392.83
755.948	405.53
756.349	411.75
756.749	427.56
757.149	409.77
757.549	409.77
757.949	388.31
758.349	431.23
758.749	417.68
759.149	408.36
759.549	417.68
759.949	402.15
760.348	394.52
760.748	428.12
761.148	398.47
761.547	401.86
761.947	411.75
762.346	420.5
762.745	410.33
763.145	434.9
763.544	410.62
763.943	423.89
764.342	404.97
764.741	407.79
765.14	403.28
765.539	409.21
765.938	426.14
766.336	420.5
766.735	407.51
767.134	396.5
767.532	396.5
767.931	436.31
768.329	416.83
768.728	409.77
769.126	414.29
769.525	428.4
769.923	401.3
770.321	411.75
770.719	398.19
771.117	385.77
771.515	389.15
771.913	402.71
772.311	428.4
772.709	395.93
773.106	404.97
773.504	415.13
773.902	395.65
774.299	423.32
774.697	414.29
775.094	390
775.491	410.05
775.889	392.83
776.286	412.03
776.683	410.62
777.08	390.85
777.477	399.6
777.874	401.02
778.271	398.47
778.668	382.38
779.065	378.7
779.462	397.91
779.858	397.35
780.255	412.31
780.652	381.25
781.048	384.92
781.444	385.2
781.841	418.52
782.237	386.61
782.633	402.99
783.03	400.73
783.426	383.79
783.822	395.37
784.218	397.91
784.614	373.9
785.01	406.1
785.405	378.99
785.801	408.64
786.197	375.6
786.593	387.46
786.988	402.43
787.384	396.78
787.779	397.91
788.174	377.29
788.57	403.56
788.965	404.12
789.36	386.05
789.755	412.31
790.15	385.77
790.545	406.1
790.94	390.28
791.335	395.65
791.73	389.44
792.125	413.44
792.52	409.77
792.914	406.1
793.309	399.6
793.703	388.03
794.098	418.24
794.492	381.53
794.887	417.96
795.281	390.28
795.675	407.79
796.069	406.95
796.463	416.55
796.857	376.44
797.251	399.89
797.645	381.25
798.039	392.26
798.433	386.05
798.826	396.78
799.22	399.6
799.614	365.99
800.007	393.39
800.401	377.57
800.794	358.08
801.187	405.53
801.581	395.65
801.974	374.75
802.367	396.22
802.76	395.65
803.153	399.89
803.546	368.82
803.939	402.43
804.332	395.09
804.725	388.87
805.117	401.86
805.51	371.92
805.903	408.08
806.295	378.14
806.688	402.15
807.08	409.77
807.472	391.7
807.865	423.04
808.257	399.6
808.649	391.98
809.041	410.05
809.433	393.67
809.825	393.96
810.217	412.88
810.609	391.13
811.001	410.9
811.392	395.93
811.784	396.78
812.175	378.14
812.567	402.15
812.958	382.09
813.35	386.61
813.741	377.86
814.132	397.63
814.524	398.76
814.915	394.24
815.306	393.39
815.697	420.22
816.088	387.46
816.479	390.85
816.87	371.08
817.26	384.35
817.651	403.28
818.042	395.65
818.432	383.22
818.823	401.02
819.213	406.38
819.604	371.64
819.994	409.49
820.384	388.03
820.775	411.75
821.165	406.66
821.555	384.07
821.945	380.12
822.335	387.46
822.725	388.87
823.114	367.4
823.504	386.9
823.894	370.79
824.284	399.32
824.673	389.15
825.063	396.78
825.452	385.2
825.842	405.82
826.231	355.82
826.62	365.71
827.009	376.73
827.399	410.62
827.788	396.5
828.177	402.99
828.566	365.99
828.954	391.7
829.343	383.51
829.732	393.11
830.121	411.75
830.509	379.55
830.898	387.46
831.286	347.06
831.675	390
832.063	384.64
832.452	398.76
832.84	400.17
833.228	381.25
833.616	406.66
834.004	394.8
834.392	390.57
834.78	383.22
835.168	397.91
835.556	392.26
835.944	412.31
836.331	393.96
836.719	393.39
837.107	391.98
837.494	388.87
837.881	400.17
838.269	384.64
838.656	391.7
839.043	376.73
839.431	385.77
839.818	402.99
840.205	389.44
840.592	373.34
840.979	384.92
841.366	431.51
841.752	402.15
842.139	403.28
842.526	387.18
842.912	417.11
843.299	387.18
843.685	386.61
844.072	378.99
844.458	377.01
844.844	403.84
845.231	411.75
845.617	384.07
846.003	399.32
846.389	405.53
846.775	386.33
847.161	378.99
847.547	410.33
847.933	369.38
848.318	394.24
848.704	408.08
849.09	378.42
849.475	366.56
849.861	407.51
850.246	375.03
850.631	401.3
851.017	370.79
851.402	388.31
851.787	419.93
852.172	395.37
852.557	389.44
852.942	382.38
853.327	394.52
853.712	376.16
854.097	408.64
854.481	389.72
854.866	372.77
855.25	403.28
855.635	372.77
856.019	391.7
856.404	389.15
856.788	410.62
857.172	382.38
857.557	365.99
857.941	394.8
858.325	378.42
858.709	367.69
859.093	375.31
859.477	412.31
859.86	386.61
860.244	403.28
860.628	396.78
861.012	377.86
861.395	370.23
861.779	385.48
862.162	391.13
862.545	361.19
862.929	400.73
863.312	398.19
863.695	427.84
864.078	391.41
864.461	369.1
864.844	384.64
865.227	397.63
865.61	386.05
865.993	378.42
866.376	378.99
866.758	390.85
867.141	358.65
867.523	396.78
867.906	393.11
868.288	361.75
868.671	375.31
869.053	412.03
869.435	393.96
869.817	384.92
870.199	401.02
870.581	387.18
870.963	380.12
871.345	343.95
871.727	379.83
872.109	390.28
872.491	369.66
872.872	408.64
873.254	362.88
873.635	384.07
874.017	372.77
874.398	402.15
874.779	368.82
875.161	391.7
875.542	405.53
875.923	357.8
876.304	394.8
876.685	369.1
877.066	367.69
877.447	383.79
877.828	399.32
878.208	380.68
878.589	387.74
878.97	356.95
879.35	401.3
879.731	397.06
880.111	392.54
880.491	393.11
880.872	391.7
881.252	381.81
881.632	372.49
882.012	400.73
882.392	403.56
882.772	390
883.152	397.63
883.532	381.53
883.912	381.25
884.291	379.27
884.671	362.88
885.051	392.26
885.43	391.13
885.81	375.88
886.189	383.79
886.568	396.5
886.948	365.43
887.327	375.6
887.706	378.7
888.085	383.79
888.464	390.85
888.843	379.27
889.222	372.49
889.601	381.25
889.979	380.96
890.358	375.6
890.737	380.4
891.115	350.73
891.494	404.12
891.872	391.98
892.25	369.1
892.629	392.83
893.007	390.85
893.385	388.87
893.763	384.64
894.141	377.29
894.519	375.03
894.897	360.06
895.275	370.79
895.653	377.01
896.03	387.18
896.408	384.35
896.786	384.64
897.163	377.29
897.541	378.99
897.918	376.16
898.295	359.21
898.673	388.87
899.05	360.62
899.427	408.08
899.804	387.18
900.181	370.23
900.558	378.7
900.935	359.21
901.312	385.77
901.688	399.89
902.065	373.05
902.442	397.06
902.818	389.44
903.195	383.22
903.571	378.14
903.947	361.19
904.324	360.91
904.7	366.56
905.076	386.61
905.452	384.35
905.828	388.87
906.204	392.54
906.58	377.29
906.956	364.58
907.331	364.58
907.707	400.73
908.083	368.25
908.458	340.56
908.834	378.42
909.209	384.92
909.585	371.36
909.96	359.49
910.335	371.36
910.71	384.07
911.086	391.13
911.461	392.54
911.836	392.83
912.21	391.41
912.585	364.58
912.96	399.6
913.335	362.6
913.709	388.87
914.084	381.53
914.459	397.35
914.833	365.71
915.207	374.47
915.582	366.84
915.956	369.1
916.33	361.19
916.704	396.22
917.078	379.27
917.452	367.4
917.826	365.14
918.2	362.88
918.574	369.95
918.948	376.44
919.321	403.28
919.695	374.18
920.068	359.49
920.442	386.05
920.815	412.03
921.189	350.73
921.562	401.58
921.935	386.9
922.308	379.55
922.681	379.27
923.054	393.11
923.427	366.27
923.8	367.12
924.173	401.02
924.546	375.31
924.919	389.15
925.291	380.12
925.664	390.28
926.036	365.99
926.409	367.69
926.781	373.05
927.153	384.64
927.526	367.97
927.898	365.14
928.27	362.6
928.642	364.01
929.014	376.16
929.386	377.01
929.758	380.96
930.129	378.7
930.501	364.3
930.873	389.44
931.244	385.77
931.616	395.65
931.987	383.79
932.359	376.16
932.73	371.08
933.101	389.15
933.472	357.52
933.843	369.1
934.214	369.38
934.585	388.03
934.956	393.39
935.327	390.28
935.698	384.35
936.069	372.77
936.439	372.77
936.81	376.16
937.18	377.01
937.551	386.61
937.921	368.82
938.292	379.27
938.662	386.05
939.032	369.95
939.402	369.66
939.772	365.14
940.142	381.81
940.512	378.42
940.882	377.01
941.252	382.66
941.621	394.24
941.991	398.47
942.361	384.64
942.73	372.21
943.1	359.78
943.469	376.73
943.838	370.23
944.208	383.79
944.577	381.25
944.946	366.27
945.315	380.96
945.684	387.18
946.053	392.54
946.422	404.4
946.791	388.59
947.159	354.69
947.528	404.4
947.897	372.77
948.265	350.73
948.634	377.01
949.002	409.49
949.371	355.54
949.739	380.12
950.107	392.54
950.475	379.83
950.843	358.08
951.211	383.22
951.579	371.64
951.947	364.01
952.315	420.5
952.683	341.69
953.05	364.3
953.418	377.86
953.785	382.66
954.153	384.92
954.52	390
954.888	383.22
955.255	374.47
955.622	352.99
955.989	358.08
956.356	403.84
956.723	349.89
957.09	385.2
957.457	355.54
957.824	380.96
958.191	398.19
958.557	389.72
958.924	377.86
959.291	375.31
959.657	360.62
960.023	387.18
960.39	372.77
960.756	363.17
961.122	388.87
961.488	376.44
961.855	388.31
962.221	363.45
962.586	349.32
962.952	380.68
963.318	376.44
963.684	388.87
964.05	380.96
964.415	386.9
964.781	372.49
965.146	372.77
965.512	379.27
965.877	382.38
966.242	407.23
966.608	377.57
966.973	364.01
967.338	378.14
967.703	362.32
968.068	399.04
968.433	351.02
968.797	370.23
969.162	367.12
969.527	410.9
969.891	365.14
970.256	376.73
970.62	362.6
970.985	380.96
971.349	376.16
971.714	391.41
972.078	375.31
972.442	387.18
972.806	371.08
973.17	370.79
973.534	367.4
973.898	386.61
974.262	378.99
974.625	355.82
974.989	354.41
975.353	379.27
975.716	352.43
976.08	374.47
976.443	369.95
976.806	354.12
977.17	371.92
977.533	380.68
977.896	364.3
978.259	391.98
978.622	398.47
978.985	363.73
979.348	375.03
979.711	360.34
980.073	375.03
980.436	373.05
980.799	403.28
981.161	369.95
981.524	390.85
981.886	366.84
982.248	397.35
982.611	385.48
982.973	388.03
983.335	355.54
983.697	355.25
984.059	390.57
984.421	369.1
984.783	372.77
985.145	371.36
985.506	363.73
985.868	380.68
986.23	382.66
986.591	383.22
986.953	352.99
987.314	363.73
987.675	377.57
988.037	525.73
988.398	343.1
988.759	368.82
989.12	367.12
989.481	376.44
989.842	390
990.203	384.92
990.564	386.61
990.924	388.31
991.285	468.76
991.646	362.88
992.006	369.1
992.367	383.51
992.727	353.56
993.087	365.43
993.448	375.31
993.808	370.51
994.168	386.9
994.528	384.35
994.888	401.02
995.248	383.79
995.608	351.86
995.967	401.02
996.327	355.54
996.687	373.62
997.046	368.82
997.406	375.03
997.765	366.84
998.125	390.57
998.484	384.64
998.843	365.43
999.202	378.7
999.561	366.56
999.92	387.46
1000.279	371.64
1000.638	368.53
1000.997	362.32
1001.356	377.57
1001.715	358.08
1002.073	362.6
1002.432	362.6
1002.79	360.91
1003.149	379.27
1003.507	356.67
1003.865	381.25
1004.224	361.47
1004.582	392.26
1004.94	372.77
1005.298	379.83
1005.656	360.91
1006.014	377.01
1006.371	365.99
1006.729	378.7
1007.087	376.73
1007.445	376.73
1007.802	373.34
1008.16	391.13
1008.517	401.3
1008.874	388.31
1009.232	383.22
1009.589	362.88
1009.946	373.62
1010.303	375.31
1010.66	390.85
1011.017	379.27
1011.374	404.69
1011.731	410.62
1012.087	348.76
1012.444	371.08
1012.801	352.43
1013.157	385.48
1013.513	367.4
1013.87	369.1
1014.226	354.41
1014.582	373.05
1014.939	353.84
1015.295	368.25
1015.651	386.61
1016.007	384.92
1016.363	383.22
1016.719	374.18
1017.074	384.64
1017.43	384.07
1017.786	365.43
1018.141	345.65
1018.497	378.7
1018.852	381.25
1019.208	396.5
1019.563	386.33
1019.918	368.82
1020.273	369.66
1020.628	358.08
1020.983	381.81
1021.338	347.63
1021.693	379.27
1022.048	372.77
1022.403	373.34
1022.757	365.43
1023.112	383.22
1023.467	357.52
1023.821	350.73
1024.175	388.87
1024.53	372.21
1024.884	381.53
1025.238	387.18
1025.592	362.32
1025.946	370.51
1026.3	380.96
1026.654	373.9
1027.008	365.99
1027.362	369.66
1027.716	375.6
1028.069	379.27
1028.423	367.12
1028.777	370.51
1029.13	358.65
1029.483	364.01
1029.837	368.82
1030.19	379.83
1030.543	375.88
1030.896	347.06
1031.249	358.65
1031.602	392.54
1031.955	367.69
1032.308	388.03
1032.661	378.14
1033.013	358.65
1033.366	390
1033.719	366.84
1034.071	371.08
1034.424	378.7
1034.776	365.99
1035.128	350.17
1035.48	350.73
1035.833	364.58
1036.185	343.67
1036.537	343.67
1036.889	343.67
