Data from SCSF78-405_irradiation_FLMS019251_14-52-27-894.txt Node
Date: Fri Feb 22 14:52:27 PST 2019
User: mu3e
Spectrometer: FLMS01925
Trigger mode: 0
Integration Time (sec): 1.206000E-2
Scans to average: 10
Electric dark correction enabled: true
Nonlinearity correction enabled: true
Boxcar width: 0
XAxis mode: Wavelengths
Number of Pixels in Spectrum: 2048
>>>>>Begin Spectral Data<<<<<
187.103	-77.85
187.574	-77.85
188.045	-77.85
188.516	-123.06
188.987	-135.86
189.458	-138.7
189.929	-126.19
190.4	-89.79
190.871	-108.56
191.342	-112.54
191.813	-61.65
192.284	-60.23
192.754	-21.88
193.225	2.82
193.696	25.53
194.166	89.08
194.637	92.77
195.107	99
195.578	113.18
196.048	139.54
196.518	156.54
196.989	213.75
197.459	205.54
197.929	223.37
198.399	279.68
198.869	275.16
199.339	322.1
199.809	301.46
200.279	314.18
200.749	360.82
201.219	346.12
201.689	364.77
202.159	366.75
202.628	394.15
203.098	407.42
203.568	363.36
204.037	385.68
204.507	402.9
204.976	380.88
205.445	388.78
205.915	401.78
206.384	389.91
206.853	414.2
207.323	389.35
207.792	409.68
208.261	426.9
208.73	388.78
209.199	407.14
209.668	404.6
210.137	390.48
210.606	384.55
211.075	374.66
211.543	381.16
212.012	369.58
212.481	354.88
212.95	380.03
213.418	382.57
213.887	408.83
214.355	355.17
214.824	326.34
215.292	368.16
215.76	375.79
216.229	364.77
216.697	362.51
217.165	381.16
217.633	359.12
218.101	360.82
218.569	349.8
219.037	343.3
219.505	362.23
219.973	329.45
220.441	372.12
220.909	356.86
221.377	361.38
221.844	350.36
222.312	344.71
222.78	361.38
223.247	344.99
223.715	361.95
224.182	367.88
224.65	351.21
225.117	354.88
225.584	350.65
226.052	373.53
226.519	380.03
226.986	357.43
227.453	346.97
227.92	351.21
228.387	359.12
228.854	377.49
229.321	372.12
229.788	381.44
230.255	378.33
230.722	344.43
231.189	385.39
231.655	382.57
232.122	356.58
232.589	352.06
233.055	380.03
233.522	365.06
233.988	360.54
234.454	374.1
234.921	348.95
235.387	375.79
235.853	354.88
236.32	381.44
236.786	352.06
237.252	364.21
237.718	393.02
238.184	395.84
238.65	352.91
239.116	396.41
239.582	357.43
240.047	367.88
240.513	414.2
240.979	396.97
241.445	367.6
241.91	384.27
242.376	351.49
242.841	371.55
243.307	359.97
243.772	368.16
244.238	383.98
244.703	365.06
245.168	375.79
245.633	371.55
246.099	399.23
246.564	404.03
247.029	411.66
247.494	371.27
247.959	374.1
248.424	354.88
248.889	377.2
249.353	377.77
249.818	368.73
250.283	385.96
250.748	382.01
251.212	369.86
251.677	397.26
252.141	408.27
252.606	393.3
253.07	390.2
253.535	356.3
253.999	371.84
254.463	366.47
254.927	384.55
255.392	394.43
255.856	371.55
256.32	376.92
256.784	360.82
257.248	387.37
257.712	365.62
258.176	386.24
258.64	393.3
259.103	384.83
259.567	380.88
260.031	392.17
260.495	354.32
260.958	385.96
261.422	384.55
261.885	376.07
262.349	384.27
262.812	380.31
263.275	378.62
263.739	378.9
264.202	403.19
264.665	395.84
265.128	385.68
265.591	388.5
266.054	384.55
266.517	401.78
266.98	404.03
267.443	369.86
267.906	398.1
268.369	400.36
268.832	397.82
269.294	399.23
269.757	397.26
270.22	385.11
270.682	371.55
271.145	393.59
271.607	400.08
272.07	386.52
272.532	394.72
272.994	410.81
273.456	387.65
273.919	363.93
274.381	379.75
274.843	392.17
275.305	402.62
275.767	368.73
276.229	404.32
276.691	378.62
277.153	372.4
277.614	394.72
278.076	413.07
278.538	389.35
279	387.65
279.461	360.25
279.923	415.89
280.384	383.7
280.846	367.03
281.307	381.44
281.769	382.57
282.23	388.78
282.691	400.36
283.152	407.14
283.613	391.33
284.075	385.39
284.536	413.35
284.997	377.2
285.458	406.29
285.918	396.69
286.379	391.61
286.84	396.69
287.301	426.06
287.762	417.87
288.222	401.49
288.683	405.45
289.143	397.26
289.604	384.83
290.064	385.68
290.525	387.94
290.985	415.05
291.445	404.88
291.906	420.69
292.366	414.2
292.826	404.6
293.286	384.83
293.746	388.78
294.206	363.36
294.666	389.07
295.126	407.14
295.586	407.71
296.046	395.56
296.506	404.6
296.965	384.55
297.425	396.41
297.884	414.76
298.344	389.35
298.804	406.86
299.263	398.39
299.722	369.01
300.182	388.5
300.641	398.95
301.1	396.13
301.559	411.09
302.019	409.4
302.478	375.23
302.937	385.96
303.396	389.91
303.855	396.97
304.314	395.28
304.772	411.38
305.231	379.75
305.69	398.95
306.149	408.55
306.607	403.47
307.066	374.38
307.524	396.69
307.983	407.14
308.441	400.65
308.9	396.13
309.358	385.68
309.816	374.38
310.275	404.03
310.733	423.52
311.191	408.83
311.649	419
312.107	394.43
312.565	402.06
313.023	411.94
313.481	378.62
313.939	388.22
314.397	417.02
314.854	377.2
315.312	406.29
315.77	404.03
316.227	397.54
316.685	404.88
317.142	413.07
317.6	410.53
318.057	407.42
318.514	405.73
318.972	422.39
319.429	411.66
319.886	398.39
320.343	395.28
320.8	406.58
321.257	408.83
321.714	402.34
322.171	405.16
322.628	374.38
323.085	409.12
323.542	402.62
323.998	395
324.455	382.29
324.912	401.21
325.368	422.39
325.825	425.21
326.281	399.23
326.738	415.33
327.194	425.21
327.65	406.58
328.107	379.18
328.563	385.68
329.019	393.02
329.475	409.12
329.931	419
330.387	433.68
330.843	398.1
331.299	408.55
331.755	419.28
332.211	414.76
332.666	395.28
333.122	395.84
333.578	402.9
334.033	410.25
334.489	393.3
334.944	401.78
335.4	436.78
335.855	392.46
336.31	435.65
336.766	406.29
337.221	398.1
337.676	387.37
338.131	408.27
338.586	401.49
339.041	414.48
339.496	392.46
339.951	404.32
340.406	442.71
340.861	414.2
341.316	387.65
341.771	413.63
342.225	413.63
342.68	400.08
343.134	420.98
343.589	429.73
344.043	421.54
344.498	425.49
344.952	424.08
345.406	437.07
345.861	420.41
346.315	421.82
346.769	413.92
347.223	423.52
347.677	388.22
348.131	420.41
348.585	390.76
349.039	408.83
349.493	418.43
349.947	426.9
350.401	412.79
350.854	424.93
351.308	406.29
351.762	410.25
352.215	425.77
352.669	415.61
353.122	429.16
353.575	416.46
354.029	395.28
354.482	403.75
354.935	398.67
355.388	402.9
355.842	409.96
356.295	420.13
356.748	430.86
357.201	407.99
357.654	402.34
358.106	409.12
358.559	417.3
359.012	409.68
359.465	411.94
359.917	431.42
360.37	434.24
360.823	449.77
361.275	428.32
361.728	410.25
362.18	429.44
362.632	428.32
363.085	400.65
363.537	419.85
363.989	432.55
364.441	420.13
364.893	399.52
365.345	413.63
365.797	391.89
366.249	428.6
366.701	435.65
367.153	419.28
367.605	437.35
368.057	446.94
368.508	419.28
368.96	412.79
369.411	416.18
369.863	428.6
370.314	413.63
370.766	413.35
371.217	423.8
371.669	429.44
372.12	424.08
372.571	420.69
373.022	430.29
373.473	432.55
373.924	397.26
374.375	422.67
374.826	469.8
375.277	415.89
375.728	409.96
376.179	398.39
376.63	430.29
377.08	424.93
377.531	455.97
377.981	424.65
378.432	387.37
378.883	431.7
379.333	392.17
379.783	406.86
380.234	426.06
380.684	411.09
381.134	410.81
381.584	437.63
382.034	425.77
382.485	448.64
382.935	419.85
383.385	398.1
383.834	436.78
384.284	426.06
384.734	408.83
385.184	435.94
385.634	468.39
386.083	423.23
386.533	415.33
386.982	402.34
387.432	424.08
387.881	421.82
388.331	433.4
388.78	448.92
389.229	448.07
389.679	386.52
390.128	404.32
390.577	438.48
391.026	429.16
391.475	438.48
391.924	416.74
392.373	422.39
392.822	430.01
393.27	444.97
393.719	450.05
394.168	472.62
394.617	452.31
395.065	458.23
395.514	458.51
395.962	445.81
396.411	434.53
396.859	473.75
397.307	446.94
397.756	426.06
398.204	441.02
398.652	454
399.1	457.1
399.548	467.54
399.996	451.18
400.444	459.64
400.892	447.51
401.34	425.49
401.788	443.56
402.236	435.37
402.683	466.98
403.131	464.16
403.579	450.05
404.026	466.13
404.474	437.63
404.921	476.29
405.369	477.13
405.816	466.7
406.263	461.34
406.71	476.57
407.158	463.03
407.605	473.19
408.052	495.19
408.499	494.34
408.946	472.62
409.393	499.7
409.84	479.96
410.286	503.93
410.733	537.76
411.18	572.71
411.626	587.36
412.073	660.56
412.52	725.26
412.966	789.34
413.413	915.93
413.859	1071.99
414.305	1275.76
414.752	1590.28
415.198	1911.02
415.644	2279.54
416.09	2825.12
416.536	3352.21
416.982	4048.58
417.428	4749.37
417.874	5579.01
418.32	6399.83
418.766	7296.64
419.211	8430.84
419.657	9381.09
420.103	10633.59
420.548	11491.27
420.994	12831.97
421.439	14016.24
421.885	14945.03
422.33	16468.15
422.776	17568.77
423.221	18573.65
423.666	19892.39
424.111	21257.48
424.556	22149.79
425.001	23602.02
425.446	25086.64
425.891	26363.97
426.336	27364.34
426.781	28543.58
427.226	30731.29
427.671	31236.87
428.115	32237.52
428.56	34082.89
429.005	35466.24
429.449	35931.38
429.894	37411.22
430.338	38523.55
430.782	38605.31
431.227	40316.42
431.671	40661.46
432.115	42315.6
432.559	43260.44
433.003	43127.08
433.447	43991.69
433.891	44489.89
434.335	44884.29
434.779	45778.26
435.223	45887.94
435.667	46000.99
436.111	46372.84
436.554	46433.72
436.998	46007.57
437.442	46065.77
437.885	48221.71
438.328	46431.18
438.772	46901.61
439.215	47482.33
439.659	47101.61
440.102	47408.45
440.545	46826.78
440.988	46578.67
441.431	47500.24
441.874	47045.02
442.317	47209.76
442.76	46690.98
443.203	46173.63
443.646	47029.22
444.089	46455.04
444.531	46982.59
444.974	45745.67
445.417	47052.66
445.859	46060.71
446.302	47096
446.744	46423.32
447.186	47635.36
447.629	46593.15
448.071	46597.47
448.513	46727.84
448.956	48050.42
449.398	47391.32
449.84	46107.28
450.282	46662.51
450.724	47241.92
451.166	46927.32
451.607	46841.8
452.049	46896.26
452.491	48116.23
452.933	47759.88
453.374	48048.36
453.816	48730.27
454.257	48183.88
454.699	49227.95
455.14	49025.86
455.582	48812.05
456.023	48758.99
456.464	48958.17
456.905	49474.02
457.347	49469.59
457.788	48445.36
458.229	48661.49
458.67	49766.57
459.111	47850.66
459.552	47830.65
459.992	47760.39
460.433	47593.12
460.874	46576.64
461.315	47757.06
461.755	46661.5
462.196	46162.99
462.636	45526.57
463.077	45346.57
463.517	45369.25
463.957	45534.14
464.398	45207.78
464.838	45293.66
465.278	44232.99
465.718	44521.74
466.158	43211.32
466.598	43599.28
467.038	43390.63
467.478	43753.41
467.918	43873.64
468.358	43114.62
468.798	42828.99
469.237	42730.21
469.677	42681.95
470.117	43403.35
470.556	41105.52
470.996	41594.33
471.435	41748.44
471.874	42440.81
472.314	42040.8
472.753	41178.48
473.192	41375.69
473.631	40868.22
474.07	41163.15
474.509	41229.69
474.948	41500.22
475.387	40746.67
475.826	39926.65
476.265	41637.18
476.704	41033.82
477.143	41366.28
477.581	41203.96
478.02	41854.04
478.458	40491.12
478.897	41027.64
479.335	42366.52
479.774	41674.1
480.212	41870.41
480.65	41867.18
481.089	41613.9
481.527	40947.55
481.965	40590.35
482.403	42610.08
482.841	42174.57
483.279	42300.45
483.717	42255.75
484.155	41854.29
484.592	42248.55
485.03	42536.24
485.468	41564.85
485.905	41663.69
486.343	42107.3
486.781	41447.97
487.218	40898.36
487.655	40712.83
488.093	39940.2
488.53	41498.24
488.967	40602.69
489.405	40337.89
489.842	39582.84
490.279	39683.29
490.716	39043.38
491.153	39563.14
491.59	38936.21
492.027	38561.6
492.463	37975.15
492.9	37240.76
493.337	37054.93
493.773	37257.9
494.21	36337.39
494.647	36186.79
495.083	35413.49
495.519	35002.82
495.956	35029.42
496.392	34336.6
496.828	34168.03
497.265	33424.16
497.701	33484.15
498.137	33195.93
498.573	32456.45
499.009	32852.14
499.445	32071.98
499.881	31519
500.316	31842.8
500.752	30851.05
501.188	30610.3
501.624	30623.47
502.059	29377.6
502.495	29237.92
502.93	29055.23
503.366	29471.12
503.801	28713.19
504.236	28473.43
504.672	28049.96
505.107	27690.35
505.542	27109.93
505.977	27213.27
506.412	26627.02
506.847	26954.15
507.282	26358.82
507.717	25974.43
508.152	26010.99
508.587	25777.6
509.021	25067.22
509.456	24760.12
509.891	24833.65
510.325	24815.7
510.76	24226.35
511.194	24193.36
511.628	24235.71
512.063	23485.39
512.497	23692.99
512.931	23099.54
513.366	22926
513.8	22916.37
514.234	22260.34
514.668	22223.49
515.102	22513.22
515.536	21586
515.969	21795.21
516.403	21365.28
516.837	20953.51
517.271	21001.63
517.704	20627.49
518.138	20547.56
518.571	20349.65
519.005	19935.65
519.438	19872.99
519.871	19613.06
520.305	19196.82
520.738	19122.84
521.171	18644
521.604	18903.31
522.037	18545.21
522.47	18165.82
522.903	17909.52
523.336	17826.8
523.769	17691.55
524.202	17262.26
524.634	17286.54
525.067	17023.88
525.5	16879.08
525.932	16777.33
526.365	16303.04
526.797	16227.99
527.23	16201.38
527.662	15770.55
528.094	15510.78
528.527	15447.38
528.959	15248.05
529.391	15040.02
529.823	14449.95
530.255	14571.84
530.687	14154.23
531.119	13981.86
531.551	13923.46
531.982	13616.57
532.414	13425.64
532.846	13162.82
533.277	12953.55
533.709	12622.93
534.14	12623.95
534.572	12452.62
535.003	12351.91
535.435	11996.78
535.866	11893.32
536.297	11587.51
536.728	11596.7
537.159	11545.14
537.59	11295.33
538.022	11063.64
538.452	10909.3
538.883	10666.15
539.314	10695.89
539.745	10338.48
540.176	10233.67
540.606	10007.41
541.037	10050.11
541.468	9775.96
541.898	9728.03
542.328	9646.07
542.759	9436.08
543.189	9351.39
543.619	9240.56
544.05	9057.73
544.48	8872.37
544.91	8824.44
545.34	8671.48
545.77	8528.49
546.2	8491.36
546.63	8293.86
547.06	8279.04
547.489	8065.62
547.919	7858.39
548.349	7961.39
548.778	7895.69
549.208	7763.67
549.637	7575.85
550.067	7458.69
550.496	7478.84
550.926	7328.33
551.355	7140.15
551.784	7223.53
552.213	7071.15
552.642	6906.76
553.071	6871.8
553.5	6814.75
553.929	6575.73
554.358	6608.4
554.787	6482.14
555.216	6454.98
555.645	6338.86
556.073	6251.69
556.502	6199.36
556.93	6057.3
557.359	6033.21
557.787	5950.05
558.216	5862.05
558.644	5841.1
559.072	5751.95
559.5	5635.09
559.929	5733.1
560.357	5585.92
560.785	5571.03
561.213	5536.73
561.641	5428.15
562.068	5426.02
562.496	5336.26
562.924	5310.67
563.352	5234.94
563.779	5221.34
564.207	5241.61
564.634	5108.43
565.062	5118.04
565.489	5022.66
565.917	5022.39
566.344	5003.41
566.771	4969.99
567.198	4967.85
567.625	4835.91
568.053	4728.73
568.48	4761.97
568.907	4764.11
569.333	4574.18
569.76	4493.06
570.187	4496.82
570.614	4444.67
571.04	4517.78
571.467	4281.04
571.894	4263.8
572.32	4159.22
572.747	4104.18
573.173	4033.45
573.599	3913.46
574.026	3869.92
574.452	3794.94
574.878	3769.21
575.304	3661.89
575.73	3697.41
576.156	3557.43
576.582	3543.04
577.008	3445.77
577.434	3430.82
577.86	3353.03
578.285	3331.53
578.711	3273.8
579.137	3197.5
579.562	3103.13
579.988	3159.87
580.413	3117.32
580.838	3029.95
581.264	3005.37
581.689	2920.62
582.114	2910.23
582.539	2862.62
582.964	2870.29
583.39	2780.75
583.814	2721.83
584.239	2663.41
584.664	2687.83
585.089	2631.31
585.514	2562.4
585.939	2570.91
586.363	2539.32
586.788	2492.32
587.212	2453.55
587.637	2420.27
588.061	2375.4
588.485	2346.77
588.91	2316.74
589.334	2295.25
589.758	2264.93
590.182	2246.19
590.606	2189.92
591.03	2164.53
591.454	2126.98
591.878	2061.78
592.302	2091.63
592.726	2075.32
593.15	2066.76
593.573	2009.53
593.997	1995.7
594.42	1956.69
594.844	1939.53
595.267	1914.06
595.691	1895.51
596.114	1844.54
596.537	1840.1
596.96	1835.67
597.384	1819.59
597.807	1804.34
598.23	1802.13
598.653	1745.82
599.076	1767.46
599.499	1708.91
599.921	1697.8
600.344	1693.36
600.767	1661.15
601.189	1706.13
601.612	1683.36
602.034	1659.2
602.457	1638.36
602.879	1626.97
603.302	1621.69
603.724	1626.69
604.146	1612.52
604.568	1564.7
604.991	1593.62
605.413	1624.75
605.835	1576.38
606.257	1551.63
606.678	1579.44
607.1	1544.67
607.522	1560.25
607.944	1560.53
608.365	1503.49
608.787	1512.12
609.209	1457.27
609.63	1445.02
610.051	1444.18
610.473	1443.63
610.894	1431.93
611.315	1405.46
611.737	1382.88
612.158	1367.55
612.579	1383.16
613	1347.75
613.421	1362.81
613.842	1319.58
614.263	1292.23
614.683	1274.65
615.104	1250.08
615.525	1226.9
615.945	1220.19
616.366	1243.93
616.787	1244.77
617.207	1155.63
617.627	1166.26
618.048	1183.87
618.468	1161.51
618.888	1150.04
619.308	1167.38
619.728	1102.77
620.148	1097.74
620.568	1105.57
620.988	1071.71
621.408	1064.15
621.828	1067.23
622.248	1043.72
622.668	1054.08
623.087	1054.36
623.507	1047.92
623.926	1011.79
624.346	1019.91
624.765	992.18
625.185	980.69
625.604	970.32
626.023	952.95
626.442	940.89
626.861	950.14
627.28	917.62
627.699	929.11
628.118	909.2
628.537	926.31
628.956	884.51
629.375	926.31
629.794	867.4
630.212	875.25
630.631	867.12
631.049	851.12
631.468	861.5
631.886	840.73
632.305	829.5
632.723	869.64
633.141	841.57
633.559	833.15
633.978	831.47
634.396	827.54
634.814	809
635.232	781.75
635.65	819.95
636.067	803.66
636.485	772.2
636.903	777.26
637.321	744.09
637.738	734.25
638.156	771.36
638.573	762.36
638.991	751.4
639.408	732.01
639.825	739.31
640.243	722.73
640.66	753.37
641.077	715.42
641.494	702.76
641.911	705.57
642.328	732.01
642.745	725.82
643.162	710.92
643.579	710.35
643.995	705.29
644.412	676.88
644.829	675.19
645.245	662.25
645.662	665.34
646.078	658.59
646.495	656.34
646.911	655.49
647.327	649.87
647.743	676.32
648.159	638.61
648.576	659.15
648.992	647.33
649.408	638.89
649.824	651.84
650.239	626.78
650.655	595.24
651.071	616.36
651.487	621.15
651.902	623.12
652.318	625.66
652.733	626.78
653.149	610.45
653.564	591.86
653.979	581.72
654.395	614.39
654.81	590.74
655.225	593.55
655.64	590.74
656.055	589.61
656.47	577.21
656.885	586.23
657.3	587.64
657.715	587.92
658.13	585.1
658.544	576.09
658.959	572.43
659.374	557.49
659.788	567.07
660.202	583.13
660.617	574.12
661.031	578.91
661.445	587.92
661.86	561.15
662.274	544.53
662.688	567.92
663.102	535.23
663.516	530.15
663.93	536.92
664.344	538.04
664.758	529.02
665.171	512.11
665.585	569.61
665.999	534.1
666.412	558.62
666.826	528.46
667.239	522.26
667.653	555.8
668.066	518.59
668.479	536.35
668.892	541.99
669.306	536.35
669.719	501.11
670.132	516.62
670.545	510.13
670.958	530.15
671.37	538.04
671.783	524.23
672.196	509.85
672.609	518.03
673.021	524.51
673.434	522.26
673.846	520
674.259	516.06
674.671	493.5
675.084	501.96
675.496	506.75
675.908	516.62
676.32	508.16
676.732	490.67
677.144	501.67
677.556	518.31
677.968	491.52
678.38	488.7
678.792	499.42
679.204	486.16
679.615	510.7
680.027	509.01
680.439	509.29
680.85	492.93
681.262	487.29
681.673	494.91
682.084	488.7
682.496	477.7
682.907	481.37
683.318	464.16
683.729	474.88
684.14	498.57
684.551	446.38
684.962	461.34
685.373	471.49
685.784	471.21
686.194	494.34
686.605	463.03
687.016	473.47
687.426	466.41
687.837	461.62
688.247	482.49
688.657	475.44
689.068	462.46
689.478	459.08
689.888	442.99
690.298	472.34
690.708	453.72
691.118	449.77
691.528	448.35
691.938	470.93
692.348	481.37
692.758	461.34
693.168	461.05
693.577	479.11
693.987	452.31
694.396	459.64
694.806	444.4
695.215	426.62
695.625	442.15
696.034	454.56
696.443	456.54
696.852	433.96
697.262	434.24
697.671	430.29
698.08	419.85
698.489	452.02
698.897	443.56
699.306	438.48
699.715	437.91
700.124	438.76
700.532	455.97
700.941	428.88
701.35	447.23
701.758	444.97
702.166	436.78
702.575	438.19
702.983	435.37
703.391	436.22
703.799	444.12
704.208	437.91
704.616	423.52
705.024	461.9
705.432	431.42
705.839	429.44
706.247	454.56
706.655	466.13
707.063	417.87
707.47	454.28
707.878	424.93
708.285	418.43
708.693	439.89
709.1	411.38
709.508	447.23
709.915	444.4
710.322	416.74
710.729	446.94
711.136	442.15
711.543	441.02
711.95	439.32
712.357	433.68
712.764	426.06
713.171	439.61
713.578	406.86
713.984	430.57
714.391	406.29
714.797	442.43
715.204	424.08
715.61	422.1
716.017	449.2
716.423	405.73
716.829	433.11
717.236	407.71
717.642	410.81
718.048	408.83
718.454	404.88
718.86	412.22
719.266	411.38
719.671	400.08
720.077	428.03
720.483	450.05
720.889	413.07
721.294	406.01
721.7	409.12
722.105	417.59
722.511	432.83
722.916	403.75
723.321	412.22
723.726	392.46
724.132	409.12
724.537	430.86
724.942	429.16
725.347	406.86
725.752	413.07
726.156	414.2
726.561	397.54
726.966	424.65
727.371	439.32
727.775	419.28
728.18	404.03
728.584	407.99
728.989	412.79
729.393	416.46
729.798	401.49
730.202	413.92
730.606	417.59
731.01	416.74
731.414	415.33
731.818	402.34
732.222	395
732.626	411.38
733.03	413.07
733.434	400.93
733.837	413.35
734.241	398.1
734.645	416.46
735.048	408.55
735.452	406.86
735.855	410.81
736.258	416.46
736.662	406.29
737.065	430.01
737.468	428.32
737.871	397.82
738.274	425.77
738.677	401.78
739.08	401.49
739.483	409.96
739.886	422.95
740.289	405.16
740.691	407.71
741.094	389.35
741.497	407.14
741.899	417.87
742.302	402.9
742.704	396.13
743.106	382.57
743.508	420.41
743.911	402.34
744.313	406.29
744.715	388.5
745.117	410.53
745.519	372.12
745.921	376.07
746.323	428.03
746.724	421.26
747.126	406.86
747.528	382.85
747.929	404.6
748.331	430.86
748.732	435.65
749.134	412.51
749.535	404.88
749.936	417.02
750.338	436.78
750.739	402.06
751.14	408.27
751.541	409.68
751.942	389.91
752.343	390.76
752.744	416.18
753.144	429.16
753.545	413.07
753.946	381.44
754.346	402.34
754.747	408.27
755.148	413.92
755.548	404.88
755.948	399.52
756.349	404.32
756.749	390.48
757.149	383.7
757.549	398.95
757.949	390.2
758.349	404.88
758.749	411.09
759.149	402.06
759.549	407.14
759.949	418.15
760.348	421.82
760.748	410.25
761.148	406.58
761.547	410.25
761.947	465
762.346	404.6
762.745	414.2
763.145	382.01
763.544	405.73
763.943	401.21
764.342	410.81
764.741	396.13
765.14	416.18
765.539	378.62
765.938	401.49
766.336	371.27
766.735	409.12
767.134	398.39
767.532	400.65
767.931	403.19
768.329	387.94
768.728	396.13
769.126	385.68
769.525	405.16
769.923	417.02
770.321	383.7
770.719	420.69
771.117	395
771.515	408.83
771.913	407.71
772.311	424.08
772.709	394.72
773.106	391.89
773.504	422.39
773.902	383.7
774.299	401.49
774.697	391.61
775.094	417.59
775.491	406.01
775.889	398.39
776.286	397.54
776.683	393.87
777.08	414.76
777.477	389.63
777.874	416.74
778.271	410.81
778.668	408.83
779.065	387.09
779.462	404.03
779.858	369.29
780.255	407.99
780.652	391.89
781.048	385.96
781.444	402.06
781.841	390.2
782.237	406.58
782.633	406.29
783.03	389.63
783.426	421.54
783.822	385.11
784.218	405.45
784.614	396.41
785.01	396.69
785.405	383.7
785.801	397.54
786.197	408.27
786.593	387.09
786.988	408.27
787.384	368.16
787.779	396.69
788.174	387.37
788.57	388.5
788.965	409.96
789.36	405.73
789.755	400.08
790.15	378.62
790.545	416.74
790.94	367.32
791.335	406.29
791.73	395.84
792.125	416.46
792.52	395
792.914	368.16
793.309	389.35
793.703	420.41
794.098	407.42
794.492	386.81
794.887	405.16
795.281	380.03
795.675	364.77
796.069	386.81
796.463	388.5
796.857	399.23
797.251	405.45
797.645	387.09
798.039	391.61
798.433	413.63
798.826	392.74
799.22	385.96
799.614	411.66
800.007	406.01
800.401	416.18
800.794	373.25
801.187	399.8
801.581	420.13
801.974	405.45
802.367	412.79
802.76	411.38
803.153	389.35
803.546	386.24
803.939	399.52
804.332	368.16
804.725	401.78
805.117	412.22
805.51	407.14
805.903	376.07
806.295	378.05
806.688	380.88
807.08	407.99
807.472	387.94
807.865	391.89
808.257	375.79
808.649	420.41
809.041	397.82
809.433	388.5
809.825	400.93
810.217	414.48
810.609	395.84
811.001	390.76
811.392	375.23
811.784	377.49
812.175	401.49
812.567	372.68
812.958	393.3
813.35	396.69
813.741	363.93
814.132	395.84
814.524	368.45
814.915	367.88
815.306	405.73
815.697	414.2
816.088	371.84
816.479	402.9
816.87	400.36
817.26	395
817.651	392.17
818.042	399.52
818.432	407.42
818.823	378.05
819.213	417.3
819.604	387.37
819.994	385.39
820.384	387.09
820.775	392.46
821.165	405.16
821.555	395.28
821.945	396.69
822.335	413.07
822.725	395
823.114	384.55
823.504	369.29
823.894	366.75
824.284	401.49
824.673	403.75
825.063	376.64
825.452	387.65
825.842	397.54
826.231	393.59
826.62	382.57
827.009	386.81
827.399	404.88
827.788	359.4
828.177	407.42
828.566	378.33
828.954	385.96
829.343	410.53
829.732	397.54
830.121	395.56
830.509	371.84
830.898	383.98
831.286	406.29
831.675	409.68
832.063	399.52
832.452	396.97
832.84	390.2
833.228	389.63
833.616	382.01
834.004	366.19
834.392	369.86
834.78	389.63
835.168	397.54
835.556	398.1
835.944	396.97
836.331	381.72
836.719	370.14
837.107	409.96
837.494	404.32
837.881	370.14
838.269	389.07
838.656	379.46
839.043	373.53
839.431	357.99
839.818	373.25
840.205	380.59
840.592	388.22
840.979	388.22
841.366	392.74
841.752	353.19
842.139	401.21
842.526	378.62
842.912	382.85
843.299	406.86
843.685	366.75
844.072	365.34
844.458	378.33
844.844	403.19
845.231	383.7
845.617	390.76
846.003	372.68
846.389	371.55
846.775	373.81
847.161	396.97
847.547	401.49
847.933	415.61
848.318	407.71
848.704	390.48
849.09	384.83
849.475	403.47
849.861	367.88
850.246	391.33
850.631	391.33
851.017	389.07
851.402	389.91
851.787	372.12
852.172	386.81
852.557	378.9
852.942	397.82
853.327	418.15
853.712	392.17
854.097	383.42
854.481	379.46
854.866	389.91
855.25	391.89
855.635	367.6
856.019	395.84
856.404	381.72
856.788	383.42
857.172	393.3
857.557	375.23
857.941	419.85
858.325	394.72
858.709	401.21
859.093	398.39
859.477	384.27
859.86	384.27
860.244	386.24
860.628	412.22
861.012	365.06
861.395	379.18
861.779	388.22
862.162	396.13
862.545	376.92
862.929	395
863.312	377.2
863.695	364.21
864.078	380.59
864.461	380.31
864.844	393.02
865.227	380.59
865.61	375.23
865.993	404.6
866.376	388.22
866.758	379.18
867.141	351.78
867.523	381.72
867.906	400.65
868.288	391.89
868.671	382.01
869.053	398.39
869.435	395.28
869.817	411.38
870.199	382.01
870.581	370.42
870.963	404.88
871.345	380.03
871.727	388.78
872.109	392.74
872.491	389.91
872.872	379.75
873.254	369.29
873.635	376.64
874.017	406.01
874.398	399.52
874.779	385.39
875.161	373.81
875.542	371.84
875.923	393.3
876.304	413.92
876.685	379.46
877.066	373.53
877.447	405.45
877.828	380.03
878.208	402.62
878.589	385.11
878.97	395.28
879.35	402.9
879.731	361.1
880.111	374.66
880.491	392.17
880.872	337.93
881.252	377.77
881.632	361.67
882.012	390.48
882.392	370.14
882.772	391.04
883.152	389.91
883.532	389.63
883.912	400.93
884.291	385.11
884.671	352.91
885.051	381.44
885.43	383.98
885.81	365.9
886.189	360.82
886.568	397.82
886.948	395.28
887.327	370.42
887.706	404.6
888.085	365.06
888.464	397.26
888.843	380.59
889.222	391.33
889.601	393.3
889.979	388.5
890.358	367.03
890.737	366.19
891.115	378.33
891.494	379.46
891.872	375.79
892.25	385.96
892.629	364.49
893.007	347.82
893.385	396.13
893.763	385.68
894.141	378.9
894.519	374.66
894.897	370.14
895.275	391.33
895.653	361.38
896.03	399.23
896.408	389.91
896.786	378.05
897.163	406.29
897.541	382.01
897.918	351.78
898.295	357.43
898.673	407.14
899.05	350.08
899.427	389.07
899.804	368.16
900.181	376.64
900.558	387.09
900.935	371.84
901.312	390.48
901.688	371.55
902.065	370.71
902.442	380.03
902.818	368.16
903.195	396.13
903.571	394.15
903.947	375.79
904.324	392.17
904.7	396.69
905.076	396.13
905.452	390.48
905.828	387.94
906.204	405.16
906.58	400.65
906.956	388.78
907.331	386.24
907.707	373.25
908.083	369.86
908.458	381.72
908.834	386.52
909.209	386.52
909.585	389.91
909.96	366.19
910.335	398.67
910.71	352.06
911.086	381.16
911.461	400.93
911.836	417.87
912.21	402.34
912.585	372.68
912.96	364.49
913.335	364.21
913.709	363.64
914.084	400.08
914.459	381.72
914.833	375.51
915.207	368.45
915.582	382.01
915.956	386.52
916.33	372.97
916.704	390.2
917.078	375.79
917.452	385.96
917.826	387.09
918.2	377.2
918.574	371.27
918.948	377.2
919.321	394.43
919.695	390.76
920.068	370.14
920.442	390.48
920.815	372.68
921.189	381.44
921.562	388.22
921.935	354.04
922.308	382.29
922.681	370.42
923.054	374.94
923.427	386.24
923.8	404.03
924.173	393.3
924.546	376.07
924.919	375.79
925.291	390.2
925.664	386.81
926.036	360.54
926.409	409.12
926.781	394.72
927.153	370.14
927.526	419.28
927.898	382.57
928.27	380.31
928.642	401.49
929.014	386.24
929.386	388.5
929.758	350.08
930.129	370.42
930.501	399.52
930.873	377.49
931.244	375.51
931.616	353.47
931.987	386.52
932.359	385.96
932.73	377.77
933.101	389.63
933.472	361.67
933.843	382.29
934.214	370.99
934.585	332.84
934.956	378.9
935.327	377.77
935.698	402.06
936.069	385.96
936.439	363.08
936.81	367.32
937.18	371.27
937.551	380.31
937.921	387.37
938.292	347.25
938.662	371.27
939.032	385.96
939.402	379.46
939.772	383.7
940.142	386.81
940.512	382.01
940.882	373.25
941.252	390.48
941.621	365.34
941.991	377.77
942.361	381.72
942.73	387.37
943.1	378.9
943.469	379.46
943.838	400.08
944.208	372.97
944.577	386.81
944.946	371.27
945.315	370.42
945.684	379.75
946.053	380.88
946.422	359.4
946.791	359.69
947.159	362.8
947.528	379.46
947.897	370.42
948.265	369.58
948.634	359.97
949.002	382.57
949.371	371.27
949.739	359.97
950.107	398.67
950.475	371.27
950.843	371.55
951.211	382.29
951.579	398.67
951.947	403.47
952.315	382.01
952.683	375.51
953.05	390.2
953.418	385.39
953.785	394.43
954.153	382.85
954.52	404.6
954.888	389.35
955.255	382.29
955.622	361.1
955.989	376.64
956.356	385.11
956.723	378.62
957.09	395.56
957.457	389.07
957.824	394.72
958.191	384.83
958.557	383.98
958.924	379.18
959.291	352.91
959.657	366.75
960.023	389.91
960.39	341.88
960.756	389.07
961.122	378.05
961.488	368.73
961.855	368.45
962.221	372.68
962.586	334.82
962.952	382.29
963.318	369.86
963.684	408.83
964.05	392.74
964.415	373.25
964.781	388.5
965.146	384.27
965.512	370.42
965.877	375.79
966.242	387.94
966.608	389.07
966.973	371.84
967.338	362.23
967.703	379.75
968.068	363.64
968.433	371.27
968.797	366.19
969.162	352.91
969.527	404.6
969.891	394.43
970.256	353.19
970.62	375.51
970.985	379.75
971.349	363.08
971.714	368.73
972.078	408.55
972.442	383.98
972.806	398.1
973.17	363.64
973.534	365.34
973.898	391.04
974.262	372.4
974.625	389.07
974.989	363.08
975.353	392.74
975.716	388.22
976.08	373.53
976.443	348.38
976.806	387.37
977.17	351.21
977.533	370.99
977.896	378.33
978.259	367.88
978.622	379.18
978.985	373.81
979.348	372.97
979.711	353.47
980.073	371.55
980.436	385.11
980.799	379.46
981.161	396.13
981.524	383.98
981.886	384.27
982.248	396.13
982.611	383.98
982.973	369.58
983.335	359.12
983.697	376.36
984.059	380.88
984.421	378.05
984.783	369.01
985.145	368.45
985.506	386.24
985.868	396.41
986.23	384.27
986.591	367.32
986.953	361.95
987.314	370.99
987.675	362.8
988.037	510.42
988.398	400.65
988.759	394.15
989.12	374.1
989.481	396.41
989.842	358.27
990.203	373.81
990.564	360.25
990.924	369.86
991.285	484.19
991.646	378.05
992.006	376.07
992.367	349.23
992.727	360.82
993.087	381.16
993.448	360.54
993.808	351.49
994.168	368.73
994.528	362.8
994.888	369.86
995.248	353.19
995.608	389.63
995.967	371.55
996.327	362.23
996.687	378.62
997.046	349.23
997.406	384.27
997.765	383.7
998.125	372.4
998.484	370.42
998.843	380.31
999.202	365.62
999.561	377.49
999.92	362.51
1000.279	384.55
1000.638	396.69
1000.997	367.6
1001.356	362.51
1001.715	357.71
1002.073	383.42
1002.432	359.12
1002.79	362.8
1003.149	356.01
1003.507	385.96
1003.865	370.99
1004.224	365.34
1004.582	376.92
1004.94	387.65
1005.298	386.24
1005.656	361.95
1006.014	367.6
1006.371	394.43
1006.729	375.51
1007.087	369.86
1007.445	388.22
1007.802	358.27
1008.16	358.27
1008.517	377.2
1008.874	367.6
1009.232	411.66
1009.589	365.34
1009.946	354.6
1010.303	358.56
1010.66	373.25
1011.017	379.18
1011.374	331.14
1011.731	358.84
1012.087	383.7
1012.444	335.38
1012.801	360.54
1013.157	354.04
1013.513	393.87
1013.87	365.62
1014.226	354.88
1014.582	355.17
1014.939	395.28
1015.295	387.94
1015.651	373.53
1016.007	375.23
1016.363	374.1
1016.719	383.7
1017.074	373.53
1017.43	393.59
1017.786	360.82
1018.141	370.99
1018.497	367.6
1018.852	378.62
1019.208	361.1
1019.563	361.67
1019.918	381.16
1020.273	387.09
1020.628	377.2
1020.983	367.32
1021.338	369.01
1021.693	395.84
1022.048	341.32
1022.403	354.32
1022.757	379.75
1023.112	371.84
1023.467	395.56
1023.821	377.49
1024.175	374.66
1024.53	370.42
1024.884	355.17
1025.238	363.36
1025.592	361.1
1025.946	338.49
1026.3	379.46
1026.654	363.36
1027.008	367.32
1027.362	391.04
1027.716	379.18
1028.069	382.29
1028.423	379.18
1028.777	360.54
1029.13	369.29
1029.483	368.73
1029.837	363.08
1030.19	355.17
1030.543	394.43
1030.896	377.77
1031.249	377.77
1031.602	376.07
1031.955	398.67
1032.308	396.13
1032.661	397.82
1033.013	387.37
1033.366	350.36
1033.719	377.49
1034.071	378.62
1034.424	364.21
1034.776	378.9
1035.128	380.88
1035.48	387.37
1035.833	362.23
1036.185	367.03
1036.537	367.03
1036.889	367.03
