Data from SCSF78-405_irradiation_FLMS019251_11-05-27-915.txt Node
Date: Fri Feb 22 11:05:27 PST 2019
User: mu3e
Spectrometer: FLMS01925
Trigger mode: 0
Integration Time (sec): 1.206000E-2
Scans to average: 10
Electric dark correction enabled: true
Nonlinearity correction enabled: true
Boxcar width: 0
XAxis mode: Wavelengths
Number of Pixels in Spectrum: 2048
>>>>>Begin Spectral Data<<<<<
187.103	-93.84
187.574	-93.84
188.045	-93.84
188.516	-137.35
188.987	-114.03
189.458	-146.45
189.929	-113.18
190.4	-104.93
190.871	-108.63
191.342	-66.56
191.813	-39.28
192.284	-54.34
192.754	-15.42
193.225	-15.14
193.696	1.61
194.166	39.08
194.637	51
195.107	115.66
195.578	143.15
196.048	146.27
196.518	166.1
196.989	179.13
197.459	210.28
197.929	238.59
198.399	286.97
198.869	308.74
199.339	307.04
199.809	322.59
200.279	331.92
200.749	382.5
201.219	342.1
201.689	336.73
202.159	403.12
202.628	370.92
203.098	401.14
203.568	417.8
204.037	411.02
204.507	414.13
204.976	385.04
205.445	380.8
205.915	397.47
206.384	420.9
206.853	379.11
207.323	408.2
207.792	399.45
208.261	390.97
208.73	378.83
209.199	376.85
209.668	393.8
210.137	384.76
210.606	405.66
211.075	395.77
211.543	396.9
212.012	365.83
212.481	390.69
212.95	414.13
213.418	398.32
213.887	384.19
214.355	381.93
214.824	374.03
215.292	362.72
215.76	386.74
216.229	351.14
216.697	382.78
217.165	402.27
217.633	349.16
218.101	335.6
218.569	355.94
219.037	357.64
219.505	377.42
219.973	362.16
220.441	370.35
220.909	361.03
221.377	353.97
221.844	352.27
222.312	351.71
222.78	357.07
223.247	363.01
223.715	348.88
224.182	355.1
224.65	334.47
225.117	330.51
225.584	376.29
226.052	386.17
226.519	372.61
226.986	339.27
227.453	376.57
227.92	368.09
228.387	390.13
228.854	371.77
229.321	405.09
229.788	362.72
230.255	380.8
230.722	366.4
231.189	375.16
231.655	387.3
232.122	375.72
232.589	376
233.055	405.94
233.522	382.5
233.988	379.11
234.454	369.22
234.921	372.61
235.387	372.05
235.853	386.17
236.32	365.27
236.786	373.18
237.252	364.14
237.718	357.07
238.184	386.45
238.65	389.84
239.116	373.18
239.582	373.74
240.047	386.17
240.513	385.32
240.979	351.71
241.445	372.33
241.91	399.73
242.376	389.56
242.841	385.04
243.307	399.45
243.772	417.52
244.238	379.39
244.703	380.24
245.168	381.65
245.633	390.69
246.099	383.06
246.564	415.26
247.029	380.8
247.494	418.65
247.959	391.26
248.424	396.9
248.889	373.74
249.353	396.34
249.818	410.46
250.283	390.13
250.748	400.29
251.212	358.77
251.677	381.65
252.141	406.51
252.606	415.82
253.07	392.39
253.535	350.57
253.999	393.51
254.463	380.8
254.927	384.76
255.392	382.22
255.856	383.63
256.32	391.54
256.784	382.22
257.248	379.96
257.712	390.41
258.176	378.83
258.64	410.46
259.103	383.35
259.567	399.45
260.031	400.58
260.495	395.49
260.958	389.28
261.422	365.83
261.885	389.84
262.349	390.41
262.812	375.16
263.275	400.58
263.739	379.68
264.202	385.04
264.665	387.3
265.128	408.2
265.591	376.29
266.054	381.37
266.517	386.45
266.98	394.36
267.443	373.74
267.906	395.49
268.369	381.37
268.832	402.83
269.294	405.94
269.757	382.22
270.22	396.34
270.682	403.68
271.145	389.28
271.607	382.22
272.07	392.67
272.532	387.02
272.994	407.63
273.456	375.16
273.919	394.93
274.381	380.52
274.843	384.48
275.305	398.6
275.767	394.08
276.229	400.29
276.691	389.56
277.153	374.59
277.614	408.2
278.076	402.83
278.538	398.88
279	385.61
279.461	400.29
279.923	399.73
280.384	392.95
280.846	398.88
281.307	416.67
281.769	405.09
282.23	390.13
282.691	371.2
283.152	415.26
283.613	419.78
284.075	401.14
284.536	358.2
284.997	401.42
285.458	407.63
285.918	424.29
286.379	390.97
286.84	414.69
287.301	377.13
287.762	402.27
288.222	412.72
288.683	398.88
289.143	419.78
289.604	415.54
290.064	429.66
290.525	388.71
290.985	422.88
291.445	415.82
291.906	428.53
292.366	399.73
292.826	394.08
293.286	396.62
293.746	425.14
294.206	392.1
294.666	403.4
295.126	387.3
295.586	404.25
296.046	410.18
296.506	403.12
296.965	428.53
297.425	422.32
297.884	426.55
298.344	401.42
298.804	392.39
299.263	406.22
299.722	410.18
300.182	416.67
300.641	386.45
301.1	371.2
301.559	391.82
302.019	386.17
302.478	401.14
302.937	403.68
303.396	418.93
303.855	387.58
304.314	400.86
304.772	420.9
305.231	405.09
305.69	416.67
306.149	426.55
306.607	398.32
307.066	418.08
307.524	402.55
307.983	401.99
308.441	410.18
308.9	387.02
309.358	409.05
309.816	424.57
310.275	401.14
310.733	407.92
311.191	400.58
311.649	377.42
312.107	428.53
312.565	413.56
313.023	398.32
313.481	413.56
313.939	385.32
314.397	422.6
314.854	404.25
315.312	405.09
315.77	399.45
316.227	423.16
316.685	405.09
317.142	398.03
317.6	398.6
318.057	409.33
318.514	416.39
318.972	404.25
319.429	426.27
319.886	405.94
320.343	425.42
320.8	405.09
321.257	407.63
321.714	395.49
322.171	388.43
322.628	402.83
323.085	387.58
323.542	421.75
323.998	421.47
324.455	424.86
324.912	405.94
325.368	404.53
325.825	406.79
326.281	399.73
326.738	390.97
327.194	424.01
327.65	417.8
328.107	423.45
328.563	408.2
329.019	392.1
329.475	416.95
329.931	407.07
330.387	418.93
330.843	408.2
331.299	392.67
331.755	411.87
332.211	444.33
332.666	394.64
333.122	437.28
333.578	414.69
334.033	418.08
334.489	402.27
334.944	405.66
335.4	409.61
335.855	427.68
336.31	388.71
336.766	414.69
337.221	424.57
337.676	405.66
338.131	407.07
338.586	427.68
339.041	403.12
339.496	442.64
339.951	377.98
340.406	422.32
340.861	401.99
341.316	394.08
341.771	434.17
342.225	404.53
342.68	407.63
343.134	394.93
343.589	442.08
344.043	440.38
344.498	441.79
344.952	409.61
345.406	430.5
345.861	431.07
346.315	419.21
346.769	400.01
347.223	405.38
347.677	415.26
348.131	403.12
348.585	409.89
349.039	447.72
349.493	407.35
349.947	396.06
350.401	427.68
350.854	416.95
351.308	438.12
351.762	410.18
352.215	430.78
352.669	429.37
353.122	417.23
353.575	396.9
354.029	451.39
354.482	427.68
354.935	421.75
355.388	433.61
355.842	419.21
356.295	394.93
356.748	410.74
357.201	451.11
357.654	410.18
358.106	410.46
358.559	413
359.012	432.48
359.465	436.43
359.917	422.32
360.37	431.91
360.823	446.31
361.275	418.93
361.728	427.68
362.18	413.28
362.632	415.54
363.085	424.01
363.537	416.95
363.989	419.78
364.441	440.38
364.893	437.28
365.345	420.62
365.797	432.76
366.249	428.53
366.701	449.98
367.153	433.04
367.605	454.77
368.057	409.89
368.508	409.33
368.96	425.14
369.411	419.21
369.863	442.64
370.314	421.47
370.766	420.62
371.217	425.99
371.669	426.27
372.12	436.99
372.571	422.03
373.022	421.75
373.473	445.46
373.924	451.11
374.375	420.34
374.826	424.29
375.277	439.25
375.728	433.04
376.179	435.3
376.63	420.9
377.08	436.43
377.531	420.62
377.981	422.6
378.432	414.69
378.883	421.75
379.333	443.2
379.783	412.43
380.234	427.96
380.684	439.25
381.134	437.56
381.584	420.62
382.034	439.54
382.485	440.1
382.935	444.62
383.385	437.84
383.834	436.99
384.284	433.61
384.734	408.2
385.184	439.54
385.634	429.09
386.083	448.28
386.533	425.14
386.982	441.23
387.432	450.26
387.881	438.97
388.331	398.6
388.78	430.5
389.229	425.7
389.679	418.65
390.128	455.34
390.577	423.16
391.026	449.41
391.475	450.82
391.924	469.17
392.373	436.43
392.822	455.62
393.27	462.11
393.719	423.45
394.168	472.55
394.617	438.69
395.065	453.93
395.514	441.23
395.962	447.44
396.411	461.26
396.859	445.46
397.307	465.22
397.756	434.74
398.204	451.11
398.652	448.57
399.1	452.24
399.548	452.24
399.996	425.99
400.444	429.66
400.892	442.08
401.34	443.49
401.788	484.96
402.236	460.42
402.683	475.37
403.131	455.06
403.579	456.47
404.026	473.96
404.474	463.52
404.921	463.24
405.369	469.73
405.816	491.73
406.263	486.94
406.71	482.14
407.158	478.19
407.605	485.24
408.052	506.68
408.499	521.06
408.946	511.76
409.393	507.24
409.84	526.98
410.286	532.05
410.733	509.5
411.18	573.2
411.626	576.02
412.073	623.61
412.52	684.97
412.966	817.36
413.413	927.92
413.859	1096.83
414.305	1292.16
414.752	1630.24
415.198	1932.82
415.644	2334.58
416.09	2889.64
416.536	3476.42
416.982	4159.69
417.428	4904.91
417.874	5753.74
418.32	6614.39
418.766	7608.2
419.211	8745.58
419.657	9719.21
420.103	10981.94
420.548	11900.9
420.994	13306.24
421.439	14489.26
421.885	15673.44
422.33	17085.68
422.776	18248.66
423.221	19348.91
423.666	20817.52
424.111	22152.7
424.556	23083.19
425.001	24663.14
425.446	26132.62
425.891	27596.81
426.336	28510.28
426.781	29903.14
427.226	32043.15
427.671	32703.61
428.115	33683.08
428.56	35417.58
429.005	37179.73
429.449	37589.75
429.894	39161.33
430.338	40229.05
430.782	40537.21
431.227	42118.41
431.671	42575.71
432.115	44272.01
432.559	45396.4
433.003	45123.39
433.447	46242.73
433.891	46420.46
434.335	47211.48
434.779	47966.35
435.223	48149.34
435.667	48121.56
436.111	48778.07
436.554	48868.95
436.998	48199.25
437.442	48522.45
437.885	50528.45
438.328	48828.55
438.772	49319.2
439.215	49914.47
439.659	49387.43
440.102	49828.01
440.545	49239.07
440.988	48875.17
441.431	49854.73
441.874	49398.37
442.317	49829.32
442.76	49188.89
443.203	48589.07
443.646	49290.05
444.089	48857.3
444.531	49422.6
444.974	48287.82
445.417	49324.15
445.859	48366.4
446.302	49631.6
446.744	48837.36
447.186	49941.74
447.629	48977.29
448.071	48944.1
448.513	49233.86
448.956	50760.05
449.398	49720.99
449.84	48549.05
450.282	49094.84
450.724	49828.8
451.166	49418.17
451.607	49408.27
452.049	49436.41
452.491	50535.32
452.933	49860.23
453.374	50649.58
453.816	51185.83
454.257	50856.09
454.699	51942.82
455.14	51549.19
455.582	51350.93
456.023	51381.43
456.464	51456.14
456.905	51963.89
457.347	52107.31
457.788	51024.35
458.229	51131.16
458.67	52421.69
459.111	50424.41
459.552	50472.19
459.992	50293.64
460.433	50070.6
460.874	49002.97
461.315	50310.77
461.755	49305.15
462.196	48875.17
462.636	48061.41
463.077	47713.42
463.517	47790.83
463.957	47985.61
464.398	47744.69
464.838	47747.77
465.278	46601.47
465.718	46945.6
466.158	45677.68
466.598	46167.49
467.038	45629.97
467.478	46086.21
467.918	46322.31
468.358	45529.29
468.798	45249.27
469.237	45232.65
469.677	44994.34
470.117	45851.73
470.556	43299.52
470.996	43938.09
471.435	44021.4
471.874	44787.75
472.314	44526.19
472.753	43579
473.192	43763.34
473.631	43429.48
474.07	43566.01
474.509	43586.99
474.948	43821.83
475.387	43170.88
475.826	42242.78
476.265	44000.13
476.704	43616.95
477.143	43968.36
477.581	43665.16
478.02	44163.31
478.458	42802.05
478.897	43410.02
479.335	44837.74
479.774	43997.38
480.212	44351.94
480.65	44181.59
481.089	44015.39
481.527	43420
481.965	42988.51
482.403	44999.12
482.841	44702.37
483.279	44751.83
483.717	44846.79
484.155	44450.71
484.592	44752.08
485.03	44948.83
485.468	43963.61
485.905	44038.66
486.343	44650.9
486.781	43965.61
487.218	43385.32
487.655	43429.48
488.093	42358.51
488.53	43826.33
488.967	43029.11
489.405	42833.91
489.842	41991.12
490.279	41888.2
490.716	41523.93
491.153	41983.19
491.59	41480.84
492.027	40545.36
492.463	40233.98
492.9	39358.59
493.337	39257.73
493.773	39450.85
494.21	38666.15
494.647	38212.77
495.083	37515.76
495.519	37214.74
495.956	37235.31
496.392	36384.28
496.828	36204.58
497.265	35396.34
497.701	35566.56
498.137	35319.41
498.573	34380.21
499.009	34897.55
499.445	34026.73
499.881	33496.52
500.316	33659.42
500.752	32852.57
501.188	32656.55
501.624	32592.68
502.059	31276.8
502.495	30936.11
502.93	30964.4
503.366	31161.7
503.801	30468.02
504.236	30298.46
504.672	29826.5
505.107	29560.66
505.542	28839.45
505.977	28813.31
506.412	28308.85
506.847	28680.87
507.282	28055.77
507.717	27698.37
508.152	27572.58
508.587	27434.29
509.021	26696.32
509.456	26351.65
509.891	26439.92
510.325	26504.15
510.76	25806.01
511.194	25755.45
511.628	25698.49
512.063	25083.63
512.497	25207.49
512.931	24600.65
513.366	24445.38
513.8	24375.23
514.234	23619.71
514.668	23707.72
515.102	24001.93
515.536	23001.48
515.969	23218.42
516.403	22656.72
516.837	22304.29
517.271	22308.98
517.704	22003.28
518.138	21953.79
518.571	21607.73
519.005	21260.39
519.438	21170.42
519.871	20998.59
520.305	20549.98
520.738	20400.5
521.171	19925.39
521.604	20027.07
522.037	19798.32
522.47	19414.14
522.903	19134.73
523.336	18982
523.769	18942.87
524.202	18307.32
524.634	18453.83
525.067	18142.78
525.5	18008.9
525.932	17781.24
526.365	17346.79
526.797	17228.15
527.23	17272.96
527.662	16660.69
528.094	16559.13
528.527	16515.49
528.959	16168.93
529.391	15938.61
529.823	15406.05
530.255	15469.71
530.687	15100.41
531.119	14921.28
531.551	14809.36
531.982	14449.63
532.414	14311.03
532.846	14024.27
533.277	13902.15
533.709	13469.9
534.14	13421.77
534.572	13209.16
535.003	13184.31
535.435	12809.3
535.866	12633.28
536.297	12354.14
536.728	12315.98
537.159	12219.53
537.59	11972.26
538.022	11801.23
538.452	11719.87
538.883	11424.8
539.314	11344.58
539.745	11099.65
540.176	10954.81
540.606	10617.88
541.037	10700.69
541.468	10518.87
541.898	10397.73
542.328	10256.73
542.759	10089.91
543.189	9955.88
543.619	9822.26
544.05	9606.81
544.48	9414.33
544.91	9425.69
545.34	9213.87
545.77	9143.03
546.2	9041.11
546.63	8910.12
547.06	8780.84
547.489	8649.89
547.919	8441.17
548.349	8458.05
548.778	8398.04
549.208	8236.05
549.637	8089.77
550.067	7956.11
550.496	8044.97
550.926	7795.97
551.355	7610.29
551.784	7654.19
552.213	7437.69
552.642	7334.81
553.071	7326.43
553.5	7239.71
553.929	7042.21
554.358	7010.97
554.787	6877.52
555.216	6845.97
555.645	6779.7
556.073	6657.06
556.502	6577.77
556.93	6401.88
557.359	6382.35
557.787	6388.68
558.216	6262.46
558.644	6232.6
559.072	6109.64
559.5	6067.82
559.929	5931.7
560.357	6018.85
560.785	5921.89
561.213	5865.96
561.641	5769.66
562.068	5747.9
562.496	5700.64
562.924	5648.84
563.352	5621.74
563.779	5619.34
564.207	5618.02
564.634	5533.73
565.062	5522.3
565.489	5472.27
565.917	5376.15
566.344	5327.93
566.771	5307.14
567.198	5240.74
567.625	5142.27
568.053	5052.79
568.48	5053.06
568.907	5014.57
569.333	4955.48
569.76	4784.68
570.187	4795.93
570.614	4728.13
571.04	4837.98
571.467	4553.17
571.894	4516.9
572.32	4374.4
572.747	4288.25
573.173	4278.28
573.599	4232.48
574.026	4129.75
574.452	4106.54
574.878	4015.56
575.304	3966.38
575.73	3877.15
576.156	3798.67
576.582	3803.54
577.008	3708.18
577.434	3640.67
577.86	3565.23
578.285	3559.53
578.711	3491.63
579.137	3418.52
579.562	3300.97
579.988	3351.6
580.413	3302.06
580.838	3217.61
581.264	3205.61
581.689	3121.07
582.114	3089.41
582.539	3017.87
582.964	3035.35
583.39	2965.67
583.814	2897.58
584.239	2853.52
584.664	2846.13
585.089	2753.01
585.514	2725.87
585.939	2725.87
586.363	2676.51
586.788	2595.56
587.212	2612.58
587.637	2567.27
588.061	2602.15
588.485	2487.58
588.91	2466.41
589.334	2421.3
589.758	2403.41
590.182	2394.05
590.606	2292.7
591.03	2324.11
591.454	2240.88
591.878	2246.94
592.302	2228.74
592.726	2185.43
593.15	2196.19
593.573	2121.94
593.997	2094.87
594.42	2018.31
594.844	2042.64
595.267	2011.95
595.691	1993.7
596.114	1974.89
596.537	1937.25
596.96	1964.65
597.384	1913.72
597.807	1894.61
598.23	1912.89
598.653	1849.46
599.076	1835.05
599.499	1859.15
599.921	1827.56
600.344	1796.79
600.767	1787.36
601.189	1752.41
601.612	1734.65
602.034	1764.89
602.457	1727.99
602.879	1739.92
603.302	1705.78
603.724	1697.46
604.146	1701.06
604.568	1639.13
604.991	1677.74
605.413	1722.16
605.835	1656.35
606.257	1639.41
606.678	1655.52
607.1	1629.68
607.522	1629.96
607.944	1611.9
608.365	1611.06
608.787	1591.88
609.209	1543.77
609.63	1542.38
610.051	1548.78
610.473	1526.52
610.894	1513.44
611.315	1510.38
611.737	1440.49
612.158	1468.07
612.579	1425.73
613	1420.44
613.421	1381.42
613.842	1427.68
614.263	1347.68
614.683	1359.67
615.104	1322.3
615.525	1344.05
615.945	1297.74
616.366	1292.72
616.787	1269.83
617.207	1260.62
617.627	1210.9
618.048	1241.63
618.468	1201.96
618.888	1215.37
619.308	1190.78
619.728	1191.06
620.148	1193.86
620.568	1159.2
620.988	1151.09
621.408	1124.24
621.828	1121.73
622.248	1096.55
622.668	1064.36
623.087	1082.28
623.507	1062.13
623.926	1068
624.346	1067.44
624.765	1049.25
625.185	1047.29
625.604	997.43
626.023	1009.76
626.442	1032.45
626.861	972.5
627.28	975.3
627.699	978.94
628.118	957.64
628.537	968.29
628.956	984.83
629.375	955.68
629.794	910.81
630.212	934.37
630.631	899.59
631.049	902.68
631.468	893.42
631.886	870.69
632.305	912.5
632.723	916.42
633.141	854.7
633.559	865.92
633.978	866.2
634.396	847.12
634.814	837.01
635.232	830.55
635.65	835.61
636.067	828.87
636.485	810.33
636.903	803.59
637.321	802.47
637.738	791.8
638.156	799.1
638.573	816.51
638.991	773.81
639.408	775.22
639.825	779.71
640.243	742.34
640.66	770.16
641.077	772.69
641.494	738.96
641.911	735.87
642.328	722.66
642.745	725.75
643.162	732.78
643.579	699.03
643.995	745.15
644.412	704.66
644.829	711.97
645.245	705.22
645.662	684.12
646.078	701
646.495	677.37
646.911	685.25
647.327	645.85
647.743	677.94
648.159	676.81
648.576	639.38
648.992	632.62
649.408	662.74
649.824	663.87
650.239	670.9
650.655	656.55
651.071	657.11
651.487	654.86
651.902	656.83
652.318	648.95
652.733	633.47
653.149	643.32
653.564	634.03
653.979	631.78
654.395	634.59
654.81	592.07
655.225	603.9
655.64	590.38
656.055	613.2
656.47	617.14
656.885	622.77
657.3	623.33
657.715	586.44
658.13	637.69
658.544	577.14
658.959	602.78
659.374	575.45
659.788	590.67
660.202	572.64
660.617	566.72
661.031	565.03
661.445	592.64
661.86	576.58
662.274	586.16
662.688	576.3
663.102	573.76
663.516	590.38
663.93	570.1
664.344	545.3
664.758	562.77
665.171	569.54
665.585	582.5
665.999	545.3
666.412	576.02
666.826	546.99
667.239	557.7
667.653	594.05
668.066	521.91
668.479	527.26
668.892	564.75
669.306	550.38
669.719	526.7
670.132	558.83
670.545	527.26
670.958	557.14
671.37	529.52
671.783	531.49
672.196	514.01
672.609	544.74
673.021	495.4
673.434	504.71
673.846	501.6
674.259	523.6
674.671	526.98
675.084	534.31
675.496	513.16
675.908	524.72
676.32	519.65
676.732	502.17
677.144	538.54
677.556	518.52
677.968	529.24
678.38	535.16
678.792	490.32
679.204	504.71
679.615	505.55
680.027	502.17
680.439	488.07
680.85	485.53
681.262	493.42
681.673	475.09
682.084	488.63
682.496	491.73
682.907	519.37
683.318	489.19
683.729	483.83
684.14	497.66
684.551	480.45
684.962	508.94
685.373	502.73
685.784	479.89
686.194	493.42
686.605	473.96
687.016	473.4
687.426	459.85
687.837	484.12
688.247	487.78
688.657	501.89
689.068	472.27
689.478	490.04
689.888	485.53
690.298	485.53
690.708	480.73
691.118	474.24
691.528	467.19
691.938	473.68
692.348	440.1
692.758	466.06
693.168	464.65
693.577	453.93
693.987	433.61
694.396	480.73
694.806	495.4
695.215	460.14
695.625	446.87
696.034	479.32
696.443	468.6
696.852	442.92
697.262	465.22
697.671	439.25
698.08	459.29
698.489	482.99
698.897	474.53
699.306	469.17
699.715	436.99
700.124	457.03
700.532	452.24
700.941	457.88
701.35	452.24
701.758	445.18
702.166	431.63
702.575	464.09
702.983	467.47
703.391	448.28
703.799	444.33
704.208	409.61
704.616	439.54
705.024	463.52
705.432	454.21
705.839	433.89
706.247	462.11
706.655	414.69
707.063	429.37
707.47	447.16
707.878	463.52
708.285	424.57
708.693	420.62
709.1	448.57
709.508	434.45
709.915	403.96
710.322	443.77
710.729	452.24
711.136	431.35
711.543	431.07
711.95	423.45
712.357	419.49
712.764	441.23
713.171	404.25
713.578	413.85
713.984	439.54
714.391	443.49
714.797	426.55
715.204	434.17
715.61	428.81
716.017	405.66
716.423	441.51
716.829	419.49
717.236	418.93
717.642	441.23
718.048	400.86
718.454	421.75
718.86	424.01
719.266	402.55
719.671	431.91
720.077	421.75
720.483	417.8
720.889	419.21
721.294	448
721.7	432.2
722.105	414.13
722.511	422.6
722.916	407.92
723.321	446.03
723.726	443.77
724.132	413.28
724.537	429.94
724.942	427.68
725.347	442.36
725.752	403.12
726.156	407.07
726.561	420.06
726.966	402.27
727.371	395.49
727.775	422.32
728.18	403.4
728.584	413
728.989	401.14
729.393	412.43
729.798	424.57
730.202	414.98
730.606	393.51
731.01	392.1
731.414	435.58
731.818	416.39
732.222	418.36
732.626	407.63
733.03	409.89
733.434	423.45
733.837	417.23
734.241	416.11
734.645	403.12
735.048	421.75
735.452	436.43
735.855	403.12
736.258	400.86
736.662	431.07
737.065	401.14
737.468	410.74
737.871	404.25
738.274	432.76
738.677	409.89
739.08	421.19
739.483	425.7
739.886	413.85
740.289	383.91
740.691	391.26
741.094	405.38
741.497	408.76
741.899	411.02
742.302	409.61
742.704	421.47
743.106	415.82
743.508	414.69
743.911	402.27
744.313	414.69
744.715	410.74
745.117	392.1
745.519	407.63
745.921	430.78
746.323	419.49
746.724	416.11
747.126	419.78
747.528	396.9
747.929	407.92
748.331	397.47
748.732	393.23
749.134	418.08
749.535	384.76
749.936	408.48
750.338	406.79
750.739	403.96
751.14	408.2
751.541	419.49
751.942	426.83
752.343	390.97
752.744	423.73
753.144	399.45
753.545	410.18
753.946	401.14
754.346	420.62
754.747	419.49
755.148	419.49
755.548	420.9
755.948	381.09
756.349	401.14
756.749	385.61
757.149	424.57
757.549	401.42
757.949	397.19
758.349	386.74
758.749	392.1
759.149	423.16
759.549	407.92
759.949	399.73
760.348	400.29
760.748	402.55
761.148	383.35
761.547	436.99
761.947	404.81
762.346	411.87
762.745	415.82
763.145	414.41
763.544	408.76
763.943	416.11
764.342	414.41
764.741	403.96
765.14	414.41
765.539	372.05
765.938	406.22
766.336	435.87
766.735	414.41
767.134	414.13
767.532	404.25
767.931	424.29
768.329	426.83
768.728	416.67
769.126	403.12
769.525	406.51
769.923	401.7
770.321	390.97
770.719	401.14
771.117	396.9
771.515	410.46
771.913	423.73
772.311	412.72
772.709	426.27
773.106	393.23
773.504	391.26
773.902	405.09
774.299	427.68
774.697	402.83
775.094	394.93
775.491	401.14
775.889	409.05
776.286	384.19
776.683	410.46
777.08	395.21
777.477	409.05
777.874	389
778.271	397.19
778.668	399.16
779.065	412.15
779.462	399.16
779.858	388.43
780.255	403.12
780.652	385.89
781.048	414.69
781.444	418.65
781.841	394.93
782.237	381.93
782.633	404.81
783.03	374.59
783.426	399.16
783.822	389.84
784.218	388.15
784.614	398.88
785.01	401.14
785.405	394.08
785.801	383.35
786.197	384.76
786.593	393.23
786.988	411.02
787.384	391.26
787.779	396.62
788.174	394.64
788.57	403.96
788.965	387.58
789.36	411.02
789.755	420.06
790.15	379.39
790.545	391.54
790.94	395.49
791.335	411.02
791.73	402.27
792.125	393.51
792.52	412.15
792.914	393.23
793.309	394.08
793.703	376.29
794.098	378.26
794.492	419.49
794.887	393.23
795.281	407.07
795.675	427.12
796.069	396.34
796.463	379.68
796.857	411.31
797.251	421.19
797.645	396.06
798.039	398.88
798.433	414.98
798.826	382.22
799.22	392.39
799.614	411.02
800.007	406.22
800.401	381.37
800.794	411.59
801.187	400.01
801.581	389.28
801.974	410.74
802.367	390.13
802.76	403.12
803.153	385.32
803.546	392.67
803.939	389.84
804.332	423.45
804.725	416.67
805.117	390.13
805.51	396.62
805.903	379.68
806.295	394.36
806.688	384.19
807.08	402.27
807.472	386.17
807.865	386.17
808.257	382.5
808.649	396.34
809.041	387.87
809.433	376.29
809.825	402.27
810.217	427.12
810.609	416.11
811.001	430.78
811.392	395.21
811.784	396.06
812.175	409.33
812.567	396.9
812.958	379.96
813.35	424.57
813.741	405.38
814.132	420.62
814.524	382.22
814.915	399.73
815.306	396.06
815.697	383.06
816.088	405.38
816.479	411.59
816.87	399.45
817.26	406.79
817.651	368.94
818.042	372.9
818.432	396.9
818.823	383.35
819.213	391.26
819.604	380.52
819.994	404.81
820.384	409.33
820.775	389.84
821.165	365.55
821.555	391.82
821.945	402.27
822.335	388.71
822.725	388.15
823.114	414.13
823.504	383.63
823.894	387.87
824.284	378.83
824.673	405.09
825.063	395.21
825.452	390.41
825.842	392.39
826.231	396.9
826.62	410.74
827.009	411.59
827.399	412.15
827.788	394.08
828.177	371.2
828.566	383.63
828.954	393.8
829.343	399.16
829.732	402.55
830.121	394.36
830.509	368.38
830.898	421.47
831.286	403.68
831.675	415.82
832.063	407.92
832.452	387.3
832.84	393.51
833.228	398.32
833.616	416.39
834.004	383.35
834.392	395.77
834.78	401.7
835.168	400.01
835.556	373.46
835.944	374.03
836.331	408.76
836.719	397.47
837.107	415.54
837.494	398.03
837.881	389
838.269	384.48
838.656	396.62
839.043	411.02
839.431	376
839.818	383.91
840.205	363.29
840.592	398.88
840.979	404.53
841.366	387.87
841.752	410.74
842.139	416.11
842.526	401.14
842.912	395.21
843.299	370.64
843.685	401.99
844.072	400.86
844.458	403.96
844.844	386.74
845.231	376.57
845.617	391.82
846.003	390.97
846.389	384.19
846.775	394.36
847.161	388.43
847.547	395.49
847.933	407.92
848.318	409.89
848.704	363.57
849.09	383.91
849.475	378.26
849.861	382.78
850.246	376.85
850.631	383.91
851.017	371.48
851.402	401.42
851.787	407.07
852.172	404.25
852.557	394.36
852.942	394.93
853.327	393.8
853.712	399.45
854.097	418.36
854.481	391.82
854.866	408.2
855.25	381.65
855.635	387.87
856.019	372.33
856.404	415.82
856.788	380.24
857.172	396.34
857.557	404.25
857.941	390.41
858.325	382.5
858.709	381.09
859.093	363.29
859.477	361.59
859.86	365.27
860.244	406.22
860.628	384.19
861.012	396.9
861.395	393.51
861.779	413.85
862.162	392.1
862.545	381.65
862.929	402.55
863.312	394.08
863.695	395.49
864.078	405.09
864.461	412.72
864.844	402.55
865.227	405.94
865.61	386.17
865.993	384.48
866.376	389.84
866.758	363.57
867.141	405.66
867.523	387.58
867.906	401.7
868.288	387.02
868.671	393.23
869.053	398.32
869.435	390.97
869.817	417.8
870.199	395.21
870.581	359.05
870.963	419.78
871.345	393.23
871.727	399.16
872.109	378.26
872.491	393.51
872.872	379.11
873.254	382.78
873.635	369.22
874.017	376.85
874.398	389.84
874.779	418.36
875.161	375.16
875.542	387.87
875.923	373.46
876.304	346.62
876.685	390.97
877.066	409.05
877.447	362.16
877.828	383.63
878.208	387.87
878.589	374.31
878.97	383.35
879.35	386.17
879.731	391.82
880.111	390.97
880.491	383.35
880.872	366.4
881.252	384.48
881.632	396.62
882.012	403.96
882.392	391.54
882.772	409.89
883.152	401.14
883.532	408.48
883.912	418.93
884.291	404.81
884.671	362.44
885.051	406.51
885.43	375.72
885.81	384.48
886.189	413.56
886.568	368.66
886.948	378.83
887.327	376.57
887.706	385.32
888.085	390.41
888.464	375.44
888.843	397.19
889.222	387.58
889.601	381.65
889.979	377.7
890.358	396.34
890.737	378.26
891.115	411.02
891.494	369.51
891.872	383.63
892.25	391.54
892.629	353.4
893.007	369.79
893.385	388.15
893.763	364.7
894.141	344.64
894.519	369.22
894.897	405.38
895.275	377.42
895.653	379.96
896.03	359.62
896.408	404.25
896.786	381.93
897.163	392.1
897.541	410.18
897.918	404.53
898.295	383.91
898.673	390.13
899.05	371.2
899.427	409.05
899.804	366.96
900.181	401.42
900.558	390.13
900.935	379.39
901.312	414.41
901.688	390.41
902.065	393.8
902.442	355.1
902.818	352.84
903.195	387.58
903.571	411.31
903.947	390.97
904.324	394.93
904.7	379.96
905.076	411.02
905.452	387.87
905.828	385.04
906.204	388.15
906.58	382.78
906.956	382.22
907.331	380.8
907.707	395.21
908.083	366.12
908.458	389
908.834	358.49
909.209	381.37
909.585	380.24
909.96	370.35
910.335	371.48
910.71	377.42
911.086	399.73
911.461	399.45
911.836	392.95
912.21	400.86
912.585	379.11
912.96	372.61
913.335	390.13
913.709	375.44
914.084	384.19
914.459	392.95
914.833	371.77
915.207	389.28
915.582	372.33
915.956	382.5
916.33	392.95
916.704	388.43
917.078	362.16
917.452	389.28
917.826	398.6
918.2	355.94
918.574	386.17
918.948	390.97
919.321	374.59
919.695	370.35
920.068	412.15
920.442	390.41
920.815	371.2
921.189	365.55
921.562	393.8
921.935	365.27
922.308	381.65
922.681	374.59
923.054	378.26
923.427	375.16
923.8	401.99
924.173	357.64
924.546	368.66
924.919	405.38
925.291	377.42
925.664	391.82
926.036	382.5
926.409	401.14
926.781	370.92
927.153	368.09
927.526	393.23
927.898	390.97
928.27	387.87
928.642	402.27
929.014	395.21
929.386	379.39
929.758	390.41
930.129	391.82
930.501	410.46
930.873	384.19
931.244	375.72
931.616	364.7
931.987	405.38
932.359	400.29
932.73	389
933.101	400.58
933.472	374.03
933.843	402.27
934.214	367.53
934.585	374.03
934.956	383.06
935.327	417.8
935.698	393.23
936.069	372.05
936.439	371.77
936.81	384.19
937.18	391.26
937.551	377.42
937.921	385.89
938.292	380.24
938.662	377.42
939.032	369.51
939.402	392.39
939.772	375.16
940.142	391.82
940.512	381.65
940.882	375.16
941.252	386.74
941.621	376
941.991	363.57
942.361	391.82
942.73	381.37
943.1	357.07
943.469	374.59
943.838	367.25
944.208	378.26
944.577	376.57
944.946	377.98
945.315	387.02
945.684	372.9
946.053	397.19
946.422	394.08
946.791	390.97
947.159	334.47
947.528	372.05
947.897	402.27
948.265	385.04
948.634	403.96
949.002	375.16
949.371	380.24
949.739	413
950.107	366.4
950.475	370.64
950.843	389.56
951.211	372.61
951.579	378.26
951.947	372.33
952.315	380.52
952.683	364.7
953.05	374.59
953.418	384.48
953.785	377.7
954.153	383.63
954.52	389
954.888	381.37
955.255	385.32
955.622	393.23
955.989	387.58
956.356	385.61
956.723	356.23
957.09	362.72
957.457	376
957.824	377.98
958.191	365.27
958.557	392.67
958.924	385.61
959.291	388.71
959.657	386.74
960.023	363.01
960.39	364.42
960.756	357.64
961.122	380.24
961.488	354.25
961.855	400.01
962.221	389.28
962.586	366.68
962.952	395.21
963.318	364.99
963.684	396.9
964.05	364.42
964.415	369.79
964.781	396.9
965.146	372.33
965.512	377.98
965.877	359.62
966.242	405.94
966.608	401.42
966.973	360.18
967.338	390.13
967.703	372.61
968.068	396.06
968.433	357.64
968.797	365.27
969.162	377.13
969.527	392.67
969.891	375.16
970.256	400.58
970.62	368.94
970.985	351.14
971.349	375.16
971.714	365.83
972.078	399.73
972.442	379.39
972.806	375.72
973.17	374.59
973.534	366.96
973.898	380.24
974.262	386.74
974.625	394.08
974.989	377.98
975.353	387.58
975.716	355.38
976.08	382.22
976.443	360.75
976.806	366.68
977.17	399.73
977.533	406.79
977.896	381.09
978.259	393.51
978.622	392.67
978.985	370.35
979.348	381.37
979.711	387.87
980.073	354.81
980.436	368.66
980.799	401.42
981.161	381.65
981.524	384.76
981.886	388.15
982.248	396.34
982.611	376.85
982.973	367.81
983.335	356.23
983.697	387.3
984.059	368.09
984.421	370.35
984.783	383.63
985.145	400.58
985.506	355.66
985.868	387.3
986.23	357.64
986.591	389.28
986.953	352.55
987.314	381.09
987.675	403.68
988.037	508.09
988.398	342.66
988.759	378.55
989.12	388.43
989.481	366.96
989.842	377.7
990.203	375.72
990.564	361.59
990.924	388.71
991.285	503.3
991.646	376
992.006	390.13
992.367	367.81
992.727	378.26
993.087	384.48
993.448	395.49
993.808	383.91
994.168	372.33
994.528	386.74
994.888	365.83
995.248	377.7
995.608	379.39
995.967	372.05
996.327	367.81
996.687	359.05
997.046	366.12
997.406	366.68
997.765	377.13
998.125	353.4
998.484	383.35
998.843	374.31
999.202	373.46
999.561	395.21
999.92	352.27
1000.279	358.77
1000.638	355.38
1000.997	364.99
1001.356	376.29
1001.715	373.46
1002.073	361.31
1002.432	381.09
1002.79	375.72
1003.149	374.31
1003.507	382.5
1003.865	379.11
1004.224	379.39
1004.582	377.98
1004.94	376.57
1005.298	371.77
1005.656	402.27
1006.014	373.74
1006.371	385.61
1006.729	354.81
1007.087	369.22
1007.445	349.73
1007.802	368.94
1008.16	392.67
1008.517	390.69
1008.874	376.57
1009.232	385.89
1009.589	376.85
1009.946	386.74
1010.303	363.57
1010.66	371.77
1011.017	385.32
1011.374	391.82
1011.731	379.68
1012.087	393.8
1012.444	380.8
1012.801	364.7
1013.157	371.48
1013.513	390.97
1013.87	376.85
1014.226	373.74
1014.582	374.03
1014.939	373.46
1015.295	387.3
1015.651	360.46
1016.007	370.35
1016.363	373.18
1016.719	384.48
1017.074	378.55
1017.43	380.52
1017.786	397.75
1018.141	396.9
1018.497	353.68
1018.852	378.26
1019.208	363.29
1019.563	387.58
1019.918	350.86
1020.273	368.66
1020.628	352.84
1020.983	379.96
1021.338	373.46
1021.693	377.13
1022.048	364.99
1022.403	363.85
1022.757	364.99
1023.112	394.36
1023.467	362.16
1023.821	369.79
1024.175	368.38
1024.53	363.57
1024.884	392.95
1025.238	380.8
1025.592	373.18
1025.946	376
1026.3	364.7
1026.654	364.7
1027.008	351.14
1027.362	361.03
1027.716	385.04
1028.069	379.39
1028.423	388.43
1028.777	381.09
1029.13	408.76
1029.483	390.97
1029.837	382.78
1030.19	351.99
1030.543	372.61
1030.896	350.29
1031.249	373.46
1031.602	392.95
1031.955	376.29
1032.308	382.78
1032.661	370.07
1033.013	391.54
1033.366	350.29
1033.719	384.19
1034.071	369.22
1034.424	393.8
1034.776	370.07
1035.128	361.31
1035.48	370.07
1035.833	396.06
1036.185	351.71
1036.537	351.71
1036.889	351.71
