Data from SCSF78-405_irradiation_FLMS019251_10-41-27-973.txt Node
Date: Fri Feb 22 10:41:27 PST 2019
User: mu3e
Spectrometer: FLMS01925
Trigger mode: 0
Integration Time (sec): 1.206000E-2
Scans to average: 10
Electric dark correction enabled: true
Nonlinearity correction enabled: true
Boxcar width: 0
XAxis mode: Wavelengths
Number of Pixels in Spectrum: 2048
>>>>>Begin Spectral Data<<<<<
187.103	-75.69
187.574	-75.69
188.045	-75.69
188.516	-135.11
188.987	-122.31
189.458	-147.34
189.929	-116.06
190.4	-113.78
190.871	-95.87
191.342	-93.59
191.813	-50.4
192.284	-28.52
192.754	-15.17
193.225	8.96
193.696	-10.63
194.166	76.49
194.637	81.32
195.107	81.6
195.578	129.51
196.048	138.58
196.518	153.88
196.989	213.93
197.459	217.89
197.929	235.72
198.399	303.05
198.869	282.69
199.339	303.62
199.809	313.79
200.279	331.89
200.749	341.78
201.219	370.32
201.689	377.66
202.159	380.49
202.628	378.23
203.098	398.28
203.568	381.05
204.037	401.95
204.507	382.18
204.976	390.09
205.445	408.16
205.915	395.74
206.384	415.22
206.853	390.09
207.323	393.76
207.792	420.3
208.261	417.76
208.73	395.74
209.199	378.23
209.668	412.4
210.137	407.88
210.606	380.2
211.075	371.45
211.543	379.64
212.012	372.3
212.481	370.32
212.95	368.91
213.418	389.53
213.887	358.17
214.355	381.9
214.824	362.97
215.292	381.9
215.76	370.6
216.229	349.13
216.697	372.01
217.165	389.81
217.633	362.41
218.101	355.91
218.569	364.95
219.037	377.1
219.505	366.36
219.973	372.01
220.441	357.32
220.909	349.41
221.377	340.93
221.844	357.6
222.312	359.86
222.78	374.56
223.247	358.73
223.715	360.71
224.182	353.37
224.65	366.64
225.117	339.52
225.584	350.26
226.052	340.08
226.519	349.41
226.986	351.1
227.453	345.74
227.92	331.89
228.387	359.58
228.854	366.08
229.321	387.55
229.788	365.8
230.255	368.06
230.722	379.07
231.189	376.25
231.655	363.25
232.122	378.23
232.589	360.71
233.055	370.32
233.522	366.08
233.988	394.04
234.454	351.67
234.921	364.38
235.387	369.19
235.853	352.8
236.32	358.17
236.786	385.01
237.252	403.65
237.718	389.24
238.184	402.8
238.65	386.42
239.116	385.85
239.582	373.71
240.047	388.68
240.513	388.4
240.979	372.86
241.445	353.37
241.91	405.34
242.376	360.71
242.841	418.33
243.307	387.27
243.772	376.53
244.238	372.3
244.703	383.03
245.168	375.69
245.633	374.56
246.099	384.16
246.564	377.38
247.029	375.12
247.494	376.81
247.959	376.81
248.424	363.54
248.889	372.01
249.353	360.99
249.818	352.8
250.283	368.34
250.748	374.84
251.212	364.1
251.677	377.66
252.141	395.46
252.606	366.93
253.07	393.2
253.535	388.68
253.999	363.82
254.463	384.44
254.927	382.75
255.392	386.14
255.856	370.04
256.32	377.38
256.784	370.6
257.248	399.97
257.712	396.59
258.176	401.1
258.64	401.95
259.103	401.95
259.567	387.55
260.031	384.16
260.495	372.01
260.958	398.56
261.422	393.76
261.885	387.27
262.349	400.26
262.812	370.6
263.275	368.06
263.739	373.43
264.202	375.4
264.665	376.53
265.128	395.74
265.591	409.29
266.054	385.57
266.517	394.61
266.98	365.23
267.443	378.51
267.906	411.27
268.369	380.2
268.832	387.27
269.294	398.56
269.757	364.95
270.22	386.7
270.682	368.34
271.145	399.13
271.607	410.71
272.07	420.3
272.532	376.25
272.994	398.28
273.456	386.42
273.919	370.88
274.381	403.08
274.843	412.4
275.305	406.47
275.767	387.55
276.229	384.16
276.691	402.8
277.153	401.1
277.614	413.25
278.076	381.05
278.538	379.36
279	383.31
279.461	395.17
279.923	412.4
280.384	385.85
280.846	409.29
281.307	395.74
281.769	400.82
282.23	366.08
282.691	388.4
283.152	395.46
283.613	433.85
284.075	412.68
284.536	385.57
284.997	393.76
285.458	395.46
285.918	386.14
286.379	414.66
286.84	369.19
287.301	390.37
287.762	383.88
288.222	401.95
288.683	398.56
289.143	414.09
289.604	394.33
290.064	382.18
290.525	393.48
290.985	400.54
291.445	394.04
291.906	390.66
292.366	404.78
292.826	381.9
293.286	435.83
293.746	403.93
294.206	376.81
294.666	412.68
295.126	428.21
295.586	403.08
296.046	414.09
296.506	389.24
296.965	405.34
297.425	405.91
297.884	415.51
298.344	410.14
298.804	418.89
299.263	394.04
299.722	384.44
300.182	444.58
300.641	386.14
301.1	389.81
301.559	396.02
302.019	389.24
302.478	404.21
302.937	413.25
303.396	417.48
303.855	405.34
304.314	400.54
304.772	388.11
305.231	394.33
305.69	381.05
306.149	405.34
306.607	378.51
307.066	399.97
307.524	394.61
307.983	390.66
308.441	388.4
308.9	383.03
309.358	408.45
309.816	409.29
310.275	400.26
310.733	432.16
311.191	433.01
311.649	407.32
312.107	393.48
312.565	419.46
313.023	417.2
313.481	403.36
313.939	393.76
314.397	397.43
314.854	389.81
315.312	405.91
315.77	400.26
316.227	418.33
316.685	416.92
317.142	373.71
317.6	411.83
318.057	437.52
318.514	408.16
318.972	420.02
319.429	409.86
319.886	407.88
320.343	409.29
320.8	407.32
321.257	402.23
321.714	409.29
322.171	415.51
322.628	405.62
323.085	415.51
323.542	418.33
323.998	395.74
324.455	422
324.912	409.01
325.368	385.57
325.825	398.28
326.281	398.56
326.738	417.76
327.194	409.58
327.65	411.55
328.107	432.44
328.563	411.27
329.019	415.51
329.475	407.32
329.931	399.69
330.387	425.39
330.843	405.91
331.299	436.68
331.755	412.96
332.211	435.83
332.666	428.77
333.122	392.07
333.578	423.69
334.033	414.38
334.489	409.29
334.944	400.82
335.4	424.26
335.855	409.01
336.31	436.96
336.766	401.67
337.221	402.8
337.676	411.83
338.131	396.59
338.586	394.89
339.041	416.92
339.496	420.02
339.951	398
340.406	412.12
340.861	412.12
341.316	437.52
341.771	425.95
342.225	398.28
342.68	412.4
343.134	396.02
343.589	412.68
344.043	436.96
344.498	383.88
344.952	435.83
345.406	409.86
345.861	433.57
346.315	387.55
346.769	409.58
347.223	405.06
347.677	420.02
348.131	413.53
348.585	415.79
349.039	419.18
349.493	401.95
349.947	422.28
350.401	405.91
350.854	428.21
351.308	435.55
351.762	398
352.215	400.26
352.669	410.42
353.122	412.4
353.575	414.38
354.029	410.99
354.482	420.02
354.935	420.3
355.388	412.4
355.842	405.06
356.295	402.52
356.748	413.81
357.201	438.65
357.654	410.99
358.106	422.56
358.559	434.98
359.012	428.49
359.465	399.13
359.917	414.38
360.37	440.35
360.823	425.67
361.275	403.65
361.728	407.32
362.18	427.36
362.632	442.6
363.085	426.8
363.537	427.08
363.989	415.79
364.441	428.49
364.893	406.47
365.345	417.76
365.797	403.65
366.249	430.19
366.701	391.79
367.153	420.59
367.605	432.16
368.057	426.8
368.508	410.42
368.96	428.21
369.411	400.82
369.863	414.38
370.314	434.98
370.766	423.13
371.217	417.48
371.669	425.67
372.12	422.56
372.571	419.74
373.022	400.82
373.473	434.7
373.924	451.07
374.375	453.05
374.826	396.87
375.277	406.47
375.728	428.77
376.179	406.19
376.63	403.93
377.08	450.22
377.531	432.44
377.981	419.74
378.432	423.69
378.883	427.64
379.333	447.4
379.783	419.18
380.234	414.66
380.684	423.97
381.134	427.36
381.584	417.76
382.034	420.3
382.485	449.66
382.935	454.18
383.385	435.83
383.834	430.19
384.284	429.62
384.734	440.63
385.184	420.87
385.634	416.92
386.083	412.68
386.533	438.65
386.982	441.19
387.432	449.94
387.881	443.45
388.331	450.79
388.78	437.52
389.229	439.5
389.679	453.05
390.128	439.5
390.577	423.41
391.026	443.73
391.475	432.44
391.924	433.57
392.373	434.7
392.822	447.68
393.27	449.38
393.719	430.19
394.168	455.02
394.617	439.22
395.065	476.46
395.514	457.28
395.962	443.17
396.411	421.15
396.859	447.4
397.307	449.66
397.756	461.23
398.204	422.56
398.652	465.46
399.1	452.48
399.548	453.61
399.996	475.9
400.444	475.9
400.892	434.7
401.34	435.83
401.788	442.89
402.236	464.33
402.683	472.8
403.131	465.46
403.579	471.67
404.026	456.43
404.474	472.23
404.921	507.77
405.369	455.87
405.816	464.33
406.263	475.62
406.71	482.11
407.158	465.18
407.605	468.85
408.052	451.35
408.499	506.08
408.946	477.03
409.393	478.44
409.84	517.08
410.286	527.23
410.733	533.99
411.18	556.26
411.626	575.7
412.073	642.16
412.52	712.5
412.966	776.87
413.413	935.74
413.859	1122.81
414.305	1316.12
414.752	1607.97
415.198	1988.41
415.644	2352.72
416.09	2912.59
416.536	3471.22
416.982	4136.73
417.428	4913.98
417.874	5740.96
418.32	6669.4
418.766	7635.6
419.211	8781.32
419.657	9779.98
420.103	11029
420.548	11928.14
420.994	13393.12
421.439	14623.46
421.885	15703.84
422.33	17258.91
422.776	18335.75
423.221	19472.36
423.666	20798.88
424.111	22237.25
424.556	23205.07
425.001	24888.89
425.446	26297.42
425.891	27668.73
426.336	28659.33
426.781	29907.25
427.226	32348.36
427.671	32955.43
428.115	33847.43
428.56	35670.84
429.005	37384.43
429.449	37941.95
429.894	39418.34
430.338	40584.58
430.782	40628.28
431.227	42404.44
431.671	42734.35
432.115	44481.27
432.559	45511.09
433.003	45425.36
433.447	46408.76
433.891	46800.74
434.335	47283.43
434.779	48180.95
435.223	48445.53
435.667	48376.42
436.111	49057.43
436.554	49061.58
436.998	48535.85
437.442	48568.12
437.885	50794.49
438.328	49141.56
438.772	49472.1
439.215	50064.26
439.659	49726.18
440.102	50055.33
440.545	49370.72
440.988	49238.77
441.431	50222.52
441.874	49715.2
442.317	49970.03
442.76	49342.08
443.203	48810.4
443.646	49573.59
444.089	48898.97
444.531	49756.27
444.974	48474.68
445.417	49715.98
445.859	48502.81
446.302	49840.55
446.744	48930.59
447.186	50308.36
447.629	49317.61
448.071	49309.54
448.513	49454.11
448.956	51056.53
449.398	50036.16
449.84	48796.16
450.282	49447.33
450.724	50256.48
451.166	49807.82
451.607	49627.38
452.049	49695.85
452.491	50831.9
452.933	50477.7
453.374	50991.06
453.816	51613.59
454.257	51130.06
454.699	52330.71
455.14	51796.82
455.582	51678.37
456.023	51792.78
456.464	51827.55
456.905	52412.66
457.347	52310.04
457.788	51368.82
458.229	51531.45
458.67	52702.56
459.111	50710.99
459.552	50683.17
459.992	50623.35
460.433	50381.64
460.874	49263.74
461.315	50695.09
461.755	49566.02
462.196	49064.95
462.636	48242.98
463.077	48000.99
463.517	48079.88
463.957	48438.05
464.398	48213.12
464.838	48184.04
465.278	46933.85
465.718	47170.12
466.158	46087.44
466.598	46505.45
467.038	45972.31
467.478	46447.84
467.918	46521.44
468.358	45736.48
468.798	45462.67
469.237	45342.69
469.677	45344.46
470.117	46132.51
470.556	43568.48
470.996	44205.35
471.435	44391.76
471.874	45055.68
472.314	44886.46
472.753	43941.82
473.192	44014.36
473.631	43621.17
474.07	43784.05
474.509	43864.55
474.948	44220.38
475.387	43345.13
475.826	42309.3
476.265	44249.43
476.704	43775.81
477.143	44112.46
477.581	43667.62
478.02	44421.84
478.458	43046.02
478.897	43726.08
479.335	44875.4
479.774	44344.64
480.212	44614.98
480.65	44530.18
481.089	44218.87
481.527	43745.07
481.965	43237.41
482.403	45334.13
482.841	45061.72
483.279	44983.75
483.717	44984.25
484.155	44526.16
484.592	45075.05
485.03	45307.17
485.468	44226.14
485.905	44528.42
486.343	44978.72
486.781	44283.5
487.218	43669.37
487.655	43588.7
488.093	42654.25
488.53	44186.07
488.967	43485.85
489.405	43068.69
489.842	42229.59
490.279	42176.21
490.716	41792.96
491.153	42218.16
491.59	41556.59
492.027	40832.3
492.463	40415.02
492.9	39658.82
493.337	39617.46
493.773	39743.03
494.21	38913.76
494.647	38564.46
495.083	37752.94
495.519	37488.04
495.956	37427.54
496.392	36822.83
496.828	36525.11
497.265	35812.78
497.701	35678.9
498.137	35406.32
498.573	34542.68
499.009	35196.56
499.445	34184.03
499.881	33678.66
500.316	34084.51
500.752	33067.59
501.188	32997.61
501.624	32673.1
502.059	31477.94
502.495	31358.46
502.93	31246.29
503.366	31399.91
503.801	30721.2
504.236	30477.75
504.672	29962.9
505.107	29625.57
505.542	28984.05
505.977	29169.69
506.412	28537.38
506.847	28944.23
507.282	28282.91
507.717	28003.4
508.152	27839.51
508.587	27649.39
509.021	26867.58
509.456	26605.36
509.891	26614.92
510.325	26557.81
510.76	26128.91
511.194	25822.43
511.628	25907.84
512.063	25124.64
512.497	25433
512.931	24808.72
513.366	24727.8
513.8	24619.07
514.234	23953.86
514.668	23923.56
515.102	24127.76
515.536	23142.14
515.969	23391.33
516.403	22924.92
516.837	22486.19
517.271	22458.26
517.704	22135.6
518.138	21996.82
518.571	21743.88
519.005	21480.39
519.438	21301
519.871	21190.46
520.305	20625.16
520.738	20521.4
521.171	19988.01
521.604	20201.25
522.037	19966.14
522.47	19706.51
522.903	19249.03
523.336	19164.1
523.769	18950.32
524.202	18433.59
524.634	18558.59
525.067	18182.71
525.5	18154.49
525.932	17934.41
526.365	17481.88
526.797	17351.52
527.23	17335.75
527.662	16832.12
528.094	16657.9
528.527	16539.29
528.959	16250.99
529.391	16030.52
529.823	15576.34
530.255	15596.97
530.687	15258.02
531.119	15044.71
531.551	14929.31
531.982	14604.79
532.414	14372.1
532.846	14096.02
533.277	13967.61
533.709	13598.25
534.14	13601.79
534.572	13339.4
535.003	13239.29
535.435	13004.96
535.866	12757.72
536.297	12456.85
536.728	12491.43
537.159	12322.81
537.59	12128.87
538.022	11964.84
538.452	11806.81
538.883	11455.42
539.314	11363.97
539.745	11166.89
540.176	10944.02
540.606	10767.3
541.037	10744.23
541.468	10535
541.898	10381.27
542.328	10369.71
542.759	10165.47
543.189	9976.69
543.619	9879.14
544.05	9715.31
544.48	9559.33
544.91	9487.6
545.34	9287.75
545.77	9210.48
546.2	9084.8
546.63	8931.84
547.06	8934.43
547.489	8746.85
547.919	8483.47
548.349	8568.89
548.778	8509.7
549.208	8309.88
549.637	8156.91
550.067	8034
550.496	8019.15
550.926	7876.03
551.355	7689.42
551.784	7715.79
552.213	7566.08
552.642	7417.25
553.071	7444.47
553.5	7254.1
553.929	7111.72
554.358	7112.51
554.787	6954.48
555.216	6980.74
555.645	6833.06
556.073	6737.57
556.502	6684.14
556.93	6535.04
557.359	6463.32
557.787	6449.87
558.216	6364.9
558.644	6232.83
559.072	6253.18
559.5	6116.22
559.929	6099.81
560.357	6081.02
560.785	5959.49
561.213	5900.12
561.641	5798.29
562.068	5782.9
562.496	5772.55
562.924	5687.06
563.352	5699.28
563.779	5649.6
564.207	5640.3
564.634	5552.85
565.062	5518.54
565.489	5443.23
565.917	5380.65
566.344	5422.73
566.771	5337.22
567.198	5292.98
567.625	5208.7
568.053	5098.71
568.48	5106.73
568.907	5039.93
569.333	4996.63
569.76	4830.18
570.187	4878.11
570.614	4697.52
571.04	4886.41
571.467	4638.51
571.894	4575.96
572.32	4486.77
572.747	4450.21
573.173	4312.45
573.599	4254
574.026	4156.15
574.452	4107.05
574.878	4078.44
575.304	3923.91
575.73	3907.41
576.156	3846.81
576.582	3827.06
577.008	3723.06
577.434	3663.69
577.86	3582.3
578.285	3599.67
578.711	3514.96
579.137	3435.07
579.562	3358.64
579.988	3370.61
580.413	3295.76
580.838	3221.12
581.264	3230.11
581.689	3120.76
582.114	3134.68
582.539	3101.11
582.964	3073.54
583.39	3050.34
583.814	2939.94
584.239	2858.14
584.664	2872.65
585.089	2827.48
585.514	2788.04
585.939	2715.97
586.363	2634.5
586.788	2655.63
587.212	2627.91
587.637	2594.42
588.061	2567.24
588.485	2480.4
588.91	2468.03
589.334	2464.73
589.758	2403.93
590.182	2375.58
590.606	2338.4
591.03	2330.14
591.454	2326.56
591.878	2259.32
592.302	2254.35
592.726	2246.08
593.15	2209.95
593.573	2119.97
593.997	2118.87
594.42	2087.65
594.844	2082.4
595.267	2012.75
595.691	2012.75
596.114	1995.32
596.537	1931.13
596.96	1951.33
597.384	1935.28
597.807	1912.85
598.23	1891.53
598.653	1888.48
599.076	1836.12
599.499	1812.83
599.921	1804.79
600.344	1818.93
600.767	1788.43
601.189	1780.95
601.612	1743.22
602.034	1743.5
602.457	1708.25
602.879	1763.19
603.302	1706.58
603.724	1694.37
604.146	1719.63
604.568	1668.54
604.991	1739.33
605.413	1700.47
605.835	1680.48
606.257	1659.1
606.678	1637.71
607.1	1634.65
607.522	1652.99
607.944	1604.36
608.365	1632.7
608.787	1576.28
609.209	1517.3
609.63	1553.47
610.051	1525.09
610.473	1534.55
610.894	1520.36
611.315	1478.33
611.737	1473.88
612.158	1444.92
612.579	1446.31
613	1425.97
613.421	1422.91
613.842	1411.21
614.263	1332.86
614.683	1361.03
615.104	1364.38
615.525	1329.24
615.945	1303.85
616.366	1302.45
616.787	1280.4
617.207	1270.35
617.627	1248.3
618.048	1234.05
618.468	1227.07
618.888	1168.95
619.308	1225.67
619.728	1178.17
620.148	1174.54
620.568	1159.72
620.988	1124.49
621.408	1143.79
621.828	1111.9
622.248	1102.67
622.668	1118.06
623.087	1088.12
623.507	1080.84
623.926	1076.37
624.346	1075.81
624.765	1053.69
625.185	1027.37
625.604	1016.45
626.023	1011.69
626.442	1003
626.861	982.83
627.28	981.71
627.699	999.92
628.118	991.24
628.537	978.35
628.956	936.58
629.375	930.13
629.794	940.22
630.212	930.13
630.631	940.22
631.049	906.29
631.468	907.13
631.886	888.62
632.305	914.15
632.723	862.8
633.141	870.38
633.559	881.32
633.978	851.85
634.396	855.78
634.814	836.98
635.232	836.98
635.65	811.98
636.067	802.72
636.485	848.49
636.903	830.52
637.321	812.83
637.738	826.31
638.156	813.95
638.573	808.9
638.991	805.52
639.408	808.61
639.825	763.38
640.243	794.57
640.66	779.68
641.077	738.08
641.494	740.33
641.911	734.15
642.328	765.35
642.745	733.87
643.162	717.56
643.579	747.08
643.995	740.9
644.412	718.68
644.829	697.03
645.245	702.09
645.662	706.87
646.078	708.28
646.495	702.09
646.911	670.87
647.327	675.93
647.743	695.34
648.159	672.84
648.576	660.17
648.992	675.09
649.408	692.81
649.824	661.86
650.239	663.27
650.655	637.09
651.071	634
651.487	671.99
651.902	647.23
652.318	625.83
652.733	642.16
653.149	658.48
653.564	649.76
653.979	639.06
654.395	617.1
654.81	640.75
655.225	630.62
655.64	605.84
656.055	616.54
656.47	615.7
656.885	588.94
657.3	603.31
657.715	618.79
658.13	625.55
658.544	592.04
658.959	605.28
659.374	577.11
659.788	607.53
660.202	586.97
660.617	593.73
661.031	588.38
661.445	567.25
661.86	575.42
662.274	613.72
662.688	586.97
663.102	564.43
663.516	555.41
663.93	582.74
664.344	581.05
664.758	556.82
665.171	562.46
665.585	570.63
665.999	565.28
666.412	539.63
666.826	531.74
667.239	550.06
667.653	523.56
668.066	542.73
668.479	548.37
668.892	539.63
669.306	548.09
669.719	564.99
670.132	546.11
670.545	536.53
670.958	513.13
671.37	572.04
671.783	551.75
672.196	542.45
672.609	509.75
673.021	515.95
673.434	521.59
673.846	553.16
674.259	547.24
674.671	498.47
675.084	528.64
675.496	519.9
675.908	515.1
676.32	515.1
676.732	537.94
677.144	532.3
677.556	530.89
677.968	486.62
678.38	475.34
678.792	519.9
679.204	472.52
679.615	492.83
680.027	526.94
680.439	505.52
680.85	485.77
681.262	520.18
681.673	488.31
682.084	485.49
682.496	502.13
682.907	526.38
683.318	486.62
683.729	476.75
684.14	504.11
684.551	513.69
684.962	520.46
685.373	481.26
685.784	465.46
686.194	486.62
686.605	478.44
687.016	455.87
687.426	470.54
687.837	447.68
688.247	462.08
688.657	471.67
689.068	466.31
689.478	445.43
689.888	455.02
690.298	458.69
690.708	450.51
691.118	473.64
691.528	458.13
691.938	471.95
692.348	447.97
692.758	437.24
693.168	435.27
693.577	460.95
693.987	462.36
694.396	456.71
694.806	442.6
695.215	495.93
695.625	472.23
696.034	454.74
696.443	448.25
696.852	434.14
697.262	447.4
697.671	458.69
698.08	471.67
698.489	438.09
698.897	455.02
699.306	449.94
699.715	419.18
700.124	466.03
700.532	451.92
700.941	446.84
701.35	434.7
701.758	458.13
702.166	460.95
702.575	432.16
702.983	458.41
703.391	422
703.799	472.52
704.208	439.22
704.616	437.52
705.024	446.56
705.432	417.76
705.839	425.67
706.247	431.6
706.655	455.02
707.063	434.7
707.47	431.31
707.878	436.4
708.285	451.07
708.693	420.02
709.1	444.3
709.508	445.99
709.915	425.95
710.322	443.17
710.729	438.94
711.136	431.03
711.543	450.51
711.95	438.65
712.357	444.58
712.764	411.55
713.171	437.24
713.578	434.7
713.984	424.26
714.391	401.1
714.797	435.55
715.204	450.51
715.61	436.11
716.017	441.19
716.423	441.48
716.829	454.18
717.236	401.1
717.642	425.39
718.048	407.32
718.454	427.08
718.86	433.57
719.266	444.58
719.671	411.55
720.077	425.95
720.483	442.32
720.889	422.85
721.294	430.47
721.7	436.11
722.105	399.69
722.511	432.44
722.916	442.6
723.321	425.39
723.726	449.94
724.132	433.01
724.537	411.27
724.942	409.01
725.347	399.41
725.752	407.88
726.156	419.18
726.561	422.28
726.966	447.4
727.371	398.28
727.775	424.54
728.18	401.1
728.584	425.1
728.989	418.33
729.393	413.53
729.798	429.34
730.202	403.36
730.606	400.54
731.01	434.98
731.414	409.86
731.818	429.06
732.222	419.46
732.626	425.39
733.03	423.13
733.434	423.13
733.837	422.85
734.241	412.12
734.645	407.88
735.048	433.85
735.452	401.39
735.855	429.34
736.258	396.02
736.662	426.52
737.065	413.53
737.468	399.69
737.871	416.92
738.274	426.52
738.677	416.63
739.08	425.67
739.483	408.45
739.886	429.34
740.289	416.07
740.691	414.94
741.094	422.28
741.497	409.86
741.899	393.48
742.302	405.34
742.704	404.78
743.106	396.3
743.508	389.81
743.911	394.04
744.313	396.59
744.715	411.27
745.117	396.02
745.519	411.55
745.921	420.87
746.323	408.73
746.724	414.66
747.126	409.58
747.528	431.6
747.929	403.08
748.331	372.86
748.732	394.04
749.134	420.3
749.535	411.55
749.936	421.72
750.338	386.98
750.739	410.14
751.14	401.1
751.541	393.76
751.942	402.23
752.343	372.58
752.744	393.2
753.144	436.96
753.545	424.26
753.946	390.09
754.346	408.73
754.747	392.07
755.148	430.75
755.548	418.33
755.948	413.53
756.349	373.71
756.749	405.34
757.149	450.22
757.549	417.2
757.949	408.73
758.349	408.73
758.749	398.28
759.149	393.76
759.549	431.88
759.949	399.69
760.348	413.53
760.748	392.63
761.148	413.81
761.547	406.75
761.947	390.09
762.346	392.35
762.745	418.89
763.145	387.55
763.544	386.42
763.943	420.3
764.342	392.63
764.741	408.45
765.14	395.46
765.539	388.11
765.938	432.16
766.336	418.05
766.735	405.62
767.134	403.08
767.532	402.52
767.931	382.75
768.329	392.63
768.728	435.27
769.126	407.88
769.525	417.76
769.923	400.54
770.321	390.94
770.719	402.52
771.117	423.69
771.515	394.04
771.913	415.51
772.311	387.83
772.709	391.22
773.106	412.4
773.504	415.22
773.902	422.56
774.299	407.32
774.697	388.68
775.094	393.2
775.491	408.45
775.889	394.61
776.286	392.91
776.683	413.81
777.08	416.07
777.477	394.89
777.874	405.34
778.271	387.27
778.668	386.7
779.065	402.8
779.462	388.68
779.858	402.23
780.255	430.19
780.652	384.16
781.048	395.17
781.444	393.76
781.841	395.74
782.237	394.61
782.633	409.29
783.03	410.14
783.426	384.72
783.822	360.43
784.218	390.94
784.614	417.76
785.01	426.8
785.405	379.92
785.801	389.81
786.197	370.88
786.593	392.07
786.988	399.41
787.384	423.41
787.779	377.1
788.174	394.04
788.57	425.1
788.965	396.3
789.36	417.48
789.755	388.96
790.15	400.26
790.545	409.29
790.94	367.77
791.335	387.27
791.73	372.01
792.125	386.14
792.52	404.21
792.914	385.29
793.309	389.53
793.703	391.79
794.098	399.69
794.492	389.53
794.887	401.1
795.281	384.44
795.675	434.42
796.069	394.33
796.463	403.65
796.857	389.53
797.251	403.93
797.645	398.28
798.039	398
798.433	398.28
798.826	401.1
799.22	413.81
799.614	383.88
800.007	370.04
800.401	364.95
800.794	381.62
801.187	407.88
801.581	416.63
801.974	411.83
802.367	395.46
802.76	367.49
803.153	397.72
803.546	401.95
803.939	393.2
804.332	402.52
804.725	379.07
805.117	398.85
805.51	394.61
805.903	380.2
806.295	390.66
806.688	407.88
807.08	384.16
807.472	392.07
807.865	405.62
808.257	379.36
808.649	379.64
809.041	365.8
809.433	401.67
809.825	406.19
810.217	378.23
810.609	400.82
811.001	412.4
811.392	385.85
811.784	405.06
812.175	401.39
812.567	396.3
812.958	397.43
813.35	413.25
813.741	383.03
814.132	397.72
814.524	420.87
814.915	407.6
815.306	398
815.697	419.74
816.088	412.12
816.479	402.23
816.87	413.81
817.26	396.59
817.651	402.52
818.042	398.56
818.432	392.07
818.823	398.28
819.213	387.27
819.604	393.76
819.994	402.52
820.384	402.52
820.775	418.33
821.165	410.42
821.555	418.33
821.945	401.1
822.335	385.57
822.725	396.3
823.114	420.02
823.504	398
823.894	408.73
824.284	372.3
824.673	401.67
825.063	425.1
825.452	399.13
825.842	387.83
826.231	366.93
826.62	379.07
827.009	398.85
827.399	369.75
827.788	394.89
828.177	372.3
828.566	357.89
828.954	378.51
829.343	401.39
829.732	376.25
830.121	393.2
830.509	389.53
830.898	392.07
831.286	366.08
831.675	394.04
832.063	390.37
832.452	386.42
832.84	342.63
833.228	379.36
833.616	329.34
834.004	387.27
834.392	401.95
834.78	409.01
835.168	410.42
835.556	395.74
835.944	375.69
836.331	394.89
836.719	385.85
837.107	389.81
837.494	410.14
837.881	372.58
838.269	412.12
838.656	386.42
839.043	393.2
839.431	377.38
839.818	399.41
840.205	384.72
840.592	362.69
840.979	410.14
841.366	396.02
841.752	404.21
842.139	406.19
842.526	392.63
842.912	383.03
843.299	383.03
843.685	397.72
844.072	372.3
844.458	385.85
844.844	395.17
845.231	377.66
845.617	390.37
846.003	371.73
846.389	401.39
846.775	372.01
847.161	399.97
847.547	368.62
847.933	404.21
848.318	402.23
848.704	375.12
849.09	377.38
849.475	389.24
849.861	363.82
850.246	383.88
850.631	375.12
851.017	381.9
851.402	391.22
851.787	388.68
852.172	396.02
852.557	402.8
852.942	384.72
853.327	381.62
853.712	381.62
854.097	390.94
854.481	377.66
854.866	382.46
855.25	392.91
855.635	364.95
856.019	419.18
856.404	383.59
856.788	392.07
857.172	401.39
857.557	396.87
857.941	370.6
858.325	377.38
858.709	378.23
859.093	409.01
859.477	363.82
859.86	384.72
860.244	406.75
860.628	403.36
861.012	379.36
861.395	398.28
861.779	387.27
862.162	397.43
862.545	371.17
862.929	374.56
863.312	386.7
863.695	392.35
864.078	372.58
864.461	385.85
864.844	408.73
865.227	390.37
865.61	373.71
865.993	398
866.376	413.53
866.758	374.27
867.141	392.63
867.523	410.71
867.906	387.55
868.288	410.99
868.671	409.58
869.053	395.46
869.435	372.58
869.817	368.91
870.199	392.35
870.581	367.77
870.963	410.71
871.345	399.69
871.727	372.86
872.109	405.91
872.491	373.14
872.872	409.29
873.254	388.68
873.635	382.75
874.017	405.91
874.398	380.77
874.779	396.59
875.161	394.33
875.542	383.31
875.923	375.69
876.304	377.66
876.685	388.4
877.066	380.77
877.447	402.8
877.828	374.56
878.208	349.69
878.589	408.73
878.97	384.44
879.35	353.65
879.731	411.83
880.111	389.81
880.491	397.43
880.872	389.81
881.252	370.32
881.632	410.42
882.012	379.64
882.392	389.24
882.772	397.72
883.152	379.92
883.532	379.92
883.912	389.53
884.291	381.9
884.671	359.02
885.051	364.95
885.43	388.68
885.81	372.58
886.189	415.51
886.568	386.98
886.948	411.55
887.327	382.75
887.706	379.64
888.085	391.22
888.464	380.49
888.843	394.61
889.222	371.73
889.601	379.36
889.979	385.85
890.358	390.94
890.737	372.58
891.115	374.27
891.494	387.27
891.872	390.09
892.25	398
892.629	395.17
893.007	404.49
893.385	369.75
893.763	387.55
894.141	422
894.519	378.79
894.897	379.07
895.275	405.06
895.653	411.27
896.03	403.93
896.408	384.16
896.786	390.94
897.163	365.8
897.541	413.25
897.918	394.89
898.295	372.58
898.673	375.69
899.05	385.85
899.427	396.87
899.804	386.14
900.181	370.04
900.558	376.81
900.935	396.59
901.312	382.75
901.688	373.43
902.065	368.62
902.442	381.33
902.818	403.36
903.195	368.34
903.571	387.55
903.947	382.18
904.324	389.24
904.7	383.03
905.076	372.3
905.452	365.23
905.828	409.86
906.204	372.3
906.58	392.07
906.956	385.57
907.331	379.07
907.707	389.24
908.083	365.23
908.458	387.55
908.834	379.36
909.209	362.97
909.585	392.35
909.96	381.33
910.335	406.47
910.71	365.23
911.086	358.17
911.461	394.61
911.836	377.94
912.21	369.19
912.585	340.08
912.96	354.21
913.335	379.92
913.709	366.36
914.084	377.66
914.459	383.59
914.833	400.26
915.207	388.11
915.582	367.77
915.956	377.94
916.33	394.89
916.704	357.6
917.078	353.37
917.452	363.25
917.826	381.62
918.2	377.66
918.574	380.77
918.948	371.17
919.321	383.03
919.695	373.99
920.068	380.49
920.442	363.54
920.815	373.71
921.189	376.81
921.562	357.6
921.935	373.71
922.308	385.01
922.681	372.01
923.054	351.95
923.427	388.4
923.8	350.26
924.173	358.45
924.546	375.12
924.919	350.82
925.291	348.28
925.664	383.03
926.036	347.71
926.409	379.64
926.781	388.68
927.153	388.4
927.526	374.27
927.898	387.55
928.27	363.54
928.642	387.83
929.014	374.84
929.386	375.4
929.758	393.48
930.129	381.33
930.501	383.31
930.873	403.65
931.244	400.82
931.616	377.38
931.987	385.01
932.359	354.5
932.73	400.82
933.101	385.29
933.472	372.86
933.843	401.1
934.214	389.53
934.585	381.05
934.956	386.42
935.327	404.49
935.698	384.44
936.069	377.38
936.439	388.68
936.81	393.2
937.18	387.83
937.551	368.91
937.921	363.25
938.292	391.79
938.662	368.34
939.032	398.85
939.402	359.58
939.772	379.92
940.142	384.72
940.512	369.47
940.882	360.15
941.252	363.54
941.621	371.45
941.991	373.14
942.361	360.71
942.73	388.4
943.1	398.85
943.469	366.36
943.838	383.03
944.208	380.77
944.577	380.2
944.946	391.79
945.315	386.7
945.684	362.12
946.053	384.72
946.422	401.67
946.791	368.91
947.159	367.77
947.528	354.78
947.897	379.92
948.265	376.81
948.634	376.53
949.002	362.69
949.371	374.84
949.739	376.53
950.107	363.82
950.475	402.23
950.843	383.59
951.211	369.75
951.579	394.89
951.947	353.93
952.315	366.08
952.683	366.93
953.05	395.17
953.418	368.06
953.785	388.68
954.153	377.66
954.52	387.83
954.888	368.91
955.255	370.04
955.622	366.64
955.989	348.28
956.356	366.08
956.723	378.79
957.09	373.71
957.457	377.66
957.824	385.29
958.191	382.46
958.557	370.88
958.924	401.39
959.291	347.71
959.657	371.73
960.023	361.84
960.39	378.79
960.756	381.05
961.122	370.04
961.488	375.4
961.855	355.63
962.221	392.63
962.586	380.2
962.952	376.25
963.318	391.22
963.684	387.83
964.05	398
964.415	377.94
964.781	383.31
965.146	371.73
965.512	371.45
965.877	379.92
966.242	406.47
966.608	346.3
966.973	385.57
967.338	381.62
967.703	368.62
968.068	351.95
968.433	358.17
968.797	403.65
969.162	385.57
969.527	372.86
969.891	382.46
970.256	390.37
970.62	390.09
970.985	366.36
971.349	363.54
971.714	374.84
972.078	365.8
972.442	352.8
972.806	357.6
973.17	371.45
973.534	378.79
973.898	391.5
974.262	372.58
974.625	365.23
974.989	380.77
975.353	365.51
975.716	344.32
976.08	361.28
976.443	374.27
976.806	398.28
977.17	366.36
977.533	382.46
977.896	387.27
978.259	344.32
978.622	377.66
978.985	356.76
979.348	394.61
979.711	379.64
980.073	366.64
980.436	372.3
980.799	375.97
981.161	354.21
981.524	380.2
981.886	374.56
982.248	360.99
982.611	372.86
982.973	379.64
983.335	360.15
983.697	371.17
984.059	354.5
984.421	378.23
984.783	366.93
985.145	373.43
985.506	410.99
985.868	403.08
986.23	386.98
986.591	359.02
986.953	361.56
987.314	357.6
987.675	399.13
988.037	541.88
988.398	385.57
988.759	377.66
989.12	368.34
989.481	367.77
989.842	367.49
990.203	376.81
990.564	378.51
990.924	380.77
991.285	506.36
991.646	385.29
992.006	362.41
992.367	364.95
992.727	370.32
993.087	356.76
993.448	382.46
993.808	415.22
994.168	375.12
994.528	380.77
994.888	368.62
995.248	376.25
995.608	364.95
995.967	379.36
996.327	358.45
996.687	366.64
997.046	377.1
997.406	351.67
997.765	383.59
998.125	380.2
998.484	363.25
998.843	377.66
999.202	340.93
999.561	369.47
999.92	368.06
1000.279	382.75
1000.638	379.36
1000.997	354.78
1001.356	351.95
1001.715	340.93
1002.073	394.04
1002.432	380.77
1002.79	379.92
1003.149	376.81
1003.507	388.68
1003.865	372.3
1004.224	381.05
1004.582	373.43
1004.94	394.89
1005.298	394.89
1005.656	363.82
1006.014	366.93
1006.371	355.63
1006.729	395.74
1007.087	372.58
1007.445	372.3
1007.802	354.78
1008.16	367.77
1008.517	386.14
1008.874	390.66
1009.232	352.23
1009.589	383.59
1009.946	367.49
1010.303	372.86
1010.66	366.64
1011.017	372.58
1011.374	366.64
1011.731	348.28
1012.087	378.79
1012.444	351.95
1012.801	382.46
1013.157	366.93
1013.513	384.72
1013.87	357.89
1014.226	376.53
1014.582	403.65
1014.939	360.43
1015.295	366.36
1015.651	352.23
1016.007	363.54
1016.363	368.62
1016.719	347.15
1017.074	382.18
1017.43	388.4
1017.786	392.07
1018.141	383.88
1018.497	367.77
1018.852	376.81
1019.208	396.59
1019.563	378.23
1019.918	360.43
1020.273	380.77
1020.628	387.83
1020.983	368.34
1021.338	354.21
1021.693	390.66
1022.048	376.81
1022.403	382.75
1022.757	352.23
1023.112	360.43
1023.467	376.81
1023.821	362.97
1024.175	381.9
1024.53	364.38
1024.884	376.25
1025.238	371.17
1025.592	363.54
1025.946	380.2
1026.3	348.28
1026.654	353.65
1027.008	353.93
1027.362	377.1
1027.716	342.34
1028.069	366.64
1028.423	385.85
1028.777	372.86
1029.13	359.86
1029.483	379.07
1029.837	377.38
1030.19	366.93
1030.543	383.59
1030.896	379.07
1031.249	359.02
1031.602	376.81
1031.955	387.55
1032.308	387.55
1032.661	388.96
1033.013	405.06
1033.366	381.05
1033.719	379.64
1034.071	370.32
1034.424	366.93
1034.776	377.66
1035.128	390.94
1035.48	389.24
1035.833	377.66
1036.185	378.23
1036.537	378.23
1036.889	378.23
