Data from SCSF78-405_irradiation_FLMS019251_15-33-27-903.txt Node
Date: Fri Feb 22 15:33:27 PST 2019
User: mu3e
Spectrometer: FLMS01925
Trigger mode: 0
Integration Time (sec): 1.206000E-2
Scans to average: 10
Electric dark correction enabled: true
Nonlinearity correction enabled: true
Boxcar width: 0
XAxis mode: Wavelengths
Number of Pixels in Spectrum: 2048
>>>>>Begin Spectral Data<<<<<
187.103	-72.36
187.574	-72.36
188.045	-72.36
188.516	-118.42
188.987	-149.71
189.458	-127.24
189.929	-114.72
190.4	-145.72
190.871	-84.02
191.342	-98.52
191.813	-57.59
192.284	-49.35
192.754	-38.27
193.225	-9.87
193.696	34.42
194.166	53.43
194.637	93.71
195.107	99.38
195.578	113.84
196.048	156.06
196.518	173.34
196.989	171.93
197.459	174.48
197.929	199.68
198.399	237.62
198.869	286.56
199.339	289.39
199.809	326.15
200.279	342.82
200.749	326.71
201.219	349.32
201.689	356.39
202.159	364.58
202.628	401.3
203.098	373.05
203.568	393.96
204.037	389.15
204.507	369.95
204.976	383.51
205.445	373.34
205.915	410.05
206.384	391.7
206.853	385.2
207.323	410.62
207.792	401.02
208.261	383.51
208.73	397.35
209.199	405.82
209.668	395.93
210.137	380.68
210.606	382.38
211.075	370.79
211.543	356.1
212.012	383.79
212.481	406.95
212.95	375.88
213.418	370.51
213.887	382.66
214.355	355.25
214.824	358.65
215.292	376.73
215.76	364.01
216.229	356.67
216.697	361.47
217.165	343.67
217.633	340.84
218.101	338.3
218.569	354.97
219.037	364.3
219.505	350.17
219.973	356.1
220.441	354.69
220.909	343.95
221.377	358.65
221.844	347.91
222.312	376.73
222.78	375.88
223.247	344.8
223.715	347.91
224.182	363.45
224.65	363.17
225.117	397.35
225.584	336.6
226.052	372.77
226.519	342.82
226.986	338.02
227.453	369.1
227.92	373.62
228.387	367.4
228.854	353.84
229.321	336.6
229.788	369.1
230.255	357.23
230.722	340.84
231.189	373.05
231.655	382.38
232.122	358.93
232.589	342.54
233.055	354.12
233.522	344.52
233.988	354.41
234.454	366.27
234.921	356.95
235.387	373.9
235.853	382.94
236.32	367.4
236.786	352.99
237.252	373.34
237.718	391.41
238.184	345.08
238.65	339.15
239.116	346.49
239.582	364.3
240.047	361.19
240.513	343.1
240.979	372.77
241.445	366.84
241.91	387.46
242.376	363.45
242.841	376.44
243.307	377.01
243.772	360.34
244.238	374.18
244.703	369.38
245.168	357.8
245.633	365.99
246.099	338.3
246.564	352.99
247.029	355.54
247.494	357.23
247.959	341.69
248.424	359.49
248.889	378.42
249.353	385.2
249.818	381.53
250.283	372.49
250.748	377.01
251.212	388.31
251.677	391.13
252.141	358.65
252.606	369.95
253.07	356.67
253.535	348.47
253.999	373.34
254.463	373.05
254.927	359.21
255.392	365.99
255.856	378.99
256.32	393.39
256.784	377.29
257.248	370.51
257.712	385.2
258.176	369.66
258.64	374.18
259.103	394.24
259.567	378.14
260.031	397.91
260.495	401.58
260.958	388.59
261.422	406.38
261.885	378.7
262.349	383.51
262.812	390.28
263.275	364.01
263.739	348.19
264.202	415.42
264.665	389.44
265.128	370.79
265.591	391.7
266.054	388.59
266.517	367.12
266.98	372.49
267.443	377.57
267.906	388.03
268.369	402.71
268.832	385.77
269.294	387.18
269.757	361.75
270.22	383.22
270.682	391.7
271.145	404.4
271.607	393.39
272.07	399.32
272.532	384.92
272.994	364.3
273.456	377.01
273.919	376.16
274.381	387.46
274.843	389.44
275.305	372.49
275.767	399.04
276.229	398.19
276.691	374.47
277.153	386.05
277.614	393.67
278.076	396.22
278.538	391.98
279	392.54
279.461	382.94
279.923	386.33
280.384	385.77
280.846	404.69
281.307	384.64
281.769	408.08
282.23	377.86
282.691	372.21
283.152	395.93
283.613	382.38
284.075	393.11
284.536	388.31
284.997	384.92
285.458	417.96
285.918	393.67
286.379	380.68
286.84	389.15
287.301	401.86
287.762	400.17
288.222	392.54
288.683	376.73
289.143	390
289.604	401.02
290.064	398.47
290.525	387.74
290.985	373.9
291.445	417.11
291.906	398.19
292.366	386.9
292.826	404.69
293.286	379.55
293.746	376.44
294.206	401.3
294.666	408.36
295.126	392.54
295.586	407.51
296.046	381.25
296.506	372.77
296.965	392.26
297.425	383.51
297.884	414.57
298.344	382.66
298.804	397.06
299.263	405.25
299.722	387.74
300.182	396.5
300.641	388.87
301.1	377.57
301.559	397.91
302.019	403.28
302.478	391.13
302.937	417.11
303.396	404.12
303.855	403.28
304.314	404.69
304.772	395.65
305.231	386.33
305.69	392.26
306.149	398.47
306.607	384.35
307.066	383.22
307.524	423.89
307.983	403.56
308.441	397.91
308.9	426.71
309.358	401.02
309.816	397.91
310.275	408.64
310.733	421.06
311.191	409.21
311.649	398.76
312.107	411.75
312.565	390
313.023	425.02
313.481	385.2
313.939	393.11
314.397	410.9
314.854	402.99
315.312	413.72
315.77	408.64
316.227	385.48
316.685	398.76
317.142	384.92
317.6	409.21
318.057	390.57
318.514	387.74
318.972	405.82
319.429	397.63
319.886	404.12
320.343	398.47
320.8	382.38
321.257	406.95
321.714	426.43
322.171	416.83
322.628	413.16
323.085	422.47
323.542	386.61
323.998	408.92
324.455	422.76
324.912	424.17
325.368	403.28
325.825	409.21
326.281	401.86
326.738	406.66
327.194	400.73
327.65	417.11
328.107	386.9
328.563	413.72
329.019	388.31
329.475	426.43
329.931	401.86
330.387	408.64
330.843	401.86
331.299	401.86
331.755	400.45
332.211	397.91
332.666	414.85
333.122	417.68
333.578	415.13
334.033	400.45
334.489	410.05
334.944	401.02
335.4	416.55
335.855	403.56
336.31	434.33
336.766	413.72
337.221	406.95
337.676	371.92
338.131	395.65
338.586	397.91
339.041	420.5
339.496	377.01
339.951	398.47
340.406	436.31
340.861	404.97
341.316	392.83
341.771	423.6
342.225	404.69
342.68	402.99
343.134	395.93
343.589	382.38
344.043	402.15
344.498	423.6
344.952	353.84
345.406	423.04
345.861	423.04
346.315	431.23
346.769	395.65
347.223	414.85
347.677	401.58
348.131	418.8
348.585	407.51
349.039	414.85
349.493	407.51
349.947	405.82
350.401	400.73
350.854	398.76
351.308	399.6
351.762	415.7
352.215	391.98
352.669	430.66
353.122	423.32
353.575	407.23
354.029	406.66
354.482	404.12
354.935	395.93
355.388	426.71
355.842	414.85
356.295	413.72
356.748	411.18
357.201	443.36
357.654	413.44
358.106	397.35
358.559	388.87
359.012	424.17
359.465	429.53
359.917	415.42
360.37	421.06
360.823	397.06
361.275	430.66
361.728	417.96
362.18	416.55
362.632	406.95
363.085	412.88
363.537	420.5
363.989	428.12
364.441	412.03
364.893	395.65
365.345	421.91
365.797	402.43
366.249	423.6
366.701	420.78
367.153	421.35
367.605	407.79
368.057	426.43
368.508	415.7
368.96	412.59
369.411	386.05
369.863	420.5
370.314	392.54
370.766	412.88
371.217	408.64
371.669	419.65
372.12	432.07
372.571	420.5
373.022	397.91
373.473	428.97
373.924	407.23
374.375	446.75
374.826	402.99
375.277	402.43
375.728	400.73
376.179	428.12
376.63	427.84
377.08	425.86
377.531	408.64
377.981	415.98
378.432	424.45
378.883	425.86
379.333	423.6
379.783	429.25
380.234	428.69
380.684	433.2
381.134	431.79
381.584	425.58
382.034	418.24
382.485	406.95
382.935	425.3
383.385	413.44
383.834	411.75
384.284	443.93
384.734	434.61
385.184	438.28
385.634	425.3
386.083	395.93
386.533	426.71
386.982	424.17
387.432	444.49
387.881	404.12
388.331	408.36
388.78	447.31
389.229	441.11
389.679	416.26
390.128	431.23
390.577	423.32
391.026	416.26
391.475	436.02
391.924	426.99
392.373	442.52
392.822	441.67
393.27	408.92
393.719	442.23
394.168	434.61
394.617	415.13
395.065	431.23
395.514	442.52
395.962	443.36
396.411	441.11
396.859	455.5
397.307	440.82
397.756	448.73
398.204	432.92
398.652	451.55
399.1	465.94
399.548	440.26
399.996	440.54
400.444	462.55
400.892	444.77
401.34	462.55
401.788	439.41
402.236	433.77
402.683	462.83
403.131	430.66
403.579	458.04
404.026	464.25
404.474	457.76
404.921	436.59
405.369	466.22
405.816	473.56
406.263	477.79
406.71	476.38
407.158	478.35
407.605	456.91
408.052	506.84
408.499	497.81
408.946	499.22
409.393	507.97
409.84	487.94
410.286	494.99
410.733	513.04
411.18	538.98
411.626	567.16
412.073	594.49
412.52	708.19
412.966	771.16
413.413	887.13
413.859	1084.67
414.305	1285.06
414.752	1547.54
415.198	1917.47
415.644	2289.55
416.09	2809.87
416.536	3338.96
416.982	4008.42
417.428	4730.96
417.874	5531.49
418.32	6441.87
418.766	7317.94
419.211	8404.68
419.657	9341.14
420.103	10536.97
420.548	11344.73
420.994	12717.01
421.439	13789.49
421.885	14930.99
422.33	16349.8
422.776	17390.73
423.221	18515.6
423.666	19777.82
424.111	21097.67
424.556	22058.84
425.001	23482.02
425.446	24976.09
425.891	26123.93
426.336	26978.72
426.781	28270.36
427.226	30479.62
427.671	31160.13
428.115	31907.73
428.56	33767.11
429.005	35188.19
429.449	35777.77
429.894	37181.82
430.338	38127.53
430.782	38350.32
431.227	40046.99
431.671	40213.16
432.115	41873.46
432.559	43041.7
433.003	42879.6
433.447	43784.23
433.891	44138.17
434.335	44617.66
434.779	45363.78
435.223	45626.83
435.667	45649.8
436.111	46145.09
436.554	46104.58
436.998	45616.98
437.442	45730.85
437.885	47940.05
438.328	46137.74
438.772	46490.65
439.215	47154.22
439.659	46648.87
440.102	47022.67
440.545	46471.36
440.988	46197.52
441.431	47031.59
441.874	46760.98
442.317	47009.93
442.76	46382.3
443.203	45866.78
443.646	46596.02
444.089	46029.66
444.531	46853.33
444.974	45451.25
445.417	46560.47
445.859	45788.44
446.302	46899.91
446.744	45989.43
447.186	47181.26
447.629	46316.12
448.071	46150.91
448.513	46324.48
448.956	47690.77
449.398	46782.09
449.84	45722.51
450.282	46348.57
450.724	46827.88
451.166	46660.05
451.607	46426.19
452.049	46551.58
452.491	47690.51
452.933	47196.31
453.374	47746.63
453.816	48181.39
454.257	47744.83
454.699	48900.19
455.14	48510.73
455.582	48352.89
456.023	48241.87
456.464	48613.24
456.905	49057.09
457.347	48990.41
457.788	48120.17
458.229	48173.41
458.67	49374.29
459.111	47341.33
459.552	47374.54
459.992	47202.95
460.433	47143
460.874	46167.88
461.315	47381.95
461.755	46355.93
462.196	45797.54
462.636	45058.87
463.077	44853.71
463.517	44941.93
463.957	45195.27
464.398	44896.94
464.838	44891.66
465.278	43690.53
465.718	44129.4
466.158	42862.92
466.598	43273.48
467.038	42735.01
467.478	43266
467.918	43643.07
468.358	42763.87
468.798	42416.28
469.237	42242.67
469.677	42292.33
470.117	42967.49
470.556	40686.23
470.996	41189.69
471.435	41371.31
471.874	42058.5
472.314	41705.15
472.753	40896.71
473.192	41060.6
473.631	40586.48
474.07	40824.07
474.509	40825.05
474.948	41191.67
475.387	40377.19
475.826	39513.5
476.265	41252.03
476.704	40785.03
477.143	41070.73
477.581	40943.92
478.02	41388.39
478.458	40016.18
478.897	40773.17
479.335	41751.74
479.774	41296.82
480.212	41635.53
480.65	41590.19
481.089	41214.68
481.527	40643.76
481.965	40225.24
482.403	42188.3
482.841	41898.5
483.279	41883.13
483.717	41949.84
484.155	41475.78
484.592	41762.65
485.03	42119.54
485.468	41025.98
485.905	41338.89
486.343	41805.03
486.781	41230.76
487.218	40506.99
487.655	40279.01
488.093	39601.87
488.53	41064.55
488.967	40185.54
489.405	40057.59
489.842	39217.04
490.279	39105.41
490.716	38834.56
491.153	39231.8
491.59	38749.8
492.027	37906.57
492.463	37491.89
492.9	36884.66
493.337	36824.95
493.773	36815.9
494.21	35985.47
494.647	35793.4
495.083	35034.38
495.519	34682.67
495.956	34639.96
496.392	34021.26
496.828	33771.5
497.265	33067.75
497.701	33285.98
498.137	33025.08
498.573	32070.83
499.009	32703.99
499.445	31838.73
499.881	31127.21
500.316	31545.41
500.752	30583.06
501.188	30502.31
501.624	30415.95
502.059	29115.88
502.495	29103.91
502.93	28978.36
503.366	29068.98
503.801	28365.71
504.236	28222.44
504.672	27622.4
505.107	27440.06
505.542	26852.06
505.977	26902.53
506.412	26352.76
506.847	26694.25
507.282	26199.73
507.717	25678.01
508.152	25817.93
508.587	25453.56
509.021	24887.09
509.456	24586.52
509.891	24692.8
510.325	24502.61
510.76	24288.72
511.194	23922.5
511.628	24049.12
512.063	23170.94
512.497	23392.49
512.931	22926.32
513.366	22666.25
513.8	22746.78
514.234	22018.02
514.668	22033.6
515.102	22282.17
515.536	21394.84
515.969	21555.36
516.403	21083.04
516.837	20706.24
517.271	20862.81
517.704	20498.73
518.138	20153.71
518.571	20196.2
519.005	19632.79
519.438	19739.77
519.871	19541.22
520.305	19106.23
520.738	18937.53
521.171	18457.46
521.604	18678.74
522.037	18397.57
522.47	18052.26
522.903	17750.64
523.336	17669.63
523.769	17581.85
524.202	17056.27
524.634	17174.72
525.067	16941.04
525.5	16615.95
525.932	16550.5
526.365	16191.66
526.797	16001.06
527.23	16075.15
527.662	15499.04
528.094	15401.41
528.527	15270.78
528.959	15143.12
529.391	14805.72
529.823	14355.36
530.255	14398.53
530.687	14049.18
531.119	13731.55
531.551	13824.65
531.982	13453.58
532.414	13275.71
532.846	13046.74
533.277	12885.86
533.709	12463.89
534.14	12427.02
534.572	12266.25
535.003	12216.62
535.435	11920.67
535.866	11816.41
536.297	11410.64
536.728	11511.77
537.159	11364.66
537.59	11112.84
538.022	11060.14
538.452	10782.85
538.883	10659.56
539.314	10514.91
539.745	10260.73
540.176	10149.71
540.606	9847.38
541.037	9916.13
541.468	9792.78
541.898	9634.55
542.328	9516.16
542.759	9391.76
543.189	9222.03
543.619	9179.12
544.05	8968.01
544.48	8821.93
544.91	8719.02
545.34	8565.7
545.77	8473
546.2	8405.98
546.63	8207.58
547.06	8222.93
547.489	8025.06
547.919	7760.36
548.349	7900.73
548.778	7808.9
549.208	7597.11
549.637	7569.66
550.067	7397.8
550.496	7394.4
550.926	7188.75
551.355	7073.59
551.784	7133.41
552.213	6936.79
552.642	6804.57
553.071	6779.59
553.5	6716.44
553.929	6538.12
554.358	6500.42
554.787	6414.69
555.216	6417.6
555.645	6288.5
556.073	6220.85
556.502	6110.31
556.93	5936.09
557.359	5929.2
557.787	5953.84
558.216	5866.37
558.644	5746.45
559.072	5717.52
559.5	5693.35
559.929	5620.56
560.357	5571.65
560.785	5452.99
561.213	5482
561.641	5336.61
562.068	5333.41
562.496	5305.96
562.924	5286.5
563.352	5193.14
563.779	5191
564.207	5203.01
564.634	5140.56
565.062	5090.88
565.489	4982.11
565.917	4987.72
566.344	4962.32
566.771	4950.55
567.198	4823.94
567.625	4797.69
568.053	4709.78
568.48	4635.74
568.907	4690.74
569.333	4554.93
569.76	4424.05
570.187	4406.56
570.614	4350.33
571.04	4471.91
571.467	4252.84
571.894	4207.03
572.32	4095.63
572.747	3981.13
573.173	3979.78
573.599	3903
574.026	3829.41
574.452	3760.63
574.878	3774.17
575.304	3663.33
575.73	3610.44
576.156	3538.51
576.582	3548.28
577.008	3475.21
577.434	3386.58
577.86	3257.27
578.285	3323.99
578.711	3203.59
579.137	3195.68
579.562	3119.86
579.988	3099.39
580.413	3004.09
580.838	2979.22
581.264	2973.48
581.689	2917.97
582.114	2862.16
582.539	2869
582.964	2810.14
583.39	2760.29
583.814	2720
584.239	2645.94
584.664	2607.79
585.089	2610.26
585.514	2538.58
585.939	2494.88
586.363	2488.84
586.788	2498.46
587.212	2427.78
587.637	2389.81
588.061	2351.26
588.485	2351.81
588.91	2287.07
589.334	2253.17
589.758	2235.52
590.182	2198.83
590.606	2143.63
591.03	2117.12
591.454	2143.36
591.878	2091.99
592.302	2127.34
592.726	2018.47
593.15	2036.16
593.573	1960.65
593.997	1945.43
594.42	1943.22
594.844	1922.46
595.267	1883.69
595.691	1871.22
596.114	1860.7
596.537	1811.92
596.96	1807.48
597.384	1777.81
597.807	1794.73
598.23	1763.94
598.653	1746.46
599.076	1743.13
599.499	1705.94
599.921	1699
600.344	1662.9
600.767	1650.12
601.189	1656.79
601.612	1629
602.034	1610.94
602.457	1590.93
602.879	1601.77
603.302	1593.71
603.724	1551.99
604.146	1575.35
604.568	1553.38
604.991	1587.59
605.413	1568.96
605.835	1547.26
606.257	1544.2
606.678	1528.9
607.1	1536.97
607.522	1496.62
607.944	1536.14
608.365	1509.14
608.787	1491.61
609.209	1446.5
609.63	1428.11
610.051	1444.27
610.473	1415.02
610.894	1393.28
611.315	1409.72
611.737	1372.93
612.158	1372.1
612.579	1345.88
613	1328.59
613.421	1364.57
613.842	1333.89
614.263	1245.97
614.683	1263.57
615.104	1278.92
615.525	1281.15
615.945	1188.99
616.366	1187.59
616.787	1194.85
617.207	1164.39
617.627	1166.62
618.048	1165.51
618.468	1169.42
618.888	1113.77
619.308	1119.65
619.728	1090.27
620.148	1083.55
620.568	1104.54
620.988	1086.35
621.408	1033.45
621.828	1024.2
622.248	1007.96
622.668	1021.4
623.087	1009.64
623.507	1030.08
623.926	1019.44
624.346	1001.79
624.765	971.25
625.185	967.61
625.604	964.25
626.023	927.24
626.442	934.25
626.861	938.45
627.28	903.68
627.699	930.32
628.118	900.87
628.537	907.89
628.956	888.53
629.375	881.52
629.794	871.98
630.212	876.46
630.631	898.07
631.049	851.49
631.468	819.76
631.886	864.96
632.305	825.94
632.723	796.45
633.141	798.7
633.559	810.77
633.978	805.72
634.396	829.59
634.814	789.99
635.232	789.14
635.65	797.57
636.067	777.63
636.485	766.95
636.903	777.06
637.321	766.95
637.738	745.31
638.156	729.56
638.573	759.92
638.991	730.41
639.408	761.05
639.825	717.75
640.243	716.07
640.66	738.28
641.077	694.97
641.494	722.25
641.911	700.32
642.328	686.53
642.745	684.85
643.162	696.38
643.579	680.91
643.995	666.84
644.412	669.93
644.829	676.41
645.245	695.53
645.662	658.68
646.078	653.05
646.495	694.41
646.911	652.49
647.327	611.38
647.743	643.48
648.159	653.61
648.576	644.89
648.992	613.92
649.408	618.71
649.824	646.29
650.239	608
650.655	642.07
651.071	632.78
651.487	615.61
651.902	584.91
652.318	599.84
652.733	629.12
653.149	581.81
653.564	592.51
653.979	610.54
654.395	597.02
654.81	572.23
655.225	623.21
655.64	610.54
656.055	612.23
656.47	607.72
656.885	607.44
657.3	594.2
657.715	599.56
658.13	564.62
658.544	599.27
658.959	582.09
659.374	568.01
659.788	553.92
660.202	573.92
660.617	573.64
661.031	546.59
661.445	596.18
661.86	563.78
662.274	562.37
662.688	602.65
663.102	574.49
663.516	554.76
663.93	529.39
664.344	530.24
664.758	555.89
665.171	549.12
665.585	524.6
665.999	538.13
666.412	515.3
666.826	526.29
667.239	532.78
667.653	533.34
668.066	543.49
668.479	534.47
668.892	524.04
669.306	524.04
669.719	499.51
670.132	536.16
670.545	531.37
670.958	503.17
671.37	509.66
671.783	496.4
672.196	515.86
672.609	496.4
673.021	505.71
673.434	508.25
673.846	510.79
674.259	522.63
674.671	479.76
675.084	498.1
675.496	503.45
675.908	526.01
676.32	489.63
676.732	479.76
677.144	483.43
677.556	494.43
677.968	460.29
678.38	486.81
678.792	488.22
679.204	495.28
679.615	498.38
680.027	471.02
680.439	507.4
680.85	470.17
681.262	489.07
681.673	480.61
682.084	477.22
682.496	461.99
682.907	495.84
683.318	477.51
683.729	475.53
684.14	485.69
684.551	486.53
684.962	459.45
685.373	448.16
685.784	471.3
686.194	512.76
686.605	464.81
687.016	470.45
687.426	456.06
687.837	455.5
688.247	478.07
688.657	481.17
689.068	465.94
689.478	483.99
689.888	440.26
690.298	472.99
690.708	465.94
691.118	473.27
691.528	476.94
691.938	465.09
692.348	434.9
692.758	457.76
693.168	463.96
693.577	421.63
693.987	460.86
694.396	430.94
694.806	472.99
695.215	486.25
695.625	458.04
696.034	432.07
696.443	430.94
696.852	412.88
697.262	451.27
697.671	428.69
698.08	429.81
698.489	441.11
698.897	452.39
699.306	440.54
699.715	437.44
700.124	419.09
700.532	430.66
700.941	426.43
701.35	435.74
701.758	443.08
702.166	438
702.575	432.07
702.983	449.01
703.391	439.98
703.799	431.79
704.208	425.58
704.616	440.26
705.024	426.43
705.432	428.4
705.839	447.03
706.247	443.08
706.655	415.42
707.063	428.97
707.47	443.65
707.878	421.06
708.285	419.93
708.693	417.39
709.1	440.26
709.508	411.18
709.915	426.99
710.322	445.62
710.729	434.05
711.136	411.75
711.543	425.3
711.95	410.05
712.357	408.36
712.764	397.63
713.171	422.47
713.578	430.94
713.984	403.84
714.391	407.51
714.797	427.27
715.204	424.73
715.61	438
716.017	429.53
716.423	404.69
716.829	415.98
717.236	422.19
717.642	399.89
718.048	422.19
718.454	408.36
718.86	397.35
719.266	425.3
719.671	409.49
720.077	397.91
720.483	398.47
720.889	426.43
721.294	415.98
721.7	414.29
722.105	432.92
722.511	412.59
722.916	395.65
723.321	430.38
723.726	403.84
724.132	410.33
724.537	410.9
724.942	426.71
725.347	430.38
725.752	392.83
726.156	411.46
726.561	403.28
726.966	388.31
727.371	429.25
727.775	429.25
728.18	445.06
728.584	425.58
728.989	412.03
729.393	410.62
729.798	433.48
730.202	431.79
730.606	418.24
731.01	429.81
731.414	404.69
731.818	413.16
732.222	377.86
732.626	417.39
733.03	436.31
733.434	392.54
733.837	408.92
734.241	394.8
734.645	400.17
735.048	423.32
735.452	421.06
735.855	405.82
736.258	389.15
736.662	406.95
737.065	421.35
737.468	436.02
737.871	425.86
738.274	403.56
738.677	413.16
739.08	424.45
739.483	424.73
739.886	401.58
740.289	403.56
740.691	393.96
741.094	427.27
741.497	389.72
741.899	427.27
742.302	424.45
742.704	427.27
743.106	386.9
743.508	413.44
743.911	411.75
744.313	397.06
744.715	415.98
745.117	389.15
745.519	405.82
745.921	409.49
746.323	396.22
746.724	398.19
747.126	391.41
747.528	403.28
747.929	403.28
748.331	382.38
748.732	390.28
749.134	420.5
749.535	395.37
749.936	417.39
750.338	426.43
750.739	426.14
751.14	380.4
751.541	414.01
751.942	426.43
752.343	411.75
752.744	395.93
753.144	389.44
753.545	421.35
753.946	373.62
754.346	386.9
754.747	383.51
755.148	392.54
755.548	420.22
755.948	392.26
756.349	370.51
756.749	406.95
757.149	399.6
757.549	386.05
757.949	424.73
758.349	396.78
758.749	375.88
759.149	380.68
759.549	399.89
759.949	402.71
760.348	395.09
760.748	395.93
761.148	409.49
761.547	409.77
761.947	389.15
762.346	401.3
762.745	381.25
763.145	379.55
763.544	383.22
763.943	408.92
764.342	409.21
764.741	412.31
765.14	400.17
765.539	395.37
765.938	388.31
766.336	377.86
766.735	400.45
767.134	400.73
767.532	386.61
767.931	406.95
768.329	407.23
768.728	381.25
769.126	401.58
769.525	397.35
769.923	374.18
770.321	386.61
770.719	413.72
771.117	403.84
771.515	377.29
771.913	400.73
772.311	411.46
772.709	408.08
773.106	414.57
773.504	389.72
773.902	408.92
774.299	414.01
774.697	366.56
775.094	416.26
775.491	398.47
775.889	399.04
776.286	379.55
776.683	377.86
777.08	403.84
777.477	391.41
777.874	415.13
778.271	393.67
778.668	388.03
779.065	373.9
779.462	406.95
779.858	420.22
780.255	406.1
780.652	371.92
781.048	402.71
781.444	424.73
781.841	395.93
782.237	388.03
782.633	375.6
783.03	392.26
783.426	388.31
783.822	384.35
784.218	404.97
784.614	401.58
785.01	403.56
785.405	400.45
785.801	381.81
786.197	400.73
786.593	399.04
786.988	367.97
787.384	374.75
787.779	399.04
788.174	407.23
788.57	381.53
788.965	388.31
789.36	377.57
789.755	361.19
790.15	373.05
790.545	391.41
790.94	388.87
791.335	397.35
791.73	383.51
792.125	365.99
792.52	378.42
792.914	395.37
793.309	381.81
793.703	394.52
794.098	400.73
794.492	379.83
794.887	384.92
795.281	408.36
795.675	393.67
796.069	400.73
796.463	387.18
796.857	424.17
797.251	404.12
797.645	388.87
798.039	377.29
798.433	363.45
798.826	379.83
799.22	384.07
799.614	394.52
800.007	400.17
800.401	391.7
800.794	378.99
801.187	367.12
801.581	399.04
801.974	403.56
802.367	373.34
802.76	374.47
803.153	392.54
803.546	396.22
803.939	410.05
804.332	399.32
804.725	411.46
805.117	380.12
805.51	402.43
805.903	391.13
806.295	386.61
806.688	396.22
807.08	391.13
807.472	383.79
807.865	397.91
808.257	388.31
808.649	388.87
809.041	399.89
809.433	384.07
809.825	392.54
810.217	390
810.609	415.7
811.001	397.35
811.392	373.9
811.784	376.73
812.175	384.07
812.567	397.91
812.958	370.23
813.35	409.21
813.741	400.73
814.132	371.08
814.524	396.22
814.915	389.72
815.306	390.57
815.697	389.44
816.088	360.62
816.479	385.48
816.87	372.49
817.26	366.84
817.651	411.75
818.042	407.23
818.432	368.82
818.823	384.64
819.213	394.52
819.604	385.77
819.994	389.15
820.384	384.92
820.775	391.41
821.165	404.4
821.555	389.72
821.945	426.43
822.335	384.92
822.725	392.54
823.114	408.64
823.504	387.46
823.894	379.55
824.284	388.31
824.673	383.51
825.063	402.43
825.452	393.39
825.842	412.03
826.231	402.15
826.62	388.59
827.009	384.64
827.399	383.79
827.788	394.8
828.177	382.66
828.566	385.48
828.954	378.7
829.343	366.27
829.732	390
830.121	364.3
830.509	365.14
830.898	386.33
831.286	383.22
831.675	366.56
832.063	393.67
832.452	373.62
832.84	358.93
833.228	377.01
833.616	382.38
834.004	380.4
834.392	379.55
834.78	399.89
835.168	371.64
835.556	394.8
835.944	381.25
836.331	405.82
836.719	396.5
837.107	395.65
837.494	425.86
837.881	371.92
838.269	390.57
838.656	386.33
839.043	423.89
839.431	400.45
839.818	385.2
840.205	379.55
840.592	374.18
840.979	390.57
841.366	372.21
841.752	395.93
842.139	394.24
842.526	396.22
842.912	375.6
843.299	378.7
843.685	411.18
844.072	384.92
844.458	395.09
844.844	399.32
845.231	369.66
845.617	363.17
846.003	385.77
846.389	384.07
846.775	396.22
847.161	389.44
847.547	377.01
847.933	355.82
848.318	375.88
848.704	381.81
849.09	379.55
849.475	401.58
849.861	383.79
850.246	394.8
850.631	408.92
851.017	386.9
851.402	396.78
851.787	378.99
852.172	410.62
852.557	385.2
852.942	362.88
853.327	374.75
853.712	397.91
854.097	410.62
854.481	399.04
854.866	375.6
855.25	388.03
855.635	394.8
856.019	390.28
856.404	394.8
856.788	338.58
857.172	402.71
857.557	401.86
857.941	370.51
858.325	375.6
858.709	380.4
859.093	393.96
859.477	395.93
859.86	380.12
860.244	377.01
860.628	390.57
861.012	382.94
861.395	380.12
861.779	378.42
862.162	368.25
862.545	364.86
862.929	405.82
863.312	371.08
863.695	379.83
864.078	381.25
864.461	386.05
864.844	396.78
865.227	342.82
865.61	373.62
865.993	371.64
866.376	366.56
866.758	367.4
867.141	378.7
867.523	394.24
867.906	367.97
868.288	403.28
868.671	396.78
869.053	374.47
869.435	396.78
869.817	396.5
870.199	358.65
870.581	378.14
870.963	408.08
871.345	382.94
871.727	375.31
872.109	375.03
872.491	375.03
872.872	393.67
873.254	373.62
873.635	373.05
874.017	420.5
874.398	381.81
874.779	393.39
875.161	362.88
875.542	384.64
875.923	384.92
876.304	380.96
876.685	372.21
877.066	382.38
877.447	386.33
877.828	377.29
878.208	384.64
878.589	374.75
878.97	373.62
879.35	386.9
879.731	374.18
880.111	378.7
880.491	364.3
880.872	387.18
881.252	373.9
881.632	359.21
882.012	372.21
882.392	340.56
882.772	362.6
883.152	408.64
883.532	397.35
883.912	395.65
884.291	373.62
884.671	379.83
885.051	393.96
885.43	381.25
885.81	375.03
886.189	380.96
886.568	345.36
886.948	383.51
887.327	393.11
887.706	366.84
888.085	377.01
888.464	383.22
888.843	393.96
889.222	401.3
889.601	384.64
889.979	403.56
890.358	395.37
890.737	390
891.115	365.71
891.494	377.86
891.872	359.78
892.25	389.72
892.629	375.31
893.007	395.09
893.385	377.01
893.763	378.42
894.141	367.69
894.519	362.32
894.897	369.95
895.275	374.18
895.653	363.17
896.03	374.18
896.408	388.59
896.786	370.51
897.163	396.22
897.541	381.53
897.918	364.86
898.295	394.52
898.673	385.77
899.05	389.15
899.427	376.44
899.804	362.32
900.181	388.03
900.558	383.51
900.935	376.73
901.312	373.34
901.688	377.86
902.065	352.99
902.442	385.77
902.818	374.75
903.195	375.88
903.571	393.67
903.947	389.72
904.324	394.24
904.7	391.41
905.076	378.14
905.452	387.74
905.828	378.42
906.204	397.35
906.58	391.7
906.956	391.41
907.331	395.09
907.707	352.15
908.083	364.3
908.458	346.49
908.834	351.3
909.209	394.8
909.585	377.01
909.96	362.32
910.335	372.49
910.71	370.23
911.086	387.46
911.461	378.42
911.836	366.84
912.21	375.03
912.585	378.99
912.96	374.75
913.335	377.86
913.709	356.95
914.084	367.4
914.459	390.57
914.833	361.19
915.207	354.97
915.582	362.32
915.956	382.09
916.33	327.84
916.704	376.44
917.078	379.55
917.452	412.03
917.826	375.88
918.2	382.38
918.574	375.03
918.948	382.66
919.321	381.25
919.695	387.46
920.068	366.84
920.442	361.75
920.815	390
921.189	380.4
921.562	371.36
921.935	382.09
922.308	378.14
922.681	389.15
923.054	378.99
923.427	390.57
923.8	366.84
924.173	393.39
924.546	412.59
924.919	368.53
925.291	351.86
925.664	380.4
926.036	374.75
926.409	396.22
926.781	378.42
927.153	378.7
927.526	365.71
927.898	387.18
928.27	374.75
928.642	374.47
929.014	362.6
929.386	376.44
929.758	379.27
930.129	381.53
930.501	387.18
930.873	390.28
931.244	381.25
931.616	380.96
931.987	379.55
932.359	384.64
932.73	379.83
933.101	359.49
933.472	365.99
933.843	351.58
934.214	370.23
934.585	382.94
934.956	383.51
935.327	388.31
935.698	357.23
936.069	362.04
936.439	393.96
936.81	385.2
937.18	391.98
937.551	381.53
937.921	375.03
938.292	375.6
938.662	365.71
939.032	386.33
939.402	364.3
939.772	369.66
940.142	369.66
940.512	357.8
940.882	387.74
941.252	378.99
941.621	404.69
941.991	392.83
942.361	380.4
942.73	361.19
943.1	358.65
943.469	355.54
943.838	381.81
944.208	377.57
944.577	370.79
944.946	362.04
945.315	375.88
945.684	371.92
946.053	391.7
946.422	392.26
946.791	388.87
947.159	384.35
947.528	362.32
947.897	370.23
948.265	374.47
948.634	384.07
949.002	370.79
949.371	376.73
949.739	367.97
950.107	384.92
950.475	377.86
950.843	384.92
951.211	389.15
951.579	384.92
951.947	376.16
952.315	361.47
952.683	367.97
953.05	358.93
953.418	381.53
953.785	374.18
954.153	382.94
954.52	373.62
954.888	367.97
955.255	366.84
955.622	382.09
955.989	360.62
956.356	371.64
956.723	333.78
957.09	369.1
957.457	391.13
957.824	377.86
958.191	382.66
958.557	358.93
958.924	358.36
959.291	350.73
959.657	366.56
960.023	385.2
960.39	368.53
960.756	373.62
961.122	373.34
961.488	367.12
961.855	358.36
962.221	370.51
962.586	348.76
962.952	390.57
963.318	378.99
963.684	395.09
964.05	371.36
964.415	378.42
964.781	373.9
965.146	368.53
965.512	361.47
965.877	384.35
966.242	371.92
966.608	372.49
966.973	371.64
967.338	383.51
967.703	365.43
968.068	374.47
968.433	374.47
968.797	371.64
969.162	378.7
969.527	397.63
969.891	384.92
970.256	379.27
970.62	362.6
970.985	377.57
971.349	354.97
971.714	366.84
972.078	349.32
972.442	394.52
972.806	376.16
973.17	372.49
973.534	377.01
973.898	378.42
974.262	375.88
974.625	372.21
974.989	373.34
975.353	387.46
975.716	360.91
976.08	366.84
976.443	382.66
976.806	366.27
977.17	404.4
977.533	417.68
977.896	364.3
978.259	364.01
978.622	378.14
978.985	369.66
979.348	363.45
979.711	376.16
980.073	370.23
980.436	379.27
980.799	364.3
981.161	367.97
981.524	390
981.886	392.83
982.248	386.61
982.611	371.08
982.973	365.71
983.335	372.77
983.697	387.74
984.059	351.3
984.421	363.73
984.783	378.99
985.145	336.04
985.506	371.36
985.868	350.73
986.23	369.95
986.591	377.57
986.953	380.12
987.314	361.19
987.675	358.08
988.037	527.7
988.398	379.27
988.759	354.41
989.12	345.93
989.481	373.62
989.842	373.34
990.203	362.32
990.564	347.34
990.924	377.01
991.285	477.22
991.646	376.16
992.006	343.95
992.367	386.61
992.727	381.81
993.087	360.06
993.448	356.95
993.808	360.62
994.168	377.57
994.528	370.79
994.888	384.92
995.248	342.82
995.608	365.99
995.967	364.86
996.327	381.53
996.687	390.85
997.046	364.01
997.406	383.79
997.765	349.04
998.125	367.4
998.484	342.26
998.843	356.39
999.202	373.9
999.561	389.44
999.92	334.34
1000.279	347.91
1000.638	348.76
1000.997	358.65
1001.356	364.86
1001.715	379.55
1002.073	368.53
1002.432	365.43
1002.79	350.45
1003.149	358.65
1003.507	370.51
1003.865	369.38
1004.224	386.33
1004.582	357.8
1004.94	377.29
1005.298	350.45
1005.656	364.58
1006.014	356.1
1006.371	366.56
1006.729	389.44
1007.087	359.21
1007.445	359.21
1007.802	347.06
1008.16	357.8
1008.517	393.96
1008.874	381.53
1009.232	387.18
1009.589	381.81
1009.946	358.08
1010.303	354.97
1010.66	371.08
1011.017	396.5
1011.374	368.53
1011.731	372.77
1012.087	365.14
1012.444	348.47
1012.801	347.06
1013.157	386.33
1013.513	361.19
1013.87	364.86
1014.226	372.21
1014.582	379.83
1014.939	388.03
1015.295	368.53
1015.651	391.7
1016.007	409.49
1016.363	382.94
1016.719	400.73
1017.074	345.36
1017.43	367.12
1017.786	383.51
1018.141	365.71
1018.497	358.93
1018.852	373.05
1019.208	367.4
1019.563	359.49
1019.918	376.16
1020.273	371.64
1020.628	368.25
1020.983	361.47
1021.338	375.6
1021.693	385.77
1022.048	406.95
1022.403	384.92
1022.757	374.75
1023.112	386.9
1023.467	379.83
1023.821	362.88
1024.175	354.69
1024.53	384.92
1024.884	361.47
1025.238	385.48
1025.592	365.99
1025.946	357.23
1026.3	364.86
1026.654	379.55
1027.008	374.18
1027.362	379.27
1027.716	357.52
1028.069	375.03
1028.423	346.78
1028.777	404.69
1029.13	369.66
1029.483	364.58
1029.837	379.55
1030.19	364.86
1030.543	347.34
1030.896	382.38
1031.249	378.14
1031.602	379.27
1031.955	362.88
1032.308	388.31
1032.661	373.34
1033.013	369.38
1033.366	339.99
1033.719	375.6
1034.071	373.34
1034.424	393.96
1034.776	382.66
1035.128	368.25
1035.48	386.05
1035.833	376.73
1036.185	381.25
1036.537	381.25
1036.889	381.25
