Data from SCSF78-405_irradiation_FLMS019251_23-26-27-876.txt Node
Date: Fri Feb 22 23:26:27 PST 2019
User: mu3e
Spectrometer: FLMS01925
Trigger mode: 0
Integration Time (sec): 1.206000E-2
Scans to average: 10
Electric dark correction enabled: true
Nonlinearity correction enabled: true
Boxcar width: 0
XAxis mode: Wavelengths
Number of Pixels in Spectrum: 2048
>>>>>Begin Spectral Data<<<<<
187.103	-77.52
187.574	-77.52
188.045	-77.52
188.516	-126.99
188.987	-145.48
189.458	-124.43
189.929	-135.23
190.4	-113.9
190.871	-103.95
191.342	-94.86
191.813	-70.41
192.284	-39.44
192.754	17.92
193.225	-8.48
193.696	22.75
194.166	59.35
194.637	71.55
195.107	102.18
195.578	120.6
196.048	161.69
196.518	133.64
196.989	175.29
197.459	192.57
197.929	249.18
198.399	269.27
198.869	294.16
199.339	293.59
199.809	317.06
200.279	350.42
200.749	317.06
201.219	323
201.689	360.87
202.159	358.33
202.628	383.75
203.098	386.01
203.568	383.47
204.037	400.13
204.507	395.33
204.976	385.17
205.445	390.81
205.915	380.65
206.384	402.68
206.853	421.59
207.323	414.82
207.792	387.14
208.261	383.47
208.73	376.13
209.199	389.97
209.668	361.15
210.137	386.01
210.606	393.36
211.075	370.19
211.543	373.58
212.012	354.37
212.481	375.56
212.95	359.46
213.418	370.19
213.887	378.67
214.355	351.83
214.824	354.37
215.292	368.78
215.76	358.33
216.229	363.13
216.697	342.22
217.165	349.85
217.633	370.19
218.101	358.33
218.569	347.02
219.037	366.8
219.505	353.52
219.973	358.33
220.441	357.76
220.909	360.31
221.377	331.48
221.844	325.83
222.312	330.35
222.78	339.11
223.247	339.39
223.715	324.13
224.182	372.45
224.65	335.72
225.117	338.83
225.584	365.11
226.052	337.42
226.519	383.19
226.986	364.26
227.453	345.05
227.92	334.02
228.387	366.24
228.854	353.52
229.321	321.87
229.788	366.8
230.255	326.96
230.722	350.13
231.189	376.13
231.655	357.2
232.122	372.45
232.589	367.09
233.055	382.62
233.522	355.78
233.988	360.87
234.454	336.57
234.921	355.5
235.387	352.96
235.853	369.35
236.32	377.26
236.786	367.93
237.252	376.97
237.718	377.54
238.184	349
238.65	353.24
239.116	375.56
239.582	357.2
240.047	367.09
240.513	351.26
240.979	378.95
241.445	352.68
241.91	367.37
242.376	348.72
242.841	370.48
243.307	397.59
243.772	344.76
244.238	354.09
244.703	360.59
245.168	373.02
245.633	384.6
246.099	381.78
246.564	344.76
247.029	384.88
247.494	358.33
247.959	367.93
248.424	386.58
248.889	378.39
249.353	361.72
249.818	358.89
250.283	374.71
250.748	398.16
251.212	333.46
251.677	360.59
252.141	393.36
252.606	374.15
253.07	388.84
253.535	378.67
253.999	393.64
254.463	377.26
254.927	392.23
255.392	373.87
255.856	364.83
256.32	377.54
256.784	347.87
257.248	352.11
257.712	366.8
258.176	384.6
258.64	385.73
259.103	378.1
259.567	356.91
260.031	375.56
260.495	382.06
260.958	379.8
261.422	391.38
261.885	388.55
262.349	343.07
262.812	387.99
263.275	391.94
263.739	352.96
264.202	371.32
264.665	350.42
265.128	364.26
265.591	373.87
266.054	375
266.517	382.91
266.98	384.04
267.443	378.1
267.906	355.22
268.369	401.55
268.832	356.63
269.294	382.91
269.757	386.86
270.22	389.68
270.682	395.33
271.145	399
271.607	384.04
272.07	412.56
272.532	372.17
272.994	385.73
273.456	398.72
273.919	364.54
274.381	375.84
274.843	413.12
275.305	387.42
275.767	391.66
276.229	384.32
276.691	378.95
277.153	393.64
277.614	382.62
278.076	371.04
278.538	384.04
279	375
279.461	388.55
279.923	365.96
280.384	382.06
280.846	378.39
281.307	395.62
281.769	386.86
282.23	382.06
282.691	376.97
283.152	379.52
283.613	382.62
284.075	384.32
284.536	393.36
284.997	402.39
285.458	407.48
285.918	374.43
286.379	390.25
286.84	382.91
287.301	401.83
287.762	394.77
288.222	377.26
288.683	384.6
289.143	406.91
289.604	378.39
290.064	386.86
290.525	378.67
290.985	373.87
291.445	417.64
291.906	374.71
292.366	385.45
292.826	382.34
293.286	395.33
293.746	372.17
294.206	411.71
294.666	383.75
295.126	405.5
295.586	390.25
296.046	401.83
296.506	376.41
296.965	403.52
297.425	397.87
297.884	414.53
298.344	381.78
298.804	388.27
299.263	402.96
299.722	418.49
300.182	390.81
300.641	389.12
301.1	381.78
301.559	372.45
302.019	403.24
302.478	393.36
302.937	393.92
303.396	413.69
303.855	389.97
304.314	397.59
304.772	409.17
305.231	397.03
305.69	381.78
306.149	386.86
306.607	408.61
307.066	395.62
307.524	386.86
307.983	383.75
308.441	397.31
308.9	404.93
309.358	392.23
309.816	395.9
310.275	365.67
310.733	393.92
311.191	412.28
311.649	417.64
312.107	377.26
312.565	394.49
313.023	403.8
313.481	395.05
313.939	396.46
314.397	373.02
314.854	422.44
315.312	390.53
315.77	387.99
316.227	391.66
316.685	391.66
317.142	390.53
317.6	417.92
318.057	426.39
318.514	397.59
318.972	411.71
319.429	380.08
319.886	393.92
320.343	393.36
320.8	394.2
321.257	396.46
321.714	411.15
322.171	394.49
322.628	396.75
323.085	408.04
323.542	411.43
323.998	382.06
324.455	430.63
324.912	414.82
325.368	434.58
325.825	432.32
326.281	421.59
326.738	399.29
327.194	410.86
327.65	386.01
328.107	399
328.563	430.63
329.019	424.7
329.475	416.79
329.931	398.44
330.387	410.3
330.843	385.73
331.299	403.52
331.755	396.75
332.211	397.87
332.666	409.73
333.122	409.17
333.578	400.98
334.033	421.31
334.489	402.68
334.944	400.42
335.4	428.09
335.855	398.16
336.31	402.11
336.766	414.25
337.221	381.21
337.676	413.41
338.131	383.19
338.586	404.37
339.041	402.96
339.496	399.57
339.951	407.76
340.406	396.18
340.861	400.42
341.316	415.66
341.771	401.55
342.225	428.37
342.68	394.77
343.134	397.03
343.589	397.87
344.043	388.84
344.498	399.57
344.952	406.63
345.406	402.68
345.861	414.53
346.315	395.9
346.769	397.87
347.223	376.13
347.677	401.55
348.131	403.24
348.585	392.51
349.039	396.75
349.493	398.16
349.947	428.09
350.401	412.28
350.854	400.13
351.308	408.32
351.762	419.9
352.215	391.66
352.669	416.79
353.122	424.7
353.575	400.98
354.029	408.61
354.482	424.42
354.935	413.12
355.388	416.51
355.842	409.17
356.295	413.97
356.748	424.42
357.201	407.76
357.654	400.42
358.106	376.97
358.559	430.91
359.012	409.17
359.465	407.76
359.917	441.63
360.37	390.53
360.823	422.72
361.275	406.63
361.728	387.14
362.18	394.2
362.632	411.15
363.085	414.25
363.537	424.98
363.989	431.19
364.441	423.85
364.893	440.22
365.345	424.7
365.797	419.05
366.249	389.97
366.701	421.88
367.153	421.03
367.605	419.05
368.057	417.92
368.508	413.97
368.96	402.39
369.411	415.38
369.863	407.19
370.314	415.1
370.766	417.08
371.217	407.19
371.669	409.45
372.12	404.09
372.571	428.65
373.022	400.98
373.473	427.24
373.924	424.98
374.375	391.38
374.826	428.09
375.277	418.77
375.728	432.88
376.179	407.76
376.63	430.34
377.08	391.1
377.531	417.64
377.981	433.73
378.432	422.72
378.883	409.73
379.333	431.19
379.783	404.37
380.234	407.48
380.684	403.8
381.134	417.92
381.584	419.62
382.034	411.71
382.485	414.53
382.935	407.19
383.385	430.34
383.834	422.72
384.284	391.94
384.734	423.29
385.184	412.84
385.634	410.3
386.083	434.3
386.533	410.86
386.982	419.05
387.432	411.43
387.881	429.78
388.331	407.76
388.78	441.63
389.229	418.2
389.679	424.42
390.128	416.79
390.577	421.03
391.026	443.33
391.475	454.33
391.924	429.21
392.373	407.76
392.822	402.11
393.27	430.34
393.719	420.46
394.168	406.63
394.617	433.45
395.065	411.99
395.514	426.67
395.962	419.9
396.411	430.06
396.859	423.85
397.307	445.3
397.756	422.72
398.204	423
398.652	447
399.1	428.93
399.548	443.05
399.996	437.68
400.444	439.38
400.892	448.13
401.34	430.06
401.788	414.25
402.236	451.23
402.683	474.08
403.131	451.79
403.579	432.32
404.026	438.81
404.474	464.49
404.921	425.26
405.369	443.61
405.816	473.8
406.263	473.8
406.71	444.46
407.158	473.24
407.605	462.52
408.052	485.37
408.499	480.57
408.946	480.01
409.393	481.98
409.84	485.37
410.286	489.32
410.733	527.95
411.18	553.6
411.626	575.58
412.073	604.87
412.52	654.14
412.966	753.98
413.413	882.6
413.859	1058.61
414.305	1209.63
414.752	1513.01
415.198	1826.3
415.644	2201.28
416.09	2626.42
416.536	3210.37
416.982	3837.49
417.428	4483.16
417.874	5288.6
418.32	6048.62
418.766	6871.59
419.211	7893.13
419.657	8745.69
420.103	9891.64
420.548	10715.67
420.994	11926.25
421.439	12961.21
421.885	13904.29
422.33	15289.88
422.776	16289.53
423.221	17255.05
423.666	18476.4
424.111	19686.5
424.556	20561.26
425.001	21892.28
425.446	23228.65
425.891	24363.03
426.336	25220.13
426.781	26360.83
427.226	28367.63
427.671	28954.63
428.115	29816.6
428.56	31406.15
429.005	32885.84
429.449	33239.86
429.894	34547.7
430.338	35621.88
430.782	35723.5
431.227	37150.7
431.671	37574.67
432.115	38955.43
432.559	39816.82
433.003	39622.03
433.447	40450.94
433.891	40738.31
434.335	41231.22
434.779	41987.51
435.223	42168.9
435.667	42248.6
436.111	42772.8
436.554	42742.7
436.998	42248.6
437.442	42180.32
437.885	44195.72
438.328	42770.31
438.772	43001.07
439.215	43541.66
439.659	43290.65
440.102	43480
440.545	42903.71
440.988	42676.28
441.431	43592.09
441.874	43091.5
442.317	43508.21
442.76	42895
443.203	42264.49
443.646	42905.21
444.089	42586.01
444.531	43170.99
444.974	42007.6
445.417	43050.89
445.859	42132.91
446.302	43293.65
446.744	42417.74
447.186	43497.97
447.629	42544.49
448.071	42619.83
448.513	42710.85
448.956	44065.8
449.398	43254.25
449.84	42119.01
450.282	42764.59
450.724	43221.84
451.166	42938.82
451.607	42893.26
452.049	42836.26
452.491	44020.26
452.933	43363.48
453.374	44085.57
453.816	44490.69
454.257	44065.8
454.699	45073.43
455.14	44814.49
455.582	44695.45
456.023	44572.21
456.464	44845.89
456.905	45159.24
457.347	45228.73
457.788	44198.73
458.229	44362.07
458.67	45345.35
459.111	43647.78
459.552	43702.24
459.992	43481.75
460.433	43440.07
460.874	42343.71
461.315	43578.11
461.755	42508.2
462.196	42229.23
462.636	41433.41
463.077	41193.12
463.517	41231.22
463.957	41518.09
464.398	41169.13
464.838	41289.12
465.278	40135.21
465.718	40507.45
466.158	39518.15
466.598	39753.52
467.038	39353.53
467.478	39856.23
467.918	40013.93
468.358	39221.44
468.798	38921.51
469.237	38787.85
469.677	38867.94
470.117	39508.06
470.556	37331.66
470.996	37762.88
471.435	37998.25
471.874	38544.71
472.314	38364.28
472.753	37443.35
473.192	37571.97
473.631	37253.78
474.07	37568.05
474.509	37479.61
474.948	37713.61
475.387	37040.78
475.826	36269.47
476.265	37709.69
476.704	37414.2
477.143	37637.64
477.581	37300.56
478.02	37966.61
478.458	36855.02
478.897	37282.92
479.335	38377.53
479.774	37833.23
480.212	38070.6
480.65	37916.1
481.089	37805.04
481.527	37207.99
481.965	36888.06
482.403	38700.65
482.841	38353.48
483.279	38325.5
483.717	38370.91
484.155	37906.29
484.592	38425.89
485.03	38502.48
485.468	37565.6
485.905	37758.47
486.343	38100.52
486.781	37716.8
487.218	37157.31
487.655	36984.97
488.093	36318.12
488.53	37563.89
488.967	36766.93
489.405	36637.03
489.842	35866.92
490.279	35874.98
490.716	35421.11
491.153	35885
491.59	35405.48
492.027	34697.77
492.463	34416.91
492.9	33660.02
493.337	33569.54
493.773	33540.77
494.21	32837.56
494.647	32889.49
495.083	31924.52
495.519	31716.06
495.956	31715.81
496.392	31085.47
496.828	30824.27
497.265	30157.53
497.701	30365.17
498.137	30076.27
498.573	29192.78
499.009	29705.29
499.445	28882.31
499.881	28491.32
500.316	28669.98
500.752	27910.34
501.188	27736.64
501.624	27743.74
502.059	26531.47
502.495	26423.11
502.93	26276.47
503.366	26520.44
503.801	25866.25
504.236	25731.74
504.672	25253.31
505.107	24995.98
505.542	24477.97
505.977	24568.28
506.412	24031.11
506.847	24382.23
507.282	23833.52
507.717	23580.37
508.152	23564.59
508.587	23349.54
509.021	22571.34
509.456	22430.72
509.891	22431.22
510.325	22291.54
510.76	22011.06
511.194	21763.57
511.628	21876.69
512.063	21166.31
512.497	21392.58
512.931	20808.2
513.366	20663.53
513.8	20608.42
514.234	20062.72
514.668	20001.08
515.102	20243.13
515.536	19462.04
515.969	19623.56
516.403	19283.04
516.837	18939.49
517.271	18926.28
517.704	18597.15
518.138	18417.01
518.571	18354.86
519.005	17937.05
519.438	17907.57
519.871	17739.85
520.305	17387.94
520.738	17276.82
521.171	16820.48
521.604	17006.39
522.037	16754.56
522.47	16449.13
522.903	16216.49
523.336	16100.23
523.769	15972.64
524.202	15609.43
524.634	15536.49
525.067	15364.39
525.5	15135.03
525.932	15060.47
526.365	14641.51
526.797	14601.66
527.23	14642.52
527.662	14061.54
528.094	13962.44
528.527	13948.54
528.959	13718.87
529.391	13406.43
529.823	13090.09
530.255	13022.1
530.687	12761.42
531.119	12511.15
531.551	12537.33
531.982	12171.02
532.414	12006.25
532.846	11757.48
533.277	11673.81
533.709	11417
534.14	11290.52
534.572	11214.85
535.003	11074.18
535.435	10799.21
535.866	10707.47
536.297	10453.8
536.728	10483.06
537.159	10320.04
537.59	10130.91
538.022	10002.05
538.452	9826.24
538.883	9629.87
539.314	9514.07
539.745	9343.17
540.176	9247.84
540.606	8977.04
541.037	9035.27
541.468	8798.83
541.898	8722.1
542.328	8665.82
542.759	8450.37
543.189	8399.71
543.619	8308.99
544.05	8063.32
544.48	8062.28
544.91	7906.69
545.34	7814.87
545.77	7643.33
546.2	7627.65
546.63	7499.29
547.06	7391.75
547.489	7297.21
547.919	7046
548.349	7123.67
548.778	7086.42
549.208	6931.24
549.637	6800.6
550.067	6677.97
550.496	6756.14
550.926	6609.76
551.355	6450.28
551.784	6470.85
552.213	6334.95
552.642	6235.35
553.071	6180.37
553.5	6040.15
553.929	5950.89
554.358	6000.16
554.787	5866.6
555.216	5844.06
555.645	5717.48
556.073	5633.28
556.502	5582.78
556.93	5477.71
557.359	5382.13
557.787	5339.77
558.216	5314.99
558.644	5255.53
559.072	5164.55
559.5	5083.9
559.929	5089.25
560.357	5076.69
560.785	4994.64
561.213	4984.75
561.641	4883.35
562.068	4869.43
562.496	4841.05
562.924	4741.11
563.352	4742.18
563.779	4703.58
564.207	4719.13
564.634	4654.22
565.062	4637.85
565.489	4569.94
565.917	4559.46
566.344	4491.22
566.771	4469.72
567.198	4461.93
567.625	4341.41
568.053	4280.02
568.48	4273.55
568.907	4272.75
569.333	4150.1
569.76	4015.68
570.187	4067.26
570.614	3978.39
571.04	4145.24
571.467	3842.37
571.894	3867.53
572.32	3747.32
572.747	3679.03
573.173	3639.43
573.599	3561.01
574.026	3466.48
574.452	3477.08
574.878	3433.32
575.304	3306.8
575.73	3290.74
576.156	3189.65
576.582	3196.74
577.008	3137.29
577.434	3076.7
577.86	3005.96
578.285	3002.41
578.711	2926.69
579.137	2875.81
579.562	2801.89
579.988	2799.15
580.413	2777.79
580.838	2713.11
581.264	2703.78
581.689	2678
582.114	2614.62
582.539	2614.89
582.964	2553.66
583.39	2481.65
583.814	2451.13
584.239	2428.57
584.664	2445.9
585.089	2368.85
585.514	2330.85
585.939	2296.41
586.363	2259.2
586.788	2295.3
587.212	2221.14
587.637	2173.41
588.061	2137.8
588.485	2127.03
588.91	2100.79
589.334	2080.07
589.758	2044.14
590.182	2023.69
590.606	1994.37
591.03	1964.49
591.454	1895.01
591.878	1931.28
592.302	1873.4
592.726	1868.7
593.15	1870.91
593.573	1828.51
593.997	1781.66
594.42	1768.62
594.844	1793.58
595.267	1733.66
595.691	1710.07
596.114	1678.69
596.537	1662.59
596.96	1643.7
597.384	1658.7
597.807	1629.25
598.23	1612.57
598.653	1590.33
599.076	1567.81
599.499	1578.1
599.921	1577.27
600.344	1527.75
600.767	1526.36
601.189	1549.45
601.612	1526.92
602.034	1518.02
602.457	1483.78
602.879	1449.81
603.302	1478.21
603.724	1451.76
604.146	1450.92
604.568	1432.82
604.991	1438.94
605.413	1448.14
605.835	1428.08
606.257	1447.86
606.678	1416.93
607.1	1421.39
607.522	1394.64
607.944	1399.66
608.365	1392.13
608.787	1372.34
609.209	1324.09
609.63	1326.04
610.051	1341.11
610.473	1343.9
610.894	1295.07
611.315	1295.91
611.737	1268
612.158	1245.94
612.579	1233.09
613	1221.92
613.421	1213.26
613.842	1211.86
614.263	1165.75
614.683	1178.61
615.104	1153.17
615.525	1156.25
615.945	1143.94
616.366	1143.38
616.787	1121.85
617.207	1080.72
617.627	1059.73
618.048	1071.21
618.468	1063.65
618.888	1053.01
619.308	1039.85
619.728	1018.29
620.148	1028.37
620.568	1028.65
620.988	996.72
621.408	997.84
621.828	953.84
622.248	951.04
622.668	938.7
623.087	961.41
623.507	953.28
623.926	933.37
624.346	919.91
624.765	888.5
625.185	900.84
625.604	919.07
626.023	921.31
626.442	907.57
626.861	863.52
627.28	860.71
627.699	848.36
628.118	862.12
628.537	860.99
628.956	814.39
629.375	826.18
629.794	846.4
630.212	827.59
630.631	832.64
631.049	802.31
631.468	811.86
631.886	778.15
632.305	791.08
632.723	790.79
633.141	771.41
633.559	778.99
633.978	743.87
634.396	726.72
634.814	755.67
635.232	741.05
635.65	754.27
636.067	725.59
636.485	739.65
636.903	706.75
637.321	729.81
637.738	743.3
638.156	698.31
638.573	705.91
638.991	686.22
639.408	713.5
639.825	690.44
640.243	675.24
640.66	656.95
641.077	673.28
641.494	656.39
641.911	701.13
642.328	667.65
642.745	633.59
643.162	676.37
643.579	644.29
643.995	647.67
644.412	639.5
644.829	634.44
645.245	667.37
645.662	618.95
646.078	609.94
646.495	648.23
646.911	590.23
647.327	616.98
647.743	602.06
648.159	607.12
648.576	612.48
648.992	587.97
649.408	613.32
649.824	617.26
650.239	604.31
650.655	598.68
651.071	612.76
651.487	600.65
651.902	600.37
652.318	574.17
652.733	563.74
653.149	589.38
653.564	585.72
653.979	559.23
654.395	579.24
654.81	590.23
655.225	568.25
655.64	568.53
656.055	573.04
656.47	568.82
656.885	560.64
657.3	536.97
657.715	551.06
658.13	535.84
658.544	545.99
658.959	532.74
659.374	531.9
659.788	533.59
660.202	523.44
660.617	548.53
661.031	529.64
661.445	520.9
661.86	543.45
662.274	541.2
662.688	517.52
663.102	519.49
663.516	526.82
663.93	527.95
664.344	548.81
664.758	514.98
665.171	514.13
665.585	528.51
665.999	520.62
666.412	514.42
666.826	506.24
667.239	496.37
667.653	515.54
668.066	543.45
668.479	507.65
668.892	513.85
669.306	532.18
669.719	508.49
670.132	495.8
670.545	518.08
670.958	459.7
671.37	513.57
671.783	503.7
672.196	485.37
672.609	505.11
673.021	487.06
673.434	492.98
673.846	511.6
674.259	467.31
674.671	502.57
675.084	471.55
675.496	464.49
675.908	489.32
676.32	474.37
676.732	462.52
677.144	487.34
677.556	494.11
677.968	509.9
678.38	473.24
678.792	481.42
679.204	452.92
679.615	464.77
680.027	522.03
680.439	470.7
680.85	453.21
681.262	476.91
681.673	473.24
682.084	464.49
682.496	473.52
682.907	477.47
683.318	462.52
683.729	456.87
684.14	429.78
684.551	470.42
684.962	450.95
685.373	456.31
685.784	490.45
686.194	459.98
686.605	447.84
687.016	462.52
687.426	451.79
687.837	441.35
688.247	413.41
688.657	443.33
689.068	449.54
689.478	442.48
689.888	463.93
690.298	480.01
690.708	465.62
691.118	433.73
691.528	438.25
691.938	465.06
692.348	434.01
692.758	454.33
693.168	471.83
693.577	435.99
693.987	433.45
694.396	437.68
694.806	421.59
695.215	435.99
695.625	404.37
696.034	449.25
696.443	405.22
696.852	452.08
697.262	434.86
697.671	428.65
698.08	417.64
698.489	422.72
698.897	428.37
699.306	435.42
699.715	443.33
700.124	428.37
700.532	445.59
700.941	415.66
701.35	421.03
701.758	425.55
702.166	425.83
702.575	450.38
702.983	428.09
703.391	433.45
703.799	442.48
704.208	423.29
704.616	427.52
705.024	412.28
705.432	439.09
705.839	424.42
706.247	428.37
706.655	400.7
707.063	423
707.47	424.98
707.878	427.24
708.285	439.66
708.693	412.56
709.1	432.6
709.508	398.16
709.915	407.76
710.322	440.51
710.729	411.99
711.136	408.89
711.543	419.62
711.95	408.04
712.357	406.91
712.764	423.57
713.171	386.01
713.578	397.31
713.984	408.04
714.391	428.09
714.797	446.43
715.204	418.77
715.61	407.76
716.017	393.92
716.423	417.36
716.829	410.58
717.236	404.09
717.642	435.99
718.048	408.04
718.454	382.06
718.86	405.22
719.266	417.36
719.671	414.82
720.077	421.88
720.483	387.42
720.889	412.28
721.294	391.1
721.7	420.75
722.105	428.09
722.511	411.15
722.916	418.77
723.321	407.48
723.726	387.99
724.132	403.24
724.537	409.45
724.942	416.79
725.347	397.87
725.752	373.3
726.156	381.21
726.561	409.45
726.966	406.35
727.371	397.59
727.775	405.22
728.18	413.69
728.584	382.34
728.989	410.3
729.393	395.9
729.798	424.98
730.202	387.71
730.606	408.32
731.01	398.72
731.414	394.49
731.818	394.49
732.222	408.61
732.626	386.86
733.03	398.44
733.434	409.17
733.837	416.79
734.241	423.29
734.645	398.16
735.048	396.46
735.452	408.04
735.855	396.75
736.258	407.76
736.662	405.78
737.065	415.1
737.468	411.15
737.871	419.05
738.274	428.93
738.677	428.93
739.08	392.51
739.483	403.24
739.886	390.53
740.289	400.42
740.691	378.1
741.094	389.4
741.497	384.32
741.899	381.21
742.302	395.33
742.704	398.16
743.106	388.55
743.508	389.4
743.911	387.99
744.313	411.15
744.715	427.24
745.117	397.59
745.519	393.07
745.921	417.64
746.323	397.59
746.724	410.3
747.126	398.44
747.528	395.62
747.929	411.71
748.331	409.73
748.732	395.9
749.134	420.18
749.535	400.7
749.936	404.93
750.338	411.99
750.739	399.57
751.14	400.7
751.541	402.96
751.942	412.28
752.343	402.96
752.744	397.59
753.144	381.78
753.545	394.2
753.946	396.46
754.346	395.33
754.747	371.61
755.148	417.92
755.548	405.22
755.948	401.55
756.349	394.49
756.749	383.75
757.149	393.64
757.549	401.83
757.949	407.19
758.349	349.57
758.749	407.19
759.149	406.91
759.549	368.78
759.949	392.23
760.348	398.72
760.748	387.71
761.148	398.72
761.547	382.62
761.947	367.09
762.346	402.39
762.745	394.2
763.145	382.34
763.544	381.78
763.943	393.64
764.342	388.27
764.741	388.55
765.14	387.71
765.539	383.47
765.938	377.26
766.336	382.91
766.735	388.27
767.134	393.64
767.532	364.54
767.931	387.71
768.329	410.58
768.728	401.83
769.126	380.93
769.525	378.67
769.923	406.35
770.321	395.62
770.719	392.23
771.117	390.53
771.515	380.93
771.913	396.46
772.311	405.22
772.709	408.32
773.106	408.04
773.504	365.39
773.902	400.13
774.299	396.18
774.697	420.75
775.094	380.36
775.491	379.23
775.889	389.68
776.286	388.27
776.683	404.93
777.08	403.8
777.477	417.36
777.874	403.24
778.271	410.3
778.668	390.81
779.065	386.86
779.462	395.9
779.858	408.32
780.255	406.06
780.652	418.77
781.048	415.66
781.444	370.19
781.841	400.13
782.237	388.84
782.633	400.13
783.03	383.47
783.426	374.43
783.822	395.9
784.218	389.12
784.614	417.36
785.01	377.26
785.405	385.45
785.801	399.29
786.197	408.61
786.593	403.8
786.988	396.75
787.384	391.94
787.779	388.55
788.174	400.7
788.57	382.34
788.965	401.55
789.36	400.13
789.755	373.87
790.15	400.7
790.545	410.58
790.94	387.71
791.335	395.33
791.73	393.92
792.125	365.11
792.52	391.1
792.914	410.02
793.309	394.2
793.703	392.51
794.098	386.01
794.492	402.68
794.887	356.07
795.281	367.37
795.675	399
796.069	406.35
796.463	375.56
796.857	398.16
797.251	373.3
797.645	384.6
798.039	382.91
798.433	415.1
798.826	388.27
799.22	388.27
799.614	401.26
800.007	386.58
800.401	374.15
800.794	395.9
801.187	415.38
801.581	398.44
801.974	377.54
802.367	374.15
802.76	370.76
803.153	385.73
803.546	388.27
803.939	410.58
804.332	393.36
804.725	392.51
805.117	400.13
805.51	374.15
805.903	385.45
806.295	385.17
806.688	389.12
807.08	406.06
807.472	365.67
807.865	396.75
808.257	373.02
808.649	382.91
809.041	398.16
809.433	413.69
809.825	380.65
810.217	395.33
810.609	384.88
811.001	405.5
811.392	394.77
811.784	385.45
812.175	384.6
812.567	378.1
812.958	382.62
813.35	387.71
813.741	391.66
814.132	390.81
814.524	369.63
814.915	380.36
815.306	391.66
815.697	372.45
816.088	381.49
816.479	375.84
816.87	387.14
817.26	378.67
817.651	406.35
818.042	398.72
818.432	404.93
818.823	391.38
819.213	395.33
819.604	382.34
819.994	384.6
820.384	363.7
820.775	363.13
821.165	386.01
821.555	405.5
821.945	405.78
822.335	370.48
822.725	397.31
823.114	378.95
823.504	370.48
823.894	395.05
824.284	404.93
824.673	397.03
825.063	410.58
825.452	396.46
825.842	388.55
826.231	369.91
826.62	411.43
827.009	366.24
827.399	374.15
827.788	400.98
828.177	377.26
828.566	395.9
828.954	394.77
829.343	375
829.732	391.1
830.121	385.73
830.509	392.79
830.898	381.49
831.286	375.84
831.675	366.24
832.063	369.91
832.452	384.04
832.84	388.55
833.228	399.29
833.616	396.75
834.004	397.03
834.392	369.91
834.78	371.61
835.168	371.32
835.556	418.2
835.944	387.71
836.331	391.1
836.719	370.76
837.107	372.45
837.494	358.05
837.881	375
838.269	383.75
838.656	397.59
839.043	388.27
839.431	371.61
839.818	367.93
840.205	357.48
840.592	371.32
840.979	353.81
841.366	365.67
841.752	360.87
842.139	373.58
842.526	373.3
842.912	396.46
843.299	383.75
843.685	386.01
844.072	373.58
844.458	372.45
844.844	395.9
845.231	406.63
845.617	366.52
846.003	389.97
846.389	380.36
846.775	360.87
847.161	403.8
847.547	379.8
847.933	375.84
848.318	398.44
848.704	373.58
849.09	393.92
849.475	369.35
849.861	391.1
850.246	389.97
850.631	368.22
851.017	368.5
851.402	377.82
851.787	384.6
852.172	395.05
852.557	382.62
852.942	378.39
853.327	379.23
853.712	347.59
854.097	375.84
854.481	384.88
854.866	365.11
855.25	383.47
855.635	370.76
856.019	382.34
856.404	374.71
856.788	363.98
857.172	373.3
857.557	382.91
857.941	389.97
858.325	382.34
858.709	398.72
859.093	370.48
859.477	374.43
859.86	367.37
860.244	387.99
860.628	382.91
861.012	375.84
861.395	378.95
861.779	386.86
862.162	360.31
862.545	373.58
862.929	384.04
863.312	371.61
863.695	395.62
864.078	376.69
864.461	375.28
864.844	392.79
865.227	395.33
865.61	389.12
865.993	375.28
866.376	389.12
866.758	396.46
867.141	358.61
867.523	365.11
867.906	360.87
868.288	382.06
868.671	393.07
869.053	389.68
869.435	390.25
869.817	386.86
870.199	378.95
870.581	344.2
870.963	384.32
871.345	373.87
871.727	406.63
872.109	384.04
872.491	379.52
872.872	363.41
873.254	404.93
873.635	364.26
874.017	378.1
874.398	407.19
874.779	389.12
875.161	367.09
875.542	393.92
875.923	358.33
876.304	364.83
876.685	374.71
877.066	384.32
877.447	397.03
877.828	404.09
878.208	393.64
878.589	389.68
878.97	373.02
879.35	398.44
879.731	379.52
880.111	371.32
880.491	382.62
880.872	377.82
881.252	380.93
881.632	393.07
882.012	374.43
882.392	389.12
882.772	383.47
883.152	408.32
883.532	361.72
883.912	391.1
884.291	374.71
884.671	389.12
885.051	347.87
885.43	382.34
885.81	359.18
886.189	385.17
886.568	373.58
886.948	375.56
887.327	376.69
887.706	382.06
888.085	391.38
888.464	367.65
888.843	352.96
889.222	356.35
889.601	407.19
889.979	359.46
890.358	354.09
890.737	374.15
891.115	373.3
891.494	376.13
891.872	363.41
892.25	384.88
892.629	373.02
893.007	366.24
893.385	370.76
893.763	365.67
894.141	377.82
894.519	380.08
894.897	375.84
895.275	389.68
895.653	384.04
896.03	365.39
896.408	390.25
896.786	366.52
897.163	362.85
897.541	366.52
897.918	399.85
898.295	372.45
898.673	387.99
899.05	391.1
899.427	374.15
899.804	377.26
900.181	376.69
900.558	384.88
900.935	353.24
901.312	384.04
901.688	372.17
902.065	403.8
902.442	377.54
902.818	367.37
903.195	352.96
903.571	343.35
903.947	384.04
904.324	383.75
904.7	345.61
905.076	342.22
905.452	383.19
905.828	355.78
906.204	372.17
906.58	370.48
906.956	362
907.331	377.54
907.707	362
908.083	356.35
908.458	363.41
908.834	354.65
909.209	356.07
909.585	377.26
909.96	395.05
910.335	358.89
910.71	371.32
911.086	364.54
911.461	409.45
911.836	389.97
912.21	378.1
912.585	380.36
912.96	342.22
913.335	367.09
913.709	356.91
914.084	398.72
914.459	378.39
914.833	361.72
915.207	390.25
915.582	397.31
915.956	386.3
916.33	369.91
916.704	393.07
917.078	385.73
917.452	381.49
917.826	368.5
918.2	358.33
918.574	379.52
918.948	369.63
919.321	375
919.695	374.15
920.068	389.68
920.442	381.21
920.815	385.45
921.189	369.06
921.562	386.58
921.935	374.15
922.308	378.39
922.681	365.39
923.054	375.84
923.427	369.35
923.8	398.44
924.173	372.45
924.546	369.35
924.919	385.45
925.291	364.26
925.664	379.23
926.036	400.13
926.409	402.96
926.781	374.15
927.153	362
927.526	365.11
927.898	366.24
928.27	367.93
928.642	389.12
929.014	381.78
929.386	389.4
929.758	387.71
930.129	383.47
930.501	373.58
930.873	384.32
931.244	388.55
931.616	386.3
931.987	374.71
932.359	380.65
932.73	388.55
933.101	381.21
933.472	358.89
933.843	364.54
934.214	380.08
934.585	367.37
934.956	380.08
935.327	388.27
935.698	386.3
936.069	375.56
936.439	354.94
936.81	377.54
937.18	368.5
937.551	365.96
937.921	355.5
938.292	369.91
938.662	369.35
939.032	342.22
939.402	355.78
939.772	382.62
940.142	380.08
940.512	380.08
940.882	382.34
941.252	358.89
941.621	380.93
941.991	370.76
942.361	380.08
942.73	365.39
943.1	366.8
943.469	394.49
943.838	358.89
944.208	384.04
944.577	356.35
944.946	372.45
945.315	359.46
945.684	344.76
946.053	371.61
946.422	349.29
946.791	349.57
947.159	389.4
947.528	382.34
947.897	369.06
948.265	370.48
948.634	343.92
949.002	370.76
949.371	387.14
949.739	369.06
950.107	380.93
950.475	358.33
950.843	370.19
951.211	358.05
951.579	380.93
951.947	368.5
952.315	368.5
952.683	359.46
953.05	384.04
953.418	350.98
953.785	363.41
954.153	365.67
954.52	372.17
954.888	363.98
955.255	366.24
955.622	358.89
955.989	379.8
956.356	365.67
956.723	360.31
957.09	381.78
957.457	354.37
957.824	387.71
958.191	373.3
958.557	368.22
958.924	377.26
959.291	372.45
959.657	354.09
960.023	372.17
960.39	362.28
960.756	375.56
961.122	369.06
961.488	355.78
961.855	385.17
962.221	377.54
962.586	383.75
962.952	365.39
963.318	368.78
963.684	379.23
964.05	350.7
964.415	402.68
964.781	356.63
965.146	361.15
965.512	381.21
965.877	378.67
966.242	371.61
966.608	371.89
966.973	347.02
967.338	376.41
967.703	360.87
968.068	359.74
968.433	388.55
968.797	375.56
969.162	365.67
969.527	366.24
969.891	366.52
970.256	375
970.62	386.58
970.985	363.7
971.349	397.87
971.714	355.78
972.078	365.39
972.442	345.05
972.806	403.8
973.17	370.76
973.534	353.52
973.898	381.78
974.262	393.36
974.625	379.23
974.989	381.21
975.353	355.5
975.716	352.68
976.08	371.89
976.443	364.54
976.806	359.74
977.17	360.59
977.533	372.45
977.896	382.91
978.259	356.07
978.622	382.91
978.985	373.3
979.348	370.76
979.711	365.11
980.073	389.68
980.436	388.84
980.799	388.55
981.161	350.42
981.524	372.74
981.886	340.52
982.248	372.17
982.611	363.41
982.973	372.74
983.335	369.35
983.697	358.61
984.059	358.89
984.421	390.81
984.783	362.28
985.145	357.48
985.506	371.61
985.868	368.22
986.23	377.82
986.591	393.92
986.953	371.04
987.314	360.87
987.675	381.49
988.037	477.75
988.398	392.51
988.759	374.15
989.12	373.02
989.481	378.67
989.842	366.52
990.203	339.11
990.564	380.36
990.924	359.74
991.285	507.65
991.646	380.36
992.006	377.54
992.367	355.78
992.727	364.54
993.087	383.75
993.448	374.43
993.808	368.5
994.168	367.09
994.528	378.67
994.888	364.83
995.248	374.43
995.608	364.83
995.967	359.18
996.327	354.65
996.687	363.7
997.046	371.32
997.406	366.8
997.765	370.19
998.125	372.74
998.484	354.65
998.843	362
999.202	367.37
999.561	367.65
999.92	377.54
1000.279	354.09
1000.638	395.9
1000.997	393.64
1001.356	374.43
1001.715	387.42
1002.073	342.5
1002.432	382.06
1002.79	344.76
1003.149	374.43
1003.507	358.33
1003.865	363.13
1004.224	361.44
1004.582	381.21
1004.94	358.89
1005.298	345.33
1005.656	349.85
1006.014	371.32
1006.371	353.24
1006.729	346.46
1007.087	362.85
1007.445	365.39
1007.802	376.97
1008.16	379.23
1008.517	345.05
1008.874	352.68
1009.232	365.39
1009.589	405.5
1009.946	360.02
1010.303	386.01
1010.66	396.18
1011.017	375.84
1011.374	370.48
1011.731	369.06
1012.087	354.65
1012.444	342.5
1012.801	370.76
1013.157	396.75
1013.513	342.5
1013.87	372.74
1014.226	383.47
1014.582	349.57
1014.939	365.96
1015.295	373.58
1015.651	368.22
1016.007	375
1016.363	373.87
1016.719	365.39
1017.074	390.53
1017.43	377.82
1017.786	363.13
1018.141	330.63
1018.497	387.71
1018.852	339.39
1019.208	382.62
1019.563	360.31
1019.918	376.97
1020.273	375.28
1020.628	374.43
1020.983	361.15
1021.338	336.57
1021.693	388.84
1022.048	357.76
1022.403	401.83
1022.757	375
1023.112	355.5
1023.467	370.48
1023.821	362
1024.175	345.89
1024.53	351.83
1024.884	366.8
1025.238	342.79
1025.592	364.26
1025.946	347.31
1026.3	366.24
1026.654	373.3
1027.008	376.13
1027.362	352.68
1027.716	357.76
1028.069	363.7
1028.423	358.61
1028.777	381.78
1029.13	363.41
1029.483	344.76
1029.837	383.47
1030.19	349.85
1030.543	414.82
1030.896	373.87
1031.249	343.63
1031.602	379.52
1031.955	367.09
1032.308	365.96
1032.661	383.19
1033.013	354.94
1033.366	324.13
1033.719	388.27
1034.071	373.02
1034.424	368.78
1034.776	351.83
1035.128	374.43
1035.48	367.93
1035.833	395.33
1036.185	374.71
1036.537	374.71
1036.889	374.71
