Data from SCSF78-405_irradiation_FLMS019251_08-42-27-922.txt Node
Date: Fri Feb 22 08:42:27 PST 2019
User: mu3e
Spectrometer: FLMS01925
Trigger mode: 0
Integration Time (sec): 1.206000E-2
Scans to average: 10
Electric dark correction enabled: true
Nonlinearity correction enabled: true
Boxcar width: 0
XAxis mode: Wavelengths
Number of Pixels in Spectrum: 2048
>>>>>Begin Spectral Data<<<<<
187.103	-50.5
187.574	-50.5
188.045	-50.5
188.516	-127.82
188.987	-118.72
189.458	-117.58
189.929	-122.99
190.4	-123.84
190.871	-85.46
191.342	-82.33
191.813	-82.05
192.284	-44.54
192.754	-25.5
193.225	2.04
193.696	20.78
194.166	36.1
194.637	52.56
195.107	125.72
195.578	116.65
196.048	141.03
196.518	188.34
196.989	178.99
197.459	210.99
197.929	219.2
198.399	290.78
198.869	306.9
199.339	305.77
199.809	355.52
200.279	330.37
200.749	358.91
201.219	336.59
201.689	397.05
202.159	391.4
202.628	371.34
203.098	387.73
203.568	378.12
204.037	406.93
204.507	385.75
204.976	396.76
205.445	401.85
205.915	401.85
206.384	410.88
206.853	406.65
207.323	411.45
207.792	416.25
208.261	404.39
208.73	399.3
209.199	422.46
209.668	409.19
210.137	395.92
210.606	392.53
211.075	428.39
211.543	410.6
212.012	397.89
212.481	391.96
212.95	388.57
213.418	382.92
213.887	360.89
214.355	374.73
214.824	387.44
215.292	374.17
215.76	345.35
216.229	386.31
216.697	381.51
217.165	371.62
217.633	353.82
218.101	360.32
218.569	348.74
219.037	359.76
219.505	352.13
219.973	351.85
220.441	356.65
220.909	373.04
221.377	374.73
221.844	363.43
222.312	351.85
222.78	372.75
223.247	362.3
223.715	350.15
224.182	361.74
224.65	368.23
225.117	390.55
225.584	380.66
226.052	362.3
226.519	386.03
226.986	387.73
227.453	389.7
227.92	384.62
228.387	322.45
228.854	345.06
229.321	384.05
229.788	388.57
230.255	378.97
230.722	345.63
231.189	389.42
231.655	381.23
232.122	367.39
232.589	386.88
233.055	388.57
233.522	364.56
233.988	367.95
234.454	381.23
234.921	376.14
235.387	382.92
235.853	356.37
236.32	382.36
236.786	394.5
237.252	377.27
237.718	393.09
238.184	390.83
238.65	368.8
239.116	398.46
239.582	353.82
240.047	367.95
240.513	385.47
240.979	380.95
241.445	387.44
241.91	368.52
242.376	389.14
242.841	386.88
243.307	388.85
243.772	372.47
244.238	376.14
244.703	360.61
245.168	384.62
245.633	394.22
246.099	375.86
246.564	419.35
247.029	389.14
247.494	399.59
247.959	370.21
248.424	400.43
248.889	397.33
249.353	399.3
249.818	371.06
250.283	362.02
250.748	392.81
251.212	393.94
251.677	397.61
252.141	383.21
252.606	369.36
253.07	397.89
253.535	413.71
253.999	360.32
254.463	376.99
254.927	374.17
255.392	372.75
255.856	379.25
256.32	393.37
256.784	388.57
257.248	380.38
257.712	392.81
258.176	374.17
258.64	393.94
259.103	393.94
259.567	395.35
260.031	415.4
260.495	400.43
260.958	382.36
261.422	388.57
261.885	402.41
262.349	392.81
262.812	390.27
263.275	401.56
263.739	406.36
264.202	395.63
264.665	404.1
265.128	380.38
265.591	374.73
266.054	367.39
266.517	409.19
266.98	399.59
267.443	398.46
267.906	370.21
268.369	381.23
268.832	390.55
269.294	402.98
269.757	385.18
270.22	411.45
270.682	393.09
271.145	410.32
271.607	399.3
272.07	399.3
272.532	415.12
272.994	402.41
273.456	388.57
273.919	391.11
274.381	393.66
274.843	404.39
275.305	399.59
275.767	408.62
276.229	393.37
276.691	399.59
277.153	380.95
277.614	393.37
278.076	391.68
278.538	404.95
279	426.69
279.461	372.47
279.923	417.66
280.384	377.56
280.846	403.82
281.307	404.95
281.769	399.87
282.23	426.69
282.691	390.83
283.152	381.23
283.613	397.33
284.075	403.82
284.536	412.86
284.997	397.33
285.458	397.89
285.918	383.49
286.379	376.14
286.84	392.81
287.301	407.49
287.762	408.06
288.222	385.47
288.683	378.97
289.143	389.98
289.604	414.27
290.064	394.22
290.525	406.93
290.985	415.12
291.445	397.61
291.906	406.08
292.366	402.69
292.826	401.28
293.286	380.38
293.746	378.69
294.206	373.04
294.666	396.2
295.126	408.62
295.586	413.42
296.046	407.49
296.506	400.43
296.965	385.47
297.425	405.52
297.884	402.69
298.344	387.16
298.804	408.34
299.263	387.73
299.722	418.79
300.182	405.23
300.641	425.56
301.1	404.95
301.559	418.79
302.019	411.16
302.478	399.02
302.937	378.97
303.396	401
303.855	401
304.314	405.8
304.772	387.16
305.231	396.2
305.69	401.56
306.149	405.23
306.607	432.62
307.066	399.3
307.524	390.83
307.983	410.88
308.441	404.1
308.9	409.19
309.358	412.86
309.816	398.46
310.275	403.82
310.733	440.24
311.191	416.81
311.649	408.62
312.107	399.3
312.565	404.39
313.023	406.08
313.481	419.92
313.939	425.28
314.397	438.83
314.854	390.83
315.312	422.46
315.77	413.42
316.227	410.32
316.685	395.35
317.142	405.8
317.6	417.94
318.057	409.47
318.514	421.33
318.972	423.59
319.429	433.18
319.886	399.02
320.343	393.66
320.8	423.59
321.257	408.34
321.714	418.5
322.171	407.78
322.628	413.71
323.085	412.29
323.542	408.91
323.998	414.27
324.455	449.27
324.912	408.34
325.368	411.45
325.825	410.32
326.281	411.16
326.738	421.05
327.194	419.07
327.65	395.35
328.107	405.23
328.563	429.8
329.019	408.62
329.475	435.16
329.931	411.16
330.387	455.48
330.843	444.19
331.299	401
331.755	417.66
332.211	430.64
332.666	418.5
333.122	414.27
333.578	405.23
334.033	421.61
334.489	419.63
334.944	405.8
335.4	401.28
335.855	419.35
336.31	417.66
336.766	414.83
337.221	419.07
337.676	398.46
338.131	396.2
338.586	428.95
339.041	402.69
339.496	395.07
339.951	409.19
340.406	406.36
340.861	418.22
341.316	426.69
341.771	428.39
342.225	441.37
342.68	421.61
343.134	429.51
343.589	437.42
344.043	407.21
344.498	442.78
344.952	413.71
345.406	418.79
345.861	446.73
346.315	434.6
346.769	411.45
347.223	435.44
347.677	432.34
348.131	430.64
348.585	441.09
349.039	404.95
349.493	402.41
349.947	426.13
350.401	406.65
350.854	425
351.308	440.81
351.762	416.53
352.215	412.01
352.669	400.72
353.122	434.03
353.575	425.56
354.029	400.43
354.482	421.89
354.935	432.9
355.388	433.18
355.842	440.81
356.295	425
356.748	428.39
357.201	423.3
357.654	422.74
358.106	409.19
358.559	415.96
359.012	421.89
359.465	399.59
359.917	417.94
360.37	421.61
360.823	426.69
361.275	443.63
361.728	423.59
362.18	434.6
362.632	431.77
363.085	384.9
363.537	415.4
363.989	436.01
364.441	423.02
364.893	438.55
365.345	423.87
365.797	423.59
366.249	415.96
366.701	432.62
367.153	423.87
367.605	423.3
368.057	425.56
368.508	429.51
368.96	430.93
369.411	410.32
369.863	443.35
370.314	434.88
370.766	417.09
371.217	427.54
371.669	423.02
372.12	429.51
372.571	436.29
373.022	445.6
373.473	435.72
373.924	451.81
374.375	424.15
374.826	422.74
375.277	446.73
375.728	412.01
376.179	429.51
376.63	424.15
377.08	435.44
377.531	430.64
377.981	434.31
378.432	435.72
378.883	437.7
379.333	436.29
379.783	438.27
380.234	407.49
380.684	434.03
381.134	435.72
381.584	414.27
382.034	449.84
382.485	408.91
382.935	427.82
383.385	448.71
383.834	440.52
384.284	421.61
384.734	439.11
385.184	449.84
385.634	450.12
386.083	425
386.533	406.36
386.982	464.23
387.432	469.02
387.881	432.9
388.331	442.22
388.78	439.39
389.229	442.78
389.679	446.73
390.128	423.02
390.577	439.68
391.026	450.12
391.475	447.01
391.924	436.29
392.373	431.49
392.822	429.51
393.27	426.13
393.719	437.98
394.168	450.97
394.617	447.58
395.065	432.06
395.514	441.09
395.962	424.43
396.411	428.95
396.859	456.04
397.307	446.45
397.756	435.16
398.204	446.45
398.652	467.61
399.1	458.58
399.548	449.84
399.996	441.93
400.444	462.53
400.892	444.19
401.34	459.71
401.788	450.4
402.236	446.45
402.683	470.15
403.131	457.17
403.579	446.17
404.026	474.1
404.474	473.54
404.921	474.95
405.369	453.5
405.816	456.61
406.263	480.59
406.71	485.1
407.158	509.08
407.605	467.9
408.052	529.94
408.499	505.97
408.946	526.84
409.393	497.23
409.84	503.72
410.286	522.05
410.733	540.65
411.18	574.19
411.626	611.93
412.073	619.53
412.52	694.11
412.966	813
413.413	956.38
413.859	1123.54
414.305	1319.65
414.752	1632.6
415.198	1984.43
415.644	2379.33
416.09	2928.08
416.536	3499.92
416.982	4150.66
417.428	4971.12
417.874	5859.46
418.32	6765.36
418.766	7686.97
419.211	8872.69
419.657	9894.74
420.103	11199.78
420.548	12100.26
420.994	13581.44
421.439	14870.49
421.885	15947.28
422.33	17510.05
422.776	18703.17
423.221	19802.43
423.666	21369.8
424.111	22613.12
424.556	23658.79
425.001	25362.16
425.446	26769.72
425.891	28122.41
426.336	29303.92
426.781	30550.84
427.226	32856.84
427.671	33606.87
428.115	34556.74
428.56	36492.98
429.005	38083.12
429.449	38761.09
429.894	40238.05
430.338	41487.4
430.782	41573.58
431.227	43442.83
431.671	43905.46
432.115	45271.05
432.559	46537.34
433.003	46474.13
433.447	47546.35
433.891	47860.98
434.335	48376.07
434.779	49345.37
435.223	49491.82
435.667	49718.24
436.111	50181.12
436.554	50348.06
436.998	49719.81
437.442	49857.22
437.885	51973.49
438.328	50310.37
438.772	50712.74
439.215	51338.22
439.659	50894.2
440.102	51276.48
440.545	50616.64
440.988	50401.85
441.431	51518.2
441.874	50849.05
442.317	51279.95
442.76	50754.88
443.203	50179.28
443.646	50890.74
444.089	50481.3
444.531	51254.04
444.974	49757.48
445.417	51000.27
445.859	50079.66
446.302	51210.52
446.744	50452.52
447.186	51797.26
447.629	50648.92
448.071	50624.31
448.513	50691.02
448.956	52248.24
449.398	51318.7
449.84	50094.11
450.282	50805.8
450.724	51451.19
451.166	51218.26
451.607	51057.23
452.049	51192.37
452.491	52308.04
452.933	51738.81
453.374	52408.2
453.816	52910.59
454.257	52624.7
454.699	53665.04
455.14	53408.46
455.582	53044.22
456.023	52977.5
456.464	53145.87
456.905	53822.52
457.347	53860.43
457.788	52939.21
458.229	53059.95
458.67	54149.43
459.111	52121.81
459.552	52269.98
459.992	52018.1
460.433	51987
460.874	50957.45
461.315	52132.92
461.755	51048.44
462.196	50483.15
462.636	49710.13
463.077	49295.13
463.517	49506.16
463.957	49753.81
464.398	49340.42
464.838	49598.29
465.278	48331.48
465.718	48594.11
466.158	47466.03
466.598	47872.27
467.038	47488.79
467.478	47834.82
467.918	48117.06
468.358	47215.18
468.798	46850.77
469.237	46759.69
469.677	46667.91
470.117	47679.22
470.556	45009.56
470.996	45496.37
471.435	45851.6
471.874	46437.34
472.314	46185.85
472.753	45244.1
473.192	45312.62
473.631	45069.42
474.07	45187.45
474.509	45250.65
474.948	45561.45
475.387	44705.75
475.826	43746.73
476.265	45649.78
476.704	45221.44
477.143	45498.89
477.581	45270.8
478.02	46032.68
478.458	44410.21
478.897	45109.18
479.335	46427.95
479.774	45831.89
480.212	46260.34
480.65	46053.68
481.089	45763.16
481.527	45409.89
481.965	44755.98
482.403	46793.01
482.841	46519.32
483.279	46653.43
483.717	46640.21
484.155	46167.61
484.592	46509.16
485.03	46874.44
485.468	45760.38
485.905	45919.1
486.343	46406.64
486.781	45747.5
487.218	45210.36
487.655	45167.31
488.093	44034.53
488.53	45800.81
488.967	44707.76
489.405	44537.36
489.842	43654.79
490.279	43803.21
490.716	43143.59
491.153	43762.72
491.59	42981.66
492.027	42414.78
492.463	41997.95
492.9	41159.01
493.337	40903.86
493.773	40974.05
494.21	40104.9
494.647	39934.59
495.083	39215.06
495.519	38874.59
495.956	38685.43
496.392	38043.39
496.828	37798.68
497.265	36814.17
497.701	37081.92
498.137	36767.68
498.573	35827.59
499.009	36391.98
499.445	35471.68
499.881	34914.51
500.316	35249.94
500.752	34314.46
501.188	33953.68
501.624	34021.97
502.059	32652.53
502.495	32524.78
502.93	32295.36
503.366	32557.93
503.801	31877.72
504.236	31546.37
504.672	31118.9
505.107	30775.5
505.542	30138.51
505.977	30129.48
506.412	29643.06
506.847	29893.49
507.282	29450.67
507.717	28869.38
508.152	28965.39
508.587	28525.31
509.021	27897.88
509.456	27569.28
509.891	27593.02
510.325	27572.22
510.76	27143.05
511.194	26840.29
511.628	26944.41
512.063	26046.39
512.497	26260.05
512.931	25629.62
513.366	25522.56
513.8	25509.29
514.234	24727.71
514.668	24745.42
515.102	25119.14
515.536	24203.02
515.969	24247.1
516.403	23743.83
516.837	23308.11
517.271	23383.84
517.704	22938.4
518.138	22813.21
518.571	22724.29
519.005	22215.14
519.438	22127.1
519.871	21966.04
520.305	21482.77
520.738	21435.95
521.171	20880.16
521.604	20996.73
522.037	20753.87
522.47	20411.3
522.903	20039.87
523.336	19896.92
523.769	19778.8
524.202	19307.95
524.634	19182.93
525.067	18991.1
525.5	18786.45
525.932	18475.91
526.365	18347.39
526.797	18011.27
527.23	18029.76
527.662	17444.76
528.094	17256.81
528.527	17224.52
528.959	16880.64
529.391	16690.4
529.823	16198.68
530.255	16220.02
530.687	15874.66
531.119	15680.61
531.551	15486.95
531.982	15183.4
532.414	15043.61
532.846	14778.98
533.277	14534.05
533.709	14179.3
534.14	14042.09
534.572	13781.38
535.003	13710.28
535.435	13450.27
535.866	13208.27
536.297	12900.06
536.728	12941.43
537.159	12812.73
537.59	12565.05
538.022	12469.72
538.452	12225.26
538.883	11910.97
539.314	11827.11
539.745	11611.82
540.176	11415.22
540.606	11173.96
541.037	11184.95
541.468	10988.73
541.898	10878.89
542.328	10823.57
542.759	10515.15
543.189	10411.47
543.619	10272.53
544.05	10090.55
544.48	9893.97
544.91	9893.97
545.34	9618.8
545.77	9600.24
546.2	9471.25
546.63	9280.16
547.06	9356.1
547.489	9102.81
547.919	8839.27
548.349	8866.99
548.778	8866.99
549.208	8688.92
549.637	8501.03
550.067	8394.27
550.496	8373.74
550.926	8174.25
551.355	8046.41
551.784	8077.4
552.213	7838.63
552.642	7753.29
553.071	7726.92
553.5	7583.5
553.929	7371.6
554.358	7388.1
554.787	7269.72
555.216	7190.04
555.645	7069.9
556.073	6973.81
556.502	6954.9
556.93	6808.77
557.359	6727.21
557.787	6656.92
558.216	6617.94
558.644	6482.74
559.072	6440.27
559.5	6399.9
559.929	6329.68
560.357	6294.55
560.785	6222.16
561.213	6163.99
561.641	6081.72
562.068	6029.31
562.496	5966.8
562.924	5883.85
563.352	5911.16
563.779	5803.49
564.207	5906.12
564.634	5798.98
565.062	5742.99
565.489	5606.99
565.917	5636.22
566.344	5602.73
566.771	5561.79
567.198	5513.12
567.625	5438.07
568.053	5336.06
568.48	5316.34
568.907	5276.61
569.333	5178.18
569.76	5058.01
570.187	5046.51
570.614	4901.03
571.04	5053.46
571.467	4781.06
571.894	4754.8
572.32	4578.28
572.747	4541.49
573.173	4480.22
573.599	4443.66
574.026	4300.77
574.452	4284.88
574.878	4239.35
575.304	4102.9
575.73	4024.88
576.156	4011.37
576.582	3987.87
577.008	3924.62
577.434	3813.42
577.86	3733.52
578.285	3714.82
578.711	3638.91
579.137	3621.55
579.562	3476.55
579.988	3515.95
580.413	3426.81
580.838	3394.99
581.264	3371.05
581.689	3254.53
582.114	3199.21
582.539	3180.67
582.964	3122.84
583.39	3100.47
583.814	3061.43
584.239	2992.32
584.664	2968.54
585.089	2917.14
585.514	2882.94
585.939	2842.16
586.363	2801.91
586.788	2801.09
587.212	2769.31
587.637	2651.14
588.061	2678.84
588.485	2596.79
588.91	2580.04
589.334	2531.42
589.758	2513.28
590.182	2438.77
590.606	2447.3
591.03	2420.34
591.454	2371.34
591.878	2326.73
592.302	2300.28
592.726	2327.56
593.15	2276.03
593.573	2204.61
593.997	2231.92
594.42	2183.64
594.844	2195.78
595.267	2132.85
595.691	2079.54
596.114	2064.06
596.537	2073.18
596.96	2000.75
597.384	1978.07
597.807	1955.1
598.23	1959.53
598.653	1929.08
599.076	1914.96
599.499	1912.75
599.921	1885.61
600.344	1907.21
600.767	1877.58
601.189	1885.06
601.612	1853.47
602.034	1859.85
602.457	1823.54
602.879	1788.33
603.302	1787.78
603.724	1771.69
604.146	1753.1
604.568	1762.81
604.991	1748.94
605.413	1741.17
605.835	1768.08
606.257	1696.21
606.678	1686.21
607.1	1709.53
607.522	1700.09
607.944	1712.31
608.365	1682.32
608.787	1631.21
609.209	1590.63
609.63	1640.38
610.051	1610.64
610.473	1606.48
610.894	1608.7
611.315	1555.87
611.737	1549.19
612.158	1508.85
612.579	1482.41
613	1488.25
613.421	1484.91
613.842	1425.03
614.263	1444.53
614.683	1443.7
615.104	1385.74
615.525	1383.23
615.945	1386.57
616.366	1366.78
616.787	1331.36
617.207	1283.93
617.627	1287.83
618.048	1298.44
618.468	1252.66
618.888	1239.53
619.308	1231.99
619.728	1223.33
620.148	1192.32
620.568	1196.51
620.988	1159.34
621.408	1158.5
621.828	1162.13
622.248	1122.15
622.668	1132.49
623.087	1117.95
623.507	1129.98
623.926	1106.76
624.346	1056.67
624.765	1094.45
625.185	1066.74
625.604	1051.35
626.023	1045.19
626.442	1011.58
626.861	1046.03
627.28	995.89
627.699	988.05
628.118	1018.58
628.537	995.33
628.956	960.86
629.375	968.71
629.794	1006.26
630.212	956.94
630.631	922.17
631.049	943.48
631.468	926.66
631.886	914.32
632.305	926.38
632.723	894.97
633.141	900.02
633.559	876.17
633.978	878.41
634.396	884.02
634.814	879.53
635.232	845.57
635.65	833.5
636.067	854.84
636.485	827.61
636.903	837.71
637.321	826.48
637.738	817.5
638.156	808.79
638.573	814.13
638.991	796.99
639.408	808.51
639.825	771.99
640.243	808.51
640.66	778.73
641.077	761.31
641.494	770.02
641.911	790.81
642.328	793.06
642.745	764.4
643.162	767.77
643.579	757.66
643.995	740.51
644.412	748.1
644.829	746.13
645.245	702.83
645.662	697.77
646.078	729.55
646.495	711.55
646.911	684.83
647.327	721.11
647.743	707.89
648.159	683.98
648.576	731.79
648.992	653.88
649.408	669.92
649.824	671.32
650.239	670.76
650.655	674.98
651.071	654.16
651.487	659.79
651.902	656.69
652.318	628.54
652.733	663.44
653.149	653.59
653.564	661.19
653.979	625.45
654.395	622.35
654.81	655.28
655.225	622.07
655.64	628.26
656.055	640.37
656.47	614.46
656.885	605.73
657.3	616.44
657.715	616.15
658.13	594.19
658.544	647.12
658.959	596.72
659.374	598.13
659.788	613.34
660.202	609.68
660.617	617.56
661.031	603.48
661.445	605.73
661.86	588.27
662.274	589.4
662.688	582.36
663.102	579.82
663.516	579.26
663.93	558.97
664.344	578.98
664.758	601.79
665.171	601.23
665.585	545.44
665.999	560.94
666.412	584.33
666.826	559.82
667.239	555.03
667.653	561.79
668.066	558.97
668.479	598.69
668.892	553.62
669.306	557
669.719	507.1
670.132	565.17
670.545	564.32
670.958	547.98
671.37	521.48
671.783	534.17
672.196	537.27
672.609	515.84
673.021	544.88
673.434	527.4
673.846	533.89
674.259	512.46
674.671	525.15
675.084	504.28
675.496	529.38
675.908	530.22
676.32	503.15
676.732	494.98
677.144	538.11
677.556	508.23
677.968	517.82
678.38	533.6
678.792	522.89
679.204	533.6
679.615	529.38
680.027	547.13
680.439	518.38
680.85	492.44
681.262	518.1
681.673	524.87
682.084	472.97
682.496	490.18
682.907	494.41
683.318	534.73
683.729	502.87
684.14	501.46
684.551	494.41
684.962	502.31
685.373	494.41
685.784	522.61
686.194	472.41
686.605	492.72
687.016	485.67
687.426	489.9
687.837	483.69
688.247	479.18
688.657	476.64
689.068	456.61
689.478	448.14
689.888	488.49
690.298	477.77
690.708	455.2
691.118	483.41
691.528	458.58
691.938	447.01
692.348	473.82
692.758	451.81
693.168	463.1
693.577	484.54
693.987	462.25
694.396	491.31
694.806	495.54
695.215	482.57
695.625	441.37
696.034	460.28
696.443	459.43
696.852	465.07
697.262	440.52
697.671	461.97
698.08	466.2
698.489	467.33
698.897	452.09
699.306	454.63
699.715	458.58
700.124	424.43
700.532	457.17
700.941	434.31
701.35	436.29
701.758	448.14
702.166	434.31
702.575	478.05
702.983	448.99
703.391	455.48
703.799	468.74
704.208	434.03
704.616	466.48
705.024	436.01
705.432	445.32
705.839	427.26
706.247	430.08
706.655	413.99
707.063	435.72
707.47	426.41
707.878	432.06
708.285	452.94
708.693	426.41
709.1	444.19
709.508	471
709.915	450.4
710.322	421.05
710.729	432.9
711.136	413.71
711.543	456.61
711.95	445.6
712.357	438.83
712.764	410.6
713.171	430.93
713.578	438.83
713.984	432.9
714.391	412.58
714.797	435.44
715.204	419.07
715.61	421.33
716.017	410.88
716.423	445.6
716.829	427.82
717.236	429.23
717.642	425.56
718.048	432.06
718.454	408.62
718.86	428.67
719.266	441.37
719.671	426.41
720.077	463.38
720.483	451.53
720.889	429.8
721.294	427.54
721.7	427.54
722.105	438.55
722.511	449.27
722.916	431.49
723.321	426.41
723.726	415.4
724.132	434.88
724.537	432.06
724.942	433.18
725.347	422.74
725.752	422.46
726.156	442.22
726.561	428.67
726.966	437.14
727.371	433.75
727.775	447.3
728.18	420.2
728.584	430.36
728.989	412.86
729.393	434.6
729.798	428.95
730.202	424.72
730.606	415.68
731.01	430.93
731.414	403.82
731.818	426.69
732.222	420.76
732.626	406.36
733.03	427.26
733.434	414.27
733.837	419.07
734.241	428.67
734.645	430.64
735.048	415.4
735.452	424.15
735.855	434.03
736.258	423.3
736.662	397.89
737.065	401.85
737.468	423.3
737.871	427.26
738.274	430.36
738.677	416.25
739.08	408.06
739.483	420.76
739.886	413.42
740.289	400.72
740.691	403.82
741.094	443.06
741.497	420.2
741.899	412.01
742.302	417.38
742.704	418.5
743.106	417.38
743.508	410.32
743.911	429.23
744.313	405.8
744.715	417.09
745.117	450.97
745.519	423.02
745.921	409.19
746.323	435.72
746.724	391.11
747.126	409.47
747.528	418.5
747.929	403.54
748.331	383.77
748.732	419.92
749.134	433.47
749.535	401.85
749.936	447.3
750.338	435.44
750.739	423.59
751.14	423.02
751.541	410.88
751.942	381.23
752.343	416.25
752.744	423.3
753.144	420.76
753.545	426.69
753.946	423.02
754.346	416.25
754.747	402.41
755.148	432.34
755.548	408.91
755.948	442.78
756.349	414.55
756.749	413.71
757.149	394.79
757.549	411.73
757.949	410.88
758.349	396.76
758.749	403.82
759.149	411.73
759.549	419.07
759.949	415.96
760.348	412.29
760.748	408.62
761.148	417.66
761.547	417.66
761.947	400.72
762.346	424.15
762.745	394.79
763.145	400.72
763.544	384.9
763.943	413.99
764.342	382.64
764.741	411.16
765.14	399.3
765.539	407.78
765.938	410.32
766.336	413.71
766.735	434.6
767.134	403.26
767.532	404.1
767.931	385.18
768.329	418.5
768.728	373.32
769.126	354.95
769.525	407.78
769.923	410.32
770.321	391.96
770.719	423.87
771.117	387.44
771.515	419.07
771.913	400.15
772.311	403.26
772.709	409.19
773.106	393.37
773.504	394.79
773.902	410.32
774.299	421.33
774.697	395.92
775.094	375.58
775.491	401.56
775.889	397.61
776.286	415.96
776.683	405.52
777.08	427.26
777.477	391.4
777.874	384.62
778.271	404.1
778.668	384.62
779.065	390.83
779.462	399.3
779.858	378.4
780.255	426.13
780.652	412.01
781.048	410.88
781.444	417.38
781.841	391.68
782.237	392.24
782.633	398.46
783.03	364.84
783.426	399.59
783.822	397.05
784.218	405.23
784.614	388.85
785.01	394.79
785.405	398.46
785.801	394.22
786.197	408.34
786.593	405.23
786.988	403.54
787.384	402.98
787.779	407.49
788.174	410.6
788.57	380.95
788.965	411.16
789.36	440.52
789.755	415.68
790.15	403.82
790.545	392.24
790.94	413.14
791.335	407.21
791.73	388.01
792.125	415.4
792.52	414.55
792.914	402.69
793.309	401.85
793.703	391.68
794.098	389.98
794.492	404.39
794.887	393.37
795.281	373.6
795.675	375.58
796.069	384.62
796.463	419.35
796.857	406.65
797.251	405.23
797.645	398.74
798.039	402.41
798.433	390.83
798.826	417.09
799.22	396.48
799.614	441.65
800.007	370.78
800.401	398.17
800.794	410.32
801.187	373.6
801.581	407.49
801.974	397.33
802.367	387.44
802.76	373.32
803.153	388.57
803.546	352.13
803.939	390.55
804.332	404.67
804.725	413.42
805.117	396.2
805.51	372.47
805.903	399.3
806.295	397.05
806.688	386.31
807.08	419.63
807.472	390.83
807.865	385.18
808.257	396.76
808.649	413.71
809.041	401.28
809.433	398.74
809.825	412.01
810.217	412.29
810.609	425.56
811.001	417.94
811.392	406.08
811.784	397.61
812.175	409.47
812.567	422.46
812.958	383.49
813.35	371.62
813.741	363.43
814.132	385.47
814.524	386.03
814.915	400.43
815.306	379.53
815.697	396.2
816.088	401.85
816.479	392.81
816.87	429.23
817.26	382.92
817.651	399.3
818.042	375.58
818.432	412.01
818.823	386.31
819.213	380.66
819.604	391.4
819.994	406.36
820.384	388.57
820.775	389.42
821.165	383.21
821.555	397.33
821.945	404.1
822.335	380.66
822.725	373.32
823.114	400.43
823.504	370.49
823.894	387.44
824.284	393.94
824.673	402.13
825.063	395.35
825.452	402.69
825.842	378.4
826.231	397.61
826.62	390.55
827.009	384.62
827.399	380.38
827.788	414.83
828.177	385.75
828.566	417.38
828.954	417.66
829.343	386.88
829.732	391.68
830.121	411.16
830.509	389.42
830.898	402.69
831.286	377.84
831.675	403.82
832.063	397.33
832.452	403.54
832.84	393.09
833.228	402.41
833.616	379.25
834.004	395.35
834.392	390.55
834.78	394.5
835.168	388.57
835.556	399.59
835.944	419.63
836.331	384.9
836.719	382.08
837.107	410.6
837.494	406.36
837.881	399.59
838.269	387.44
838.656	389.14
839.043	374.45
839.431	388.01
839.818	423.87
840.205	403.26
840.592	413.42
840.979	378.4
841.366	406.93
841.752	405.8
842.139	366.82
842.526	404.67
842.912	404.67
843.299	393.94
843.685	395.63
844.072	414.27
844.458	399.87
844.844	404.39
845.231	397.89
845.617	399.02
846.003	399.59
846.389	389.98
846.775	377.56
847.161	389.7
847.547	403.82
847.933	417.66
848.318	398.17
848.704	416.53
849.09	408.06
849.475	399.87
849.861	406.08
850.246	395.35
850.631	391.4
851.017	402.98
851.402	392.24
851.787	392.24
852.172	370.21
852.557	389.42
852.942	382.36
853.327	392.53
853.712	399.02
854.097	379.53
854.481	384.62
854.866	381.51
855.25	413.71
855.635	368.8
856.019	381.23
856.404	409.75
856.788	395.07
857.172	375.01
857.557	401.85
857.941	395.63
858.325	408.91
858.709	354.11
859.093	383.77
859.477	378.4
859.86	385.18
860.244	398.17
860.628	412.01
861.012	396.2
861.395	381.23
861.779	402.13
862.162	402.98
862.545	393.37
862.929	398.46
863.312	374.73
863.695	348.46
864.078	376.99
864.461	415.12
864.844	400.72
865.227	409.47
865.61	383.21
865.993	404.1
866.376	386.6
866.758	390.55
867.141	384.05
867.523	361.17
867.906	399.59
868.288	398.46
868.671	406.08
869.053	380.66
869.435	390.83
869.817	400.72
870.199	376.14
870.581	405.8
870.963	404.95
871.345	379.53
871.727	388.85
872.109	382.36
872.491	378.12
872.872	397.61
873.254	402.69
873.635	390.83
874.017	380.66
874.398	388.29
874.779	399.87
875.161	376.43
875.542	381.79
875.923	409.75
876.304	389.98
876.685	381.23
877.066	381.23
877.447	406.08
877.828	378.97
878.208	382.36
878.589	389.42
878.97	400.43
879.35	390.27
879.731	386.03
880.111	392.24
880.491	368.52
880.872	383.49
881.252	369.93
881.632	406.36
882.012	403.82
882.392	384.34
882.772	432.62
883.152	415.4
883.532	382.92
883.912	406.65
884.291	377.84
884.671	384.34
885.051	360.61
885.43	386.31
885.81	382.92
886.189	389.98
886.568	390.55
886.948	380.1
887.327	402.98
887.706	379.25
888.085	397.89
888.464	381.79
888.843	386.88
889.222	374.45
889.601	391.4
889.979	399.59
890.358	382.64
890.737	377.84
891.115	374.45
891.494	366.54
891.872	410.03
892.25	415.4
892.629	368.8
893.007	393.66
893.385	388.57
893.763	391.11
894.141	371.06
894.519	407.49
894.897	395.92
895.275	390.55
895.653	380.95
896.03	386.6
896.408	402.13
896.786	368.8
897.163	385.18
897.541	373.88
897.918	381.51
898.295	389.7
898.673	378.4
899.05	378.12
899.427	411.73
899.804	405.52
900.181	400.72
900.558	380.66
900.935	376.43
901.312	379.82
901.688	388.01
902.065	392.53
902.442	380.95
902.818	363.15
903.195	394.79
903.571	401.56
903.947	375.3
904.324	392.53
904.7	362.58
905.076	395.92
905.452	366.54
905.828	393.37
906.204	382.92
906.58	388.85
906.956	367.39
907.331	376.43
907.707	387.16
908.083	386.03
908.458	374.17
908.834	405.8
909.209	390.27
909.585	382.64
909.96	351
910.335	420.2
910.71	376.43
911.086	362.3
911.461	389.42
911.836	405.52
912.21	377.84
912.585	365.69
912.96	370.78
913.335	371.06
913.709	362.87
914.084	390.27
914.459	393.37
914.833	378.97
915.207	392.81
915.582	385.75
915.956	386.03
916.33	356.08
916.704	366.26
917.078	347.04
917.452	403.26
917.826	386.03
918.2	390.55
918.574	368.52
918.948	400.15
919.321	390.55
919.695	375.58
920.068	382.92
920.442	384.62
920.815	379.25
921.189	410.03
921.562	385.47
921.935	400.15
922.308	381.23
922.681	377.27
923.054	389.7
923.427	407.78
923.8	364.84
924.173	388.57
924.546	374.73
924.919	385.18
925.291	374.17
925.664	382.92
926.036	375.3
926.409	397.33
926.781	394.79
927.153	366.26
927.526	382.64
927.898	373.32
928.27	398.74
928.642	391.96
929.014	365.97
929.386	365.13
929.758	380.66
930.129	371.34
930.501	380.95
930.873	400.43
931.244	369.36
931.616	391.11
931.987	372.47
932.359	381.51
932.73	380.66
933.101	393.37
933.472	414.55
933.843	373.32
934.214	369.93
934.585	361.74
934.956	371.34
935.327	356.65
935.698	371.34
936.069	370.21
936.439	393.09
936.81	347.89
937.18	395.07
937.551	377.84
937.921	414.83
938.292	404.39
938.662	371.91
939.032	384.34
939.402	388.57
939.772	364.56
940.142	360.32
940.512	372.75
940.882	402.69
941.252	405.8
941.621	398.17
941.991	390.55
942.361	391.4
942.73	365.41
943.1	372.75
943.469	369.36
943.838	387.73
944.208	406.93
944.577	365.97
944.946	393.66
945.315	368.52
945.684	375.3
946.053	364.84
946.422	360.89
946.791	350.72
947.159	386.03
947.528	392.24
947.897	380.38
948.265	369.93
948.634	391.11
949.002	375.01
949.371	378.4
949.739	348.17
950.107	389.7
950.475	389.7
950.843	395.07
951.211	370.49
951.579	406.93
951.947	387.44
952.315	391.96
952.683	400.72
953.05	368.8
953.418	387.16
953.785	397.05
954.153	397.33
954.52	389.14
954.888	370.49
955.255	406.65
955.622	378.97
955.989	367.67
956.356	366.54
956.723	368.52
957.09	369.36
957.457	352.69
957.824	361.74
958.191	382.64
958.557	373.04
958.924	387.73
959.291	383.21
959.657	379.53
960.023	375.58
960.39	383.21
960.756	374.73
961.122	367.39
961.488	403.82
961.855	377.84
962.221	373.32
962.586	387.44
962.952	365.69
963.318	376.14
963.684	357.78
964.05	361.74
964.415	392.24
964.781	376.14
965.146	376.99
965.512	356.37
965.877	374.17
966.242	362.58
966.608	377.56
966.973	371.34
967.338	377.56
967.703	342.24
968.068	388.01
968.433	362.3
968.797	385.18
969.162	369.36
969.527	393.66
969.891	385.75
970.256	391.4
970.62	384.34
970.985	400.43
971.349	358.91
971.714	388.01
972.078	379.82
972.442	377.84
972.806	369.36
973.17	360.61
973.534	374.45
973.898	381.79
974.262	368.23
974.625	382.92
974.989	373.04
975.353	384.05
975.716	356.37
976.08	390.83
976.443	376.99
976.806	417.66
977.17	383.21
977.533	384.62
977.896	391.11
978.259	381.51
978.622	366.54
978.985	362.3
979.348	382.92
979.711	362.58
980.073	377.84
980.436	376.14
980.799	368.52
981.161	388.85
981.524	358.35
981.886	359.48
982.248	382.36
982.611	380.95
982.973	395.35
983.335	374.17
983.697	388.85
984.059	378.97
984.421	372.75
984.783	394.22
985.145	403.82
985.506	372.75
985.868	388.29
986.23	406.36
986.591	345.35
986.953	379.82
987.314	377.27
987.675	373.04
988.037	499.77
988.398	398.46
988.759	373.32
989.12	367.67
989.481	393.09
989.842	367.95
990.203	356.93
990.564	372.47
990.924	406.08
991.285	506.54
991.646	387.16
992.006	373.6
992.367	389.14
992.727	386.88
993.087	368.52
993.448	382.08
993.808	396.48
994.168	376.71
994.528	364.84
994.888	389.98
995.248	359.76
995.608	374.17
995.967	385.18
996.327	378.4
996.687	365.41
997.046	367.39
997.406	418.5
997.765	362.02
998.125	357.22
998.484	381.79
998.843	383.49
999.202	366.26
999.561	375.86
999.92	372.75
1000.279	381.51
1000.638	397.61
1000.997	379.25
1001.356	387.44
1001.715	372.47
1002.073	384.62
1002.432	390.27
1002.79	386.88
1003.149	337.43
1003.507	375.01
1003.865	365.97
1004.224	408.62
1004.582	395.35
1004.94	393.09
1005.298	378.12
1005.656	377.56
1006.014	384.34
1006.371	388.29
1006.729	388.29
1007.087	384.9
1007.445	377.84
1007.802	391.68
1008.16	379.82
1008.517	347.32
1008.874	388.01
1009.232	377.84
1009.589	384.05
1009.946	379.53
1010.303	353.26
1010.66	393.66
1011.017	387.44
1011.374	382.64
1011.731	379.82
1012.087	360.61
1012.444	398.46
1012.801	380.95
1013.157	370.21
1013.513	379.53
1013.87	380.1
1014.226	370.78
1014.582	389.42
1014.939	388.85
1015.295	394.22
1015.651	384.9
1016.007	383.21
1016.363	375.86
1016.719	366.54
1017.074	371.62
1017.43	357.78
1017.786	366.82
1018.141	363.15
1018.497	387.16
1018.852	395.07
1019.208	395.07
1019.563	363.71
1019.918	377.27
1020.273	385.47
1020.628	364
1020.983	369.65
1021.338	384.05
1021.693	364.84
1022.048	391.68
1022.403	393.09
1022.757	388.57
1023.112	385.75
1023.467	388.29
1023.821	376.99
1024.175	368.23
1024.53	398.74
1024.884	380.66
1025.238	388.29
1025.592	377.84
1025.946	410.88
1026.3	387.16
1026.654	374.73
1027.008	364.28
1027.362	390.83
1027.716	379.53
1028.069	353.26
1028.423	350.15
1028.777	402.69
1029.13	380.1
1029.483	388.01
1029.837	397.89
1030.19	365.13
1030.543	384.34
1030.896	368.23
1031.249	386.88
1031.602	381.23
1031.955	398.46
1032.308	393.09
1032.661	391.96
1033.013	373.88
1033.366	352.13
1033.719	386.31
1034.071	378.69
1034.424	367.67
1034.776	379.53
1035.128	379.53
1035.48	374.45
1035.833	355.8
1036.185	396.2
1036.537	396.2
1036.889	396.2
