Data from SCSF78-405_irradiation_FLMS019251_14-39-27-930.txt Node
Date: Fri Feb 22 14:39:27 PST 2019
User: mu3e
Spectrometer: FLMS01925
Trigger mode: 0
Integration Time (sec): 1.206000E-2
Scans to average: 10
Electric dark correction enabled: true
Nonlinearity correction enabled: true
Boxcar width: 0
XAxis mode: Wavelengths
Number of Pixels in Spectrum: 2048
>>>>>Begin Spectral Data<<<<<
187.103	-106.62
187.574	-106.62
188.045	-106.62
188.516	-141.03
188.987	-139.04
189.458	-110.03
189.929	-125.39
190.4	-116
190.871	-102.07
191.342	-73.93
191.813	-49.21
192.284	-62.84
192.754	-13.42
193.225	-8.31
193.696	11.57
194.166	34.56
194.637	66.05
195.107	106.04
195.578	124.18
196.048	153.37
196.518	164.42
196.989	200.11
197.459	206.34
197.929	210.02
198.399	278.78
198.869	295.19
199.339	305.37
199.809	331.66
200.279	348.33
200.749	323.46
201.219	354.83
201.689	368.11
202.159	366.42
202.628	378
203.098	398.05
203.568	397.2
204.037	402.85
204.507	416.12
204.976	405.11
205.445	412.17
205.915	375.74
206.384	422.05
206.853	398.33
207.323	405.11
207.792	404.83
208.261	383.36
208.73	403.98
209.199	383.65
209.668	404.26
210.137	400.88
210.606	414.71
211.075	382.52
211.543	393.25
212.012	403.42
212.481	411.89
212.95	381.95
213.418	367.83
213.887	395.79
214.355	352.57
214.824	358.79
215.292	354.27
215.76	353.98
216.229	389.58
216.697	368.96
217.165	400.88
217.633	345.79
218.101	371.5
218.569	320.07
219.037	375.74
219.505	355.68
219.973	374.61
220.441	363.59
220.909	358.22
221.377	342.68
221.844	350.59
222.312	370.65
222.78	347.48
223.247	377.43
223.715	352.01
224.182	347.2
224.65	346.92
225.117	354.83
225.584	334.2
226.052	352.85
226.519	374.33
226.986	331.09
227.453	369.52
227.92	364.16
228.387	360.2
228.854	335.05
229.321	367.83
229.788	367.26
230.255	377.15
230.722	376.02
231.189	346.64
231.655	395.79
232.122	408.5
232.589	394.94
233.055	381.67
233.522	363.02
233.988	359.92
234.454	370.37
234.921	373.48
235.387	363.87
235.853	375.74
236.32	362.46
236.786	354.55
237.252	352.85
237.718	384.49
238.184	379.13
238.65	393.53
239.116	372.91
239.582	365.85
240.047	366.42
240.513	399.75
240.979	369.81
241.445	361.89
241.91	379.13
242.376	376.59
242.841	361.33
243.307	391.56
243.772	379.98
244.238	370.09
244.703	393.81
245.168	377.15
245.633	376.3
246.099	382.23
246.564	380.54
247.029	372.07
247.494	399.18
247.959	395.51
248.424	370.94
248.889	366.7
249.353	410.48
249.818	395.23
250.283	390.43
250.748	345.51
251.212	401.16
251.677	383.08
252.141	383.36
252.606	387.6
253.07	406.24
253.535	380.82
253.999	367.83
254.463	407.65
254.927	352.57
255.392	394.38
255.856	382.52
256.32	386.75
256.784	402.85
257.248	383.36
257.712	397.77
258.176	345.51
258.64	395.51
259.103	416.12
259.567	369.24
260.031	377.43
260.495	387.6
260.958	399.46
261.422	391.27
261.885	374.04
262.349	402.29
262.812	397.2
263.275	415.84
263.739	380.54
264.202	376.87
264.665	396.92
265.128	375.17
265.591	394.94
266.054	414.99
266.517	397.49
266.98	389.3
267.443	409.91
267.906	403.13
268.369	366.98
268.832	389.01
269.294	352.29
269.757	375.17
270.22	380.82
270.682	400.31
271.145	386.75
271.607	388.45
272.07	385.34
272.532	378.56
272.994	402
273.456	397.77
273.919	413.3
274.381	431.65
274.843	396.36
275.305	411.04
275.767	420.92
276.229	378
276.691	378.85
277.153	395.51
277.614	386.47
278.076	376.3
278.538	396.36
279	383.65
279.461	394.38
279.923	396.92
280.384	407.09
280.846	372.91
281.307	410.48
281.769	386.75
282.23	382.23
282.691	411.04
283.152	393.25
283.613	370.09
284.075	385.06
284.536	405.39
284.997	415.56
285.458	403.98
285.918	389.3
286.379	391.27
286.84	413.02
287.301	388.73
287.762	398.33
288.222	386.75
288.683	377.72
289.143	381.95
289.604	381.39
290.064	413.02
290.525	393.53
290.985	395.51
291.445	403.98
291.906	416.41
292.366	409.91
292.826	396.64
293.286	383.36
293.746	386.75
294.206	414.71
294.666	406.52
295.126	403.7
295.586	392.4
296.046	404.83
296.506	400.03
296.965	393.25
297.425	394.38
297.884	412.73
298.344	405.39
298.804	401.44
299.263	407.37
299.722	409.91
300.182	394.66
300.641	368.11
301.1	400.03
301.559	411.89
302.019	404.83
302.478	421.2
302.937	409.63
303.396	422.9
303.855	415.84
304.314	384.78
304.772	410.76
305.231	412.45
305.69	425.72
306.149	396.64
306.607	393.53
307.066	402.57
307.524	428.54
307.983	394.1
308.441	398.05
308.9	404.26
309.358	405.39
309.816	388.17
310.275	388.17
310.733	387.88
311.191	402
311.649	398.05
312.107	393.25
312.565	415.56
313.023	415.28
313.481	427.13
313.939	411.61
314.397	397.77
314.854	429.67
315.312	406.24
315.77	410.48
316.227	436.17
316.685	379.41
317.142	405.11
317.6	412.17
318.057	373.48
318.514	392.12
318.972	412.45
319.429	436.17
319.886	416.69
320.343	382.23
320.8	390.99
321.257	413.86
321.714	425.16
322.171	419.51
322.628	400.59
323.085	394.66
323.542	440.12
323.998	420.36
324.455	397.2
324.912	430.24
325.368	417.82
325.825	401.44
326.281	396.92
326.738	443.79
327.194	422.33
327.65	403.13
328.107	431.37
328.563	402.85
329.019	420.08
329.475	423.75
329.931	425.72
330.387	409.91
330.843	404.55
331.299	419.79
331.755	415.28
332.211	392.4
332.666	418.38
333.122	406.81
333.578	416.12
334.033	403.42
334.489	417.82
334.944	415.56
335.4	429.67
335.855	421.77
336.31	437.29
336.766	416.97
337.221	426
337.676	427.13
338.131	426
338.586	412.17
339.041	394.38
339.496	410.48
339.951	422.9
340.406	389.3
340.861	406.81
341.316	405.39
341.771	421.77
342.225	402.57
342.68	439.27
343.134	428.83
343.589	419.79
344.043	401.44
344.498	412.73
344.952	426.57
345.406	421.2
345.861	393.81
346.315	420.64
346.769	395.23
347.223	455.07
347.677	418.1
348.131	426
348.585	407.65
349.039	415.84
349.493	404.83
349.947	418.66
350.401	437.86
350.854	421.2
351.308	416.41
351.762	417.82
352.215	418.38
352.669	423.18
353.122	425.16
353.575	404.26
354.029	433.34
354.482	398.05
354.935	408.5
355.388	414.15
355.842	412.73
356.295	399.18
356.748	432.21
357.201	422.33
357.654	401.44
358.106	431.37
358.559	398.9
359.012	405.68
359.465	423.46
359.917	452.25
360.37	424.31
360.823	396.07
361.275	407.37
361.728	437.58
362.18	405.68
362.632	433.34
363.085	420.36
363.537	419.79
363.989	432.21
364.441	427.13
364.893	422.33
365.345	419.79
365.797	420.36
366.249	402.57
366.701	405.68
367.153	415.28
367.605	426.57
368.057	424.03
368.508	427.98
368.96	443.22
369.411	424.87
369.863	425.16
370.314	424.31
370.766	397.49
371.217	417.82
371.669	429.67
372.12	410.19
372.571	436.73
373.022	434.19
373.473	429.96
373.924	432.78
374.375	420.36
374.826	448.87
375.277	448.58
375.728	429.39
376.179	447.46
376.63	428.83
377.08	420.36
377.531	440.96
377.981	435.88
378.432	419.51
378.883	440.4
379.333	410.48
379.783	465.51
380.234	392.4
380.684	439.27
381.134	439.55
381.584	459.59
382.034	444.92
382.485	425.16
382.935	422.62
383.385	404.55
383.834	421.49
384.284	427.98
384.734	427.42
385.184	443.5
385.634	402.29
386.083	427.42
386.533	438.42
386.982	456.49
387.432	438.71
387.881	402
388.331	435.88
388.78	428.83
389.229	419.79
389.679	455.07
390.128	440.68
390.577	429.96
391.026	447.46
391.475	440.12
391.924	442.94
392.373	403.13
392.822	435.88
393.27	432.5
393.719	429.67
394.168	420.64
394.617	457.33
395.065	453.66
395.514	431.93
395.962	431.65
396.411	468.34
396.859	422.05
397.307	431.08
397.756	459.59
398.204	445.48
398.652	444.35
399.1	450
399.548	463.26
399.996	450.84
400.444	468.9
400.892	450
401.34	466.64
401.788	451.97
402.236	463.54
402.683	475.95
403.131	469.18
403.579	477.36
404.026	479.62
404.474	473.41
404.921	462.41
405.369	476.8
405.816	475.95
406.263	475.67
406.71	478.77
407.158	488.08
407.605	479.9
408.052	504.72
408.499	491.75
408.946	493.72
409.393	516
409.84	499.08
410.286	497.95
410.733	532.35
411.18	558
411.626	569.27
412.073	645.31
412.52	699.05
412.966	772.71
413.413	918.12
413.859	1068.3
414.305	1309.76
414.752	1611.08
415.198	1928.69
415.644	2296.85
416.09	2825.34
416.536	3377.19
416.982	4052.58
417.428	4740.21
417.874	5529.23
418.32	6407.97
418.766	7332.74
419.211	8423.26
419.657	9383.62
420.103	10627.13
420.548	11441.68
420.994	12826.08
421.439	14013.16
421.885	15098.67
422.33	16484.66
422.776	17607.24
423.221	18576.85
423.666	19940.82
424.111	21282.71
424.556	22230.37
425.001	23737.06
425.446	25131.32
425.891	26358.77
426.336	27308.23
426.781	28623.95
427.226	30788.32
427.671	31474.33
428.115	32278.68
428.56	34025.53
429.005	35684.81
429.449	36164.01
429.894	37529.25
430.338	38725.36
430.782	38740.35
431.227	40271.98
431.671	40901.28
432.115	42191.4
432.559	43361.89
433.003	43316
433.447	44181.36
433.891	44634.1
434.335	44976.76
434.779	45868.17
435.223	46029.28
435.667	46124.96
436.111	46689.15
436.554	46713.05
436.998	46142.18
437.442	46346.92
437.885	48144.73
438.328	46692.2
438.772	47022.8
439.215	47518.61
439.659	47145.93
440.102	47567.99
440.545	46841.24
440.988	46838.19
441.431	47704.47
441.874	47140.06
442.317	47464.64
442.76	46868.98
443.203	46243.75
443.646	47136.49
444.089	46658.91
444.531	47280.16
444.974	45963.75
445.417	47046.75
445.859	45928.35
446.302	47263.31
446.744	46558.56
447.186	47574.13
447.629	46785.78
448.071	46753.73
448.513	46879.67
448.956	48297.88
449.398	47331.75
449.84	46198.15
450.282	46792.64
450.724	47379.78
451.166	47009.55
451.607	46934.66
452.049	46980.25
452.491	48186.92
452.933	47737.02
453.374	48267.49
453.816	48760.75
454.257	48416.43
454.699	49460.41
455.14	49114.33
455.582	48947.49
456.023	48934.01
456.464	49091.22
456.905	49482.05
457.347	49537.1
457.788	48648.52
458.229	48705.14
458.67	49929.69
459.111	47943.77
459.552	47906.8
459.992	47714.98
460.433	47483.05
460.874	46688.14
461.315	47864.72
461.755	46864.14
462.196	46530.88
462.636	45620.14
463.077	45321.07
463.517	45413.56
463.957	45700.42
464.398	45315.53
464.838	45478.1
465.278	44441.19
465.718	44415.37
466.158	43186.1
466.598	43898.85
467.038	43269.86
467.478	43877.59
467.918	43985.39
468.358	43179.62
468.798	42995.5
469.237	42939.47
469.677	42873.25
470.117	43556.04
470.556	41175.47
470.996	41635.4
471.435	41764.26
471.874	42562.3
472.314	42299.41
472.753	41350.89
473.192	41344.46
473.631	41187.84
474.07	41212.57
474.509	41285.81
474.948	41683.22
475.387	40994.96
475.826	40043.41
476.265	41698.83
476.704	41221.48
477.143	41691.4
477.581	41342.72
478.02	41814.83
478.458	40531.8
478.897	41103.5
479.335	42318.04
479.774	41823.25
480.212	42106.26
480.65	41948.97
481.089	41589.82
481.527	41161.87
481.965	40664.13
482.403	42730.41
482.841	42375.66
483.279	42325.74
483.717	42327.72
484.155	41993.62
484.592	42440.01
485.03	42645.59
485.468	41672.82
485.905	41739.23
486.343	42351.32
486.781	41547.47
487.218	40968.26
487.655	40933.66
488.093	40106.52
488.53	41521.71
488.967	40631.78
489.405	40501.19
489.842	39655.42
490.279	39699.98
490.716	39305.46
491.153	39709.59
491.59	39119.05
492.027	38464.33
492.463	37989.33
492.9	37392.06
493.337	37218.19
493.773	37225.29
494.21	36483.58
494.647	36302.87
495.083	35592.47
495.519	35220.29
495.956	35126.05
496.392	34427.07
496.828	34255.07
497.265	33459.23
497.701	33592.86
498.137	33384.37
498.573	32482
499.009	32947.19
499.445	32079.98
499.881	31726.45
500.316	31905.9
500.752	31027.34
501.188	30812.96
501.624	30786.13
502.059	29492.8
502.495	29327.01
502.93	29245.69
503.366	29411.5
503.801	28822.85
504.236	28684.8
504.672	28207.64
505.107	27738.75
505.542	27212.25
505.977	27195.84
506.412	26662.03
506.847	27014.61
507.282	26506.86
507.717	26209.66
508.152	26164.04
508.587	25860.27
509.021	25154.43
509.456	24843.44
509.891	24942.78
510.325	24846.39
510.76	24471.24
511.194	24218.68
511.628	24330.69
512.063	23511.24
512.497	23674.7
512.931	23214.74
513.366	22997.3
513.8	23099
514.234	22274.63
514.668	22340.65
515.102	22515.65
515.536	21638.2
515.969	21897.14
516.403	21366.72
516.837	21133.49
517.271	21223.48
517.704	20695.94
518.138	20477
518.571	20381.15
519.005	20060.39
519.438	19934.11
519.871	19745.11
520.305	19323.03
520.738	19305.11
521.171	18764.15
521.604	18922.45
522.037	18673.88
522.47	18310.09
522.903	17889.73
523.336	17978.94
523.769	17763.01
524.202	17310.77
524.634	17325.29
525.067	17082.94
525.5	16860.74
525.932	16857.73
526.365	16333.61
526.797	16190.28
527.23	16304.5
527.662	15705.39
528.094	15526.08
528.527	15509.48
528.959	15278.46
529.391	15064.41
529.823	14589.2
530.255	14598.28
530.687	14277.45
531.119	13989.65
531.551	13975.24
531.982	13583.87
532.414	13480.05
532.846	13209.43
533.277	13075.53
533.709	12605.6
534.14	12578.41
534.572	12487.41
535.003	12353.9
535.435	12040.29
535.866	11952.14
536.297	11637.48
536.728	11676.52
537.159	11557.85
537.59	11262.05
538.022	11098.65
538.452	10990.41
538.883	10759.14
539.314	10705.07
539.745	10450.11
540.176	10277.81
540.606	10010.44
541.037	10025.11
541.468	9871.72
541.898	9833.86
542.328	9698.09
542.759	9433.71
543.189	9344.63
543.619	9249.29
544.05	9051.22
544.48	8864.29
544.91	8850.56
545.34	8689.33
545.77	8607.09
546.2	8485.86
546.63	8331.25
547.06	8297.97
547.489	8112.18
547.919	7896.94
548.349	7958.74
548.778	7873.21
549.208	7701.74
549.637	7564.3
550.067	7440.59
550.496	7512.01
550.926	7308.64
551.355	7117.02
551.784	7197.79
552.213	7085.27
552.642	6956.1
553.071	6871.49
553.5	6798.66
553.929	6575.15
554.358	6673.66
554.787	6535.09
555.216	6518.48
555.645	6374.98
556.073	6297.61
556.502	6242.92
556.93	6061.22
557.359	5985.23
557.787	6042.16
558.216	5881.62
558.644	5847.41
559.072	5820.62
559.5	5741.28
559.929	5655.23
560.357	5629.46
560.785	5558.22
561.213	5572.84
561.641	5498.37
562.068	5413.99
562.496	5362.85
562.924	5308.49
563.352	5282.63
563.779	5267.16
564.207	5247.16
564.634	5202.88
565.062	5209.28
565.489	5076.06
565.917	5021.01
566.344	5020.74
566.771	5034.64
567.198	4921.25
567.625	4856.75
568.053	4780.68
568.48	4767.81
568.907	4720.9
569.333	4632.12
569.76	4459.14
570.187	4519.61
570.614	4422.57
571.04	4552.92
571.467	4304.16
571.894	4296.88
572.32	4096.85
572.747	4115.74
573.173	4047.71
573.599	3993.42
574.026	3892.59
574.452	3866.08
574.878	3815.74
575.304	3735.57
575.73	3671.33
576.156	3615.19
576.582	3585.88
577.008	3484.32
577.434	3448.44
577.86	3346.72
578.285	3373.93
578.711	3288.19
579.137	3236.43
579.562	3117.54
579.988	3113.72
580.413	3053.39
580.838	3014.06
581.264	2998.76
581.689	2938.35
582.114	2918.39
582.539	2869.41
582.964	2840.13
583.39	2810.28
583.814	2733.56
584.239	2723.97
584.664	2656.23
585.089	2627.97
585.514	2604.63
585.939	2585.41
586.363	2511.51
586.788	2470
587.212	2483.2
587.637	2440.3
588.061	2410.86
588.485	2344.24
588.91	2295.75
589.334	2296.03
589.758	2262.13
590.182	2225.73
590.606	2203.66
591.03	2193.18
591.454	2123.89
591.878	2115.88
592.302	2119.75
592.726	2061.73
593.15	2032.15
593.573	2024.97
593.997	1993.99
594.42	1908.48
594.844	1948.34
595.267	1919.27
595.691	1897.12
596.114	1845.04
596.537	1848.92
596.96	1847.53
597.384	1839.22
597.807	1808.73
598.23	1808.17
598.653	1755.48
599.076	1774.06
599.499	1730.23
599.921	1728.84
600.344	1719.68
600.767	1709.97
601.189	1666.93
601.612	1673.04
602.034	1657.2
602.457	1617.75
602.879	1626.64
603.302	1637.76
603.724	1638.31
604.146	1612.19
604.568	1566.32
604.991	1579.39
605.413	1644.98
605.835	1560.2
606.257	1563.81
606.678	1556.58
607.1	1554.91
607.522	1526.82
607.944	1492.86
608.365	1528.76
608.787	1518.19
609.209	1480.61
609.63	1458.34
610.051	1453.05
610.473	1435.78
610.894	1428.81
611.315	1402.06
611.737	1399
612.158	1415.16
612.579	1365.82
613	1332.36
613.421	1326.78
613.842	1333.19
614.263	1296.64
614.683	1265.38
615.104	1284.92
615.525	1246.39
615.945	1227.4
616.366	1233.27
616.787	1201.42
617.207	1182.98
617.627	1164.25
618.048	1177.39
618.468	1159.78
618.888	1130.41
619.308	1148.59
619.728	1142.16
620.148	1102.72
620.568	1114.19
620.988	1082.02
621.408	1099.08
621.828	1084.81
622.248	1039.75
622.668	1069.98
623.087	1048.71
623.507	1028.82
623.926	1028.82
624.346	1017.9
624.765	971.67
625.185	1001.93
625.604	986.53
626.023	964.67
626.442	962.98
626.861	971.39
627.28	930.74
627.699	953.45
628.118	909.15
628.537	924.85
628.956	911.95
629.375	883.34
629.794	890.63
630.212	896.25
630.631	864.26
631.049	886.15
631.468	854.71
631.886	863.42
632.305	876.61
632.723	849.1
633.141	806.98
633.559	815.13
633.978	888.11
634.396	842.08
634.814	820.74
635.232	803.61
635.65	806.98
636.067	788.16
636.485	799.68
636.903	739.26
637.321	756.13
637.738	776.64
638.156	780.29
638.573	758.38
638.991	731.95
639.408	747.7
639.825	729.14
640.243	717.33
640.66	739.26
641.077	688.36
641.494	714.52
641.911	717.89
642.328	729.42
642.745	691.74
643.162	707.49
643.579	691.17
643.995	675.14
644.412	703.55
644.829	696.8
645.245	702.71
645.662	676.83
646.078	641.65
646.495	683.02
646.911	659.38
647.327	635.18
647.743	651.5
648.159	665.29
648.576	658.82
648.992	663.88
649.408	636.86
649.824	650.94
650.239	671.48
650.655	622.22
651.071	607.58
651.487	623.35
651.902	635.46
652.318	648.41
652.733	628.42
653.149	623.63
653.564	599.13
653.979	601.39
654.395	619.97
654.81	599.42
655.225	583.36
655.64	565.89
656.055	625.04
656.47	616.31
656.885	614.9
657.3	604.48
657.715	597.44
658.13	594.63
658.544	583.08
658.959	583.92
659.374	587.02
659.788	590.68
660.202	555.18
660.617	583.08
661.031	566.17
661.445	584.77
661.86	570.4
662.274	563.07
662.688	524.46
663.102	555.75
663.516	575.19
663.93	571.25
664.344	567.58
664.758	561.38
665.171	548.7
665.585	553.77
665.999	555.18
666.412	552.65
666.826	563.92
667.239	529.25
667.653	524.18
668.066	540.53
668.479	546.45
668.892	558.28
669.306	519.1
669.719	547.29
670.132	532.92
670.545	559.97
670.958	540.81
671.37	527.84
671.783	524.74
672.196	515.16
672.609	521.64
673.021	556.87
673.434	510.08
673.846	532.92
674.259	512.9
674.671	506.98
675.084	515.72
675.496	517.41
675.908	500.49
676.32	485.26
676.732	484.98
677.144	498.52
677.556	496.83
677.968	509.8
678.38	511.77
678.792	499.08
679.204	493.72
679.615	506.42
680.027	486.67
680.439	473.98
680.85	483.29
681.262	482.16
681.673	483.57
682.084	480.75
682.496	462.69
682.907	486.95
683.318	509.52
683.729	494.01
684.14	475.39
684.551	483.01
684.962	472.57
685.373	490.9
685.784	469.18
686.194	473.13
686.605	461.28
687.016	454.79
687.426	479.34
687.837	482.44
688.247	485.54
688.657	446.04
689.068	476.8
689.478	455.36
689.888	488.65
690.298	476.8
690.708	461.56
691.118	484.98
691.528	477.65
691.938	455.36
692.348	471.72
692.758	446.04
693.168	444.35
693.577	462.13
693.987	466.64
694.396	450.56
694.806	457.9
695.215	445.2
695.625	459.59
696.034	487.8
696.443	473.98
696.852	468.62
697.262	453.38
697.671	454.79
698.08	435.04
698.489	457.33
698.897	444.92
699.306	466.64
699.715	427.13
700.124	441.53
700.532	461.85
700.941	440.12
701.35	431.37
701.758	442.94
702.166	440.4
702.575	430.52
702.983	453.95
703.391	448.02
703.799	452.25
704.208	448.02
704.616	417.53
705.024	463.82
705.432	447.46
705.839	451.97
706.247	423.75
706.655	435.04
707.063	418.38
707.47	429.96
707.878	442.09
708.285	437.86
708.693	429.67
709.1	436.73
709.508	455.64
709.915	430.52
710.322	429.39
710.729	433.63
711.136	414.99
711.543	429.11
711.95	433.06
712.357	430.8
712.764	416.69
713.171	440.4
713.578	422.62
713.984	436.45
714.391	420.92
714.797	416.97
715.204	436.73
715.61	416.97
716.017	400.88
716.423	431.08
716.829	424.59
717.236	415.56
717.642	437.58
718.048	421.77
718.454	408.78
718.86	424.03
719.266	418.1
719.671	410.76
720.077	437.01
720.483	423.46
720.889	420.36
721.294	416.41
721.7	398.33
722.105	440.68
722.511	414.43
722.916	421.49
723.321	439.27
723.726	433.34
724.132	411.61
724.537	410.76
724.942	439.27
725.347	401.72
725.752	430.8
726.156	406.81
726.561	419.51
726.966	414.15
727.371	390.99
727.775	433.34
728.18	421.77
728.584	414.43
728.989	402.29
729.393	438.14
729.798	419.79
730.202	416.69
730.606	407.09
731.01	411.32
731.414	419.51
731.818	399.46
732.222	413.86
732.626	395.23
733.03	431.93
733.434	420.64
733.837	414.99
734.241	425.72
734.645	414.99
735.048	389.01
735.452	404.26
735.855	401.44
736.258	394.38
736.662	409.91
737.065	430.8
737.468	423.46
737.871	416.97
738.274	415.28
738.677	416.12
739.08	414.99
739.483	406.24
739.886	427.13
740.289	436.17
740.691	407.65
741.094	405.96
741.497	440.12
741.899	395.23
742.302	423.75
742.704	404.55
743.106	409.63
743.508	408.5
743.911	418.1
744.313	422.62
744.715	432.21
745.117	424.03
745.519	423.18
745.921	396.64
746.323	417.82
746.724	394.66
747.126	403.7
747.528	428.83
747.929	421.77
748.331	402.85
748.732	414.99
749.134	420.08
749.535	438.14
749.936	385.06
750.338	432.21
750.739	403.42
751.14	407.65
751.541	413.02
751.942	408.22
752.343	420.36
752.744	405.11
753.144	411.89
753.545	437.29
753.946	405.96
754.346	404.55
754.747	419.23
755.148	412.45
755.548	424.03
755.948	424.59
756.349	422.33
756.749	414.71
757.149	420.64
757.549	402
757.949	419.23
758.349	400.88
758.749	396.07
759.149	410.48
759.549	411.61
759.949	424.31
760.348	447.46
760.748	407.65
761.148	424.59
761.547	375.74
761.947	411.61
762.346	407.93
762.745	415.56
763.145	393.81
763.544	401.16
763.943	412.73
764.342	397.49
764.741	408.78
765.14	386.19
765.539	407.09
765.938	416.97
766.336	392.12
766.735	416.97
767.134	402.29
767.532	395.23
767.931	378.85
768.329	406.81
768.728	388.17
769.126	376.59
769.525	418.66
769.923	413.3
770.321	428.83
770.719	380.82
771.117	372.63
771.515	409.91
771.913	396.92
772.311	415.84
772.709	405.11
773.106	380.54
773.504	382.23
773.902	401.72
774.299	389.86
774.697	413.86
775.094	395.23
775.491	389.01
775.889	390.99
776.286	399.75
776.683	389.58
777.08	402.85
777.477	420.08
777.874	412.45
778.271	390.99
778.668	396.92
779.065	416.12
779.462	388.17
779.858	392.69
780.255	403.13
780.652	414.99
781.048	403.7
781.444	370.94
781.841	383.08
782.237	431.93
782.633	386.47
783.03	379.41
783.426	405.11
783.822	405.96
784.218	400.31
784.614	391.27
785.01	419.79
785.405	402.29
785.801	409.06
786.197	382.52
786.593	392.97
786.988	411.89
787.384	403.42
787.779	421.77
788.174	401.72
788.57	407.65
788.965	383.08
789.36	400.31
789.755	373.76
790.15	390.99
790.545	373.2
790.94	422.62
791.335	416.12
791.73	402.57
792.125	392.4
792.52	391.84
792.914	381.39
793.309	407.09
793.703	403.13
794.098	389.01
794.492	394.1
794.887	370.09
795.281	402.57
795.675	411.32
796.069	416.97
796.463	410.76
796.857	397.2
797.251	379.41
797.645	383.36
798.039	414.99
798.433	413.58
798.826	406.81
799.22	387.6
799.614	422.33
800.007	378.28
800.401	399.46
800.794	418.38
801.187	391.56
801.581	382.8
801.974	402.29
802.367	394.94
802.76	402.57
803.153	376.3
803.546	407.65
803.939	390.99
804.332	415.56
804.725	402.29
805.117	387.32
805.51	416.97
805.903	389.01
806.295	402.57
806.688	401.44
807.08	417.25
807.472	395.23
807.865	391.84
808.257	402
808.649	389.58
809.041	410.19
809.433	429.96
809.825	402
810.217	378.85
810.609	425.16
811.001	409.63
811.392	384.78
811.784	384.78
812.175	402
812.567	407.65
812.958	404.83
813.35	393.53
813.741	389.58
814.132	381.67
814.524	407.65
814.915	414.71
815.306	403.13
815.697	389.86
816.088	407.37
816.479	412.45
816.87	382.52
817.26	391.56
817.651	404.26
818.042	396.92
818.432	362.18
818.823	377.72
819.213	396.92
819.604	418.95
819.994	395.79
820.384	402.57
820.775	412.17
821.165	386.75
821.555	399.18
821.945	397.77
822.335	380.26
822.725	401.72
823.114	371.22
823.504	420.08
823.894	382.52
824.284	396.92
824.673	416.41
825.063	391.84
825.452	387.6
825.842	399.46
826.231	405.39
826.62	383.93
827.009	390.43
827.399	394.38
827.788	352.01
828.177	388.45
828.566	387.6
828.954	403.98
829.343	366.7
829.732	365
830.121	398.9
830.509	385.62
830.898	387.88
831.286	370.37
831.675	392.69
832.063	389.58
832.452	386.47
832.84	416.69
833.228	370.37
833.616	383.93
834.004	389.01
834.392	403.42
834.78	383.08
835.168	398.62
835.556	384.78
835.944	381.11
836.331	399.18
836.719	389.01
837.107	401.72
837.494	401.72
837.881	360.76
838.269	396.64
838.656	398.9
839.043	383.93
839.431	398.05
839.818	370.37
840.205	383.93
840.592	400.03
840.979	387.88
841.366	420.08
841.752	409.63
842.139	408.78
842.526	400.03
842.912	373.2
843.299	400.88
843.685	394.94
844.072	389.86
844.458	392.97
844.844	410.76
845.231	395.79
845.617	383.93
846.003	405.96
846.389	415.28
846.775	399.46
847.161	413.02
847.547	379.69
847.933	407.65
848.318	383.36
848.704	395.51
849.09	390.71
849.475	398.33
849.861	372.35
850.246	359.92
850.631	383.08
851.017	393.53
851.402	378.85
851.787	363.31
852.172	394.94
852.557	392.4
852.942	366.13
853.327	368.96
853.712	367.55
854.097	379.13
854.481	386.75
854.866	369.81
855.25	399.75
855.635	389.01
856.019	394.94
856.404	425.16
856.788	399.18
857.172	368.39
857.557	364.44
857.941	401.44
858.325	381.95
858.709	393.53
859.093	401.72
859.477	412.17
859.86	385.06
860.244	383.65
860.628	396.36
861.012	389.3
861.395	361.61
861.779	391.56
862.162	391.56
862.545	397.77
862.929	376.59
863.312	380.26
863.695	388.45
864.078	371.22
864.461	382.8
864.844	406.81
865.227	392.69
865.61	400.59
865.993	386.75
866.376	385.34
866.758	403.42
867.141	376.59
867.523	395.23
867.906	387.88
868.288	402.85
868.671	401.16
869.053	386.47
869.435	432.5
869.817	392.69
870.199	368.11
870.581	372.35
870.963	374.04
871.345	391.27
871.727	390.99
872.109	389.58
872.491	387.32
872.872	390.14
873.254	396.36
873.635	358.79
874.017	388.45
874.398	387.88
874.779	399.46
875.161	401.72
875.542	393.25
875.923	390.14
876.304	399.75
876.685	369.81
877.066	405.96
877.447	391.27
877.828	377.72
878.208	370.09
878.589	396.92
878.97	368.68
879.35	361.61
879.731	406.24
880.111	370.09
880.491	394.66
880.872	415.28
881.252	362.46
881.632	385.34
882.012	412.17
882.392	376.87
882.772	381.39
883.152	383.65
883.532	387.32
883.912	391.27
884.291	394.66
884.671	372.07
885.051	377.15
885.43	392.12
885.81	383.08
886.189	383.08
886.568	383.93
886.948	390.43
887.327	411.89
887.706	379.13
888.085	394.1
888.464	368.68
888.843	390.71
889.222	385.34
889.601	398.62
889.979	377.15
890.358	398.62
890.737	359.07
891.115	374.04
891.494	410.48
891.872	381.11
892.25	375.46
892.629	350.59
893.007	392.69
893.385	376.87
893.763	381.11
894.141	406.52
894.519	375.46
894.897	382.23
895.275	380.26
895.653	396.07
896.03	401.44
896.408	396.92
896.786	381.67
897.163	392.4
897.541	374.89
897.918	388.73
898.295	389.3
898.673	352.85
899.05	372.35
899.427	398.62
899.804	394.94
900.181	398.33
900.558	391.27
900.935	410.76
901.312	388.45
901.688	375.46
902.065	389.86
902.442	364.16
902.818	381.11
903.195	374.61
903.571	388.45
903.947	388.45
904.324	400.59
904.7	386.75
905.076	409.35
905.452	383.65
905.828	369.52
906.204	385.06
906.58	368.11
906.956	370.65
907.331	390.43
907.707	401.44
908.083	390.71
908.458	380.26
908.834	387.04
909.209	397.77
909.585	398.62
909.96	390.99
910.335	401.16
910.71	391.56
911.086	375.17
911.461	381.95
911.836	387.04
912.21	390.99
912.585	381.95
912.96	366.7
913.335	403.42
913.709	368.39
914.084	369.24
914.459	401.72
914.833	412.17
915.207	364.44
915.582	376.02
915.956	383.08
916.33	363.02
916.704	356.53
917.078	386.19
917.452	398.05
917.826	388.45
918.2	412.45
918.574	382.52
918.948	383.36
919.321	406.24
919.695	376.87
920.068	368.39
920.442	385.34
920.815	390.43
921.189	360.48
921.562	392.69
921.935	395.51
922.308	361.33
922.681	371.78
923.054	386.19
923.427	366.42
923.8	373.76
924.173	366.98
924.546	403.13
924.919	404.26
925.291	381.67
925.664	365.57
926.036	372.07
926.409	381.67
926.781	373.76
927.153	399.46
927.526	403.98
927.898	357.66
928.27	365.85
928.642	367.26
929.014	380.26
929.386	389.3
929.758	389.3
930.129	385.91
930.501	379.41
930.873	356.53
931.244	371.5
931.616	359.35
931.987	394.66
932.359	385.91
932.73	385.34
933.101	386.47
933.472	389.3
933.843	365.85
934.214	386.47
934.585	363.87
934.956	387.88
935.327	401.44
935.698	389.58
936.069	394.1
936.439	379.41
936.81	364.44
937.18	371.22
937.551	377.72
937.921	362.18
938.292	405.11
938.662	390.14
939.032	373.48
939.402	382.8
939.772	361.89
940.142	372.07
940.512	389.58
940.882	371.78
941.252	390.14
941.621	397.2
941.991	404.83
942.361	374.61
942.73	401.16
943.1	381.39
943.469	387.88
943.838	400.31
944.208	364.44
944.577	361.05
944.946	367.55
945.315	396.36
945.684	381.39
946.053	397.77
946.422	356.53
946.791	405.11
947.159	389.86
947.528	393.53
947.897	364.44
948.265	375.46
948.634	384.78
949.002	373.2
949.371	340.7
949.739	372.07
950.107	405.96
950.475	385.62
950.843	376.87
951.211	395.79
951.579	329.11
951.947	399.75
952.315	380.26
952.683	392.97
953.05	385.91
953.418	391.27
953.785	380.82
954.153	366.98
954.52	388.45
954.888	363.87
955.255	383.08
955.622	384.49
955.989	354.83
956.356	362.46
956.723	400.31
957.09	367.55
957.457	386.19
957.824	363.02
958.191	376.3
958.557	379.98
958.924	379.41
959.291	371.22
959.657	388.17
960.023	367.55
960.39	369.81
960.756	376.3
961.122	388.45
961.488	375.46
961.855	370.37
962.221	364.16
962.586	389.86
962.952	380.26
963.318	386.19
963.684	390.43
964.05	379.13
964.415	378.28
964.781	360.48
965.146	412.73
965.512	383.08
965.877	411.32
966.242	369.81
966.608	371.22
966.973	384.78
967.338	404.55
967.703	366.98
968.068	383.08
968.433	370.37
968.797	401.72
969.162	375.74
969.527	370.09
969.891	374.33
970.256	376.87
970.62	366.42
970.985	398.05
971.349	390.43
971.714	365.57
972.078	381.39
972.442	363.31
972.806	386.47
973.17	377.72
973.534	357.37
973.898	384.78
974.262	384.78
974.625	402.85
974.989	362.74
975.353	387.32
975.716	365.29
976.08	362.18
976.443	373.76
976.806	357.94
977.17	371.78
977.533	365.29
977.896	383.93
978.259	361.05
978.622	389.58
978.985	365.57
979.348	399.46
979.711	395.23
980.073	374.89
980.436	367.83
980.799	388.17
981.161	386.19
981.524	389.58
981.886	371.78
982.248	370.37
982.611	364.16
982.973	384.21
983.335	376.59
983.697	398.62
984.059	379.69
984.421	366.13
984.783	405.11
985.145	387.04
985.506	390.99
985.868	376.87
986.23	369.52
986.591	378
986.953	379.41
987.314	350.31
987.675	393.25
988.037	484.98
988.398	409.63
988.759	386.75
989.12	365
989.481	385.06
989.842	377.43
990.203	380.26
990.564	360.48
990.924	368.96
991.285	497.67
991.646	389.3
992.006	373.48
992.367	370.37
992.727	382.23
993.087	384.21
993.448	358.79
993.808	383.08
994.168	360.48
994.528	350.31
994.888	376.02
995.248	389.3
995.608	407.93
995.967	357.66
996.327	366.7
996.687	372.63
997.046	364.72
997.406	370.94
997.765	377.15
998.125	366.7
998.484	396.36
998.843	379.13
999.202	372.91
999.561	397.2
999.92	371.22
1000.279	363.59
1000.638	369.81
1000.997	383.65
1001.356	358.5
1001.715	355.11
1002.073	352.01
1002.432	371.78
1002.79	358.5
1003.149	357.66
1003.507	399.46
1003.865	372.63
1004.224	388.73
1004.582	386.75
1004.94	367.55
1005.298	353.42
1005.656	374.61
1006.014	379.41
1006.371	359.92
1006.729	375.46
1007.087	368.39
1007.445	383.36
1007.802	390.99
1008.16	372.63
1008.517	353.42
1008.874	357.66
1009.232	370.65
1009.589	364.44
1009.946	350.87
1010.303	379.98
1010.66	396.07
1011.017	370.65
1011.374	372.35
1011.731	371.78
1012.087	402.29
1012.444	361.33
1012.801	366.7
1013.157	379.98
1013.513	391.27
1013.87	396.64
1014.226	370.37
1014.582	377.72
1014.939	404.83
1015.295	382.23
1015.651	377.72
1016.007	372.63
1016.363	389.86
1016.719	381.95
1017.074	371.5
1017.43	378.85
1017.786	382.52
1018.141	381.67
1018.497	401.16
1018.852	354.83
1019.208	369.24
1019.563	376.87
1019.918	360.48
1020.273	386.19
1020.628	356.53
1020.983	386.75
1021.338	368.96
1021.693	375.74
1022.048	353.7
1022.403	378.56
1022.757	368.68
1023.112	368.39
1023.467	356.53
1023.821	361.05
1024.175	368.11
1024.53	376.59
1024.884	356.53
1025.238	374.89
1025.592	388.17
1025.946	379.13
1026.3	362.46
1026.654	384.21
1027.008	361.61
1027.362	372.91
1027.716	362.74
1028.069	383.08
1028.423	356.53
1028.777	366.98
1029.13	363.59
1029.483	392.69
1029.837	363.59
1030.19	368.96
1030.543	385.62
1030.896	361.61
1031.249	408.5
1031.602	376.59
1031.955	348.9
1032.308	355.11
1032.661	372.35
1033.013	375.74
1033.366	370.94
1033.719	376.87
1034.071	385.34
1034.424	386.47
1034.776	393.25
1035.128	353.98
1035.48	390.43
1035.833	371.78
1036.185	390.99
1036.537	390.99
1036.889	390.99
