Data from SCSF78-405_irradiation_FLMS019251_23-39-27-864.txt Node
Date: Fri Feb 22 23:39:27 PST 2019
User: mu3e
Spectrometer: FLMS01925
Trigger mode: 0
Integration Time (sec): 1.206000E-2
Scans to average: 10
Electric dark correction enabled: true
Nonlinearity correction enabled: true
Boxcar width: 0
XAxis mode: Wavelengths
Number of Pixels in Spectrum: 2048
>>>>>Begin Spectral Data<<<<<
187.103	-86.54
187.574	-86.54
188.045	-86.54
188.516	-141.99
188.987	-129.19
189.458	-119.81
189.929	-115.82
190.4	-116.11
190.871	-110.42
191.342	-82.28
191.813	-54.14
192.284	-45.9
192.754	-22.04
193.225	-3.58
193.696	30.76
194.166	42.97
194.637	76.73
195.107	87.22
195.578	147.88
196.048	130.31
196.518	153.27
196.989	187.82
197.459	207.08
197.929	247.27
198.399	284.05
198.869	286.88
199.339	274.72
199.809	284.62
200.279	371.39
200.749	355.57
201.219	330.42
201.689	349.92
202.159	366.87
202.628	377.33
203.098	359.53
203.568	363.48
204.037	405.29
204.507	415.73
204.976	403.88
205.445	355.86
205.915	399.64
206.384	379.02
206.853	389.19
207.323	390.88
207.792	375.07
208.261	397.38
208.73	369.7
209.199	392.86
209.668	390.32
210.137	383.26
210.606	387.5
211.075	355.01
211.543	387.21
212.012	388.34
212.481	369.13
212.95	379.87
213.418	360.09
213.887	370.83
214.355	383.54
214.824	372.81
215.292	330.42
215.76	351.33
216.229	337.2
216.697	351.62
217.165	350.49
217.633	352.46
218.101	363.48
218.569	345.12
219.037	334.94
219.505	355.29
219.973	369.98
220.441	348.23
220.909	366.59
221.377	371.68
221.844	327.31
222.312	343.99
222.78	344.27
223.247	359.53
223.715	353.31
224.182	356.14
224.65	355.86
225.117	361.51
225.584	362.64
226.052	343.7
226.519	356.7
226.986	350.77
227.453	384.11
227.92	355.57
228.387	344.83
228.854	366.03
229.321	365.74
229.788	384.11
230.255	373.09
230.722	377.33
231.189	374.78
231.655	373.65
232.122	373.65
232.589	384.39
233.055	369.98
233.522	373.09
233.988	362.07
234.454	356.14
234.921	382.41
235.387	362.64
235.853	356.99
236.32	378.46
236.786	347.94
237.252	368
237.718	385.24
238.184	368.57
238.65	379.02
239.116	368.57
239.582	372.52
240.047	356.42
240.513	369.42
240.979	368.85
241.445	359.25
241.91	353.88
242.376	345.68
242.841	392.3
243.307	353.03
243.772	383.82
244.238	386.37
244.703	379.59
245.168	357.55
245.633	375.35
246.099	368.29
246.564	382.69
247.029	383.26
247.494	382.41
247.959	379.3
248.424	384.67
248.889	379.59
249.353	356.99
249.818	381
250.283	381.56
250.748	356.42
251.212	368.85
251.677	359.53
252.141	365.46
252.606	391.73
253.07	377.33
253.535	367.16
253.999	360.94
254.463	359.25
254.927	391.17
255.392	363.77
255.856	356.99
256.32	379.87
256.784	360.38
257.248	381.56
257.712	361.79
258.176	388.91
258.64	361.51
259.103	364.05
259.567	406.7
260.031	363.77
260.495	384.67
260.958	391.73
261.422	357.55
261.885	388.34
262.349	387.21
262.812	372.24
263.275	397.1
263.739	368
264.202	395.97
264.665	379.3
265.128	395.97
265.591	390.04
266.054	371.96
266.517	382.69
266.98	365.74
267.443	374.5
267.906	386.08
268.369	378.46
268.832	375.63
269.294	371.39
269.757	401.62
270.22	371.39
270.682	391.45
271.145	371.11
271.607	363.48
272.07	377.89
272.532	381
272.994	384.39
273.456	386.93
273.919	382.69
274.381	377.04
274.843	372.81
275.305	398.79
275.767	389.76
276.229	369.13
276.691	377.33
277.153	401.33
277.614	388.63
278.076	410.37
278.538	369.98
279	393.99
279.461	372.52
279.923	386.65
280.384	375.63
280.846	364.9
281.307	355.01
281.769	373.09
282.23	401.9
282.691	372.81
283.152	373.09
283.613	379.3
284.075	375.91
284.536	388.34
284.997	412.63
285.458	371.68
285.918	382.98
286.379	395.4
286.84	362.92
287.301	384.67
287.762	402.18
288.222	380.72
288.683	381.28
289.143	372.24
289.604	383.82
290.064	367.16
290.525	393.14
290.985	388.06
291.445	416.02
291.906	368.85
292.366	401.62
292.826	422.51
293.286	392.3
293.746	391.73
294.206	402.75
294.666	378.74
295.126	390.6
295.586	393.14
296.046	384.67
296.506	369.42
296.965	376.2
297.425	400.77
297.884	393.43
298.344	388.06
298.804	411.5
299.263	390.6
299.722	406.13
300.182	389.47
300.641	372.52
301.1	395.97
301.559	415.73
302.019	396.82
302.478	378.74
302.937	393.14
303.396	385.8
303.855	402.18
304.314	404.16
304.772	396.25
305.231	377.04
305.69	396.25
306.149	410.65
306.607	410.65
307.066	383.26
307.524	405
307.983	401.05
308.441	414.89
308.9	414.32
309.358	403.03
309.816	398.51
310.275	371.96
310.733	402.46
311.191	401.33
311.649	380.72
312.107	385.52
312.565	407.26
313.023	383.26
313.481	423.64
313.939	385.24
314.397	385.8
314.854	391.45
315.312	356.42
315.77	388.91
316.227	368.85
316.685	401.62
317.142	374.22
317.6	413.19
318.057	399.64
318.514	406.98
318.972	389.19
319.429	405.57
319.886	397.38
320.343	406.98
320.8	423.92
321.257	379.3
321.714	419.12
322.171	400.77
322.628	395.97
323.085	400.49
323.542	406.7
323.998	368.57
324.455	397.1
324.912	382.13
325.368	397.95
325.825	422.51
326.281	402.46
326.738	403.03
327.194	375.35
327.65	411.78
328.107	417.99
328.563	387.78
329.019	420.82
329.475	402.75
329.931	400.2
330.387	432.67
330.843	398.23
331.299	421.66
331.755	414.04
332.211	411.5
332.666	421.95
333.122	408.11
333.578	416.86
334.033	409.52
334.489	397.38
334.944	390.88
335.4	390.04
335.855	378.74
336.31	401.33
336.766	403.59
337.221	436.62
337.676	409.52
338.131	422.51
338.586	399.07
339.041	405.29
339.496	404.72
339.951	400.2
340.406	400.2
340.861	402.46
341.316	429
341.771	381
342.225	379.59
342.68	393.71
343.134	399.92
343.589	406.7
344.043	381.56
344.498	419.4
344.952	391.17
345.406	415.17
345.861	414.89
346.315	429.85
346.769	411.5
347.223	408.96
347.677	393.71
348.131	436.06
348.585	413.48
349.039	389.76
349.493	441.14
349.947	403.03
350.401	393.43
350.854	414.32
351.308	391.17
351.762	404.72
352.215	423.07
352.669	419.12
353.122	405
353.575	411.5
354.029	407.26
354.482	416.86
354.935	422.51
355.388	410.65
355.842	429.57
356.295	404.44
356.748	398.23
357.201	393.14
357.654	417.71
358.106	416.86
358.559	410.37
359.012	429
359.465	395.69
359.917	411.78
360.37	413.48
360.823	415.17
361.275	422.79
361.728	409.81
362.18	409.52
362.632	416.3
363.085	433.24
363.537	417.43
363.989	422.23
364.441	412.63
364.893	415.73
365.345	439.73
365.797	427.59
366.249	405.29
366.701	440.29
367.153	403.31
367.605	403.88
368.057	395.69
368.508	420.82
368.96	401.9
369.411	423.07
369.863	416.3
370.314	437.19
370.766	421.38
371.217	392.01
371.669	421.95
372.12	422.79
372.571	441.7
373.022	406.7
373.473	426.74
373.924	425.9
374.375	420.82
374.826	409.24
375.277	410.37
375.728	423.07
376.179	420.25
376.63	418.28
377.08	419.4
377.531	399.92
377.981	414.89
378.432	401.33
378.883	450.74
379.333	449.61
379.783	421.1
380.234	433.8
380.684	426.74
381.134	424.49
381.584	427.31
382.034	419.12
382.485	432.95
382.935	392.86
383.385	431.83
383.834	416.02
384.284	430.7
384.734	423.92
385.184	407.26
385.634	411.5
386.083	465.41
386.533	431.26
386.982	430.41
387.432	435.21
387.881	420.53
388.331	438.04
388.78	427.31
389.229	421.38
389.679	410.93
390.128	392.3
390.577	424.2
391.026	398.51
391.475	424.77
391.924	441.14
392.373	450.45
392.822	434.65
393.27	421.38
393.719	449.89
394.168	408.68
394.617	444.24
395.065	439.45
395.514	423.92
395.962	424.77
396.411	418.56
396.859	450.74
397.307	428.16
397.756	452.71
398.204	407.26
398.652	443.12
399.1	465.97
399.548	408.11
399.996	463.43
400.444	438.04
400.892	423.36
401.34	445.66
401.788	455.53
402.236	444.24
402.683	436.62
403.131	453.28
403.579	438.6
404.026	452.71
404.474	411.78
404.921	451.3
405.369	438.6
405.816	462.02
406.263	453.28
406.71	462.02
407.158	468.51
407.605	468.79
408.052	484.87
408.499	468.79
408.946	457.51
409.393	482.34
409.84	482.62
410.286	509.41
410.733	524.35
411.18	544.93
411.626	563.81
412.073	619.59
412.52	652.24
412.966	724.26
413.413	877.06
413.859	1043.84
414.305	1212.21
414.752	1503.33
415.198	1815.28
415.644	2203
416.09	2689.04
416.536	3196.53
416.982	3812.66
417.428	4437.53
417.874	5237.19
418.32	5980.89
418.766	6834.06
419.211	7838.94
419.657	8747.57
420.103	9885.01
420.548	10699.08
420.994	11978.29
421.439	12880.56
421.885	13974.14
422.33	15332.49
422.776	16300.89
423.221	17229.82
423.666	18408.83
424.111	19643.27
424.556	20459.53
425.001	21828
425.446	23163.07
425.891	24239.02
426.336	25038.81
426.781	26237.53
427.226	28304.37
427.671	28789.78
428.115	29582.56
428.56	31342.32
429.005	32731.81
429.449	33138.49
429.894	34473.58
430.338	35591.65
430.782	35549.15
431.227	37132.89
431.671	37341.03
432.115	38786.44
432.559	39795.69
433.003	39649.17
433.447	40555.9
433.891	40631.2
434.335	41310.95
434.779	41940.94
435.223	42057.04
435.667	42095.5
436.111	42604.97
436.554	42759.18
436.998	41980.13
437.442	42271.25
437.885	44056.35
438.328	42660.42
438.772	43025.55
439.215	43547.71
439.659	43053.19
440.102	43386.99
440.545	42746.24
440.988	42640.53
441.431	43372.27
441.874	42939.88
442.317	43206.95
442.76	42752.96
443.203	42238.73
443.646	42778.59
444.089	42463.03
444.531	43085.33
444.974	41935.73
445.417	42998.65
445.859	41991.54
446.302	43111.74
446.744	42441.16
447.186	43497.54
447.629	42596.76
448.071	42596.76
448.513	42722.61
448.956	43979.29
449.398	43147.13
449.84	42138.43
450.282	42710.92
450.724	43202.96
451.166	42881.37
451.607	42715.39
452.049	42652.46
452.491	43727.53
452.933	43504.77
453.374	43958.03
453.816	44414.77
454.257	44076.62
454.699	45056.39
455.14	44739.2
455.582	44513.57
456.023	44472.19
456.464	44630.24
456.905	45156.03
457.347	45144.96
457.788	44168.74
458.229	44358.63
458.67	45325.01
459.111	43469.08
459.552	43544.46
459.992	43443.63
460.433	43303.68
460.874	42312.98
461.315	43579.17
461.755	42467.01
462.196	42093.02
462.636	41270.62
463.077	41050.74
463.517	41012.91
463.957	41423.08
464.398	40997.34
464.838	41089.31
465.278	40031
465.718	40261.28
466.158	39326.28
466.598	39789.29
467.038	39395.17
467.478	39707.53
467.918	39859.74
468.358	39109.13
468.798	38783.24
469.237	38778.82
469.677	38624.57
470.117	39437.24
470.556	37200.71
470.996	37842.86
471.435	37846.78
471.874	38454.91
472.314	38300.78
472.753	37352.05
473.192	37727.16
473.631	37128.24
474.07	37414.26
474.509	37501.72
474.948	37586.24
475.387	36918.95
475.826	36138.74
476.265	37772.26
476.704	37199.73
477.143	37599.72
477.581	37376.54
478.02	37977.71
478.458	36759.65
478.897	37242.83
479.335	38323.85
479.774	37740.15
480.212	38029.7
480.65	37820.06
481.089	37596.54
481.527	37306.01
481.965	36867.56
482.403	38653.55
482.841	38300.04
483.279	38379.8
483.717	38300.29
484.155	37874.97
484.592	38386.68
485.03	38459.09
485.468	37556.84
485.905	37761.47
486.343	38175.4
486.781	37587.72
487.218	37103.02
487.655	36883.22
488.093	36079.1
488.53	37311.39
488.967	36678.67
489.405	36564.93
489.842	35708.66
490.279	35705.48
490.716	35338.63
491.153	35793.19
491.59	35215.32
492.027	34607.05
492.463	34429.91
492.9	33597.65
493.337	33510.83
493.773	33442.56
494.21	32850.3
494.647	32658.91
495.083	32002.84
495.519	31641.75
495.956	31719.04
496.392	30905.55
496.828	30812.86
497.265	30093.66
497.701	30128.07
498.137	30004.59
498.573	29226.55
499.009	29666.29
499.445	29014.3
499.881	28387.25
500.316	28704.25
500.752	27872.49
501.188	27681.4
501.624	27623.65
502.059	26491.82
502.495	26328.03
502.93	26292.71
503.366	26394.24
503.801	25826.8
504.236	25672.88
504.672	25276.22
505.107	24970.96
505.542	24432.75
505.977	24379.83
506.412	23979.69
506.847	24209.47
507.282	23771.23
507.717	23424.09
508.152	23372.54
508.587	23302.48
509.021	22470.33
509.456	22299.51
509.891	22322.26
510.325	22364.29
510.76	21886.65
511.194	21796.81
511.628	21865.37
512.063	21138.36
512.497	21244.95
512.931	20794.36
513.366	20520.11
513.8	20598.31
514.234	19993.93
514.668	20128.89
515.102	20185.8
515.536	19519.35
515.969	19594.75
516.403	19112.49
516.837	18836.86
517.271	18848.08
517.704	18555.8
518.138	18441.77
518.571	18244.58
519.005	17969.85
519.438	17779.41
519.871	17742.42
520.305	17310.68
520.738	17297.41
521.171	16860.89
521.604	16959.61
522.037	16703.24
522.47	16419.84
522.903	16086.48
523.336	16066.14
523.769	15936.52
524.202	15482.97
524.634	15522.72
525.067	15260.24
525.5	15202.84
525.932	15094.04
526.365	14663.02
526.797	14532.84
527.23	14590.62
527.662	14094.45
528.094	13928.37
528.527	13858.07
528.959	13624.53
529.391	13355.06
529.823	13039.16
530.255	13064.79
530.687	12726.44
531.119	12524.68
531.551	12474.35
531.982	12186.62
532.414	12007.34
532.846	11788.14
533.277	11662.65
533.709	11379.76
534.14	11277.8
534.572	11107.25
535.003	10993.64
535.435	10729.32
535.866	10610.11
536.297	10339.11
536.728	10365.04
537.159	10314.96
537.59	10111.69
538.022	9967.38
538.452	9817.03
538.883	9669.38
539.314	9499.17
539.745	9345.3
540.176	9211.2
540.606	8980.47
541.037	8980.21
541.468	8849.69
541.898	8798.9
542.328	8649.03
542.759	8489.92
543.189	8402.63
543.619	8242.21
544.05	8104.53
544.48	7998.77
544.91	7929.18
545.34	7741.86
545.77	7675.52
546.2	7535.18
546.63	7430.02
547.06	7416.15
547.489	7214.47
547.919	7015.35
548.349	7117.71
548.778	7037.67
549.208	6918.43
549.637	6808.55
550.067	6795.93
550.496	6740.94
550.926	6582.16
551.355	6412.88
551.784	6441.11
552.213	6308.34
552.642	6162.46
553.071	6184.93
553.5	6074.36
553.929	5871.44
554.358	5902.2
554.787	5822.38
555.216	5786.3
555.645	5656.2
556.073	5596.14
556.502	5534.18
556.93	5412.56
557.359	5368.61
557.787	5357.16
558.216	5291.33
558.644	5284.66
559.072	5181.16
559.5	5061.26
559.929	5095.72
560.357	5020.1
560.785	4966.09
561.213	4994.97
561.641	4893.32
562.068	4880.47
562.496	4800.67
562.924	4773.07
563.352	4745.2
563.779	4714.9
564.207	4671.73
564.634	4604.64
565.062	4633.63
565.489	4528.1
565.917	4484.84
566.344	4470.06
566.771	4427.84
567.198	4368.66
567.625	4328.29
568.053	4271.73
568.48	4295.71
568.907	4223.5
569.333	4140.46
569.76	4023.04
570.187	4053.55
570.614	3972.79
571.04	4079.47
571.467	3872.47
571.894	3827.55
572.32	3707.02
572.747	3688.04
573.173	3609.12
573.599	3558.09
574.026	3447.8
574.452	3412.72
574.878	3410.55
575.304	3328.11
575.73	3247.22
576.156	3180.17
576.582	3185.9
577.008	3079.23
577.434	3081.68
577.86	2988.55
578.285	3007.67
578.711	2908.71
579.137	2904.33
579.562	2791.83
579.988	2847.41
580.413	2767.99
580.838	2734.28
581.264	2691.79
581.689	2654.48
582.114	2625.39
582.539	2607
582.964	2562.79
583.39	2502.89
583.814	2473.75
584.239	2435.24
584.664	2395.34
585.089	2401.4
585.514	2345.24
585.939	2297.3
586.363	2250.99
586.788	2243.55
587.212	2223.14
587.637	2142.84
588.061	2150.29
588.485	2108.6
588.91	2128.2
589.334	2082.08
589.758	2040.62
590.182	2018.5
590.606	1974.8
591.03	1946.02
591.454	1924.71
591.878	1863.22
592.302	1884.55
592.726	1853.53
593.15	1856.02
593.573	1840.78
593.997	1793.37
594.42	1763.97
594.844	1785.05
595.267	1725.41
595.691	1681.54
596.114	1652.93
596.537	1661.27
596.96	1680.99
597.384	1672.1
597.807	1632.93
598.23	1619.03
598.653	1615.14
599.076	1591.52
599.499	1626.26
599.921	1530.88
600.344	1534.22
600.767	1537.28
601.189	1516.14
601.612	1510.29
602.034	1546.19
602.457	1483.01
602.879	1496.38
603.302	1497.77
603.724	1455.17
604.146	1401.96
604.568	1413.1
604.991	1422.02
605.413	1431.21
605.835	1411.99
606.257	1446.81
606.678	1393.6
607.1	1384.4
607.522	1351.78
607.944	1400.28
608.365	1367.39
608.787	1345.92
609.209	1331.14
609.63	1316.91
610.051	1337.55
610.473	1339.5
610.894	1281.75
611.315	1248.24
611.737	1273.65
612.158	1229.25
612.579	1237.63
613	1216.96
613.421	1234
613.842	1211.93
614.263	1157.99
614.683	1188.74
615.104	1161.07
615.525	1144.57
615.945	1127.79
616.366	1127.79
616.787	1107.65
617.207	1106.81
617.627	1059.52
618.048	1060.64
618.468	1078.83
618.888	1041.04
619.308	1068.76
619.728	1041.88
620.148	1022.28
620.568	1029.56
620.988	967.92
621.408	993.14
621.828	1005.47
622.248	926.71
622.668	937.37
623.087	978.01
623.507	949.14
623.926	909.6
624.346	905.12
624.765	881.55
625.185	889.41
625.604	884.08
626.023	901.75
626.442	875.1
626.861	887.16
627.28	847.31
627.699	834.96
628.118	849
628.537	868.36
628.956	855.73
629.375	841.42
629.794	802.38
630.212	829.34
630.631	813.06
631.049	769.23
631.468	815.58
631.886	790.3
632.305	798.45
632.723	770.92
633.141	748.71
633.559	766.42
633.978	747.59
634.396	749
634.814	722.85
635.232	738.31
635.65	741.41
636.067	744.78
636.485	756.3
636.903	740.84
637.321	728.75
637.738	722.29
638.156	721.44
638.573	686.29
638.991	681.79
639.408	680.38
639.825	695.85
640.243	680.38
640.66	647.46
641.077	673.91
641.494	648.86
641.911	683.47
642.328	687.69
642.745	658.99
643.162	652.52
643.579	641.83
643.995	639.01
644.412	627.75
644.829	627.75
645.245	633.66
645.662	656.18
646.078	642.11
646.495	635.63
646.911	616.49
647.327	592.27
647.743	620.43
648.159	615.64
648.576	607.2
648.992	606.07
649.408	592.83
649.824	578.75
650.239	588.61
650.655	596.49
651.071	592.55
651.487	561.84
651.902	610.01
652.318	566.07
652.733	601.84
653.149	579.87
653.564	579.59
653.979	558.74
654.395	584.94
654.81	589.45
655.225	570.29
655.64	584.38
656.055	582.69
656.47	544.93
656.885	554.23
657.3	564.66
657.715	592.83
658.13	550.57
658.544	530.84
658.959	542.68
659.374	533.38
659.788	524.64
660.202	554.51
660.617	540.42
661.031	522.1
661.445	545.21
661.86	567.76
662.274	516.74
662.688	531.68
663.102	485.72
663.516	527.74
663.93	515.61
664.344	524.07
664.758	522.66
665.171	522.66
665.585	510.82
665.999	504.9
666.412	513.64
666.826	492.77
667.239	507.72
667.653	505.75
668.066	505.18
668.479	490.8
668.892	479.8
669.306	509.69
669.719	499.82
670.132	517.87
670.545	512.23
670.958	499.26
671.37	498.13
671.783	498.41
672.196	473.31
672.609	507.16
673.021	491.36
673.434	465.13
673.846	486
674.259	479.52
674.671	498.7
675.084	466.54
675.496	495.59
675.908	487.13
676.32	490.52
676.732	498.41
677.144	486
677.556	476.98
677.968	478.67
678.38	488.82
678.792	479.8
679.204	472.74
679.615	478.39
680.027	476.41
680.439	452.15
680.85	480.64
681.262	490.52
681.673	474.16
682.084	436.62
682.496	467.1
682.907	458.64
683.318	486
683.729	482.34
684.14	469.92
684.551	459.77
684.962	474.44
685.373	461.46
685.784	462.31
686.194	451.02
686.605	448.2
687.016	439.73
687.426	453.84
687.837	466.26
688.247	407.26
688.657	451.3
689.068	471.33
689.478	455.25
689.888	471.33
690.298	447.07
690.708	466.26
691.118	456.1
691.528	455.25
691.938	425.33
692.348	438.88
692.758	436.34
693.168	437.47
693.577	450.17
693.987	461.74
694.396	444.81
694.806	437.19
695.215	436.06
695.625	419.69
696.034	448.2
696.443	433.52
696.852	423.92
697.262	451.3
697.671	430.98
698.08	446.5
698.489	452.15
698.897	445.09
699.306	432.39
699.715	433.8
700.124	423.92
700.532	435.5
700.941	428.16
701.35	440.01
701.758	423.07
702.166	429.85
702.575	454.97
702.983	445.37
703.391	440.29
703.799	421.66
704.208	428.72
704.616	416.86
705.024	415.17
705.432	455.25
705.839	419.12
706.247	433.24
706.655	440.01
707.063	422.23
707.47	416.3
707.878	414.32
708.285	432.95
708.693	405.57
709.1	433.8
709.508	423.07
709.915	422.79
710.322	428.16
710.729	421.1
711.136	388.91
711.543	414.61
711.95	433.24
712.357	444.53
712.764	421.66
713.171	415.17
713.578	416.3
713.984	401.05
714.391	401.9
714.797	406.98
715.204	419.4
715.61	432.39
716.017	385.8
716.423	408.68
716.829	406.13
717.236	420.53
717.642	391.17
718.048	439.45
718.454	420.82
718.86	424.77
719.266	413.19
719.671	411.78
720.077	407.55
720.483	434.65
720.889	433.24
721.294	421.38
721.7	422.51
722.105	406.98
722.511	441.42
722.916	426.46
723.321	418.56
723.726	415.73
724.132	409.52
724.537	408.68
724.942	408.96
725.347	432.95
725.752	415.73
726.156	398.23
726.561	416.58
726.966	396.25
727.371	403.31
727.775	415.17
728.18	385.24
728.584	414.89
728.989	410.09
729.393	415.45
729.798	390.04
730.202	398.79
730.606	417.43
731.01	402.75
731.414	411.78
731.818	417.15
732.222	419.12
732.626	418.56
733.03	397.95
733.434	389.76
733.837	378.17
734.241	390.32
734.645	422.51
735.048	409.81
735.452	399.64
735.855	410.65
736.258	388.34
736.662	437.19
737.065	405
737.468	402.18
737.871	403.03
738.274	408.39
738.677	410.37
739.08	412.06
739.483	430.98
739.886	403.88
740.289	387.78
740.691	410.09
741.094	390.04
741.497	413.76
741.899	392.3
742.302	414.32
742.704	402.75
743.106	394.27
743.508	423.36
743.911	409.81
744.313	380.72
744.715	401.9
745.117	404.16
745.519	398.79
745.921	396.82
746.323	403.88
746.724	402.18
747.126	395.12
747.528	396.53
747.929	413.19
748.331	400.77
748.732	415.17
749.134	398.51
749.535	395.12
749.936	407.83
750.338	394.56
750.739	389.19
751.14	417.71
751.541	405.57
751.942	416.86
752.343	361.22
752.744	403.88
753.144	396.82
753.545	376.48
753.946	425.05
754.346	387.78
754.747	406.42
755.148	385.24
755.548	411.5
755.948	412.63
756.349	384.39
756.749	392.01
757.149	393.99
757.549	364.05
757.949	410.93
758.349	384.39
758.749	388.34
759.149	409.24
759.549	389.19
759.949	404.44
760.348	381.28
760.748	402.46
761.148	395.69
761.547	370.83
761.947	393.14
762.346	416.02
762.745	377.89
763.145	379.87
763.544	406.98
763.943	400.49
764.342	392.86
764.741	387.21
765.14	391.45
765.539	400.49
765.938	390.04
766.336	376.48
766.735	397.1
767.134	410.93
767.532	403.59
767.931	373.65
768.329	405.57
768.728	399.36
769.126	386.93
769.525	405.57
769.923	386.37
770.321	402.75
770.719	389.19
771.117	387.78
771.515	386.37
771.913	397.1
772.311	404.72
772.709	378.74
773.106	402.46
773.504	393.43
773.902	401.33
774.299	392.01
774.697	367.44
775.094	416.86
775.491	377.61
775.889	387.78
776.286	395.12
776.683	369.42
777.08	403.88
777.477	397.1
777.874	382.41
778.271	388.34
778.668	368
779.065	360.66
779.462	381.56
779.858	398.79
780.255	381.56
780.652	358.4
781.048	399.07
781.444	375.07
781.841	394.27
782.237	400.2
782.633	362.35
783.03	402.18
783.426	386.08
783.822	410.65
784.218	359.81
784.614	387.21
785.01	412.35
785.405	389.76
785.801	376.76
786.197	385.8
786.593	408.68
786.988	376.2
787.384	411.22
787.779	386.93
788.174	381
788.57	382.98
788.965	359.53
789.36	416.02
789.755	400.49
790.15	410.65
790.545	384.11
790.94	400.2
791.335	385.24
791.73	368
792.125	382.69
792.52	388.06
792.914	410.37
793.309	390.6
793.703	409.24
794.098	388.34
794.492	370.55
794.887	388.91
795.281	386.37
795.675	395.69
796.069	387.78
796.463	363.77
796.857	402.18
797.251	389.47
797.645	390.88
798.039	406.42
798.433	388.34
798.826	372.81
799.22	382.41
799.614	392.01
800.007	380.43
800.401	373.94
800.794	395.69
801.187	384.95
801.581	366.87
801.974	383.82
802.367	391.45
802.76	395.69
803.153	403.31
803.546	410.93
803.939	370.55
804.332	393.14
804.725	382.13
805.117	409.81
805.51	385.8
805.903	382.13
806.295	387.78
806.688	373.37
807.08	382.13
807.472	404.72
807.865	366.03
808.257	382.98
808.649	397.66
809.041	400.2
809.433	390.88
809.825	378.74
810.217	381.28
810.609	374.22
811.001	394.27
811.392	399.07
811.784	377.89
812.175	373.37
812.567	395.4
812.958	382.69
813.35	397.38
813.741	415.73
814.132	399.07
814.524	374.22
814.915	384.95
815.306	373.65
815.697	394.56
816.088	402.46
816.479	375.35
816.87	385.8
817.26	385.24
817.651	399.92
818.042	397.95
818.432	383.54
818.823	366.59
819.213	395.97
819.604	365.46
819.994	386.37
820.384	373.37
820.775	373.65
821.165	396.53
821.555	369.42
821.945	399.92
822.335	382.13
822.725	393.99
823.114	393.43
823.504	380.72
823.894	398.51
824.284	403.59
824.673	372.52
825.063	392.86
825.452	376.2
825.842	386.93
826.231	371.68
826.62	379.59
827.009	390.04
827.399	389.47
827.788	401.05
828.177	386.08
828.566	396.82
828.954	386.08
829.343	379.59
829.732	409.81
830.121	358.96
830.509	398.23
830.898	385.8
831.286	390.88
831.675	398.79
832.063	385.8
832.452	387.21
832.84	365.74
833.228	384.67
833.616	401.9
834.004	382.98
834.392	397.1
834.78	354.73
835.168	375.35
835.556	415.73
835.944	384.11
836.331	406.98
836.719	384.39
837.107	367.44
837.494	385.24
837.881	386.37
838.269	366.31
838.656	393.99
839.043	370.26
839.431	397.1
839.818	397.1
840.205	365.18
840.592	371.96
840.979	394.84
841.366	365.46
841.752	396.25
842.139	381.56
842.526	366.59
842.912	395.12
843.299	374.5
843.685	379.59
844.072	366.87
844.458	361.22
844.844	368
845.231	376.2
845.617	394.27
846.003	389.19
846.389	388.63
846.775	390.04
847.161	388.63
847.547	385.8
847.933	385.8
848.318	380.72
848.704	394.56
849.09	407.26
849.475	388.34
849.861	394.27
850.246	405.29
850.631	390.88
851.017	381.56
851.402	393.99
851.787	379.02
852.172	374.22
852.557	391.73
852.942	390.32
853.327	365.46
853.712	393.71
854.097	367.72
854.481	373.37
854.866	378.17
855.25	391.45
855.635	406.42
856.019	394.56
856.404	389.76
856.788	360.09
857.172	392.01
857.557	387.78
857.941	374.5
858.325	384.67
858.709	411.78
859.093	405
859.477	375.07
859.86	370.26
860.244	362.35
860.628	391.17
861.012	383.82
861.395	382.69
861.779	371.68
862.162	367.72
862.545	392.86
862.929	374.78
863.312	375.63
863.695	384.95
864.078	352.46
864.461	379.3
864.844	372.52
865.227	386.08
865.61	377.89
865.993	366.59
866.376	353.59
866.758	404.72
867.141	394.27
867.523	400.77
867.906	388.34
868.288	372.81
868.671	373.94
869.053	375.07
869.435	369.13
869.817	396.25
870.199	377.33
870.581	390.32
870.963	368.57
871.345	375.07
871.727	388.34
872.109	365.18
872.491	389.19
872.872	363.77
873.254	368.57
873.635	384.67
874.017	377.89
874.398	397.1
874.779	376.76
875.161	380.72
875.542	379.3
875.923	367.72
876.304	407.55
876.685	369.7
877.066	393.14
877.447	404.44
877.828	384.67
878.208	381.28
878.589	378.17
878.97	377.89
879.35	391.73
879.731	390.6
880.111	389.19
880.491	389.47
880.872	384.39
881.252	382.98
881.632	386.65
882.012	389.47
882.392	394.56
882.772	379.59
883.152	387.21
883.532	364.61
883.912	390.32
884.291	379.87
884.671	381.85
885.051	361.22
885.43	383.26
885.81	345.12
886.189	375.63
886.568	386.65
886.948	341.16
887.327	387.21
887.706	380.15
888.085	374.78
888.464	379.87
888.843	371.96
889.222	397.95
889.601	367.44
889.979	377.61
890.358	352.75
890.737	390.32
891.115	380.72
891.494	374.22
891.872	383.26
892.25	357.27
892.629	398.51
893.007	372.24
893.385	386.93
893.763	381.56
894.141	391.73
894.519	389.76
894.897	387.78
895.275	384.39
895.653	394.27
896.03	399.92
896.408	372.24
896.786	367.44
897.163	392.58
897.541	368
897.918	353.31
898.295	368.57
898.673	360.66
899.05	395.97
899.427	371.11
899.804	396.25
900.181	379.59
900.558	395.97
900.935	371.39
901.312	389.76
901.688	381.28
902.065	357.27
902.442	383.54
902.818	397.38
903.195	374.22
903.571	376.48
903.947	388.91
904.324	373.94
904.7	381.85
905.076	384.67
905.452	364.61
905.828	388.63
906.204	394.56
906.58	377.33
906.956	377.04
907.331	367.72
907.707	381.85
908.083	396.25
908.458	355.01
908.834	368
909.209	377.04
909.585	389.47
909.96	374.22
910.335	404.16
910.71	383.26
911.086	397.1
911.461	392.3
911.836	379.59
912.21	381.56
912.585	391.45
912.96	347.38
913.335	381.85
913.709	415.73
914.084	376.48
914.459	407.83
914.833	402.18
915.207	392.58
915.582	379.02
915.956	376.48
916.33	390.6
916.704	362.07
917.078	390.32
917.452	378.74
917.826	360.09
918.2	374.78
918.574	363.48
918.948	365.74
919.321	369.98
919.695	388.91
920.068	383.54
920.442	370.55
920.815	416.3
921.189	390.04
921.562	371.11
921.935	381
922.308	375.63
922.681	381.56
923.054	374.22
923.427	360.94
923.8	382.69
924.173	388.06
924.546	385.24
924.919	376.48
925.291	352.46
925.664	393.43
926.036	388.06
926.409	363.77
926.781	371.96
927.153	367.44
927.526	382.41
927.898	368.57
928.27	397.66
928.642	371.96
929.014	380.15
929.386	380.72
929.758	392.86
930.129	398.23
930.501	403.88
930.873	377.33
931.244	371.96
931.616	396.25
931.987	357.83
932.359	366.03
932.73	379.3
933.101	373.65
933.472	365.18
933.843	353.59
934.214	363.77
934.585	393.43
934.956	358.96
935.327	375.07
935.698	401.33
936.069	358.96
936.439	380.15
936.81	362.64
937.18	395.97
937.551	372.52
937.921	368.57
938.292	364.05
938.662	387.78
939.032	372.81
939.402	379.02
939.772	372.81
940.142	384.11
940.512	355.86
940.882	388.34
941.252	377.04
941.621	356.42
941.991	391.45
942.361	376.2
942.73	370.83
943.1	375.07
943.469	375.35
943.838	389.47
944.208	362.35
944.577	365.18
944.946	349.64
945.315	366.59
945.684	393.14
946.053	350.77
946.422	367.72
946.791	380.43
947.159	359.25
947.528	367.16
947.897	389.19
948.265	363.48
948.634	368.57
949.002	400.49
949.371	379.02
949.739	379.87
950.107	363.77
950.475	393.14
950.843	386.37
951.211	373.09
951.579	394.84
951.947	391.73
952.315	366.59
952.683	332.4
953.05	382.98
953.418	402.75
953.785	355.86
954.153	375.35
954.52	360.09
954.888	384.11
955.255	382.69
955.622	381.56
955.989	393.14
956.356	366.59
956.723	335.51
957.09	367.44
957.457	391.45
957.824	364.61
958.191	370.83
958.557	381
958.924	362.07
959.291	373.94
959.657	373.09
960.023	374.5
960.39	362.07
960.756	356.42
961.122	356.99
961.488	374.78
961.855	378.46
962.221	362.64
962.586	347.94
962.952	378.74
963.318	371.39
963.684	391.17
964.05	355.57
964.415	379.59
964.781	386.93
965.146	395.97
965.512	384.95
965.877	384.67
966.242	358.96
966.608	381.28
966.973	373.37
967.338	356.99
967.703	395.12
968.068	381.56
968.433	342.57
968.797	392.01
969.162	380.43
969.527	388.63
969.891	364.61
970.256	374.22
970.62	350.2
970.985	386.93
971.349	403.88
971.714	364.9
972.078	344.27
972.442	364.33
972.806	364.33
973.17	372.24
973.534	366.03
973.898	357.27
974.262	374.5
974.625	379.59
974.989	383.82
975.353	360.38
975.716	388.63
976.08	377.89
976.443	362.07
976.806	389.19
977.17	382.69
977.533	365.46
977.896	357.55
978.259	352.18
978.622	365.18
978.985	371.68
979.348	368.85
979.711	372.52
980.073	363.77
980.436	352.18
980.799	365.18
981.161	365.46
981.524	379.87
981.886	382.98
982.248	362.35
982.611	376.48
982.973	368.57
983.335	352.18
983.697	379.3
984.059	360.38
984.421	380.43
984.783	378.17
985.145	378.46
985.506	373.65
985.868	368
986.23	398.51
986.591	377.89
986.953	386.08
987.314	401.05
987.675	387.78
988.037	506.87
988.398	368.29
988.759	374.22
989.12	350.49
989.481	354.44
989.842	362.07
990.203	373.94
990.564	379.87
990.924	364.9
991.285	496.72
991.646	360.09
992.006	367.16
992.367	375.91
992.727	382.69
993.087	366.31
993.448	352.75
993.808	356.7
994.168	398.79
994.528	368.29
994.888	392.86
995.248	365.46
995.608	362.07
995.967	357.27
996.327	378.74
996.687	382.13
997.046	379.3
997.406	359.81
997.765	354.16
998.125	362.07
998.484	376.48
998.843	374.78
999.202	367.16
999.561	345.4
999.92	360.09
1000.279	357.27
1000.638	362.92
1000.997	374.5
1001.356	362.35
1001.715	377.04
1002.073	366.59
1002.432	364.33
1002.79	389.47
1003.149	362.35
1003.507	389.47
1003.865	368.57
1004.224	376.2
1004.582	345.12
1004.94	373.65
1005.298	385.24
1005.656	367.72
1006.014	371.68
1006.371	358.68
1006.729	367.16
1007.087	368.57
1007.445	362.92
1007.802	389.47
1008.16	372.81
1008.517	396.82
1008.874	381.85
1009.232	361.22
1009.589	371.39
1009.946	353.31
1010.303	359.81
1010.66	373.09
1011.017	374.5
1011.374	370.55
1011.731	355.01
1012.087	367.72
1012.444	350.77
1012.801	386.65
1013.157	373.09
1013.513	363.48
1013.87	370.55
1014.226	389.47
1014.582	376.48
1014.939	411.78
1015.295	385.24
1015.651	388.06
1016.007	369.42
1016.363	371.39
1016.719	371.11
1017.074	349.64
1017.43	372.52
1017.786	364.33
1018.141	362.07
1018.497	375.35
1018.852	379.59
1019.208	384.39
1019.563	349.92
1019.918	379.87
1020.273	353.88
1020.628	379.87
1020.983	372.24
1021.338	366.59
1021.693	345.68
1022.048	367.44
1022.403	362.35
1022.757	357.83
1023.112	381.28
1023.467	382.98
1023.821	345.96
1024.175	351.9
1024.53	359.53
1024.884	364.05
1025.238	351.05
1025.592	374.22
1025.946	381
1026.3	377.04
1026.654	361.22
1027.008	350.77
1027.362	384.95
1027.716	372.81
1028.069	353.31
1028.423	396.82
1028.777	359.25
1029.13	379.59
1029.483	378.46
1029.837	356.99
1030.19	385.8
1030.543	362.07
1030.896	360.38
1031.249	371.68
1031.602	376.48
1031.955	377.04
1032.308	370.55
1032.661	357.83
1033.013	377.89
1033.366	383.26
1033.719	378.74
1034.071	375.91
1034.424	370.83
1034.776	366.59
1035.128	358.4
1035.48	360.94
1035.833	360.94
1036.185	388.34
1036.537	388.34
1036.889	388.34
