Data from SCSF78-405_irradiation_FLMS019251_21-51-27-870.txt Node
Date: Fri Feb 22 21:51:27 PST 2019
User: mu3e
Spectrometer: FLMS01925
Trigger mode: 0
Integration Time (sec): 1.206000E-2
Scans to average: 10
Electric dark correction enabled: true
Nonlinearity correction enabled: true
Boxcar width: 0
XAxis mode: Wavelengths
Number of Pixels in Spectrum: 2048
>>>>>Begin Spectral Data<<<<<
187.103	-84.09
187.574	-84.09
188.045	-84.09
188.516	-127.31
188.987	-129.87
189.458	-114.22
189.929	-147.79
190.4	-132.14
190.871	-87.5
191.342	-61.35
191.813	-30.67
192.284	-44.02
192.754	-26.41
193.225	7.38
193.696	14.48
194.166	37.47
194.637	85.69
195.107	86.26
195.578	122.84
196.048	126.8
196.518	162.22
196.989	187.15
197.459	229.05
197.929	214.33
198.399	274.61
198.869	299.22
199.339	304.02
199.809	316.75
200.279	333.71
200.749	330.88
201.219	330.31
201.689	346.71
202.159	352.64
202.628	372.42
203.098	384.85
203.568	393.04
204.037	396.99
204.507	373.55
204.976	391.34
205.445	419.86
205.915	413.09
206.384	382.59
206.853	384.57
207.323	395.02
207.792	411.96
208.261	402.08
208.73	388.8
209.199	404.9
209.668	376.37
210.137	389.37
210.606	394.73
211.075	379.2
211.543	391.34
212.012	358.57
212.481	382.02
212.95	361.12
213.418	365.64
213.887	348.12
214.355	391.06
214.824	372.14
215.292	355.18
215.76	363.94
216.229	370.44
216.697	363.94
217.165	341.34
217.633	378.35
218.101	343.88
218.569	363.66
219.037	357.44
219.505	352.08
219.973	337.38
220.441	369.31
220.909	346.71
221.377	337.66
221.844	357.73
222.312	371.57
222.78	331.44
223.247	355.47
223.715	346.42
224.182	369.31
224.65	358.57
225.117	367.9
225.584	356.6
226.052	344.45
226.519	349.53
226.986	353.77
227.453	330.88
227.92	355.75
228.387	353.77
228.854	368.46
229.321	376.66
229.788	337.95
230.255	365.07
230.722	350.1
231.189	359.99
231.655	349.25
232.122	342.47
232.589	380.05
233.055	361.4
233.522	342.19
233.988	399.53
234.454	390.21
234.921	350.38
235.387	368.18
235.853	364.51
236.32	368.18
236.786	350.38
237.252	365.36
237.718	376.09
238.184	371.01
238.65	379.48
239.116	350.95
239.582	367.05
240.047	346.71
240.513	346.71
240.979	370.44
241.445	386.82
241.91	369.88
242.376	365.07
242.841	364.51
243.307	347.55
243.772	395.02
244.238	367.33
244.703	376.09
245.168	378.07
245.633	363.94
246.099	341.9
246.564	402.92
247.029	367.33
247.494	380.89
247.959	382.87
248.424	396.71
248.889	376.09
249.353	366.77
249.818	381.18
250.283	376.09
250.748	358.29
251.212	391.34
251.677	385.13
252.141	376.66
252.606	393.32
253.07	384.28
253.535	385.41
253.999	379.48
254.463	379.48
254.927	368.46
255.392	422.97
255.856	364.23
256.32	385.41
256.784	374.4
257.248	398.69
257.712	387.39
258.176	389.93
258.64	368.75
259.103	371.85
259.567	388.8
260.031	357.16
260.495	380.05
260.958	384.57
261.422	354.05
261.885	368.18
262.349	360.55
262.812	385.41
263.275	350.38
263.739	396.14
264.202	362.25
264.665	353.21
265.128	407.16
265.591	361.97
266.054	394.73
266.517	368.75
266.98	366.49
267.443	376.66
267.906	380.33
268.369	405.75
268.832	372.14
269.294	383.72
269.757	386.26
270.22	389.37
270.682	378.07
271.145	384.28
271.607	376.37
272.07	387.95
272.532	361.12
272.994	382.59
273.456	410.26
273.919	378.92
274.381	410.55
274.843	389.65
275.305	381.46
275.767	393.32
276.229	402.92
276.691	382.87
277.153	390.21
277.614	381.74
278.076	377.5
278.538	400.1
279	415.63
279.461	369.88
279.923	370.72
280.384	384.85
280.846	387.39
281.307	378.07
281.769	390.78
282.23	402.92
282.691	382.87
283.152	363.1
283.613	389.93
284.075	413.65
284.536	370.16
284.997	359.42
285.458	360.55
285.918	379.2
286.379	379.76
286.84	389.93
287.301	395.58
287.762	383.15
288.222	386.54
288.683	402.36
289.143	416.19
289.604	375.81
290.064	395.3
290.525	376.94
290.985	366.49
291.445	397.56
291.906	400.1
292.366	403.49
292.826	409.7
293.286	402.64
293.746	387.95
294.206	363.94
294.666	420.43
295.126	384.57
295.586	398.69
296.046	394.73
296.506	394.73
296.965	402.08
297.425	370.44
297.884	397.56
298.344	369.31
298.804	379.48
299.263	404.62
299.722	409.98
300.182	410.83
300.641	396.71
301.1	408.57
301.559	406.59
302.019	372.7
302.478	422.69
302.937	406.88
303.396	420.43
303.855	422.69
304.314	400.95
304.772	409.13
305.231	416.76
305.69	407.44
306.149	393.89
306.607	382.87
307.066	419.02
307.524	403.2
307.983	381.74
308.441	390.78
308.9	386.26
309.358	387.11
309.816	426.36
310.275	407.44
310.733	400.95
311.191	386.54
311.649	372.98
312.107	381.46
312.565	378.92
313.023	382.59
313.481	371.29
313.939	386.82
314.397	415.35
314.854	399.82
315.312	400.66
315.77	407.44
316.227	382.31
316.685	417.32
317.142	401.79
317.6	382.02
318.057	404.9
318.514	396.43
318.972	418.45
319.429	393.89
319.886	412.81
320.343	438.49
320.8	401.79
321.257	415.35
321.714	410.55
322.171	410.83
322.628	398.97
323.085	403.2
323.542	391.91
323.998	408.29
324.455	393.04
324.912	384.28
325.368	398.4
325.825	382.31
326.281	411.11
326.738	392.19
327.194	394.17
327.65	379.2
328.107	416.76
328.563	400.1
329.019	425.51
329.475	389.37
329.931	409.98
330.387	408.57
330.843	410.55
331.299	414.22
331.755	415.91
332.211	397.56
332.666	424.66
333.122	407.16
333.578	395.02
334.033	423.25
334.489	393.6
334.944	419.86
335.4	409.7
335.855	383.44
336.31	410.26
336.766	400.38
337.221	413.93
337.676	397.84
338.131	444.14
338.586	419.86
339.041	413.93
339.496	414.78
339.951	417.04
340.406	402.64
340.861	380.89
341.316	394.45
341.771	410.55
342.225	399.25
342.68	415.35
343.134	402.92
343.589	415.35
344.043	397.84
344.498	404.9
344.952	408.85
345.406	407.16
345.861	436.52
346.315	403.2
346.769	391.06
347.223	433.7
347.677	411.68
348.131	390.5
348.585	406.31
349.039	403.49
349.493	411.11
349.947	393.04
350.401	396.99
350.854	412.81
351.308	404.33
351.762	438.21
352.215	395.02
352.669	395.3
353.122	403.49
353.575	392.19
354.029	395.86
354.482	432.85
354.935	412.52
355.388	406.88
355.842	403.77
356.295	416.19
356.748	414.78
357.201	417.32
357.654	402.08
358.106	380.61
358.559	405.18
359.012	397.27
359.465	429.46
359.917	433.98
360.37	428.9
360.823	419.02
361.275	436.52
361.728	432
362.18	427.77
362.632	400.95
363.085	389.93
363.537	421.84
363.989	406.03
364.441	393.6
364.893	408.85
365.345	408.01
365.797	434.54
366.249	403.49
366.701	412.24
367.153	417.32
367.605	428.61
368.057	437.93
368.508	440.75
368.96	417.04
369.411	405.18
369.863	417.89
370.314	429.18
370.766	427.2
371.217	420.99
371.669	420.99
372.12	436.8
372.571	383.44
373.022	406.88
373.473	426.07
373.924	393.6
374.375	430.03
374.826	413.93
375.277	411.96
375.728	437.37
376.179	423.25
376.63	402.92
377.08	429.46
377.531	435.67
377.981	431.72
378.432	417.04
378.883	450.35
379.333	384.57
379.783	411.96
380.234	397.84
380.684	411.11
381.134	418.17
381.584	411.96
382.034	439.34
382.485	431.72
382.935	386.82
383.385	415.06
383.834	423.53
384.284	437.65
384.734	438.49
385.184	445.83
385.634	407.16
386.083	421.56
386.533	444.42
386.982	431.44
387.432	429.18
387.881	429.74
388.331	424.66
388.78	434.83
389.229	413.65
389.679	413.93
390.128	436.52
390.577	413.93
391.026	434.26
391.475	428.61
391.924	433.7
392.373	441.03
392.822	410.83
393.27	426.92
393.719	417.04
394.168	445.55
394.617	418.17
395.065	442.45
395.514	431.44
395.962	439.34
396.411	429.46
396.859	434.26
397.307	411.39
397.756	437.08
398.204	447.24
398.652	447.81
399.1	441.32
399.548	446.68
399.996	451.19
400.444	446.96
400.892	432.57
401.34	434.83
401.788	442.73
402.236	435.95
402.683	436.8
403.131	460.22
403.579	423.25
404.026	450.91
404.474	444.14
404.921	476.02
405.369	478.28
405.816	453.73
406.263	448.37
406.71	459.1
407.158	463.89
407.605	462.2
408.052	492.95
408.499	475.18
408.946	496.05
409.393	494.64
409.84	495.77
410.286	511
410.733	532.42
411.18	525.09
411.626	562.58
412.073	614.13
412.52	702.22
412.966	786.83
413.413	893.79
413.859	1052.69
414.305	1259.87
414.752	1527.44
415.198	1839.01
415.644	2218.07
416.09	2741.58
416.536	3246.58
416.982	3856.95
417.428	4540.9
417.874	5295.76
418.32	6100.46
418.766	6957.74
419.211	8007.8
419.657	8853.99
420.103	10003.82
420.548	10848.11
420.994	12086.71
421.439	13144.07
421.885	14134.03
422.33	15573.69
422.776	16531.62
423.221	17372.9
423.666	18631.04
424.111	19911.55
424.556	20756.31
425.001	22156.73
425.446	23448.41
425.891	24698.15
426.336	25524.97
426.781	26795.4
427.226	28692.43
427.671	29209.12
428.115	30145.54
428.56	31788.68
429.005	33176.19
429.449	33654.38
429.894	35034.81
430.338	36101.99
430.782	36174.09
431.227	37681.48
431.671	37995.76
432.115	39483.17
432.559	40438.57
433.003	40171.42
433.447	41191.61
433.891	41481.66
434.335	41917.54
434.779	42535.01
435.223	42747.39
435.667	42729.23
436.111	43381.16
436.554	43305.59
436.998	42844.94
437.442	42920.36
437.885	44720.52
438.328	43456.51
438.772	43700.71
439.215	44220.74
439.659	43735.68
440.102	44096.3
440.545	43517.91
440.988	43267.68
441.431	44236.52
441.874	43775.67
442.317	43994.2
442.76	43467.24
443.203	42992.08
443.646	43616.28
444.089	43202.61
444.531	43797.16
444.974	42539.99
445.417	43674.73
445.859	42717.04
446.302	43990.95
446.744	43172.46
447.186	44232.26
447.629	43315.56
448.071	43231.53
448.513	43491.7
448.956	44638.93
449.398	44027.73
449.84	42822.54
450.282	43287.63
450.724	43894.91
451.166	43484.96
451.607	43398.62
452.049	43591.56
452.491	44624.88
452.933	44163.64
453.374	44727.05
453.816	45068.62
454.257	44747.89
454.699	45725.23
455.14	45517.26
455.582	45248.59
456.023	45291.16
456.464	45377.33
456.905	45872.54
457.347	45879.87
457.788	44989.14
458.229	45047.24
458.67	46081.22
459.111	44218.48
459.552	44384.1
459.992	44115.82
460.433	44095.05
460.874	43026.7
461.315	44130.59
461.755	43321.8
462.196	42915.38
462.636	42097.14
463.077	41908.11
463.517	41964.91
463.957	42042.31
464.398	41673.87
464.838	42030.15
465.278	40782.99
465.718	41063.75
466.158	40064.43
466.598	40480.27
467.038	40064.92
467.478	40388.23
467.918	40502.98
468.358	39828.12
468.798	39505.32
469.237	39430.01
469.677	39418.45
470.117	40080.7
470.556	37858.21
470.996	38418.49
471.435	38509.81
471.874	39280.93
472.314	38928.12
472.753	38001.9
473.192	38126
473.631	37892.04
474.07	38034.27
474.509	38088.72
474.948	38341.92
475.387	37691.53
475.826	36702.07
476.265	38394.68
476.704	37853.55
477.143	38390.02
477.581	38037.46
478.02	38528.47
478.458	37423.97
478.897	37907.98
479.335	39103.13
479.774	38505.15
480.212	38778.24
480.65	38586.42
481.089	38245.48
481.527	37922.2
481.965	37436.22
482.403	39232.97
482.841	39045.61
483.279	38971.13
483.717	39044.62
484.155	38705.04
484.592	39022.5
485.03	39228.54
485.468	38080.87
485.905	38112.76
486.343	38712.16
486.781	38285.96
487.218	37365.43
487.655	37601.35
488.093	36817.06
488.53	38093.38
488.967	37382.33
489.405	37228.04
489.842	36485.84
490.279	36495.87
490.716	36022.8
491.153	36569.97
491.59	35934.82
492.027	35268.94
492.463	34929.11
492.9	34268.79
493.337	34067.3
493.773	34243.42
494.21	33310.06
494.647	33296.65
495.083	32545.94
495.519	32237.78
495.956	32309.94
496.392	31601.18
496.828	31310.77
497.265	30714.96
497.701	30831.31
498.137	30528.11
498.573	29791.18
499.009	30357.58
499.445	29409.85
499.881	29062.08
500.316	29273.83
500.752	28514.27
501.188	28172.25
501.624	28213.08
502.059	26986.01
502.495	26812.55
502.93	26753.74
503.366	26935.06
503.801	26309.3
504.236	26140.3
504.672	25708.14
505.107	25410.75
505.542	24965.22
505.977	24885.06
506.412	24475.48
506.847	24724.71
507.282	24323.62
507.717	23903.96
508.152	23860.35
508.587	23633.59
509.021	23034.14
509.456	22729.43
509.891	22831.68
510.325	22752.65
510.76	22355.54
511.194	22139.42
511.628	22087.72
512.063	21516.17
512.497	21741.76
512.931	21132.32
513.366	21089.92
513.8	21062.89
514.234	20298.25
514.668	20363.82
515.102	20596.23
515.536	19810.34
515.969	19960.53
516.403	19570.52
516.837	19148.76
517.271	19227.72
517.704	18925.25
518.138	18800.12
518.571	18617.57
519.005	18256.97
519.438	18243.99
519.871	18037.71
520.305	17616.55
520.738	17627.56
521.171	17115.81
521.604	17265.53
522.037	17055.96
522.47	16734.98
522.903	16472.17
523.336	16376.33
523.769	16219.97
524.202	15760.51
524.634	15834.66
525.067	15583.75
525.5	15444.38
525.932	15310.49
526.365	14966.21
526.797	14851.54
527.23	14920.09
527.662	14243.42
528.094	14203.76
528.527	14034.71
528.959	13846.09
529.391	13602.66
529.823	13240.92
530.255	13305.81
530.687	13014.97
531.119	12710.59
531.551	12831.22
531.982	12429.75
532.414	12259.82
532.846	12046.22
533.277	11947.37
533.709	11554.34
534.14	11587.78
534.572	11375.07
535.003	11186.69
535.435	11029.37
535.866	10887.81
536.297	10602.06
536.728	10587.7
537.159	10505.87
537.59	10345.69
538.022	10115.7
538.452	10029.8
538.883	9821.57
539.314	9727.02
539.745	9474.3
540.176	9407.44
540.606	9160.18
541.037	9165.09
541.468	9016.35
541.898	8989.17
542.328	8871.61
542.759	8646.08
543.189	8513.45
543.619	8441.25
544.05	8227.81
544.48	8171.08
544.91	8051.83
545.34	7885.54
545.77	7761.34
546.2	7737.58
546.63	7567.77
547.06	7595.21
547.489	7427.57
547.919	7247.13
548.349	7199.17
548.778	7177.14
549.208	7023.92
549.637	6983.48
550.067	6790.57
550.496	6806.09
550.926	6766.1
551.355	6590.23
551.784	6596.82
552.213	6430.99
552.642	6343.89
553.071	6316.96
553.5	6181.92
553.929	6005.43
554.358	6070.55
554.787	5934.17
555.216	5959.07
555.645	5772.13
556.073	5753.02
556.502	5649.19
556.93	5548.71
557.359	5465.44
557.787	5448.4
558.216	5413.52
558.644	5388.76
559.072	5310.15
559.5	5224.82
559.929	5214.95
560.357	5163.71
560.785	5097.49
561.213	5076.66
561.641	4930.42
562.068	4994.61
562.496	4911.42
562.924	4833.78
563.352	4823.87
563.779	4796.55
564.207	4785.3
564.634	4699.25
565.062	4732.23
565.489	4635.4
565.917	4600.78
566.344	4609.1
566.771	4551.91
567.198	4510.81
567.625	4449.26
568.053	4363.18
568.48	4348.38
568.907	4327.11
569.333	4256.55
569.76	4094.49
570.187	4159.24
570.614	4052.64
571.04	4137.12
571.467	3933.49
571.894	3842.33
572.32	3781.42
572.747	3748.1
573.173	3668.15
573.599	3652.96
574.026	3509.65
574.452	3540.34
574.878	3487.37
575.304	3390.05
575.73	3349.23
576.156	3271.37
576.582	3294.79
577.008	3162.35
577.434	3169.71
577.86	3041.44
578.285	3087.31
578.711	2980.24
579.137	2926.11
579.562	2882.62
579.988	2910.25
580.413	2848.41
580.838	2782.14
581.264	2715.27
581.689	2656.02
582.114	2675.5
582.539	2683.18
582.964	2580.81
583.39	2564.06
583.814	2544.83
584.239	2456.05
584.664	2473.65
585.089	2368.81
585.514	2371.84
585.939	2354.77
586.363	2314.01
586.788	2298.85
587.212	2258.61
587.637	2221.66
588.061	2170.06
588.485	2164.54
588.91	2149.91
589.334	2112.64
589.758	2075.62
590.182	2079.76
590.606	2045.77
591.03	1985.49
591.454	1951.45
591.878	1929.86
592.302	1937.89
592.726	1899.68
593.15	1888.05
593.573	1841.51
593.997	1868.94
594.42	1767.2
594.844	1794.93
595.267	1783.84
595.691	1748.61
596.114	1699.76
596.537	1714.75
596.96	1702.54
597.384	1710.87
597.807	1661.44
598.23	1621.71
598.653	1643.94
599.076	1646.72
599.499	1610.59
599.921	1547.75
600.344	1556.1
600.767	1563.33
601.189	1511.86
601.612	1551.09
602.034	1555.82
602.457	1543.58
602.879	1513.81
603.302	1477.34
603.724	1454.23
604.146	1474.28
604.568	1443.37
604.991	1489.03
605.413	1472.89
605.835	1464.53
606.257	1434.73
606.678	1446.99
607.1	1431.39
607.522	1404.36
607.944	1434.45
608.365	1403.25
608.787	1406.31
609.209	1353.34
609.63	1327.13
610.051	1338.84
610.473	1316.25
610.894	1344.42
611.315	1273.83
611.737	1293.64
612.158	1272.43
612.579	1250.09
613	1257.63
613.421	1204.84
613.842	1238.92
614.263	1171.03
614.683	1197.3
615.104	1198.14
615.525	1143.63
615.945	1149.22
616.366	1130.21
616.787	1145.31
617.207	1111.74
617.627	1072.57
618.048	1061.93
618.468	1098.87
618.888	1063.05
619.308	1071.17
619.728	1029.45
620.148	1034.78
620.568	1047.94
620.988	990.24
621.408	1021.33
621.828	999.76
622.248	968.38
622.668	979.31
623.087	949.04
623.507	940.07
623.926	935.86
624.346	947.36
624.765	932.78
625.185	940.07
625.604	897.72
626.023	925.49
626.442	912.02
626.861	902.49
627.28	857.03
627.699	872.75
628.118	848.05
628.537	852.26
628.956	859.84
629.375	847.21
629.794	839.91
630.212	813.79
630.631	804.8
631.049	800.31
631.468	816.6
631.886	800.87
632.305	791.6
632.723	788.23
633.141	761.26
633.559	795.82
633.978	769.41
634.396	756.76
634.814	735.96
635.232	776.15
635.65	748.05
636.067	753.95
636.485	749.73
636.903	707.56
637.321	751.42
637.738	721.34
638.156	725.56
638.573	735.96
638.991	696.87
639.408	712.62
639.825	683.09
640.243	703.34
640.66	698
641.077	691.25
641.494	670.14
641.911	675.21
642.328	690.4
642.745	686.46
643.162	660.01
643.579	666.49
643.995	667.33
644.412	647.35
644.829	648.76
645.245	650.16
645.662	668.74
646.078	624.27
646.495	647.07
646.911	640.31
647.327	621.45
647.743	615.54
648.159	631.87
648.576	597.8
648.992	609.06
649.408	619.48
649.824	619.2
650.239	594.7
650.655	629.9
651.071	607.65
651.487	589.63
651.902	587.66
652.318	609.62
652.733	593.57
653.149	565.12
653.564	593.01
653.979	557.51
654.395	590.19
654.81	561.17
655.225	576.67
655.64	596.95
656.055	590.19
656.47	547.08
656.885	583.71
657.3	549.34
657.715	582.59
658.13	569.91
658.544	563.43
658.959	556.66
659.374	557.51
659.788	575.54
660.202	551.31
660.617	547.65
661.031	542.57
661.445	543.98
661.86	558.92
662.274	541.44
662.688	560.33
663.102	530.17
663.516	524.81
663.93	516.92
664.344	535.81
664.758	499.15
665.171	503.95
665.585	498.31
665.999	545.67
666.412	545.11
666.826	502.54
667.239	517.48
667.653	557.23
668.066	535.24
668.479	536.37
668.892	542.85
669.306	534.96
669.719	500
670.132	521.99
670.545	518.33
670.958	537.5
671.37	490.69
671.783	517.76
672.196	543.14
672.609	515.79
673.021	512.69
673.434	493.51
673.846	510.15
674.259	492.38
674.671	505.08
675.084	498.31
675.496	514.94
675.908	485.33
676.32	495.77
676.732	500
677.144	494.64
677.556	462.76
677.968	468.97
678.38	485.33
678.792	462.2
679.204	468.69
679.615	494.92
680.027	466.15
680.439	472.92
680.85	482.79
681.262	459.1
681.673	485.9
682.084	454.02
682.496	490.13
682.907	480.54
683.318	448.94
683.729	479.13
684.14	479.97
684.551	446.11
684.962	467
685.373	448.65
685.784	480.26
686.194	496.62
686.605	454.86
687.016	461.35
687.426	481.38
687.837	431.44
688.247	453.17
688.657	467
689.068	448.94
689.478	439.62
689.888	464.46
690.298	437.37
690.708	474.9
691.118	468.12
691.528	441.03
691.938	448.65
692.348	461.92
692.758	433.98
693.168	454.02
693.577	450.63
693.987	445.83
694.396	445.27
694.806	439.06
695.215	448.09
695.625	464.74
696.034	473.49
696.443	470.38
696.852	426.07
697.262	457.12
697.671	441.32
698.08	447.24
698.489	445.55
698.897	428.9
699.306	418.17
699.715	427.2
700.124	427.2
700.532	439.06
700.941	427.2
701.35	445.55
701.758	440.75
702.166	432.28
702.575	425.79
702.983	439.34
703.391	436.24
703.799	444.7
704.208	448.37
704.616	415.91
705.024	416.19
705.432	421.56
705.839	418.17
706.247	454.58
706.655	425.51
707.063	441.88
707.47	426.07
707.878	421.28
708.285	453.73
708.693	411.39
709.1	415.06
709.508	437.65
709.915	441.03
710.322	417.6
710.729	422.4
711.136	437.65
711.543	397.56
711.95	441.88
712.357	420.15
712.764	416.48
713.171	418.45
713.578	410.55
713.984	414.78
714.391	417.6
714.797	417.89
715.204	402.64
715.61	447.24
716.017	433.7
716.423	407.44
716.829	415.91
717.236	392.47
717.642	432.57
718.048	429.74
718.454	402.92
718.86	443.57
719.266	411.39
719.671	424.1
720.077	402.64
720.483	415.91
720.889	406.31
721.294	419.02
721.7	398.97
722.105	406.31
722.511	396.43
722.916	391.34
723.321	422.69
723.726	433.13
724.132	422.69
724.537	422.12
724.942	443.29
725.347	409.7
725.752	408.01
726.156	398.69
726.561	382.02
726.966	422.12
727.371	423.25
727.775	426.07
728.18	406.31
728.584	420.43
728.989	411.39
729.393	383.44
729.798	430.59
730.202	398.69
730.606	411.68
731.01	415.63
731.414	412.24
731.818	408.57
732.222	399.25
732.626	422.4
733.03	409.7
733.434	398.12
733.837	424.1
734.241	428.05
734.645	409.42
735.048	417.89
735.452	407.16
735.855	407.72
736.258	400.1
736.662	405.46
737.065	419.58
737.468	417.89
737.871	413.93
738.274	405.75
738.677	410.55
739.08	403.49
739.483	431.44
739.886	393.32
740.289	404.9
740.691	447.53
741.094	411.68
741.497	398.69
741.899	394.73
742.302	418.45
742.704	397.56
743.106	406.31
743.508	393.04
743.911	399.82
744.313	409.98
744.715	396.99
745.117	404.62
745.519	398.69
745.921	399.82
746.323	418.73
746.724	438.21
747.126	389.37
747.528	415.63
747.929	405.75
748.331	396.14
748.732	411.96
749.134	385.98
749.535	404.05
749.936	405.18
750.338	420.71
750.739	374.11
751.14	397.56
751.541	394.17
751.942	405.75
752.343	445.55
752.744	404.9
753.144	393.89
753.545	392.47
753.946	405.75
754.346	398.69
754.747	398.69
755.148	404.9
755.548	415.06
755.948	387.67
756.349	393.32
756.749	397.27
757.149	381.18
757.549	419.86
757.949	389.08
758.349	392.47
758.749	402.64
759.149	387.67
759.549	378.92
759.949	397.84
760.348	384.57
760.748	378.35
761.148	391.91
761.547	403.77
761.947	390.78
762.346	385.13
762.745	408.57
763.145	390.5
763.544	433.13
763.943	385.98
764.342	389.65
764.741	394.45
765.14	396.14
765.539	400.1
765.938	391.63
766.336	411.11
766.735	380.89
767.134	396.99
767.532	398.4
767.931	407.44
768.329	389.08
768.728	378.07
769.126	406.88
769.525	388.52
769.923	382.59
770.321	403.2
770.719	388.52
771.117	384
771.515	383.72
771.913	404.62
772.311	387.95
772.709	405.46
773.106	401.23
773.504	395.02
773.902	391.34
774.299	401.79
774.697	382.87
775.094	389.93
775.491	377.22
775.889	408.01
776.286	379.76
776.683	391.91
777.08	410.55
777.477	380.05
777.874	393.6
778.271	383.44
778.668	382.31
779.065	379.2
779.462	415.63
779.858	387.11
780.255	402.36
780.652	406.88
781.048	381.74
781.444	379.2
781.841	406.03
782.237	393.32
782.633	424.1
783.03	386.82
783.426	393.89
783.822	383.72
784.218	365.64
784.614	408.57
785.01	378.92
785.405	395.3
785.801	404.05
786.197	397.27
786.593	407.72
786.988	373.27
787.384	372.14
787.779	414.22
788.174	402.64
788.57	390.5
788.965	384.57
789.36	394.45
789.755	408.57
790.15	389.65
790.545	378.07
790.94	389.93
791.335	385.98
791.73	395.3
792.125	406.59
792.52	419.86
792.914	346.99
793.309	393.6
793.703	392.19
794.098	402.36
794.492	395.3
794.887	387.67
795.281	408.85
795.675	379.76
796.069	387.67
796.463	414.22
796.857	390.78
797.251	396.14
797.645	369.59
798.039	405.75
798.433	384
798.826	377.22
799.22	400.38
799.614	426.36
800.007	370.72
800.401	388.8
800.794	382.02
801.187	372.14
801.581	370.16
801.974	400.95
802.367	404.9
802.76	393.6
803.153	382.31
803.546	384
803.939	396.14
804.332	374.11
804.725	360.84
805.117	389.93
805.51	373.55
805.903	398.69
806.295	387.39
806.688	401.23
807.08	387.11
807.472	378.63
807.865	392.76
808.257	389.08
808.649	423.82
809.041	367.9
809.433	408.01
809.825	404.05
810.217	406.59
810.609	404.62
811.001	378.35
811.392	398.97
811.784	392.47
812.175	396.99
812.567	383.72
812.958	404.05
813.35	372.14
813.741	376.09
814.132	356.88
814.524	398.12
814.915	389.93
815.306	367.05
815.697	401.23
816.088	367.9
816.479	361.97
816.87	378.07
817.26	380.05
817.651	400.38
818.042	382.59
818.432	390.21
818.823	399.53
819.213	400.95
819.604	381.46
819.994	389.37
820.384	378.07
820.775	389.65
821.165	385.69
821.555	390.5
821.945	397.56
822.335	411.96
822.725	384.85
823.114	406.59
823.504	368.46
823.894	394.73
824.284	388.8
824.673	390.21
825.063	360.84
825.452	403.2
825.842	401.23
826.231	388.52
826.62	408.29
827.009	387.39
827.399	374.68
827.788	396.14
828.177	382.59
828.566	372.7
828.954	393.89
829.343	399.53
829.732	370.16
830.121	385.69
830.509	384
830.898	375.24
831.286	382.31
831.675	411.11
832.063	403.2
832.452	395.58
832.84	388.8
833.228	392.19
833.616	396.43
834.004	389.37
834.392	380.89
834.78	389.08
835.168	392.47
835.556	373.55
835.944	418.73
836.331	420.99
836.719	397.84
837.107	376.94
837.494	376.66
837.881	387.95
838.269	383.15
838.656	393.32
839.043	378.63
839.431	372.7
839.818	385.69
840.205	393.04
840.592	393.89
840.979	356.03
841.366	391.63
841.752	379.2
842.139	395.02
842.526	406.03
842.912	381.74
843.299	385.13
843.685	369.59
844.072	376.66
844.458	399.53
844.844	389.37
845.231	389.08
845.617	400.95
846.003	382.02
846.389	402.36
846.775	390.78
847.161	385.98
847.547	389.93
847.933	392.19
848.318	394.45
848.704	364.51
849.09	393.89
849.475	366.77
849.861	387.11
850.246	394.73
850.631	384.57
851.017	400.66
851.402	389.37
851.787	404.05
852.172	389.37
852.557	374.4
852.942	379.2
853.327	398.12
853.712	389.08
854.097	374.68
854.481	374.96
854.866	409.13
855.25	399.82
855.635	415.63
856.019	385.13
856.404	405.75
856.788	402.64
857.172	385.13
857.557	385.13
857.941	396.99
858.325	416.19
858.709	375.81
859.093	395.02
859.477	396.99
859.86	383.72
860.244	379.76
860.628	375.53
861.012	384.28
861.395	379.48
861.779	378.63
862.162	356.88
862.545	407.72
862.929	403.77
863.312	371.29
863.695	384.28
864.078	354.05
864.461	380.33
864.844	400.66
865.227	406.03
865.61	378.35
865.993	375.81
866.376	396.99
866.758	382.87
867.141	396.71
867.523	392.19
867.906	378.35
868.288	386.82
868.671	382.31
869.053	366.49
869.435	390.21
869.817	391.63
870.199	379.2
870.581	392.19
870.963	393.6
871.345	369.59
871.727	376.94
872.109	367.33
872.491	400.38
872.872	382.87
873.254	351.79
873.635	386.26
874.017	412.52
874.398	394.17
874.779	360.27
875.161	365.92
875.542	364.23
875.923	409.7
876.304	382.31
876.685	387.11
877.066	386.54
877.447	411.11
877.828	387.39
878.208	357.73
878.589	396.14
878.97	364.51
879.35	372.98
879.731	383.44
880.111	373.27
880.491	373.55
880.872	360.55
881.252	384.28
881.632	402.92
882.012	398.12
882.392	391.63
882.772	400.95
883.152	379.48
883.532	390.5
883.912	371.57
884.291	378.07
884.671	371.01
885.051	388.24
885.43	376.66
885.81	361.97
886.189	378.63
886.568	373.27
886.948	386.54
887.327	379.2
887.706	374.4
888.085	378.63
888.464	387.11
888.843	374.4
889.222	383.72
889.601	387.67
889.979	373.83
890.358	386.54
890.737	369.88
891.115	383.72
891.494	394.73
891.872	383.44
892.25	359.14
892.629	365.07
893.007	385.41
893.385	389.93
893.763	350.38
894.141	381.74
894.519	394.73
894.897	358.57
895.275	368.46
895.653	373.27
896.03	352.92
896.408	391.34
896.786	392.47
897.163	390.21
897.541	369.31
897.918	387.39
898.295	404.33
898.673	380.61
899.05	378.07
899.427	367.9
899.804	391.06
900.181	378.35
900.558	371.29
900.935	380.89
901.312	382.59
901.688	367.9
902.065	382.31
902.442	391.63
902.818	377.5
903.195	378.63
903.571	376.37
903.947	387.39
904.324	385.13
904.7	382.02
905.076	384
905.452	395.86
905.828	380.61
906.204	371.01
906.58	364.23
906.956	365.36
907.331	348.12
907.707	372.98
908.083	378.07
908.458	379.2
908.834	390.21
909.209	381.18
909.585	367.33
909.96	370.44
910.335	365.07
910.71	390.21
911.086	394.17
911.461	378.07
911.836	380.61
912.21	393.32
912.585	380.89
912.96	376.66
913.335	393.04
913.709	375.53
914.084	383.72
914.459	382.87
914.833	384.57
915.207	372.7
915.582	383.72
915.956	371.29
916.33	382.02
916.704	367.05
917.078	408.57
917.452	384.85
917.826	384.57
918.2	385.13
918.574	370.72
918.948	383.15
919.321	382.87
919.695	385.69
920.068	373.83
920.442	396.14
920.815	363.1
921.189	403.77
921.562	361.68
921.935	390.5
922.308	405.75
922.681	387.39
923.054	380.05
923.427	394.45
923.8	365.07
924.173	391.06
924.546	351.51
924.919	395.58
925.291	373.27
925.664	358.57
926.036	342.75
926.409	387.11
926.781	378.35
927.153	366.2
927.526	394.17
927.898	371.29
928.27	389.93
928.642	378.63
929.014	385.69
929.386	391.91
929.758	373.27
930.129	363.38
930.501	360.55
930.873	373.55
931.244	392.76
931.616	364.79
931.987	372.42
932.359	357.73
932.73	364.79
933.101	387.39
933.472	366.77
933.843	401.23
934.214	351.51
934.585	372.98
934.956	374.4
935.327	363.94
935.698	379.2
936.069	393.32
936.439	380.61
936.81	379.2
937.18	383.15
937.551	395.02
937.921	360.55
938.292	389.37
938.662	365.64
939.032	370.72
939.402	365.36
939.772	376.94
940.142	398.69
940.512	386.82
940.882	385.13
941.252	358.29
941.621	387.95
941.991	380.89
942.361	383.15
942.73	369.31
943.1	366.2
943.469	394.17
943.838	366.49
944.208	369.59
944.577	388.24
944.946	382.87
945.315	350.66
945.684	370.72
946.053	385.13
946.422	361.4
946.791	364.79
947.159	379.48
947.528	378.07
947.897	381.74
948.265	366.2
948.634	365.36
949.002	383.72
949.371	349.82
949.739	377.79
950.107	386.54
950.475	380.05
950.843	371.57
951.211	379.48
951.579	363.38
951.947	355.75
952.315	377.22
952.683	382.02
953.05	356.88
953.418	397.84
953.785	364.79
954.153	369.31
954.52	359.14
954.888	368.46
955.255	373.27
955.622	380.89
955.989	388.52
956.356	379.76
956.723	373.55
957.09	342.47
957.457	403.77
957.824	361.4
958.191	358.01
958.557	370.72
958.924	398.69
959.291	371.29
959.657	378.07
960.023	373.27
960.39	369.31
960.756	404.9
961.122	375.53
961.488	392.76
961.855	384.85
962.221	395.3
962.586	378.07
962.952	377.5
963.318	404.9
963.684	364.51
964.05	378.63
964.415	375.24
964.781	364.23
965.146	366.2
965.512	395.58
965.877	369.59
966.242	366.2
966.608	378.07
966.973	378.35
967.338	383.72
967.703	348.4
968.068	374.96
968.433	386.54
968.797	365.64
969.162	381.74
969.527	350.38
969.891	380.89
970.256	386.82
970.62	348.97
970.985	371.01
971.349	385.13
971.714	394.17
972.078	374.4
972.442	384.85
972.806	396.71
973.17	361.97
973.534	396.99
973.898	366.2
974.262	349.53
974.625	383.44
974.989	372.42
975.353	378.35
975.716	367.33
976.08	376.09
976.443	368.18
976.806	388.24
977.17	371.01
977.533	371.01
977.896	386.82
978.259	369.31
978.622	362.25
978.985	345.86
979.348	371.57
979.711	354.05
980.073	396.43
980.436	371.29
980.799	391.06
981.161	381.18
981.524	371.85
981.886	374.96
982.248	351.23
982.611	380.61
982.973	355.75
983.335	389.08
983.697	377.5
984.059	356.6
984.421	391.34
984.783	363.66
985.145	389.08
985.506	378.92
985.868	371.85
986.23	391.91
986.591	371.29
986.953	372.98
987.314	374.96
987.675	369.03
988.037	476.31
988.398	356.6
988.759	379.76
989.12	362.53
989.481	360.27
989.842	361.12
990.203	395.3
990.564	372.42
990.924	390.78
991.285	495.2
991.646	388.8
992.006	363.94
992.367	372.7
992.727	380.89
993.087	365.64
993.448	393.04
993.808	365.07
994.168	372.7
994.528	365.64
994.888	354.62
995.248	367.05
995.608	367.05
995.967	389.65
996.327	356.03
996.687	364.23
997.046	378.63
997.406	360.55
997.765	414.5
998.125	368.75
998.484	371.29
998.843	368.46
999.202	368.18
999.561	365.92
999.92	380.89
1000.279	347.84
1000.638	371.57
1000.997	354.05
1001.356	380.61
1001.715	365.92
1002.073	361.68
1002.432	360.55
1002.79	371.85
1003.149	355.18
1003.507	370.16
1003.865	367.05
1004.224	382.02
1004.582	390.21
1004.94	373.55
1005.298	355.18
1005.656	359.14
1006.014	379.2
1006.371	376.66
1006.729	365.64
1007.087	354.62
1007.445	378.63
1007.802	373.83
1008.16	350.1
1008.517	403.77
1008.874	370.72
1009.232	362.53
1009.589	364.79
1009.946	398.97
1010.303	358.29
1010.66	373.55
1011.017	344.73
1011.374	372.7
1011.731	363.94
1012.087	350.95
1012.444	381.46
1012.801	380.33
1013.157	363.94
1013.513	380.05
1013.87	378.92
1014.226	354.05
1014.582	370.72
1014.939	384.28
1015.295	350.95
1015.651	386.54
1016.007	380.05
1016.363	363.94
1016.719	361.12
1017.074	355.75
1017.43	361.4
1017.786	362.53
1018.141	362.25
1018.497	362.25
1018.852	374.96
1019.208	336.82
1019.563	362.53
1019.918	381.74
1020.273	384.28
1020.628	358.01
1020.983	402.08
1021.338	363.94
1021.693	369.03
1022.048	359.99
1022.403	382.02
1022.757	368.46
1023.112	377.5
1023.467	369.88
1023.821	378.63
1024.175	355.75
1024.53	369.88
1024.884	373.83
1025.238	383.72
1025.592	374.68
1025.946	374.11
1026.3	374.11
1026.654	358.57
1027.008	380.61
1027.362	360.55
1027.716	358.01
1028.069	381.18
1028.423	366.49
1028.777	341.62
1029.13	379.48
1029.483	355.47
1029.837	358.29
1030.19	372.7
1030.543	326.36
1030.896	362.53
1031.249	382.59
1031.602	368.18
1031.955	350.38
1032.308	373.27
1032.661	368.46
1033.013	358.86
1033.366	383.72
1033.719	371.85
1034.071	398.69
1034.424	377.5
1034.776	382.02
1035.128	363.66
1035.48	382.87
1035.833	348.97
1036.185	373.55
1036.537	373.55
1036.889	373.55
