Data from SCSF78-405_irradiation_FLMS019251_21-32-27-937.txt Node
Date: Fri Feb 22 21:32:27 PST 2019
User: mu3e
Spectrometer: FLMS01925
Trigger mode: 0
Integration Time (sec): 1.206000E-2
Scans to average: 10
Electric dark correction enabled: true
Nonlinearity correction enabled: true
Boxcar width: 0
XAxis mode: Wavelengths
Number of Pixels in Spectrum: 2048
>>>>>Begin Spectral Data<<<<<
187.103	-79.58
187.574	-79.58
188.045	-79.58
188.516	-137.87
188.987	-114.83
189.458	-135.02
189.929	-132.18
190.4	-97.2
190.871	-111.7
191.342	-92.37
191.813	-51.73
192.284	-25.59
192.754	10.75
193.225	1.1
193.696	23.24
194.166	46.23
194.637	74.6
195.107	94.45
195.578	122.23
196.048	119.97
196.518	152.27
196.989	201.84
197.459	206.94
197.929	214.86
198.399	257.32
198.869	268.35
199.339	296.92
199.809	294.09
200.279	323.49
200.749	324.63
201.219	337.06
201.689	365.32
202.159	388.48
202.628	383.68
203.098	381.99
203.568	363.63
204.037	393.57
204.507	358.26
204.976	413.05
205.445	387.64
205.915	376.62
206.384	369.28
206.853	417.29
207.323	384.81
207.792	384.25
208.261	398.93
208.73	386.22
209.199	380.29
209.668	396.96
210.137	379.45
210.606	372.95
211.075	391.87
211.543	373.23
212.012	383.4
212.481	364.19
212.95	356.56
213.418	379.73
213.887	342.72
214.355	385.38
214.824	338.19
215.292	358.26
215.76	338.48
216.229	352.61
216.697	357.13
217.165	337.91
217.633	357.69
218.101	358.26
218.569	359.95
219.037	359.95
219.505	374.36
219.973	372.95
220.441	351.19
220.909	330.84
221.377	347.24
221.844	351.76
222.312	323.78
222.78	356.28
223.247	360.52
223.715	366.17
224.182	354.02
224.65	359.1
225.117	362.21
225.584	353.17
226.052	358.54
226.519	359.95
226.986	383.4
227.453	375.49
227.92	343.28
228.387	348.37
228.854	355.15
229.321	369.28
229.788	381.99
230.255	339.32
230.722	354.87
231.189	352.32
231.655	370.69
232.122	372.1
232.589	352.04
233.055	352.32
233.522	359.95
233.988	358.54
234.454	365.32
234.921	351.48
235.387	382.27
235.853	352.61
236.32	359.1
236.786	351.76
237.252	373.51
237.718	381.14
238.184	389.9
238.65	365.32
239.116	361.37
239.582	348.37
240.047	389.9
240.513	374.93
240.979	350.91
241.445	371.25
241.91	359.39
242.376	375.77
242.841	345.26
243.307	394.42
243.772	332.82
244.238	366.73
244.703	363.06
245.168	361.37
245.633	382.27
246.099	369.56
246.564	352.61
247.029	369.28
247.494	386.79
247.959	370.41
248.424	370.12
248.889	392.16
249.353	360.23
249.818	401.76
250.283	391.03
250.748	365.89
251.212	371.25
251.677	379.45
252.141	371.25
252.606	408.25
253.07	387.92
253.535	394.7
253.999	365.32
254.463	379.45
254.927	381.99
255.392	383.68
255.856	346.39
256.32	359.39
256.784	352.04
257.248	364.76
257.712	371.82
258.176	375.77
258.64	402.32
259.103	388.2
259.567	378.88
260.031	376.06
260.495	387.92
260.958	378.32
261.422	379.45
261.885	391.03
262.349	385.38
262.812	362.21
263.275	371.54
263.739	384.25
264.202	388.48
264.665	398.09
265.128	380.29
265.591	385.38
266.054	389.33
266.517	409.95
266.98	376.06
267.443	372.38
267.906	395.26
268.369	364.19
268.832	384.25
269.294	368.15
269.757	401.76
270.22	399.5
270.682	378.6
271.145	407.69
271.607	403.17
272.07	391.03
272.532	385.94
272.994	376.34
273.456	382.55
273.919	392.44
274.381	380.86
274.843	384.53
275.305	367.58
275.767	384.25
276.229	387.07
276.691	391.59
277.153	384.81
277.614	394.13
278.076	408.82
278.538	360.8
279	396.39
279.461	391.87
279.923	389.33
280.384	398.65
280.846	371.82
281.307	410.23
281.769	378.6
282.23	373.8
282.691	388.2
283.152	409.66
283.613	364.19
284.075	380.29
284.536	385.66
284.997	376.34
285.458	377.19
285.918	407.69
286.379	383.68
286.84	391.59
287.301	374.36
287.762	388.2
288.222	392.72
288.683	402.89
289.143	404.3
289.604	369.28
290.064	404.58
290.525	412.77
290.985	392.16
291.445	399.22
291.906	385.94
292.366	398.93
292.826	404.86
293.286	382.84
293.746	363.63
294.206	389.05
294.666	366.17
295.126	407.41
295.586	411.92
296.046	365.89
296.506	383.4
296.965	407.97
297.425	391.31
297.884	398.65
298.344	392.44
298.804	383.12
299.263	388.77
299.722	379.16
300.182	382.27
300.641	393.57
301.1	380.29
301.559	398.37
302.019	392.72
302.478	394.7
302.937	407.12
303.396	386.51
303.855	409.1
304.314	368.15
304.772	409.1
305.231	383.68
305.69	396.67
306.149	388.77
306.607	413.05
307.066	396.96
307.524	391.31
307.983	402.04
308.441	379.16
308.9	412.49
309.358	375.21
309.816	403.45
310.275	388.2
310.733	398.37
311.191	396.96
311.649	385.38
312.107	414.75
312.565	396.11
313.023	388.2
313.481	416.16
313.939	371.25
314.397	425.76
314.854	394.7
315.312	422.37
315.77	403.45
316.227	418.42
316.685	407.12
317.142	385.38
317.6	398.93
318.057	406.28
318.514	380.29
318.972	401.19
319.429	406.28
319.886	406.56
320.343	389.05
320.8	380.01
321.257	383.68
321.714	415.59
322.171	400.35
322.628	421.52
323.085	396.96
323.542	415.31
323.998	394.7
324.455	404.02
324.912	418.42
325.368	380.86
325.825	406.28
326.281	365.89
326.738	376.06
327.194	424.63
327.65	394.42
328.107	424.91
328.563	397.52
329.019	395.26
329.475	398.65
329.931	405.15
330.387	406.84
330.843	404.58
331.299	398.93
331.755	400.91
332.211	397.52
332.666	408.25
333.122	412.77
333.578	413.62
334.033	412.49
334.489	389.9
334.944	416.44
335.4	400.63
335.855	409.38
336.31	400.35
336.766	424.35
337.221	401.76
337.676	400.63
338.131	416.44
338.586	420.11
339.041	394.98
339.496	406.28
339.951	393.85
340.406	393.85
340.861	376.9
341.316	388.48
341.771	411.92
342.225	404.58
342.68	398.93
343.134	385.66
343.589	411.36
344.043	429.43
344.498	381.99
344.952	409.95
345.406	428.02
345.861	409.1
346.315	414.18
346.769	422.37
347.223	397.8
347.677	414.75
348.131	402.04
348.585	405.71
349.039	409.38
349.493	396.96
349.947	419.26
350.401	399.78
350.854	421.24
351.308	390.46
351.762	418.98
352.215	408.25
352.669	430.56
353.122	409.66
353.575	387.35
354.029	389.05
354.482	419.26
354.935	380.29
355.388	415.88
355.842	414.46
356.295	406.84
356.748	408.25
357.201	398.65
357.654	407.69
358.106	390.74
358.559	403.73
359.012	415.88
359.465	390.74
359.917	430.84
360.37	425.76
360.823	413.9
361.275	423.5
361.728	380.58
362.18	434.79
362.632	418.98
363.085	438.46
363.537	418.98
363.989	374.64
364.441	419.55
364.893	420.39
365.345	404.02
365.797	390.46
366.249	418.98
366.701	416.44
367.153	398.09
367.605	398.37
368.057	402.6
368.508	409.95
368.96	433.94
369.411	430.84
369.863	434.23
370.314	397.24
370.766	408.25
371.217	403.73
371.669	411.64
372.12	402.04
372.571	414.46
373.022	409.66
373.473	414.46
373.924	415.31
374.375	415.31
374.826	427.17
375.277	430.84
375.728	414.18
376.179	427.73
376.63	440.43
377.08	428.86
377.531	413.62
377.981	427.17
378.432	415.03
378.883	418.42
379.333	423.5
379.783	433.1
380.234	436.48
380.684	413.33
381.134	424.63
381.584	440.15
382.034	433.66
382.485	434.79
382.935	420.96
383.385	414.46
383.834	408.53
384.284	449.47
384.734	419.26
385.184	435.64
385.634	431.97
386.083	416.16
386.533	421.8
386.982	420.68
387.432	431.4
387.881	454.83
388.331	413.05
388.78	411.36
389.229	461.04
389.679	428.02
390.128	413.9
390.577	411.64
391.026	400.35
391.475	436.2
391.924	442.13
392.373	413.33
392.822	405.99
393.27	451.72
393.719	440.72
394.168	404.58
394.617	447.49
395.065	427.45
395.514	447.77
395.962	442.41
396.411	431.12
396.859	430.27
397.307	447.21
397.756	441.85
398.204	424.91
398.652	434.51
399.1	437.61
399.548	442.97
399.996	435.64
400.444	450.88
400.892	438.74
401.34	433.94
401.788	453.98
402.236	456.8
402.683	456.52
403.131	453.42
403.579	457.65
404.026	447.49
404.474	445.8
404.921	429.43
405.369	475.14
405.816	480.5
406.263	441.28
406.71	456.24
407.158	486.99
407.605	447.77
408.052	512.94
408.499	491.5
408.946	449.75
409.393	496.86
409.84	519.98
410.286	502.22
410.733	518.58
411.18	560.01
411.626	578.32
412.073	619.16
412.52	647.88
412.966	783.98
413.413	890.95
413.859	1039.22
414.305	1281.61
414.752	1546.05
415.198	1838.15
415.644	2222.18
416.09	2724.55
416.536	3222.29
416.982	3852.31
417.428	4484.44
417.874	5283.73
418.32	6058.08
418.766	6969
419.211	7964.76
419.657	8825.98
420.103	9998.9
420.548	10812.98
420.994	12095.85
421.439	13150.89
421.885	14150.42
422.33	15451.14
422.776	16503
423.221	17496.97
423.666	18732.01
424.111	19935.39
424.556	20824.01
425.001	22272.68
425.446	23581.79
425.891	24731.82
426.336	25657.54
426.781	26761.06
427.226	28814.58
427.671	29418.61
428.115	30257.51
428.56	31814.74
429.005	33202.98
429.449	33712.39
429.894	35038.2
430.338	36205.11
430.782	36164.78
431.227	37888.33
431.671	38132.1
432.115	39632.55
432.559	40575.03
433.003	40405.96
433.447	41196.53
433.891	41595.06
434.335	41960.41
434.779	42697.61
435.223	42918.84
435.667	42993.54
436.111	43429.78
436.554	43347.21
436.998	42914.36
437.442	43034.39
437.885	44971
438.328	43450.74
438.772	43845.62
439.215	44182.39
439.659	44059.48
440.102	44411.89
440.545	43646.22
440.988	43533.6
441.431	44366.27
441.874	43835.87
442.317	44147.09
442.76	43575.3
443.203	43174.67
443.646	43875.87
444.089	43365.66
444.531	43987.67
444.974	42755.57
445.417	43673.94
445.859	42845.16
446.302	44013.94
446.744	43276.88
447.186	44420.42
447.629	43411.82
448.071	43342.72
448.513	43413.81
448.956	44857.39
449.398	44140.33
449.84	42827.98
450.282	43442.51
450.724	44169.37
451.166	43732.65
451.607	43695.93
452.049	43664.7
452.491	44730.03
452.933	44321.41
453.374	44919.47
453.816	45288.35
454.257	44767.2
454.699	45991.61
455.14	45633.55
455.582	45475.61
456.023	45444.6
456.464	45617.9
456.905	45954.93
457.347	46047.78
457.788	45101.55
458.229	45191.4
458.67	46192.61
459.111	44325.67
459.552	44507.43
459.992	44255.77
460.433	44081.75
460.874	43189.62
461.315	44441.73
461.755	43409.57
462.196	43048.09
462.636	42134.09
463.077	41947.02
463.517	42111.75
463.957	42395.07
464.398	42077.01
464.838	42002.33
465.278	40916.39
465.718	41241.55
466.158	40002.04
466.598	40437.55
467.038	40054.29
467.478	40539.48
467.918	40690.83
468.358	40008.94
468.798	39775.87
469.237	39657.17
469.677	39568.79
470.117	40231.31
470.556	38128.91
470.996	38651.95
471.435	38685.85
471.874	39328.37
472.314	39202.69
472.753	38265.57
473.192	38326.42
473.631	37968.02
474.07	38212.08
474.509	38254.04
474.948	38443.25
475.387	37697.62
475.826	36991.03
476.265	38448.41
476.704	38017.32
477.143	38370.35
477.581	38183.62
478.02	38679.95
478.458	37320.09
478.897	38024.67
479.335	39145.64
479.774	38661.78
480.212	38855.11
480.65	38706.23
481.089	38487.44
481.527	37972.93
481.965	37538.1
482.403	39396.77
482.841	39189.16
483.279	39068.68
483.717	39188.67
484.155	38697.39
484.592	39164.33
485.03	39263.43
485.468	38415.76
485.905	38420.43
486.343	38932.02
486.781	38346.55
487.218	37788.56
487.655	37804.49
488.093	36894.36
488.53	38325.44
488.967	37467.54
489.405	37458.23
489.842	36528.12
490.279	36578.26
490.716	36187.02
491.153	36533.74
491.59	36098.04
492.027	35443.76
492.463	34986.93
492.9	34274.37
493.337	34365.37
493.773	34356.35
494.21	33531.44
494.647	33384.89
495.083	32759.48
495.519	32295.04
495.956	32239.94
496.392	31648.46
496.828	31565.07
497.265	30844.21
497.701	30919.81
498.137	30508.8
498.573	29875.85
499.009	30336.56
499.445	29513.1
499.881	29160.48
500.316	29336.81
500.752	28547.72
501.188	28395.44
501.624	28274.18
502.059	27049.91
502.495	27006.31
502.93	26936.49
503.366	27051.13
503.801	26467.91
504.236	26226.62
504.672	25793.79
505.107	25498.9
505.542	24963.46
505.977	24941.09
506.412	24659
506.847	24880.85
507.282	24326.29
507.717	23978.82
508.152	23934.48
508.587	23636.77
509.021	23158.01
509.456	22828.69
509.891	22861.78
510.325	22776.33
510.76	22457.35
511.194	22178.96
511.628	22271.69
512.063	21551.31
512.497	21774.9
512.931	21255.48
513.366	21040.79
513.8	21083.19
514.234	20434.07
514.668	20568.89
515.102	20718.06
515.536	19853.83
515.969	19987.1
516.403	19665.54
516.837	19277.5
517.271	19336.26
517.704	18995.5
518.138	18871.88
518.571	18632.51
519.005	18362.04
519.438	18304.62
519.871	18131.09
520.305	17689.04
520.738	17608.02
521.171	17238.96
521.604	17317.56
522.037	17128.05
522.47	16806.89
522.903	16492.71
523.336	16397.38
523.769	16355.47
524.202	15905.24
524.634	15965.54
525.067	15623.95
525.5	15521.08
525.932	15424.47
526.365	15050.84
526.797	14800.83
527.23	14957.36
527.662	14379.5
528.094	14212.83
528.527	14173.92
528.959	13933.3
529.391	13689.7
529.823	13249.76
530.255	13346.07
530.687	13069.22
531.119	12910.13
531.551	12801.23
531.982	12555.57
532.414	12395.64
532.846	12036.5
533.277	11946.06
533.709	11606.38
534.14	11601.79
534.572	11369.93
535.003	11293.27
535.435	11026.78
535.866	10926.18
536.297	10637.93
536.728	10705.36
537.159	10538.42
537.59	10307.9
538.022	10233.65
538.452	9972.14
538.883	9869.43
539.314	9749.66
539.745	9500.07
540.176	9406.89
540.606	9179.54
541.037	9226.33
541.468	9038.83
541.898	8968.95
542.328	8857.07
542.759	8659.53
543.189	8519.13
543.619	8477.32
544.05	8291.5
544.48	8127.06
544.91	8082.27
545.34	7892.8
545.77	7859.68
546.2	7746.16
546.63	7622.88
547.06	7539.5
547.489	7440.1
547.919	7221.68
548.349	7293.74
548.778	7224.04
549.208	7130.95
549.637	6998.16
550.067	6884.93
550.496	6818.41
550.926	6733.18
551.355	6564.11
551.784	6584.93
552.213	6418.55
552.642	6356
553.071	6342.54
553.5	6215.99
553.929	6090.9
554.358	6112.33
554.787	5896.76
555.216	5917.7
555.645	5802.88
556.073	5730.96
556.502	5666.69
556.93	5530.33
557.359	5470.19
557.787	5509.04
558.216	5465.4
558.644	5353.29
559.072	5322.65
559.5	5227.99
559.929	5210.38
560.357	5159.68
560.785	5091.58
561.213	5114.02
561.641	5011.15
562.068	4961.15
562.496	4914.6
562.924	4836.96
563.352	4907.1
563.779	4827.86
564.207	4849.01
564.634	4751.5
565.062	4738.63
565.489	4666.49
565.917	4580.88
566.344	4574.44
566.771	4547.31
567.198	4472.07
567.625	4418.03
568.053	4419.91
568.48	4393.82
568.907	4335.96
569.333	4262.44
569.76	4136.54
570.187	4103.09
570.614	4074.48
571.04	4174.03
571.467	3949.41
571.894	3926.16
572.32	3812.25
572.747	3779.49
573.173	3679.23
573.599	3591.07
574.026	3531.34
574.452	3461.25
574.878	3462.88
575.304	3423.46
575.73	3350.02
576.156	3325.52
576.582	3232.65
577.008	3199.12
577.434	3162.58
577.86	3058.07
578.285	3036.22
578.711	3023.65
579.137	2947.13
579.562	2891.61
579.988	2906.11
580.413	2854.12
580.838	2744.56
581.264	2748.95
581.689	2726.47
582.114	2673.55
582.539	2651.05
582.964	2610.98
583.39	2530.51
583.814	2527.76
584.239	2475.81
584.664	2461.24
585.089	2417.77
585.514	2364.37
585.939	2360.52
586.363	2298.54
586.788	2301.85
587.212	2236.79
587.637	2190.73
588.061	2200.11
588.485	2164.51
588.91	2125.58
589.334	2124.2
589.758	2089.95
590.182	2048.77
590.606	2054.58
591.03	1983.79
591.454	1944.78
591.878	1951.97
592.302	1961.38
592.726	1875
593.15	1914.88
593.573	1865.3
593.997	1831.49
594.42	1842.58
594.844	1769.11
595.267	1760.51
595.691	1754.13
596.114	1729.15
596.537	1708.61
596.96	1702.5
597.384	1710.28
597.807	1651.13
598.23	1656.68
598.653	1611.39
599.076	1611.67
599.499	1610.56
599.921	1596.66
600.344	1578.87
600.767	1582.76
601.189	1560.79
601.612	1566.91
602.034	1545.49
602.457	1536.59
602.879	1525.18
603.302	1531.86
603.724	1492.34
604.146	1500.13
604.568	1473.13
604.991	1458.93
605.413	1463.11
605.835	1468.4
606.257	1457.54
606.678	1443.05
607.1	1419.37
607.522	1402.65
607.944	1396.8
608.365	1371.71
608.787	1377.29
609.209	1355.26
609.63	1386.21
610.051	1363.91
610.473	1334.06
610.894	1333.51
611.315	1295.28
611.737	1257.04
612.158	1260.11
612.579	1243.64
613	1231.35
613.421	1241.68
613.842	1247.55
614.263	1215.98
614.683	1192.23
615.104	1211.23
615.525	1152.54
615.945	1154.5
616.366	1144.43
616.787	1156.46
617.207	1080.65
617.627	1090.45
618.048	1115.07
618.468	1082.61
618.888	1022.98
619.308	1061.62
619.728	1058.82
620.148	1009.81
620.568	1025.22
620.988	1003.93
621.408	998.61
621.828	991.32
622.248	1008.97
622.668	964.7
623.087	957.97
623.507	966.1
623.926	973.39
624.346	942.27
624.765	943.68
625.185	930.22
625.604	944.24
626.023	921.52
626.442	922.65
626.861	916.2
627.28	850.26
627.699	864.57
628.118	875.8
628.537	867.38
628.956	841.56
629.375	835.38
629.794	831.73
630.212	810.39
630.631	820.5
631.049	797.19
631.468	804.21
631.886	827.52
632.305	801.12
632.723	779.77
633.141	767.97
633.559	783.98
633.978	774.99
634.396	807.02
634.814	743.79
635.232	752.23
635.65	724.68
636.067	731.14
636.485	736.77
636.903	739.3
637.321	718.77
637.738	711.74
638.156	734.52
638.573	695.15
638.991	720.18
639.408	702.18
639.825	696.55
640.243	697.68
640.66	683.33
641.077	704.99
641.494	700.21
641.911	696.55
642.328	699.65
642.745	668.98
643.162	675.17
643.579	673.49
643.995	670.11
644.412	672.36
644.829	633.52
645.245	632.4
645.662	647.6
646.078	645.63
646.495	652.38
646.911	610.43
647.327	630.71
647.743	619.73
648.159	627.61
648.576	607.05
648.992	599.73
649.408	601.7
649.824	627.33
650.239	594.94
650.655	604.24
651.071	611
651.487	604.24
651.902	545.07
652.318	590.44
652.733	576.07
653.149	577.48
653.564	589.87
653.979	561.7
654.395	589.31
654.81	544.79
655.225	582.27
655.64	576.07
656.055	536.9
656.47	578.89
656.885	580.86
657.3	550.71
657.715	583.68
658.13	550.15
658.544	565.08
658.959	540.28
659.374	551.84
659.788	547.89
660.202	534.08
660.617	553.53
661.031	552.12
661.445	560.86
661.86	564.52
662.274	551.84
662.688	531.83
663.102	501.09
663.516	539.15
663.93	554.37
664.344	538.31
664.758	516.32
665.171	530.7
665.585	512.65
665.999	539.44
666.412	537.18
666.826	508.99
667.239	515.19
667.653	528.72
668.066	505.89
668.479	521.11
668.892	530.98
669.306	486.71
669.719	499.12
670.132	511.24
670.545	514.06
670.958	494.89
671.37	499.4
671.783	494.32
672.196	495.45
672.609	499.4
673.021	497.99
673.434	494.61
673.846	506.17
674.259	492.35
674.671	488.12
675.084	478.81
675.496	485.86
675.908	501.66
676.32	469.22
676.732	496.86
677.144	498.27
677.556	487.55
677.968	470.91
678.38	486.71
678.792	477.68
679.204	482.19
679.615	488.68
680.027	490.94
680.439	487.27
680.85	491.79
681.262	452.85
681.673	468.65
682.084	454.83
682.496	459.91
682.907	473.17
683.318	507.01
683.729	479.09
684.14	490.37
684.551	477.96
684.962	477.68
685.373	447.77
685.784	445.8
686.194	453.42
686.605	456.52
687.016	441
687.426	472.89
687.837	466.68
688.247	464.7
688.657	454.83
689.068	467.24
689.478	452.29
689.888	476.84
690.298	458.78
690.708	442.69
691.118	448.62
691.528	475.71
691.938	461.32
692.348	446.93
692.758	468.09
693.168	440.72
693.577	438.46
693.987	445.23
694.396	427.17
694.806	425.76
695.215	485.02
695.625	445.23
696.034	441.85
696.443	446.93
696.852	430.27
697.262	441.56
697.671	429.71
698.08	453.98
698.489	429.14
698.897	434.23
699.306	423.5
699.715	418.98
700.124	422.37
700.532	449.47
700.941	441.56
701.35	453.98
701.758	411.92
702.166	435.07
702.575	435.92
702.983	444.1
703.391	434.23
703.799	411.36
704.208	430.56
704.616	420.11
705.024	424.35
705.432	418.7
705.839	429.43
706.247	417
706.655	423.22
707.063	404.3
707.47	431.97
707.878	433.66
708.285	425.19
708.693	436.48
709.1	408.25
709.508	402.6
709.915	418.42
710.322	441
710.729	431.12
711.136	424.35
711.543	413.9
711.95	387.35
712.357	444.1
712.764	404.58
713.171	419.55
713.578	395.83
713.984	412.21
714.391	417.29
714.797	398.37
715.204	403.17
715.61	413.33
716.017	415.88
716.423	404.02
716.829	427.73
717.236	416.16
717.642	416.72
718.048	417.85
718.454	406.56
718.86	390.74
719.266	398.09
719.671	411.36
720.077	397.24
720.483	409.38
720.889	409.66
721.294	417.85
721.7	413.05
722.105	419.55
722.511	410.23
722.916	419.83
723.321	404.86
723.726	404.58
724.132	394.7
724.537	398.65
724.942	412.21
725.347	437.33
725.752	405.71
726.156	394.42
726.561	402.89
726.966	409.1
727.371	424.63
727.775	411.64
728.18	403.73
728.584	393.85
728.989	393.29
729.393	403.73
729.798	399.22
730.202	414.18
730.606	407.97
731.01	407.97
731.414	414.75
731.818	408.25
732.222	415.03
732.626	420.11
733.03	407.97
733.434	408.25
733.837	419.83
734.241	402.89
734.645	426.04
735.048	393.85
735.452	408.25
735.855	403.17
736.258	411.92
736.662	409.66
737.065	404.02
737.468	384.81
737.871	384.25
738.274	410.51
738.677	404.58
739.08	422.37
739.483	390.46
739.886	407.97
740.289	402.6
740.691	371.82
741.094	409.1
741.497	390.46
741.899	406.84
742.302	377.19
742.704	402.32
743.106	411.08
743.508	396.67
743.911	390.74
744.313	404.58
744.715	398.37
745.117	397.52
745.519	409.1
745.921	406.84
746.323	417.85
746.724	402.6
747.126	427.17
747.528	398.09
747.929	388.77
748.331	415.31
748.732	408.25
749.134	390.74
749.535	401.48
749.936	407.12
750.338	393.85
750.739	416.16
751.14	400.06
751.541	396.96
751.942	397.24
752.343	402.32
752.744	410.79
753.144	384.81
753.545	398.09
753.946	433.1
754.346	396.39
754.747	408.82
755.148	399.22
755.548	372.95
755.948	402.04
756.349	360.23
756.749	405.15
757.149	402.04
757.549	400.91
757.949	409.1
758.349	389.33
758.749	429.71
759.149	426.04
759.549	370.97
759.949	423.78
760.348	372.95
760.748	416.44
761.148	389.05
761.547	400.06
761.947	394.7
762.346	401.76
762.745	406.28
763.145	397.24
763.544	392.44
763.943	404.3
764.342	394.42
764.741	400.91
765.14	401.48
765.539	418.98
765.938	382.84
766.336	387.35
766.735	416.16
767.134	381.99
767.532	379.45
767.931	382.27
768.329	409.1
768.728	406.84
769.126	394.13
769.525	406.28
769.923	397.8
770.321	401.48
770.719	405.15
771.117	407.97
771.515	396.39
771.913	408.53
772.311	372.95
772.709	394.42
773.106	391.87
773.504	399.78
773.902	367.02
774.299	383.12
774.697	390.74
775.094	412.77
775.491	421.8
775.889	429.99
776.286	364.19
776.683	407.12
777.08	373.8
777.477	370.12
777.874	391.87
778.271	391.87
778.668	400.35
779.065	396.96
779.462	374.93
779.858	413.9
780.255	382.84
780.652	380.58
781.048	398.09
781.444	370.12
781.841	392.16
782.237	415.31
782.633	376.9
783.03	375.21
783.426	413.33
783.822	385.66
784.218	385.94
784.614	402.89
785.01	398.09
785.405	388.48
785.801	380.86
786.197	366.17
786.593	385.66
786.988	390.74
787.384	391.03
787.779	390.74
788.174	377.75
788.57	398.09
788.965	386.22
789.36	405.43
789.755	403.73
790.15	397.8
790.545	377.47
790.94	398.93
791.335	387.35
791.73	394.13
792.125	403.45
792.52	393.29
792.914	396.39
793.309	375.77
793.703	396.96
794.098	372.95
794.492	387.35
794.887	406.28
795.281	391.87
795.675	391.03
796.069	365.32
796.463	379.45
796.857	389.61
797.251	412.49
797.645	389.05
798.039	412.21
798.433	375.49
798.826	400.63
799.22	379.73
799.614	374.64
800.007	394.42
800.401	411.36
800.794	395.83
801.187	392.16
801.581	387.35
801.974	394.13
802.367	411.36
802.76	379.73
803.153	419.26
803.546	389.33
803.939	379.16
804.332	380.86
804.725	411.92
805.117	390.74
805.51	392.16
805.903	366.73
806.295	407.69
806.688	422.93
807.08	393.29
807.472	405.15
807.865	415.31
808.257	392.16
808.649	409.95
809.041	428.02
809.433	394.42
809.825	389.05
810.217	426.6
810.609	407.69
811.001	394.13
811.392	383.68
811.784	406.84
812.175	395.83
812.567	402.04
812.958	377.19
813.35	396.96
813.741	375.77
814.132	383.96
814.524	382.84
814.915	384.53
815.306	393.29
815.697	390.74
816.088	363.34
816.479	360.52
816.87	387.35
817.26	391.03
817.651	388.77
818.042	373.23
818.432	409.95
818.823	361.08
819.213	400.06
819.604	359.1
819.994	375.49
820.384	368.43
820.775	377.75
821.165	396.67
821.555	370.12
821.945	367.02
822.335	394.42
822.725	397.52
823.114	366.45
823.504	396.11
823.894	389.9
824.284	368.15
824.673	385.94
825.063	358.54
825.452	389.61
825.842	374.93
826.231	360.8
826.62	401.48
827.009	383.68
827.399	383.4
827.788	383.68
828.177	392.44
828.566	393.29
828.954	400.91
829.343	384.53
829.732	413.62
830.121	410.51
830.509	374.93
830.898	380.58
831.286	401.19
831.675	398.09
832.063	361.93
832.452	403.45
832.84	395.83
833.228	381.71
833.616	380.86
834.004	394.13
834.392	393.85
834.78	401.48
835.168	395.83
835.556	381.42
835.944	369.28
836.331	394.98
836.719	392.16
837.107	366.17
837.494	379.16
837.881	351.19
838.269	376.62
838.656	382.27
839.043	356.84
839.431	365.04
839.818	375.21
840.205	390.74
840.592	370.41
840.979	352.32
841.366	359.67
841.752	379.45
842.139	383.4
842.526	375.49
842.912	392.16
843.299	378.03
843.685	382.84
844.072	377.19
844.458	385.09
844.844	394.98
845.231	386.79
845.617	397.24
846.003	393.57
846.389	375.77
846.775	376.34
847.161	382.55
847.547	368.71
847.933	376.9
848.318	386.51
848.704	395.26
849.09	361.65
849.475	350.35
849.861	387.92
850.246	363.63
850.631	400.91
851.017	394.13
851.402	401.19
851.787	402.89
852.172	382.27
852.557	361.65
852.942	374.64
853.327	367.86
853.712	383.4
854.097	387.07
854.481	386.51
854.866	383.12
855.25	390.74
855.635	389.33
856.019	371.82
856.404	348.37
856.788	390.18
857.172	370.41
857.557	373.8
857.941	369.28
858.325	374.93
858.709	380.29
859.093	375.21
859.477	400.91
859.86	382.55
860.244	370.12
860.628	397.52
861.012	412.77
861.395	383.4
861.779	403.45
862.162	366.17
862.545	371.54
862.929	374.93
863.312	406.28
863.695	381.42
864.078	374.93
864.461	382.84
864.844	363.63
865.227	372.95
865.61	384.25
865.993	350.63
866.376	372.1
866.758	369.28
867.141	387.64
867.523	382.55
867.906	387.92
868.288	394.13
868.671	407.69
869.053	363.06
869.435	379.16
869.817	385.94
870.199	394.98
870.581	378.6
870.963	390.18
871.345	387.64
871.727	360.8
872.109	374.08
872.491	387.35
872.872	380.29
873.254	379.73
873.635	366.73
874.017	401.76
874.398	352.89
874.779	394.42
875.161	378.6
875.542	372.38
875.923	368.99
876.304	396.96
876.685	381.42
877.066	380.86
877.447	359.67
877.828	396.11
878.208	404.02
878.589	365.04
878.97	400.91
879.35	385.94
879.731	391.87
880.111	419.26
880.491	367.3
880.872	367.3
881.252	402.89
881.632	387.35
882.012	354.87
882.392	378.88
882.772	389.9
883.152	359.67
883.532	383.96
883.912	371.25
884.291	369.28
884.671	369.56
885.051	383.96
885.43	373.8
885.81	382.27
886.189	401.48
886.568	363.63
886.948	365.04
887.327	387.64
887.706	373.23
888.085	354.87
888.464	376.9
888.843	372.67
889.222	384.25
889.601	369.84
889.979	401.19
890.358	391.31
890.737	378.6
891.115	367.86
891.494	366.73
891.872	399.78
892.25	394.13
892.629	403.73
893.007	381.42
893.385	396.11
893.763	376.62
894.141	382.55
894.519	354.58
894.897	390.74
895.275	380.29
895.653	370.69
896.03	386.22
896.408	359.67
896.786	374.93
897.163	386.22
897.541	355.15
897.918	400.63
898.295	383.12
898.673	379.73
899.05	378.03
899.427	367.02
899.804	349.78
900.181	378.03
900.558	391.03
900.935	404.58
901.312	359.95
901.688	368.99
902.065	372.67
902.442	379.45
902.818	404.02
903.195	368.71
903.571	393.57
903.947	378.6
904.324	381.71
904.7	371.82
905.076	379.73
905.452	367.58
905.828	398.65
906.204	384.25
906.58	340.17
906.956	369.56
907.331	403.17
907.707	378.03
908.083	373.23
908.458	351.76
908.834	356
909.209	377.19
909.585	363.06
909.96	370.97
910.335	353.74
910.71	374.08
911.086	382.27
911.461	368.71
911.836	371.54
912.21	367.02
912.585	366.45
912.96	376.9
913.335	366.45
913.709	362.5
914.084	372.38
914.459	361.93
914.833	386.51
915.207	395.54
915.582	384.81
915.956	373.8
916.33	388.77
916.704	362.5
917.078	376.06
917.452	376.62
917.826	378.88
918.2	363.91
918.574	364.47
918.948	375.21
919.321	351.76
919.695	370.12
920.068	381.99
920.442	383.96
920.815	376.06
921.189	367.86
921.562	375.49
921.935	365.89
922.308	389.05
922.681	378.88
923.054	373.51
923.427	392.44
923.8	358.26
924.173	380.29
924.546	376.62
924.919	379.16
925.291	357.97
925.664	372.95
926.036	338.19
926.409	378.6
926.781	387.64
927.153	395.54
927.526	369.56
927.898	393.57
928.27	420.11
928.642	374.93
929.014	381.42
929.386	359.67
929.758	364.19
930.129	373.8
930.501	392.72
930.873	404.3
931.244	367.86
931.616	373.8
931.987	348.08
932.359	381.71
932.73	356.84
933.101	383.4
933.472	385.38
933.843	358.82
934.214	352.61
934.585	376.34
934.956	357.41
935.327	389.9
935.698	361.93
936.069	370.69
936.439	377.47
936.81	391.03
937.18	357.13
937.551	361.37
937.921	378.32
938.292	349.21
938.662	356
939.032	369.84
939.402	389.33
939.772	364.47
940.142	368.99
940.512	399.5
940.882	386.22
941.252	375.77
941.621	390.46
941.991	359.39
942.361	373.51
942.73	373.8
943.1	383.12
943.469	365.89
943.838	398.37
944.208	359.39
944.577	395.83
944.946	380.29
945.315	369.84
945.684	359.95
946.053	348.65
946.422	352.89
946.791	377.47
947.159	379.45
947.528	358.54
947.897	363.06
948.265	367.3
948.634	378.32
949.002	380.29
949.371	372.1
949.739	380.58
950.107	369.56
950.475	381.14
950.843	388.2
951.211	379.45
951.579	388.2
951.947	381.42
952.315	346.67
952.683	401.48
953.05	372.1
953.418	381.99
953.785	390.46
954.153	354.02
954.52	344.98
954.888	368.15
955.255	374.08
955.622	387.92
955.989	344.69
956.356	401.19
956.723	386.22
957.09	385.94
957.457	378.6
957.824	384.53
958.191	370.41
958.557	378.88
958.924	361.65
959.291	364.47
959.657	373.51
960.023	376.06
960.39	374.36
960.756	374.64
961.122	343.56
961.488	379.16
961.855	365.6
962.221	357.97
962.586	352.04
962.952	391.03
963.318	392.72
963.684	364.76
964.05	366.17
964.415	394.7
964.781	390.18
965.146	376.06
965.512	373.8
965.877	378.88
966.242	385.94
966.608	389.33
966.973	401.76
967.338	374.08
967.703	383.12
968.068	361.65
968.433	376.9
968.797	389.05
969.162	358.26
969.527	350.91
969.891	373.23
970.256	371.82
970.62	368.71
970.985	364.76
971.349	371.82
971.714	371.25
972.078	377.75
972.442	393.85
972.806	389.05
973.17	385.94
973.534	381.71
973.898	390.74
974.262	386.51
974.625	379.16
974.989	361.08
975.353	373.8
975.716	383.4
976.08	359.1
976.443	346.11
976.806	388.2
977.17	380.58
977.533	388.48
977.896	381.71
978.259	351.76
978.622	367.3
978.985	382.84
979.348	394.7
979.711	371.25
980.073	391.87
980.436	372.67
980.799	365.6
981.161	347.52
981.524	377.47
981.886	366.45
982.248	386.79
982.611	369.56
982.973	356
983.335	392.72
983.697	380.86
984.059	401.19
984.421	365.89
984.783	381.99
985.145	371.54
985.506	377.75
985.868	370.69
986.23	361.37
986.591	379.73
986.953	380.58
987.314	347.8
987.675	377.19
988.037	473.17
988.398	386.79
988.759	393.57
989.12	375.77
989.481	372.38
989.842	369.56
990.203	368.99
990.564	376.06
990.924	380.29
991.285	535.49
991.646	362.5
992.006	355.15
992.367	380.86
992.727	374.36
993.087	375.77
993.448	377.75
993.808	354.02
994.168	357.97
994.528	374.64
994.888	374.64
995.248	373.8
995.608	381.42
995.967	382.84
996.327	380.58
996.687	370.41
997.046	358.26
997.406	359.39
997.765	367.86
998.125	365.32
998.484	375.77
998.843	358.54
999.202	370.97
999.561	351.76
999.92	343.56
1000.279	376.62
1000.638	378.32
1000.997	376.34
1001.356	359.39
1001.715	398.09
1002.073	371.25
1002.432	348.65
1002.79	365.04
1003.149	350.63
1003.507	373.23
1003.865	387.07
1004.224	343.28
1004.582	357.13
1004.94	372.38
1005.298	335.65
1005.656	379.73
1006.014	375.21
1006.371	354.58
1006.729	377.47
1007.087	387.35
1007.445	374.64
1007.802	362.78
1008.16	367.58
1008.517	376.06
1008.874	380.01
1009.232	386.51
1009.589	367.58
1009.946	374.36
1010.303	368.71
1010.66	366.17
1011.017	389.9
1011.374	362.21
1011.731	370.41
1012.087	343.85
1012.444	376.9
1012.801	368.15
1013.157	371.82
1013.513	386.79
1013.87	370.97
1014.226	383.12
1014.582	396.39
1014.939	359.95
1015.295	380.86
1015.651	369.84
1016.007	385.66
1016.363	376.9
1016.719	344.69
1017.074	392.72
1017.43	364.19
1017.786	351.76
1018.141	359.39
1018.497	349.78
1018.852	383.12
1019.208	357.13
1019.563	376.9
1019.918	345.82
1020.273	363.06
1020.628	344.98
1020.983	354.3
1021.338	354.87
1021.693	373.23
1022.048	359.67
1022.403	373.23
1022.757	383.68
1023.112	348.93
1023.467	380.58
1023.821	349.78
1024.175	343.85
1024.53	352.61
1024.884	359.95
1025.238	366.73
1025.592	379.16
1025.946	369.84
1026.3	341.87
1026.654	383.12
1027.008	355.71
1027.362	384.53
1027.716	348.37
1028.069	363.91
1028.423	386.51
1028.777	383.96
1029.13	374.64
1029.483	370.41
1029.837	380.29
1030.19	394.98
1030.543	348.08
1030.896	378.32
1031.249	349.5
1031.602	364.19
1031.955	365.32
1032.308	371.25
1032.661	363.63
1033.013	381.42
1033.366	380.01
1033.719	368.43
1034.071	361.93
1034.424	398.09
1034.776	351.19
1035.128	363.91
1035.48	370.69
1035.833	366.73
1036.185	381.42
1036.537	381.42
1036.889	381.42
