Data from SCSF78-405_irradiation_FLMS019251_17-09-27-949.txt Node
Date: Fri Feb 22 17:09:27 PST 2019
User: mu3e
Spectrometer: FLMS01925
Trigger mode: 0
Integration Time (sec): 1.206000E-2
Scans to average: 10
Electric dark correction enabled: true
Nonlinearity correction enabled: true
Boxcar width: 0
XAxis mode: Wavelengths
Number of Pixels in Spectrum: 2048
>>>>>Begin Spectral Data<<<<<
187.103	-92.47
187.574	-92.47
188.045	-92.47
188.516	-121.19
188.987	-125.46
189.458	-141.96
189.929	-120.34
190.4	-128.87
190.871	-87.36
191.342	-72.58
191.813	-48.42
192.284	-39.62
192.754	-21.16
193.225	2.41
193.696	27.39
194.166	49.53
194.637	84.42
195.107	94.34
195.578	109.65
196.048	119.01
196.518	172.56
196.989	190.69
197.459	207.68
197.929	228.91
198.399	256.36
198.869	289.74
199.339	305.29
199.809	318.02
200.279	324.8
200.749	319.43
201.219	368.6
201.689	340.35
202.159	377.36
202.628	363.52
203.098	364.93
203.568	412.38
204.037	371.43
204.507	383.58
204.976	381.88
205.445	418.31
205.915	370.3
206.384	379.34
206.853	370.86
207.323	368.04
207.792	395.44
208.261	368.32
208.73	397.98
209.199	400.8
209.668	404.76
210.137	391.2
210.606	379.34
211.075	383.29
211.543	364.37
212.012	384.14
212.481	336.11
212.95	387.81
213.418	368.32
213.887	368.04
214.355	367.47
214.824	338.65
215.292	361.82
215.76	329.04
216.229	355.33
216.697	328.19
217.165	336.39
217.633	377.08
218.101	348.54
218.569	358.15
219.037	338.09
219.505	359.28
219.973	354.2
220.441	356.17
220.909	343.74
221.377	352.78
221.844	338.93
222.312	366.06
222.78	345.72
223.247	345.15
223.715	346.57
224.182	377.93
224.65	336.96
225.117	359.85
225.584	390.64
226.052	366.91
226.519	359.28
226.986	354.76
227.453	342.04
227.92	362.67
228.387	379.34
228.854	364.93
229.321	349.96
229.788	347.7
230.255	339.22
230.722	378.77
231.189	370.02
231.655	377.36
232.122	363.24
232.589	377.36
233.055	349.11
233.522	364.65
233.988	383.01
234.454	363.52
234.921	363.8
235.387	358.72
235.853	383.01
236.32	369.73
236.786	396.29
237.252	355.89
237.718	374.82
238.184	363.52
238.65	358.15
239.116	351.37
239.582	376.8
240.047	365.78
240.513	367.19
240.979	370.86
241.445	366.06
241.91	391.48
242.376	364.37
242.841	372.56
243.307	384.42
243.772	387.53
244.238	382.73
244.703	361.54
245.168	395.44
245.633	348.26
246.099	360.98
246.564	366.63
247.029	359.28
247.494	349.39
247.959	351.65
248.424	367.47
248.889	383.86
249.353	403.91
249.818	369.45
250.283	375.67
250.748	384.42
251.212	387.53
251.677	366.63
252.141	370.3
252.606	391.48
253.07	370.02
253.535	368.32
253.999	365.78
254.463	374.82
254.927	380.75
255.392	381.6
255.856	390.07
256.32	374.82
256.784	362.39
257.248	383.58
257.712	379.62
258.176	358.72
258.64	372.28
259.103	378.77
259.567	390.92
260.031	394.31
260.495	384.71
260.958	359.85
261.422	405.32
261.885	382.73
262.349	361.26
262.812	394.03
263.275	379.34
263.739	380.75
264.202	400.52
264.665	368.32
265.128	375.38
265.591	356.74
266.054	359
266.517	388.1
266.98	384.42
267.443	398.83
267.906	394.31
268.369	351.37
268.832	387.81
269.294	377.36
269.757	369.17
270.22	389.51
270.682	394.31
271.145	379.9
271.607	376.23
272.07	392.05
272.532	397.7
272.994	403.63
273.456	405.32
273.919	363.8
274.381	377.36
274.843	390.36
275.305	385.27
275.767	376.8
276.229	388.66
276.691	380.19
277.153	414.92
277.614	381.88
278.076	380.47
278.538	395.44
279	388.66
279.461	364.65
279.923	364.93
280.384	378.21
280.846	375.38
281.307	410.97
281.769	381.32
282.23	399.67
282.691	406.17
283.152	386.97
283.613	388.1
284.075	390.07
284.536	348.54
284.997	398.26
285.458	396.85
285.918	399.11
286.379	389.51
286.84	387.81
287.301	384.14
287.762	390.64
288.222	423.11
288.683	401.09
289.143	410.97
289.604	410.41
290.064	381.6
290.525	402.22
290.985	385.55
291.445	385.27
291.906	407.3
292.366	418.88
292.826	371.71
293.286	382.73
293.746	421.98
294.206	418.03
294.666	400.24
295.126	366.91
295.586	387.81
296.046	397.13
296.506	375.1
296.965	391.2
297.425	403.91
297.884	381.6
298.344	414.08
298.804	396.29
299.263	393.46
299.722	393.18
300.182	362.11
300.641	398.83
301.1	400.24
301.559	411.25
302.019	396.29
302.478	362.39
302.937	410.41
303.396	389.79
303.855	402.78
304.314	409.28
304.772	405.89
305.231	393.74
305.69	388.1
306.149	385.27
306.607	416.33
307.066	417.75
307.524	410.97
307.983	387.53
308.441	420.29
308.9	381.88
309.358	391.2
309.816	401.93
310.275	380.75
310.733	397.13
311.191	419.72
311.649	399.67
312.107	418.03
312.565	368.6
313.023	389.23
313.481	420.29
313.939	415.77
314.397	403.63
314.854	396.57
315.312	383.86
315.77	393.18
316.227	415.77
316.685	404.19
317.142	378.49
317.6	407.86
318.057	375.38
318.514	390.92
318.972	398.83
319.429	408.99
319.886	416.33
320.343	398.55
320.8	419.16
321.257	415.77
321.714	397.13
322.171	411.53
322.628	401.09
323.085	410.69
323.542	401.93
323.998	420.29
324.455	386.97
324.912	396.85
325.368	404.48
325.825	408.43
326.281	396.85
326.738	397.98
327.194	401.37
327.65	399.11
328.107	395.16
328.563	405.32
329.019	426.78
329.475	407.86
329.931	428.47
330.387	397.7
330.843	384.99
331.299	392.33
331.755	383.58
332.211	407.86
332.666	392.33
333.122	400.8
333.578	399.11
334.033	382.73
334.489	415.49
334.944	399.11
335.4	401.93
335.855	407.58
336.31	396.29
336.766	392.61
337.221	412.38
337.676	404.76
338.131	416.62
338.586	426.78
339.041	408.15
339.496	384.14
339.951	406.45
340.406	410.69
340.861	422.55
341.316	418.31
341.771	408.15
342.225	418.59
342.68	394.59
343.134	414.08
343.589	411.25
344.043	427.91
344.498	370.86
344.952	397.42
345.406	414.36
345.861	412.1
346.315	421.13
346.769	431.58
347.223	394.87
347.677	409.84
348.131	406.73
348.585	416.33
349.039	403.63
349.493	415.21
349.947	418.31
350.401	417.46
350.854	433.55
351.308	420
351.762	394.87
352.215	424.52
352.669	422.83
353.122	399.39
353.575	400.24
354.029	426.22
354.482	416.33
354.935	429.89
355.388	432.99
355.842	368.6
356.295	399.67
356.748	411.82
357.201	375.1
357.654	427.34
358.106	414.92
358.559	392.33
359.012	402.5
359.465	414.92
359.917	393.18
360.37	414.08
360.823	378.49
361.275	403.06
361.728	405.89
362.18	409.28
362.632	430.73
363.085	417.18
363.537	418.88
363.989	402.5
364.441	399.67
364.893	424.24
365.345	413.79
365.797	416.9
366.249	428.19
366.701	444
367.153	429.89
367.605	405.89
368.057	421.42
368.508	420.85
368.96	429.04
369.411	407.58
369.863	423.67
370.314	412.95
370.766	392.61
371.217	416.33
371.669	418.59
372.12	442.87
372.571	432.99
373.022	409.84
373.473	427.34
373.924	429.04
374.375	394.59
374.826	424.8
375.277	418.88
375.728	420.85
376.179	435.25
376.63	437.22
377.08	416.05
377.531	428.76
377.981	422.26
378.432	432.99
378.883	416.05
379.333	416.9
379.783	424.52
380.234	433.27
380.684	438.35
381.134	383.86
381.584	428.47
382.034	427.34
382.485	404.48
382.935	413.51
383.385	420.29
383.834	409.28
384.284	445.41
384.734	427.06
385.184	432.43
385.634	434.4
386.083	425.37
386.533	431.01
386.982	414.08
387.432	438.35
387.881	434.4
388.331	440.89
388.78	420.85
389.229	431.01
389.679	416.05
390.128	448.51
390.577	437.51
391.026	452.75
391.475	412.38
391.924	410.12
392.373	412.95
392.822	440.05
393.27	423.67
393.719	413.51
394.168	416.9
394.617	420.57
395.065	415.49
395.514	446.26
395.962	424.52
396.411	429.89
396.859	422.83
397.307	438.64
397.756	448.8
398.204	407.3
398.652	439.76
399.1	442.59
399.548	427.91
399.996	444.84
400.444	462.06
400.892	456.13
401.34	438.64
401.788	440.61
402.236	434.4
402.683	458.39
403.131	473.06
403.579	444.28
404.026	469.11
404.474	467.14
404.921	450.77
405.369	452.75
405.816	460.08
406.263	475.6
406.71	451.9
407.158	460.65
407.605	451.9
408.052	482.94
408.499	480.96
408.946	475.88
409.393	481.24
409.84	482.65
410.286	480.68
410.733	504.65
411.18	551.45
411.626	599.34
412.073	637.36
412.52	677.04
412.966	781.35
413.413	911.04
413.859	1068.79
414.305	1277.59
414.752	1571.81
415.198	1855.78
415.644	2340.04
416.09	2836.22
416.536	3278.31
416.982	3941.74
417.428	4660.76
417.874	5413.39
418.32	6269.01
418.766	7236.52
419.211	8196.72
419.657	9196.24
420.103	10419.5
420.548	11226.97
420.994	12544.54
421.439	13686.57
421.885	14738.46
422.33	16113.14
422.776	17121.94
423.221	18229.88
423.666	19464.38
424.111	20716.98
424.556	21723.31
425.001	23058.21
425.446	24492.09
425.891	25697.71
426.336	26598.97
426.781	27887.44
427.226	29835.97
427.671	30556.04
428.115	31492.31
428.56	33149.98
429.005	34740.08
429.449	35157.97
429.894	36560.07
430.338	37609.06
430.782	37662.24
431.227	39370.59
431.671	39722.58
432.115	41216.72
432.559	42258.62
433.003	42106.45
433.447	43003.16
433.891	43429.19
434.335	43909.04
434.779	44693.78
435.223	44855.54
435.667	44745.26
436.111	45264.83
436.554	45222.02
436.998	44814.08
437.442	45033.53
437.885	47049.49
438.328	45387.28
438.772	45858.76
439.215	46215.82
439.659	45989.24
440.102	46245.97
440.545	45590.29
440.988	45495.94
441.431	46325.06
441.874	45912.1
442.317	46243.69
442.76	45637.49
443.203	44990.27
443.646	45637.99
444.089	45232.6
444.531	45877.72
444.974	44716.13
445.417	45842.08
445.859	44743.25
446.302	45926.01
446.744	45327.05
447.186	46282.47
447.629	45320.5
448.071	45368.38
448.513	45522.43
448.956	46815.73
449.398	45999.61
449.84	44804.28
450.282	45560.52
450.724	46202.39
451.166	45666.52
451.607	45604.43
452.049	45733.69
452.491	46817.51
452.933	46512.54
453.374	46933.32
453.816	47383.03
454.257	47002.35
454.699	47986.08
455.14	47723.88
455.582	47578.16
456.023	47455.12
456.464	47607.85
456.905	48148.01
457.347	48160.61
457.788	47257.37
458.229	47423.93
458.67	48327.44
459.111	46462.28
459.552	46610.31
459.992	46545.8
460.433	46308.83
460.874	45139.2
461.315	46454.67
461.755	45499.73
462.196	45047.62
462.636	44120.21
463.077	43971.31
463.517	44035.61
463.957	44256.93
464.398	43835.78
464.838	44203.83
465.278	43071.16
465.718	43164.11
466.158	42174.46
466.598	42457.59
467.038	42082.63
467.478	42464.06
467.918	42703.48
468.358	41997.53
468.798	41637.57
469.237	41457.02
469.677	41558.8
470.117	42202.26
470.556	39914.96
470.996	40427.83
471.435	40450.29
471.874	41156.36
472.314	40922.47
472.753	40008.35
473.192	40266.24
473.631	39870.86
474.07	39934.42
474.509	40091.67
474.948	40315.33
475.387	39737.6
475.826	38758.22
476.265	40504.09
476.704	39783.9
477.143	40393.04
477.581	39881.94
478.02	40523.59
478.458	39303.44
478.897	39909.05
479.335	41068.82
479.774	40509.27
480.212	40771.26
480.65	40656.91
481.089	40377
481.527	39906.58
481.965	39332.95
482.403	41513.23
482.841	41173.18
483.279	41135.59
483.717	41130.15
484.155	40740.14
484.592	41057.69
485.03	41193.22
485.468	40352.83
485.905	40292.14
486.343	40997.12
486.781	40316.32
487.218	39601.19
487.655	39572.88
488.093	38699.26
488.53	40204.59
488.967	39328.03
489.405	39320.41
489.842	38331
490.279	38440.95
490.716	38131.03
491.153	38513.13
491.59	37951.99
492.027	37252.41
492.463	36797.12
492.9	36151.97
493.337	36087.69
493.773	36268.09
494.21	35189.47
494.647	35020.53
495.083	34250.86
495.519	33993.02
495.956	34052.78
496.392	33318.47
496.828	33146.81
497.265	32313.48
497.701	32509.01
498.137	32167.93
498.573	31347.23
499.009	31956.31
499.445	31135.56
499.881	30688.98
500.316	30732.4
500.752	29970.69
501.188	29640.45
501.624	29764.94
502.059	28556.67
502.495	28386.79
502.93	28305.14
503.366	28506.08
503.801	27950.31
504.236	27604.6
504.672	27285.4
505.107	27018.95
505.542	26311.87
505.977	26285.14
506.412	25922.3
506.847	26140.43
507.282	25623.81
507.717	25284.6
508.152	25188.77
508.587	24940.02
509.021	24308.48
509.456	23927.98
509.891	24073.81
510.325	24122.58
510.76	23594.27
511.194	23447.31
511.628	23466.79
512.063	22755.49
512.497	22784.14
512.931	22500.27
513.366	22272.84
513.8	22355.66
514.234	21636.65
514.668	21598.76
515.102	21787.93
515.536	20814.74
515.969	21127.98
516.403	20714.25
516.837	20334.39
517.271	20324.45
517.704	19950.46
518.138	19883.58
518.571	19753.76
519.005	19386.71
519.438	19248.27
519.871	19103.55
520.305	18657.6
520.738	18663.59
521.171	18137.24
521.604	18197.17
522.037	18007.85
522.47	17734.45
522.903	17387.29
523.336	17313.96
523.769	17175.53
524.202	16719.81
524.634	16690.48
525.067	16464.02
525.5	16318.49
525.932	16224.11
526.365	15850.62
526.797	15681.95
527.23	15822.97
527.662	15209.92
528.094	15034.12
528.527	14928.28
528.959	14751.57
529.391	14466.75
529.823	14004.51
530.255	14165.24
530.687	13712.63
531.119	13550.38
531.551	13499.23
531.982	13182.23
532.414	13032.6
532.846	12683.54
533.277	12695.48
533.709	12231.45
534.14	12214.14
534.572	12054.75
535.003	11931.69
535.435	11634.61
535.866	11506.48
536.297	11183.75
536.728	11241.28
537.159	11154.34
537.59	10942.73
538.022	10775.99
538.452	10618.09
538.883	10362.25
539.314	10313.97
539.745	10062.86
540.176	9909.76
540.606	9677.15
541.037	9724.57
541.468	9522.16
541.898	9520.87
542.328	9378.65
542.759	9197.79
543.189	9006.12
543.619	8937
544.05	8760.57
544.48	8646.46
544.91	8499.82
545.34	8342.37
545.77	8269.56
546.2	8190.47
546.63	8041.02
547.06	7987.34
547.489	7879.93
547.919	7611.02
548.349	7664.85
548.778	7671.9
549.208	7424.82
549.637	7342.1
550.067	7219.75
550.496	7253.03
550.926	7137.15
551.355	6908.22
551.784	6972.06
552.213	6816.74
552.642	6676.75
553.071	6670.96
553.5	6519.47
553.929	6376.23
554.358	6406.84
554.787	6328.97
555.216	6288.83
555.645	6071.22
556.073	6042.63
556.502	6032.04
556.93	5875.72
557.359	5825.86
557.787	5778.64
558.216	5665.79
558.644	5620.89
559.072	5586.87
559.5	5507.61
559.929	5461.31
560.357	5425.64
560.785	5341.2
561.213	5356.12
561.641	5231.09
562.068	5265.76
562.496	5180.13
562.924	5176.39
563.352	5092.82
563.779	5070.91
564.207	5147.83
564.634	4966.39
565.062	4978.96
565.489	4874.35
565.917	4822.94
566.344	4856.95
566.771	4789.99
567.198	4719.23
567.625	4683.56
568.053	4611.38
568.48	4587.22
568.907	4592.86
569.333	4500.19
569.76	4356.05
570.187	4370.31
570.614	4218.96
571.04	4406.09
571.467	4195.23
571.894	4084.36
572.32	3971.2
572.747	3955.25
573.173	3885.76
573.599	3851.13
574.026	3728.19
574.452	3707.86
574.878	3662.59
575.304	3620.55
575.73	3534.23
576.156	3468.21
576.582	3393.72
577.008	3382.84
577.434	3241.54
577.86	3249.17
578.285	3252.43
578.711	3151.03
579.137	3093.73
579.562	3023.28
579.988	3042.13
580.413	2959.33
580.838	2920.5
581.264	2843.07
581.689	2862.23
582.114	2797.61
582.539	2773.51
582.964	2717.32
583.39	2724.72
583.814	2620.49
584.239	2588.37
584.664	2602.37
585.089	2592.21
585.514	2470.76
585.939	2482.03
586.363	2424.82
586.788	2402.81
587.212	2368.68
587.637	2315.25
588.061	2314.97
588.485	2236.14
588.91	2271.98
589.334	2217.11
589.758	2216.83
590.182	2192
590.606	2164.41
591.03	2101.17
591.454	2042.59
591.878	2072.16
592.302	2086.25
592.726	1998.07
593.15	2020.75
593.573	1918.37
593.997	1918.37
594.42	1890.41
594.844	1871.29
595.267	1842.48
595.691	1837.76
596.114	1780.65
596.537	1773.16
596.96	1793.69
597.384	1749.03
597.807	1718.5
598.23	1745.14
598.653	1675.19
599.076	1726.55
599.499	1700.46
599.921	1658.52
600.344	1685.19
600.767	1658.52
601.189	1610.45
601.612	1616.57
602.034	1612.4
602.457	1577.65
602.879	1563.47
603.302	1581.54
603.724	1572.92
604.146	1550.39
604.568	1527.02
604.991	1535.93
605.413	1579.59
605.835	1543.16
606.257	1487.78
606.678	1515.34
607.1	1483.33
607.522	1497.25
607.944	1459.66
608.365	1462.17
608.787	1497.25
609.209	1395.02
609.63	1437.1
610.051	1376.9
610.473	1393.07
610.894	1389.73
611.315	1338.7
611.737	1345.95
612.158	1308.85
612.579	1285.97
613	1309.97
613.421	1290.43
613.842	1251.07
614.263	1244.65
614.683	1236.83
615.104	1285.13
615.525	1222.86
615.945	1188.78
616.366	1187.66
616.787	1168.93
617.207	1180.67
617.627	1135.38
618.048	1132.02
618.468	1111.88
618.888	1111.88
619.308	1107.97
619.728	1123.35
620.148	1088.38
620.568	1079.15
620.988	1054.51
621.408	1026.23
621.828	1039.4
622.248	1055.07
622.668	1025.67
623.087	996.82
623.507	981.97
623.926	992.62
624.346	965.16
624.765	950.02
625.185	956.75
625.604	963.19
626.023	961.51
626.442	953.66
626.861	917.77
627.28	899.54
627.699	927.03
628.118	901.79
628.537	884.95
628.956	905.43
629.375	882.15
629.794	873.45
630.212	873.73
630.631	833.87
631.049	843.42
631.468	873.17
631.886	830.5
632.305	824.89
632.723	810.56
633.141	814.78
633.559	828.54
633.978	806.91
634.396	785
634.814	768.98
635.232	792.02
635.65	787.53
636.067	756.34
636.485	761.12
636.903	790.34
637.321	731.88
637.738	727.1
638.156	722.32
638.573	750.15
638.991	738.07
639.408	730.76
639.825	734.41
640.243	723.45
640.66	722.04
641.077	700.67
641.494	681.54
641.911	704.89
642.328	695.04
642.745	660.44
643.162	697.57
643.579	685.48
643.995	698.42
644.412	661
644.829	642.99
645.245	681.26
645.662	644.96
646.078	659.03
646.495	671.69
646.911	648.05
647.327	643.83
647.743	637.92
648.159	613.71
648.576	637.08
648.992	648.33
649.408	623
649.824	613.71
650.239	636.51
650.655	641.3
651.071	621.59
651.487	597.09
651.902	622.15
652.318	605.54
652.733	597.09
653.149	592.87
653.564	630.32
653.979	575.4
654.395	602.44
654.81	595.68
655.225	601.32
655.64	603.29
656.055	589.49
656.47	570.05
656.885	604.41
657.3	583.57
657.715	609.48
658.13	563.57
658.544	578.78
658.959	587.8
659.374	574.56
659.788	574.27
660.202	545.81
660.617	558.21
661.031	552.01
661.445	575.96
661.86	532.28
662.274	546.94
662.688	547.5
663.102	569.77
663.516	571.74
663.93	549.48
664.344	548.63
664.758	538.2
665.171	536.23
665.585	524.67
665.999	513.68
666.412	524.11
666.826	532.85
667.239	522.98
667.653	522.42
668.066	548.91
668.479	519.6
668.892	522.7
669.306	519.6
669.719	509.16
670.132	527.49
670.545	521.85
670.958	528.34
671.37	501.83
671.783	519.6
672.196	542.71
672.609	509.16
673.021	493.65
673.434	512.83
673.846	502.68
674.259	510.57
674.671	506.06
675.084	461.49
675.496	506.06
675.908	476.73
676.32	496.47
676.732	462.9
677.144	504.93
677.556	486.6
677.968	481.81
678.38	482.09
678.792	501.55
679.204	476.17
679.615	488.29
680.027	470.24
680.439	482.94
680.85	484.35
681.262	497.04
681.673	466.86
682.084	489.99
682.496	469.68
682.907	468.27
683.318	452.75
683.729	474.75
684.14	470.24
684.551	482.09
684.962	462.9
685.373	485.47
685.784	457.54
686.194	497.32
686.605	484.06
687.016	449.08
687.426	449.08
687.837	446.82
688.247	469.11
688.657	477.58
689.068	449.08
689.478	445.97
689.888	468.55
690.298	469.96
690.708	475.04
691.118	442.02
691.528	449.08
691.938	447.95
692.348	441.46
692.758	442.02
693.168	459.24
693.577	447.1
693.987	453.31
694.396	449.92
694.806	432.14
695.215	456.13
695.625	441.74
696.034	435.81
696.443	441.74
696.852	474.19
697.262	451.34
697.671	428.76
698.08	434.68
698.489	423.96
698.897	438.07
699.306	438.64
699.715	470.52
700.124	444.84
700.532	455
700.941	445.97
701.35	419.44
701.758	432.14
702.166	425.09
702.575	429.04
702.983	404.19
703.391	429.32
703.799	419.72
704.208	432.43
704.616	438.35
705.024	412.38
705.432	446.82
705.839	433.84
706.247	448.51
706.655	445.41
707.063	423.96
707.47	411.82
707.878	442.3
708.285	425.65
708.693	438.35
709.1	419.44
709.508	428.47
709.915	379.62
710.322	430.73
710.729	434.97
711.136	421.13
711.543	429.04
711.95	436.66
712.357	438.92
712.764	429.89
713.171	391.2
713.578	432.99
713.984	407.58
714.391	384.14
714.797	396.85
715.204	401.93
715.61	423.67
716.017	431.01
716.423	431.86
716.829	404.48
717.236	448.8
717.642	425.65
718.048	393.74
718.454	377.64
718.86	427.91
719.266	412.66
719.671	410.69
720.077	405.61
720.483	437.51
720.889	412.1
721.294	438.92
721.7	428.19
722.105	429.32
722.511	422.55
722.916	423.11
723.321	406.17
723.726	430.73
724.132	412.1
724.537	404.19
724.942	390.92
725.347	438.64
725.752	412.1
726.156	412.95
726.561	418.88
726.966	427.34
727.371	410.97
727.775	412.66
728.18	400.52
728.584	413.51
728.989	403.91
729.393	421.7
729.798	416.9
730.202	405.32
730.606	408.99
731.01	394.31
731.414	422.83
731.818	387.81
732.222	395.72
732.626	393.18
733.03	398.26
733.434	425.37
733.837	426.5
734.241	398.55
734.645	438.07
735.048	405.32
735.452	409.84
735.855	392.33
736.258	438.35
736.662	412.66
737.065	430.45
737.468	402.22
737.871	441.74
738.274	415.77
738.677	401.93
739.08	416.9
739.483	403.91
739.886	421.13
740.289	407.58
740.691	403.35
741.094	394.31
741.497	418.59
741.899	404.48
742.302	407.3
742.704	405.32
743.106	397.13
743.508	407.3
743.911	405.04
744.313	411.53
744.715	410.41
745.117	382.45
745.519	400.24
745.921	416.33
746.323	413.79
746.724	403.91
747.126	379.34
747.528	402.22
747.929	417.18
748.331	386.68
748.732	412.66
749.134	401.09
749.535	396.29
749.936	428.19
750.338	385.84
750.739	401.37
751.14	396.29
751.541	408.99
751.942	395.72
752.343	402.5
752.744	403.35
753.144	415.77
753.545	408.99
753.946	387.81
754.346	388.38
754.747	406.73
755.148	425.37
755.548	405.61
755.948	393.74
756.349	394.31
756.749	395.44
757.149	407.02
757.549	392.61
757.949	377.93
758.349	381.6
758.749	388.1
759.149	391.2
759.549	419.44
759.949	379.62
760.348	390.64
760.748	403.63
761.148	388.94
761.547	431.86
761.947	406.17
762.346	408.99
762.745	405.04
763.145	380.19
763.544	388.38
763.943	399.39
764.342	402.78
764.741	377.08
765.14	425.65
765.539	391.2
765.938	396
766.336	387.25
766.735	386.12
767.134	396.29
767.532	400.8
767.931	370.58
768.329	380.47
768.728	378.21
769.126	400.24
769.525	396.85
769.923	394.31
770.321	417.75
770.719	393.74
771.117	397.13
771.515	406.17
771.913	386.12
772.311	386.97
772.709	405.32
773.106	401.93
773.504	414.92
773.902	423.67
774.299	383.01
774.697	423.11
775.094	371.99
775.491	378.77
775.889	387.53
776.286	368.6
776.683	393.18
777.08	408.71
777.477	400.24
777.874	409.56
778.271	386.68
778.668	386.97
779.065	390.64
779.462	393.74
779.858	394.03
780.255	398.83
780.652	422.55
781.048	393.46
781.444	390.36
781.841	389.51
782.237	418.03
782.633	356.46
783.03	383.58
783.426	380.19
783.822	394.31
784.218	414.64
784.614	395.72
785.01	383.86
785.405	402.22
785.801	375.67
786.197	410.97
786.593	393.46
786.988	400.8
787.384	423.11
787.779	431.58
788.174	398.26
788.57	394.87
788.965	404.48
789.36	422.83
789.755	399.67
790.15	379.9
790.545	392.05
790.94	384.14
791.335	397.42
791.73	385.84
792.125	394.03
792.52	395.72
792.914	381.03
793.309	358.15
793.703	406.73
794.098	372.56
794.492	371.15
794.887	383.29
795.281	380.75
795.675	371.15
796.069	390.92
796.463	412.38
796.857	373.41
797.251	372.56
797.645	405.89
798.039	404.48
798.433	407.3
798.826	395.44
799.22	406.17
799.614	396
800.007	374.25
800.401	403.06
800.794	405.61
801.187	388.38
801.581	402.22
801.974	386.4
802.367	405.04
802.76	355.04
803.153	404.76
803.546	375.67
803.939	405.61
804.332	388.94
804.725	400.52
805.117	382.73
805.51	397.98
805.903	383.58
806.295	383.58
806.688	387.81
807.08	401.09
807.472	403.91
807.865	396.85
808.257	395.16
808.649	421.42
809.041	397.13
809.433	385.55
809.825	389.51
810.217	370.58
810.609	391.77
811.001	368.32
811.392	406.17
811.784	391.48
812.175	373.12
812.567	375.67
812.958	387.25
813.35	375.38
813.741	402.78
814.132	356.74
814.524	374.25
814.915	394.31
815.306	402.5
815.697	363.52
816.088	383.86
816.479	377.64
816.87	399.96
817.26	396.29
817.651	401.09
818.042	391.77
818.432	416.33
818.823	388.38
819.213	418.88
819.604	375.67
819.994	395.72
820.384	385.27
820.775	372.28
821.165	387.81
821.555	407.86
821.945	410.41
822.335	370.86
822.725	404.76
823.114	394.59
823.504	390.64
823.894	384.42
824.284	387.81
824.673	370.58
825.063	392.9
825.452	363.24
825.842	414.92
826.231	402.22
826.62	393.18
827.009	385.84
827.399	374.54
827.788	373.69
828.177	355.04
828.566	393.46
828.954	388.1
829.343	407.02
829.732	397.98
830.121	392.33
830.509	385.84
830.898	390.07
831.286	379.06
831.675	396.29
832.063	395.72
832.452	399.11
832.84	379.9
833.228	384.71
833.616	414.36
834.004	394.87
834.392	399.39
834.78	398.83
835.168	406.45
835.556	376.23
835.944	384.42
836.331	394.31
836.719	366.63
837.107	388.1
837.494	378.49
837.881	391.2
838.269	395.16
838.656	377.93
839.043	423.11
839.431	384.99
839.818	386.97
840.205	397.13
840.592	387.25
840.979	397.13
841.366	368.04
841.752	392.05
842.139	384.99
842.526	386.97
842.912	398.55
843.299	397.13
843.685	371.15
844.072	390.07
844.458	392.05
844.844	363.8
845.231	388.38
845.617	359.85
846.003	377.08
846.389	381.88
846.775	388.1
847.161	377.08
847.547	403.91
847.933	391.2
848.318	402.5
848.704	390.64
849.09	377.08
849.475	373.69
849.861	386.97
850.246	382.45
850.631	377.93
851.017	364.37
851.402	370.58
851.787	373.97
852.172	378.77
852.557	369.17
852.942	420
853.327	386.12
853.712	388.38
854.097	385.55
854.481	369.45
854.866	368.32
855.25	390.07
855.635	374.25
856.019	379.9
856.404	376.8
856.788	369.17
857.172	377.93
857.557	357.87
857.941	380.47
858.325	390.92
858.709	359.28
859.093	384.14
859.477	390.64
859.86	364.08
860.244	349.39
860.628	376.23
861.012	403.35
861.395	396
861.779	395.72
862.162	388.94
862.545	380.47
862.929	379.62
863.312	403.35
863.695	392.33
864.078	396
864.461	381.32
864.844	397.13
865.227	392.33
865.61	394.87
865.993	384.71
866.376	385.55
866.758	399.67
867.141	396
867.523	406.17
867.906	349.11
868.288	376.23
868.671	384.71
869.053	411.82
869.435	381.32
869.817	383.01
870.199	388.1
870.581	373.41
870.963	371.15
871.345	390.36
871.727	386.97
872.109	388.94
872.491	387.25
872.872	381.03
873.254	371.71
873.635	396
874.017	352.78
874.398	386.68
874.779	399.67
875.161	385.27
875.542	384.99
875.923	385.27
876.304	369.45
876.685	392.33
877.066	367.47
877.447	385.55
877.828	389.51
878.208	387.25
878.589	386.12
878.97	404.76
879.35	393.46
879.731	399.11
880.111	368.04
880.491	359.28
880.872	410.12
881.252	397.7
881.632	379.06
882.012	393.18
882.392	384.42
882.772	381.88
883.152	369.45
883.532	379.06
883.912	374.25
884.291	371.15
884.671	373.12
885.051	383.86
885.43	384.14
885.81	377.93
886.189	395.16
886.568	398.55
886.948	381.6
887.327	365.21
887.706	391.77
888.085	389.51
888.464	377.08
888.843	381.88
889.222	388.66
889.601	333.28
889.979	378.77
890.358	375.38
890.737	379.62
891.115	377.08
891.494	377.08
891.872	380.19
892.25	384.71
892.629	392.33
893.007	376.23
893.385	387.81
893.763	381.6
894.141	382.45
894.519	374.25
894.897	375.67
895.275	370.02
895.653	405.32
896.03	392.33
896.408	367.47
896.786	402.5
897.163	364.93
897.541	363.24
897.918	367.19
898.295	380.75
898.673	384.14
899.05	366.34
899.427	386.12
899.804	377.64
900.181	387.25
900.558	380.19
900.935	371.99
901.312	386.68
901.688	360.98
902.065	385.55
902.442	391.77
902.818	361.82
903.195	432.71
903.571	361.82
903.947	368.04
904.324	390.92
904.7	364.37
905.076	386.12
905.452	385.27
905.828	366.63
906.204	369.45
906.58	360.69
906.956	371.99
907.331	384.71
907.707	375.67
908.083	370.58
908.458	351.09
908.834	366.06
909.209	377.08
909.585	373.69
909.96	387.25
910.335	390.64
910.71	384.42
911.086	388.1
911.461	392.05
911.836	383.29
912.21	341.48
912.585	391.77
912.96	384.14
913.335	366.34
913.709	391.77
914.084	359.56
914.459	391.48
914.833	370.02
915.207	371.71
915.582	392.9
915.956	382.45
916.33	368.89
916.704	381.88
917.078	386.68
917.452	381.32
917.826	365.21
918.2	372.28
918.574	384.42
918.948	357.3
919.321	374.54
919.695	375.67
920.068	343.17
920.442	374.54
920.815	375.1
921.189	381.32
921.562	375.38
921.935	400.8
922.308	354.76
922.681	360.98
923.054	385.84
923.427	347.98
923.8	403.91
924.173	358.43
924.546	384.99
924.919	379.62
925.291	394.87
925.664	369.17
926.036	375.1
926.409	382.45
926.781	367.76
927.153	387.81
927.526	386.68
927.898	383.01
928.27	381.6
928.642	381.6
929.014	343.74
929.386	385.27
929.758	399.39
930.129	385.84
930.501	352.78
930.873	370.58
931.244	354.2
931.616	371.43
931.987	384.42
932.359	394.87
932.73	362.11
933.101	390.64
933.472	388.1
933.843	391.2
934.214	369.73
934.585	348.26
934.956	391.48
935.327	369.45
935.698	380.75
936.069	378.77
936.439	380.47
936.81	369.73
937.18	381.32
937.551	360.98
937.921	359.85
938.292	379.62
938.662	375.67
939.032	384.99
939.402	353.35
939.772	364.65
940.142	362.67
940.512	373.69
940.882	360.98
941.252	373.69
941.621	383.29
941.991	373.97
942.361	379.9
942.73	352.5
943.1	381.32
943.469	381.88
943.838	396
944.208	385.84
944.577	376.23
944.946	377.93
945.315	340.07
945.684	377.93
946.053	376.8
946.422	381.6
946.791	370.3
947.159	405.61
947.528	377.93
947.897	383.58
948.265	389.79
948.634	371.99
949.002	398.83
949.371	362.67
949.739	374.25
950.107	380.47
950.475	360.13
950.843	373.97
951.211	379.34
951.579	396
951.947	377.08
952.315	387.81
952.683	359.56
953.05	371.43
953.418	364.08
953.785	388.94
954.153	383.86
954.52	383.58
954.888	386.97
955.255	333.56
955.622	383.01
955.989	360.98
956.356	394.03
956.723	355.89
957.09	386.68
957.457	378.77
957.824	379.9
958.191	377.36
958.557	365.5
958.924	390.36
959.291	387.81
959.657	383.01
960.023	377.36
960.39	390.64
960.756	379.62
961.122	382.73
961.488	353.35
961.855	374.82
962.221	368.6
962.586	383.58
962.952	377.93
963.318	353.91
963.684	383.86
964.05	363.52
964.415	341.48
964.781	385.55
965.146	373.41
965.512	374.25
965.877	386.97
966.242	385.84
966.608	367.76
966.973	370.02
967.338	380.19
967.703	394.03
968.068	367.47
968.433	359
968.797	375.38
969.162	384.71
969.527	365.78
969.891	375.1
970.256	367.47
970.62	364.93
970.985	345.72
971.349	358.43
971.714	382.45
972.078	395.44
972.442	367.47
972.806	348.83
973.17	356.46
973.534	392.33
973.898	401.65
974.262	351.65
974.625	368.89
974.989	371.43
975.353	364.08
975.716	373.41
976.08	376.23
976.443	375.1
976.806	362.39
977.17	389.79
977.533	347.7
977.896	401.09
978.259	386.97
978.622	372.28
978.985	356.17
979.348	357.3
979.711	364.65
980.073	378.21
980.436	394.59
980.799	369.45
981.161	351.65
981.524	361.26
981.886	394.31
982.248	360.41
982.611	361.54
982.973	345.72
983.335	364.65
983.697	374.82
984.059	375.67
984.421	372.84
984.783	383.58
985.145	369.73
985.506	353.06
985.868	357.59
986.23	378.21
986.591	377.93
986.953	359.85
987.314	391.48
987.675	371.15
988.037	487.17
988.398	372.56
988.759	367.76
989.12	399.67
989.481	386.12
989.842	386.12
990.203	377.93
990.564	372.84
990.924	353.35
991.285	508.88
991.646	362.67
992.006	402.5
992.367	368.32
992.727	384.71
993.087	390.36
993.448	366.91
993.808	359
994.168	366.34
994.528	368.6
994.888	367.47
995.248	348.54
995.608	358.43
995.967	371.15
996.327	369.45
996.687	370.3
997.046	373.12
997.406	379.34
997.765	368.89
998.125	381.32
998.484	355.89
998.843	383.86
999.202	346
999.561	369.17
999.92	352.78
1000.279	376.51
1000.638	351.65
1000.997	350.24
1001.356	377.36
1001.715	354.76
1002.073	363.24
1002.432	370.3
1002.79	360.69
1003.149	351.93
1003.507	394.59
1003.865	361.54
1004.224	362.39
1004.582	369.17
1004.94	380.19
1005.298	363.24
1005.656	375.67
1006.014	385.84
1006.371	385.84
1006.729	383.58
1007.087	394.87
1007.445	372.84
1007.802	347.13
1008.16	366.34
1008.517	366.34
1008.874	357.02
1009.232	385.27
1009.589	385.84
1009.946	368.04
1010.303	389.23
1010.66	362.67
1011.017	393.46
1011.374	369.73
1011.731	385.27
1012.087	362.11
1012.444	364.65
1012.801	367.47
1013.157	384.14
1013.513	359.28
1013.87	357.87
1014.226	381.03
1014.582	373.69
1014.939	396.29
1015.295	378.21
1015.651	365.5
1016.007	375.1
1016.363	350.24
1016.719	371.15
1017.074	350.8
1017.43	371.15
1017.786	375.1
1018.141	375.95
1018.497	354.48
1018.852	328.48
1019.208	372.84
1019.563	381.6
1019.918	369.45
1020.273	367.47
1020.628	373.97
1020.983	360.69
1021.338	354.2
1021.693	398.55
1022.048	371.15
1022.403	351.93
1022.757	355.61
1023.112	387.25
1023.467	363.8
1023.821	381.32
1024.175	361.54
1024.53	365.21
1024.884	349.39
1025.238	365.78
1025.592	371.43
1025.946	365.5
1026.3	359.85
1026.654	363.8
1027.008	354.2
1027.362	381.6
1027.716	376.8
1028.069	361.54
1028.423	354.76
1028.777	390.36
1029.13	375.1
1029.483	370.58
1029.837	341.2
1030.19	382.16
1030.543	353.91
1030.896	364.37
1031.249	374.82
1031.602	355.89
1031.955	358.15
1032.308	363.24
1032.661	349.67
1033.013	391.48
1033.366	413.79
1033.719	376.8
1034.071	377.93
1034.424	368.32
1034.776	361.82
1035.128	392.05
1035.48	376.51
1035.833	361.26
1036.185	355.33
1036.537	355.33
1036.889	355.33
