Data from SCSF78-405_irradiation_FLMS019251_13-39-27-894.txt Node
Date: Fri Feb 22 13:39:27 PST 2019
User: mu3e
Spectrometer: FLMS01925
Trigger mode: 0
Integration Time (sec): 1.206000E-2
Scans to average: 10
Electric dark correction enabled: true
Nonlinearity correction enabled: true
Boxcar width: 0
XAxis mode: Wavelengths
Number of Pixels in Spectrum: 2048
>>>>>Begin Spectral Data<<<<<
187.103	-108
187.574	-108
188.045	-108
188.516	-140.71
188.987	-135.02
189.458	-135.87
189.929	-130.19
190.4	-131.89
190.871	-86.11
191.342	-68.49
191.813	-60.54
192.284	-42.92
192.754	-18.78
193.225	22.39
193.696	10.75
194.166	60.42
194.637	68.93
195.107	94.73
195.578	112.6
196.048	141.79
196.518	162.19
196.989	155.39
197.459	206.09
197.929	230.72
198.399	263.54
198.869	279.95
199.339	300.59
199.809	335.93
200.279	324.06
200.749	347.8
201.219	322.36
201.689	366.45
202.159	389.05
202.628	370.69
203.098	388.48
203.568	388.2
204.037	407.69
204.507	409.95
204.976	406.84
205.445	413.05
205.915	388.2
206.384	360.8
206.853	392.16
207.323	404.86
207.792	403.73
208.261	384.81
208.73	357.69
209.199	398.65
209.668	378.32
210.137	372.95
210.606	397.24
211.075	400.35
211.543	389.9
212.012	394.98
212.481	378.6
212.95	351.76
213.418	376.34
213.887	364.76
214.355	367.02
214.824	380.86
215.292	377.47
215.76	374.36
216.229	352.32
216.697	347.24
217.165	355.43
217.633	356.28
218.101	372.95
218.569	349.21
219.037	337.63
219.505	345.26
219.973	362.5
220.441	361.08
220.909	356.84
221.377	339.04
221.844	356
222.312	370.69
222.78	356.28
223.247	369.84
223.715	358.82
224.182	373.23
224.65	353.74
225.117	353.74
225.584	372.67
226.052	355.43
226.519	373.23
226.986	344.41
227.453	367.58
227.92	361.08
228.387	359.67
228.854	385.38
229.321	361.65
229.788	355.43
230.255	360.23
230.722	357.97
231.189	355.71
231.655	360.8
232.122	357.13
232.589	372.1
233.055	373.8
233.522	380.01
233.988	383.12
234.454	368.99
234.921	357.97
235.387	356
235.853	364.47
236.32	354.87
236.786	352.32
237.252	348.65
237.718	361.93
238.184	385.09
238.65	337.91
239.116	363.63
239.582	361.65
240.047	389.05
240.513	376.62
240.979	365.89
241.445	370.41
241.91	376.9
242.376	377.19
242.841	379.16
243.307	346.39
243.772	386.22
244.238	374.93
244.703	378.88
245.168	355.43
245.633	363.34
246.099	359.39
246.564	387.35
247.029	383.96
247.494	381.42
247.959	361.37
248.424	362.21
248.889	384.81
249.353	386.51
249.818	358.54
250.283	385.09
250.748	371.82
251.212	377.75
251.677	375.21
252.141	381.71
252.606	391.03
253.07	382.84
253.535	362.21
253.999	375.21
254.463	395.83
254.927	377.75
255.392	377.19
255.856	385.66
256.32	404.86
256.784	368.71
257.248	378.32
257.712	389.33
258.176	379.16
258.64	393.57
259.103	406.84
259.567	371.54
260.031	385.09
260.495	366.45
260.958	378.03
261.422	406.28
261.885	376.06
262.349	377.19
262.812	395.83
263.275	397.52
263.739	394.13
264.202	394.98
264.665	397.24
265.128	369.28
265.591	367.58
266.054	365.04
266.517	365.6
266.98	402.32
267.443	356
267.906	380.58
268.369	389.05
268.832	372.95
269.294	404.58
269.757	378.88
270.22	359.95
270.682	367.58
271.145	395.83
271.607	378.88
272.07	405.15
272.532	377.75
272.994	382.84
273.456	376.9
273.919	379.73
274.381	388.48
274.843	385.09
275.305	384.81
275.767	372.67
276.229	394.98
276.691	399.78
277.153	372.1
277.614	405.71
278.076	396.96
278.538	346.67
279	362.21
279.461	420.11
279.923	373.51
280.384	380.86
280.846	391.31
281.307	398.93
281.769	397.52
282.23	400.35
282.691	407.97
283.152	389.9
283.613	394.42
284.075	386.79
284.536	424.35
284.997	399.22
285.458	401.76
285.918	398.37
286.379	377.75
286.84	393.57
287.301	384.81
287.762	388.77
288.222	385.38
288.683	392.72
289.143	391.59
289.604	396.11
290.064	408.25
290.525	405.71
290.985	380.86
291.445	361.08
291.906	424.63
292.366	404.02
292.826	402.89
293.286	413.9
293.746	398.09
294.206	403.17
294.666	381.99
295.126	390.18
295.586	369.28
296.046	423.78
296.506	373.51
296.965	390.18
297.425	424.35
297.884	413.9
298.344	394.7
298.804	365.6
299.263	395.54
299.722	378.6
300.182	386.22
300.641	394.42
301.1	394.98
301.559	373.23
302.019	400.91
302.478	409.1
302.937	385.94
303.396	388.2
303.855	390.74
304.314	413.9
304.772	410.51
305.231	413.05
305.69	410.23
306.149	429.99
306.607	370.41
307.066	404.02
307.524	405.71
307.983	402.6
308.441	392.16
308.9	402.32
309.358	413.33
309.816	404.3
310.275	412.21
310.733	389.33
311.191	406.84
311.649	389.9
312.107	426.32
312.565	403.45
313.023	399.78
313.481	415.03
313.939	407.69
314.397	420.11
314.854	400.35
315.312	367.02
315.77	395.83
316.227	374.36
316.685	386.22
317.142	418.13
317.6	419.83
318.057	415.31
318.514	405.15
318.972	385.38
319.429	422.65
319.886	400.91
320.343	428.02
320.8	415.03
321.257	418.42
321.714	420.68
322.171	402.04
322.628	429.43
323.085	392.44
323.542	376.9
323.998	412.21
324.455	410.79
324.912	397.8
325.368	405.71
325.825	412.49
326.281	406.84
326.738	419.26
327.194	393.57
327.65	394.7
328.107	420.11
328.563	380.86
329.019	383.12
329.475	390.46
329.931	402.04
330.387	382.84
330.843	405.43
331.299	388.77
331.755	405.15
332.211	372.95
332.666	398.09
333.122	382.55
333.578	390.18
334.033	409.95
334.489	424.06
334.944	391.03
335.4	414.46
335.855	392.16
336.31	429.43
336.766	393.85
337.221	418.42
337.676	402.6
338.131	415.59
338.586	398.65
339.041	399.22
339.496	417.29
339.951	413.33
340.406	420.11
340.861	399.22
341.316	388.48
341.771	408.82
342.225	394.7
342.68	425.19
343.134	419.26
343.589	407.69
344.043	428.3
344.498	428.58
344.952	428.58
345.406	419.83
345.861	409.95
346.315	397.8
346.769	400.91
347.223	371.54
347.677	396.96
348.131	418.98
348.585	423.22
349.039	371.25
349.493	400.63
349.947	416.44
350.401	441.85
350.854	405.15
351.308	402.32
351.762	414.75
352.215	375.77
352.669	439.59
353.122	389.05
353.575	433.38
354.029	404.3
354.482	403.73
354.935	406.28
355.388	425.47
355.842	418.7
356.295	435.92
356.748	403.73
357.201	420.39
357.654	431.4
358.106	432.81
358.559	400.35
359.012	404.86
359.465	399.78
359.917	394.98
360.37	397.8
360.823	409.1
361.275	404.58
361.728	428.3
362.18	449.18
362.632	421.52
363.085	400.35
363.537	400.63
363.989	402.6
364.441	442.41
364.893	425.47
365.345	416.16
365.797	428.02
366.249	407.12
366.701	424.63
367.153	411.36
367.605	422.09
368.057	424.63
368.508	405.43
368.96	446.36
369.411	423.5
369.863	432.53
370.314	439.87
370.766	425.19
371.217	419.26
371.669	400.63
372.12	394.98
372.571	423.22
373.022	426.32
373.473	422.65
373.924	437.05
374.375	438.74
374.826	407.97
375.277	437.89
375.728	428.58
376.179	398.09
376.63	404.58
377.08	437.61
377.531	421.24
377.981	405.71
378.432	408.25
378.883	425.47
379.333	422.09
379.783	427.17
380.234	422.93
380.684	415.88
381.134	406.56
381.584	442.69
382.034	432.53
382.485	433.94
382.935	416.16
383.385	454.83
383.834	430.27
384.284	427.17
384.734	404.58
385.184	428.58
385.634	401.76
386.083	448.34
386.533	436.2
386.982	432.25
387.432	422.65
387.881	423.22
388.331	440.72
388.78	423.5
389.229	426.04
389.679	413.33
390.128	442.13
390.577	433.38
391.026	408.82
391.475	418.7
391.924	422.37
392.373	429.14
392.822	418.13
393.27	438.18
393.719	395.83
394.168	473.17
394.617	436.77
395.065	419.26
395.514	432.25
395.962	438.74
396.411	442.69
396.859	415.31
397.307	429.71
397.756	431.68
398.204	457.65
398.652	430.84
399.1	440.72
399.548	445.51
399.996	477.4
400.444	490.37
400.892	464.99
401.34	444.39
401.788	462.45
402.236	458.78
402.683	437.33
403.131	432.81
403.579	462.16
404.026	461.32
404.474	460.19
404.921	472.6
405.369	473.17
405.816	457.93
406.263	447.21
406.71	470.06
407.158	473.45
407.605	455.67
408.052	477.4
408.499	492.63
408.946	501.09
409.393	519.98
409.84	503.63
410.286	494.32
410.733	508.14
411.18	557.76
411.626	563.39
412.073	599.73
412.52	708.09
412.966	836.22
413.413	894.32
413.859	1091.28
414.305	1320.95
414.752	1613.34
415.198	1907.13
415.644	2312.59
416.09	2803.74
416.536	3361.99
416.982	4096.34
417.428	4846.07
417.874	5605.31
418.32	6511.13
418.766	7381.99
419.211	8504.59
419.657	9466
420.103	10776.09
420.548	11610.21
420.994	13022.8
421.439	14172.91
421.885	15136.48
422.33	16638.93
422.776	17807.54
423.221	18758.7
423.666	20189.4
424.111	21543.88
424.556	22531.25
425.001	23922.41
425.446	25327.2
425.891	26666.47
426.336	27664.64
426.781	28941.86
427.226	31071.76
427.671	31822.54
428.115	32628.56
428.56	34374.64
429.005	36011.04
429.449	36585.11
429.894	37901.57
430.338	39215.72
430.782	39155.72
431.227	40840.03
431.671	41262.33
432.115	42773.49
432.559	43833.12
433.003	43733.65
433.447	44821.71
433.891	44932.79
434.335	45480.4
434.779	46302.08
435.223	46520.76
435.667	46672.92
436.111	47058.76
436.554	47158.21
436.998	46481.16
437.442	46793.95
437.885	48800.12
438.328	47246.75
438.772	47658.14
439.215	48092.3
439.659	47787.8
440.102	48130.87
440.545	47441.66
440.988	47313.9
441.431	48127.78
441.874	47728.59
442.317	48036.78
442.76	47351.19
443.203	46855.52
443.646	47650.2
444.089	47143.41
444.531	47939.95
444.974	46458.83
445.417	47623.57
445.859	46846.11
446.302	47749.61
446.744	47011.62
447.186	48244.6
447.629	47284.28
448.071	47253.13
448.513	47247.51
448.956	48931.19
449.398	48032.41
449.84	46590.09
450.282	47303.17
450.724	47929.94
451.166	47594.64
451.607	47449.08
452.049	47712.96
452.491	48758.2
452.933	48219.63
453.374	49088.66
453.816	49282.82
454.257	48944.93
454.699	50178.41
455.14	49784.61
455.582	49660.39
456.023	49566.36
456.464	49781.21
456.905	50254.98
457.347	50157.63
457.788	49344.5
458.229	49400.5
458.67	50632.16
459.111	48524.31
459.552	48682.16
459.992	48562.26
460.433	48226.33
460.874	47457.51
461.315	48478.37
461.755	47323.6
462.196	46996.59
462.636	46153.86
463.077	45921.3
463.517	46063.22
463.957	46308.42
464.398	45871.75
464.838	46121.7
465.278	44796.84
465.718	45134.01
466.158	43939.14
466.598	44405.37
467.038	44008.68
467.478	44467.05
467.918	44540.79
468.358	43646.22
468.798	43428.28
469.237	43418.3
469.677	43306.05
470.117	44143.08
470.556	41852.54
470.996	42205.58
471.435	42412.71
471.874	43034.89
472.314	42789.66
472.753	41860.72
473.192	41916.02
473.631	41760.82
474.07	41917.01
474.509	41951.48
474.948	42221.97
475.387	41578.71
475.826	40581.94
476.265	42273.86
476.704	41722.41
477.143	42233.64
477.581	41803.45
478.02	42470.61
478.458	41095.12
478.897	41664.42
479.335	42890.71
479.774	42328
480.212	42675.97
480.65	42543.44
481.089	42216.5
481.527	41733.56
481.965	41330.38
482.403	43320.02
482.841	42869.55
483.279	43093.43
483.717	43100.41
484.155	42709.55
484.592	42974.36
485.03	43220.03
485.468	42136.57
485.905	42282.55
486.343	42877.51
486.781	42137.32
487.218	41632.96
487.655	41583.17
488.093	40735.78
488.53	42142.03
488.967	41335.58
489.405	41180.2
489.842	40345.76
490.279	40243.89
490.716	39901.99
491.153	40151.67
491.59	39759.12
492.027	39113.43
492.463	38581.48
492.9	37890.3
493.337	37747.62
493.773	37910.89
494.21	36958.72
494.647	36768.34
495.083	36064.07
495.519	35731.74
495.956	35607.89
496.392	34972.04
496.828	34671.84
497.265	33928.23
497.701	34121.42
498.137	33780.43
498.573	33029.63
499.009	33339.78
499.445	32607.84
499.881	32203.86
500.316	32366.96
500.752	31486.07
501.188	31132.97
501.624	31202.96
502.059	29900.25
502.495	29736.23
502.93	29747.46
503.366	29867.79
503.801	29164.15
504.236	29059.12
504.672	28487.84
505.107	28307.19
505.542	27568.22
505.977	27683.73
506.412	27091.79
506.847	27390.76
507.282	26895.58
507.717	26457.86
508.152	26555.68
508.587	26162.84
509.021	25453.46
509.456	25209.26
509.891	25235.55
510.325	25318.85
510.76	24778.79
511.194	24617.43
511.628	24688.03
512.063	23833.21
512.497	23922.16
512.931	23539.38
513.366	23355.89
513.8	23388.94
514.234	22689.13
514.668	22679.5
515.102	22895.12
515.536	22009.76
515.969	22142.6
516.403	21815.5
516.837	21358.32
517.271	21414.82
517.704	21043.03
518.138	20869.41
518.571	20581.55
519.005	20362.8
519.438	20321.81
519.871	20074.09
520.305	19609.81
520.738	19512.01
521.171	18966.1
521.604	19165.67
522.037	18912.76
522.47	18565.65
522.903	18287.65
523.336	18146.08
523.769	18094.63
524.202	17601.52
524.634	17619.27
525.067	17371.36
525.5	17169.61
525.932	17022.61
526.365	16682.8
526.797	16523.06
527.23	16537.11
527.662	16042.16
528.094	15709.45
528.527	15781.59
528.959	15503.22
529.391	15266.41
529.823	14800.33
530.255	14856.8
530.687	14457.5
531.119	14252.99
531.551	14178.22
531.982	13808.62
532.414	13681.86
532.846	13324.78
533.277	13221.88
533.709	12877.14
534.14	12808.59
534.572	12620.88
535.003	12478.8
535.435	12271.24
535.866	12113.16
536.297	11819.38
536.728	11851.25
537.159	11688.54
537.59	11424.85
538.022	11282.02
538.452	11137.56
538.883	10873.69
539.314	10884.19
539.745	10626.14
540.176	10418.83
540.606	10166.06
541.037	10177.89
541.468	10004.82
541.898	9887.2
542.328	9805.31
542.759	9632.13
543.189	9500.07
543.619	9424.19
544.05	9145.41
544.48	9116.44
544.91	9010.88
545.34	8781.92
545.77	8695.33
546.2	8600.64
546.63	8459.14
547.06	8459.14
547.489	8239.22
547.919	8049.97
548.349	8072.37
548.778	7977.54
549.208	7928.53
549.637	7750.86
550.067	7621.05
550.496	7631.77
550.926	7533.22
551.355	7276.97
551.784	7347.7
552.213	7150.89
552.642	7040.95
553.071	6998.42
553.5	6903.59
553.929	6691.07
554.358	6754.76
554.787	6603.37
555.216	6605.48
555.645	6448.1
556.073	6351.25
556.502	6312.7
556.93	6086.66
557.359	6169.73
557.787	6096.72
558.216	5993.48
558.644	5929.63
559.072	5890.13
559.5	5798.64
559.929	5728.3
560.357	5694.84
560.785	5630.02
561.213	5623.91
561.641	5490.42
562.068	5509.58
562.496	5492.55
562.924	5352.49
563.352	5392.72
563.779	5354.36
564.207	5362.88
564.634	5265.33
565.062	5274.66
565.489	5251.2
565.917	5086.24
566.344	5089.98
566.771	5043.22
567.198	4965.69
567.625	4947.77
568.053	4853.83
568.48	4866.42
568.907	4816.34
569.333	4744.53
569.76	4571.48
570.187	4607.73
570.614	4505.67
571.04	4645.84
571.467	4405.65
571.894	4372.02
572.32	4199.11
572.747	4133.04
573.173	4058.55
573.599	4016.42
574.026	3857.18
574.452	3880.72
574.878	3860.7
575.304	3785.45
575.73	3696.31
576.156	3646.69
576.582	3653.2
577.008	3542.21
577.434	3505.81
577.86	3430.53
578.285	3389.2
578.711	3330.69
579.137	3321.98
579.562	3201.03
579.988	3177.58
580.413	3147.86
580.838	3044.96
581.264	3051.79
581.689	2966
582.114	2936.74
582.539	2903.65
582.964	2874.1
583.39	2867.53
583.814	2768.13
584.239	2717.7
584.664	2740.45
585.089	2645.01
585.514	2609.61
585.939	2558.53
586.363	2565.67
586.788	2519.24
587.212	2498.08
587.637	2429.6
588.061	2410.62
588.485	2382.27
588.91	2365.2
589.334	2332.98
589.758	2321.14
590.182	2291.1
590.606	2216.38
591.03	2209.49
591.454	2177.48
591.878	2164.79
592.302	2134.97
592.726	2076.14
593.15	2071.71
593.573	2036.89
593.997	1997.35
594.42	1953.91
594.844	1985.73
595.267	1924.57
595.691	1916.82
596.114	1901.31
596.537	1892.17
596.96	1897.99
597.384	1835.93
597.807	1809.32
598.23	1799.61
598.653	1792.4
599.076	1768
599.499	1726.65
599.921	1717.77
600.344	1716.66
600.767	1748.58
601.189	1724.99
601.612	1701.95
602.034	1673.9
602.457	1678.9
602.879	1670.57
603.302	1633.35
603.724	1616.95
604.146	1630.57
604.568	1571.64
604.991	1605.28
605.413	1597.21
605.835	1587.76
606.257	1577.47
606.678	1580.26
607.1	1562.74
607.522	1563.85
607.944	1544.38
608.365	1557.73
608.787	1479.81
609.209	1484.82
609.63	1467
610.051	1492.06
610.473	1433.86
610.894	1446.4
611.315	1468.12
611.737	1418.26
612.158	1373.94
612.579	1359.17
613	1364.46
613.421	1363.63
613.842	1345.78
614.263	1310.63
614.683	1302.82
615.104	1308.96
615.525	1244.75
615.945	1243.92
616.366	1255.36
616.787	1224.92
617.207	1212.07
617.627	1184.97
618.048	1166.52
618.468	1203.41
618.888	1151.98
619.308	1140.8
619.728	1104.72
620.148	1108.91
620.568	1122.9
620.988	1072.53
621.408	1063.58
621.828	1058.26
622.248	1061.06
622.668	1047.62
623.087	1048.46
623.507	1026.34
623.926	1027.74
624.346	1013.17
624.765	1027.74
625.185	978.71
625.604	1005.33
626.023	996.09
626.442	968.91
626.861	958.81
627.28	947.32
627.699	930.5
628.118	920.68
628.537	925.73
628.956	910.31
629.375	899.37
629.794	866.82
630.212	890.11
630.631	876.92
631.049	853.07
631.468	871.03
631.886	850.26
632.305	854.19
632.723	855.03
633.141	800.84
633.559	858.4
633.978	840.71
634.396	824.43
634.814	856.15
635.232	796.9
635.65	804.77
636.067	787.07
636.485	778.08
636.903	772.18
637.321	791.01
637.738	763.19
638.156	772.46
638.573	761.78
638.991	753.91
639.408	742.67
639.825	708.93
640.243	751.95
640.66	743.23
641.077	734.52
641.494	707.24
641.911	713.15
642.328	732.55
642.745	715.4
643.162	705.27
643.579	708.93
643.995	674.61
644.412	719.62
644.829	677.99
645.245	702.18
645.662	648.44
646.078	665.04
646.495	666.73
646.911	667.58
647.327	663.07
647.743	689.24
648.159	674.89
648.576	626.76
648.992	632.4
649.408	653.51
649.824	606.49
650.239	649
650.655	630.42
651.071	626.48
651.487	616.91
651.902	624.23
652.318	617.19
652.733	599.17
653.149	636.06
653.564	636.62
653.979	599.73
654.395	592.97
654.81	598.89
655.225	583.96
655.64	624.51
656.055	587.9
656.47	598.89
656.885	586.78
657.3	594.66
657.715	583.68
658.13	579.45
658.544	566.49
658.959	573.25
659.374	560.57
659.788	567.05
660.202	561.7
660.617	578.32
661.031	572.13
661.445	566.77
661.86	559.45
662.274	565.93
662.688	561.7
663.102	571
663.516	548.74
663.93	573.25
664.344	565.36
664.758	538.31
665.171	556.06
665.585	543.66
665.999	524.21
666.412	541.69
666.826	529.85
667.239	520.83
667.653	516.88
668.066	553.81
668.479	528.44
668.892	527.03
669.306	525.62
669.719	529.01
670.132	538.87
670.545	514.06
670.958	519.98
671.37	514.06
671.783	536.05
672.196	521.68
672.609	512.09
673.021	505.89
673.434	500.53
673.846	508.71
674.259	505.32
674.671	526.75
675.084	519.7
675.496	515.47
675.908	509.83
676.32	496.58
676.732	499.4
677.144	508.71
677.556	490.09
677.968	490.37
678.38	501.09
678.792	516.32
679.204	485.3
679.615	488.96
680.027	485.86
680.439	512.37
680.85	475.71
681.262	492.63
681.673	485.02
682.084	473.17
682.496	473.17
682.907	490.37
683.318	475.71
683.729	503.63
684.14	505.89
684.551	463.86
684.962	458.78
685.373	474.58
685.784	455.67
686.194	481.91
686.605	468.09
687.016	470.63
687.426	477.68
687.837	439.31
688.247	455.39
688.657	475.99
689.068	479.66
689.478	485.86
689.888	470.35
690.298	472.32
690.708	475.42
691.118	457.93
691.528	465.83
691.938	465.27
692.348	487.27
692.758	482.48
693.168	460.19
693.577	452.57
693.987	439.31
694.396	465.83
694.806	457.37
695.215	460.47
695.625	461.88
696.034	459.62
696.443	446.08
696.852	440.15
697.262	442.97
697.671	452.01
698.08	456.8
698.489	420.96
698.897	457.09
699.306	431.68
699.715	425.76
700.124	443.54
700.532	420.68
700.941	457.65
701.35	451.44
701.758	452.85
702.166	449.75
702.575	418.42
702.983	456.24
703.391	444.67
703.799	428.58
704.208	443.26
704.616	432.81
705.024	428.86
705.432	434.79
705.839	424.06
706.247	454.55
706.655	437.61
707.063	416.72
707.47	448.05
707.878	407.41
708.285	431.4
708.693	398.09
709.1	426.04
709.508	442.69
709.915	438.74
710.322	442.41
710.729	423.78
711.136	410.79
711.543	423.5
711.95	397.8
712.357	427.73
712.764	423.78
713.171	423.78
713.578	432.25
713.984	417.85
714.391	410.79
714.797	424.06
715.204	396.39
715.61	438.46
716.017	388.77
716.423	437.05
716.829	414.46
717.236	412.49
717.642	406.56
718.048	422.09
718.454	433.94
718.86	429.43
719.266	420.96
719.671	432.53
720.077	427.45
720.483	432.53
720.889	415.31
721.294	414.18
721.7	422.93
722.105	427.73
722.511	415.88
722.916	424.06
723.321	420.39
723.726	407.69
724.132	433.38
724.537	413.05
724.942	441.56
725.347	402.89
725.752	410.51
726.156	416.44
726.561	418.7
726.966	396.39
727.371	421.52
727.775	419.55
728.18	415.88
728.584	402.6
728.989	401.48
729.393	407.12
729.798	413.33
730.202	402.6
730.606	411.36
731.01	429.43
731.414	401.76
731.818	427.17
732.222	422.09
732.626	415.03
733.03	381.14
733.434	426.6
733.837	383.68
734.241	410.23
734.645	417.85
735.048	408.82
735.452	420.96
735.855	400.06
736.258	420.96
736.662	427.45
737.065	398.09
737.468	402.6
737.871	429.99
738.274	423.5
738.677	406.84
739.08	397.24
739.483	401.48
739.886	415.59
740.289	403.17
740.691	411.92
741.094	412.49
741.497	416.72
741.899	391.31
742.302	413.05
742.704	382.27
743.106	389.05
743.508	418.98
743.911	378.88
744.313	414.18
744.715	413.33
745.117	408.82
745.519	452.85
745.921	396.39
746.323	398.09
746.724	394.13
747.126	409.66
747.528	416.72
747.929	411.92
748.331	441.85
748.732	412.21
749.134	404.86
749.535	388.48
749.936	406.56
750.338	395.54
750.739	405.99
751.14	415.88
751.541	425.47
751.942	405.15
752.343	399.22
752.744	384.81
753.144	393
753.545	403.45
753.946	399.5
754.346	392.44
754.747	388.77
755.148	397.8
755.548	409.1
755.948	378.32
756.349	413.05
756.749	399.78
757.149	401.76
757.549	411.92
757.949	418.42
758.349	390.74
758.749	420.39
759.149	415.03
759.549	410.23
759.949	399.22
760.348	417.57
760.748	420.11
761.148	407.69
761.547	391.03
761.947	396.96
762.346	390.74
762.745	397.24
763.145	407.41
763.544	390.46
763.943	395.54
764.342	390.74
764.741	424.06
765.14	386.51
765.539	390.74
765.938	419.55
766.336	409.1
766.735	406.28
767.134	409.95
767.532	406.28
767.931	406.28
768.329	405.99
768.728	393
769.126	426.32
769.525	412.77
769.923	387.64
770.321	389.33
770.719	413.05
771.117	374.64
771.515	415.31
771.913	377.19
772.311	395.83
772.709	405.71
773.106	399.78
773.504	405.43
773.902	401.76
774.299	411.92
774.697	406.28
775.094	396.67
775.491	396.96
775.889	391.03
776.286	411.92
776.683	396.67
777.08	404.02
777.477	411.64
777.874	421.8
778.271	410.79
778.668	405.43
779.065	390.18
779.462	374.93
779.858	403.45
780.255	379.16
780.652	400.35
781.048	421.24
781.444	376.9
781.841	390.46
782.237	400.06
782.633	409.1
783.03	390.74
783.426	411.64
783.822	378.6
784.218	407.69
784.614	397.8
785.01	395.54
785.405	377.75
785.801	374.08
786.197	400.91
786.593	401.48
786.988	405.15
787.384	395.54
787.779	397.8
788.174	385.09
788.57	382.27
788.965	376.62
789.36	406.28
789.755	372.67
790.15	394.98
790.545	400.35
790.94	410.51
791.335	387.07
791.73	402.6
792.125	393
792.52	389.9
792.914	374.64
793.309	378.32
793.703	371.25
794.098	398.93
794.492	403.45
794.887	391.31
795.281	406.28
795.675	372.95
796.069	389.61
796.463	395.26
796.857	415.03
797.251	404.3
797.645	361.93
798.039	405.43
798.433	406.84
798.826	390.74
799.22	385.66
799.614	394.42
800.007	394.42
800.401	404.58
800.794	399.5
801.187	396.11
801.581	412.77
801.974	366.73
802.367	395.54
802.76	368.99
803.153	411.08
803.546	381.71
803.939	391.03
804.332	376.34
804.725	392.16
805.117	387.92
805.51	355.15
805.903	376.34
806.295	376.34
806.688	377.47
807.08	395.26
807.472	387.64
807.865	393.29
808.257	378.6
808.649	393.57
809.041	382.27
809.433	371.25
809.825	384.25
810.217	396.39
810.609	391.59
811.001	379.73
811.392	388.48
811.784	403.17
812.175	396.96
812.567	380.86
812.958	408.25
813.35	391.31
813.741	391.87
814.132	383.96
814.524	384.25
814.915	391.31
815.306	404.3
815.697	422.93
816.088	385.94
816.479	396.11
816.87	394.7
817.26	402.04
817.651	403.17
818.042	373.51
818.432	382.27
818.823	381.99
819.213	384.81
819.604	394.42
819.994	376.34
820.384	367.58
820.775	374.93
821.165	371.54
821.555	385.38
821.945	362.21
822.335	391.87
822.725	402.89
823.114	404.3
823.504	367.86
823.894	391.03
824.284	380.01
824.673	386.79
825.063	375.49
825.452	402.89
825.842	400.35
826.231	369.84
826.62	399.78
827.009	396.67
827.399	382.27
827.788	351.48
828.177	378.32
828.566	376.9
828.954	371.54
829.343	380.01
829.732	354.02
830.121	382.27
830.509	391.87
830.898	382.55
831.286	398.37
831.675	386.79
832.063	395.83
832.452	387.07
832.84	375.21
833.228	400.91
833.616	394.13
834.004	387.35
834.392	387.64
834.78	406.28
835.168	389.61
835.556	394.7
835.944	382.55
836.331	365.89
836.719	399.78
837.107	394.13
837.494	411.08
837.881	393.29
838.269	374.93
838.656	383.12
839.043	376.34
839.431	407.69
839.818	403.17
840.205	414.18
840.592	390.74
840.979	380.86
841.366	368.71
841.752	395.54
842.139	395.26
842.526	383.96
842.912	370.97
843.299	393.57
843.685	390.46
844.072	384.53
844.458	402.89
844.844	399.5
845.231	387.64
845.617	410.51
846.003	380.29
846.389	400.91
846.775	385.94
847.161	400.91
847.547	372.38
847.933	388.2
848.318	365.89
848.704	361.08
849.09	393.85
849.475	361.93
849.861	383.4
850.246	400.35
850.631	363.63
851.017	396.67
851.402	387.92
851.787	409.66
852.172	387.35
852.557	390.46
852.942	389.05
853.327	412.49
853.712	386.79
854.097	373.8
854.481	374.64
854.866	395.26
855.25	366.45
855.635	388.48
856.019	386.22
856.404	368.43
856.788	379.16
857.172	384.25
857.557	379.16
857.941	362.78
858.325	376.06
858.709	380.58
859.093	365.04
859.477	392.44
859.86	409.1
860.244	360.8
860.628	372.1
861.012	385.66
861.395	417.29
861.779	402.6
862.162	391.87
862.545	417.57
862.929	392.16
863.312	381.99
863.695	393.29
864.078	368.71
864.461	402.32
864.844	375.49
865.227	402.6
865.61	376.62
865.993	381.99
866.376	377.47
866.758	400.91
867.141	388.48
867.523	389.33
867.906	376.34
868.288	383.4
868.671	409.95
869.053	395.54
869.435	366.45
869.817	367.86
870.199	387.64
870.581	380.29
870.963	402.04
871.345	377.75
871.727	374.93
872.109	375.77
872.491	389.05
872.872	415.88
873.254	366.45
873.635	388.2
874.017	391.31
874.398	371.54
874.779	370.97
875.161	375.21
875.542	385.66
875.923	371.82
876.304	381.71
876.685	398.93
877.066	390.18
877.447	366.73
877.828	373.51
878.208	392.44
878.589	382.55
878.97	395.26
879.35	383.96
879.731	409.95
880.111	380.58
880.491	377.19
880.872	367.86
881.252	403.73
881.632	378.88
882.012	399.78
882.392	374.36
882.772	397.8
883.152	385.09
883.532	370.97
883.912	375.77
884.291	391.87
884.671	341.58
885.051	372.67
885.43	365.89
885.81	382.84
886.189	363.91
886.568	391.03
886.948	375.21
887.327	393.57
887.706	375.77
888.085	410.51
888.464	358.26
888.843	384.25
889.222	385.09
889.601	403.45
889.979	383.68
890.358	387.92
890.737	371.82
891.115	339.32
891.494	371.25
891.872	381.99
892.25	367.86
892.629	376.9
893.007	410.79
893.385	399.22
893.763	372.95
894.141	381.42
894.519	385.66
894.897	391.87
895.275	387.35
895.653	381.71
896.03	378.6
896.408	378.32
896.786	394.13
897.163	383.12
897.541	350.35
897.918	363.34
898.295	373.51
898.673	357.69
899.05	375.77
899.427	390.74
899.804	370.97
900.181	358.82
900.558	375.49
900.935	386.51
901.312	372.38
901.688	377.75
902.065	367.3
902.442	388.77
902.818	393.29
903.195	395.83
903.571	350.06
903.947	368.99
904.324	369.84
904.7	350.91
905.076	391.59
905.452	357.13
905.828	403.73
906.204	384.53
906.58	380.86
906.956	375.77
907.331	385.94
907.707	388.48
908.083	387.92
908.458	388.77
908.834	392.72
909.209	391.87
909.585	367.86
909.96	368.99
910.335	392.16
910.71	393.29
911.086	390.18
911.461	389.05
911.836	360.8
912.21	390.46
912.585	400.06
912.96	404.3
913.335	378.03
913.709	360.8
914.084	390.74
914.459	366.45
914.833	375.21
915.207	384.53
915.582	389.05
915.956	372.67
916.33	373.8
916.704	401.19
917.078	376.06
917.452	396.11
917.826	376.34
918.2	368.43
918.574	370.41
918.948	391.59
919.321	383.4
919.695	360.23
920.068	391.87
920.442	360.23
920.815	355.15
921.189	396.11
921.562	355.43
921.935	351.19
922.308	383.12
922.681	380.58
923.054	355.71
923.427	375.77
923.8	384.81
924.173	365.32
924.546	346.95
924.919	376.62
925.291	398.93
925.664	384.53
926.036	359.39
926.409	372.67
926.781	393.57
927.153	381.99
927.526	361.37
927.898	401.19
928.27	355.71
928.642	368.99
929.014	375.21
929.386	355.15
929.758	364.19
930.129	393.29
930.501	361.65
930.873	381.71
931.244	372.38
931.616	386.51
931.987	368.15
932.359	368.99
932.73	369.56
933.101	392.44
933.472	355.15
933.843	380.01
934.214	382.84
934.585	368.15
934.956	375.77
935.327	374.64
935.698	375.21
936.069	382.84
936.439	390.18
936.81	381.14
937.18	387.07
937.551	358.26
937.921	385.09
938.292	368.99
938.662	355.71
939.032	368.99
939.402	372.95
939.772	365.6
940.142	361.08
940.512	400.63
940.882	362.78
941.252	391.03
941.621	373.23
941.991	377.75
942.361	383.68
942.73	387.64
943.1	346.67
943.469	389.05
943.838	362.5
944.208	359.1
944.577	358.54
944.946	369.84
945.315	387.92
945.684	363.06
946.053	367.86
946.422	396.11
946.791	362.5
947.159	355.15
947.528	367.3
947.897	405.43
948.265	360.52
948.634	373.51
949.002	375.77
949.371	365.04
949.739	380.01
950.107	398.09
950.475	361.65
950.843	389.05
951.211	359.95
951.579	355.71
951.947	368.71
952.315	358.82
952.683	394.42
953.05	397.24
953.418	367.3
953.785	350.35
954.153	389.61
954.52	361.37
954.888	355.43
955.255	372.67
955.622	347.52
955.989	351.48
956.356	374.93
956.723	369.56
957.09	380.01
957.457	371.25
957.824	377.19
958.191	368.15
958.557	384.81
958.924	375.77
959.291	363.63
959.657	347.24
960.023	401.19
960.39	382.55
960.756	393
961.122	367.02
961.488	367.3
961.855	345.26
962.221	375.49
962.586	375.49
962.952	378.6
963.318	358.82
963.684	376.06
964.05	389.9
964.415	375.77
964.781	346.39
965.146	397.52
965.512	372.1
965.877	368.71
966.242	384.25
966.608	362.78
966.973	372.67
967.338	389.9
967.703	369.28
968.068	336.21
968.433	376.62
968.797	369.56
969.162	370.41
969.527	379.73
969.891	383.4
970.256	372.95
970.62	348.93
970.985	378.6
971.349	396.96
971.714	370.69
972.078	372.95
972.442	349.78
972.806	359.67
973.17	368.15
973.534	368.15
973.898	386.22
974.262	380.01
974.625	368.71
974.989	360.52
975.353	401.19
975.716	384.53
976.08	362.5
976.443	369.28
976.806	373.8
977.17	382.27
977.533	377.75
977.896	358.54
978.259	372.1
978.622	347.8
978.985	395.83
979.348	392.44
979.711	391.31
980.073	334.52
980.436	370.97
980.799	354.58
981.161	360.8
981.524	361.37
981.886	369.56
982.248	355.43
982.611	381.42
982.973	371.54
983.335	391.31
983.697	389.33
984.059	378.88
984.421	386.22
984.783	373.51
985.145	356
985.506	390.46
985.868	389.33
986.23	370.12
986.591	361.08
986.953	345.82
987.314	372.95
987.675	341.3
988.037	516.04
988.398	397.8
988.759	359.39
989.12	365.32
989.481	377.47
989.842	370.97
990.203	363.06
990.564	382.84
990.924	396.96
991.285	499.68
991.646	371.25
992.006	348.65
992.367	372.95
992.727	381.99
993.087	366.45
993.448	381.71
993.808	362.21
994.168	384.81
994.528	362.78
994.888	354.3
995.248	374.64
995.608	355.43
995.967	376.06
996.327	371.82
996.687	388.77
997.046	366.73
997.406	350.35
997.765	359.1
998.125	357.69
998.484	360.23
998.843	375.77
999.202	359.95
999.561	366.45
999.92	376.06
1000.279	385.66
1000.638	383.12
1000.997	360.23
1001.356	379.45
1001.715	371.82
1002.073	402.04
1002.432	384.53
1002.79	361.65
1003.149	352.61
1003.507	371.25
1003.865	360.23
1004.224	384.25
1004.582	359.95
1004.94	397.52
1005.298	378.03
1005.656	390.18
1006.014	394.98
1006.371	374.93
1006.729	364.76
1007.087	368.43
1007.445	362.78
1007.802	343.28
1008.16	384.53
1008.517	385.66
1008.874	342.43
1009.232	371.25
1009.589	381.42
1009.946	358.26
1010.303	368.43
1010.66	378.6
1011.017	403.17
1011.374	357.97
1011.731	369.28
1012.087	380.86
1012.444	388.77
1012.801	362.21
1013.157	372.95
1013.513	370.41
1013.87	372.1
1014.226	378.32
1014.582	388.2
1014.939	367.86
1015.295	363.63
1015.651	357.13
1016.007	361.93
1016.363	373.23
1016.719	372.1
1017.074	374.93
1017.43	360.23
1017.786	347.52
1018.141	361.08
1018.497	356.56
1018.852	336.5
1019.208	387.92
1019.563	380.01
1019.918	380.58
1020.273	406.56
1020.628	364.19
1020.983	373.51
1021.338	384.53
1021.693	374.36
1022.048	387.35
1022.403	347.24
1022.757	359.1
1023.112	386.51
1023.467	366.73
1023.821	368.71
1024.175	364.47
1024.53	370.97
1024.884	347.52
1025.238	347.52
1025.592	350.63
1025.946	356.28
1026.3	365.89
1026.654	374.93
1027.008	357.97
1027.362	370.97
1027.716	384.81
1028.069	374.08
1028.423	363.91
1028.777	394.13
1029.13	362.78
1029.483	371.25
1029.837	377.75
1030.19	366.73
1030.543	363.34
1030.896	376.06
1031.249	376.06
1031.602	375.77
1031.955	369.56
1032.308	378.32
1032.661	361.93
1033.013	350.35
1033.366	366.17
1033.719	358.54
1034.071	376.62
1034.424	364.47
1034.776	374.08
1035.128	380.86
1035.48	365.89
1035.833	365.32
1036.185	387.92
1036.537	387.92
1036.889	387.92
