Data from SCSF78-405_irradiation_FLMS019251_12-27-27-935.txt Node
Date: Fri Feb 22 12:27:27 PST 2019
User: mu3e
Spectrometer: FLMS01925
Trigger mode: 0
Integration Time (sec): 1.206000E-2
Scans to average: 10
Electric dark correction enabled: true
Nonlinearity correction enabled: true
Boxcar width: 0
XAxis mode: Wavelengths
Number of Pixels in Spectrum: 2048
>>>>>Begin Spectral Data<<<<<
187.103	-101.06
187.574	-101.06
188.045	-101.06
188.516	-135.18
188.987	-105.04
189.458	-135.18
189.929	-130.92
190.4	-90.25
190.871	-102.48
191.342	-112.71
191.813	-69.22
192.284	-44.5
192.754	-31.43
193.225	19.96
193.696	22.52
194.166	39.26
194.637	64.79
195.107	102.23
195.578	127.18
196.048	165.71
196.518	173.93
196.989	179.59
197.459	203.38
197.929	233.95
198.399	254.05
198.869	280.92
199.339	312.88
199.809	324.47
200.279	331.53
200.749	313.16
201.219	355.27
201.689	345.95
202.159	360.64
202.628	398.49
203.098	395.1
203.568	409.79
204.037	404.14
204.507	383.52
204.976	380.98
205.445	437.17
205.915	370.81
206.384	420.52
206.853	403.29
207.323	395.39
207.792	386.35
208.261	407.53
208.73	387.48
209.199	374.77
209.668	394.26
210.137	405.55
210.606	360.92
211.075	376.74
211.543	385.22
212.012	395.95
212.481	372.51
212.95	348.49
213.418	361.21
213.887	383.81
214.355	356.12
214.824	384.65
215.292	390.58
215.76	375.05
216.229	365.44
216.697	371.38
217.165	400.19
217.633	350.75
218.101	342.27
218.569	381.26
219.037	367.99
219.505	372.22
219.973	364.88
220.441	380.98
220.909	349.62
221.377	360.64
221.844	374.77
222.312	343.12
222.78	381.83
223.247	377.03
223.715	327.58
224.182	368.55
224.65	350.19
225.117	363.18
225.584	347.08
226.052	367.14
226.519	335.77
226.986	338.6
227.453	375.05
227.92	349.34
228.387	372.22
228.854	397.65
229.321	334.36
229.788	370.25
230.255	353.29
230.722	366.29
231.189	367.42
231.655	353.01
232.122	352.73
232.589	349.62
233.055	375.61
233.522	377.03
233.988	382.96
234.454	377.87
234.921	373.35
235.387	353.86
235.853	383.81
236.32	380.98
236.786	394.82
237.252	377.59
237.718	382.11
238.184	380.98
238.65	354.71
239.116	375.9
239.582	380.13
240.047	373.92
240.513	377.87
240.979	373.92
241.445	390.02
241.91	357.53
242.376	342.56
242.841	365.44
243.307	374.2
243.772	399.06
244.238	366.29
244.703	357.82
245.168	384.09
245.633	385.78
246.099	371.09
246.564	382.96
247.029	380.7
247.494	364.03
247.959	384.37
248.424	402.16
248.889	379
249.353	388.89
249.818	380.13
250.283	397.36
250.748	380.7
251.212	370.25
251.677	413.46
252.141	410.92
252.606	367.7
253.07	408.38
253.535	356.97
253.999	388.89
254.463	376.18
254.927	378.72
255.392	371.09
255.856	379
256.32	368.27
256.784	376.46
257.248	359.51
257.712	397.08
258.176	390.3
258.64	394.54
259.103	382.39
259.567	402.45
260.031	380.98
260.495	367.14
260.958	381.83
261.422	388.04
261.885	417.98
262.349	372.79
262.812	404.99
263.275	362.9
263.739	399.34
264.202	400.47
264.665	388.33
265.128	385.22
265.591	385.78
266.054	375.33
266.517	417.98
266.98	390.3
267.443	373.35
267.906	392.84
268.369	378.44
268.832	374.77
269.294	374.2
269.757	370.53
270.22	397.36
270.682	393.97
271.145	379.57
271.607	390.3
272.07	399.06
272.532	358.38
272.994	382.11
273.456	380.7
273.919	398.49
274.381	391.15
274.843	403.01
275.305	408.66
275.767	381.55
276.229	391.71
276.691	423.34
277.153	382.11
277.614	387.48
278.076	377.31
278.538	379.29
279	412.33
279.461	401.88
279.923	392.28
280.384	398.49
280.846	381.55
281.307	361.21
281.769	410.07
282.23	409.79
282.691	415.15
283.152	402.73
283.613	392
284.075	377.59
284.536	412.05
284.997	407.25
285.458	376.46
285.918	387.76
286.379	406.4
286.84	377.59
287.301	403.58
287.762	408.38
288.222	408.38
288.683	383.24
289.143	393.97
289.604	398.77
290.064	396.23
290.525	412.33
290.985	406.96
291.445	404.7
291.906	424.19
292.366	410.35
292.826	389.74
293.286	410.92
293.746	410.07
294.206	386.35
294.666	392.56
295.126	390.02
295.586	395.1
296.046	401.32
296.506	388.61
296.965	393.41
297.425	393.41
297.884	410.07
298.344	376.18
298.804	380.98
299.263	390.3
299.722	391.71
300.182	408.09
300.641	402.16
301.1	397.08
301.559	396.8
302.019	406.4
302.478	379.85
302.937	415.15
303.396	416.85
303.855	397.08
304.314	395.1
304.772	395.39
305.231	393.13
305.69	406.12
306.149	390.3
306.607	400.47
307.066	382.68
307.524	405.83
307.983	405.83
308.441	416.28
308.9	374.77
309.358	401.32
309.816	390.3
310.275	390.58
310.733	417.13
311.191	405.55
311.649	399.62
312.107	410.63
312.565	411.2
313.023	385.78
313.481	382.39
313.939	378.44
314.397	399.34
314.854	396.8
315.312	422.77
315.77	402.16
316.227	413.18
316.685	404.14
317.142	377.31
317.6	416.85
318.057	406.12
318.514	401.03
318.972	410.35
319.429	418.26
319.886	391.15
320.343	391.15
320.8	399.62
321.257	396.23
321.714	410.35
322.171	398.21
322.628	413.74
323.085	395.95
323.542	415.43
323.998	416
324.455	416.56
324.912	393.13
325.368	399.34
325.825	407.53
326.281	406.4
326.738	423.34
327.194	400.19
327.65	414.59
328.107	383.52
328.563	408.09
329.019	410.63
329.475	413.46
329.931	417.41
330.387	379.29
330.843	441.4
331.299	417.13
331.755	382.11
332.211	437.17
332.666	423.34
333.122	407.81
333.578	407.81
334.033	430.68
334.489	411.76
334.944	407.25
335.4	386.91
335.855	410.35
336.31	417.98
336.766	408.94
337.221	448.74
337.676	403.29
338.131	402.73
338.586	425.6
339.041	413.18
339.496	396.8
339.951	407.81
340.406	442.82
340.861	417.41
341.316	406.12
341.771	421.08
342.225	417.98
342.68	402.45
343.134	416.85
343.589	430.11
344.043	421.08
344.498	404.14
344.952	438.58
345.406	421.36
345.861	434.35
346.315	440.28
346.769	432.94
347.223	419.95
347.677	414.87
348.131	415.43
348.585	417.13
349.039	425.32
349.493	417.98
349.947	429.83
350.401	407.25
350.854	417.41
351.308	422.77
351.762	436.04
352.215	426.16
352.669	437.74
353.122	415.15
353.575	393.69
354.029	421.65
354.482	421.93
354.935	404.14
355.388	405.55
355.842	415.15
356.295	403.58
356.748	428.7
357.201	397.08
357.654	421.65
358.106	396.8
358.559	409.79
359.012	399.9
359.465	410.63
359.917	430.4
360.37	418.26
360.823	405.27
361.275	447.33
361.728	412.61
362.18	424.75
362.632	436.61
363.085	405.83
363.537	441.69
363.989	401.03
364.441	448.74
364.893	431.53
365.345	421.36
365.797	427.86
366.249	430.68
366.701	418.26
367.153	454.95
367.605	426.73
368.057	430.96
368.508	434.91
368.96	422.49
369.411	438.3
369.863	428.7
370.314	441.69
370.766	403.86
371.217	412.05
371.669	405.27
372.12	429.83
372.571	426.73
373.022	434.07
373.473	407.53
373.924	412.05
374.375	414.87
374.826	434.63
375.277	412.05
375.728	444.79
376.179	415.15
376.63	401.03
377.08	413.74
377.531	421.08
377.981	415.72
378.432	424.75
378.883	417.41
379.333	427.29
379.783	431.24
380.234	420.52
380.684	438.58
381.134	410.63
381.584	397.65
382.034	422.21
382.485	468.49
382.935	433.5
383.385	437.74
383.834	420.52
384.284	420.52
384.734	405.27
385.184	400.75
385.634	430.11
386.083	427.01
386.533	443.38
386.982	444.79
387.432	427.01
387.881	431.81
388.331	402.16
388.78	428.7
389.229	425.32
389.679	413.46
390.128	410.07
390.577	440.28
391.026	434.35
391.475	432.66
391.924	428.42
392.373	451.28
392.822	401.03
393.27	429.27
393.719	445.92
394.168	436.89
394.617	419.1
395.065	429.55
395.514	440.28
395.962	447.9
396.411	415.72
396.859	418.82
397.307	448.18
397.756	428.14
398.204	447.9
398.652	445.92
399.1	442.82
399.548	449.87
399.996	452.69
400.444	433.22
400.892	456.64
401.34	443.1
401.788	461.16
402.236	461.16
402.683	462.85
403.131	467.08
403.579	454.67
404.026	465.96
404.474	467.93
404.921	457.21
405.369	461.72
405.816	469.06
406.263	474.98
406.71	511.37
407.158	502.06
407.605	454.39
408.052	479.5
408.499	485.42
408.946	499.52
409.393	517.85
409.84	519.83
410.286	513.06
410.733	529.98
411.18	546.89
411.626	583.24
412.073	635.9
412.52	689.93
412.966	780.73
413.413	921.09
413.859	1113.23
414.305	1318.29
414.752	1595.11
415.198	1945.73
415.644	2364.5
416.09	2872.03
416.536	3441.25
416.982	4108.33
417.428	4874.3
417.874	5686.99
418.32	6571.08
418.766	7475.53
419.211	8575.06
419.657	9551.52
420.103	10917.59
420.548	11702.94
420.994	13128.94
421.439	14331.13
421.885	15382.56
422.33	16851.1
422.776	18050.52
423.221	19101.01
423.666	20384.51
424.111	21872.78
424.556	22791.01
425.001	24330.09
425.446	25709.94
425.891	27149.94
426.336	28040.02
426.781	29362.07
427.226	31549.33
427.671	32177.63
428.115	33048.26
428.56	35010.72
429.005	36492.27
429.449	36912.57
429.894	38536.4
430.338	39780.41
430.782	39858.99
431.227	41527.8
431.671	41952.58
432.115	43438.87
432.559	44493.24
433.003	44413.51
433.447	45461.35
433.891	45776.08
434.335	46197.79
434.779	47020.39
435.223	47318.35
435.667	47154.24
436.111	48023.79
436.554	47816.64
436.998	47495.98
437.442	47463.25
437.885	49588.14
438.328	47980.63
438.772	48335.38
439.215	48915.49
439.659	48625.66
440.102	48947.38
440.545	48205.33
440.988	48131.24
441.431	48881.03
441.874	48479.26
442.317	48685.37
442.76	48316.83
443.203	47686.17
443.646	48282.05
444.089	47915.16
444.531	48636.78
444.974	47257.58
445.417	48453.2
445.859	47407.01
446.302	48669.6
446.744	47915.16
447.186	49209.84
447.629	48103.98
448.071	48089.07
448.513	48240.08
448.956	49601.46
449.398	48772.28
449.84	47497.01
450.282	48279.22
450.724	48800.24
451.166	48543.27
451.607	48396.98
452.049	48601.38
452.491	49572.74
452.933	49152.67
453.374	49751.23
453.816	50128.04
454.257	49818.75
454.699	50879.89
455.14	50656.37
455.582	50401.89
456.023	50281.69
456.464	50580.7
456.905	50989.13
457.347	51035.16
457.788	50137.24
458.229	50346.77
458.67	51320.88
459.111	49313.38
459.552	49468.38
459.992	49285.01
460.433	49128.51
460.874	48017.88
461.315	49237.93
461.755	48219.75
462.196	47739.21
462.636	47030.84
463.077	46657.78
463.517	46739.63
463.957	47110.37
464.398	46725.65
464.838	46849.78
465.278	45674.8
465.718	45874.13
466.158	44694.74
466.598	45131.35
467.038	44672.14
467.478	45204.6
467.918	45355.73
468.358	44630.23
468.798	44250.37
469.237	44126.92
469.677	44293.21
470.117	44877.85
470.556	42478.17
470.996	43015.32
471.435	43190.23
471.874	43894.99
472.314	43468.07
472.753	42547.52
473.192	42929.4
473.631	42393.19
474.07	42525.65
474.509	42684.28
474.948	42940.11
475.387	42119.31
475.826	41144.2
476.265	43185.49
476.704	42526.39
477.143	42944.34
477.581	42692.24
478.02	43132.91
478.458	41920.09
478.897	42441.64
479.335	43668.56
479.774	43176.27
480.212	43393.71
480.65	43289.21
481.089	42934.38
481.527	42518.94
481.965	41972.68
482.403	44062.09
482.841	43833.98
483.279	43811.74
483.717	43811.49
484.155	43369.76
484.592	43728.27
485.03	44003.54
485.468	42913.47
485.905	43080.58
486.343	43664.81
486.781	43100.02
487.218	42324.88
487.655	42288.62
488.093	41379.99
488.53	43062.89
488.967	42043.87
489.405	41805.3
489.842	40914.52
490.279	41064.82
490.716	40577.36
491.153	41198.12
491.59	40410.27
492.027	39752.08
492.463	39285.43
492.9	38614.73
493.337	38417.1
493.773	38630.94
494.21	37753.86
494.647	37570.06
495.083	36747.65
495.519	36322.32
495.956	36222.82
496.392	35557.68
496.828	35301.98
497.265	34705.87
497.701	34673.41
498.137	34458.68
498.573	33581.78
499.009	34000.54
499.445	33190.66
499.881	32789.58
500.316	32836.14
500.752	32190.31
501.188	31903.35
501.624	31894.33
502.059	30597.46
502.495	30373.02
502.93	30255.67
503.366	30573.07
503.801	29825.92
504.236	29613.79
504.672	29132.26
505.107	28742.36
505.542	28110.95
505.977	28113.64
506.412	27634.65
506.847	27928.98
507.282	27302.25
507.717	27079.65
508.152	27064.22
508.587	26722.7
509.021	26019.18
509.456	25673.11
509.891	25886.18
510.325	25724.67
510.76	25400.02
511.194	24972.91
511.628	25232.22
512.063	24315.08
512.497	24610.4
512.931	23958.24
513.366	23906.5
513.8	23734.49
514.234	23120.61
514.668	23190.2
515.102	23382.14
515.536	22475.75
515.969	22636.37
516.403	22231
516.837	21775.26
517.271	21868.57
517.704	21414.43
518.138	21309.62
518.571	21126.69
519.005	20840.74
519.438	20650.67
519.871	20466.21
520.305	20036.42
520.738	19926.54
521.171	19455.12
521.604	19628.08
522.037	19246.73
522.47	18962.72
522.903	18611.91
523.336	18522.1
523.769	18553.04
524.202	17786.9
524.634	17905.86
525.067	17668.4
525.5	17561.86
525.932	17329.68
526.365	16939.8
526.797	16848.35
527.23	16795.22
527.662	16257.7
528.094	16076.67
528.527	16134.18
528.959	15822.42
529.391	15510.88
529.823	15042.38
530.255	15072.11
530.687	14731.35
531.119	14565.62
531.551	14524.75
531.982	14097.22
532.414	13982.97
532.846	13598.44
533.277	13486.01
533.709	13146.18
534.14	13032.55
534.572	12923.95
535.003	12736.58
535.435	12502.81
535.866	12441.53
536.297	11997.39
536.728	12074.31
537.159	11938.27
537.59	11725.64
538.022	11569.74
538.452	11336.31
538.883	11155.32
539.314	11015.63
539.745	10831.54
540.176	10711.36
540.606	10402
541.037	10369.14
541.468	10203.44
541.898	10154.35
542.328	9976.88
542.759	9794.34
543.189	9656.99
543.619	9596.66
544.05	9362.85
544.48	9283.03
544.91	9203.95
545.34	8957.93
545.77	8888.27
546.2	8861.33
546.63	8702.96
547.06	8617.1
547.489	8439.77
547.919	8222.43
548.349	8216.7
548.778	8183.66
549.208	8061.03
549.637	7926.3
550.067	7802.66
550.496	7776.3
550.926	7602.35
551.355	7442.05
551.784	7495.94
552.213	7293.86
552.642	7203.71
553.071	7115.59
553.5	7101.69
553.929	6835.36
554.358	6883.2
554.787	6701.45
555.216	6740.93
555.645	6602.96
556.073	6510.19
556.502	6409.43
556.93	6267.64
557.359	6224.04
557.787	6218.49
558.216	6134.93
558.644	6037.81
559.072	5983.53
559.5	5914.9
559.929	5900.59
560.357	5870.63
560.785	5760.01
561.213	5712.49
561.641	5632.8
562.068	5629.87
562.496	5565.55
562.924	5522.2
563.352	5537.09
563.779	5450.88
564.207	5479.09
564.634	5402.96
565.062	5372.59
565.489	5284.38
565.917	5266.78
566.344	5196.63
566.771	5155.79
567.198	5113.34
567.625	5033.99
568.053	4979.98
568.48	4945.75
568.907	4860.38
569.333	4809.76
569.76	4653.2
570.187	4685.92
570.614	4570.26
571.04	4722.4
571.467	4504.44
571.894	4405.23
572.32	4273.06
572.747	4232.92
573.173	4168.22
573.599	4136.66
574.026	4035.71
574.452	3947.09
574.878	3950.07
575.304	3865.69
575.73	3799.38
576.156	3720.82
576.582	3685.85
577.008	3679.35
577.434	3585.22
577.86	3496.42
578.285	3473.05
578.711	3380.88
579.137	3361.29
579.562	3272.81
579.988	3268.46
580.413	3164.61
580.838	3125.33
581.264	3111.14
581.689	3049.99
582.114	3022.41
582.539	2968.58
582.964	2974.59
583.39	2896.11
583.814	2870.94
584.239	2766.33
584.664	2794.28
585.089	2737.01
585.514	2710.42
585.939	2658.03
586.363	2612.75
586.788	2555.36
587.212	2563.05
587.637	2502.6
588.061	2497.1
588.485	2420.37
588.91	2410.74
589.334	2344.39
589.758	2292.32
590.182	2325.11
590.606	2261.73
591.03	2249.87
591.454	2199.4
591.878	2155.52
592.302	2199.12
592.726	2127.36
593.15	2069.62
593.573	2062.99
593.997	2035.07
594.42	1983.36
594.844	2010.74
595.267	1988.89
595.691	1992.21
596.114	1898.66
596.537	1897.28
596.96	1913.61
597.384	1885.09
597.807	1847.14
598.23	1826.35
598.653	1831.06
599.076	1788.92
599.499	1748.42
599.921	1780.88
600.344	1745.92
600.767	1745.37
601.189	1747.87
601.612	1715.4
602.034	1686.24
602.457	1704.01
602.879	1689.58
603.302	1701.52
603.724	1659.86
604.146	1679.58
604.568	1614.01
604.991	1649.86
605.413	1631.8
605.835	1621.8
606.257	1595.95
606.678	1598.45
607.1	1621.8
607.522	1573.98
607.944	1584.55
608.365	1554.24
608.787	1556.18
609.209	1521.69
609.63	1518.35
610.051	1525.02
610.473	1486.06
610.894	1464.62
611.315	1466.01
611.737	1443.45
612.158	1423.12
612.579	1422
613	1409.74
613.421	1359.29
613.842	1374.06
614.263	1338.65
614.683	1346.46
615.104	1316.33
615.525	1259.95
615.945	1281.17
616.366	1264.42
616.787	1271.96
617.207	1238.73
617.627	1230.63
618.048	1189
618.468	1213.03
618.888	1173.07
619.308	1144.83
619.728	1141.48
620.148	1119.38
620.568	1110.71
620.988	1115.47
621.408	1100.36
621.828	1092.81
622.248	1082.45
622.668	1098.12
623.087	1072.1
623.507	1069.58
623.926	1059.78
624.346	1013.58
624.765	1019.46
625.185	985.84
625.604	993.69
626.023	1000.69
626.442	954.45
626.861	1000.69
627.28	965.94
627.699	955.01
628.118	930.34
628.537	916.32
628.956	918
629.375	916.32
629.794	938.75
630.212	889.67
630.631	896.68
631.049	877.04
631.468	901.73
631.886	880.41
632.305	863.57
632.723	854.03
633.141	844.21
633.559	845.33
633.978	858.24
634.396	813.04
634.814	844.21
635.232	800.96
635.65	822.02
636.067	823.43
636.485	820.9
636.903	802.36
637.321	835.22
637.738	793.1
638.156	745.04
638.573	755.72
638.991	742.79
639.408	775.11
639.825	716.36
640.243	765.84
640.66	734.64
641.077	745.6
641.494	766.4
641.911	743.92
642.328	749.26
642.745	712.71
643.162	730.7
643.579	695.27
643.995	701.18
644.412	700.05
644.829	706.24
645.245	697.8
645.662	728.46
646.078	676.42
646.495	688.24
646.911	690.21
647.327	701.18
647.743	668.83
648.159	657.01
648.576	670.51
648.992	664.6
649.408	668.54
649.824	672.48
650.239	642.09
650.655	662.92
651.071	614.78
651.487	653.63
651.902	580.98
652.318	608.02
652.733	621.82
653.149	636.18
653.564	621.54
653.979	612.53
654.395	621.26
654.81	604.64
655.225	615.63
655.64	587.46
656.055	597.04
656.47	605.49
656.885	592.25
657.3	576.19
657.715	606.9
658.13	582.67
658.544	593.38
658.959	589.43
659.374	590.28
659.788	599.86
660.202	540.41
660.617	583.24
661.031	570.84
661.445	562.67
661.86	584.36
662.274	590.84
662.688	572.81
663.102	577.6
663.516	548.86
663.93	556.47
664.344	535.9
664.758	553.09
665.171	548.3
665.585	558.72
665.999	569.15
666.412	548.58
666.826	535.33
667.239	576.76
667.653	524.62
668.066	543.51
668.479	547.73
668.892	528
669.306	542.94
669.719	523.49
670.132	524.62
670.545	535.9
670.958	548.02
671.37	556.75
671.783	531.67
672.196	518.13
672.609	513.34
673.021	511.37
673.434	529.41
673.846	516.72
674.259	520.11
674.671	491.91
675.084	530.26
675.496	516.72
675.908	525.18
676.32	513.91
676.732	481.19
677.144	502.06
677.556	522.93
677.968	504.04
678.38	513.06
678.792	491.63
679.204	512.5
679.615	486.27
680.027	464.26
680.439	516.44
680.85	524.06
681.262	482.6
681.673	487.11
682.084	485.99
682.496	496.7
682.907	478.65
683.318	467.65
683.729	491.34
684.14	478.65
684.551	478.09
684.962	485.99
685.373	494.45
685.784	469.06
686.194	500.65
686.605	484.86
687.016	503.19
687.426	474.42
687.837	467.08
688.247	492.75
688.657	457.49
689.068	481.75
689.478	456.08
689.888	467.93
690.298	453.54
690.708	470.75
691.118	456.36
691.528	461.16
691.938	467.37
692.348	451.85
692.758	475.55
693.168	452.13
693.577	475.55
693.987	469.34
694.396	450.44
694.806	444.23
695.215	482.04
695.625	453.82
696.034	456.36
696.443	468.78
696.852	462.57
697.262	446.77
697.671	441.4
698.08	429.55
698.489	433.5
698.897	443.95
699.306	441.97
699.715	478.09
700.124	443.95
700.532	470.47
700.941	442.53
701.35	431.81
701.758	445.07
702.166	449.31
702.575	465.67
702.983	451
703.391	452.13
703.799	445.07
704.208	436.04
704.616	421.65
705.024	450.15
705.432	432.09
705.839	470.47
706.247	420.52
706.655	407.81
707.063	465.39
707.47	407.25
707.878	429.83
708.285	412.61
708.693	431.81
709.1	433.5
709.508	453.54
709.915	428.99
710.322	464.83
710.729	434.07
711.136	436.32
711.543	432.37
711.95	410.07
712.357	436.89
712.764	409.51
713.171	404.99
713.578	412.61
713.984	416.56
714.391	419.39
714.797	406.68
715.204	411.2
715.61	423.34
716.017	435.76
716.423	455.23
716.829	417.69
717.236	438.86
717.642	415.15
718.048	405.55
718.454	427.01
718.86	387.76
719.266	424.75
719.671	447.9
720.077	419.39
720.483	384.09
720.889	442.25
721.294	415.43
721.7	410.63
722.105	429.55
722.511	422.77
722.916	423.62
723.321	419.1
723.726	430.96
724.132	437.74
724.537	406.4
724.942	439.43
725.347	434.07
725.752	424.47
726.156	441.12
726.561	431.81
726.966	395.39
727.371	445.36
727.775	407.25
728.18	430.11
728.584	432.94
728.989	397.36
729.393	438.58
729.798	387.2
730.202	417.13
730.606	389.46
731.01	396.52
731.414	402.45
731.818	402.45
732.222	415.15
732.626	447.33
733.03	406.96
733.434	413.46
733.837	417.69
734.241	419.67
734.645	422.77
735.048	410.92
735.452	425.6
735.855	411.76
736.258	411.2
736.662	379.57
737.065	402.73
737.468	406.96
737.871	421.36
738.274	406.4
738.677	397.36
739.08	401.32
739.483	423.34
739.886	413.46
740.289	418.26
740.691	429.55
741.094	390.58
741.497	416.85
741.899	406.4
742.302	408.09
742.704	439.99
743.106	395.39
743.508	399.9
743.911	377.59
744.313	437.74
744.715	431.53
745.117	407.81
745.519	420.23
745.921	387.76
746.323	397.65
746.724	426.16
747.126	402.16
747.528	378.16
747.929	380.13
748.331	422.21
748.732	386.35
749.134	444.23
749.535	391.15
749.936	384.09
750.338	401.6
750.739	391.71
751.14	418.26
751.541	419.95
751.942	395.95
752.343	407.25
752.744	398.77
753.144	430.11
753.545	408.66
753.946	402.73
754.346	405.83
754.747	394.82
755.148	429.55
755.548	385.22
755.948	370.53
756.349	403.29
756.749	412.89
757.149	386.91
757.549	418.54
757.949	427.57
758.349	397.36
758.749	441.97
759.149	399.9
759.549	410.92
759.949	382.39
760.348	403.29
760.748	401.03
761.148	393.69
761.547	410.63
761.947	409.51
762.346	387.48
762.745	390.02
763.145	412.05
763.544	401.6
763.943	398.77
764.342	415.72
764.741	399.62
765.14	397.08
765.539	403.58
765.938	406.96
766.336	404.7
766.735	403.58
767.134	401.6
767.532	388.04
767.931	373.64
768.329	395.1
768.728	391.43
769.126	414.31
769.525	403.86
769.923	438.02
770.321	422.77
770.719	379.85
771.117	408.09
771.515	414.59
771.913	397.65
772.311	398.49
772.709	375.05
773.106	414.02
773.504	432.66
773.902	394.54
774.299	388.61
774.697	387.2
775.094	389.17
775.491	394.54
775.889	393.13
776.286	427.57
776.683	414.31
777.08	390.3
777.477	409.22
777.874	414.31
778.271	401.6
778.668	390.87
779.065	404.14
779.462	404.99
779.858	379.29
780.255	385.22
780.652	382.96
781.048	400.75
781.444	380.42
781.841	393.41
782.237	377.87
782.633	389.17
783.03	392.84
783.426	394.26
783.822	398.21
784.218	409.51
784.614	407.81
785.01	407.53
785.405	399.62
785.801	392.84
786.197	399.34
786.593	382.68
786.988	387.2
787.384	401.6
787.779	403.58
788.174	410.92
788.57	381.26
788.965	379.57
789.36	406.96
789.755	383.81
790.15	383.52
790.545	408.38
790.94	401.6
791.335	384.09
791.73	399.62
792.125	401.32
792.52	399.62
792.914	390.87
793.309	390.58
793.703	399.9
794.098	402.16
794.492	412.89
794.887	387.48
795.281	383.81
795.675	378.16
796.069	384.94
796.463	406.96
796.857	396.8
797.251	387.76
797.645	401.6
798.039	395.67
798.433	403.29
798.826	401.32
799.22	394.82
799.614	368.83
800.007	377.03
800.401	392.56
800.794	414.02
801.187	395.39
801.581	398.21
801.974	371.38
802.367	399.9
802.76	410.35
803.153	379.57
803.546	378.16
803.939	381.26
804.332	409.51
804.725	384.65
805.117	406.96
805.51	408.66
805.903	369.12
806.295	416.28
806.688	393.97
807.08	414.59
807.472	398.21
807.865	365.44
808.257	413.18
808.649	388.89
809.041	385.5
809.433	375.9
809.825	380.13
810.217	360.08
810.609	420.8
811.001	407.53
811.392	378.44
811.784	401.03
812.175	386.91
812.567	381.26
812.958	391.71
813.35	371.09
813.741	406.68
814.132	401.03
814.524	404.99
814.915	384.65
815.306	397.36
815.697	390.87
816.088	379.29
816.479	369.96
816.87	408.94
817.26	392
817.651	388.61
818.042	390.02
818.432	403.86
818.823	400.19
819.213	395.39
819.604	401.6
819.994	406.68
820.384	400.75
820.775	386.91
821.165	412.05
821.555	369.96
821.945	397.36
822.335	366.29
822.725	407.81
823.114	391.15
823.504	403.58
823.894	394.26
824.284	389.46
824.673	398.77
825.063	380.13
825.452	410.92
825.842	397.65
826.231	364.03
826.62	395.39
827.009	395.1
827.399	394.82
827.788	384.09
828.177	392.28
828.566	376.74
828.954	388.61
829.343	416.56
829.732	393.69
830.121	413.46
830.509	401.6
830.898	394.54
831.286	374.77
831.675	395.1
832.063	378.16
832.452	412.05
832.84	376.46
833.228	386.35
833.616	374.77
834.004	407.53
834.392	371.94
834.78	372.22
835.168	380.7
835.556	364.88
835.944	390.3
836.331	386.07
836.719	396.23
837.107	388.33
837.494	395.1
837.881	399.06
838.269	399.06
838.656	380.42
839.043	386.35
839.431	375.61
839.818	401.03
840.205	369.4
840.592	388.89
840.979	375.33
841.366	403.58
841.752	401.03
842.139	390.58
842.526	375.9
842.912	373.92
843.299	366.01
843.685	393.69
844.072	388.04
844.458	371.38
844.844	394.26
845.231	402.16
845.617	397.08
846.003	407.53
846.389	361.77
846.775	404.14
847.161	409.79
847.547	377.87
847.933	386.35
848.318	393.69
848.704	390.58
849.09	415.15
849.475	369.4
849.861	401.03
850.246	376.74
850.631	362.9
851.017	393.41
851.402	393.41
851.787	389.74
852.172	398.77
852.557	384.37
852.942	369.96
853.327	387.2
853.712	386.07
854.097	383.52
854.481	393.13
854.866	400.47
855.25	395.39
855.635	420.52
856.019	399.9
856.404	395.95
856.788	394.82
857.172	393.69
857.557	399.62
857.941	401.32
858.325	359.79
858.709	387.2
859.093	389.17
859.477	385.22
859.86	395.39
860.244	375.05
860.628	384.09
861.012	383.24
861.395	387.76
861.779	407.25
862.162	375.9
862.545	390.02
862.929	380.13
863.312	374.48
863.695	391.15
864.078	371.09
864.461	374.2
864.844	399.06
865.227	388.61
865.61	400.75
865.993	406.68
866.376	373.35
866.758	399.06
867.141	392.84
867.523	385.78
867.906	400.75
868.288	405.55
868.671	364.03
869.053	393.41
869.435	367.7
869.817	372.22
870.199	379.29
870.581	374.77
870.963	376.46
871.345	364.03
871.727	384.09
872.109	364.6
872.491	367.42
872.872	400.47
873.254	385.5
873.635	374.2
874.017	372.51
874.398	395.39
874.779	391.71
875.161	397.36
875.542	401.6
875.923	389.46
876.304	367.99
876.685	380.13
877.066	398.21
877.447	377.03
877.828	377.59
878.208	373.92
878.589	391.15
878.97	394.82
879.35	408.38
879.731	401.88
880.111	386.91
880.491	395.1
880.872	378.72
881.252	374.2
881.632	384.37
882.012	388.33
882.392	384.65
882.772	385.78
883.152	396.23
883.532	402.45
883.912	396.23
884.291	395.1
884.671	380.42
885.051	388.89
885.43	383.52
885.81	396.8
886.189	386.35
886.568	381.55
886.948	374.2
887.327	383.52
887.706	386.63
888.085	402.45
888.464	396.8
888.843	367.14
889.222	380.98
889.601	398.21
889.979	395.1
890.358	405.83
890.737	377.31
891.115	390.3
891.494	399.62
891.872	381.26
892.25	395.39
892.629	379.85
893.007	408.66
893.385	403.58
893.763	379.57
894.141	377.59
894.519	383.52
894.897	389.74
895.275	377.03
895.653	379.85
896.03	384.37
896.408	373.07
896.786	392.56
897.163	395.39
897.541	360.64
897.918	357.53
898.295	404.42
898.673	360.08
899.05	369.12
899.427	399.34
899.804	357.25
900.181	379.29
900.558	358.95
900.935	365.73
901.312	354.71
901.688	385.78
902.065	382.39
902.442	383.81
902.818	394.26
903.195	367.99
903.571	371.94
903.947	364.88
904.324	367.14
904.7	359.51
905.076	375.05
905.452	393.69
905.828	382.11
906.204	386.63
906.58	380.42
906.956	384.94
907.331	378.44
907.707	364.6
908.083	371.94
908.458	391.15
908.834	370.53
909.209	371.94
909.585	390.87
909.96	369.4
910.335	382.39
910.71	383.52
911.086	369.68
911.461	390.3
911.836	378.16
912.21	393.41
912.585	381.26
912.96	379.29
913.335	363.47
913.709	364.6
914.084	378.16
914.459	355.84
914.833	359.23
915.207	379.85
915.582	386.35
915.956	375.9
916.33	373.64
916.704	392
917.078	407.81
917.452	384.37
917.826	393.69
918.2	368.55
918.574	372.79
918.948	386.07
919.321	382.39
919.695	383.24
920.068	389.74
920.442	394.54
920.815	403.01
921.189	406.4
921.562	391.71
921.935	385.22
922.308	386.07
922.681	388.04
923.054	381.83
923.427	375.33
923.8	362.9
924.173	371.09
924.546	377.59
924.919	374.2
925.291	382.39
925.664	379.85
926.036	385.5
926.409	395.95
926.781	343.4
927.153	363.75
927.526	382.39
927.898	359.23
928.27	360.36
928.642	374.48
929.014	384.94
929.386	388.04
929.758	359.51
930.129	362.05
930.501	388.89
930.873	380.7
931.244	381.55
931.616	377.03
931.987	376.18
932.359	365.73
932.73	402.45
933.101	370.81
933.472	397.36
933.843	380.42
934.214	393.41
934.585	377.03
934.956	384.09
935.327	404.99
935.698	379.85
936.069	389.46
936.439	390.58
936.81	364.03
937.18	377.87
937.551	366.29
937.921	387.48
938.292	406.12
938.662	386.35
939.032	400.47
939.402	387.48
939.772	390.02
940.142	349.9
940.512	361.77
940.882	362.9
941.252	399.9
941.621	388.89
941.991	377.59
942.361	404.14
942.73	388.33
943.1	391.43
943.469	367.7
943.838	381.55
944.208	371.09
944.577	368.83
944.946	383.24
945.315	365.44
945.684	374.2
946.053	379.57
946.422	398.49
946.791	400.47
947.159	392.28
947.528	381.55
947.897	376.74
948.265	382.39
948.634	388.61
949.002	382.68
949.371	380.7
949.739	347.64
950.107	375.9
950.475	394.26
950.843	389.46
951.211	369.4
951.579	370.53
951.947	372.51
952.315	413.74
952.683	414.87
953.05	361.21
953.418	373.64
953.785	366.01
954.153	379.57
954.52	373.92
954.888	401.03
955.255	368.27
955.622	369.12
955.989	370.25
956.356	392.56
956.723	373.92
957.09	368.83
957.457	365.73
957.824	354.71
958.191	400.75
958.557	371.38
958.924	351.03
959.291	375.61
959.657	380.98
960.023	380.42
960.39	368.83
960.756	380.13
961.122	382.11
961.488	404.7
961.855	377.31
962.221	362.05
962.586	375.61
962.952	369.12
963.318	379.85
963.684	382.96
964.05	356.97
964.415	377.03
964.781	411.2
965.146	404.42
965.512	356.97
965.877	394.54
966.242	380.13
966.608	371.38
966.973	393.69
967.338	348.49
967.703	368.55
968.068	393.97
968.433	377.59
968.797	393.13
969.162	375.9
969.527	374.48
969.891	373.07
970.256	358.66
970.62	372.22
970.985	386.91
971.349	401.03
971.714	369.12
972.078	358.1
972.442	352.16
972.806	353.29
973.17	386.07
973.534	376.18
973.898	414.02
974.262	388.89
974.625	347.36
974.989	373.92
975.353	361.77
975.716	365.73
976.08	367.14
976.443	368.83
976.806	378.44
977.17	365.73
977.533	358.66
977.896	381.26
978.259	379
978.622	375.9
978.985	384.09
979.348	380.42
979.711	355.84
980.073	368.55
980.436	371.66
980.799	373.64
981.161	376.18
981.524	355.27
981.886	360.36
982.248	383.81
982.611	391.15
982.973	368.55
983.335	371.38
983.697	404.99
984.059	369.68
984.421	378.44
984.783	364.31
985.145	367.7
985.506	376.46
985.868	389.46
986.23	364.88
986.591	365.44
986.953	378.16
987.314	386.35
987.675	378.44
988.037	517.29
988.398	379
988.759	402.73
989.12	385.22
989.481	394.54
989.842	401.6
990.203	368.83
990.564	351.88
990.924	381.83
991.285	489.93
991.646	354.14
992.006	384.94
992.367	361.49
992.727	349.34
993.087	389.17
993.448	376.74
993.808	366.01
994.168	382.68
994.528	364.31
994.888	358.95
995.248	376.46
995.608	370.25
995.967	362.62
996.327	375.33
996.687	358.95
997.046	361.21
997.406	363.18
997.765	375.33
998.125	364.6
998.484	375.61
998.843	387.76
999.202	376.18
999.561	371.94
999.92	382.39
1000.279	381.83
1000.638	379.57
1000.997	406.12
1001.356	387.76
1001.715	380.13
1002.073	361.49
1002.432	360.08
1002.79	371.66
1003.149	358.38
1003.507	389.74
1003.865	357.53
1004.224	373.07
1004.582	395.67
1004.94	363.75
1005.298	384.65
1005.656	368.55
1006.014	364.03
1006.371	390.02
1006.729	375.33
1007.087	368.27
1007.445	364.88
1007.802	376.74
1008.16	348.21
1008.517	377.31
1008.874	377.59
1009.232	384.65
1009.589	406.4
1009.946	386.07
1010.303	365.16
1010.66	358.95
1011.017	376.18
1011.374	377.87
1011.731	369.12
1012.087	354.42
1012.444	374.48
1012.801	351.03
1013.157	393.13
1013.513	364.6
1013.87	400.47
1014.226	371.09
1014.582	377.59
1014.939	343.4
1015.295	365.44
1015.651	370.53
1016.007	349.62
1016.363	373.07
1016.719	389.74
1017.074	368.27
1017.43	362.62
1017.786	384.94
1018.141	386.91
1018.497	370.81
1018.852	362.62
1019.208	388.04
1019.563	379.29
1019.918	380.7
1020.273	370.25
1020.628	379.85
1020.983	360.36
1021.338	366.57
1021.693	371.09
1022.048	371.38
1022.403	361.21
1022.757	381.55
1023.112	367.99
1023.467	365.44
1023.821	370.81
1024.175	382.96
1024.53	373.07
1024.884	403.58
1025.238	381.26
1025.592	369.96
1025.946	367.99
1026.3	353.58
1026.654	356.97
1027.008	338.03
1027.362	366.29
1027.716	369.12
1028.069	349.62
1028.423	343.12
1028.777	370.81
1029.13	361.49
1029.483	380.13
1029.837	367.7
1030.19	354.71
1030.543	353.58
1030.896	382.11
1031.249	359.79
1031.602	359.51
1031.955	347.93
1032.308	373.35
1032.661	389.46
1033.013	384.37
1033.366	366.01
1033.719	352.16
1034.071	355.56
1034.424	377.03
1034.776	374.77
1035.128	371.09
1035.48	364.31
1035.833	360.92
1036.185	384.94
1036.537	384.94
1036.889	384.94
