Data from SCSF78-405_irradiation_FLMS019251_16-13-27-859.txt Node
Date: Fri Feb 22 16:13:27 PST 2019
User: mu3e
Spectrometer: FLMS01925
Trigger mode: 0
Integration Time (sec): 1.206000E-2
Scans to average: 10
Electric dark correction enabled: true
Nonlinearity correction enabled: true
Boxcar width: 0
XAxis mode: Wavelengths
Number of Pixels in Spectrum: 2048
>>>>>Begin Spectral Data<<<<<
187.103	-86.06
187.574	-86.06
188.045	-86.06
188.516	-140.09
188.987	-110.23
189.458	-145.78
189.929	-96.01
190.4	-109.09
190.871	-93.45
191.342	-98.28
191.813	-62.47
192.284	-59.35
192.754	-7.65
193.225	17.33
193.696	21.88
194.166	44.01
194.637	70.68
195.107	92.23
195.578	129.09
196.048	124.27
196.518	171.59
196.989	186.89
197.459	205.86
197.929	246.33
198.399	264.16
198.869	264.16
199.339	303.19
199.809	309.41
200.279	311.39
200.749	352.94
201.219	347.29
201.689	345.03
202.159	372.15
202.628	369.89
203.098	365.66
203.568	402.38
204.037	382.32
204.507	400.4
204.976	384.02
205.445	397.57
205.915	415.65
206.384	382.61
206.853	390.23
207.323	389.67
207.792	404.35
208.261	378.37
208.73	397.29
209.199	390.23
209.668	377.52
210.137	400.96
210.606	396.73
211.075	362.55
211.543	387.97
212.012	376.96
212.481	377.8
212.95	384.58
213.418	370.74
213.887	385.43
214.355	364.24
214.824	367.35
215.292	360.57
215.76	346.72
216.229	356.33
216.697	348.7
217.165	363.68
217.633	349.55
218.101	373.57
218.569	356.33
219.037	359.44
219.505	349.55
219.973	351.53
220.441	349.83
220.909	349.27
221.377	336.27
221.844	358.59
222.312	355.77
222.78	358.59
223.247	358.59
223.715	348.42
224.182	373
224.65	339.94
225.117	378.37
225.584	349.55
226.052	367.63
226.519	344.18
226.986	355.77
227.453	350.68
227.92	348.99
228.387	356.9
228.854	371.02
229.321	344.18
229.788	341.35
230.255	356.61
230.722	348.42
231.189	384.87
231.655	346.72
232.122	369.61
232.589	357.18
233.055	341.35
233.522	350.68
233.988	375.54
234.454	375.26
234.921	373.28
235.387	378.37
235.853	379.78
236.32	390.23
236.786	362.83
237.252	362.55
237.718	376.67
238.184	379.78
238.65	373.85
239.116	352.94
239.582	374.7
240.047	350.96
240.513	348.7
240.979	364.53
241.445	370.46
241.91	344.18
242.376	373.57
242.841	355.77
243.307	360.57
243.772	368.48
244.238	365.66
244.703	360.29
245.168	389.67
245.633	395.88
246.099	386.84
246.564	389.1
247.029	364.53
247.494	370.74
247.959	377.24
248.424	368.2
248.889	368.2
249.353	376.67
249.818	382.89
250.283	388.82
250.748	361.14
251.212	380.06
251.677	378.09
252.141	376.11
252.606	357.46
253.07	381.76
253.535	367.63
253.999	367.07
254.463	391.64
254.927	390.51
255.392	365.09
255.856	370.18
256.32	369.33
256.784	380.63
257.248	369.61
257.712	405.2
258.176	378.37
258.64	398.99
259.103	374.13
259.567	371.59
260.031	379.5
260.495	363.96
260.958	387.69
261.422	389.1
261.885	374.41
262.349	387.69
262.812	374.41
263.275	392.21
263.739	371.02
264.202	363.11
264.665	382.61
265.128	370.74
265.591	361.14
266.054	358.59
266.517	398.99
266.98	375.83
267.443	363.11
267.906	386
268.369	372.15
268.832	384.58
269.294	384.02
269.757	373.85
270.22	391.08
270.682	389.67
271.145	402.94
271.607	384.58
272.07	401.25
272.532	386.28
272.994	413.39
273.456	382.61
273.919	380.91
274.381	369.89
274.843	387.41
275.305	395.03
275.767	383.17
276.229	382.04
276.691	386.84
277.153	368.76
277.614	380.06
278.076	397.57
278.538	374.7
279	377.24
279.461	366.22
279.923	412.82
280.384	388.25
280.846	387.41
281.307	395.6
281.769	389.95
282.23	358.88
282.691	391.64
283.152	395.32
283.613	389.67
284.075	402.94
284.536	387.41
284.997	387.69
285.458	399.83
285.918	382.61
286.379	370.18
286.84	384.3
287.301	399.55
287.762	401.81
288.222	391.36
288.683	371.31
289.143	386.84
289.604	406.33
290.064	398.42
290.525	385.43
290.985	392.77
291.445	392.21
291.906	385.71
292.366	403.5
292.826	395.32
293.286	373
293.746	388.25
294.206	386.28
294.666	366.5
295.126	375.83
295.586	404.07
296.046	397.86
296.506	388.54
296.965	398.42
297.425	432.02
297.884	425.81
298.344	405.76
298.804	376.67
299.263	405.76
299.722	396.73
300.182	395.32
300.641	396.73
301.1	407.74
301.559	381.76
302.019	409.15
302.478	407.18
302.937	415.93
303.396	386
303.855	387.97
304.314	416.78
304.772	420.45
305.231	409.43
305.69	370.74
306.149	397.86
306.607	393.9
307.066	394.75
307.524	406.89
307.983	377.24
308.441	430.89
308.9	392.49
309.358	412.54
309.816	409.43
310.275	413.39
310.733	380.63
311.191	392.77
311.649	397.57
312.107	403.79
312.565	390.23
313.023	376.39
313.481	377.8
313.939	406.61
314.397	409.72
314.854	402.66
315.312	424.12
315.77	396.73
316.227	403.79
316.685	393.9
317.142	410.28
317.6	430.33
318.057	385.43
318.514	391.93
318.972	396.73
319.429	414.23
319.886	406.61
320.343	400.4
320.8	407.46
321.257	415.36
321.714	395.88
322.171	413.39
322.628	393.34
323.085	401.25
323.542	409.43
323.998	417.9
324.455	382.89
324.912	400.96
325.368	397.01
325.825	398.7
326.281	397.57
326.738	398.42
327.194	402.09
327.65	409.43
328.107	395.88
328.563	398.99
329.019	402.94
329.475	418.47
329.931	408.31
330.387	410.85
330.843	381.76
331.299	418.75
331.755	425.81
332.211	383.74
332.666	415.65
333.122	401.81
333.578	405.48
334.033	405.76
334.489	437.38
334.944	425.81
335.4	408.87
335.855	406.05
336.31	402.09
336.766	413.67
337.221	408.31
337.676	399.27
338.131	392.21
338.586	402.94
339.041	403.5
339.496	407.18
339.951	446.98
340.406	387.41
340.861	415.65
341.316	414.23
341.771	402.38
342.225	404.07
342.68	388.82
343.134	431.74
343.589	381.48
344.043	408.59
344.498	404.35
344.952	397.01
345.406	402.38
345.861	379.78
346.315	425.25
346.769	419.32
347.223	423.55
347.677	402.66
348.131	409.43
348.585	392.77
349.039	419.32
349.493	415.36
349.947	408.87
350.401	419.32
350.854	385.71
351.308	425.25
351.762	403.5
352.215	411.98
352.669	433.71
353.122	425.25
353.575	428.63
354.029	434.28
354.482	405.76
354.935	424.4
355.388	416.78
355.842	408.59
356.295	441.62
356.748	424.68
357.201	403.5
357.654	406.61
358.106	409.72
358.559	414.23
359.012	398.42
359.465	407.46
359.917	407.46
360.37	433.15
360.823	402.38
361.275	411.69
361.728	427.5
362.18	406.33
362.632	412.82
363.085	402.38
363.537	408.59
363.989	412.26
364.441	415.36
364.893	417.06
365.345	407.74
365.797	412.82
366.249	426.66
366.701	429.76
367.153	448.39
367.605	421.29
368.057	424.4
368.508	437.67
368.96	397.29
369.411	420.16
369.863	393.62
370.314	404.63
370.766	419.03
371.217	419.88
371.669	410
372.12	426.37
372.571	439.92
373.022	417.06
373.473	431.46
373.924	396.44
374.375	425.25
374.826	439.36
375.277	449.52
375.728	432.87
376.179	420.16
376.63	410.56
377.08	403.22
377.531	388.82
377.981	423.83
378.432	430.33
378.883	420.45
379.333	411.98
379.783	411.69
380.234	419.6
380.684	404.35
381.134	409.72
381.584	423.27
382.034	421.29
382.485	430.04
382.935	425.53
383.385	441.05
383.834	426.37
384.284	448.11
384.734	414.52
385.184	410
385.634	443.03
386.083	435.41
386.533	413.95
386.982	429.48
387.432	424.96
387.881	427.22
388.331	411.69
388.78	424.68
389.229	408.31
389.679	421.86
390.128	402.94
390.577	434
391.026	441.33
391.475	426.66
391.924	452.91
392.373	417.9
392.822	443.31
393.27	429.2
393.719	434.56
394.168	438.23
394.617	438.23
395.065	432.02
395.514	433.15
395.962	415.08
396.411	446.13
396.859	423.55
397.307	441.9
397.756	435.69
398.204	462.22
398.652	462.78
399.1	446.41
399.548	418.47
399.996	437.95
400.444	443.59
400.892	446.41
401.34	451.78
401.788	475.2
402.236	454.32
402.683	443.03
403.131	482.81
403.579	466.17
404.026	471.53
404.474	467.58
404.921	469.55
405.369	442.18
405.816	452.34
406.263	471.53
406.71	467.58
407.158	483.09
407.605	486.48
408.052	485.35
408.499	476.61
408.946	493.53
409.393	500.02
409.84	481.12
410.286	517.78
410.733	504.53
411.18	538.93
411.626	580.35
412.073	619.78
412.52	683.67
412.966	781.51
413.413	923.82
413.859	1058.03
414.305	1294.22
414.752	1577.25
415.198	1884.74
415.644	2299.7
416.09	2792.29
416.536	3340.27
416.982	4008.64
417.428	4682.64
417.874	5520.27
418.32	6357.64
418.766	7179
419.211	8322.23
419.657	9254.29
420.103	10430.69
420.548	11365.89
420.994	12684.7
421.439	13753.26
421.885	14805.17
422.33	16319.63
422.776	17380.92
423.221	18331.88
423.666	19660.61
424.111	20929.24
424.556	21873.95
425.001	23350.76
425.446	24798.27
425.891	26026.24
426.336	26930.66
426.781	28054.88
427.226	30339.29
427.671	30920.1
428.115	31735.79
428.56	33557.09
429.005	35037.75
429.449	35491.43
429.894	36931.85
430.338	38085.05
430.782	38087.75
431.227	39700.55
431.671	40170.45
432.115	41535.41
432.559	42626.77
433.003	42471.15
433.447	43434.07
433.891	43854.67
434.335	44296.65
434.779	45129.03
435.223	45117.95
435.667	45332.49
436.111	45798.75
436.554	45812.4
436.998	45280.59
437.442	45461.54
437.885	47371.68
438.328	45970.41
438.772	46077.7
439.215	46703.47
439.659	46464.2
440.102	46703.98
440.545	45941.58
440.988	45819.98
441.431	46582.01
441.874	46197.22
442.317	46623.67
442.76	46153.65
443.203	45425.74
443.646	46242.57
444.089	45774.5
444.531	46428.17
444.974	45214.61
445.417	46324.69
445.859	45293.94
446.302	46353.34
446.744	45766.16
447.186	46833.43
447.629	45808.1
448.071	45817.96
448.513	45899.85
448.956	47321.86
449.398	46428.17
449.84	45207.56
450.282	45946.89
450.724	46575.66
451.166	46197.22
451.607	46027.08
452.049	46240.29
452.491	47249.6
452.933	46834.19
453.374	47298.88
453.816	47969.01
454.257	47600.57
454.699	48587.88
455.14	48315.47
455.582	48172.59
456.023	47980.83
456.464	48093.89
456.905	48686.08
457.347	48590.46
457.788	47658.7
458.229	47955.66
458.67	48913.87
459.111	46826.31
459.552	47035.11
459.992	47053.71
460.433	46720.75
460.874	45737.11
461.315	46960.46
461.755	45915.78
462.196	45384.9
462.636	44761.47
463.077	44419.46
463.517	44526.29
463.957	44917.25
464.398	44395.39
464.838	44519.52
465.278	43531.65
465.718	43630.53
466.158	42609.86
466.598	42973.66
467.038	42475.13
467.478	42878.8
467.918	43197.89
468.358	42334.75
468.798	42018.75
469.237	42004.86
469.677	41931.44
470.117	42705.36
470.556	40360.86
470.996	40898.39
471.435	41000.47
471.874	41716.01
472.314	41473.75
472.753	40481.03
473.192	40627.42
473.631	40294.99
474.07	40571.87
474.509	40657.05
474.948	40697.79
475.387	40156.15
475.826	39129.7
476.265	40932.5
476.704	40453.88
477.143	40673.84
477.581	40535.33
478.02	41020.25
478.458	39778.62
478.897	40382.32
479.335	41467.07
479.774	40905.31
480.212	41209.44
480.65	41031.62
481.089	40727.93
481.527	40413.17
481.965	39914.36
482.403	41886.8
482.841	41465.09
483.279	41543.09
483.717	41459.89
484.155	41267.33
484.592	41529.72
485.03	41701.88
485.468	40757.81
485.905	40973.53
486.343	41381.91
486.781	40755.84
487.218	40120.89
487.655	40090.08
488.093	39283.65
488.53	40662.23
488.967	39809.41
489.405	39600.35
489.842	38839.18
490.279	38840.16
490.716	38406.97
491.153	38895.45
491.59	38309.05
492.027	37684.68
492.463	37328.22
492.9	36571.46
493.337	36405.4
493.773	36429.85
494.21	35583.02
494.647	35500.22
495.083	34863.47
495.519	34432.27
495.956	34421.53
496.392	33716.09
496.828	33506.37
497.265	32694.92
497.701	32908.25
498.137	32645.18
498.573	31754.56
499.009	32358.72
499.445	31447.1
499.881	30873.52
500.316	31160.57
500.752	30370.77
501.188	30185.82
501.624	30151.66
502.059	28912.35
502.495	28716.88
502.93	28682.43
503.366	28841.5
503.801	28247.33
504.236	27925.98
504.672	27557.99
505.107	27204
505.542	26525.08
505.977	26621.66
506.412	26208.02
506.847	26485.12
507.282	25858.39
507.717	25511.47
508.152	25643.34
508.587	25279.09
509.021	24540.46
509.456	24424.55
509.891	24450.89
510.325	24294.09
510.76	24024.2
511.194	23625.23
511.628	23815.51
512.063	23053.41
512.497	23184.46
512.931	22720.55
513.366	22515.73
513.8	22562.43
514.234	21882.62
514.668	21904.64
515.102	22058.3
515.536	21193.07
515.969	21332.6
516.403	20822.57
516.837	20512.58
517.271	20657.06
517.704	20202.37
518.138	20173.05
518.571	19956.56
519.005	19621.8
519.438	19544.66
519.871	19266.59
520.305	18973.37
520.738	18794.4
521.171	18325.14
521.604	18485.86
522.037	18252.74
522.47	17903.3
522.903	17595.56
523.336	17510.52
523.769	17412.45
524.202	16942.25
524.634	16978.32
525.067	16656.27
525.5	16519.35
525.932	16382.87
526.365	15986.94
526.797	15955.54
527.23	15892.22
527.662	15286.34
528.094	15184.37
528.527	15078.34
528.959	14893.39
529.391	14579.19
529.823	14243.18
530.255	14235.1
530.687	13966.73
531.119	13763.64
531.551	13665.96
531.982	13350.93
532.414	13217.87
532.846	12867.28
533.277	12755.82
533.709	12417.56
534.14	12319.38
534.572	12224.46
535.003	12058.46
535.435	11873.98
535.866	11685.78
536.297	11370.49
536.728	11420.05
537.159	11272.36
537.59	11051.91
538.022	10889.36
538.452	10664.13
538.883	10520.25
539.314	10409.89
539.745	10151.97
540.176	10089.23
540.606	9803.55
541.037	9900.38
541.468	9642.23
541.898	9529.27
542.328	9466.31
542.759	9255.84
543.189	9167.95
543.619	9033.96
544.05	8851.68
544.48	8765.9
544.91	8658.02
545.34	8510.35
545.77	8378.12
546.2	8278.81
546.63	8160.69
547.06	8143.77
547.489	7984.62
547.919	7751.69
548.349	7753
548.778	7717.75
549.208	7553.93
549.637	7449.04
550.067	7305.05
550.496	7302.43
550.926	7197.09
551.355	7036.54
551.784	7069.61
552.213	6827.14
552.642	6790.85
553.071	6766.65
553.5	6698.49
553.929	6451.58
554.358	6469.52
554.787	6353.68
555.216	6376.91
555.645	6224.77
556.073	6098.09
556.502	6027.69
556.93	5938.42
557.359	5873.48
557.787	5843.78
558.216	5752.51
558.644	5731.8
559.072	5623.43
559.5	5555.11
559.929	5554.31
560.357	5449.75
560.785	5451.35
561.213	5442.3
561.641	5262.45
562.068	5261.91
562.496	5239.51
562.924	5211.77
563.352	5129.83
563.779	5122.88
564.207	5210.97
564.634	5055.83
565.062	5035.52
565.489	4969.75
565.917	4969.75
566.344	4933.64
566.771	4887.08
567.198	4806.75
567.625	4731.98
568.053	4671.64
568.48	4701.68
568.907	4638.64
569.333	4541.72
569.76	4429.64
570.187	4466.48
570.614	4337.09
571.04	4445.24
571.467	4246.06
571.894	4137.13
572.32	4045.64
572.747	3984.86
573.173	3986.48
573.599	3925.4
574.026	3813.39
574.452	3781.98
574.878	3707.2
575.304	3633.18
575.73	3571.04
576.156	3495
576.582	3467.82
577.008	3411.28
577.434	3373.47
577.86	3238.96
578.285	3274.93
578.711	3205.72
579.137	3139.45
579.562	3089.79
579.988	3057.03
580.413	2985.18
580.838	2927.5
581.264	2902.61
581.689	2863.48
582.114	2877.43
582.539	2810.64
582.964	2756.67
583.39	2735.57
583.814	2680.18
584.239	2589.62
584.664	2636.01
585.089	2552.82
585.514	2526.99
585.939	2492.63
586.363	2450.56
586.788	2415.07
587.212	2399.11
587.637	2359.47
588.061	2359.75
588.485	2293.36
588.91	2297.22
589.334	2231.05
589.758	2238.22
590.182	2197.68
590.606	2157.66
591.03	2088.62
591.454	2114.03
591.878	2051.87
592.302	2065.13
592.726	2047.44
593.15	2024.22
593.573	1933.76
593.997	1966.41
594.42	1917.98
594.844	1883.64
595.267	1876.43
595.691	1848.73
596.114	1822.4
596.537	1794.4
596.96	1815.75
597.384	1766.94
597.807	1737.25
598.23	1781.64
598.653	1708.11
599.076	1706.17
599.499	1692.56
599.921	1683.95
600.344	1655.62
600.767	1675.34
601.189	1684.23
601.612	1663.68
602.034	1618.67
602.457	1613.95
602.879	1559.17
603.302	1593.1
603.724	1596.16
604.146	1595.32
604.568	1535.81
604.991	1555.56
605.413	1579.2
605.835	1557.78
606.257	1516.33
606.678	1516.61
607.1	1513.27
607.522	1502.97
607.944	1479.31
608.365	1522.73
608.787	1458.42
609.209	1408.28
609.63	1417.47
610.051	1447
610.473	1411.07
610.894	1369.81
611.315	1376.78
611.737	1364.24
612.158	1382.92
612.579	1322.12
613	1310.96
613.421	1297.01
613.842	1279.15
614.263	1280.26
614.683	1269.66
615.104	1267.14
615.525	1232.52
615.945	1206.26
616.366	1217.15
616.787	1171.88
617.207	1163.5
617.627	1150.64
618.048	1149.52
618.468	1133.02
618.888	1115.4
619.308	1111.2
619.728	1094.7
620.148	1096.65
620.568	1078.46
620.988	1079.58
621.408	1042.91
621.828	1051.59
622.248	1042.35
622.668	996.14
623.087	1007.35
623.507	1006.22
623.926	973.72
624.346	996.42
624.765	958.87
625.185	984.09
625.604	959.99
626.023	969.52
626.442	946.53
626.861	934.48
627.28	912.6
627.699	911.2
628.118	911.48
628.537	894.93
628.956	897.74
629.375	884.83
629.794	874.73
630.212	854.24
630.631	869.96
631.049	836.84
631.468	864.06
631.886	831.5
632.305	830.66
632.723	825.32
633.141	830.66
633.559	784.32
633.978	795.55
634.396	797.8
634.814	793.02
635.232	789.09
635.65	809.32
636.067	754.53
636.485	763.52
636.903	762.68
637.321	758.18
637.738	767.46
638.156	756.5
638.573	765.77
638.991	753.69
639.408	734.85
639.825	737.1
640.243	735.98
640.66	717.42
641.077	733.16
641.494	702.51
641.911	676.63
642.328	676.92
642.745	696.61
643.162	665.38
643.579	670.73
643.995	705.61
644.412	662.85
644.829	669.04
645.245	641.46
645.662	637.52
646.078	681.14
646.495	672.98
646.911	666.5
647.327	628.23
647.743	630.2
648.159	627.38
648.576	611.05
648.992	619.22
649.408	616.12
649.824	631.6
650.239	637.23
650.655	634.7
651.071	595.28
651.487	612.46
651.902	589.08
652.318	618.09
652.733	605.7
653.149	609.64
653.564	586.83
653.979	614.71
654.395	597.25
654.81	605.14
655.225	613.87
655.64	607.95
656.055	601.47
656.47	604.01
656.885	585.42
657.3	564.29
657.715	585.7
658.13	551.89
658.544	533.01
658.959	562.04
659.374	566.83
659.788	571.33
660.202	549.64
660.617	542.59
661.031	561.75
661.445	554.71
661.86	559.5
662.274	564.29
662.688	568.23
663.102	543.72
663.516	530.75
663.93	523.7
664.344	523.14
664.758	545.97
665.171	513.55
665.585	527.65
665.999	520.6
666.412	539.77
666.826	528.78
667.239	525.39
667.653	513.55
668.066	498.61
668.479	511.86
668.892	537.52
669.306	547.1
669.719	525.68
670.132	489.58
670.545	514.4
670.958	517.78
671.37	532.72
671.783	497.48
672.196	502.56
672.609	514.68
673.021	501.99
673.434	485.35
673.846	533.57
674.259	514.4
674.671	503.68
675.084	504.81
675.496	474.63
675.908	508.76
676.32	492.68
676.732	476.32
677.144	496.07
677.556	489.02
677.968	483.09
678.38	501.99
678.792	497.2
679.204	478.86
679.615	490.15
680.027	495.22
680.439	506.79
680.85	474.91
681.262	452.91
681.673	498.61
682.084	449.52
682.496	479.71
682.907	500.58
683.318	485.07
683.729	483.09
684.14	446.7
684.551	501.15
684.962	446.7
685.373	484.22
685.784	450.08
686.194	475.76
686.605	452.06
687.016	464.76
687.426	473.5
687.837	456.01
688.247	466.17
688.657	451.78
689.068	453.75
689.478	479.14
689.888	458.55
690.298	476.04
690.708	482.53
691.118	447.83
691.528	450.37
691.938	458.27
692.348	452.34
692.758	439.36
693.168	465.6
693.577	446.98
693.987	452.06
694.396	438.51
694.806	442.46
695.215	442.46
695.625	438.79
696.034	437.67
696.443	474.91
696.852	444.44
697.262	445.85
697.671	432.87
698.08	473.78
698.489	447.83
698.897	438.23
699.306	448.67
699.715	426.37
700.124	456.86
700.532	431.74
700.941	438.23
701.35	455.73
701.758	445.85
702.166	446.7
702.575	450.93
702.983	446.41
703.391	435.97
703.799	433.15
704.208	418.47
704.616	421.01
705.024	441.33
705.432	428.35
705.839	446.13
706.247	443.03
706.655	428.91
707.063	450.08
707.47	421.01
707.878	456.01
708.285	436.25
708.693	427.5
709.1	421.86
709.508	437.67
709.915	415.08
710.322	436.54
710.729	438.23
711.136	453.47
711.543	428.35
711.95	416.78
712.357	399.27
712.764	456.01
713.171	425.53
713.578	415.93
713.984	428.35
714.391	423.83
714.797	426.09
715.204	401.53
715.61	423.55
716.017	432.02
716.423	407.74
716.829	400.4
717.236	397.29
717.642	408.59
718.048	429.48
718.454	426.66
718.86	430.33
719.266	397.57
719.671	410.56
720.077	415.08
720.483	410.85
720.889	391.93
721.294	387.97
721.7	422.99
722.105	415.36
722.511	410.28
722.916	399.27
723.321	411.13
723.726	416.21
724.132	402.94
724.537	404.63
724.942	439.08
725.347	424.12
725.752	411.69
726.156	424.96
726.561	433.43
726.966	409.15
727.371	420.73
727.775	421.58
728.18	413.67
728.584	414.8
728.989	426.94
729.393	401.81
729.798	419.6
730.202	409.43
730.606	422.14
731.01	405.76
731.414	408.02
731.818	406.61
732.222	422.14
732.626	413.67
733.03	396.16
733.434	409.15
733.837	402.38
734.241	410.85
734.645	401.25
735.048	432.58
735.452	398.42
735.855	402.38
736.258	415.36
736.662	436.54
737.065	424.12
737.468	401.25
737.871	429.48
738.274	403.79
738.677	428.91
739.08	428.63
739.483	414.52
739.886	422.14
740.289	404.07
740.691	408.59
741.094	408.87
741.497	404.92
741.899	391.64
742.302	389.1
742.704	399.83
743.106	393.06
743.508	407.18
743.911	399.55
744.313	406.61
744.715	393.06
745.117	413.67
745.519	410.28
745.921	391.08
746.323	395.88
746.724	426.09
747.126	426.94
747.528	409.43
747.929	404.63
748.331	415.65
748.732	392.49
749.134	417.06
749.535	394.47
749.936	402.94
750.338	405.2
750.739	425.81
751.14	411.13
751.541	400.96
751.942	408.59
752.343	426.37
752.744	409.72
753.144	396.44
753.545	406.05
753.946	399.27
754.346	398.99
754.747	380.35
755.148	382.04
755.548	410
755.948	400.68
756.349	403.79
756.749	396.44
757.149	400.4
757.549	419.03
757.949	419.03
758.349	417.06
758.749	394.47
759.149	407.74
759.549	406.33
759.949	402.94
760.348	407.46
760.748	391.64
761.148	400.4
761.547	403.5
761.947	386
762.346	394.75
762.745	421.01
763.145	402.38
763.544	399.55
763.943	401.25
764.342	405.2
764.741	405.48
765.14	397.86
765.539	396.44
765.938	426.09
766.336	395.88
766.735	385.15
767.134	392.77
767.532	411.41
767.931	391.36
768.329	412.26
768.728	397.01
769.126	396.16
769.525	379.5
769.923	408.59
770.321	390.8
770.719	405.48
771.117	386.84
771.515	391.93
771.913	387.41
772.311	417.62
772.709	407.74
773.106	393.62
773.504	385.43
773.902	369.33
774.299	371.31
774.697	409.72
775.094	406.89
775.491	409.43
775.889	395.88
776.286	404.07
776.683	396.44
777.08	384.3
777.477	413.67
777.874	398.99
778.271	394.19
778.668	419.32
779.065	376.96
779.462	364.24
779.858	409.15
780.255	387.41
780.652	387.97
781.048	376.39
781.444	368.76
781.841	373.85
782.237	371.59
782.633	407.74
783.03	392.21
783.426	373.85
783.822	395.03
784.218	401.25
784.614	375.83
785.01	398.14
785.405	407.18
785.801	395.6
786.197	397.57
786.593	363.96
786.988	395.03
787.384	390.8
787.779	403.22
788.174	412.26
788.57	371.59
788.965	398.99
789.36	390.8
789.755	389.1
790.15	384.58
790.545	420.73
790.94	399.55
791.335	400.4
791.73	406.33
792.125	390.8
792.52	402.94
792.914	383.45
793.309	373.57
793.703	374.7
794.098	392.77
794.492	399.83
794.887	392.49
795.281	395.03
795.675	396.44
796.069	404.92
796.463	397.29
796.857	414.23
797.251	396.44
797.645	388.25
798.039	379.5
798.433	386.84
798.826	400.68
799.22	391.36
799.614	402.94
800.007	391.36
800.401	393.34
800.794	389.38
801.187	389.38
801.581	379.22
801.974	378.09
802.367	381.19
802.76	398.99
803.153	386.56
803.546	408.59
803.939	387.41
804.332	368.2
804.725	392.49
805.117	395.32
805.51	415.36
805.903	403.22
806.295	368.76
806.688	372.44
807.08	372.15
807.472	384.58
807.865	389.1
808.257	379.78
808.649	397.86
809.041	401.25
809.433	405.48
809.825	397.86
810.217	409.43
810.609	390.8
811.001	395.6
811.392	389.67
811.784	377.24
812.175	391.64
812.567	376.39
812.958	384.87
813.35	387.69
813.741	407.18
814.132	418.19
814.524	399.83
814.915	384.58
815.306	391.93
815.697	368.2
816.088	393.62
816.479	362.83
816.87	392.21
817.26	376.96
817.651	371.31
818.042	369.61
818.432	406.05
818.823	422.14
819.213	384.02
819.604	384.58
819.994	409.43
820.384	381.76
820.775	400.4
821.165	421.58
821.555	374.7
821.945	400.4
822.335	388.25
822.725	363.11
823.114	391.64
823.504	375.54
823.894	385.43
824.284	371.02
824.673	397.01
825.063	398.99
825.452	386.56
825.842	387.69
826.231	397.01
826.62	395.32
827.009	388.25
827.399	364.24
827.788	381.48
828.177	394.19
828.566	402.38
828.954	398.7
829.343	399.27
829.732	374.7
830.121	389.38
830.509	371.59
830.898	391.93
831.286	372.44
831.675	378.09
832.063	396.73
832.452	376.96
832.84	392.77
833.228	381.19
833.616	390.23
834.004	388.82
834.392	405.2
834.78	404.63
835.168	391.08
835.556	384.58
835.944	393.06
836.331	405.76
836.719	402.94
837.107	357.18
837.494	386.56
837.881	360.85
838.269	419.6
838.656	374.13
839.043	389.1
839.431	397.29
839.818	381.76
840.205	393.9
840.592	409.72
840.979	378.93
841.366	364.24
841.752	362.27
842.139	414.8
842.526	405.48
842.912	373
843.299	401.81
843.685	382.32
844.072	394.47
844.458	376.39
844.844	364.24
845.231	396.73
845.617	384.87
846.003	353.51
846.389	402.94
846.775	363.96
847.161	367.07
847.547	382.32
847.933	371.31
848.318	373
848.704	378.65
849.09	389.1
849.475	383.45
849.861	365.09
850.246	398.7
850.631	385.43
851.017	382.89
851.402	415.65
851.787	415.65
852.172	381.19
852.557	409.43
852.942	394.19
853.327	365.37
853.712	376.67
854.097	378.93
854.481	381.76
854.866	377.8
855.25	386.84
855.635	380.63
856.019	404.07
856.404	391.36
856.788	384.87
857.172	384.3
857.557	370.74
857.941	376.39
858.325	394.75
858.709	378.37
859.093	378.09
859.477	367.92
859.86	379.5
860.244	356.61
860.628	372.72
861.012	365.94
861.395	400.4
861.779	390.23
862.162	380.06
862.545	387.97
862.929	374.41
863.312	364.24
863.695	368.76
864.078	377.8
864.461	389.38
864.844	369.33
865.227	375.26
865.61	406.61
865.993	366.79
866.376	364.81
866.758	381.48
867.141	387.12
867.523	407.18
867.906	409.72
868.288	415.65
868.671	395.88
869.053	386.56
869.435	371.59
869.817	358.88
870.199	393.62
870.581	365.94
870.963	368.76
871.345	354.64
871.727	393.62
872.109	373.85
872.491	363.11
872.872	401.81
873.254	355.77
873.635	400.12
874.017	408.59
874.398	385.43
874.779	390.51
875.161	365.09
875.542	373.28
875.923	393.06
876.304	383.45
876.685	392.21
877.066	358.03
877.447	373.85
877.828	356.9
878.208	379.22
878.589	383.74
878.97	386.84
879.35	375.83
879.731	362.55
880.111	372.72
880.491	377.8
880.872	392.49
881.252	373.57
881.632	364.24
882.012	374.13
882.392	361.42
882.772	386
883.152	390.23
883.532	363.68
883.912	381.48
884.291	366.79
884.671	384.87
885.051	371.87
885.43	371.59
885.81	387.97
886.189	375.83
886.568	406.33
886.948	378.09
887.327	381.76
887.706	412.26
888.085	370.74
888.464	389.1
888.843	389.38
889.222	391.93
889.601	382.04
889.979	365.37
890.358	383.74
890.737	375.26
891.115	383.17
891.494	391.64
891.872	367.07
892.25	385.15
892.629	368.48
893.007	390.51
893.385	381.19
893.763	370.74
894.141	382.04
894.519	380.06
894.897	379.22
895.275	380.35
895.653	396.73
896.03	398.42
896.408	352.94
896.786	367.07
897.163	375.83
897.541	371.31
897.918	367.92
898.295	378.09
898.673	381.48
899.05	390.8
899.427	370.18
899.804	373.85
900.181	401.81
900.558	365.66
900.935	381.76
901.312	369.05
901.688	390.23
902.065	381.19
902.442	398.14
902.818	369.89
903.195	357.46
903.571	362.55
903.947	399.55
904.324	387.97
904.7	375.26
905.076	377.52
905.452	400.4
905.828	384.87
906.204	390.51
906.58	381.19
906.956	369.33
907.331	371.87
907.707	381.19
908.083	380.35
908.458	369.61
908.834	396.44
909.209	383.45
909.585	390.8
909.96	379.22
910.335	384.58
910.71	369.61
911.086	376.11
911.461	397.57
911.836	390.8
912.21	374.13
912.585	368.76
912.96	396.73
913.335	399.83
913.709	408.31
914.084	358.59
914.459	385.71
914.833	378.93
915.207	371.31
915.582	363.11
915.956	381.19
916.33	365.66
916.704	378.93
917.078	364.81
917.452	373.57
917.826	382.61
918.2	417.06
918.574	371.59
918.948	382.61
919.321	375.83
919.695	399.27
920.068	352.09
920.442	383.17
920.815	382.32
921.189	405.76
921.562	378.65
921.935	357.46
922.308	374.7
922.681	357.46
923.054	382.89
923.427	381.48
923.8	372.15
924.173	387.97
924.546	364.81
924.919	368.2
925.291	370.46
925.664	373.28
926.036	374.7
926.409	378.09
926.781	392.21
927.153	348.99
927.526	389.1
927.898	361.98
928.27	381.19
928.642	393.62
929.014	365.37
929.386	377.24
929.758	363.68
930.129	376.67
930.501	381.76
930.873	398.99
931.244	366.5
931.616	381.19
931.987	368.2
932.359	391.93
932.73	394.47
933.101	365.94
933.472	356.33
933.843	373.85
934.214	362.83
934.585	371.31
934.956	354.35
935.327	361.7
935.698	383.17
936.069	361.7
936.439	361.98
936.81	403.22
937.18	374.41
937.551	366.5
937.921	373.85
938.292	372.15
938.662	385.15
939.032	379.22
939.402	373.28
939.772	396.44
940.142	383.74
940.512	361.42
940.882	373.57
941.252	392.49
941.621	390.23
941.991	385.43
942.361	344.75
942.73	379.78
943.1	377.52
943.469	369.89
943.838	358.59
944.208	385.15
944.577	365.66
944.946	373.57
945.315	367.35
945.684	402.09
946.053	388.54
946.422	371.59
946.791	364.24
947.159	362.27
947.528	381.76
947.897	360.29
948.265	352.94
948.634	385.71
949.002	370.18
949.371	358.88
949.739	374.98
950.107	378.37
950.475	357.74
950.843	350.96
951.211	369.33
951.579	371.87
951.947	352.09
952.315	369.05
952.683	371.31
953.05	390.51
953.418	364.53
953.785	373
954.153	352.09
954.52	394.47
954.888	376.11
955.255	362.83
955.622	380.06
955.989	383.45
956.356	395.6
956.723	358.03
957.09	368.48
957.457	382.04
957.824	386.84
958.191	352.09
958.557	366.5
958.924	365.09
959.291	392.49
959.657	395.32
960.023	371.59
960.39	362.83
960.756	363.11
961.122	378.93
961.488	374.98
961.855	387.41
962.221	363.11
962.586	398.14
962.952	387.69
963.318	329.77
963.684	356.05
964.05	365.94
964.415	359.16
964.781	370.46
965.146	380.35
965.512	380.63
965.877	388.54
966.242	378.93
966.608	348.14
966.973	366.22
967.338	398.99
967.703	369.89
968.068	401.25
968.433	366.22
968.797	375.54
969.162	368.2
969.527	347.01
969.891	393.06
970.256	363.11
970.62	378.37
970.985	374.13
971.349	402.66
971.714	379.22
972.078	371.31
972.442	365.94
972.806	370.74
973.17	366.79
973.534	385.71
973.898	348.42
974.262	376.96
974.625	380.91
974.989	367.35
975.353	375.26
975.716	366.79
976.08	379.5
976.443	365.37
976.806	352.94
977.17	382.61
977.533	346.72
977.896	367.63
978.259	363.11
978.622	388.82
978.985	366.79
979.348	387.97
979.711	368.48
980.073	375.54
980.436	369.89
980.799	386.84
981.161	390.23
981.524	367.07
981.886	375.83
982.248	365.94
982.611	358.88
982.973	363.96
983.335	391.93
983.697	374.98
984.059	367.35
984.421	380.91
984.783	354.35
985.145	378.09
985.506	376.11
985.868	365.94
986.23	379.22
986.591	373
986.953	394.47
987.314	372.15
987.675	378.37
988.037	521.45
988.398	393.06
988.759	357.18
989.12	394.19
989.481	368.2
989.842	367.35
990.203	378.37
990.564	362.27
990.924	378.93
991.285	505.94
991.646	390.51
992.006	376.11
992.367	385.43
992.727	370.18
993.087	364.81
993.448	358.88
993.808	362.83
994.168	386.28
994.528	364.53
994.888	356.05
995.248	355.48
995.608	360.57
995.967	362.55
996.327	363.68
996.687	365.09
997.046	374.13
997.406	373.85
997.765	372.15
998.125	369.89
998.484	380.35
998.843	373.57
999.202	394.75
999.561	375.54
999.92	376.67
1000.279	341.35
1000.638	361.98
1000.997	363.68
1001.356	376.67
1001.715	385.15
1002.073	355.77
1002.432	366.5
1002.79	346.72
1003.149	401.25
1003.507	369.33
1003.865	379.78
1004.224	382.61
1004.582	363.68
1004.94	362.83
1005.298	355.77
1005.656	349.27
1006.014	392.77
1006.371	377.52
1006.729	387.12
1007.087	384.02
1007.445	410.85
1007.802	363.4
1008.16	373.57
1008.517	364.24
1008.874	369.33
1009.232	361.14
1009.589	361.42
1009.946	367.63
1010.303	349.55
1010.66	374.98
1011.017	362.27
1011.374	383.45
1011.731	358.88
1012.087	363.11
1012.444	359.72
1012.801	363.11
1013.157	373.57
1013.513	373.57
1013.87	374.98
1014.226	359.44
1014.582	350.12
1014.939	370.18
1015.295	353.51
1015.651	375.54
1016.007	371.31
1016.363	372.44
1016.719	375.83
1017.074	356.33
1017.43	377.24
1017.786	369.33
1018.141	340.22
1018.497	375.54
1018.852	377.52
1019.208	350.68
1019.563	348.14
1019.918	377.52
1020.273	385.71
1020.628	347.57
1020.983	369.05
1021.338	358.88
1021.693	381.76
1022.048	368.76
1022.403	365.66
1022.757	373.57
1023.112	375.83
1023.467	380.06
1023.821	369.89
1024.175	349.83
1024.53	365.09
1024.884	369.61
1025.238	397.86
1025.592	376.96
1025.946	384.3
1026.3	381.76
1026.654	383.17
1027.008	380.91
1027.362	369.61
1027.716	373.28
1028.069	394.19
1028.423	369.89
1028.777	388.54
1029.13	362.27
1029.483	371.87
1029.837	378.65
1030.19	372.15
1030.543	357.18
1030.896	396.16
1031.249	392.77
1031.602	363.96
1031.955	384.58
1032.308	357.18
1032.661	363.4
1033.013	356.33
1033.366	385.71
1033.719	394.75
1034.071	386
1034.424	372.15
1034.776	358.59
1035.128	332.88
1035.48	356.05
1035.833	356.61
1036.185	373
1036.537	373
1036.889	373
