Data from SCSF78-405_irradiation_FLMS019251_22-11-27-866.txt Node
Date: Fri Feb 22 22:11:27 PST 2019
User: mu3e
Spectrometer: FLMS01925
Trigger mode: 0
Integration Time (sec): 1.206000E-2
Scans to average: 10
Electric dark correction enabled: true
Nonlinearity correction enabled: true
Boxcar width: 0
XAxis mode: Wavelengths
Number of Pixels in Spectrum: 2048
>>>>>Begin Spectral Data<<<<<
187.103	-110.58
187.574	-110.58
188.045	-110.58
188.516	-127.36
188.987	-130.49
189.458	-139.59
189.929	-91.25
190.4	-111.43
190.871	-87.84
191.342	-69.08
191.813	-81.02
192.284	-33.85
192.754	-7.72
193.225	-3.46
193.696	4.21
194.166	64.09
194.637	92.73
195.107	71.74
195.578	105.49
196.048	138.37
196.518	147.72
196.989	195.59
197.459	204.37
197.929	237.21
198.399	290.4
198.869	275.12
199.339	303.69
199.809	328.85
200.279	324.89
200.749	344.11
201.219	358.52
201.689	362.48
202.159	354.28
202.628	382.82
203.098	377.73
203.568	380.28
204.037	392.99
204.507	368.98
204.976	377.45
205.445	400.89
205.915	382.25
206.384	398.92
206.853	386.21
207.323	397.5
207.792	398.35
208.261	395.81
208.73	375.76
209.199	386.77
209.668	383.66
210.137	382.25
210.606	409.93
211.075	387.05
211.543	386.49
212.012	367.28
212.481	377.73
212.95	387.34
213.418	387.34
213.887	365.87
214.355	361.91
214.824	371.8
215.292	370.39
215.76	364.74
216.229	379.15
216.697	361.91
217.165	362.48
217.633	360.22
218.101	367.56
218.569	382.82
219.037	375.19
219.505	359.37
219.973	355.41
220.441	324.33
220.909	361.91
221.377	370.39
221.844	341.85
222.312	358.24
222.78	361.06
223.247	358.24
223.715	355.41
224.182	346.09
224.65	359.09
225.117	355.98
225.584	336.48
226.052	374.34
226.519	368.69
226.986	364.74
227.453	353.44
227.92	353.15
228.387	350.61
228.854	355.7
229.321	379.71
229.788	362.76
230.255	350.89
230.722	355.7
231.189	350.89
231.655	353.15
232.122	348.35
232.589	365.02
233.055	385.36
233.522	373.78
233.988	376.04
234.454	380.84
234.921	352.59
235.387	383.95
235.853	359.65
236.32	369.26
236.786	374.63
237.252	387.34
237.718	369.26
238.184	370.11
238.65	366.43
239.116	385.08
239.582	376.6
240.047	380.28
240.513	354.28
240.979	364.46
241.445	369.82
241.91	362.48
242.376	369.26
242.841	377.73
243.307	373.78
243.772	395.81
244.238	391.01
244.703	374.34
245.168	368.98
245.633	384.51
246.099	365.59
246.564	363.33
247.029	362.76
247.494	358.52
247.959	379.43
248.424	385.08
248.889	351.74
249.353	368.13
249.818	384.23
250.283	362.2
250.748	377.45
251.212	385.36
251.677	405.69
252.141	394.96
252.606	359.93
253.07	369.26
253.535	372.08
253.999	387.9
254.463	373.5
254.927	365.87
255.392	378.58
255.856	381.41
256.32	366.15
256.784	377.73
257.248	390.44
257.712	381.97
258.176	390.44
258.64	380.84
259.103	364.17
259.567	369.26
260.031	350.33
260.495	386.49
260.958	380.84
261.422	390.73
261.885	385.64
262.349	377.17
262.812	398.63
263.275	379.71
263.739	386.49
264.202	406.26
264.665	372.93
265.128	374.34
265.591	383.1
266.054	378.3
266.517	375.19
266.98	389.31
267.443	415.01
267.906	400.33
268.369	376.32
268.832	405.41
269.294	392.14
269.757	362.2
270.22	368.13
270.682	394.4
271.145	368.41
271.607	397.22
272.07	386.49
272.532	381.97
272.994	383.95
273.456	393.83
273.919	404.56
274.381	390.44
274.843	383.95
275.305	378.02
275.767	389.03
276.229	405.69
276.691	391.57
277.153	385.08
277.614	398.63
278.076	399.48
278.538	403.72
279	399.76
279.461	398.92
279.923	377.73
280.384	383.95
280.846	372.08
281.307	374.91
281.769	384.79
282.23	372.08
282.691	402.59
283.152	376.32
283.613	390.73
284.075	385.08
284.536	402.87
284.997	392.7
285.458	381.69
285.918	387.62
286.379	351.46
286.84	399.2
287.301	395.24
287.762	381.97
288.222	396.37
288.683	382.25
289.143	379.43
289.604	388.47
290.064	407.11
290.525	383.95
290.985	385.36
291.445	404.85
291.906	397.22
292.366	386.77
292.826	391.86
293.286	380.56
293.746	389.03
294.206	387.9
294.666	366.43
295.126	411.34
295.586	402.59
296.046	394.68
296.506	405.41
296.965	410.49
297.425	387.62
297.884	441.55
298.344	396.94
298.804	381.12
299.263	389.88
299.722	399.76
300.182	409.93
300.641	417.27
301.1	387.62
301.559	389.6
302.019	413.03
302.478	410.78
302.937	398.07
303.396	404.56
303.855	383.95
304.314	371.52
304.772	416.14
305.231	376.32
305.69	407.67
306.149	397.5
306.607	413.6
307.066	405.98
307.524	388.18
307.983	390.16
308.441	411.06
308.9	396.09
309.358	384.79
309.816	413.88
310.275	396.94
310.733	396.09
311.191	388.18
311.649	425.74
312.107	414.16
312.565	404.28
313.023	410.49
313.481	411.62
313.939	409.08
314.397	411.62
314.854	423.76
315.312	393.83
315.77	391.86
316.227	406.54
316.685	400.33
317.142	403.15
317.6	424.33
318.057	426.59
318.514	409.36
318.972	403.15
319.429	394.4
319.886	400.33
320.343	409.65
320.8	384.51
321.257	409.08
321.714	433.08
322.171	387.34
322.628	389.88
323.085	390.16
323.542	420.94
323.998	399.48
324.455	377.73
324.912	371.24
325.368	415.58
325.825	414.45
326.281	418.12
326.738	405.13
327.194	422.35
327.65	388.18
328.107	401.74
328.563	391.86
329.019	409.65
329.475	413.88
329.931	400.33
330.387	422.63
330.843	384.23
331.299	419.25
331.755	401.74
332.211	400.33
332.666	444.93
333.122	417.27
333.578	396.09
334.033	403.72
334.489	403.72
334.944	387.34
335.4	420.94
335.855	391.29
336.31	436.47
336.766	396.09
337.221	401.46
337.676	400.89
338.131	399.2
338.586	420.09
339.041	394.68
339.496	414.16
339.951	392.42
340.406	395.81
340.861	410.78
341.316	418.68
341.771	397.5
342.225	411.91
342.68	413.6
343.134	413.03
343.589	380.28
344.043	408.23
344.498	378.86
344.952	413.03
345.406	437.31
345.861	426.87
346.315	434.77
346.769	413.88
347.223	414.45
347.677	419.53
348.131	411.34
348.585	408.23
349.039	425.74
349.493	400.05
349.947	413.88
350.401	396.94
350.854	377.17
351.308	392.14
351.762	402.02
352.215	407.67
352.669	412.75
353.122	401.18
353.575	395.24
354.029	431.67
354.482	408.52
354.935	415.58
355.388	418.12
355.842	385.64
356.295	427.15
356.748	405.69
357.201	375.47
357.654	399.2
358.106	378.02
358.559	412.75
359.012	414.45
359.465	424.05
359.917	425.74
360.37	404.85
360.823	407.95
361.275	395.53
361.728	403.72
362.18	413.88
362.632	405.13
363.085	410.21
363.537	431.38
363.989	409.65
364.441	405.98
364.893	431.38
365.345	422.92
365.797	422.63
366.249	439.57
366.701	435.34
367.153	426.3
367.605	422.63
368.057	410.49
368.508	427.43
368.96	438.16
369.411	424.33
369.863	401.46
370.314	415.58
370.766	425.46
371.217	414.16
371.669	438.16
372.12	426.59
372.571	403.72
373.022	425.46
373.473	399.76
373.924	389.03
374.375	425.46
374.826	416.14
375.277	434.49
375.728	429.97
376.179	418.12
376.63	409.36
377.08	416.42
377.531	389.03
377.981	434.21
378.432	413.32
378.883	423.2
379.333	414.16
379.783	428
380.234	430.26
380.684	435.9
381.134	435.62
381.584	420.09
382.034	452.83
382.485	413.6
382.935	407.95
383.385	430.54
383.834	424.61
384.284	434.77
384.734	422.92
385.184	405.13
385.634	415.58
386.083	428.84
386.533	411.34
386.982	425.74
387.432	428.84
387.881	426.3
388.331	450.29
388.78	425.46
389.229	427.15
389.679	431.38
390.128	436.18
390.577	425.46
391.026	405.13
391.475	421.79
391.924	409.36
392.373	434.21
392.822	415.29
393.27	445.78
393.719	467.79
394.168	424.89
394.617	438.44
395.065	412.47
395.514	438.72
395.962	420.38
396.411	437.59
396.859	422.92
397.307	435.9
397.756	437.31
398.204	427.15
398.652	445.5
399.1	415.86
399.548	432.23
399.996	460.17
400.444	455.09
400.892	444.65
401.34	421.5
401.788	453.68
402.236	440.7
402.683	435.62
403.131	453.12
403.579	462.15
404.026	469.76
404.474	461.86
404.921	475.97
405.369	463.28
405.816	460.17
406.263	450.29
406.71	453.4
407.158	496
407.605	481.33
408.052	465.53
408.499	512.64
408.946	485
409.393	473.15
409.84	503.05
410.286	497.69
410.733	525.61
411.18	552.38
411.626	572.11
412.073	587.04
412.52	677.13
412.966	755.3
413.413	906.92
413.859	1033.32
414.305	1247.53
414.752	1529.06
415.198	1828.43
415.644	2225.19
416.09	2688.07
416.536	3231.54
416.982	3831.18
417.428	4544.88
417.874	5276.25
418.32	6041.92
418.766	6888.07
419.211	7953.28
419.657	8824.15
420.103	9908.03
420.548	10724.56
420.994	12124.1
421.439	13050.44
421.885	14035.93
422.33	15452.39
422.776	16460.34
423.221	17385.61
423.666	18615.03
424.111	19891.11
424.556	20750.55
425.001	22169.3
425.446	23441.46
425.891	24531.54
426.336	25493.24
426.781	26747.08
427.226	28637.65
427.671	29207.6
428.115	30023
428.56	31637.96
429.005	32959.15
429.449	33553.37
429.894	34980.33
430.338	35970.7
430.782	36027.88
431.227	37537.1
431.671	37926.08
432.115	39447.93
432.559	40327.25
433.003	40202.69
433.447	40908.22
433.891	41386.55
434.335	41846.08
434.779	42305.14
435.223	42637.4
435.667	42710.28
436.111	43185.62
436.554	43379.12
436.998	42774.46
437.442	42822.49
437.885	44755.38
438.328	43241.96
438.772	43524.35
439.215	43929.87
439.659	43821.86
440.102	44099.01
440.545	43449.98
440.988	43293.57
441.431	44097.5
441.874	43453.72
442.317	43850.61
442.76	43224.5
443.203	42925.05
443.646	43495.15
444.089	43085.19
444.531	43607.49
444.974	42431.08
445.417	43664.69
445.859	42667.5
446.302	43811.61
446.744	43127.3
447.186	44061.21
447.629	43027.9
448.071	43224.26
448.513	43305.79
448.956	44540.77
449.398	43822.86
449.84	42623.23
450.282	43165.43
450.724	43885.11
451.166	43357.17
451.607	43291.08
452.049	43399.83
452.491	44510.42
452.933	44142.06
453.374	44488.85
453.816	44982.05
454.257	44715.7
454.699	45676.95
455.14	45416.1
455.582	45023.04
456.023	45003.93
456.464	45236.46
456.905	45837.1
457.347	45747.16
457.788	44743.83
458.229	44948.61
458.67	46002.47
459.111	44137.81
459.552	44354.98
459.992	44008.92
460.433	43875.36
460.874	42909.86
461.315	44069.22
461.755	43060.28
462.196	42795.86
462.636	42108.26
463.077	41703.06
463.517	41770.97
463.957	42041.27
464.398	41699.59
464.838	41733.79
465.278	40748.36
465.718	40849.16
466.158	39893.35
466.598	40334.65
467.038	39932.28
467.478	40243.88
467.918	40385.47
468.358	39691.14
468.798	39518.56
469.237	39284.82
469.677	39323.93
470.117	40037.27
470.556	37748.59
470.996	38354.14
471.435	38474.17
471.874	38940.85
472.314	38853.86
472.753	38072.97
473.192	38111.24
473.631	37816.24
474.07	38117.86
474.509	37884.4
474.948	38286.9
475.387	37538.08
475.826	36688.08
476.265	38278.8
476.704	37823.11
477.143	38141.41
477.581	37912.35
478.02	38566.24
478.458	37082.32
478.897	37770.16
479.335	38812.59
479.774	38185.08
480.212	38569.67
480.65	38528.43
481.089	38132.82
481.527	37741.72
481.965	37328.89
482.403	39196.28
482.841	38929.3
483.279	38947.73
483.717	38901.78
484.155	38483.25
484.592	38892.93
485.03	39020.24
485.468	38083.28
485.905	38192.19
486.343	38761.24
486.781	38180.42
487.218	37512.36
487.655	37504.76
488.093	36731.87
488.53	37944.22
488.967	37187.35
489.405	37116.59
489.842	36190.67
490.279	36279.66
490.716	35886.63
491.153	36330.03
491.59	35836.54
492.027	35175.63
492.463	34811.18
492.9	34025.54
493.337	33990.17
493.773	34093.11
494.21	33250.52
494.647	33205.9
495.083	32514.45
495.519	32100.47
495.956	32119
496.392	31465.57
496.828	31217.57
497.265	30578.31
497.701	30797.6
498.137	30340.7
498.573	29763.8
499.009	30095.23
499.445	29327.02
499.881	28888.59
500.316	29198.57
500.752	28303.99
501.188	28249.47
501.624	28070.47
502.059	26945.79
502.495	26754.43
502.93	26691.45
503.366	26996.01
503.801	26341.87
504.236	26062.73
504.672	25635.18
505.107	25371.16
505.542	24820.34
505.977	24805.59
506.412	24360.99
506.847	24687.03
507.282	24130.04
507.717	23885.68
508.152	23721.3
508.587	23594.35
509.021	22930.16
509.456	22716.04
509.891	22685.17
510.325	22626.86
510.76	22317.92
511.194	22015.93
511.628	22137.64
512.063	21535.69
512.497	21581.01
512.931	21142.93
513.366	20983.74
513.8	20951.75
514.234	20314.6
514.668	20371.23
515.102	20587.99
515.536	19774.98
515.969	19806.81
516.403	19468.94
516.837	19022.9
517.271	19143.73
517.704	18846.69
518.138	18746.46
518.571	18533.96
519.005	18262.92
519.438	18178.02
519.871	18004.68
520.305	17601.5
520.738	17524.97
521.171	17125.03
521.604	17207.15
522.037	16983.27
522.47	16772.78
522.903	16339.4
523.336	16375.03
523.769	16291.96
524.202	15797.67
524.634	15722.75
525.067	15513.77
525.5	15375.38
525.932	15212.01
526.365	14892.32
526.797	14791.74
527.23	14796.78
527.662	14302.98
528.094	14216.35
528.527	14167.34
528.959	13800.26
529.391	13712.21
529.823	13255.07
530.255	13274.84
530.687	12985.24
531.119	12695.56
531.551	12697.08
531.982	12430.72
532.414	12244
532.846	12015.35
533.277	11801.51
533.709	11523.92
534.14	11436.58
534.572	11271.01
535.003	11191.76
535.435	10997.59
535.866	10842.94
536.297	10490.94
536.728	10561.49
537.159	10426.52
537.59	10243.66
538.022	10088.4
538.452	9999.65
538.883	9718.21
539.314	9737.54
539.745	9499.79
540.176	9330.44
540.606	9093.66
541.037	9114.36
541.468	8983.43
541.898	8887.88
542.328	8809.64
542.759	8592.58
543.189	8554.68
543.619	8470.55
544.05	8279
544.48	8118.71
544.91	8046.57
545.34	7927.21
545.77	7813.22
546.2	7735.44
546.63	7488.22
547.06	7555.43
547.489	7417.58
547.919	7237.65
548.349	7233.19
548.778	7135.92
549.208	7033.32
549.637	6863.36
550.067	6834.18
550.496	6829.44
550.926	6643.13
551.355	6521.66
551.784	6549.6
552.213	6407.45
552.642	6302.64
553.071	6268.3
553.5	6194.83
553.929	5979.95
554.358	5987.63
554.787	5906.29
555.216	5871.03
555.645	5814.54
556.073	5657.91
556.502	5650.47
556.93	5516.74
557.359	5499.45
557.787	5444.09
558.216	5373.26
558.644	5284.78
559.072	5310.9
559.5	5212.23
559.929	5217.84
560.357	5154.05
560.785	5056.3
561.213	5072.33
561.641	4985.47
562.068	4960.33
562.496	4880.05
562.924	4842.84
563.352	4807.22
563.779	4782.3
564.207	4837.21
564.634	4721.72
565.062	4667.55
565.489	4636.7
565.917	4607.44
566.344	4527.95
566.771	4514.25
567.198	4507.26
567.625	4446.79
568.053	4343.21
568.48	4280.2
568.907	4280.74
569.333	4222.27
569.76	4113.59
570.187	4117.37
570.614	3993.44
571.04	4138.15
571.467	3937.22
571.894	3830.1
572.32	3767.83
572.747	3700.9
573.173	3650.2
573.599	3611.68
574.026	3538.93
574.452	3504.98
574.878	3403.32
575.304	3351.63
575.73	3332.58
576.156	3278.67
576.582	3232.63
577.008	3199.65
577.434	3097.63
577.86	3047.4
578.285	3006.7
578.711	2990.85
579.137	2935.9
579.562	2845.62
579.988	2903.63
580.413	2811.39
580.838	2769.21
581.264	2728.37
581.689	2681.21
582.114	2649.66
582.539	2685.6
582.964	2599.43
583.39	2564.56
583.814	2518.95
584.239	2416.1
584.664	2470.02
585.089	2436.74
585.514	2354.72
585.939	2359.4
586.363	2289.16
586.788	2273.17
587.212	2284.47
587.637	2235.95
588.061	2191.26
588.485	2147.93
588.91	2111.76
589.334	2101.81
589.758	2073.63
590.182	2045.44
590.606	2023.05
591.03	2017.79
591.454	1932.3
591.878	1960.53
592.302	1976.58
592.726	1890.21
593.15	1878.86
593.573	1853.37
593.997	1808.75
594.42	1785.18
594.844	1766.87
595.267	1739.96
595.691	1734.41
596.114	1712.2
596.537	1657.78
596.96	1678.61
597.384	1666.94
597.807	1640.83
598.23	1628.88
598.653	1615.54
599.076	1597.48
599.499	1599.98
599.921	1597.48
600.344	1572.73
600.767	1573.56
601.189	1578.29
601.612	1552.98
602.034	1544.36
602.457	1507.91
602.879	1500.12
603.302	1500.95
603.724	1483.14
604.146	1452.51
604.568	1465.32
604.991	1476.18
605.413	1458.91
605.835	1483.14
606.257	1429.94
606.678	1420.47
607.1	1403.75
607.522	1428.27
607.944	1411.55
608.365	1383.96
608.787	1411.27
609.209	1363.05
609.63	1323.45
610.051	1349.11
610.473	1330.14
610.894	1293.31
611.315	1292.75
611.737	1318.98
612.158	1264.56
612.579	1257.3
613	1246.41
613.421	1238.59
613.842	1201.44
614.263	1196.69
614.683	1159.23
615.104	1184.11
615.525	1162.87
615.945	1147.21
616.366	1149.73
616.787	1156.16
617.207	1119.24
617.627	1129.59
618.048	1089.87
618.468	1092.39
618.888	1059.64
619.308	1028.28
619.728	1043.68
620.148	1011.2
620.568	1013.44
620.988	982.62
621.408	992.43
621.828	966.08
622.248	990.47
622.668	964.96
623.087	956.84
623.507	942.82
623.926	960.2
624.346	943.94
624.765	902.72
625.185	907.2
625.604	902.72
626.023	905.8
626.442	910.29
626.861	885.6
627.28	881.39
627.699	881.67
628.118	859.22
628.537	885.04
628.956	869.33
629.375	871.85
629.794	851.64
630.212	837.89
630.631	838.73
631.049	809.53
631.468	834.52
631.886	778.35
632.305	803.35
632.723	788.46
633.141	779.75
633.559	760.36
633.978	772.44
634.396	792.11
634.814	744.34
635.232	750.52
635.65	753.9
636.067	748.84
636.485	760.08
636.903	728.32
637.321	754.18
637.738	730.28
638.156	739
638.573	707.22
638.991	729.16
639.408	695.13
639.825	677.69
640.243	709.19
640.66	681.63
641.077	681.35
641.494	694.57
641.911	695.69
642.328	690.35
642.745	676.28
643.162	681.91
643.579	665.31
643.995	667.28
644.412	660.24
644.829	648.99
645.245	663.62
645.662	648.42
646.078	621.12
646.495	656.02
646.911	626.47
647.327	632.1
647.743	622.81
648.159	636.6
648.576	600.56
648.992	626.75
649.408	599.71
649.824	607.32
650.239	601.4
650.655	638.85
651.071	611.26
651.487	572.39
651.902	583.94
652.318	598.02
652.733	574.93
653.149	614.64
653.564	600.84
653.979	584.22
654.395	556.89
654.81	564.5
655.225	567.6
655.64	570.42
656.055	567.32
656.47	579.43
656.885	554.92
657.3	565.63
657.715	571.83
658.13	587.04
658.544	576.62
658.959	550.97
659.374	522.79
659.788	525.32
660.202	576.33
660.617	550.13
661.031	539.98
661.445	542.24
661.86	546.75
662.274	548.44
662.688	536.88
663.102	534.91
663.516	559.15
663.93	517.43
664.344	526.45
664.758	516.58
665.171	530.12
665.585	530.68
665.999	539.42
666.412	507
666.826	517.43
667.239	492.33
667.653	555.77
668.066	522.22
668.479	504.18
668.892	507
669.306	497.97
669.719	522.5
670.132	503.05
670.545	516.3
670.958	488.95
671.37	504.18
671.783	500.51
672.196	478.23
672.609	486.13
673.021	477.38
673.434	470.89
673.846	489.79
674.259	489.23
674.671	513.48
675.084	481.33
675.496	490.08
675.908	498.82
676.32	472.3
676.732	490.92
677.144	486.41
677.556	484.43
677.968	491.49
678.38	444.93
678.792	493.18
679.204	461.3
679.615	467.23
680.027	453.12
680.439	470.89
680.85	449.45
681.262	485
681.673	469.2
682.084	481.05
682.496	448.88
682.907	490.36
683.318	464.12
683.729	473.43
684.14	464.12
684.551	476.82
684.962	465.81
685.373	454.53
685.784	454.25
686.194	479.92
686.605	477.38
687.016	444.37
687.426	485.28
687.837	443.52
688.247	475.69
688.657	474.56
689.068	476.54
689.478	475.97
689.888	457.63
690.298	450.86
690.708	455.09
691.118	448.88
691.528	455.09
691.938	457.07
692.348	466.38
692.758	449.73
693.168	446.34
693.577	449.73
693.987	430.54
694.396	420.66
694.806	474.84
695.215	441.55
695.625	414.73
696.034	466.66
696.443	451.42
696.852	449.45
697.262	413.03
697.671	451.71
698.08	453.68
698.489	442.96
698.897	417.27
699.306	435.05
699.715	447.76
700.124	443.52
700.532	418.68
700.941	438.44
701.35	435.9
701.758	433.93
702.166	429.13
702.575	414.16
702.983	411.06
703.391	446.91
703.799	405.69
704.208	417.55
704.616	447.47
705.024	459.89
705.432	403.43
705.839	432.8
706.247	446.06
706.655	436.75
707.063	429.97
707.47	409.93
707.878	408.8
708.285	399.2
708.693	424.89
709.1	445.22
709.508	442.68
709.915	429.41
710.322	419.25
710.729	420.66
711.136	429.41
711.543	457.63
711.95	446.34
712.357	430.54
712.764	409.36
713.171	415.86
713.578	424.61
713.984	433.08
714.391	426.87
714.797	412.75
715.204	424.33
715.61	414.45
716.017	418.96
716.423	392.42
716.829	396.66
717.236	411.34
717.642	409.08
718.048	388.18
718.454	444.93
718.86	414.45
719.266	427.43
719.671	417.27
720.077	418.4
720.483	430.82
720.889	405.13
721.294	382.82
721.7	410.21
722.105	399.76
722.511	423.2
722.916	421.22
723.321	396.09
723.726	427.43
724.132	423.76
724.537	409.93
724.942	420.09
725.347	414.73
725.752	428.84
726.156	388.18
726.561	407.39
726.966	405.98
727.371	396.09
727.775	419.25
728.18	377.45
728.584	382.82
728.989	404.28
729.393	428
729.798	413.03
730.202	385.64
730.606	403.43
731.01	407.95
731.414	404
731.818	388.75
732.222	395.53
732.626	402.87
733.03	397.79
733.434	407.95
733.837	413.88
734.241	420.66
734.645	412.47
735.048	398.35
735.452	433.64
735.855	402.3
736.258	425.74
736.662	440.98
737.065	420.94
737.468	404.56
737.871	413.6
738.274	433.36
738.677	402.3
739.08	419.53
739.483	402.87
739.886	401.46
740.289	389.31
740.691	395.81
741.094	410.49
741.497	399.76
741.899	396.94
742.302	389.03
742.704	417.55
743.106	407.95
743.508	379.99
743.911	413.6
744.313	436.47
744.715	412.75
745.117	396.09
745.519	411.06
745.921	396.37
746.323	396.66
746.724	418.68
747.126	420.66
747.528	412.19
747.929	440.7
748.331	435.34
748.732	415.86
749.134	383.1
749.535	420.38
749.936	391.29
750.338	384.23
750.739	422.35
751.14	411.06
751.541	396.09
751.942	437.31
752.343	393.55
752.744	415.58
753.144	414.16
753.545	415.01
753.946	420.09
754.346	394.68
754.747	389.6
755.148	420.66
755.548	390.44
755.948	404.28
756.349	402.3
756.749	382.82
757.149	400.89
757.549	405.13
757.949	376.6
758.349	381.97
758.749	419.81
759.149	414.45
759.549	403.43
759.949	421.22
760.348	393.55
760.748	405.13
761.148	406.54
761.547	418.68
761.947	400.89
762.346	395.81
762.745	401.46
763.145	376.32
763.544	403.72
763.943	403.72
764.342	380.84
764.741	408.8
765.14	409.65
765.539	427.72
765.938	416.14
766.336	382.25
766.735	416.14
767.134	416.99
767.532	394.12
767.931	403.15
768.329	406.54
768.728	400.61
769.126	395.24
769.525	421.79
769.923	379.99
770.321	404
770.719	382.54
771.117	377.73
771.515	391.01
771.913	418.12
772.311	400.33
772.709	404.28
773.106	404.28
773.504	417.27
773.902	419.81
774.299	396.37
774.697	365.87
775.094	384.23
775.491	391.01
775.889	382.54
776.286	396.94
776.683	382.82
777.08	423.2
777.477	407.39
777.874	408.8
778.271	382.82
778.668	376.32
779.065	380.84
779.462	389.31
779.858	402.02
780.255	368.13
780.652	391.86
781.048	399.76
781.444	396.09
781.841	385.36
782.237	396.37
782.633	401.74
783.03	416.14
783.426	390.16
783.822	396.94
784.218	374.06
784.614	421.5
785.01	394.96
785.405	380.28
785.801	415.01
786.197	400.05
786.593	404.85
786.988	387.62
787.384	418.96
787.779	398.92
788.174	391.57
788.57	399.48
788.965	374.63
789.36	411.34
789.755	402.59
790.15	416.42
790.545	400.05
790.94	404.85
791.335	392.42
791.73	364.46
792.125	406.54
792.52	426.02
792.914	375.76
793.309	391.01
793.703	384.23
794.098	371.52
794.492	402.87
794.887	370.95
795.281	394.96
795.675	393.83
796.069	420.94
796.463	406.82
796.857	365.87
797.251	383.1
797.645	379.43
798.039	417.27
798.433	402.3
798.826	389.6
799.22	383.38
799.614	418.96
800.007	375.76
800.401	398.63
800.794	382.25
801.187	393.27
801.581	397.5
801.974	365.02
802.367	397.5
802.76	384.23
803.153	387.9
803.546	365.59
803.939	402.3
804.332	392.42
804.725	378.58
805.117	387.9
805.51	401.18
805.903	424.05
806.295	401.74
806.688	392.42
807.08	409.36
807.472	396.94
807.865	392.99
808.257	388.18
808.649	399.48
809.041	398.63
809.433	370.39
809.825	369.82
810.217	374.34
810.609	376.32
811.001	399.48
811.392	359.93
811.784	388.75
812.175	393.83
812.567	392.42
812.958	412.75
813.35	383.95
813.741	414.73
814.132	384.79
814.524	376.89
814.915	384.79
815.306	374.63
815.697	390.73
816.088	368.41
816.479	399.76
816.87	392.7
817.26	391.01
817.651	399.2
818.042	383.1
818.432	392.14
818.823	408.23
819.213	370.11
819.604	371.8
819.994	415.86
820.384	385.64
820.775	388.47
821.165	363.33
821.555	365.02
821.945	381.97
822.335	379.71
822.725	383.66
823.114	389.31
823.504	413.32
823.894	392.42
824.284	397.79
824.673	389.03
825.063	396.66
825.452	387.05
825.842	395.81
826.231	398.07
826.62	411.62
827.009	387.9
827.399	359.09
827.788	390.16
828.177	377.17
828.566	363.89
828.954	393.83
829.343	382.54
829.732	398.07
830.121	382.54
830.509	401.18
830.898	373.78
831.286	379.99
831.675	359.09
832.063	401.74
832.452	392.14
832.84	403.72
833.228	420.09
833.616	420.94
834.004	380.56
834.392	397.5
834.78	400.61
835.168	407.95
835.556	377.17
835.944	404.85
836.331	392.42
836.719	388.47
837.107	388.18
837.494	375.76
837.881	354.28
838.269	378.02
838.656	388.47
839.043	389.6
839.431	376.04
839.818	397.79
840.205	393.27
840.592	385.36
840.979	389.31
841.366	378.86
841.752	398.35
842.139	367.56
842.526	404.28
842.912	385.64
843.299	391.29
843.685	389.31
844.072	371.52
844.458	389.88
844.844	383.1
845.231	383.38
845.617	383.66
846.003	391.01
846.389	368.98
846.775	387.9
847.161	403.43
847.547	376.89
847.933	379.15
848.318	395.53
848.704	384.79
849.09	378.58
849.475	381.69
849.861	371.8
850.246	399.2
850.631	406.82
851.017	392.42
851.402	363.33
851.787	387.34
852.172	379.15
852.557	366.43
852.942	398.35
853.327	364.74
853.712	351.74
854.097	394.12
854.481	368.13
854.866	380.28
855.25	384.79
855.635	386.21
856.019	409.36
856.404	376.32
856.788	395.24
857.172	394.12
857.557	389.03
857.941	378.58
858.325	396.94
858.709	389.31
859.093	356.54
859.477	361.06
859.86	387.05
860.244	389.88
860.628	394.4
861.012	369.54
861.395	396.09
861.779	391.57
862.162	396.94
862.545	403.43
862.929	395.81
863.312	381.97
863.695	380.84
864.078	348.91
864.461	396.66
864.844	399.76
865.227	394.68
865.61	374.91
865.993	368.41
866.376	393.27
866.758	409.36
867.141	377.45
867.523	400.89
867.906	379.71
868.288	402.02
868.671	376.04
869.053	367
869.435	390.16
869.817	375.47
870.199	378.3
870.581	378.02
870.963	408.23
871.345	367.28
871.727	427.15
872.109	378.86
872.491	401.46
872.872	385.64
873.254	371.24
873.635	376.04
874.017	379.71
874.398	389.31
874.779	383.1
875.161	388.47
875.542	367
875.923	376.89
876.304	402.87
876.685	370.67
877.066	391.86
877.447	390.44
877.828	402.02
878.208	390.16
878.589	399.2
878.97	390.44
879.35	376.04
879.731	379.71
880.111	366.43
880.491	403.15
880.872	366.15
881.252	373.5
881.632	385.36
882.012	407.11
882.392	386.49
882.772	386.77
883.152	386.49
883.532	380.84
883.912	396.09
884.291	357.96
884.671	367.28
885.051	374.06
885.43	381.41
885.81	378.86
886.189	359.37
886.568	386.21
886.948	393.83
887.327	381.41
887.706	373.21
888.085	394.96
888.464	346.37
888.843	401.46
889.222	376.6
889.601	384.79
889.979	402.87
890.358	362.76
890.737	367
891.115	374.06
891.494	393.83
891.872	379.99
892.25	384.23
892.629	378.58
893.007	395.24
893.385	393.55
893.763	390.44
894.141	388.75
894.519	401.46
894.897	385.36
895.275	385.92
895.653	406.54
896.03	382.82
896.408	370.39
896.786	362.48
897.163	380.56
897.541	375.19
897.918	371.52
898.295	368.98
898.673	374.63
899.05	416.99
899.427	383.95
899.804	378.3
900.181	356.26
900.558	364.17
900.935	390.16
901.312	383.38
901.688	388.18
902.065	356.26
902.442	400.05
902.818	363.61
903.195	388.47
903.571	357.96
903.947	386.77
904.324	354.85
904.7	370.11
905.076	390.16
905.452	394.12
905.828	380.84
906.204	381.69
906.58	407.95
906.956	390.73
907.331	394.4
907.707	380.84
908.083	381.41
908.458	378.58
908.834	381.12
909.209	373.78
909.585	376.04
909.96	378.02
910.335	370.95
910.71	394.4
911.086	367.28
911.461	369.82
911.836	366.72
912.21	370.39
912.585	377.45
912.96	383.66
913.335	386.77
913.709	395.53
914.084	401.46
914.459	395.24
914.833	392.7
915.207	378.58
915.582	383.1
915.956	367.56
916.33	363.33
916.704	373.78
917.078	371.8
917.452	384.23
917.826	381.97
918.2	388.75
918.574	367.56
918.948	366.72
919.321	385.08
919.695	381.69
920.068	360.22
920.442	403.43
920.815	357.67
921.189	384.51
921.562	387.34
921.935	400.89
922.308	348.63
922.681	398.07
923.054	381.69
923.427	368.98
923.8	364.46
924.173	374.06
924.546	380.56
924.919	396.09
925.291	369.54
925.664	369.82
926.036	418.12
926.409	377.73
926.781	374.63
927.153	376.04
927.526	394.4
927.898	390.16
928.27	394.4
928.642	389.31
929.014	399.48
929.386	370.39
929.758	392.7
930.129	387.05
930.501	363.33
930.873	363.04
931.244	367
931.616	372.65
931.987	360.5
932.359	374.63
932.73	378.58
933.101	377.17
933.472	373.78
933.843	367
934.214	384.51
934.585	406.26
934.956	376.32
935.327	362.2
935.698	381.41
936.069	350.89
936.439	344.68
936.81	377.17
937.18	389.31
937.551	364.46
937.921	392.99
938.292	389.6
938.662	384.79
939.032	402.3
939.402	378.58
939.772	391.57
940.142	388.75
940.512	368.98
940.882	381.41
941.252	355.41
941.621	370.11
941.991	378.02
942.361	368.69
942.73	373.5
943.1	421.5
943.469	366.15
943.838	387.9
944.208	387.9
944.577	369.82
944.946	371.8
945.315	369.26
945.684	387.9
946.053	358.52
946.422	349.76
946.791	369.26
947.159	370.11
947.528	367.85
947.897	375.47
948.265	358.52
948.634	344.39
949.002	377.73
949.371	367.56
949.739	352.87
950.107	391.29
950.475	369.54
950.843	389.6
951.211	371.52
951.579	384.79
951.947	378.02
952.315	386.49
952.683	364.46
953.05	385.92
953.418	385.64
953.785	356.83
954.153	404
954.52	371.24
954.888	378.86
955.255	358.24
955.622	408.23
955.989	386.21
956.356	370.11
956.723	362.76
957.09	361.91
957.457	391.86
957.824	362.48
958.191	383.95
958.557	393.27
958.924	385.64
959.291	360.78
959.657	356.26
960.023	368.41
960.39	353.72
960.756	364.74
961.122	363.61
961.488	359.93
961.855	361.06
962.221	373.21
962.586	375.19
962.952	384.51
963.318	402.59
963.684	378.58
964.05	385.64
964.415	379.43
964.781	376.32
965.146	383.95
965.512	368.98
965.877	388.75
966.242	396.37
966.608	383.1
966.973	377.17
967.338	382.82
967.703	377.45
968.068	388.75
968.433	361.63
968.797	390.16
969.162	380.84
969.527	379.43
969.891	368.98
970.256	378.86
970.62	383.38
970.985	354.28
971.349	374.34
971.714	379.43
972.078	361.35
972.442	393.55
972.806	337.04
973.17	393.55
973.534	375.76
973.898	374.91
974.262	402.02
974.625	363.61
974.989	373.5
975.353	348.35
975.716	383.95
976.08	358.24
976.443	339.02
976.806	368.41
977.17	360.22
977.533	387.05
977.896	393.27
978.259	382.54
978.622	374.34
978.985	385.64
979.348	377.17
979.711	394.12
980.073	399.48
980.436	369.26
980.799	365.3
981.161	380.56
981.524	388.75
981.886	363.61
982.248	372.65
982.611	356.54
982.973	379.71
983.335	385.08
983.697	359.09
984.059	352.87
984.421	376.89
984.783	364.46
985.145	356.54
985.506	376.6
985.868	382.82
986.23	371.8
986.591	381.41
986.953	341.85
987.314	368.41
987.675	370.95
988.037	497.69
988.398	335.35
988.759	378.86
989.12	378.02
989.481	355.98
989.842	371.52
990.203	359.09
990.564	368.69
990.924	370.67
991.285	525.04
991.646	370.11
992.006	384.23
992.367	376.32
992.727	374.06
993.087	375.19
993.448	379.15
993.808	373.5
994.168	355.7
994.528	392.14
994.888	372.93
995.248	374.91
995.608	361.63
995.967	377.17
996.327	369.54
996.687	379.99
997.046	395.81
997.406	362.76
997.765	370.39
998.125	363.33
998.484	345.81
998.843	372.93
999.202	364.74
999.561	389.88
999.92	367.56
1000.279	378.02
1000.638	383.38
1000.997	330.26
1001.356	363.04
1001.715	368.13
1002.073	410.21
1002.432	370.95
1002.79	370.95
1003.149	392.42
1003.507	383.95
1003.865	359.37
1004.224	377.45
1004.582	357.11
1004.94	338.74
1005.298	387.9
1005.656	360.22
1006.014	344.68
1006.371	385.64
1006.729	384.23
1007.087	345.81
1007.445	376.6
1007.802	387.05
1008.16	381.41
1008.517	396.66
1008.874	389.6
1009.232	362.76
1009.589	368.69
1009.946	398.35
1010.303	379.43
1010.66	374.34
1011.017	402.3
1011.374	357.96
1011.731	368.98
1012.087	388.75
1012.444	371.24
1012.801	377.45
1013.157	374.06
1013.513	373.5
1013.87	390.44
1014.226	377.73
1014.582	369.54
1014.939	359.09
1015.295	384.51
1015.651	384.51
1016.007	363.61
1016.363	362.76
1016.719	345.24
1017.074	382.25
1017.43	374.63
1017.786	375.76
1018.141	388.75
1018.497	401.46
1018.852	377.73
1019.208	389.6
1019.563	339.02
1019.918	361.91
1020.273	379.15
1020.628	374.34
1020.983	362.48
1021.338	396.94
1021.693	370.39
1022.048	358.8
1022.403	375.47
1022.757	351.46
1023.112	348.91
1023.467	387.05
1023.821	395.24
1024.175	385.36
1024.53	361.06
1024.884	384.51
1025.238	378.86
1025.592	368.69
1025.946	381.97
1026.3	376.89
1026.654	369.54
1027.008	332.81
1027.362	379.15
1027.716	370.95
1028.069	368.98
1028.423	354.85
1028.777	373.78
1029.13	362.2
1029.483	387.34
1029.837	379.15
1030.19	380.56
1030.543	367.85
1030.896	385.36
1031.249	374.06
1031.602	366.72
1031.955	353.15
1032.308	383.38
1032.661	362.48
1033.013	395.53
1033.366	374.63
1033.719	359.37
1034.071	390.44
1034.424	374.06
1034.776	358.52
1035.128	352.31
1035.48	405.13
1035.833	350.04
1036.185	347.22
1036.537	347.22
1036.889	347.22
