Data from SCSF78-405_irradiation_FLMS019251_09-12-27-935.txt Node
Date: Fri Feb 22 09:12:27 PST 2019
User: mu3e
Spectrometer: FLMS01925
Trigger mode: 0
Integration Time (sec): 1.206000E-2
Scans to average: 10
Electric dark correction enabled: true
Nonlinearity correction enabled: true
Boxcar width: 0
XAxis mode: Wavelengths
Number of Pixels in Spectrum: 2048
>>>>>Begin Spectral Data<<<<<
187.103	-62.88
187.574	-62.88
188.045	-62.88
188.516	-111.77
188.987	-131.68
189.458	-127.41
189.929	-116.61
190.4	-110.63
190.871	-92.44
191.342	-81.07
191.813	-68.28
192.284	-28.5
192.754	-10.33
193.225	-17.14
193.696	20.62
194.166	49.56
194.637	64.6
195.107	92.11
195.578	121.03
196.048	148.8
196.518	154.75
196.989	187.04
197.459	212.81
197.929	253
198.399	266.02
198.869	304.48
199.339	320.31
199.809	327.38
200.279	354.51
200.749	357.62
201.219	340.95
201.689	392.37
202.159	398.02
202.628	381.63
203.098	409.31
203.568	385.87
204.037	381.63
204.507	388.41
204.976	420.32
205.445	383.61
205.915	402.25
206.384	427.38
206.853	395.19
207.323	429.07
207.792	413.55
208.261	394.06
208.73	422.86
209.199	390.96
209.668	401.69
210.137	375.42
210.606	368.08
211.075	384.74
211.543	398.3
212.012	380.22
212.481	386.15
212.95	379.66
213.418	373.44
213.887	373.16
214.355	401.12
214.824	359.32
215.292	374.01
215.76	363.55
216.229	364.68
216.697	361.29
217.165	370.34
217.633	352.82
218.101	377.12
218.569	360.45
219.037	372.88
219.505	336.71
219.973	360.16
220.441	384.18
220.909	348.86
221.377	363.27
221.844	381.07
222.312	365.81
222.78	356.77
223.247	342.93
223.715	360.45
224.182	344.06
224.65	372.88
225.117	366.1
225.584	394.63
226.052	366.95
226.519	355.08
226.986	350.56
227.453	385.87
227.92	342.93
228.387	383.61
228.854	388.98
229.321	375.99
229.788	360.16
230.255	349.43
230.722	367.79
231.189	338.12
231.655	365.81
232.122	361.29
232.589	363.27
233.055	376.55
233.522	396.32
233.988	386.15
234.454	382.2
234.921	372.31
235.387	375.7
235.853	373.16
236.32	378.25
236.786	357.9
237.252	382.48
237.718	341.51
238.184	375.99
238.65	372.6
239.116	362.42
239.582	383.33
240.047	400.28
240.513	379.09
240.979	375.99
241.445	387
241.91	375.14
242.376	387.28
242.841	359.03
243.307	383.05
243.772	360.45
244.238	383.89
244.703	371.18
245.168	366.38
245.633	379.37
246.099	382.48
246.564	388.41
247.029	379.37
247.494	370.9
247.959	369.49
248.424	389.83
248.889	377.68
249.353	384.74
249.818	364.97
250.283	406.21
250.748	383.33
251.212	407.9
251.677	396.32
252.141	380.79
252.606	401.69
253.07	392.93
253.535	381.35
253.999	381.63
254.463	379.09
254.927	370.62
255.392	411.57
255.856	381.92
256.32	393.78
256.784	381.35
257.248	380.79
257.712	398.58
258.176	396.89
258.64	383.89
259.103	368.36
259.567	390.96
260.031	377.4
260.495	393.5
260.958	403.66
261.422	369.49
261.885	382.76
262.349	378.25
262.812	354.23
263.275	385.31
263.739	387
264.202	400.28
264.665	374.29
265.128	374.01
265.591	385.87
266.054	382.48
266.517	365.53
266.98	378.81
267.443	392.09
267.906	400.84
268.369	398.58
268.832	402.53
269.294	392.93
269.757	394.63
270.22	370.9
270.682	381.63
271.145	388.41
271.607	395.47
272.07	371.75
272.532	388.13
272.994	379.66
273.456	394.06
273.919	395.76
274.381	403.66
274.843	401.4
275.305	405.08
275.767	385.59
276.229	385.59
276.691	394.91
277.153	386.15
277.614	379.66
278.076	404.23
278.538	375.7
279	407.05
279.461	424.84
279.923	413.55
280.384	374.57
280.846	390.96
281.307	382.48
281.769	395.76
282.23	407.05
282.691	403.1
283.152	389.26
283.613	394.06
284.075	382.2
284.536	403.1
284.997	411.29
285.458	425.69
285.918	406.77
286.379	424.27
286.84	402.25
287.301	398.3
287.762	396.32
288.222	403.66
288.683	400.28
289.143	382.76
289.604	412.13
290.064	383.61
290.525	382.2
290.985	398.3
291.445	422.02
291.906	377.12
292.366	399.71
292.826	392.37
293.286	385.59
293.746	392.65
294.206	393.78
294.666	423.43
295.126	411.57
295.586	398.3
296.046	369.21
296.506	388.7
296.965	409.31
297.425	421.45
297.884	385.02
298.344	427.94
298.804	420.04
299.263	395.47
299.722	417.5
300.182	406.49
300.641	414.11
301.1	391.8
301.559	405.08
302.019	401.69
302.478	429.07
302.937	416.65
303.396	419.19
303.855	417.78
304.314	404.23
304.772	394.91
305.231	429.64
305.69	415.81
306.149	414.11
306.607	398.02
307.066	411.57
307.524	407.62
307.983	407.62
308.441	402.82
308.9	396.32
309.358	395.76
309.816	398.58
310.275	428.23
310.733	388.13
311.191	407.62
311.649	391.8
312.107	425.97
312.565	412.98
313.023	402.53
313.481	395.47
313.939	398.86
314.397	422.58
314.854	398.86
315.312	425.4
315.77	430.77
316.227	403.95
316.685	411.85
317.142	413.26
317.6	386.72
318.057	395.47
318.514	391.24
318.972	422.58
319.429	396.04
319.886	411.01
320.343	379.94
320.8	421.17
321.257	425.97
321.714	436.41
322.171	410.72
322.628	423.99
323.085	409.03
323.542	403.95
323.998	382.48
324.455	411.57
324.912	403.95
325.368	417.5
325.825	405.36
326.281	443.47
326.738	401.12
327.194	424.27
327.65	388.98
328.107	414.11
328.563	415.81
329.019	383.89
329.475	392.09
329.931	434.44
330.387	404.79
330.843	420.04
331.299	411.01
331.755	435
332.211	429.64
332.666	415.52
333.122	393.5
333.578	433.87
334.033	404.23
334.489	398.58
334.944	412.42
335.4	399.99
335.855	413.55
336.31	436.69
336.766	428.79
337.221	414.39
337.676	428.51
338.131	410.16
338.586	406.77
339.041	413.55
339.496	412.98
339.951	429.92
340.406	433.31
340.861	411.57
341.316	439.24
341.771	415.52
342.225	414.11
342.68	415.81
343.134	409.88
343.589	413.26
344.043	410.16
344.498	440.65
344.952	412.42
345.406	439.24
345.861	410.44
346.315	385.31
346.769	406.77
347.223	423.43
347.677	426.82
348.131	399.43
348.585	427.94
349.039	400.84
349.493	405.08
349.947	444.6
350.401	410.16
350.854	418.35
351.308	406.49
351.762	411.57
352.215	427.38
352.669	403.66
353.122	420.89
353.575	418.35
354.029	412.98
354.482	430.77
354.935	438.67
355.388	403.1
355.842	406.49
356.295	439.52
356.748	392.93
357.201	431.05
357.654	409.88
358.106	408.46
358.559	433.87
359.012	428.23
359.465	417.5
359.917	409.88
360.37	435.85
360.823	433.03
361.275	424.56
361.728	443.75
362.18	412.98
362.632	431.05
363.085	428.51
363.537	414.11
363.989	421.17
364.441	433.03
364.893	433.87
365.345	435.28
365.797	380.22
366.249	410.44
366.701	461.53
367.153	451.65
367.605	414.39
368.057	430.2
368.508	433.87
368.96	420.04
369.411	430.49
369.863	427.38
370.314	427.94
370.766	443.75
371.217	412.98
371.669	442.9
372.12	426.82
372.571	442.62
373.022	429.36
373.473	436.13
373.924	422.86
374.375	438.39
374.826	442.9
375.277	426.53
375.728	426.25
376.179	446.01
376.63	431.33
377.08	430.2
377.531	445.16
377.981	390.11
378.432	418.91
378.883	445.16
379.333	425.69
379.783	439.24
380.234	425.4
380.684	435.85
381.134	434.72
381.584	442.06
382.034	431.61
382.485	406.49
382.935	441.21
383.385	423.43
383.834	427.66
384.284	444.03
384.734	443.47
385.184	416.09
385.634	429.64
386.083	450.52
386.533	442.62
386.982	441.78
387.432	422.3
387.881	457.58
388.331	433.87
388.78	458.71
389.229	468.87
389.679	445.73
390.128	449.11
390.577	422.58
391.026	429.36
391.475	417.22
391.924	449.4
392.373	452.5
392.822	425.69
393.27	415.52
393.719	433.59
394.168	457.58
394.617	489.46
395.065	427.94
395.514	447.7
395.962	455.04
396.411	454.19
396.859	436.98
397.307	461.53
397.756	428.51
398.204	459.27
398.652	441.49
399.1	437.26
399.548	469.99
399.996	444.03
400.444	455.32
400.892	432.18
401.34	450.52
401.788	506.94
402.236	467.74
402.683	468.3
403.131	463.79
403.579	456.73
404.026	449.96
404.474	466.04
404.921	453.06
405.369	458.43
405.816	455.32
406.263	475.35
406.71	486.92
407.158	509.76
407.605	486.07
408.052	457.3
408.499	484.38
408.946	494.54
409.393	498.77
409.84	543.59
410.286	519.63
410.733	524.71
411.18	560.5
411.626	605.58
412.073	642.46
412.52	679.89
412.966	804.14
413.413	931.55
413.859	1097.37
414.305	1288.79
414.752	1636.06
415.198	1977.91
415.644	2389.08
416.09	2924.37
416.536	3480.48
416.982	4166.96
417.428	4953.59
417.874	5794.59
418.32	6730.75
418.766	7683.95
419.211	8855.71
419.657	9830.74
420.103	11105.01
420.548	12121.5
420.994	13529.14
421.439	14757.91
421.885	15934.07
422.33	17504.91
422.776	18745.17
423.221	19769.46
423.666	21180.56
424.111	22726.37
424.556	23622.9
425.001	25262.77
425.446	26739.68
425.891	28103.69
426.336	29112.79
426.781	30456.29
427.226	32816.23
427.671	33478.71
428.115	34461.93
428.56	36253.21
429.005	38003.77
429.449	38499.9
429.894	40172.07
430.338	41353.83
430.782	41547.69
431.227	43113.55
431.671	43581.48
432.115	45215.01
432.559	46450.64
433.003	46233.59
433.447	47276.04
433.891	47659.87
434.335	48130.03
434.779	49015.4
435.223	49273.12
435.667	49322.83
436.111	49944.61
436.554	49967.95
436.998	49335.06
437.442	49608.33
437.885	51838.62
438.328	50170.19
438.772	50504.13
439.215	51000.65
439.659	50578.4
440.102	51010.23
440.545	50359.51
440.988	50144.42
441.431	51276.32
441.874	50661.21
442.317	50933.64
442.76	50457.92
443.203	49745.56
443.646	50586.6
444.089	50134.69
444.531	50934.7
444.974	49557.42
445.417	50683.72
445.859	49629.75
446.302	50806.44
446.744	50206.49
447.186	51323.9
447.629	50296
448.071	50296.79
448.513	50377.7
448.956	52043.66
449.398	50994.53
449.84	49724.37
450.282	50392.47
450.724	51269.11
451.166	50851.56
451.607	50677.63
452.049	50730.61
452.491	52087.79
452.933	51490.7
453.374	52044.2
453.816	52504.04
454.257	52291.02
454.699	53391.63
455.14	53051.79
455.582	52802.69
456.023	52641.51
456.464	52884.58
456.905	53532.51
457.347	53444.75
457.788	52481.66
458.229	52793.91
458.67	53778.03
459.111	51758.85
459.552	51851.02
459.992	51737.85
460.433	51467.11
460.874	50493.83
461.315	51889.61
461.755	50624.69
462.196	50148.36
462.636	49247.37
463.077	48933.98
463.517	49121.83
463.957	49455.43
464.398	49106.25
464.838	49164.18
465.278	47921.4
465.718	48336.23
466.158	47191.05
466.598	47587.92
467.038	46993.21
467.478	47464.35
467.918	47772.36
468.358	46860.29
468.798	46563.36
469.237	46576.31
469.677	46473.74
470.117	47415.52
470.556	44677.24
470.996	45318.52
471.435	45576.95
471.874	46078.09
472.314	46005.72
472.753	44961.64
473.192	45030.54
473.631	44742.53
474.07	44931.22
474.509	44957.11
474.948	45224.57
475.387	44599.94
475.826	43543.78
476.265	45327.09
476.704	44805.32
477.143	45330.87
477.581	44900.55
478.02	45614.81
478.458	44225.65
478.897	44781.96
479.335	46162.66
479.774	45547.94
480.212	45886.85
480.65	45640.8
481.089	45268.9
481.527	44927.2
481.965	44403.56
482.403	46601.96
482.841	46175.07
483.279	46205.97
483.717	46313.68
484.155	45800.67
484.592	46208.76
485.03	46434.4
485.468	45346.99
485.905	45514.64
486.343	46061.64
486.781	45368.41
487.218	44830.44
487.655	44776.18
488.093	43701.36
488.53	45560.3
488.967	44330.12
489.405	44227.4
489.842	43412.5
490.279	43219.22
490.716	42825.93
491.153	43320.21
491.59	42659.74
492.027	42087.37
492.463	41623.98
492.9	40777.96
493.337	40572
493.773	40739.43
494.21	39768.91
494.647	39617.47
495.083	38807.38
495.519	38282.44
495.956	38396.56
496.392	37701.48
496.828	37310.23
497.265	36651.09
497.701	36873.74
498.137	36464.23
498.573	35481.55
499.009	36058.39
499.445	35221.97
499.881	34607.85
500.316	35074.75
500.752	33980.13
501.188	33657.46
501.624	33666.48
502.059	32315.46
502.495	32135.05
502.93	32121.88
503.366	32372.26
503.801	31565.98
504.236	31308.73
504.672	30820.97
505.107	30547.53
505.542	29893.6
505.977	29939
506.412	29207.31
506.847	29531.1
507.282	28977.71
507.717	28604.12
508.152	28634.42
508.587	28376.56
509.021	27550.3
509.456	27298.9
509.891	27272.45
510.325	27294.49
510.76	26921.49
511.194	26649.01
511.628	26765.41
512.063	25881.35
512.497	26036.19
512.931	25437.19
513.366	25207.48
513.8	25337.95
514.234	24560.29
514.668	24743.81
515.102	24834.56
515.536	23809.49
515.969	24063.25
516.403	23535.87
516.837	23035.04
517.271	23276.39
517.704	22799.48
518.138	22642.13
518.571	22455.56
519.005	22043.84
519.438	22002.52
519.871	21773.85
520.305	21217
520.738	21163.46
521.171	20606.56
521.604	20848.76
522.037	20626.67
522.47	20260.89
522.903	19770.7
523.336	19653.29
523.769	19613.73
524.202	19019.86
524.634	19018.37
525.067	18823.21
525.5	18626.71
525.932	18545.14
526.365	18045.36
526.797	17894.95
527.23	17943.92
527.662	17303.98
528.094	17133.49
528.527	17094.18
528.959	16718.84
529.391	16510.96
529.823	15956.43
530.255	16136.02
530.687	15738.29
531.119	15522.53
531.551	15361.24
531.982	15075.21
532.414	14847.41
532.846	14583.36
533.277	14405.69
533.709	14027.03
534.14	13985.58
534.572	13787.81
535.003	13625.1
535.435	13244.88
535.866	13163.5
536.297	12833.16
536.728	12812.59
537.159	12691.95
537.59	12419.23
538.022	12311.63
538.452	12049.18
538.883	11835.63
539.314	11761.69
539.745	11555.78
540.176	11386.21
540.606	11068.43
541.037	11038.74
541.468	10895.14
541.898	10735.79
542.328	10628.12
542.759	10463.43
543.189	10368.7
543.619	10275.47
544.05	10054.92
544.48	9874.78
544.91	9773.04
545.34	9581.01
545.77	9389.79
546.2	9371.71
546.63	9249.78
547.06	9207.65
547.489	9013.14
547.919	8696.56
548.349	8797.41
548.778	8747.9
549.208	8609.91
549.637	8371.51
550.067	8307.82
550.496	8275.31
550.926	8118.92
551.355	7980.6
551.784	7952.45
552.213	7799.35
552.642	7606.88
553.071	7610.8
553.5	7529.23
553.929	7331.13
554.358	7379.83
554.787	7158.43
555.216	7227.38
555.645	7008.33
556.073	6918.24
556.502	6827.29
556.93	6636.76
557.359	6640.45
557.787	6585.66
558.216	6539.54
558.644	6477.31
559.072	6412.68
559.5	6285.95
559.929	6345.9
560.357	6247.91
560.785	6145.33
561.213	6149.3
561.641	5998.97
562.068	5989.97
562.496	5913.92
562.924	5860.11
563.352	5874.96
563.779	5787.16
564.207	5833.06
564.634	5765.66
565.062	5685.22
565.489	5609.23
565.917	5585.04
566.344	5518.82
566.771	5510.04
567.198	5399.31
567.625	5379.87
568.053	5296.19
568.48	5246.33
568.907	5200.71
569.333	5074.95
569.76	4950.91
570.187	4983.01
570.614	4863.14
571.04	5047.43
571.467	4820.02
571.894	4731.59
572.32	4580.01
572.747	4527.37
573.173	4422.53
573.599	4378.42
574.026	4235.7
574.452	4303.04
574.878	4201.47
575.304	4111.12
575.73	4004.74
576.156	3934.74
576.582	3937.71
577.008	3847.91
577.434	3812.46
577.86	3711.96
578.285	3693.53
578.711	3608.64
579.137	3545.4
579.562	3474.5
579.988	3535.08
580.413	3370.63
580.838	3334.16
581.264	3309.12
581.689	3211.59
582.114	3196.33
582.539	3171.79
582.964	3122.42
583.39	3047.62
583.814	3000.64
584.239	2934.76
584.664	2952.53
585.089	2874.85
585.514	2819.56
585.939	2810.79
586.363	2756
586.788	2750.52
587.212	2705.02
587.637	2668.82
588.061	2602.4
588.485	2580.44
588.91	2577.97
589.334	2499.94
589.758	2499.39
590.182	2452.37
590.606	2405.87
591.03	2378.07
591.454	2338.97
591.878	2335.11
592.302	2339.25
592.726	2270.36
593.15	2236.72
593.573	2162.78
593.997	2169.68
594.42	2137.66
594.844	2136.83
595.267	2108.39
595.691	2078
596.114	2057.55
596.537	2018.29
596.96	1992.85
597.384	2017.19
597.807	1946.37
598.23	1994.23
598.653	1927.27
599.076	1928.93
599.499	1906.78
599.921	1852.76
600.344	1869.66
600.767	1853.87
601.189	1815.9
601.612	1833.09
602.034	1796.49
602.457	1809.25
602.879	1770.15
603.302	1772.09
603.724	1781.52
604.146	1768.48
604.568	1720.2
604.991	1714.65
605.413	1734.36
605.835	1728.53
606.257	1691.88
606.678	1699.1
607.1	1665.78
607.522	1678.83
607.944	1655.5
608.365	1664.39
608.787	1661.89
609.209	1603.82
609.63	1594.64
610.051	1586.02
610.473	1579.35
610.894	1545.7
611.315	1539.86
611.737	1524
612.158	1499.23
612.579	1477.24
613	1497.28
613.421	1458.3
613.842	1410.67
614.263	1395.06
614.683	1384.47
615.104	1378.05
615.525	1343.48
615.945	1367.18
616.366	1317.81
616.787	1333.72
617.207	1277.35
617.627	1288.51
618.048	1255.57
618.468	1287.68
618.888	1227.09
619.308	1201.94
619.728	1207.81
620.148	1204.46
620.568	1195.52
620.988	1168.97
621.408	1165.61
621.828	1146.04
622.248	1126.18
622.668	1134.85
623.087	1107.44
623.507	1071.07
623.926	1085.62
624.346	1081.7
624.765	1059.87
625.185	1059.59
625.604	1061.27
626.023	1058.19
626.442	1036.07
626.861	991.53
627.28	990.13
627.699	1027.95
628.118	999.66
628.537	985.09
628.956	958.18
629.375	989.29
629.794	946.13
630.212	950.05
630.631	910.24
631.049	893.97
631.468	917.53
631.886	892
632.305	888.64
632.723	928.19
633.141	866.75
633.559	915
633.978	869.55
634.396	877.69
634.814	853
635.232	866.19
635.65	865.63
636.067	838.4
636.485	848.5
636.903	825.48
637.321	828.85
637.738	811.16
638.156	788.97
638.573	792.9
638.991	831.66
639.408	782.79
639.825	811.16
640.243	775.76
640.66	780.82
641.077	754.12
641.494	755.81
641.911	760.59
642.328	757.78
642.745	742.6
643.162	745.69
643.579	718.14
643.995	736.7
644.412	729.11
644.829	721.51
645.245	721.8
645.662	737.26
646.078	686.64
646.495	709.42
646.911	696.2
647.327	695.92
647.743	701.55
648.159	702.39
648.576	702.11
648.992	676.51
649.408	678.2
649.824	663
650.239	637.11
650.655	691.7
651.071	671.73
651.487	665.82
651.902	613.46
652.318	633.17
652.733	626.41
653.149	638.8
653.564	640.49
653.979	635.7
654.395	656.81
654.81	620.78
655.225	624.44
655.64	636.27
656.055	602.48
656.47	628.1
656.885	598.53
657.3	604.17
657.715	614.87
658.13	579.1
658.544	615.43
658.959	592.06
659.374	602.48
659.788	629.51
660.202	615.15
660.617	571.49
661.031	593.47
661.445	588.68
661.86	612.05
662.274	572.06
662.688	564.17
663.102	576.85
663.516	604.73
663.93	573.18
664.344	563.04
664.758	575.15
665.171	569.52
665.585	567.83
665.999	560.78
666.412	596.28
666.826	567.27
667.239	545.85
667.653	550.08
668.066	554.87
668.479	544.16
668.892	541.06
669.306	540.49
669.719	536.55
670.132	529.78
670.545	530.35
670.958	533.16
671.37	536.55
671.783	544.16
672.196	538.52
672.609	542.18
673.021	542.75
673.434	528.94
673.846	537.39
674.259	517.09
674.671	521.04
675.084	510.33
675.496	541.9
675.908	500.46
676.32	548.1
676.732	522.45
677.144	510.61
677.556	535.42
677.968	528.09
678.38	512.58
678.792	509.2
679.204	506.1
679.615	499.33
680.027	505.53
680.439	506.66
680.85	528.37
681.262	505.25
681.673	479.59
682.084	483.25
682.496	504.41
682.907	493.97
683.318	489.46
683.729	497.07
684.14	499.33
684.551	503.28
684.962	454.48
685.373	471.12
685.784	506.38
686.194	486.36
686.605	476.48
687.016	466.61
687.426	475.35
687.837	479.3
688.247	482.41
688.657	473.1
689.068	481
689.478	493.69
689.888	440.36
690.298	487.77
690.708	479.02
691.118	482.97
691.528	463.5
691.938	461.25
692.348	448.55
692.758	449.11
693.168	478.18
693.577	474.23
693.987	471.4
694.396	477.33
694.806	461.25
695.215	442.06
695.625	448.27
696.034	454.48
696.443	440.36
696.852	433.31
697.262	444.6
697.671	428.79
698.08	450.24
698.489	460.4
698.897	460.97
699.306	461.53
699.715	455.89
700.124	446.01
700.532	442.9
700.941	451.65
701.35	450.81
701.758	455.6
702.166	458.14
702.575	431.9
702.983	449.96
703.391	439.24
703.799	436.69
704.208	429.92
704.616	429.64
705.024	450.24
705.432	442.34
705.839	440.93
706.247	448.27
706.655	448.83
707.063	442.9
707.47	431.61
707.878	411.29
708.285	461.53
708.693	444.6
709.1	449.96
709.508	462.09
709.915	438.11
710.322	438.67
710.729	464.07
711.136	397.45
711.543	449.96
711.95	418.63
712.357	439.24
712.764	436.41
713.171	431.9
713.578	422.58
713.984	428.79
714.391	428.79
714.797	431.05
715.204	430.77
715.61	401.4
716.017	435.28
716.423	409.31
716.829	430.2
717.236	445.16
717.642	422.58
718.048	416.09
718.454	440.65
718.86	427.38
719.266	417.5
719.671	407.62
720.077	425.97
720.483	416.93
720.889	417.78
721.294	426.53
721.7	422.58
722.105	431.33
722.511	420.04
722.916	407.62
723.321	450.52
723.726	422.58
724.132	443.19
724.537	421.17
724.942	430.77
725.347	424.27
725.752	390.96
726.156	443.19
726.561	391.24
726.966	425.4
727.371	436.13
727.775	436.98
728.18	422.86
728.584	425.69
728.989	404.23
729.393	409.59
729.798	407.33
730.202	439.52
730.606	435.57
731.01	418.63
731.414	422.86
731.818	436.98
732.222	420.89
732.626	422.3
733.03	408.46
733.434	426.53
733.837	395.76
734.241	394.63
734.645	437.54
735.048	416.37
735.452	426.82
735.855	406.21
736.258	417.78
736.662	425.97
737.065	403.66
737.468	404.79
737.871	422.02
738.274	408.18
738.677	425.12
739.08	408.75
739.483	429.36
739.886	438.39
740.289	406.49
740.691	416.65
741.094	425.97
741.497	427.66
741.899	426.82
742.302	392.09
742.704	398.86
743.106	409.31
743.508	411.01
743.911	426.25
744.313	415.81
744.715	396.32
745.117	417.78
745.519	411.01
745.921	419.48
746.323	409.03
746.724	417.5
747.126	393.21
747.528	421.45
747.929	444.88
748.331	409.88
748.732	404.79
749.134	416.37
749.535	413.26
749.936	405.08
750.338	413.83
750.739	416.37
751.14	406.21
751.541	403.38
751.942	424.84
752.343	413.83
752.744	417.78
753.144	391.24
753.545	429.36
753.946	417.5
754.346	379.37
754.747	425.4
755.148	415.52
755.548	390.67
755.948	414.96
756.349	428.23
756.749	418.91
757.149	418.35
757.549	395.19
757.949	423.43
758.349	406.77
758.749	387.28
759.149	398.02
759.549	400.28
759.949	394.34
760.348	399.15
760.748	416.37
761.148	386.15
761.547	395.76
761.947	414.39
762.346	396.89
762.745	397.45
763.145	399.43
763.544	392.09
763.943	400.28
764.342	399.43
764.741	414.96
765.14	421.17
765.539	413.55
765.938	388.13
766.336	405.92
766.735	406.21
767.134	419.48
767.532	407.33
767.931	410.72
768.329	416.09
768.728	397.45
769.126	385.31
769.525	402.53
769.923	410.44
770.321	416.37
770.719	396.32
771.117	396.6
771.515	380.22
771.913	390.67
772.311	395.19
772.709	380.79
773.106	399.43
773.504	410.44
773.902	417.5
774.299	407.33
774.697	408.18
775.094	416.93
775.491	392.09
775.889	398.58
776.286	405.92
776.683	381.35
777.08	386.44
777.477	388.41
777.874	411.29
778.271	422.02
778.668	416.93
779.065	379.66
779.462	363.84
779.858	392.93
780.255	421.45
780.652	406.77
781.048	390.11
781.444	387.57
781.841	395.19
782.237	425.4
782.633	403.38
783.03	398.86
783.426	406.21
783.822	406.21
784.218	401.12
784.614	393.78
785.01	409.88
785.405	376.27
785.801	403.66
786.197	398.86
786.593	419.76
786.988	411.85
787.384	377.68
787.779	416.93
788.174	383.61
788.57	398.58
788.965	383.05
789.36	410.72
789.755	416.37
790.15	409.03
790.545	413.26
790.94	411.57
791.335	392.09
791.73	373.16
792.125	396.04
792.52	393.21
792.914	402.82
793.309	425.4
793.703	382.2
794.098	389.83
794.492	426.25
794.887	413.26
795.281	380.79
795.675	407.62
796.069	402.53
796.463	397.73
796.857	374.57
797.251	396.6
797.645	406.77
798.039	408.46
798.433	403.66
798.826	400.56
799.22	398.02
799.614	395.19
800.007	405.08
800.401	401.12
800.794	394.63
801.187	409.59
801.581	412.7
801.974	402.25
802.367	394.63
802.76	405.08
803.153	385.59
803.546	423.71
803.939	420.32
804.332	364.4
804.725	388.7
805.117	383.05
805.51	403.66
805.903	370.34
806.295	374.57
806.688	374.57
807.08	409.88
807.472	393.21
807.865	381.63
808.257	407.9
808.649	393.78
809.041	391.8
809.433	384.74
809.825	381.92
810.217	379.94
810.609	389.54
811.001	399.71
811.392	396.32
811.784	402.53
812.175	385.59
812.567	397.17
812.958	367.51
813.35	381.92
813.741	371.75
814.132	421.73
814.524	406.49
814.915	405.64
815.306	387.28
815.697	372.31
816.088	391.52
816.479	395.76
816.87	392.37
817.26	390.39
817.651	388.13
818.042	405.64
818.432	386.44
818.823	430.49
819.213	375.42
819.604	402.53
819.994	376.27
820.384	411.85
820.775	374.01
821.165	394.63
821.555	392.09
821.945	377.12
822.335	387
822.725	384.18
823.114	364.68
823.504	401.12
823.894	399.43
824.284	398.58
824.673	406.77
825.063	393.21
825.452	422.3
825.842	384.18
826.231	389.54
826.62	370.9
827.009	399.43
827.399	380.22
827.788	404.23
828.177	384.46
828.566	372.88
828.954	390.11
829.343	403.66
829.732	383.89
830.121	403.38
830.509	388.98
830.898	387.85
831.286	405.08
831.675	406.77
832.063	372.88
832.452	375.14
832.84	388.7
833.228	408.46
833.616	404.51
834.004	401.69
834.392	368.92
834.78	408.18
835.168	394.91
835.556	384.18
835.944	387.85
836.331	390.39
836.719	398.58
837.107	420.32
837.494	389.83
837.881	385.31
838.269	401.4
838.656	392.93
839.043	384.74
839.431	399.99
839.818	369.49
840.205	406.49
840.592	386.72
840.979	392.65
841.366	398.3
841.752	358.19
842.139	396.04
842.526	389.83
842.912	380.79
843.299	381.07
843.685	372.31
844.072	388.7
844.458	363.84
844.844	394.34
845.231	394.63
845.617	382.2
846.003	385.87
846.389	380.5
846.775	380.5
847.161	401.97
847.547	384.74
847.933	376.55
848.318	373.16
848.704	405.92
849.09	388.41
849.475	387
849.861	417.78
850.246	366.95
850.631	372.31
851.017	385.87
851.402	394.34
851.787	394.06
852.172	352.54
852.557	393.78
852.942	404.79
853.327	389.83
853.712	384.46
854.097	397.45
854.481	368.92
854.866	371.75
855.25	363.84
855.635	404.23
856.019	368.08
856.404	409.59
856.788	403.95
857.172	403.1
857.557	390.39
857.941	387.28
858.325	379.66
858.709	349.71
859.093	366.66
859.477	389.54
859.86	421.73
860.244	389.54
860.628	401.69
861.012	370.62
861.395	376.83
861.779	366.66
862.162	362.42
862.545	373.44
862.929	391.52
863.312	404.23
863.695	407.62
864.078	393.5
864.461	373.73
864.844	407.33
865.227	382.2
865.61	371.75
865.993	384.18
866.376	383.89
866.758	409.88
867.141	412.98
867.523	368.64
867.906	374.29
868.288	395.19
868.671	366.38
869.053	370.9
869.435	370.9
869.817	379.94
870.199	381.35
870.581	405.92
870.963	381.35
871.345	371.75
871.727	393.21
872.109	386.72
872.491	389.54
872.872	371.18
873.254	382.2
873.635	399.99
874.017	396.32
874.398	407.9
874.779	374.57
875.161	342.64
875.542	358.19
875.923	379.09
876.304	398.3
876.685	363.55
877.066	362.14
877.447	372.31
877.828	387
878.208	381.35
878.589	378.25
878.97	401.69
879.35	374.29
879.731	366.66
880.111	375.42
880.491	380.5
880.872	382.76
881.252	370.05
881.632	389.83
882.012	406.49
882.392	377.12
882.772	379.37
883.152	383.61
883.532	389.26
883.912	399.43
884.291	401.69
884.671	405.36
885.051	375.42
885.43	396.6
885.81	395.47
886.189	373.16
886.568	398.86
886.948	364.68
887.327	364.4
887.706	368.64
888.085	381.63
888.464	378.25
888.843	409.03
889.222	395.76
889.601	397.45
889.979	373.73
890.358	379.09
890.737	396.32
891.115	398.02
891.494	401.4
891.872	390.11
892.25	388.41
892.629	362.14
893.007	368.64
893.385	346.04
893.763	387
894.141	379.94
894.519	390.39
894.897	362.71
895.275	386.15
895.653	371.47
896.03	377.68
896.408	358.19
896.786	381.63
897.163	356.77
897.541	376.27
897.918	401.69
898.295	388.41
898.673	378.25
899.05	377.96
899.427	404.51
899.804	376.55
900.181	363.84
900.558	375.14
900.935	368.08
901.312	381.92
901.688	389.26
902.065	389.83
902.442	392.09
902.818	391.24
903.195	393.78
903.571	389.83
903.947	346.6
904.324	374.86
904.7	354.51
905.076	389.26
905.452	374.01
905.828	373.44
906.204	366.95
906.58	405.08
906.956	390.11
907.331	375.7
907.707	394.06
908.083	371.18
908.458	386.44
908.834	382.48
909.209	390.39
909.585	379.09
909.96	383.61
910.335	369.77
910.71	382.48
911.086	378.25
911.461	383.05
911.836	381.35
912.21	397.17
912.585	379.37
912.96	393.5
913.335	362.42
913.709	395.76
914.084	368.64
914.459	381.07
914.833	375.7
915.207	391.24
915.582	383.89
915.956	394.06
916.33	366.95
916.704	395.47
917.078	356.77
917.452	364.97
917.826	393.21
918.2	403.38
918.574	356.21
918.948	382.48
919.321	371.47
919.695	385.59
920.068	357.06
920.442	360.73
920.815	379.94
921.189	381.07
921.562	377.68
921.935	380.79
922.308	363.84
922.681	390.96
923.054	333.6
923.427	385.31
923.8	377.4
924.173	396.89
924.546	368.92
924.919	401.97
925.291	393.78
925.664	369.21
926.036	353.67
926.409	396.32
926.781	399.15
927.153	377.96
927.526	373.16
927.898	389.26
928.27	372.88
928.642	367.23
929.014	388.7
929.386	379.94
929.758	376.83
930.129	346.6
930.501	368.08
930.873	388.41
931.244	368.08
931.616	403.95
931.987	370.05
932.359	405.08
932.73	409.59
933.101	383.89
933.472	389.54
933.843	394.06
934.214	349.99
934.585	369.77
934.956	388.13
935.327	393.21
935.698	390.96
936.069	379.37
936.439	374.57
936.81	351.69
937.18	379.66
937.551	394.06
937.921	360.45
938.292	340.38
938.662	379.66
939.032	384.46
939.402	385.31
939.772	370.34
940.142	388.98
940.512	364.12
940.882	372.88
941.252	389.54
941.621	414.39
941.991	365.81
942.361	376.27
942.73	397.73
943.1	379.37
943.469	370.34
943.838	363.55
944.208	379.37
944.577	345.75
944.946	378.81
945.315	375.42
945.684	403.66
946.053	385.59
946.422	340.95
946.791	374.29
947.159	388.41
947.528	393.5
947.897	380.5
948.265	383.05
948.634	386.72
949.002	365.25
949.371	376.27
949.739	391.52
950.107	357.9
950.475	401.97
950.843	387.85
951.211	370.62
951.579	350.56
951.947	407.62
952.315	381.92
952.683	368.64
953.05	397.73
953.418	366.66
953.785	351.12
954.153	403.38
954.52	392.65
954.888	370.62
955.255	389.26
955.622	380.79
955.989	350.84
956.356	366.95
956.723	395.47
957.09	354.23
957.457	389.83
957.824	382.2
958.191	384.18
958.557	369.77
958.924	352.25
959.291	370.34
959.657	360.45
960.023	399.99
960.39	368.92
960.756	381.92
961.122	362.42
961.488	434.44
961.855	371.75
962.221	392.09
962.586	368.36
962.952	337.56
963.318	361.58
963.684	354.8
964.05	370.05
964.415	391.24
964.781	390.96
965.146	375.14
965.512	375.99
965.877	359.6
966.242	371.75
966.608	377.68
966.973	375.7
967.338	396.89
967.703	357.9
968.068	381.07
968.433	388.98
968.797	349.14
969.162	373.73
969.527	366.66
969.891	375.14
970.256	366.95
970.62	347.45
970.985	385.02
971.349	385.87
971.714	368.92
972.078	371.47
972.442	373.16
972.806	366.66
973.17	355.93
973.534	353.1
973.898	373.73
974.262	365.53
974.625	390.39
974.989	394.06
975.353	377.68
975.716	371.75
976.08	370.9
976.443	367.79
976.806	403.1
977.17	389.26
977.533	339.82
977.896	384.18
978.259	361.58
978.622	394.34
978.985	387.28
979.348	383.89
979.711	383.05
980.073	387.57
980.436	392.93
980.799	362.14
981.161	371.47
981.524	373.73
981.886	396.32
982.248	378.53
982.611	368.36
982.973	379.66
983.335	361.86
983.697	381.35
984.059	349.71
984.421	386.15
984.783	375.99
985.145	347.17
985.506	333.6
985.868	382.76
986.23	375.7
986.591	379.94
986.953	390.11
987.314	375.42
987.675	357.06
988.037	543.03
988.398	383.05
988.759	359.32
989.12	364.68
989.481	353.67
989.842	366.38
990.203	376.55
990.564	375.99
990.924	359.03
991.285	539.08
991.646	364.4
992.006	364.4
992.367	364.97
992.727	348.3
993.087	345.47
993.448	361.01
993.808	374.01
994.168	379.37
994.528	377.4
994.888	387
995.248	370.34
995.608	366.95
995.967	371.18
996.327	387.85
996.687	378.53
997.046	346.88
997.406	376.83
997.765	375.42
998.125	387.57
998.484	374.86
998.843	374.57
999.202	355.36
999.561	375.42
999.92	349.99
1000.279	369.21
1000.638	370.9
1000.997	364.68
1001.356	369.49
1001.715	374.86
1002.073	364.97
1002.432	363.27
1002.79	367.23
1003.149	376.27
1003.507	385.59
1003.865	373.44
1004.224	361.58
1004.582	343.21
1004.94	368.92
1005.298	387.28
1005.656	366.95
1006.014	374.01
1006.371	368.64
1006.729	372.03
1007.087	370.62
1007.445	388.13
1007.802	365.25
1008.16	391.8
1008.517	377.4
1008.874	350.27
1009.232	393.5
1009.589	374.01
1009.946	356.77
1010.303	364.4
1010.66	342.64
1011.017	357.62
1011.374	377.12
1011.731	355.93
1012.087	371.75
1012.444	357.06
1012.801	398.3
1013.157	371.47
1013.513	367.79
1013.87	376.83
1014.226	402.82
1014.582	376.27
1014.939	380.22
1015.295	363.55
1015.651	372.31
1016.007	347.73
1016.363	376.27
1016.719	352.82
1017.074	373.44
1017.43	380.22
1017.786	383.33
1018.141	382.2
1018.497	407.62
1018.852	351.69
1019.208	368.08
1019.563	369.77
1019.918	353.1
1020.273	380.5
1020.628	391.52
1020.983	378.25
1021.338	362.71
1021.693	383.61
1022.048	372.6
1022.403	394.91
1022.757	374.57
1023.112	363.55
1023.467	367.23
1023.821	378.81
1024.175	374.86
1024.53	396.89
1024.884	389.54
1025.238	376.27
1025.592	375.7
1025.946	343.21
1026.3	364.12
1026.654	399.99
1027.008	387.57
1027.362	379.09
1027.716	379.37
1028.069	384.18
1028.423	358.47
1028.777	340.38
1029.13	377.68
1029.483	369.49
1029.837	358.75
1030.19	393.78
1030.543	379.09
1030.896	358.75
1031.249	381.92
1031.602	357.9
1031.955	349.14
1032.308	374.29
1032.661	357.06
1033.013	382.2
1033.366	377.68
1033.719	355.93
1034.071	342.64
1034.424	371.18
1034.776	383.89
1035.128	381.63
1035.48	375.42
1035.833	389.26
1036.185	370.34
1036.537	370.34
1036.889	370.34
