Data from SCSF78-405_irradiation_FLMS019251_11-21-27-917.txt Node
Date: Fri Feb 22 11:21:27 PST 2019
User: mu3e
Spectrometer: FLMS01925
Trigger mode: 0
Integration Time (sec): 1.206000E-2
Scans to average: 10
Electric dark correction enabled: true
Nonlinearity correction enabled: true
Boxcar width: 0
XAxis mode: Wavelengths
Number of Pixels in Spectrum: 2048
>>>>>Begin Spectral Data<<<<<
187.103	-110.26
187.574	-110.26
188.045	-110.26
188.516	-126.19
188.987	-127.61
189.458	-136.14
189.929	-109.69
190.4	-111.97
190.871	-75.01
191.342	-90.64
191.813	-86.38
192.284	-54.27
192.754	-26.14
193.225	5.66
193.696	24.96
194.166	37.45
194.637	94.18
195.107	86.53
195.578	133.87
196.048	136.71
196.518	169.86
196.989	176.37
197.459	200.16
197.929	232.43
198.399	260.16
198.869	291.56
199.339	284.49
199.809	305.14
200.279	333.97
200.749	347.82
201.219	354.04
201.689	348.95
202.159	376.92
202.628	367.6
203.098	385.11
203.568	405.16
204.037	396.41
204.507	380.31
204.976	378.05
205.445	407.71
205.915	401.78
206.384	376.36
206.853	397.26
207.323	401.21
207.792	395.56
208.261	398.67
208.73	388.22
209.199	401.49
209.668	406.86
210.137	384.55
210.606	402.9
211.075	382.57
211.543	368.73
212.012	381.16
212.481	371.55
212.95	370.14
213.418	373.53
213.887	396.69
214.355	352.06
214.824	385.11
215.292	356.01
215.76	350.93
216.229	365.62
216.697	346.97
217.165	367.03
217.633	383.7
218.101	365.62
218.569	363.08
219.037	372.97
219.505	375.51
219.973	365.34
220.441	355.73
220.909	370.42
221.377	343.02
221.844	360.54
222.312	361.95
222.78	370.42
223.247	354.04
223.715	352.91
224.182	341.6
224.65	365.62
225.117	359.12
225.584	333.97
226.052	376.92
226.519	351.78
226.986	398.39
227.453	369.29
227.92	367.88
228.387	371.84
228.854	374.1
229.321	345.84
229.788	354.6
230.255	358.27
230.722	361.38
231.189	345.28
231.655	369.86
232.122	360.82
232.589	366.19
233.055	360.25
233.522	380.59
233.988	367.88
234.454	337.36
234.921	375.51
235.387	362.23
235.853	369.29
236.32	371.27
236.786	386.52
237.252	368.45
237.718	367.6
238.184	376.64
238.65	386.52
239.116	373.25
239.582	378.05
240.047	351.78
240.513	384.27
240.979	390.2
241.445	337.65
241.91	363.08
242.376	388.22
242.841	397.82
243.307	361.1
243.772	363.93
244.238	390.48
244.703	383.42
245.168	395.56
245.633	367.88
246.099	381.72
246.564	372.12
247.029	361.1
247.494	354.04
247.959	373.25
248.424	367.6
248.889	377.49
249.353	366.75
249.818	406.01
250.283	386.81
250.748	383.42
251.212	396.41
251.677	362.8
252.141	395.28
252.606	399.23
253.07	379.46
253.535	369.29
253.999	393.3
254.463	360.54
254.927	389.07
255.392	376.92
255.856	359.4
256.32	357.71
256.784	352.91
257.248	355.45
257.712	400.65
258.176	418.15
258.64	398.1
259.103	363.64
259.567	392.46
260.031	379.75
260.495	398.1
260.958	395.84
261.422	367.88
261.885	406.01
262.349	378.05
262.812	370.14
263.275	378.9
263.739	375.79
264.202	398.1
264.665	404.32
265.128	403.47
265.591	391.61
266.054	387.09
266.517	408.27
266.98	382.29
267.443	384.83
267.906	377.49
268.369	409.4
268.832	381.16
269.294	377.2
269.757	380.03
270.22	373.81
270.682	373.53
271.145	362.23
271.607	385.96
272.07	411.94
272.532	374.94
272.994	387.65
273.456	385.39
273.919	391.04
274.381	400.36
274.843	378.62
275.305	368.45
275.767	407.14
276.229	387.94
276.691	406.01
277.153	395.84
277.614	388.22
278.076	379.46
278.538	377.49
279	412.22
279.461	422.95
279.923	399.52
280.384	405.16
280.846	391.33
281.307	398.67
281.769	396.41
282.23	376.36
282.691	422.95
283.152	413.07
283.613	395
284.075	373.25
284.536	389.07
284.997	410.25
285.458	397.82
285.918	431.7
286.379	383.42
286.84	403.75
287.301	386.52
287.762	408.83
288.222	397.82
288.683	389.63
289.143	406.01
289.604	386.52
290.064	400.08
290.525	402.06
290.985	420.41
291.445	407.14
291.906	401.49
292.366	402.06
292.826	409.12
293.286	390.2
293.746	402.34
294.206	412.51
294.666	382.29
295.126	407.99
295.586	394.15
296.046	422.39
296.506	392.46
296.965	380.03
297.425	405.16
297.884	415.33
298.344	403.19
298.804	395.84
299.263	416.46
299.722	379.18
300.182	412.79
300.641	409.12
301.1	383.14
301.559	412.79
302.019	368.45
302.478	407.14
302.937	403.75
303.396	391.61
303.855	411.66
304.314	408.55
304.772	416.46
305.231	390.48
305.69	394.72
306.149	393.87
306.607	413.92
307.066	411.94
307.524	390.76
307.983	381.72
308.441	408.55
308.9	375.51
309.358	411.94
309.816	412.79
310.275	391.61
310.733	436.22
311.191	390.48
311.649	400.65
312.107	392.74
312.565	372.68
313.023	390.48
313.481	389.35
313.939	390.48
314.397	429.73
314.854	387.09
315.312	378.33
315.77	390.2
316.227	390.48
316.685	385.68
317.142	414.48
317.6	426.34
318.057	415.89
318.514	404.03
318.972	411.38
319.429	400.93
319.886	389.07
320.343	393.59
320.8	405.16
321.257	398.67
321.714	402.9
322.171	413.07
322.628	425.77
323.085	372.97
323.542	413.07
323.998	409.4
324.455	416.18
324.912	392.74
325.368	424.08
325.825	437.91
326.281	402.34
326.738	410.25
327.194	410.81
327.65	420.13
328.107	432.55
328.563	401.49
329.019	417.87
329.475	402.62
329.931	400.36
330.387	403.19
330.843	424.08
331.299	420.98
331.755	408.27
332.211	427.19
332.666	405.16
333.122	380.88
333.578	385.39
334.033	418.72
334.489	411.09
334.944	402.34
335.4	424.93
335.855	399.8
336.31	408.55
336.766	415.05
337.221	410.25
337.676	389.07
338.131	412.79
338.586	390.2
339.041	410.81
339.496	395.56
339.951	419.85
340.406	435.09
340.861	389.91
341.316	390.76
341.771	386.52
342.225	386.24
342.68	407.42
343.134	408.83
343.589	423.23
344.043	415.33
344.498	421.26
344.952	422.67
345.406	413.63
345.861	402.9
346.315	413.63
346.769	385.68
347.223	398.1
347.677	410.53
348.131	418.15
348.585	428.03
349.039	429.73
349.493	407.14
349.947	412.22
350.401	397.26
350.854	407.42
351.308	401.49
351.762	399.52
352.215	424.08
352.669	431.98
353.122	424.65
353.575	403.75
354.029	437.35
354.482	441.3
354.935	427.19
355.388	404.03
355.842	413.35
356.295	410.25
356.748	425.77
357.201	408.83
357.654	387.94
358.106	408.27
358.559	395
359.012	403.47
359.465	428.6
359.917	404.6
360.37	415.05
360.823	411.09
361.275	412.51
361.728	424.93
362.18	439.89
362.632	420.41
363.085	409.96
363.537	416.46
363.989	419.56
364.441	431.42
364.893	403.75
365.345	431.14
365.797	442.15
366.249	423.23
366.701	411.09
367.153	428.32
367.605	444.97
368.057	422.67
368.508	428.03
368.96	432.55
369.411	437.35
369.863	405.73
370.314	398.67
370.766	428.32
371.217	442.43
371.669	413.35
372.12	411.94
372.571	413.63
373.022	420.69
373.473	416.18
373.924	420.13
374.375	427.75
374.826	422.39
375.277	430.29
375.728	425.49
376.179	428.6
376.63	435.94
377.08	445.53
377.531	428.03
377.981	403.75
378.432	415.61
378.883	438.48
379.333	423.8
379.783	424.65
380.234	436.78
380.684	414.76
381.134	441.3
381.584	434.53
382.034	428.32
382.485	441.3
382.935	444.69
383.385	429.73
383.834	413.35
384.284	420.69
384.734	427.19
385.184	417.59
385.634	433.4
386.083	430.57
386.533	423.23
386.982	416.18
387.432	402.9
387.881	431.7
388.331	425.49
388.78	424.08
389.229	441.58
389.679	434.53
390.128	425.49
390.577	436.78
391.026	431.98
391.475	439.61
391.924	461.05
392.373	420.98
392.822	434.53
393.27	434.24
393.719	441.02
394.168	430.29
394.617	439.32
395.065	428.03
395.514	462.46
395.962	428.32
396.411	459.92
396.859	430.29
397.307	464.44
397.756	440.17
398.204	443.27
398.652	429.16
399.1	447.79
399.548	434.53
399.996	443.84
400.444	460.21
400.892	440.45
401.34	448.64
401.788	463.87
402.236	435.37
402.683	456.54
403.131	456.82
403.579	473.19
404.026	454
404.474	459.92
404.921	488.7
405.369	475.16
405.816	453.43
406.263	448.35
406.71	516.34
407.158	497.73
407.605	465
408.052	488.14
408.499	484.47
408.946	467.54
409.393	503.65
409.84	507.88
410.286	505.06
410.733	532.41
411.18	568.48
411.626	579.75
412.073	614.39
412.52	683.07
412.966	794.11
413.413	905.56
413.859	1088.5
414.305	1298.09
414.752	1612.8
415.198	1941.75
415.644	2374.58
416.09	2923.36
416.536	3486.27
416.982	4114.17
417.428	4932
417.874	5758.85
418.32	6639.48
418.766	7581.34
419.211	8673.3
419.657	9682.68
420.103	10987.89
420.548	11903.52
420.994	13248.26
421.439	14567.8
421.885	15600.08
422.33	17139.83
422.776	18225.25
423.221	19251.61
423.666	20690.78
424.111	22010.27
424.556	23041.53
425.001	24683.87
425.446	26130.23
425.891	27430.44
426.336	28359.28
426.781	29642.99
427.226	31911.55
427.671	32646.37
428.115	33564.62
428.56	35540.74
429.005	37120.05
429.449	37543.99
429.894	39084.68
430.338	40251.55
430.782	40481.25
431.227	41981.02
431.671	42449.5
432.115	44157.12
432.559	45165.49
433.003	45136.8
433.447	45972.65
433.891	46401.75
434.335	46875.14
434.779	47806.03
435.223	48010.59
435.667	48200.09
436.111	48459.81
436.554	48601.02
436.998	48106.71
437.442	48184.14
437.885	50380.16
438.328	48613.42
438.772	48996.29
439.215	49601.36
439.659	49133.08
440.102	49665.63
440.545	48880.93
440.988	48856.07
441.431	49804.26
441.874	49185.57
442.317	49593.27
442.76	48884.56
443.203	48568.48
443.646	49239.91
444.089	48622.72
444.531	49311.2
444.974	48015.22
445.417	49232.89
445.859	48156.09
446.302	49343.22
446.744	48582.68
447.186	49805.83
447.629	48762.87
448.071	48888.71
448.513	49018.86
448.956	50350.1
449.398	49531.4
449.84	48431.95
450.282	48915.14
450.724	49520.45
451.166	49247.97
451.607	49029.24
452.049	49315.88
452.491	50492.59
452.933	49846.15
453.374	50450.87
453.816	51067.55
454.257	50656.27
454.699	51773.21
455.14	51532.62
455.582	51045.44
456.023	50971.74
456.464	51166.42
456.905	51919.12
457.347	51911.02
457.788	51004.99
458.229	51048.37
458.67	52162.68
459.111	50084.32
459.552	50156.6
459.992	50095.35
460.433	49964.1
460.874	48835.61
461.315	50265.79
461.755	49126.07
462.196	48682.17
462.636	47898.12
463.077	47414.32
463.517	47504.07
463.957	47953.83
464.398	47618.98
464.838	47536.82
465.278	46336.83
465.718	46541.6
466.158	45581.83
466.598	45932.95
467.038	45467.56
467.478	45960.51
467.918	46150.33
468.358	45289.12
468.798	44958.2
469.237	44911.94
469.677	44750.39
470.117	45624.98
470.556	43345.97
470.996	43772.4
471.435	43997.69
471.874	44489.64
472.314	44354.01
472.753	43390.38
473.192	43594.54
473.631	43029.17
474.07	43335.5
474.509	43299.09
474.948	43576.81
475.387	42933.79
475.826	42045.27
476.265	43872.14
476.704	43279.39
477.143	43671.71
477.581	43365.18
478.02	43997.44
478.458	42545.44
478.897	43286.87
479.335	44491.89
479.774	43968.67
480.212	44040.23
480.65	44110.55
481.089	43759.66
481.527	43310.31
481.965	42614.31
482.403	44846.6
482.841	44505.69
483.279	44734.07
483.717	44549.59
484.155	44094.53
484.592	44605.79
485.03	44751.9
485.468	43670.71
485.905	43995.94
486.343	44421.43
486.781	43880.39
487.218	43087.22
487.655	43243.48
488.093	42032.62
488.53	43742.42
488.967	42872.55
489.405	42713.29
489.842	41823.3
490.279	41817.85
490.716	41347.72
491.153	41830.24
491.59	41210.15
492.027	40441.76
492.463	39990.96
492.9	39273.29
493.337	39161.64
493.773	39298.87
494.21	38350
494.647	38146.59
495.083	37486.42
495.519	37024.34
495.956	36936.47
496.392	36288.74
496.828	36004.45
497.265	35141.72
497.701	35339.01
498.137	35133.91
498.573	34134.61
499.009	34643.79
499.445	33982.15
499.881	33328.57
500.316	33657.78
500.752	32704.89
501.188	32459.62
501.624	32454.74
502.059	31166.88
502.495	30929.1
502.93	30921.29
503.366	31102.74
503.801	30393.18
504.236	30201.65
504.672	29630.3
505.107	29375.65
505.542	28618.86
505.977	28703.66
506.412	28159.52
506.847	28409.63
507.282	27938.18
507.717	27523.94
508.152	27476.7
508.587	27314.4
509.021	26569.18
509.456	26237.42
509.891	26256.31
510.325	26143.97
510.76	25756.24
511.194	25580.94
511.628	25595.67
512.063	24845.46
512.497	25082.46
512.931	24531.57
513.366	24299.23
513.8	24330
514.234	23502.9
514.668	23607.45
515.102	23769.4
515.536	22947.97
515.969	23169.38
516.403	22573.03
516.837	22173.29
517.271	22151.27
517.704	21866.75
518.138	21740.26
518.571	21468.59
519.005	21138.5
519.438	20987.24
519.871	20866.2
520.305	20374.49
520.738	20275.38
521.171	19787.19
521.604	19952.56
522.037	19575.98
522.47	19366.4
522.903	19006.98
523.336	18946.42
523.769	18836
524.202	18185.8
524.634	18269.19
525.067	17982.23
525.5	17804.55
525.932	17746.56
526.365	17269.02
526.797	17140.83
527.23	17195.67
527.662	16618.38
528.094	16419.73
528.527	16268.15
528.959	16076.58
529.391	15846.71
529.823	15316.27
530.255	15394.54
530.687	14990.64
531.119	14886.81
531.551	14758.49
531.982	14400.22
532.414	14261.84
532.846	14008.41
533.277	13820.02
533.709	13445.14
534.14	13327.33
534.572	13190.97
535.003	13005.06
535.435	12743.6
535.866	12615.56
536.297	12319.35
536.728	12295.18
537.159	12143.22
537.59	11953.21
538.022	11759.21
538.452	11590.57
538.883	11328.81
539.314	11234.49
539.745	11000.69
540.176	10854.5
540.606	10578.45
541.037	10594.87
541.468	10373.66
541.898	10325.9
542.328	10268.87
542.759	10047.54
543.189	9946.42
543.619	9793.99
544.05	9560.2
544.48	9393.48
544.91	9323.49
545.34	9193.77
545.77	9098.61
546.2	8998.99
546.63	8811.22
547.06	8731.13
547.489	8655.4
547.919	8383.29
548.349	8437.07
548.778	8366.39
549.208	8139.31
549.637	8039.31
550.067	7893.34
550.496	7922.55
550.926	7802.3
551.355	7575.33
551.784	7635.44
552.213	7466.8
552.642	7329.38
553.071	7284.33
553.5	7169.52
553.929	6996.07
554.358	6991.61
554.787	6906.76
555.216	6822.11
555.645	6712.67
556.073	6615.51
556.502	6506.67
556.93	6459.46
557.359	6367.9
557.787	6379.51
558.216	6241.65
558.644	6148.85
559.072	6134.83
559.5	5997.73
559.929	5994.82
560.357	5939.98
560.785	5870.27
561.213	5838.44
561.641	5706.28
562.068	5726.99
562.496	5707.34
562.924	5550.29
563.352	5588.05
563.779	5567.04
564.207	5539.65
564.634	5502.68
565.062	5507.2
565.489	5320.8
565.917	5289.61
566.344	5337.86
566.771	5296.28
567.198	5179.71
567.625	5171.97
568.053	4992.45
568.48	5017.31
568.907	4970.79
569.333	4925.32
569.76	4742.13
570.187	4791.18
570.614	4692.8
571.04	4817.96
571.467	4533.36
571.894	4465.64
572.32	4380.92
572.747	4328.17
573.173	4269.73
573.599	4177.02
574.026	4087.72
574.452	4040.74
574.878	3997.8
575.304	3947.53
575.73	3891.83
576.156	3783.03
576.582	3770.03
577.008	3683.86
577.434	3612.8
577.86	3547.11
578.285	3527.29
578.711	3455.56
579.137	3390.57
579.562	3332.62
579.988	3351.94
580.413	3192.6
580.838	3144.05
581.264	3173.24
581.689	3127.96
582.114	3087.84
582.539	3007.28
582.964	3014.11
583.39	2913.24
583.814	2861.53
584.239	2821.83
584.664	2841.82
585.089	2787.6
585.514	2727.04
585.939	2690.84
586.363	2645.31
586.788	2619.51
587.212	2626.1
587.637	2543.99
588.061	2499.47
588.485	2464.55
588.91	2450.8
589.334	2418.62
589.758	2366.87
590.182	2379.81
590.606	2313.16
591.03	2248.39
591.454	2245.91
591.878	2275.13
592.302	2257.22
592.726	2141.89
593.15	2147.41
593.573	2115.38
593.997	2073.39
594.42	2055.43
594.844	2019.49
595.267	2000.96
595.691	2004.83
596.114	1961.95
596.537	1946.45
596.96	1930.12
597.384	1936.77
597.807	1871.14
598.23	1864.76
598.653	1850.63
599.076	1831.51
599.499	1868.37
599.921	1812.66
600.344	1824.58
600.767	1792.98
601.189	1764.13
601.612	1756.36
602.034	1737.22
602.457	1734.44
602.879	1709.18
603.302	1699.75
603.724	1670.03
604.146	1671.7
604.568	1674.2
604.991	1661.15
605.413	1655.31
605.835	1658.37
606.257	1620.86
606.678	1630.58
607.1	1593.06
607.522	1638.64
607.944	1570.54
608.365	1605.02
608.787	1580.55
609.209	1532.15
609.63	1490.97
610.051	1524.64
610.473	1516.02
610.894	1523.53
611.315	1511.01
611.737	1458.67
612.158	1432.21
612.579	1421.34
613	1426.08
613.421	1376.19
613.842	1406.57
614.263	1350.26
614.683	1390.69
615.104	1333.25
615.525	1313.16
615.945	1283.58
616.366	1280.79
616.787	1264.32
617.207	1226.9
617.627	1245.05
618.048	1199.8
618.468	1216.28
618.888	1178.84
619.308	1172.97
619.728	1153.12
620.148	1189.18
620.568	1173.53
620.988	1125.71
621.408	1133.54
621.828	1113.41
622.248	1071.15
622.668	1095.22
623.087	1066.67
623.507	1067.51
623.926	1047.36
624.346	1039.24
624.765	1032.52
625.185	1024.4
625.604	1018.23
626.023	993.3
626.442	999.47
626.861	1009.83
627.28	973.69
627.699	963.88
628.118	954.07
628.537	949.3
628.956	943.69
629.375	924.35
629.794	918.46
630.212	915.65
630.631	892.93
631.049	881.15
631.468	873.85
631.886	873.29
632.305	892.93
632.723	882.83
633.141	858.14
633.559	861.78
633.978	843.54
634.396	855.61
634.814	822.2
635.232	823.04
635.65	839.61
636.067	808.44
636.485	807.88
636.903	763.77
637.321	792.43
637.738	807.03
638.156	776.41
638.573	770.79
638.991	769.67
639.408	797.77
639.825	750.56
640.243	741.28
640.66	755.34
641.077	741
641.494	717.38
641.911	750.56
642.328	717.95
642.745	687.29
643.162	729.19
643.579	711.48
643.995	732.85
644.412	709.23
644.829	687.85
645.245	674.91
645.662	707.82
646.078	711.76
646.495	691.79
646.911	684.48
647.327	679.97
647.743	669.28
648.159	661.97
648.576	674.07
648.992	638.04
649.408	674.91
649.824	644.52
650.239	643.11
650.655	646.77
651.071	626.5
651.487	625.09
651.902	639.45
652.318	647.05
652.733	647.9
653.149	623.97
653.564	645.08
653.979	620.03
654.395	625.09
654.81	620.31
655.225	587.07
655.64	634.1
656.055	607.92
656.47	609.04
656.885	594.12
657.3	583.98
657.715	579.19
658.13	612.99
658.544	585.1
658.959	624.25
659.374	563.13
659.788	595.81
660.202	565.38
660.617	556.36
661.031	577.78
661.445	584.82
661.86	575.24
662.274	566.79
662.688	578.62
663.102	567.35
663.516	572.14
663.93	551.29
664.344	544.81
664.758	576.09
665.171	567.07
665.585	559.75
665.999	559.75
666.412	544.25
666.826	564.25
667.239	534.1
667.653	549.04
668.066	532.69
668.479	532.97
668.892	538.33
669.306	518.31
669.719	533.82
670.132	523.67
670.545	544.25
670.958	502.52
671.37	514.36
671.783	551.29
672.196	513.52
672.609	509.85
673.021	512.67
673.434	532.12
673.846	533.25
674.259	527.05
674.671	530.72
675.084	508.44
675.496	506.47
675.908	490.39
676.32	516.06
676.732	491.24
677.144	523.1
677.556	519.72
677.968	526.49
678.38	504.21
678.792	512.11
679.204	502.8
679.615	488.7
680.027	497.44
680.439	493.5
680.85	501.96
681.262	531.84
681.673	487.57
682.084	496.88
682.496	489.83
682.907	501.39
683.318	482.21
683.729	511.54
684.14	491.52
684.551	479.96
684.962	489.55
685.373	461.9
685.784	470.65
686.194	488.14
686.605	486.73
687.016	449.48
687.426	461.34
687.837	482.78
688.247	477.42
688.657	447.79
689.068	471.21
689.478	494.62
689.888	482.21
690.298	483.06
690.708	476.57
691.118	471.21
691.528	455.69
691.938	459.08
692.348	467.82
692.758	476.57
693.168	444.4
693.577	440.73
693.987	462.18
694.396	443.27
694.806	478.83
695.215	442.71
695.625	428.32
696.034	439.89
696.443	475.44
696.852	468.39
697.262	433.68
697.671	437.35
698.08	470.93
698.489	424.08
698.897	465
699.306	435.65
699.715	470.65
700.124	454.56
700.532	486.16
700.941	464.44
701.35	474.03
701.758	453.72
702.166	436.78
702.575	451.46
702.983	428.6
703.391	431.7
703.799	461.34
704.208	426.9
704.616	438.76
705.024	481.37
705.432	441.86
705.839	452.02
706.247	455.97
706.655	434.81
707.063	441.58
707.47	424.93
707.878	395
708.285	428.6
708.693	439.32
709.1	430.86
709.508	407.14
709.915	445.25
710.322	435.37
710.729	425.77
711.136	423.23
711.543	449.2
711.95	430.29
712.357	432.27
712.764	446.66
713.171	424.36
713.578	412.22
713.984	435.94
714.391	393.59
714.797	405.45
715.204	416.46
715.61	412.22
716.017	433.68
716.423	415.33
716.829	442.71
717.236	435.65
717.642	389.07
718.048	435.37
718.454	406.29
718.86	424.65
719.266	409.12
719.671	443.56
720.077	410.81
720.483	405.45
720.889	427.75
721.294	420.41
721.7	402.06
722.105	417.3
722.511	426.34
722.916	419.85
723.321	416.74
723.726	419.28
724.132	419
724.537	441.3
724.942	407.42
725.347	409.12
725.752	410.81
726.156	426.34
726.561	405.45
726.966	417.02
727.371	386.52
727.775	413.63
728.18	410.53
728.584	422.1
728.989	420.13
729.393	417.3
729.798	401.21
730.202	406.86
730.606	422.67
731.01	435.37
731.414	420.13
731.818	428.6
732.222	394.43
732.626	400.93
733.03	431.42
733.434	401.49
733.837	432.27
734.241	417.3
734.645	396.69
735.048	403.19
735.452	429.73
735.855	376.36
736.258	421.26
736.662	388.5
737.065	409.96
737.468	426.62
737.871	421.26
738.274	407.99
738.677	403.47
739.08	406.01
739.483	410.53
739.886	424.08
740.289	384.55
740.691	420.13
741.094	386.81
741.497	420.98
741.899	406.29
742.302	411.66
742.704	405.45
743.106	427.19
743.508	404.32
743.911	404.32
744.313	394.43
744.715	387.09
745.117	402.9
745.519	396.13
745.921	404.88
746.323	422.39
746.724	419.85
747.126	385.68
747.528	414.2
747.929	407.99
748.331	388.5
748.732	402.62
749.134	415.89
749.535	395
749.936	387.09
750.338	403.75
750.739	395.28
751.14	393.3
751.541	411.09
751.942	395
752.343	392.17
752.744	410.81
753.144	396.69
753.545	409.4
753.946	403.19
754.346	417.02
754.747	409.96
755.148	409.4
755.548	409.68
755.948	423.23
756.349	425.77
756.749	393.87
757.149	426.62
757.549	416.74
757.949	391.61
758.349	413.35
758.749	393.02
759.149	392.46
759.549	394.15
759.949	395.56
760.348	401.21
760.748	383.98
761.148	384.27
761.547	403.19
761.947	382.01
762.346	391.33
762.745	421.26
763.145	391.61
763.544	396.69
763.943	405.16
764.342	389.35
764.741	403.75
765.14	400.08
765.539	394.43
765.938	427.19
766.336	388.22
766.735	384.27
767.134	409.96
767.532	410.81
767.931	393.59
768.329	427.19
768.728	412.79
769.126	398.67
769.525	415.89
769.923	392.74
770.321	408.27
770.719	400.36
771.117	357.43
771.515	404.03
771.913	396.13
772.311	398.1
772.709	419
773.106	407.99
773.504	398.67
773.902	399.52
774.299	409.12
774.697	423.52
775.094	412.51
775.491	393.87
775.889	399.23
776.286	409.68
776.683	398.67
777.08	390.76
777.477	402.62
777.874	382.01
778.271	405.73
778.668	402.62
779.065	380.88
779.462	413.35
779.858	376.07
780.255	377.77
780.652	390.2
781.048	408.55
781.444	402.62
781.841	385.96
782.237	397.26
782.633	386.81
783.03	397.26
783.426	413.07
783.822	385.96
784.218	404.03
784.614	366.19
785.01	375.23
785.405	416.18
785.801	379.18
786.197	393.59
786.593	406.01
786.988	393.02
787.384	402.34
787.779	410.25
788.174	388.5
788.57	404.03
788.965	402.62
789.36	417.59
789.755	382.85
790.15	383.14
790.545	391.89
790.94	385.96
791.335	393.87
791.73	394.43
792.125	387.09
792.52	385.11
792.914	392.74
793.309	374.66
793.703	392.17
794.098	396.97
794.492	397.26
794.887	394.15
795.281	407.99
795.675	388.5
796.069	393.59
796.463	404.88
796.857	393.3
797.251	392.74
797.645	385.68
798.039	404.88
798.433	379.46
798.826	397.54
799.22	424.65
799.614	387.94
800.007	391.61
800.401	399.23
800.794	369.58
801.187	385.68
801.581	371.27
801.974	369.58
802.367	385.11
802.76	380.59
803.153	375.79
803.546	405.45
803.939	421.26
804.332	396.97
804.725	410.25
805.117	401.49
805.51	429.16
805.903	407.71
806.295	405.16
806.688	390.76
807.08	381.72
807.472	393.87
807.865	389.35
808.257	378.05
808.649	386.81
809.041	391.04
809.433	405.45
809.825	378.9
810.217	381.72
810.609	395
811.001	383.14
811.392	384.55
811.784	382.57
812.175	402.9
812.567	368.45
812.958	375.51
813.35	373.81
813.741	395
814.132	378.05
814.524	406.58
814.915	415.05
815.306	381.44
815.697	390.48
816.088	388.22
816.479	410.53
816.87	372.12
817.26	402.62
817.651	402.9
818.042	383.42
818.432	384.27
818.823	373.25
819.213	384.55
819.604	380.03
819.994	386.52
820.384	391.04
820.775	389.35
821.165	379.46
821.555	395.28
821.945	380.03
822.335	396.13
822.725	395.84
823.114	401.78
823.504	398.1
823.894	393.87
824.284	383.98
824.673	385.68
825.063	387.94
825.452	414.48
825.842	381.16
826.231	389.63
826.62	397.26
827.009	392.46
827.399	391.89
827.788	391.04
828.177	393.59
828.566	381.72
828.954	390.76
829.343	390.2
829.732	370.42
830.121	348.38
830.509	385.11
830.898	402.62
831.286	397.82
831.675	369.29
832.063	389.07
832.452	397.54
832.84	365.9
833.228	359.97
833.616	404.32
834.004	386.52
834.392	413.07
834.78	382.01
835.168	383.42
835.556	402.9
835.944	380.88
836.331	375.79
836.719	371.27
837.107	388.78
837.494	369.86
837.881	379.18
838.269	377.49
838.656	389.91
839.043	367.88
839.431	378.62
839.818	401.49
840.205	367.32
840.592	393.87
840.979	374.38
841.366	368.45
841.752	389.63
842.139	396.69
842.526	386.81
842.912	387.09
843.299	360.82
843.685	395.84
844.072	398.95
844.458	391.61
844.844	373.25
845.231	388.78
845.617	394.43
846.003	383.98
846.389	366.19
846.775	399.52
847.161	386.24
847.547	400.08
847.933	366.19
848.318	367.6
848.704	378.62
849.09	396.13
849.475	383.7
849.861	382.57
850.246	388.5
850.631	369.29
851.017	367.6
851.402	370.42
851.787	423.52
852.172	370.71
852.557	385.39
852.942	400.36
853.327	411.38
853.712	379.75
854.097	405.16
854.481	394.43
854.866	380.88
855.25	411.94
855.635	395
856.019	366.19
856.404	381.44
856.788	393.87
857.172	382.57
857.557	362.8
857.941	396.41
858.325	378.62
858.709	387.37
859.093	367.03
859.477	368.16
859.86	378.05
860.244	410.25
860.628	391.33
861.012	378.33
861.395	397.82
861.779	404.03
862.162	403.47
862.545	378.9
862.929	409.12
863.312	402.34
863.695	379.75
864.078	378.05
864.461	379.18
864.844	344.15
865.227	382.57
865.61	381.44
865.993	366.19
866.376	368.73
866.758	419.28
867.141	412.79
867.523	403.47
867.906	386.24
868.288	376.07
868.671	377.2
869.053	374.66
869.435	372.68
869.817	410.81
870.199	383.98
870.581	370.42
870.963	367.03
871.345	371.84
871.727	362.8
872.109	340.47
872.491	376.92
872.872	380.88
873.254	367.88
873.635	389.91
874.017	381.44
874.398	372.97
874.779	376.64
875.161	389.91
875.542	379.46
875.923	362.51
876.304	388.5
876.685	352.62
877.066	390.76
877.447	398.67
877.828	390.48
878.208	391.89
878.589	392.46
878.97	378.05
879.35	367.6
879.731	407.14
880.111	381.72
880.491	388.78
880.872	387.65
881.252	366.75
881.632	394.72
882.012	390.48
882.392	392.74
882.772	397.82
883.152	371.55
883.532	411.38
883.912	394.15
884.291	399.52
884.671	380.03
885.051	363.08
885.43	382.57
885.81	349.8
886.189	370.14
886.568	376.36
886.948	390.48
887.327	386.52
887.706	383.7
888.085	385.39
888.464	385.68
888.843	369.86
889.222	368.73
889.601	380.03
889.979	390.2
890.358	369.58
890.737	396.69
891.115	376.64
891.494	394.72
891.872	349.23
892.25	365.9
892.629	387.37
893.007	385.11
893.385	387.65
893.763	370.14
894.141	387.94
894.519	391.33
894.897	380.88
895.275	379.18
895.653	374.1
896.03	397.26
896.408	374.1
896.786	387.94
897.163	385.11
897.541	398.1
897.918	375.23
898.295	378.05
898.673	402.62
899.05	370.42
899.427	367.88
899.804	372.12
900.181	388.78
900.558	363.36
900.935	377.49
901.312	367.6
901.688	369.86
902.065	343.86
902.442	395
902.818	407.71
903.195	384.27
903.571	368.16
903.947	377.77
904.324	375.79
904.7	374.1
905.076	390.76
905.452	390.76
905.828	373.81
906.204	387.94
906.58	400.93
906.956	388.22
907.331	399.23
907.707	375.23
908.083	380.31
908.458	393.02
908.834	375.79
909.209	377.77
909.585	389.07
909.96	385.68
910.335	359.12
910.71	383.98
911.086	380.31
911.461	402.62
911.836	370.99
912.21	400.65
912.585	375.23
912.96	372.12
913.335	380.88
913.709	373.81
914.084	391.89
914.459	380.88
914.833	404.03
915.207	380.03
915.582	382.57
915.956	379.46
916.33	362.23
916.704	387.65
917.078	361.67
917.452	385.11
917.826	396.13
918.2	383.42
918.574	367.32
918.948	374.1
919.321	368.73
919.695	371.27
920.068	377.49
920.442	376.92
920.815	373.81
921.189	376.92
921.562	372.4
921.935	380.59
922.308	385.39
922.681	387.65
923.054	376.64
923.427	369.01
923.8	366.75
924.173	390.76
924.546	378.9
924.919	370.71
925.291	368.16
925.664	384.55
926.036	374.66
926.409	393.59
926.781	367.6
927.153	375.79
927.526	397.26
927.898	351.49
928.27	385.39
928.642	375.51
929.014	382.85
929.386	375.23
929.758	388.22
930.129	396.13
930.501	389.91
930.873	375.79
931.244	383.14
931.616	372.4
931.987	368.45
932.359	373.53
932.73	353.47
933.101	364.49
933.472	392.74
933.843	392.74
934.214	364.49
934.585	402.34
934.956	387.09
935.327	369.58
935.698	395.84
936.069	393.02
936.439	380.88
936.81	368.73
937.18	378.9
937.551	375.23
937.921	381.72
938.292	393.59
938.662	376.36
939.032	378.05
939.402	427.19
939.772	355.45
940.142	386.52
940.512	356.01
940.882	365.34
941.252	359.4
941.621	382.01
941.991	381.16
942.361	373.53
942.73	396.13
943.1	359.4
943.469	384.27
943.838	401.49
944.208	386.24
944.577	389.35
944.946	365.06
945.315	368.45
945.684	384.27
946.053	382.57
946.422	350.93
946.791	375.23
947.159	363.64
947.528	399.23
947.897	357.14
948.265	362.23
948.634	375.23
949.002	357.43
949.371	374.1
949.739	365.06
950.107	371.27
950.475	376.92
950.843	364.49
951.211	365.34
951.579	386.52
951.947	390.2
952.315	374.38
952.683	389.35
953.05	366.47
953.418	370.99
953.785	380.88
954.153	383.7
954.52	365.62
954.888	364.49
955.255	361.38
955.622	376.64
955.989	375.79
956.356	359.69
956.723	376.07
957.09	390.76
957.457	388.22
957.824	395.56
958.191	368.73
958.557	384.83
958.924	379.75
959.291	393.02
959.657	366.19
960.023	386.81
960.39	361.67
960.756	364.49
961.122	366.75
961.488	364.49
961.855	369.01
962.221	343.3
962.586	369.29
962.952	379.18
963.318	384.55
963.684	385.11
964.05	382.01
964.415	378.05
964.781	374.1
965.146	402.06
965.512	403.19
965.877	371.55
966.242	378.62
966.608	386.52
966.973	358.84
967.338	360.54
967.703	356.58
968.068	370.99
968.433	351.21
968.797	370.14
969.162	387.37
969.527	392.74
969.891	370.71
970.256	370.99
970.62	381.16
970.985	374.1
971.349	383.7
971.714	362.23
972.078	341.88
972.442	377.2
972.806	368.16
973.17	373.25
973.534	392.46
973.898	365.34
974.262	373.81
974.625	365.9
974.989	374.94
975.353	366.19
975.716	386.52
976.08	371.55
976.443	372.68
976.806	382.57
977.17	362.23
977.533	377.2
977.896	387.09
978.259	361.67
978.622	370.99
978.985	366.75
979.348	383.98
979.711	367.03
980.073	360.54
980.436	370.42
980.799	383.98
981.161	382.29
981.524	365.62
981.886	370.14
982.248	372.97
982.611	367.88
982.973	348.1
983.335	374.38
983.697	379.46
984.059	363.36
984.421	378.33
984.783	370.14
985.145	365.9
985.506	357.71
985.868	374.66
986.23	372.4
986.591	382.01
986.953	363.36
987.314	379.46
987.675	384.27
988.037	493.21
988.398	383.14
988.759	372.97
989.12	375.51
989.481	368.73
989.842	364.21
990.203	370.99
990.564	384.27
990.924	370.14
991.285	491.8
991.646	385.68
992.006	392.17
992.367	367.88
992.727	344.99
993.087	398.1
993.448	375.51
993.808	363.36
994.168	372.68
994.528	359.4
994.888	359.4
995.248	371.55
995.608	371.27
995.967	378.05
996.327	360.82
996.687	358.84
997.046	394.15
997.406	382.29
997.765	359.12
998.125	371.27
998.484	389.63
998.843	389.07
999.202	387.09
999.561	373.81
999.92	371.27
1000.279	357.99
1000.638	372.4
1000.997	396.97
1001.356	356.3
1001.715	350.65
1002.073	372.97
1002.432	401.49
1002.79	357.14
1003.149	362.23
1003.507	362.8
1003.865	365.62
1004.224	394.43
1004.582	391.61
1004.94	380.03
1005.298	367.32
1005.656	385.68
1006.014	375.51
1006.371	380.88
1006.729	357.14
1007.087	361.67
1007.445	370.71
1007.802	378.33
1008.16	372.12
1008.517	368.73
1008.874	378.9
1009.232	358.84
1009.589	365.34
1009.946	356.3
1010.303	399.52
1010.66	368.16
1011.017	352.62
1011.374	366.47
1011.731	357.71
1012.087	401.78
1012.444	382.01
1012.801	394.72
1013.157	367.88
1013.513	385.11
1013.87	378.05
1014.226	370.71
1014.582	381.72
1014.939	384.55
1015.295	379.75
1015.651	356.3
1016.007	389.63
1016.363	357.99
1016.719	359.4
1017.074	379.46
1017.43	384.83
1017.786	391.04
1018.141	361.67
1018.497	362.8
1018.852	352.91
1019.208	381.16
1019.563	368.73
1019.918	380.88
1020.273	391.33
1020.628	337.65
1020.983	379.75
1021.338	376.07
1021.693	382.29
1022.048	351.49
1022.403	378.05
1022.757	387.94
1023.112	387.09
1023.467	399.52
1023.821	343.02
1024.175	373.25
1024.53	371.55
1024.884	384.83
1025.238	370.42
1025.592	364.49
1025.946	374.94
1026.3	382.57
1026.654	382.85
1027.008	356.3
1027.362	372.12
1027.716	378.33
1028.069	385.96
1028.423	379.75
1028.777	364.49
1029.13	378.62
1029.483	379.18
1029.837	366.19
1030.19	387.94
1030.543	362.8
1030.896	367.88
1031.249	399.52
1031.602	366.47
1031.955	375.51
1032.308	374.94
1032.661	353.75
1033.013	369.58
1033.366	380.59
1033.719	356.3
1034.071	365.34
1034.424	390.76
1034.776	365.62
1035.128	382.29
1035.48	362.8
1035.833	368.73
1036.185	379.46
1036.537	379.46
1036.889	379.46
