Data from SCSF78-405_irradiation_FLMS019251_15-06-27-923.txt Node
Date: Fri Feb 22 15:06:27 PST 2019
User: mu3e
Spectrometer: FLMS01925
Trigger mode: 0
Integration Time (sec): 1.206000E-2
Scans to average: 10
Electric dark correction enabled: true
Nonlinearity correction enabled: true
Boxcar width: 0
XAxis mode: Wavelengths
Number of Pixels in Spectrum: 2048
>>>>>Begin Spectral Data<<<<<
187.103	-64.87
187.574	-64.87
188.045	-64.87
188.516	-149.6
188.987	-132.82
189.458	-104.38
189.929	-125.99
190.4	-118.6
190.871	-115.47
191.342	-83.63
191.813	-74.25
192.284	-44.41
192.754	-22.26
193.225	-6.92
193.696	30.55
194.166	43.04
194.637	64.32
195.107	105.44
195.578	115.93
196.048	161.84
196.518	173.73
196.989	192.43
197.459	209.41
197.929	230.08
198.399	282.99
198.869	291.47
199.339	313.81
199.809	314.94
200.279	329.64
200.749	341.23
201.219	350.56
201.689	370.34
202.159	392.09
202.628	386.44
203.098	376.83
203.568	401.97
204.037	383.61
204.507	366.1
204.976	394.63
205.445	410.16
205.915	402.53
206.384	402.25
206.853	402.53
207.323	396.04
207.792	425.97
208.261	396.32
208.73	400.56
209.199	398.3
209.668	410.72
210.137	383.89
210.606	387.85
211.075	400.28
211.543	395.47
212.012	410.72
212.481	371.18
212.95	367.51
213.418	360.16
213.887	391.24
214.355	360.45
214.824	362.14
215.292	385.31
215.76	364.4
216.229	378.25
216.697	372.6
217.165	378.81
217.633	394.06
218.101	355.36
218.569	391.52
219.037	370.62
219.505	398.3
219.973	372.03
220.441	355.64
220.909	394.06
221.377	368.64
221.844	364.12
222.312	347.17
222.78	360.16
223.247	342.08
223.715	342.64
224.182	400.28
224.65	342.64
225.117	381.07
225.584	373.73
226.052	383.61
226.519	355.08
226.986	383.89
227.453	354.51
227.92	380.22
228.387	380.5
228.854	359.6
229.321	377.12
229.788	394.34
230.255	388.98
230.722	370.34
231.189	385.02
231.655	371.18
232.122	368.36
232.589	381.92
233.055	362.71
233.522	392.09
233.988	376.83
234.454	392.65
234.921	390.39
235.387	390.96
235.853	382.48
236.32	363.55
236.786	372.88
237.252	379.66
237.718	385.02
238.184	371.47
238.65	390.39
239.116	394.91
239.582	411.01
240.047	381.07
240.513	379.66
240.979	361.01
241.445	416.65
241.91	399.15
242.376	360.16
242.841	355.64
243.307	368.36
243.772	380.22
244.238	364.4
244.703	367.79
245.168	378.53
245.633	393.21
246.099	368.36
246.564	366.95
247.029	399.99
247.494	368.36
247.959	406.77
248.424	367.51
248.889	367.23
249.353	373.16
249.818	368.92
250.283	378.81
250.748	371.75
251.212	385.02
251.677	384.74
252.141	373.16
252.606	378.25
253.07	380.22
253.535	359.6
253.999	355.08
254.463	385.02
254.927	385.31
255.392	390.39
255.856	368.36
256.32	384.18
256.784	394.63
257.248	387
257.712	415.81
258.176	382.76
258.64	394.06
259.103	387.57
259.567	393.5
260.031	375.99
260.495	379.94
260.958	376.55
261.422	388.98
261.885	386.15
262.349	401.97
262.812	388.13
263.275	400.56
263.739	397.17
264.202	398.86
264.665	383.33
265.128	420.6
265.591	336.43
266.054	374.86
266.517	403.38
266.98	385.59
267.443	394.91
267.906	405.64
268.369	391.52
268.832	386.15
269.294	415.24
269.757	419.19
270.22	404.51
270.682	396.32
271.145	388.13
271.607	412.42
272.07	397.73
272.532	390.39
272.994	384.46
273.456	397.45
273.919	385.59
274.381	403.38
274.843	415.52
275.305	403.1
275.767	427.38
276.229	380.79
276.691	392.37
277.153	396.6
277.614	387.85
278.076	403.38
278.538	385.59
279	387.28
279.461	370.05
279.923	386.44
280.384	381.63
280.846	400.84
281.307	428.79
281.769	421.45
282.23	399.71
282.691	412.42
283.152	395.76
283.613	396.89
284.075	381.63
284.536	370.9
284.997	398.3
285.458	406.77
285.918	383.89
286.379	401.4
286.84	405.64
287.301	400.84
287.762	401.4
288.222	412.13
288.683	361.86
289.143	420.89
289.604	417.5
290.064	417.78
290.525	415.24
290.985	411.01
291.445	410.72
291.906	405.36
292.366	405.64
292.826	394.91
293.286	408.18
293.746	388.13
294.206	392.37
294.666	400.56
295.126	415.52
295.586	390.11
296.046	413.55
296.506	390.67
296.965	396.6
297.425	387.57
297.884	397.73
298.344	387.85
298.804	412.98
299.263	419.48
299.722	413.83
300.182	412.42
300.641	388.13
301.1	442.62
301.559	395.19
302.019	404.23
302.478	425.69
302.937	404.51
303.396	402.82
303.855	415.81
304.314	418.35
304.772	416.09
305.231	419.48
305.69	403.95
306.149	403.38
306.607	421.45
307.066	423.99
307.524	432.74
307.983	391.8
308.441	395.76
308.9	411.29
309.358	410.44
309.816	429.92
310.275	405.08
310.733	421.73
311.191	438.95
311.649	400.84
312.107	420.04
312.565	397.17
313.023	394.63
313.481	394.63
313.939	421.17
314.397	396.32
314.854	404.79
315.312	404.23
315.77	392.37
316.227	416.09
316.685	420.6
317.142	422.86
317.6	425.97
318.057	401.97
318.514	416.37
318.972	406.77
319.429	402.25
319.886	401.97
320.343	414.68
320.8	397.73
321.257	431.05
321.714	416.65
322.171	408.46
322.628	405.64
323.085	424.27
323.542	419.19
323.998	399.71
324.455	410.16
324.912	395.47
325.368	406.21
325.825	420.32
326.281	437.82
326.738	433.87
327.194	410.16
327.65	439.8
328.107	430.49
328.563	427.38
329.019	424.27
329.475	414.39
329.931	412.13
330.387	407.9
330.843	425.97
331.299	412.13
331.755	424.56
332.211	410.72
332.666	420.89
333.122	415.52
333.578	418.63
334.033	408.75
334.489	417.5
334.944	411.29
335.4	406.49
335.855	420.32
336.31	429.92
336.766	397.73
337.221	406.21
337.676	419.48
338.131	419.76
338.586	392.37
339.041	397.45
339.496	421.73
339.951	406.21
340.406	399.43
340.861	400.28
341.316	444.6
341.771	418.91
342.225	388.7
342.68	419.48
343.134	403.38
343.589	410.16
344.043	409.88
344.498	434.72
344.952	423.71
345.406	443.47
345.861	414.11
346.315	418.63
346.769	415.52
347.223	417.5
347.677	419.48
348.131	429.92
348.585	417.22
349.039	392.65
349.493	442.06
349.947	440.36
350.401	435.28
350.854	404.51
351.308	432.74
351.762	443.75
352.215	432.46
352.669	439.24
353.122	448.83
353.575	414.11
354.029	405.08
354.482	413.26
354.935	410.72
355.388	409.88
355.842	425.12
356.295	409.03
356.748	443.75
357.201	437.82
357.654	425.12
358.106	396.32
358.559	425.12
359.012	398.02
359.465	422.3
359.917	416.93
360.37	443.75
360.823	458.43
361.275	443.75
361.728	432.74
362.18	420.04
362.632	451.09
363.085	418.06
363.537	423.43
363.989	427.38
364.441	397.17
364.893	423.15
365.345	407.62
365.797	455.32
366.249	443.47
366.701	428.79
367.153	443.75
367.605	471.4
368.057	422.02
368.508	431.9
368.96	431.05
369.411	407.33
369.863	427.38
370.314	420.32
370.766	419.19
371.217	408.75
371.669	429.07
372.12	420.89
372.571	409.59
373.022	424.27
373.473	428.79
373.924	415.24
374.375	409.03
374.826	447.7
375.277	440.65
375.728	407.33
376.179	426.53
376.63	443.75
377.08	461.81
377.531	429.07
377.981	449.11
378.432	447.98
378.883	437.54
379.333	454.19
379.783	423.15
380.234	432.74
380.684	447.42
381.134	447.42
381.584	421.73
382.034	422.02
382.485	414.96
382.935	427.38
383.385	412.42
383.834	434.44
384.284	423.15
384.734	413.83
385.184	432.74
385.634	437.26
386.083	434.72
386.533	430.77
386.982	441.49
387.432	449.96
387.881	436.98
388.331	446.57
388.78	425.4
389.229	427.1
389.679	469.43
390.128	435.28
390.577	436.13
391.026	413.55
391.475	444.32
391.924	424.84
392.373	437.54
392.822	454.19
393.27	471.12
393.719	447.14
394.168	442.06
394.617	436.41
395.065	440.65
395.514	429.92
395.962	432.18
396.411	466.33
396.859	444.88
397.307	442.9
397.756	442.9
398.204	442.9
398.652	447.7
399.1	434.72
399.548	468.58
399.996	458.43
400.444	449.68
400.892	458.71
401.34	466.04
401.788	433.87
402.236	436.98
402.683	469.71
403.131	487.48
403.579	485.23
404.026	448.27
404.474	456.73
404.921	477.05
405.369	465.2
405.816	478.74
406.263	483.25
406.71	487.2
407.158	469.43
407.605	486.07
408.052	487.77
408.499	499.61
408.946	486.07
409.393	508.07
409.84	462.09
410.286	510.33
410.733	545.28
411.18	555.43
411.626	592.9
412.073	641.61
412.52	688.89
412.966	812.28
413.413	893.97
413.859	1070.79
414.305	1279.58
414.752	1592.14
415.198	1899.3
415.644	2330.71
416.09	2811.89
416.536	3389.94
416.982	4041.2
417.428	4765.64
417.874	5561.11
418.32	6438.01
418.766	7309.39
419.211	8398.8
419.657	9352.34
420.103	10622.23
420.548	11420.7
420.994	12737.17
421.439	13906.44
421.885	15021.8
422.33	16346.38
422.776	17509.41
423.221	18578.07
423.666	19923.64
424.111	21208.08
424.556	22108.65
425.001	23629.8
425.446	24966.84
425.891	26212.82
426.336	27215.89
426.781	28496.09
427.226	30699.5
427.671	31236.55
428.115	32167.96
428.56	33964.03
429.005	35447.36
429.449	35870.46
429.894	37258.8
430.338	38443.44
430.782	38512.67
431.227	40240.62
431.671	40624.35
432.115	42014.43
432.559	43162.14
433.003	43065.71
433.447	43997.61
433.891	44475.51
434.335	44673.98
434.779	45779.19
435.223	45778.94
435.667	45881.29
436.111	46322.55
436.554	46373.77
436.998	46028.49
437.442	46014.06
437.885	47977.89
438.328	46449.88
438.772	46706.91
439.215	47376.68
439.659	46943.54
440.102	47383.83
440.545	46671.84
440.988	46591.29
441.431	47318.43
441.874	46984.55
442.317	47136.72
442.76	46675.9
443.203	46096.57
443.646	46730.3
444.089	46337.26
444.531	47071.44
444.974	45710.99
445.417	46861.82
445.859	45870.17
446.302	47137.74
446.744	46224.21
447.186	47528.55
447.629	46441
448.071	46597.9
448.513	46596.12
448.956	48109.46
449.398	47167.84
449.84	45747.11
450.282	46476.78
450.724	47171.15
451.166	46846.81
451.607	46836.88
452.049	46842.99
452.491	47881.11
452.933	47462.82
453.374	48135.44
453.816	48547.74
454.257	48128.75
454.699	49200.31
455.14	48896.14
455.582	48606.37
456.023	48611.02
456.464	48777.54
456.905	49318.92
457.347	49425.71
457.788	48356.07
458.229	48589.06
458.67	49646.21
459.111	47526.25
459.552	47701.11
459.992	47615.82
460.433	47517.04
460.874	46467.14
461.315	47549.79
461.755	46578.34
462.196	46175.07
462.636	45382.27
463.077	45140.24
463.517	45203.93
463.957	45491.94
464.398	45150.81
464.838	45081.36
465.278	44058.16
465.718	44268.73
466.158	43199.28
466.598	43552.52
467.038	43120.03
467.478	43555.51
467.918	43699.11
468.358	42966.33
468.798	42738.59
469.237	42637.61
469.677	42482.73
470.117	43147.44
470.556	40938.57
470.996	41490.23
471.435	41634.63
471.874	42251.95
472.314	41969.28
472.753	41111.38
473.192	41236.29
473.631	40798.46
474.07	40980.1
474.509	41139.08
474.948	41336.75
475.387	40641.88
475.826	39695.03
476.265	41590.54
476.704	40916.33
477.143	41370.41
477.581	41055
478.02	41604.41
478.458	40344.47
478.897	40970.95
479.335	42068.27
479.774	41573.44
480.212	41818.76
480.65	41675.76
481.089	41325.12
481.527	40966.75
481.965	40560.4
482.403	42334.4
482.841	42200.31
483.279	42211.73
483.717	41997.56
484.155	41835.87
484.592	42102.26
485.03	42313.78
485.468	41272.91
485.905	41426.6
486.343	42074.47
486.781	41377.1
487.218	40596.69
487.655	40761.41
488.093	39811.52
488.53	41167.52
488.967	40481.42
489.405	40213.25
489.842	39381.94
490.279	39280.59
490.716	39040.6
491.153	39472.74
491.59	38903.7
492.027	38118.31
492.463	37811.05
492.9	37004.92
493.337	36985.83
493.773	37048.98
494.21	36229.98
494.647	35989.71
495.083	35386.06
495.519	34824.8
495.956	34915.6
496.392	34189.66
496.828	34025.25
497.265	33214.38
497.701	33421.89
498.137	33252.42
498.573	32307.41
499.009	32730.65
499.445	31944.88
499.881	31574.52
500.316	31749.83
500.752	30792.44
501.188	30608.52
501.624	30457.51
502.059	29387.54
502.495	29191.44
502.93	29141.86
503.366	29279.36
503.801	28730.46
504.236	28343.55
504.672	27984.82
505.107	27531.94
505.542	27140.96
505.977	27084.14
506.412	26461.48
506.847	26749
507.282	26372.96
507.717	26001.35
508.152	25898.53
508.587	25783.42
509.021	25031.25
509.456	24771.85
509.891	24815.38
510.325	24653.28
510.76	24355.77
511.194	24088.37
511.628	24158.81
512.063	23471.5
512.497	23594.8
512.931	23123.89
513.366	22942.21
513.8	22827.64
514.234	22182.61
514.668	22194.48
515.102	22406.13
515.536	21604.74
515.969	21672.09
516.403	21259.88
516.837	20862.65
517.271	20950.46
517.704	20427.8
518.138	20436
518.571	20197.29
519.005	19882.11
519.438	19884.1
519.871	19577.4
520.305	19164.11
520.738	19059.73
521.171	18627.7
521.604	18853.62
522.037	18438.59
522.47	18261.12
522.903	17876.7
523.336	17778.73
523.769	17572.94
524.202	17172.05
524.634	17200.1
525.067	16986.98
525.5	16756.95
525.932	16691.77
526.365	16286.14
526.797	16237.45
527.23	16171.67
527.662	15539.13
528.094	15507.69
528.527	15392.95
528.959	15126.34
529.391	14952.51
529.823	14516.25
530.255	14549.81
530.687	14140.25
531.119	13985.07
531.551	13922.62
531.982	13521.8
532.414	13363.49
532.846	13056.73
533.277	12919.72
533.709	12620.82
534.14	12469.83
534.572	12355.39
535.003	12211.37
535.435	11870.56
535.866	11858.83
536.297	11553.74
536.728	11567.01
537.159	11420.44
537.59	11182.51
538.022	11027.48
538.452	10896.42
538.883	10741.43
539.314	10637.35
539.745	10350.47
540.176	10283.69
540.606	9971.56
541.037	9979.28
541.468	9737.23
541.898	9686.46
542.328	9589.26
542.759	9394.18
543.189	9270.71
543.619	9184.38
544.05	9026.6
544.48	8860.11
544.91	8775.64
545.34	8674.51
545.77	8554.63
546.2	8378.01
546.63	8318.22
547.06	8263.87
547.489	8056.16
547.919	7848.14
548.349	7957.66
548.778	7828.31
549.208	7657.04
549.637	7590.93
550.067	7473.26
550.496	7413.6
550.926	7331.92
551.355	7185.44
551.784	7132.72
552.213	6956.86
552.642	6932.43
553.071	6812.83
553.5	6750.75
553.929	6560.89
554.358	6601.99
554.787	6480.74
555.216	6502.63
555.645	6327.95
556.073	6244.47
556.502	6230.47
556.93	6063.84
557.359	5955.26
557.787	5978.31
558.216	5911.01
558.644	5807.06
559.072	5754.78
559.5	5700.62
559.929	5677.25
560.357	5633.41
560.785	5534.78
561.213	5515.36
561.641	5343.9
562.068	5365.22
562.496	5359.89
562.924	5293.79
563.352	5299.66
563.779	5245
564.207	5229.53
564.634	5162.81
565.062	5169.75
565.489	5043.16
565.917	5047.43
566.344	4987.55
566.771	4934.06
567.198	4914.8
567.625	4813.06
568.053	4748.75
568.48	4747.68
568.907	4711.75
569.333	4629.67
569.76	4474.43
570.187	4556.38
570.614	4415.27
571.04	4564.97
571.467	4293.62
571.894	4174.24
572.32	4103.56
572.747	4103.02
573.173	3998.52
573.599	3959.07
574.026	3867.67
574.452	3798.11
574.878	3805.15
575.304	3680.52
575.73	3664.79
576.156	3583.95
576.582	3547.03
577.008	3506.29
577.434	3383.96
577.86	3297.41
578.285	3374.17
578.711	3251.11
579.137	3206.96
579.562	3119.41
579.988	3117.5
580.413	3060.46
580.838	3014.57
581.264	3002
581.689	2945.97
582.114	2839
582.539	2852.14
582.964	2823.66
583.39	2780.39
583.814	2731.06
584.239	2679.51
584.664	2692.13
585.089	2622.72
585.514	2582.08
585.939	2522.2
586.363	2478.22
586.788	2468.87
587.212	2452.92
587.637	2396.79
588.061	2384.13
588.485	2358.25
588.91	2326.58
589.334	2277.25
589.758	2241.14
590.182	2238.1
590.606	2168.86
591.03	2153.95
591.454	2122.75
591.878	2113.91
592.302	2141.8
592.726	2076.34
593.15	2024.93
593.573	2017.19
593.997	1997.28
594.42	1963.8
594.844	1925.05
595.267	1922.84
595.691	1895.98
596.114	1850.55
596.537	1841.68
596.96	1818.4
597.384	1827.27
597.807	1731.3
598.23	1730.47
598.653	1778.47
599.076	1743.24
599.499	1716.04
599.921	1712.71
600.344	1697.99
600.767	1641.33
601.189	1677.72
601.612	1642.45
602.034	1655.23
602.457	1605.76
602.879	1614.94
603.302	1617.99
603.724	1608.26
604.146	1609.38
604.568	1558.22
604.991	1566.56
605.413	1571.01
605.835	1581.02
606.257	1539.58
606.678	1561.28
607.1	1551.26
607.522	1498.67
607.944	1483.36
608.365	1479.74
608.787	1505.07
609.209	1468.61
609.63	1431.84
610.051	1476.96
610.473	1423.76
610.894	1439.36
611.315	1414.85
611.737	1394.5
612.158	1405.09
612.579	1356.31
613	1358.82
613.421	1333.44
613.842	1309.17
614.263	1313.35
614.683	1287.68
615.104	1268.7
615.525	1258.92
615.945	1222.62
616.366	1202.5
616.787	1244.96
617.207	1180.98
617.627	1199.71
618.048	1180.71
618.468	1161.7
618.888	1156.39
619.308	1134.85
619.728	1110.24
620.148	1078.34
620.568	1097.37
620.988	1101.29
621.408	1085.06
621.828	1067.99
622.248	1059.03
622.668	1037.47
623.087	1028.51
623.507	1032.99
623.926	1012.54
624.346	993.78
624.765	982.57
625.185	977.52
625.604	984.81
626.023	948.65
626.442	965.75
626.861	959.31
627.28	953.14
627.699	927.62
628.118	949.49
628.537	912.76
628.956	908.83
629.375	901.26
629.794	873.48
630.212	912.2
630.631	820.71
631.049	845.14
631.468	889.48
631.886	857.21
632.305	887.79
632.723	854.12
633.141	844.01
633.559	847.66
633.978	813.97
634.396	801.33
634.814	799.36
635.232	791.78
635.65	761.15
636.067	778.29
636.485	788.69
636.903	752.16
637.321	759.18
637.738	742.6
638.156	783.91
638.573	744.29
638.991	776.89
639.408	763.96
639.825	744.57
640.243	737.26
640.66	744.57
641.077	713.36
641.494	708.3
641.911	742.04
642.328	701.83
642.745	683.83
643.162	726.01
643.579	695.92
643.995	719.55
644.412	684.39
644.829	675.39
645.245	668.07
645.662	659.63
646.078	677.35
646.495	666.66
646.911	647.53
647.327	656.81
647.743	679.89
648.159	637.96
648.576	646.12
648.992	634.86
649.408	643.3
649.824	671.45
650.239	666.94
650.655	638.8
651.071	640.49
651.487	606.14
651.902	646.68
652.318	628.1
652.733	616.28
653.149	607.83
653.564	628.95
653.979	598.25
654.395	592.62
654.81	612.62
655.225	579.1
655.64	598.82
656.055	601.63
656.47	612.9
656.885	614.59
657.3	601.91
657.715	588.4
658.13	585.58
658.544	589.8
658.959	572.06
659.374	574.31
659.788	561.91
660.202	549.51
660.617	565.86
661.031	587.27
661.445	574.31
661.86	564.73
662.274	568.67
662.688	594.87
663.102	563.6
663.516	537.11
663.93	538.8
664.344	551.2
664.758	569.8
665.171	535.14
665.585	560.22
665.999	545
666.412	535.7
666.826	545.28
667.239	529.5
667.653	543.59
668.066	531.47
668.479	530.91
668.892	531.19
669.306	519.07
669.719	532.04
670.132	528.65
670.545	524.71
670.958	549.51
671.37	537.11
671.783	530.63
672.196	516.25
672.609	512.3
673.021	520.48
673.434	526.96
673.846	538.8
674.259	538.52
674.671	543.88
675.084	501.02
675.496	495.95
675.908	521.61
676.32	522.17
676.732	511.74
677.144	514.84
677.556	493.97
677.968	502.15
678.38	514.56
678.792	479.02
679.204	493.97
679.615	506.66
680.027	493.12
680.439	495.95
680.85	474.79
681.262	475.64
681.673	510.05
682.084	501.59
682.496	494.82
682.907	497.64
683.318	478.46
683.729	475.64
684.14	493.69
684.551	508.07
684.962	456.17
685.373	488.33
685.784	473.94
686.194	475.64
686.605	473.94
687.016	486.92
687.426	495.66
687.837	463.5
688.247	476.48
688.657	497.07
689.068	469.43
689.478	473.66
689.888	473.1
690.298	480.71
690.708	455.32
691.118	490.59
691.528	459.27
691.938	486.36
692.348	449.11
692.758	471.69
693.168	459.27
693.577	443.75
693.987	458.43
694.396	435.85
694.806	453.91
695.215	459.55
695.625	462.94
696.034	464.92
696.443	442.62
696.852	464.63
697.262	438.11
697.671	484.38
698.08	453.35
698.489	464.35
698.897	428.51
699.306	440.65
699.715	440.93
700.124	446.86
700.532	455.32
700.941	448.55
701.35	465.76
701.758	437.82
702.166	439.52
702.575	470.28
702.983	456.73
703.391	440.36
703.799	458.71
704.208	454.19
704.616	444.6
705.024	456.17
705.432	450.24
705.839	458.14
706.247	445.44
706.655	447.42
707.063	437.26
707.47	434.15
707.878	443.47
708.285	425.12
708.693	431.33
709.1	422.86
709.508	448.55
709.915	414.96
710.322	444.32
710.729	443.47
711.136	427.1
711.543	432.18
711.95	412.7
712.357	434.72
712.764	418.91
713.171	426.25
713.578	428.51
713.984	408.18
714.391	454.19
714.797	411.29
715.204	425.97
715.61	422.02
716.017	396.6
716.423	402.82
716.829	424.27
717.236	458.99
717.642	439.52
718.048	432.46
718.454	410.44
718.86	418.63
719.266	420.89
719.671	423.71
720.077	456.17
720.483	404.23
720.889	431.9
721.294	410.44
721.7	429.07
722.105	414.11
722.511	426.53
722.916	419.19
723.321	399.71
723.726	433.03
724.132	410.44
724.537	424.84
724.942	411.85
725.347	425.97
725.752	427.1
726.156	417.22
726.561	427.1
726.966	433.03
727.371	455.89
727.775	395.47
728.18	411.01
728.584	439.24
728.989	420.6
729.393	426.25
729.798	431.9
730.202	392.09
730.606	453.06
731.01	429.64
731.414	448.27
731.818	420.6
732.222	423.99
732.626	407.05
733.03	425.69
733.434	404.23
733.837	413.83
734.241	405.92
734.645	409.03
735.048	414.96
735.452	428.79
735.855	426.25
736.258	442.06
736.662	406.21
737.065	410.16
737.468	409.88
737.871	404.79
738.274	411.85
738.677	426.53
739.08	457.3
739.483	449.4
739.886	420.32
740.289	412.7
740.691	413.83
741.094	424.27
741.497	410.16
741.899	435
742.302	397.73
742.704	398.86
743.106	424.27
743.508	403.1
743.911	404.51
744.313	420.6
744.715	413.83
745.117	407.9
745.519	410.72
745.921	439.24
746.323	418.63
746.724	439.24
747.126	408.46
747.528	417.22
747.929	407.33
748.331	409.31
748.732	407.33
749.134	416.93
749.535	435
749.936	379.66
750.338	412.13
750.739	398.02
751.14	384.18
751.541	405.64
751.942	394.91
752.343	419.48
752.744	435
753.144	431.33
753.545	372.31
753.946	396.6
754.346	407.62
754.747	417.5
755.148	384.18
755.548	418.35
755.948	422.86
756.349	381.63
756.749	398.02
757.149	412.13
757.549	409.88
757.949	413.55
758.349	391.24
758.749	415.81
759.149	405.36
759.549	398.58
759.949	405.08
760.348	406.49
760.748	378.81
761.148	410.44
761.547	402.25
761.947	419.48
762.346	412.7
762.745	409.03
763.145	387.57
763.544	413.55
763.943	412.42
764.342	392.09
764.741	395.76
765.14	384.46
765.539	411.85
765.938	407.9
766.336	403.95
766.735	391.24
767.134	399.99
767.532	386.72
767.931	398.02
768.329	412.42
768.728	409.03
769.126	429.92
769.525	412.98
769.923	411.57
770.321	380.5
770.719	405.08
771.117	403.95
771.515	414.11
771.913	425.12
772.311	408.75
772.709	394.91
773.106	390.96
773.504	387.85
773.902	404.23
774.299	382.48
774.697	411.01
775.094	406.49
775.491	381.63
775.889	388.13
776.286	402.53
776.683	395.47
777.08	400.56
777.477	409.31
777.874	407.62
778.271	414.68
778.668	408.18
779.065	400.84
779.462	420.89
779.858	417.78
780.255	408.75
780.652	404.23
781.048	414.96
781.444	416.93
781.841	388.98
782.237	412.42
782.633	387.85
783.03	403.38
783.426	389.83
783.822	393.21
784.218	418.91
784.614	392.93
785.01	392.09
785.405	405.92
785.801	404.51
786.197	393.21
786.593	388.41
786.988	380.79
787.384	385.31
787.779	381.35
788.174	397.73
788.57	425.97
788.965	403.38
789.36	391.8
789.755	407.33
790.15	392.37
790.545	379.66
790.94	421.17
791.335	387.85
791.73	377.68
792.125	424.84
792.52	392.93
792.914	397.45
793.309	399.15
793.703	425.4
794.098	408.46
794.492	405.36
794.887	383.61
795.281	402.25
795.675	393.21
796.069	381.92
796.463	379.37
796.857	377.96
797.251	391.52
797.645	388.7
798.039	413.83
798.433	393.78
798.826	421.17
799.22	409.88
799.614	407.05
800.007	422.02
800.401	411.57
800.794	421.17
801.187	392.09
801.581	401.12
801.974	393.5
802.367	399.71
802.76	405.92
803.153	418.63
803.546	406.77
803.939	375.7
804.332	388.41
804.725	392.09
805.117	407.05
805.51	394.91
805.903	395.47
806.295	364.12
806.688	400.28
807.08	401.12
807.472	390.11
807.865	388.13
808.257	411.01
808.649	392.37
809.041	388.7
809.433	401.12
809.825	419.76
810.217	416.09
810.609	409.03
811.001	385.59
811.392	377.12
811.784	389.54
812.175	380.5
812.567	411.57
812.958	380.5
813.35	418.63
813.741	388.98
814.132	391.24
814.524	388.7
814.915	385.87
815.306	404.23
815.697	393.21
816.088	399.43
816.479	387.28
816.87	394.06
817.26	384.18
817.651	382.48
818.042	387.28
818.432	381.07
818.823	395.76
819.213	377.96
819.604	395.76
819.994	368.36
820.384	397.45
820.775	393.21
821.165	415.81
821.555	407.33
821.945	403.66
822.335	374.01
822.725	387.57
823.114	401.69
823.504	405.92
823.894	379.66
824.284	401.12
824.673	391.52
825.063	392.65
825.452	383.89
825.842	397.17
826.231	422.86
826.62	381.92
827.009	391.24
827.399	386.15
827.788	387.85
828.177	415.24
828.566	388.98
828.954	414.39
829.343	401.97
829.732	386.44
830.121	399.71
830.509	383.89
830.898	398.3
831.286	404.51
831.675	426.82
832.063	394.06
832.452	381.35
832.84	392.65
833.228	387.85
833.616	381.35
834.004	408.75
834.392	401.69
834.78	402.53
835.168	404.23
835.556	391.8
835.944	405.08
836.331	383.33
836.719	385.59
837.107	390.39
837.494	411.29
837.881	404.23
838.269	381.07
838.656	384.18
839.043	388.7
839.431	407.9
839.818	421.73
840.205	392.65
840.592	375.42
840.979	378.53
841.366	386.15
841.752	388.7
842.139	384.18
842.526	375.42
842.912	369.21
843.299	385.59
843.685	399.43
844.072	392.93
844.458	396.89
844.844	408.46
845.231	353.1
845.617	362.14
846.003	400.84
846.389	409.03
846.775	361.29
847.161	380.22
847.547	374.29
847.933	399.15
848.318	395.19
848.704	372.88
849.09	375.42
849.475	387.85
849.861	401.4
850.246	409.31
850.631	403.95
851.017	396.04
851.402	378.25
851.787	401.4
852.172	415.52
852.557	380.22
852.942	388.13
853.327	394.34
853.712	401.4
854.097	391.8
854.481	377.12
854.866	385.31
855.25	382.76
855.635	396.32
856.019	429.64
856.404	392.09
856.788	395.76
857.172	370.34
857.557	391.52
857.941	387
858.325	391.24
858.709	401.69
859.093	392.93
859.477	375.42
859.86	411.29
860.244	375.99
860.628	394.63
861.012	405.92
861.395	380.5
861.779	399.71
862.162	375.42
862.545	388.98
862.929	405.36
863.312	398.58
863.695	404.51
864.078	401.69
864.461	391.8
864.844	400.28
865.227	359.88
865.61	385.87
865.993	397.73
866.376	407.05
866.758	372.88
867.141	394.34
867.523	390.67
867.906	377.4
868.288	393.21
868.671	402.25
869.053	376.27
869.435	392.93
869.817	406.77
870.199	405.64
870.581	379.66
870.963	407.33
871.345	388.13
871.727	399.43
872.109	364.12
872.491	394.63
872.872	392.65
873.254	387.85
873.635	429.92
874.017	382.76
874.398	396.32
874.779	364.68
875.161	400.56
875.542	390.96
875.923	399.99
876.304	398.3
876.685	376.27
877.066	388.98
877.447	368.36
877.828	395.76
878.208	408.46
878.589	395.47
878.97	382.2
879.35	393.21
879.731	406.21
880.111	403.38
880.491	395.76
880.872	418.35
881.252	399.43
881.632	401.69
882.012	375.42
882.392	390.67
882.772	383.05
883.152	409.31
883.532	370.9
883.912	378.25
884.291	387.28
884.671	398.3
885.051	414.68
885.43	390.11
885.81	372.31
886.189	381.63
886.568	386.15
886.948	394.91
887.327	395.47
887.706	411.29
888.085	376.83
888.464	401.4
888.843	383.89
889.222	391.24
889.601	406.77
889.979	377.12
890.358	381.35
890.737	371.47
891.115	382.48
891.494	377.96
891.872	394.91
892.25	394.63
892.629	393.21
893.007	405.92
893.385	388.41
893.763	389.83
894.141	405.08
894.519	407.62
894.897	385.87
895.275	362.71
895.653	382.2
896.03	379.37
896.408	382.48
896.786	370.34
897.163	388.41
897.541	387.28
897.918	377.68
898.295	390.39
898.673	378.81
899.05	385.02
899.427	391.24
899.804	370.62
900.181	366.38
900.558	365.25
900.935	394.34
901.312	384.46
901.688	389.26
902.065	400.56
902.442	384.46
902.818	400.56
903.195	409.03
903.571	379.09
903.947	371.75
904.324	382.2
904.7	376.83
905.076	384.74
905.452	412.98
905.828	395.19
906.204	375.14
906.58	395.76
906.956	376.83
907.331	375.14
907.707	391.8
908.083	404.23
908.458	391.52
908.834	376.83
909.209	362.14
909.585	384.18
909.96	357.34
910.335	359.32
910.71	397.73
911.086	407.33
911.461	395.47
911.836	400.84
912.21	410.16
912.585	375.42
912.96	414.68
913.335	391.52
913.709	395.19
914.084	383.89
914.459	385.87
914.833	372.03
915.207	399.15
915.582	384.18
915.956	398.3
916.33	395.76
916.704	382.48
917.078	384.46
917.452	417.22
917.826	380.22
918.2	352.25
918.574	396.6
918.948	375.7
919.321	393.5
919.695	375.14
920.068	379.94
920.442	409.03
920.815	403.1
921.189	386.15
921.562	398.3
921.935	383.61
922.308	383.89
922.681	364.97
923.054	385.31
923.427	374.01
923.8	386.44
924.173	399.15
924.546	392.09
924.919	366.66
925.291	416.09
925.664	396.6
926.036	387.57
926.409	393.78
926.781	375.99
927.153	370.62
927.526	375.7
927.898	396.6
928.27	377.12
928.642	398.58
929.014	372.03
929.386	398.86
929.758	361.58
930.129	386.72
930.501	405.64
930.873	391.52
931.244	389.26
931.616	364.68
931.987	375.14
932.359	399.15
932.73	399.99
933.101	385.87
933.472	370.05
933.843	382.48
934.214	406.77
934.585	381.63
934.956	398.58
935.327	367.79
935.698	379.09
936.069	383.33
936.439	387.28
936.81	408.75
937.18	364.12
937.551	355.08
937.921	369.77
938.292	385.87
938.662	368.36
939.032	427.1
939.402	372.6
939.772	371.47
940.142	385.87
940.512	391.24
940.882	387.85
941.252	357.62
941.621	381.07
941.991	384.18
942.361	388.7
942.73	360.73
943.1	378.81
943.469	373.44
943.838	339.82
944.208	378.53
944.577	399.71
944.946	385.59
945.315	396.6
945.684	385.31
946.053	385.87
946.422	375.42
946.791	363.55
947.159	382.76
947.528	383.89
947.897	368.64
948.265	385.31
948.634	362.14
949.002	393.78
949.371	396.04
949.739	375.14
950.107	378.81
950.475	371.18
950.843	392.09
951.211	403.66
951.579	380.22
951.947	382.48
952.315	386.15
952.683	398.02
953.05	390.96
953.418	382.48
953.785	381.07
954.153	370.34
954.52	394.06
954.888	382.76
955.255	404.23
955.622	407.33
955.989	414.11
956.356	391.24
956.723	386.15
957.09	365.25
957.457	366.66
957.824	403.95
958.191	387.28
958.557	372.88
958.924	364.97
959.291	381.35
959.657	376.83
960.023	400.56
960.39	400.56
960.756	399.71
961.122	379.09
961.488	377.12
961.855	378.53
962.221	393.5
962.586	371.47
962.952	367.23
963.318	374.01
963.684	383.33
964.05	359.6
964.415	372.31
964.781	403.66
965.146	382.76
965.512	358.47
965.877	380.5
966.242	388.7
966.608	379.66
966.973	381.92
967.338	388.41
967.703	360.45
968.068	381.92
968.433	384.74
968.797	381.07
969.162	383.61
969.527	388.98
969.891	361.29
970.256	392.93
970.62	362.71
970.985	381.35
971.349	387.85
971.714	358.75
972.078	395.76
972.442	379.66
972.806	390.39
973.17	353.1
973.534	371.47
973.898	388.7
974.262	393.5
974.625	390.11
974.989	365.81
975.353	387.85
975.716	392.09
976.08	382.48
976.443	395.76
976.806	387.85
977.17	397.17
977.533	372.6
977.896	386.44
978.259	385.59
978.622	394.63
978.985	373.16
979.348	393.21
979.711	368.92
980.073	398.58
980.436	388.98
980.799	404.51
981.161	365.25
981.524	390.11
981.886	388.7
982.248	372.6
982.611	376.27
982.973	398.58
983.335	379.09
983.697	369.77
984.059	378.81
984.421	383.05
984.783	388.41
985.145	376.27
985.506	363.84
985.868	390.67
986.23	381.07
986.591	387.57
986.953	394.06
987.314	397.45
987.675	364.12
988.037	510.61
988.398	390.67
988.759	372.31
989.12	354.23
989.481	367.23
989.842	369.49
990.203	352.54
990.564	391.24
990.924	385.59
991.285	510.89
991.646	381.07
992.006	376.27
992.367	379.09
992.727	378.53
993.087	348.3
993.448	377.96
993.808	355.36
994.168	373.73
994.528	390.96
994.888	377.96
995.248	400.56
995.608	392.93
995.967	369.77
996.327	391.52
996.687	369.21
997.046	388.13
997.406	372.6
997.765	373.44
998.125	371.75
998.484	379.37
998.843	382.2
999.202	369.21
999.561	389.26
999.92	386.72
1000.279	399.71
1000.638	362.99
1000.997	357.34
1001.356	386.44
1001.715	367.79
1002.073	378.53
1002.432	381.35
1002.79	388.13
1003.149	369.77
1003.507	396.89
1003.865	369.77
1004.224	396.04
1004.582	401.12
1004.94	388.98
1005.298	385.02
1005.656	393.5
1006.014	358.75
1006.371	383.05
1006.729	375.99
1007.087	385.59
1007.445	381.07
1007.802	401.69
1008.16	379.09
1008.517	357.9
1008.874	380.22
1009.232	381.63
1009.589	394.06
1009.946	407.62
1010.303	396.6
1010.66	383.05
1011.017	373.16
1011.374	369.77
1011.731	380.5
1012.087	385.02
1012.444	383.33
1012.801	367.79
1013.157	369.77
1013.513	374.86
1013.87	382.2
1014.226	388.41
1014.582	392.65
1014.939	376.55
1015.295	357.9
1015.651	359.03
1016.007	388.41
1016.363	381.92
1016.719	357.62
1017.074	387.28
1017.43	363.27
1017.786	381.07
1018.141	374.86
1018.497	387.85
1018.852	363.27
1019.208	398.02
1019.563	369.77
1019.918	387
1020.273	392.09
1020.628	379.94
1020.983	374.01
1021.338	364.4
1021.693	373.16
1022.048	377.4
1022.403	358.47
1022.757	395.47
1023.112	370.05
1023.467	383.89
1023.821	359.88
1024.175	373.16
1024.53	383.33
1024.884	402.82
1025.238	383.05
1025.592	394.06
1025.946	380.79
1026.3	380.5
1026.654	374.29
1027.008	369.49
1027.362	360.45
1027.716	388.7
1028.069	370.34
1028.423	384.18
1028.777	385.87
1029.13	345.19
1029.483	370.62
1029.837	394.91
1030.19	352.25
1030.543	375.42
1030.896	390.96
1031.249	367.79
1031.602	369.49
1031.955	388.98
1032.308	350.84
1032.661	375.7
1033.013	383.33
1033.366	380.22
1033.719	396.6
1034.071	374.86
1034.424	383.05
1034.776	359.32
1035.128	365.25
1035.48	360.16
1035.833	368.64
1036.185	363.84
1036.537	363.84
1036.889	363.84
