Data from SCSF78-405_irradiation_FLMS019251_20-25-27-880.txt Node
Date: Fri Feb 22 20:25:27 PST 2019
User: mu3e
Spectrometer: FLMS01925
Trigger mode: 0
Integration Time (sec): 1.206000E-2
Scans to average: 10
Electric dark correction enabled: true
Nonlinearity correction enabled: true
Boxcar width: 0
XAxis mode: Wavelengths
Number of Pixels in Spectrum: 2048
>>>>>Begin Spectral Data<<<<<
187.103	-87.55
187.574	-87.55
188.045	-87.55
188.516	-136.18
188.987	-134.75
189.458	-109.73
189.929	-114.85
190.4	-101.77
190.871	-101.2
191.342	-106.03
191.813	-84.43
192.284	-38.39
192.754	-21.63
193.225	-7.15
193.696	42.81
194.166	45.08
194.637	85.36
195.107	104.36
195.578	122.78
196.048	132.7
196.518	151.12
196.989	170.39
197.459	208.9
197.929	261.83
198.399	274.27
198.869	295.49
199.339	305.38
199.809	323.76
200.279	348.63
200.749	329.13
201.219	354
201.689	365.59
202.159	380.28
202.628	363.89
203.098	381.97
203.568	396.37
204.037	379.99
204.507	389.88
204.976	394.68
205.445	402.87
205.915	395.24
206.384	420.38
206.853	396.09
207.323	393.55
207.792	387.62
208.261	393.83
208.73	388.18
209.199	396.37
209.668	386.21
210.137	391.01
210.606	372.08
211.075	369.26
211.543	367.85
212.012	426.87
212.481	391.57
212.95	391.57
213.418	390.16
213.887	380.28
214.355	348.63
214.824	365.3
215.292	352.31
215.76	365.02
216.229	364.46
216.697	329.41
217.165	352.87
217.633	354.57
218.101	362.48
218.569	340.44
219.037	370.11
219.505	381.41
219.973	345.24
220.441	360.78
220.909	389.6
221.377	344.96
221.844	344.96
222.312	328
222.78	348.63
223.247	334.22
223.715	362.48
224.182	342.13
224.65	361.91
225.117	351.18
225.584	351.46
226.052	337.04
226.519	377.45
226.986	350.33
227.453	352.02
227.92	359.93
228.387	366.72
228.854	343.83
229.321	366.72
229.788	339.02
230.255	373.5
230.722	319.24
231.189	361.63
231.655	372.93
232.122	355.13
232.589	334.78
233.055	378.02
233.522	367.56
233.988	380.56
234.454	357.67
234.921	343.83
235.387	360.78
235.853	359.93
236.32	382.25
236.786	379.15
237.252	374.34
237.718	388.18
238.184	335.35
238.65	368.13
239.116	361.06
239.582	386.77
240.047	362.48
240.513	362.76
240.979	358.52
241.445	361.91
241.91	356.83
242.376	363.33
242.841	368.98
243.307	367
243.772	396.94
244.238	363.04
244.703	369.26
245.168	369.26
245.633	379.99
246.099	354.57
246.564	395.81
247.029	363.89
247.494	393.27
247.959	354.85
248.424	373.5
248.889	366.43
249.353	361.35
249.818	384.51
250.283	331.96
250.748	368.69
251.212	374.34
251.677	403.72
252.141	407.95
252.606	380.28
253.07	358.24
253.535	384.51
253.999	378.58
254.463	389.88
254.927	395.24
255.392	378.86
255.856	396.37
256.32	343.83
256.784	370.39
257.248	370.11
257.712	397.22
258.176	362.2
258.64	382.82
259.103	357.67
259.567	381.97
260.031	358.24
260.495	347.22
260.958	373.21
261.422	379.99
261.885	383.95
262.349	388.75
262.812	402.3
263.275	388.18
263.739	382.54
264.202	371.52
264.665	402.02
265.128	387.9
265.591	375.76
266.054	378.58
266.517	381.12
266.98	399.2
267.443	370.11
267.906	389.88
268.369	403.43
268.832	392.7
269.294	370.39
269.757	373.21
270.22	390.44
270.682	381.41
271.145	402.3
271.607	375.76
272.07	378.3
272.532	395.53
272.994	396.66
273.456	387.05
273.919	360.78
274.381	380.28
274.843	371.24
275.305	369.54
275.767	392.7
276.229	392.7
276.691	390.16
277.153	383.66
277.614	386.21
278.076	374.63
278.538	393.27
279	394.12
279.461	399.48
279.923	380.84
280.384	372.08
280.846	381.97
281.307	403.43
281.769	386.21
282.23	398.92
282.691	387.9
283.152	372.65
283.613	379.71
284.075	376.89
284.536	368.69
284.997	370.39
285.458	393.83
285.918	386.21
286.379	391.86
286.84	395.53
287.301	374.34
287.762	414.16
288.222	383.1
288.683	414.45
289.143	396.94
289.604	376.04
290.064	374.91
290.525	358.52
290.985	382.82
291.445	374.34
291.906	395.24
292.366	393.55
292.826	383.66
293.286	386.77
293.746	388.47
294.206	385.92
294.666	385.64
295.126	380.28
295.586	407.11
296.046	382.25
296.506	395.81
296.965	369.26
297.425	394.68
297.884	407.95
298.344	383.95
298.804	372.65
299.263	385.92
299.722	392.7
300.182	403.15
300.641	408.8
301.1	400.89
301.559	391.86
302.019	420.09
302.478	367.56
302.937	387.05
303.396	421.22
303.855	370.95
304.314	378.3
304.772	383.38
305.231	394.4
305.69	389.88
306.149	399.2
306.607	402.3
307.066	392.42
307.524	403.72
307.983	392.14
308.441	430.26
308.9	429.13
309.358	433.08
309.816	415.86
310.275	403.15
310.733	418.68
311.191	406.26
311.649	375.47
312.107	389.03
312.565	395.81
313.023	391.57
313.481	422.35
313.939	413.32
314.397	368.98
314.854	407.67
315.312	394.4
315.77	405.13
316.227	390.73
316.685	379.43
317.142	401.74
317.6	391.29
318.057	397.5
318.514	408.23
318.972	417.27
319.429	410.78
319.886	404.56
320.343	383.95
320.8	373.5
321.257	395.24
321.714	399.76
322.171	395.53
322.628	383.66
323.085	388.75
323.542	395.24
323.998	400.89
324.455	404.28
324.912	409.36
325.368	385.92
325.825	418.96
326.281	388.47
326.738	399.48
327.194	412.19
327.65	399.2
328.107	415.01
328.563	400.05
329.019	399.76
329.475	366.72
329.931	383.1
330.387	398.63
330.843	403.72
331.299	394.96
331.755	397.5
332.211	405.41
332.666	413.6
333.122	401.74
333.578	405.69
334.033	402.3
334.489	404.56
334.944	388.47
335.4	392.14
335.855	402.59
336.31	421.79
336.766	401.46
337.221	394.68
337.676	393.55
338.131	430.54
338.586	407.39
339.041	392.42
339.496	390.44
339.951	410.49
340.406	405.41
340.861	421.5
341.316	420.66
341.771	412.19
342.225	408.23
342.68	420.09
343.134	405.69
343.589	409.08
344.043	426.87
344.498	398.07
344.952	402.87
345.406	430.82
345.861	416.99
346.315	402.59
346.769	406.82
347.223	394.68
347.677	412.75
348.131	410.78
348.585	388.18
349.039	418.96
349.493	398.63
349.947	398.35
350.401	420.66
350.854	407.67
351.308	399.76
351.762	402.59
352.215	392.14
352.669	435.9
353.122	431.67
353.575	411.91
354.029	422.35
354.482	407.95
354.935	434.21
355.388	431.38
355.842	398.35
356.295	398.35
356.748	398.35
357.201	404
357.654	407.67
358.106	412.19
358.559	427.15
359.012	404.28
359.465	405.69
359.917	411.06
360.37	421.22
360.823	417.27
361.275	416.99
361.728	398.63
362.18	406.82
362.632	441.55
363.085	439.01
363.537	428.56
363.989	412.75
364.441	417.83
364.893	415.86
365.345	417.83
365.797	423.48
366.249	401.74
366.701	404
367.153	435.9
367.605	398.92
368.057	404.56
368.508	389.03
368.96	418.4
369.411	430.54
369.863	441.26
370.314	402.02
370.766	436.18
371.217	418.12
371.669	408.8
372.12	419.81
372.571	399.48
373.022	428.28
373.473	406.26
373.924	423.48
374.375	421.5
374.826	409.65
375.277	426.3
375.728	420.09
376.179	416.71
376.63	453.12
377.08	433.64
377.531	414.45
377.981	419.53
378.432	421.22
378.883	411.34
379.333	409.36
379.783	453.68
380.234	431.95
380.684	425.17
381.134	411.06
381.584	416.14
382.034	406.54
382.485	415.58
382.935	437.31
383.385	417.27
383.834	418.68
384.284	433.08
384.734	446.63
385.184	402.59
385.634	429.97
386.083	407.39
386.533	401.74
386.982	424.61
387.432	440.98
387.881	428.84
388.331	424.05
388.78	404
389.229	415.01
389.679	422.63
390.128	433.93
390.577	429.69
391.026	431.1
391.475	424.05
391.924	426.3
392.373	422.35
392.822	444.65
393.27	447.76
393.719	411.34
394.168	437.88
394.617	417.83
395.065	445.22
395.514	444.65
395.962	445.22
396.411	435.62
396.859	436.18
397.307	451.99
397.756	443.8
398.204	469.2
398.652	439.01
399.1	457.63
399.548	457.07
399.996	472.02
400.444	447.76
400.892	426.87
401.34	448.04
401.788	431.38
402.236	442.39
402.683	460.45
403.131	426.87
403.579	468.35
404.026	458.48
404.474	464.12
404.921	440.42
405.369	472.02
405.816	422.07
406.263	473.15
406.71	466.94
407.158	453.96
407.605	486.41
408.052	475.12
408.499	508.12
408.946	466.1
409.393	510.1
409.84	496
410.286	512.35
410.733	506.15
411.18	511.79
411.626	602.25
412.073	618.3
412.52	672.62
412.966	755.3
413.413	887.85
413.859	1059.64
414.305	1244.46
414.752	1537.96
415.198	1838.68
415.644	2254.15
416.09	2737.69
416.536	3242.17
416.982	3924.25
417.428	4566.63
417.874	5349.81
418.32	6137.45
418.766	6988.69
419.211	8047.35
419.657	8917.66
420.103	10135.71
420.548	10905.94
420.994	12218.54
421.439	13272.81
421.885	14290.6
422.33	15664.17
422.776	16673.26
423.221	17596
423.666	18789.6
424.111	20053.45
424.556	21053.18
425.001	22387.63
425.446	23798.94
425.891	24996.64
426.336	25758.91
426.781	27014.87
427.226	29014.89
427.671	29761.11
428.115	30568.8
428.56	32176.29
429.005	33689.94
429.449	34078.23
429.894	35397.83
430.338	36607.11
430.782	36680.74
431.227	38138.71
431.671	38557.64
432.115	39945.1
432.559	40924.78
433.003	40697.49
433.447	41775.43
433.891	41854.76
434.335	42376.42
434.779	43142.25
435.223	43327.98
435.667	43475.43
436.111	43893.36
436.554	43901.86
436.998	43261.9
437.442	43526.1
437.885	45540.16
438.328	43972.64
438.772	44215.93
439.215	44731.02
439.659	44388.06
440.102	44823.7
440.545	44178.37
440.988	43930.87
441.431	44871.7
441.874	44395.83
442.317	44691.35
442.76	44038.44
443.203	43536.58
443.646	44048.95
444.089	43827.86
444.531	44469.54
444.974	43226.25
445.417	44326.16
445.859	43341.95
446.302	44434.44
446.744	43805.61
447.186	44822.95
447.629	43975.15
448.071	43804.61
448.513	43976.9
448.956	45355.61
449.398	44542.03
449.84	43320.5
450.282	44036.69
450.724	44549.81
451.166	44334.93
451.607	44053.71
452.049	44133.05
452.491	45253.33
452.933	44785.52
453.374	45415.09
453.816	45715.58
454.257	45355.1
454.699	46551.21
455.14	46116.36
455.582	45889.17
456.023	45913.44
456.464	46049.79
456.905	46478.35
457.347	46489.27
457.788	45620.15
458.229	45842.16
458.67	46743.57
459.111	44964.95
459.552	44978.28
459.992	44832.75
460.433	44736.8
460.874	43651.2
461.315	44947.61
461.755	43951.88
462.196	43548.32
462.636	42682.42
463.077	42358.54
463.517	42454.19
463.957	42752.82
464.398	42538.7
464.838	42567.53
465.278	41333.58
465.718	41754.86
466.158	40640.19
466.598	40990.28
467.038	40663.9
467.478	40924.53
467.918	41224.22
468.358	40544.9
468.798	40269.03
469.237	40042.2
469.677	40045.89
470.117	40647.35
470.556	38546.84
470.996	38934.71
471.435	39154.72
471.874	39693.11
472.314	39557.45
472.753	38614.37
473.192	38765.17
473.631	38570.17
474.07	38666.43
474.509	38586.62
474.948	38832.73
475.387	38189.98
475.826	37433.97
476.265	38912.34
476.704	38544.38
477.143	38852.63
477.581	38583.67
478.02	39246.2
478.458	37893.47
478.897	38493.07
479.335	39615.06
479.774	39126.44
480.212	39326.64
480.65	39206.11
481.089	38931.02
481.527	38484.97
481.965	37929.51
482.403	39954.95
482.841	39634.26
483.279	39707.88
483.717	39655.19
484.155	39150.05
484.592	39589.95
485.03	39705.66
485.468	38900.55
485.905	38931.02
486.343	39372.15
486.781	38866.89
487.218	38279.29
487.655	38200.29
488.093	37486.88
488.53	38769.59
488.967	37911.12
489.405	37745.65
489.842	36913.92
490.279	36891.9
490.716	36738.96
491.153	37067.39
491.59	36532.99
492.027	35849.49
492.463	35325.3
492.9	34774.81
493.337	34724.29
493.773	34833.88
494.21	33877.73
494.647	33822.61
495.083	33072.04
495.519	32782.39
495.956	32649.27
496.392	32005.14
496.828	31873.73
497.265	31103.69
497.701	31256.59
498.137	31121.98
498.573	30242.37
499.009	30691.5
499.445	29891.94
499.881	29423.72
500.316	29739.63
500.752	28787.2
501.188	28575.08
501.624	28576.3
502.059	27656.31
502.495	27280.58
502.93	27287.68
503.366	27331.99
503.801	26734.83
504.236	26526.25
504.672	26154.24
505.107	25895.87
505.542	25332.59
505.977	25280.5
506.412	24821.08
506.847	25104.3
507.282	24578.78
507.717	24306.83
508.152	24295.01
508.587	23976.34
509.021	23338.61
509.456	23007.44
509.891	23145.91
510.325	23091.86
510.76	22698.75
511.194	22430.15
511.628	22546.8
512.063	21913.98
512.497	22097.07
512.931	21587.95
513.366	21203.66
513.8	21302.31
514.234	20761.72
514.668	20773.38
515.102	20968.12
515.536	20062.15
515.969	20361.79
516.403	19851.82
516.837	19472.42
517.271	19548.58
517.704	19247.85
518.138	19083.69
518.571	18937.17
519.005	18578.61
519.438	18482.06
519.871	18309.35
520.305	17911.74
520.738	17880.25
521.171	17405.38
521.604	17507.71
522.037	17255.72
522.47	16943.44
522.903	16748.47
523.336	16593.52
523.769	16587.76
524.202	16127.03
524.634	16000.19
525.067	15795.91
525.5	15691.08
525.932	15657.13
526.365	15273.69
526.797	15119.59
527.23	15116.57
527.662	14689.61
528.094	14420.13
528.527	14401.95
528.959	13964.39
529.391	13831.37
529.823	13501.84
530.255	13562.87
530.687	13180.54
531.119	12932.71
531.551	13010.61
531.982	12596.22
532.414	12523.78
532.846	12213.2
533.277	12092.01
533.709	11739.8
534.14	11710.98
534.572	11605.85
535.003	11428.92
535.435	11217.84
535.866	11049.28
536.297	10781.2
536.728	10826.03
537.159	10686.11
537.59	10413.17
538.022	10311.99
538.452	10159.88
538.883	9983.44
539.314	9838.77
539.745	9744.24
540.176	9500.57
540.606	9296.85
541.037	9337.15
541.468	9139.96
541.898	8995.08
542.328	8962.98
542.759	8780.61
543.189	8662.11
543.619	8653.81
544.05	8299.03
544.48	8326.85
544.91	8203.82
545.34	7962.92
545.77	7993.68
546.2	7819.75
546.63	7734.92
547.06	7648.99
547.489	7543.66
547.919	7315.47
548.349	7337.99
548.778	7378.84
549.208	7147.46
549.637	7072.17
550.067	6970.56
550.496	6946.14
550.926	6782.1
551.355	6597.03
551.784	6690.26
552.213	6527.72
552.642	6461.01
553.071	6410.36
553.5	6279.93
553.929	6111.78
554.358	6146.44
554.787	6027.62
555.216	5982.86
555.645	5939.42
556.073	5856.18
556.502	5760.94
556.93	5607.95
557.359	5637.98
557.787	5564.88
558.216	5457.67
558.644	5443.56
559.072	5322.37
559.5	5311.97
559.929	5254.91
560.357	5207.7
560.785	5168.2
561.213	5140.17
561.641	5027.71
562.068	5018.08
562.496	4961.93
562.924	4959.52
563.352	4897.18
563.779	4859.44
564.207	4872.56
564.634	4806.95
565.062	4791.14
565.489	4714.22
565.917	4651.45
566.344	4658.97
566.771	4613.61
567.198	4565.29
567.625	4513.44
568.053	4389.23
568.48	4434.42
568.907	4384.92
569.333	4287.21
569.76	4161.07
570.187	4199.63
570.614	4071.49
571.04	4233.86
571.467	3981.82
571.894	3943.71
572.32	3865.28
572.747	3789.76
573.173	3731.52
573.599	3638.81
574.026	3612.22
574.452	3567.17
574.878	3467.21
575.304	3488.68
575.73	3394.35
576.156	3326.86
576.582	3280.03
577.008	3179.47
577.434	3220.09
577.86	3099
578.285	3117.28
578.711	3015.99
579.137	2953.13
579.562	2945.2
579.988	2909.1
580.413	2850
580.838	2795.51
581.264	2771.95
581.689	2736.32
582.114	2699.31
582.539	2664.75
582.964	2595.04
583.39	2576.64
583.814	2539.01
584.239	2473.59
584.664	2456.82
585.089	2465.34
585.514	2407.02
585.939	2395.74
586.363	2348.39
586.788	2294.67
587.212	2302.38
587.637	2229.61
588.061	2209.19
588.485	2189.33
588.91	2186.02
589.334	2139.37
589.758	2107.34
590.182	2108.99
590.606	2044.89
591.03	2005.63
591.454	1949.19
591.878	1968.56
592.302	1953.61
592.726	1890.49
593.15	1904.62
593.573	1884.12
593.997	1863.07
594.42	1844.23
594.844	1814.29
595.267	1787.12
595.691	1766.31
596.114	1743.84
596.537	1720.25
596.96	1707.48
597.384	1704.43
597.807	1661.67
598.23	1658.33
598.653	1646.94
599.076	1629.16
599.499	1618.6
599.921	1613.32
600.344	1595.53
600.767	1549.37
601.189	1598.31
601.612	1505.4
602.034	1541.02
602.457	1557.43
602.879	1541.86
603.302	1515.7
603.724	1507.63
604.146	1501.51
604.568	1478.68
604.991	1459.47
605.413	1465.87
605.835	1449.44
606.257	1464.2
606.678	1460.86
607.1	1461.7
607.522	1438.86
607.944	1389.81
608.365	1380.34
608.787	1388.7
609.209	1394.27
609.63	1359.71
610.051	1370.3
610.473	1380.06
610.894	1357.2
611.315	1318.15
611.737	1287.17
612.158	1281.59
612.579	1232.45
613	1258.14
613.421	1286.06
613.842	1203.39
614.263	1192.78
614.683	1217.64
615.104	1188.86
615.525	1203.39
615.945	1162.87
616.366	1157.28
616.787	1155.32
617.207	1136.31
617.627	1099.66
618.048	1099.66
618.468	1115.89
618.888	1081.19
619.308	1061.04
619.728	1077.55
620.148	1055.72
620.568	1041.72
620.988	1028.28
621.408	1019.88
621.828	1028.84
622.248	991.03
622.668	1012.88
623.087	971.41
623.507	960.76
623.926	987.38
624.346	929.36
624.765	938.33
625.185	930.48
625.604	929.08
626.023	877.75
626.442	904.4
626.861	933.29
627.28	902.72
627.699	862.87
628.118	856.42
628.537	896.26
628.956	861.19
629.375	859.5
629.794	835.36
630.212	837.33
630.631	839.57
631.049	833.4
631.468	831.43
631.886	813.46
632.305	817.95
632.723	793.52
633.141	798.29
633.559	813.18
633.978	773.29
634.396	764.01
634.814	781.44
635.232	748.56
635.65	792.11
636.067	724.1
636.485	728.03
636.903	722.13
637.321	757.55
637.738	745.46
638.156	709.19
638.573	704.41
638.991	701.6
639.408	700.47
639.825	678.53
640.243	720.16
640.66	682.47
641.077	704.98
641.494	690.91
641.911	700.47
642.328	663.06
642.745	680.78
643.162	673.19
643.579	659.12
643.995	647.58
644.412	646.73
644.829	625.9
645.245	650.67
645.662	664.46
646.078	636.32
646.495	628.44
646.911	639.98
647.327	629.28
647.743	615.48
648.159	629.84
648.576	615.48
648.992	624.78
649.408	623.09
649.824	623.65
650.239	611.82
650.655	601.12
651.071	594.93
651.487	582.25
651.902	584.79
652.318	607.04
652.733	587.04
653.149	583.66
653.564	600.56
653.979	571.83
654.395	564.22
654.81	572.67
655.225	585.07
655.64	565.35
656.055	566.47
656.47	559.71
656.885	565.06
657.3	574.08
657.715	538.85
658.13	596.9
658.544	561.12
658.959	556.33
659.374	554.92
659.788	553.79
660.202	584.79
660.617	541.67
661.031	536.32
661.445	544.49
661.86	559.71
662.274	533.5
662.688	530.4
663.102	527.3
663.516	533.78
663.93	536.04
664.344	531.53
664.758	536.32
665.171	527.86
665.585	530.12
665.999	538.29
666.412	514.05
666.826	516.58
667.239	521.94
667.653	490.08
668.066	522.22
668.479	496
668.892	521.09
669.306	499.95
669.719	542.24
670.132	519.4
670.545	507.84
670.958	503.05
671.37	482.74
671.783	491.2
672.196	466.1
672.609	515.17
673.021	514.89
673.434	494.87
673.846	494.31
674.259	498.25
674.671	492.05
675.084	512.92
675.496	495.43
675.908	498.54
676.32	467.51
676.732	499.38
677.144	498.54
677.556	528.99
677.968	481.61
678.38	480.77
678.792	485
679.204	477.66
679.615	485
680.027	477.38
680.439	495.72
680.85	489.23
681.262	519.12
681.673	476.25
682.084	460.74
682.496	484.43
682.907	470.89
683.318	473.43
683.729	465.25
684.14	447.19
684.551	480.48
684.962	470.61
685.373	468.35
685.784	455.09
686.194	473.71
686.605	449.45
687.016	462.15
687.426	457.63
687.837	478.23
688.247	468.07
688.657	427.72
689.068	477.95
689.478	485
689.888	458.2
690.298	447.76
690.708	439.57
691.118	453.12
691.528	478.51
691.938	468.35
692.348	452.55
692.758	434.21
693.168	462.99
693.577	458.2
693.987	433.93
694.396	459.89
694.806	435.9
695.215	439.01
695.625	413.6
696.034	428.84
696.443	431.67
696.852	451.14
697.262	431.1
697.671	438.16
698.08	412.47
698.489	447.19
698.897	439.29
699.306	439.01
699.715	418.68
700.124	448.32
700.532	442.96
700.941	439.29
701.35	438.72
701.758	423.2
702.166	421.5
702.575	439.29
702.983	405.13
703.391	419.25
703.799	421.5
704.208	410.49
704.616	444.93
705.024	410.78
705.432	431.38
705.839	443.52
706.247	428.56
706.655	425.46
707.063	410.21
707.47	426.02
707.878	430.82
708.285	443.8
708.693	425.46
709.1	450.58
709.508	442.11
709.915	442.96
710.322	431.95
710.729	423.48
711.136	415.29
711.543	424.05
711.95	426.3
712.357	426.87
712.764	411.91
713.171	435.05
713.578	442.39
713.984	411.06
714.391	415.58
714.797	426.02
715.204	436.75
715.61	417.55
716.017	436.47
716.423	404
716.829	428.28
717.236	403.43
717.642	433.08
718.048	392.99
718.454	417.27
718.86	416.71
719.266	416.71
719.671	393.55
720.077	427.43
720.483	415.01
720.889	428
721.294	430.54
721.7	424.89
722.105	400.05
722.511	416.42
722.916	412.47
723.321	418.12
723.726	434.77
724.132	379.71
724.537	419.81
724.942	408.52
725.347	409.36
725.752	442.68
726.156	413.6
726.561	422.07
726.966	424.89
727.371	406.82
727.775	448.32
728.18	415.01
728.584	410.49
728.989	425.74
729.393	418.4
729.798	382.82
730.202	392.7
730.606	413.03
731.01	401.18
731.414	421.22
731.818	429.69
732.222	403.72
732.626	391.57
733.03	402.02
733.434	408.23
733.837	411.91
734.241	410.78
734.645	411.34
735.048	417.83
735.452	415.86
735.855	432.8
736.258	400.89
736.662	401.18
737.065	419.81
737.468	397.79
737.871	407.11
738.274	429.69
738.677	382.25
739.08	393.27
739.483	413.6
739.886	407.39
740.289	398.92
740.691	404.56
741.094	411.34
741.497	414.16
741.899	416.71
742.302	399.2
742.704	400.89
743.106	392.14
743.508	423.2
743.911	398.35
744.313	403.15
744.715	394.12
745.117	427.43
745.519	389.03
745.921	387.9
746.323	398.92
746.724	426.02
747.126	376.32
747.528	379.15
747.929	430.54
748.331	412.47
748.732	420.94
749.134	395.81
749.535	401.46
749.936	435.9
750.338	425.74
750.739	415.29
751.14	406.82
751.541	393.83
751.942	395.53
752.343	407.95
752.744	396.09
753.144	398.92
753.545	419.25
753.946	388.18
754.346	403.72
754.747	404.85
755.148	407.95
755.548	378.02
755.948	404
756.349	400.33
756.749	412.19
757.149	393.55
757.549	405.41
757.949	381.41
758.349	384.79
758.749	383.66
759.149	404.28
759.549	401.18
759.949	397.79
760.348	383.1
760.748	422.35
761.148	379.99
761.547	412.75
761.947	402.02
762.346	417.83
762.745	397.5
763.145	393.27
763.544	382.54
763.943	385.64
764.342	398.35
764.741	416.42
765.14	400.61
765.539	415.29
765.938	399.48
766.336	387.9
766.735	393.27
767.134	393.83
767.532	371.24
767.931	416.99
768.329	399.76
768.728	376.6
769.126	404.56
769.525	389.31
769.923	402.87
770.321	404.56
770.719	407.67
771.117	378.3
771.515	407.67
771.913	381.97
772.311	400.61
772.709	379.99
773.106	397.5
773.504	405.41
773.902	420.38
774.299	398.63
774.697	407.11
775.094	391.57
775.491	378.86
775.889	431.38
776.286	416.42
776.683	398.63
777.08	376.32
777.477	366.15
777.874	367
778.271	384.79
778.668	378.58
779.065	401.46
779.462	384.23
779.858	405.69
780.255	391.01
780.652	415.86
781.048	407.95
781.444	408.23
781.841	400.05
782.237	397.22
782.633	382.54
783.03	375.47
783.426	379.99
783.822	374.34
784.218	408.23
784.614	372.08
785.01	387.9
785.405	392.99
785.801	398.35
786.197	412.19
786.593	387.34
786.988	386.21
787.384	380.56
787.779	405.41
788.174	386.21
788.57	381.12
788.965	400.05
789.36	417.27
789.755	400.33
790.15	385.92
790.545	420.66
790.94	399.2
791.335	380.84
791.73	399.48
792.125	411.91
792.52	380.84
792.914	418.96
793.309	388.47
793.703	377.17
794.098	371.52
794.492	376.89
794.887	373.78
795.281	394.68
795.675	380.84
796.069	377.17
796.463	398.07
796.857	399.76
797.251	388.47
797.645	394.4
798.039	368.69
798.433	396.94
798.826	402.02
799.22	399.2
799.614	383.95
800.007	407.11
800.401	400.05
800.794	393.27
801.187	396.37
801.581	387.05
801.974	420.94
802.367	384.23
802.76	400.89
803.153	416.42
803.546	404.28
803.939	383.95
804.332	397.5
804.725	402.02
805.117	394.12
805.51	380.28
805.903	409.93
806.295	416.99
806.688	394.68
807.08	404.28
807.472	394.96
807.865	377.73
808.257	391.29
808.649	387.34
809.041	396.09
809.433	384.79
809.825	378.3
810.217	395.81
810.609	366.43
811.001	379.15
811.392	386.49
811.784	366.43
812.175	374.06
812.567	377.17
812.958	400.05
813.35	395.81
813.741	405.98
814.132	434.49
814.524	386.77
814.915	367.85
815.306	380.28
815.697	402.59
816.088	403.72
816.479	368.69
816.87	396.37
817.26	359.93
817.651	387.05
818.042	393.27
818.432	359.65
818.823	369.54
819.213	384.79
819.604	397.79
819.994	381.97
820.384	368.13
820.775	410.49
821.165	386.49
821.555	364.46
821.945	400.05
822.335	404.85
822.725	385.64
823.114	404.85
823.504	384.23
823.894	404.28
824.284	390.73
824.673	389.31
825.063	392.7
825.452	384.51
825.842	374.06
826.231	404.56
826.62	398.35
827.009	375.19
827.399	394.12
827.788	399.2
828.177	380.84
828.566	403.72
828.954	378.02
829.343	405.13
829.732	401.46
830.121	396.09
830.509	411.91
830.898	384.79
831.286	403.43
831.675	389.31
832.063	378.02
832.452	366.43
832.84	383.38
833.228	367
833.616	411.91
834.004	394.68
834.392	377.73
834.78	381.12
835.168	398.92
835.556	383.38
835.944	409.65
836.331	371.8
836.719	377.73
837.107	390.73
837.494	379.15
837.881	367.56
838.269	389.03
838.656	377.17
839.043	367
839.431	380.28
839.818	381.69
840.205	377.17
840.592	385.08
840.979	392.7
841.366	368.41
841.752	382.54
842.139	384.79
842.526	377.17
842.912	381.69
843.299	385.92
843.685	391.57
844.072	386.21
844.458	392.14
844.844	381.69
845.231	400.89
845.617	380.84
846.003	391.29
846.389	350.04
846.775	377.73
847.161	407.39
847.547	373.78
847.933	390.44
848.318	383.95
848.704	394.68
849.09	374.63
849.475	399.48
849.861	398.35
850.246	389.31
850.631	379.99
851.017	385.36
851.402	350.33
851.787	389.03
852.172	392.7
852.557	391.86
852.942	392.42
853.327	371.8
853.712	373.21
854.097	378.86
854.481	378.3
854.866	389.03
855.25	387.05
855.635	399.48
856.019	385.64
856.404	401.18
856.788	375.76
857.172	386.21
857.557	379.99
857.941	367.28
858.325	385.36
858.709	376.04
859.093	375.76
859.477	374.34
859.86	384.51
860.244	371.52
860.628	367.56
861.012	369.54
861.395	408.23
861.779	369.26
862.162	385.08
862.545	398.63
862.929	381.41
863.312	399.2
863.695	397.22
864.078	383.1
864.461	387.34
864.844	371.52
865.227	395.81
865.61	381.12
865.993	359.37
866.376	366.43
866.758	396.09
867.141	399.2
867.523	378.3
867.906	375.19
868.288	382.82
868.671	374.06
869.053	370.95
869.435	381.97
869.817	392.42
870.199	404.28
870.581	380.84
870.963	379.43
871.345	346.94
871.727	391.86
872.109	377.45
872.491	379.99
872.872	386.77
873.254	393.83
873.635	383.1
874.017	372.08
874.398	368.98
874.779	376.6
875.161	379.71
875.542	372.93
875.923	367
876.304	370.95
876.685	403.15
877.066	389.31
877.447	363.33
877.828	391.57
878.208	358.8
878.589	390.16
878.97	382.82
879.35	378.3
879.731	368.41
880.111	380.84
880.491	362.76
880.872	392.14
881.252	399.76
881.632	396.94
882.012	366.15
882.392	367.56
882.772	398.07
883.152	394.96
883.532	370.11
883.912	371.52
884.291	392.99
884.671	392.14
885.051	380.28
885.43	397.22
885.81	370.11
886.189	362.76
886.568	367
886.948	390.44
887.327	384.23
887.706	377.45
888.085	375.76
888.464	377.45
888.843	387.62
889.222	351.18
889.601	376.89
889.979	373.5
890.358	368.69
890.737	376.04
891.115	360.22
891.494	389.6
891.872	380.84
892.25	366.43
892.629	392.14
893.007	364.74
893.385	388.75
893.763	372.93
894.141	374.91
894.519	377.17
894.897	367.28
895.275	388.47
895.653	369.26
896.03	377.45
896.408	382.82
896.786	403.15
897.163	368.69
897.541	390.44
897.918	393.55
898.295	350.04
898.673	356.83
899.05	376.89
899.427	370.11
899.804	386.77
900.181	358.8
900.558	383.95
900.935	362.76
901.312	356.54
901.688	394.4
902.065	378.86
902.442	363.04
902.818	375.19
903.195	354
903.571	360.22
903.947	346.09
904.324	364.74
904.7	374.91
905.076	385.64
905.452	377.45
905.828	388.75
906.204	396.94
906.58	384.51
906.956	356.54
907.331	362.2
907.707	376.89
908.083	378.86
908.458	371.52
908.834	367.85
909.209	371.8
909.585	363.04
909.96	358.24
910.335	389.88
910.71	383.1
911.086	362.48
911.461	364.17
911.836	358.52
912.21	363.33
912.585	375.47
912.96	374.34
913.335	346.09
913.709	399.48
914.084	369.54
914.459	362.48
914.833	389.31
915.207	359.09
915.582	368.41
915.956	367.85
916.33	373.5
916.704	378.58
917.078	371.52
917.452	358.8
917.826	368.69
918.2	359.09
918.574	408.23
918.948	396.66
919.321	377.45
919.695	380.84
920.068	383.1
920.442	370.11
920.815	381.12
921.189	408.8
921.562	369.54
921.935	359.37
922.308	383.66
922.681	384.51
923.054	388.47
923.427	380.84
923.8	381.97
924.173	358.52
924.546	374.06
924.919	370.39
925.291	371.24
925.664	398.07
926.036	408.52
926.409	365.87
926.781	343.55
927.153	372.37
927.526	355.41
927.898	367.85
928.27	370.39
928.642	362.48
929.014	386.49
929.386	379.15
929.758	361.35
930.129	372.37
930.501	368.98
930.873	385.36
931.244	376.89
931.616	380.56
931.987	384.79
932.359	351.74
932.73	374.91
933.101	367.85
933.472	349.76
933.843	366.72
934.214	392.14
934.585	368.41
934.956	371.24
935.327	391.86
935.698	383.1
936.069	369.26
936.439	375.19
936.81	383.66
937.18	379.99
937.551	362.76
937.921	380.56
938.292	380.56
938.662	366.43
939.032	389.31
939.402	359.65
939.772	392.7
940.142	394.68
940.512	366.15
940.882	389.6
941.252	376.6
941.621	392.14
941.991	367.85
942.361	364.74
942.73	374.34
943.1	389.6
943.469	338.46
943.838	370.95
944.208	377.45
944.577	366.15
944.946	365.87
945.315	383.38
945.684	374.91
946.053	379.15
946.422	378.86
946.791	357.67
947.159	383.1
947.528	376.04
947.897	362.2
948.265	389.31
948.634	370.11
949.002	359.37
949.371	379.99
949.739	377.73
950.107	371.8
950.475	362.48
950.843	380.28
951.211	370.11
951.579	367.28
951.947	385.08
952.315	385.92
952.683	398.07
953.05	363.61
953.418	373.5
953.785	376.32
954.153	379.71
954.52	379.99
954.888	392.14
955.255	373.21
955.622	393.55
955.989	379.99
956.356	387.9
956.723	372.37
957.09	382.25
957.457	372.93
957.824	371.24
958.191	341
958.557	364.74
958.924	368.98
959.291	382.25
959.657	404.56
960.023	405.69
960.39	377.17
960.756	369.54
961.122	393.55
961.488	385.64
961.855	358.24
962.221	358.24
962.586	394.4
962.952	370.39
963.318	374.63
963.684	375.47
964.05	354.85
964.415	373.78
964.781	357.67
965.146	376.04
965.512	353.15
965.877	368.13
966.242	343.26
966.608	389.31
966.973	387.34
967.338	356.83
967.703	374.63
968.068	359.09
968.433	396.37
968.797	376.6
969.162	387.62
969.527	360.22
969.891	370.39
970.256	358.8
970.62	380.28
970.985	345.24
971.349	372.08
971.714	371.24
972.078	399.48
972.442	375.76
972.806	385.92
973.17	384.79
973.534	353.72
973.898	407.39
974.262	378.86
974.625	373.78
974.989	381.69
975.353	369.26
975.716	350.04
976.08	368.13
976.443	370.95
976.806	391.01
977.17	372.37
977.533	390.73
977.896	384.51
978.259	355.7
978.622	365.02
978.985	347.5
979.348	344.68
979.711	374.91
980.073	372.65
980.436	361.63
980.799	379.43
981.161	370.95
981.524	331.96
981.886	377.17
982.248	365.02
982.611	357.67
982.973	387.05
983.335	360.78
983.697	368.69
984.059	366.43
984.421	369.26
984.783	398.92
985.145	379.15
985.506	357.96
985.868	378.58
986.23	352.02
986.591	367.85
986.953	385.92
987.314	379.15
987.675	386.49
988.037	498.82
988.398	380.56
988.759	387.34
989.12	381.12
989.481	365.02
989.842	359.65
990.203	352.59
990.564	387.05
990.924	354.28
991.285	488.66
991.646	389.31
992.006	381.97
992.367	380.56
992.727	344.11
993.087	371.8
993.448	356.26
993.808	372.65
994.168	358.52
994.528	372.93
994.888	361.91
995.248	396.94
995.608	363.04
995.967	361.35
996.327	352.02
996.687	359.37
997.046	362.76
997.406	362.2
997.765	374.34
998.125	371.8
998.484	390.73
998.843	346.37
999.202	363.61
999.561	366.43
999.92	354.57
1000.279	375.76
1000.638	381.69
1000.997	373.78
1001.356	381.12
1001.715	366.15
1002.073	376.32
1002.432	365.02
1002.79	369.82
1003.149	368.69
1003.507	363.89
1003.865	395.24
1004.224	386.49
1004.582	385.92
1004.94	381.97
1005.298	367
1005.656	357.11
1006.014	381.12
1006.371	374.06
1006.729	353.72
1007.087	404.56
1007.445	370.95
1007.802	380.84
1008.16	350.33
1008.517	383.95
1008.874	385.64
1009.232	389.88
1009.589	373.5
1009.946	366.72
1010.303	392.7
1010.66	383.66
1011.017	354.85
1011.374	364.74
1011.731	370.95
1012.087	374.06
1012.444	363.04
1012.801	381.97
1013.157	397.79
1013.513	343.26
1013.87	379.15
1014.226	368.41
1014.582	373.21
1014.939	354.28
1015.295	349.2
1015.651	373.78
1016.007	361.35
1016.363	370.95
1016.719	354.85
1017.074	372.08
1017.43	381.41
1017.786	373.5
1018.141	354
1018.497	370.95
1018.852	359.65
1019.208	355.98
1019.563	363.89
1019.918	361.35
1020.273	362.48
1020.628	346.37
1020.983	379.99
1021.338	378.3
1021.693	371.52
1022.048	358.52
1022.403	368.13
1022.757	356.83
1023.112	361.91
1023.467	351.74
1023.821	383.1
1024.175	363.89
1024.53	359.37
1024.884	372.65
1025.238	357.67
1025.592	359.65
1025.946	354
1026.3	371.24
1026.654	398.92
1027.008	367.85
1027.362	383.66
1027.716	368.69
1028.069	365.59
1028.423	379.99
1028.777	350.61
1029.13	364.17
1029.483	370.67
1029.837	350.61
1030.19	359.09
1030.543	342.13
1030.896	361.35
1031.249	368.69
1031.602	382.54
1031.955	365.02
1032.308	354.85
1032.661	355.41
1033.013	343.26
1033.366	338.46
1033.719	372.08
1034.071	388.47
1034.424	393.27
1034.776	370.67
1035.128	370.39
1035.48	349.76
1035.833	342.13
1036.185	353.72
1036.537	353.72
1036.889	353.72
