Data from SCSF78-405_irradiation_FLMS019251_18-29-27-958.txt Node
Date: Fri Feb 22 18:29:27 PST 2019
User: mu3e
Spectrometer: FLMS01925
Trigger mode: 0
Integration Time (sec): 1.206000E-2
Scans to average: 10
Electric dark correction enabled: true
Nonlinearity correction enabled: true
Boxcar width: 0
XAxis mode: Wavelengths
Number of Pixels in Spectrum: 2048
>>>>>Begin Spectral Data<<<<<
187.103	-124.96
187.574	-124.96
188.045	-124.96
188.516	-120.98
188.987	-132.64
189.458	-113.87
189.929	-127.8
190.4	-138.61
190.871	-107.61
191.342	-69.24
191.813	-67.82
192.284	-58.16
192.754	-24.07
193.225	8.59
193.696	39.81
194.166	38.11
194.637	88.03
195.107	103.63
195.578	111.85
196.048	151.53
196.518	164.56
196.989	194.87
197.459	191.19
197.929	227.14
198.399	242.43
198.869	287.13
199.339	305.51
199.809	319.08
200.279	307.49
200.749	333.78
201.219	351.02
201.689	354.41
202.159	382.38
202.628	378.14
203.098	376.16
203.568	407.23
204.037	388.59
204.507	378.42
204.976	377.01
205.445	416.83
205.915	405.82
206.384	380.4
206.853	377.86
207.323	399.89
207.792	404.69
208.261	413.44
208.73	387.74
209.199	386.9
209.668	388.03
210.137	377.29
210.606	371.36
211.075	366.84
211.543	358.65
212.012	355.54
212.481	386.05
212.95	358.93
213.418	353.56
213.887	341.41
214.355	380.12
214.824	365.71
215.292	347.91
215.76	364.58
216.229	367.12
216.697	352.71
217.165	361.75
217.633	350.73
218.101	375.88
218.569	373.05
219.037	354.69
219.505	349.04
219.973	357.8
220.441	344.52
220.909	351.3
221.377	350.17
221.844	340.84
222.312	384.92
222.78	378.14
223.247	379.55
223.715	361.47
224.182	352.71
224.65	353.56
225.117	362.6
225.584	341.13
226.052	354.69
226.519	364.86
226.986	365.99
227.453	364.58
227.92	358.93
228.387	352.71
228.854	373.05
229.321	360.62
229.788	338.3
230.255	339.71
230.722	367.4
231.189	354.97
231.655	362.6
232.122	377.29
232.589	329.82
233.055	354.12
233.522	362.6
233.988	355.82
234.454	353.84
234.921	367.97
235.387	355.54
235.853	359.21
236.32	366.27
236.786	375.88
237.252	367.4
237.718	358.08
238.184	362.04
238.65	372.21
239.116	370.79
239.582	371.36
240.047	355.82
240.513	372.49
240.979	360.62
241.445	367.12
241.91	381.25
242.376	389.72
242.841	350.73
243.307	377.57
243.772	395.65
244.238	366.84
244.703	369.95
245.168	382.38
245.633	398.76
246.099	359.78
246.564	351.58
247.029	363.45
247.494	371.08
247.959	356.39
248.424	393.11
248.889	395.93
249.353	378.42
249.818	364.3
250.283	373.62
250.748	371.36
251.212	370.23
251.677	367.4
252.141	359.21
252.606	358.08
253.07	363.45
253.535	390.28
253.999	367.69
254.463	370.51
254.927	376.73
255.392	365.43
255.856	371.64
256.32	364.01
256.784	361.47
257.248	388.59
257.712	368.53
258.176	393.11
258.64	387.46
259.103	352.71
259.567	358.36
260.031	365.71
260.495	368.82
260.958	408.36
261.422	382.38
261.885	380.4
262.349	394.24
262.812	369.95
263.275	410.9
263.739	368.53
264.202	372.49
264.665	357.52
265.128	406.95
265.591	338.58
266.054	369.66
266.517	381.81
266.98	376.44
267.443	391.7
267.906	376.44
268.369	390.57
268.832	395.65
269.294	378.14
269.757	389.72
270.22	385.2
270.682	359.21
271.145	381.81
271.607	392.54
272.07	381.81
272.532	394.52
272.994	395.09
273.456	369.66
273.919	396.5
274.381	384.64
274.843	381.81
275.305	384.35
275.767	383.79
276.229	369.95
276.691	383.51
277.153	395.65
277.614	390.57
278.076	391.41
278.538	374.75
279	383.79
279.461	369.66
279.923	393.67
280.384	420.78
280.846	371.64
281.307	395.65
281.769	366.27
282.23	392.83
282.691	397.63
283.152	392.54
283.613	390.85
284.075	382.38
284.536	361.47
284.997	394.24
285.458	381.25
285.918	374.47
286.379	389.44
286.84	373.34
287.301	392.83
287.762	430.94
288.222	406.38
288.683	393.39
289.143	391.7
289.604	396.5
290.064	393.11
290.525	364.3
290.985	386.33
291.445	397.06
291.906	398.19
292.366	385.77
292.826	393.67
293.286	373.34
293.746	407.79
294.206	374.18
294.666	365.71
295.126	399.6
295.586	367.4
296.046	375.88
296.506	398.76
296.965	423.32
297.425	389.72
297.884	391.41
298.344	407.23
298.804	371.92
299.263	367.69
299.722	366.56
300.182	382.38
300.641	387.46
301.1	396.78
301.559	375.31
302.019	361.75
302.478	397.91
302.937	392.83
303.396	375.31
303.855	399.04
304.314	384.64
304.772	394.8
305.231	396.5
305.69	392.26
306.149	391.7
306.607	414.57
307.066	392.26
307.524	403.84
307.983	391.13
308.441	383.51
308.9	395.93
309.358	363.45
309.816	410.33
310.275	402.71
310.733	379.27
311.191	417.96
311.649	398.19
312.107	396.5
312.565	403.56
313.023	401.86
313.481	378.14
313.939	389.44
314.397	411.75
314.854	372.77
315.312	380.12
315.77	413.44
316.227	394.8
316.685	398.47
317.142	399.6
317.6	404.97
318.057	388.59
318.514	412.88
318.972	407.51
319.429	387.18
319.886	380.12
320.343	384.35
320.8	412.03
321.257	388.59
321.714	387.18
322.171	396.5
322.628	403.84
323.085	405.53
323.542	394.8
323.998	388.31
324.455	408.92
324.912	391.98
325.368	431.51
325.825	393.39
326.281	398.47
326.738	429.81
327.194	417.39
327.65	383.79
328.107	390.85
328.563	380.12
329.019	423.6
329.475	426.99
329.931	401.86
330.387	419.37
330.843	410.9
331.299	414.85
331.755	408.08
332.211	404.97
332.666	402.43
333.122	426.99
333.578	431.23
334.033	417.96
334.489	409.77
334.944	384.92
335.4	430.94
335.855	396.5
336.31	420.78
336.766	416.55
337.221	388.03
337.676	411.46
338.131	397.91
338.586	409.21
339.041	428.12
339.496	397.91
339.951	391.41
340.406	409.49
340.861	393.67
341.316	392.26
341.771	421.63
342.225	408.92
342.68	414.29
343.134	383.51
343.589	384.64
344.043	423.6
344.498	405.53
344.952	384.92
345.406	429.53
345.861	430.38
346.315	391.98
346.769	426.43
347.223	388.87
347.677	410.62
348.131	423.32
348.585	382.38
349.039	419.09
349.493	402.43
349.947	399.89
350.401	399.6
350.854	418.52
351.308	409.49
351.762	424.73
352.215	434.61
352.669	399.6
353.122	407.79
353.575	393.96
354.029	423.6
354.482	395.09
354.935	398.19
355.388	411.75
355.842	421.06
356.295	412.88
356.748	412.31
357.201	399.89
357.654	370.23
358.106	417.39
358.559	396.5
359.012	397.35
359.465	425.58
359.917	402.43
360.37	408.92
360.823	434.9
361.275	415.98
361.728	415.13
362.18	433.2
362.632	405.53
363.085	415.42
363.537	397.35
363.989	389.15
364.441	417.96
364.893	404.4
365.345	404.12
365.797	410.9
366.249	416.55
366.701	446.47
367.153	449.57
367.605	412.88
368.057	426.71
368.508	423.32
368.96	423.32
369.411	428.69
369.863	419.65
370.314	438.28
370.766	413.44
371.217	401.86
371.669	412.59
372.12	396.78
372.571	420.78
373.022	390.85
373.473	423.6
373.924	438
374.375	419.09
374.826	435.46
375.277	417.96
375.728	397.63
376.179	415.13
376.63	402.99
377.08	433.2
377.531	417.39
377.981	406.38
378.432	403.84
378.883	423.6
379.333	422.47
379.783	414.01
380.234	420.22
380.684	425.58
381.134	398.76
381.584	405.53
382.034	417.39
382.485	425.86
382.935	426.99
383.385	421.35
383.834	412.88
384.284	402.99
384.734	397.35
385.184	429.81
385.634	438.56
386.083	419.93
386.533	436.59
386.982	421.63
387.432	426.14
387.881	416.55
388.331	409.21
388.78	412.03
389.229	433.77
389.679	430.1
390.128	431.79
390.577	429.81
391.026	436.87
391.475	431.79
391.924	445.62
392.373	436.87
392.822	438.56
393.27	428.4
393.719	448.16
394.168	430.38
394.617	449.57
395.065	398.47
395.514	428.97
395.962	426.14
396.411	430.1
396.859	450.98
397.307	426.71
397.756	453.52
398.204	445.9
398.652	446.47
399.1	437.15
399.548	453.8
399.996	439.13
400.444	456.06
400.892	474.68
401.34	445.9
401.788	472.99
402.236	462.83
402.683	453.24
403.131	468.76
403.579	457.76
404.026	443.36
404.474	471.02
404.921	460.01
405.369	452.39
405.816	473.27
406.263	454.37
406.71	476.94
407.158	497.25
407.605	481.74
408.052	490.48
408.499	491.61
408.946	488.79
409.393	505.15
409.84	497.25
410.286	531.93
410.733	509.09
411.18	549.12
411.626	551.94
412.073	616.17
412.52	692.16
412.966	770.6
413.413	913.5
413.859	1043.25
414.305	1255.47
414.752	1545.32
415.198	1856.82
415.644	2298.92
416.09	2745.21
416.536	3314.73
416.982	3960.32
417.428	4609.44
417.874	5426.64
418.32	6269.47
418.766	7079.63
419.211	8117
419.657	9090.15
420.103	10267.92
420.548	11110.54
420.994	12415.83
421.439	13406.46
421.885	14576.21
422.33	15862.87
422.776	16997.66
423.221	17965.57
423.666	19242.97
424.111	20513.62
424.556	21453.31
425.001	22823.35
425.446	24194.67
425.891	25434.64
426.336	26299.3
426.781	27558.04
427.226	29662.84
427.671	30272.49
428.115	31016.97
428.56	32828.82
429.005	34335.46
429.449	34720.98
429.894	36155.09
430.338	37197.74
430.782	37242.3
431.227	38710.26
431.671	39268.69
432.115	40716.86
432.559	41743.56
433.003	41547.84
433.447	42477.91
433.891	42858.69
434.335	43239.82
434.779	44035.55
435.223	44301.21
435.667	44301.46
436.111	44709.29
436.554	44731.63
436.998	44255.61
437.442	44388.67
437.885	46424.16
438.328	44910.01
438.772	45136.87
439.215	45801.08
439.659	45183.44
440.102	45694.23
440.545	44970.6
440.988	44758
441.431	45807.9
441.874	45239.34
442.317	45437.89
442.76	44954
443.203	44356.34
443.646	45066.17
444.089	44702.26
444.531	45267.79
444.974	43963.25
445.417	45167.33
445.859	44217.29
446.302	45447.97
446.744	44640.25
447.186	45743.73
447.629	44673.89
448.071	44712.8
448.513	44835.12
448.956	46303.7
449.398	45316.16
449.84	44216.04
450.282	44837.63
450.724	45454.02
451.166	44960.54
451.607	44988.7
452.049	45087.8
452.491	46068.88
452.933	45630.36
453.374	46167.12
453.816	46831.7
454.257	46483.54
454.699	47347.46
455.14	47059.37
455.582	46709.87
456.023	46763.27
456.464	46849.76
456.905	47469.37
457.347	47463.49
457.788	46506.64
458.229	46642.26
458.67	47598.32
459.111	45828.87
459.552	46031.94
459.992	45588.72
460.433	45525.39
460.874	44601.1
461.315	45767.73
461.755	44832.86
462.196	44476.42
462.636	43740.74
463.077	43338.07
463.517	43309.14
463.957	43679.28
464.398	43203.18
464.838	43424.39
465.278	42559.44
465.718	42709.39
466.158	41542.14
466.598	41944.14
467.038	41531.99
467.478	41940.42
467.918	42085.54
468.358	41371.81
468.798	40891.77
469.237	40805.54
469.677	40788.49
470.117	41526.54
470.556	39283.7
470.996	39789.26
471.435	39927.71
471.874	40656.35
472.314	40315.51
472.753	39497.5
473.192	39620.58
473.631	39247.54
474.07	39377.67
474.509	39602.36
474.948	39726.95
475.387	39125.32
475.826	38087.55
476.265	39708.23
476.704	39380.37
477.143	39613.93
477.581	39183.6
478.02	39896.66
478.458	38731.87
478.897	39202.29
479.335	40443.56
479.774	39965.41
480.212	40198.61
480.65	40052.9
481.089	39801.08
481.527	39316.9
481.965	38734.08
482.403	40667.71
482.841	40560.56
483.279	40606.23
483.717	40559.57
484.155	39986.6
484.592	40469.97
485.03	40625.49
485.468	39590.3
485.905	39881.14
486.343	40342.9
486.781	39757.49
487.218	39007.07
487.655	39159.75
488.093	38164.09
488.53	39647.66
488.967	38907.78
489.405	38529.51
489.842	37724.92
490.279	37776.39
490.716	37478.17
491.153	37809.24
491.59	37230.06
492.027	36651
492.463	36336.73
492.9	35455.08
493.337	35437.74
493.773	35586.98
494.21	34746.37
494.647	34663.15
495.083	33761.01
495.519	33441.79
495.956	33430.82
496.392	32797.36
496.828	32684.97
497.265	31904.31
497.701	32014.76
498.137	31684.39
498.573	30884.79
499.009	31373.5
499.445	30424
499.881	30179.03
500.316	30453.03
500.752	29476.08
501.188	29287.08
501.624	29308.33
502.059	28003.32
502.495	27956.36
502.93	27754.05
503.366	28033.89
503.801	27348.5
504.236	27113.93
504.672	26739.84
505.107	26518.75
505.542	25827.51
505.977	25900.15
506.412	25371.76
506.847	25684.39
507.282	25157.5
507.717	24930.86
508.152	24787.49
508.587	24623.92
509.021	23902.05
509.456	23668.17
509.891	23729.55
510.325	23596.92
510.76	23271.86
511.194	23027.05
511.628	23181.3
512.063	22367.72
512.497	22446.82
512.931	22032.37
513.366	21873.26
513.8	21898.75
514.234	21189.64
514.668	21215.17
515.102	21442.16
515.536	20643.45
515.969	20749.67
516.403	20376.55
516.837	19899.18
517.271	20031.93
517.704	19641
518.138	19522.56
518.571	19347.31
519.005	18971.67
519.438	18905.88
519.871	18742.83
520.305	18307.96
520.738	18271.77
521.171	17812.88
521.604	17913.35
522.037	17736.89
522.47	17422.5
522.903	17037.23
523.336	17018.45
523.769	16908.97
524.202	16390.95
524.634	16494.56
525.067	16205.47
525.5	16133.91
525.932	15917.65
526.365	15561.68
526.797	15410.73
527.23	15527.21
527.662	14907.05
528.094	14790.09
528.527	14737.13
528.959	14406.1
529.391	14306.62
529.823	13816.56
530.255	13742.43
530.687	13527.53
531.119	13409.76
531.551	13185.97
531.982	13048.01
532.414	12849.31
532.846	12492.37
533.277	12374.37
533.709	11951.51
534.14	11968.32
534.572	11780.97
535.003	11678.18
535.435	11510.24
535.866	11262.95
536.297	11048.88
536.728	11127.17
537.159	10964.17
537.59	10684.43
538.022	10573.4
538.452	10435.1
538.883	10271.78
539.314	10154.33
539.745	9863.86
540.176	9760.07
540.606	9496.04
541.037	9507.91
541.468	9385.82
541.898	9295.42
542.328	9175.5
542.759	8963.35
543.189	8902.24
543.619	8828.41
544.05	8607.22
544.48	8411.95
544.91	8358.42
545.34	8233.34
545.77	8089.14
546.2	8001.61
546.63	7937.23
547.06	7903.07
547.489	7750.44
547.919	7481.27
548.349	7482.84
548.778	7447.26
549.208	7286.5
549.637	7208.15
550.067	7139.71
550.496	7138.92
550.926	6996.15
551.355	6828.51
551.784	6823.25
552.213	6680.9
552.642	6559.21
553.071	6536.28
553.5	6493.3
553.929	6317.55
554.358	6340
554.787	6157.13
555.216	6177.76
555.645	5989.34
556.073	5955.43
556.502	5877.24
556.93	5744.33
557.359	5725.48
557.787	5710.88
558.216	5607
558.644	5557.55
559.072	5548.78
559.5	5419.72
559.929	5466.83
560.357	5308.36
560.785	5269.16
561.213	5288.63
561.641	5162.45
562.068	5185.4
562.496	5050.54
562.924	5032.37
563.352	5024.35
563.779	5009.38
564.207	5030.5
564.634	4960.98
565.062	4903.99
565.489	4837.6
565.917	4797.69
566.344	4718.09
566.771	4686.18
567.198	4651.84
567.625	4644.86
568.053	4542.04
568.48	4513.56
568.907	4438.3
569.333	4478.89
569.76	4276.55
570.187	4319.1
570.614	4224.28
571.04	4299.17
571.467	4105.89
571.894	4052.44
572.32	3917.6
572.747	3843.48
573.173	3817.77
573.599	3788.26
574.026	3657.64
574.452	3652.49
574.878	3627.8
575.304	3546.65
575.73	3461.35
576.156	3368.08
576.582	3412.42
577.008	3322.36
577.434	3253.18
577.86	3177.96
578.285	3194.86
578.711	3117.4
579.137	3053.53
579.562	2981.41
579.988	2990.97
580.413	2907.31
580.838	2873.65
581.264	2857.23
581.689	2762.75
582.114	2782.75
582.539	2755.63
582.964	2731.51
583.39	2665.15
583.814	2585
584.239	2571.82
584.664	2558.36
585.089	2537.21
585.514	2471.79
585.939	2389.81
586.363	2400.54
586.788	2355.12
587.212	2347.13
587.637	2305.53
588.061	2283.49
588.485	2216.76
588.91	2217.31
589.334	2185.04
589.758	2148.6
590.182	2125.13
590.606	2087.84
591.03	2059.38
591.454	1997.45
591.878	2036.99
592.302	1998
592.726	1923.01
593.15	1963.14
593.573	1906.68
593.997	1882.58
594.42	1830.21
594.844	1821.34
595.267	1835.48
595.691	1826.05
596.114	1786.96
596.537	1772.82
596.96	1747.85
597.384	1735.92
597.807	1726.76
598.23	1697.61
598.653	1637.9
599.076	1691.78
599.499	1662.62
599.921	1621.5
600.344	1621.22
600.767	1604.27
601.189	1602.6
601.612	1594.26
602.034	1558.39
602.457	1553.38
602.879	1582.58
603.302	1540.31
603.724	1550.88
604.146	1534.75
604.568	1471.84
604.991	1514.99
605.413	1520.83
605.835	1503.58
606.257	1491.89
606.678	1482.98
607.1	1479.08
607.522	1469.34
607.944	1442.6
608.365	1399.97
608.787	1429.51
609.209	1380.74
609.63	1427.84
610.051	1373.21
610.473	1389.38
610.894	1391.33
611.315	1365.13
611.737	1322.73
612.158	1342.54
612.579	1267.47
613	1279.2
613.421	1276.13
613.842	1239.27
614.263	1209.94
614.683	1213.57
615.104	1184.51
615.525	1187.59
615.945	1171.66
616.366	1161.03
616.787	1155.16
617.207	1131.11
617.627	1115.17
618.048	1112.65
618.468	1121.32
618.888	1070.4
619.308	1105.1
619.728	1060.6
620.148	1046.61
620.568	1049.41
620.988	1053.88
621.408	1042.13
621.828	1037.37
622.248	994.79
622.668	1007.12
623.087	977.14
623.507	968.45
623.926	975.74
624.346	957.24
624.765	943.78
625.185	994.79
625.604	946.02
626.023	933.69
626.442	911.53
626.861	910.13
627.28	877.59
627.699	882.92
628.118	892.74
628.537	875.62
628.956	864.4
629.375	845.31
629.794	870.01
630.212	866.36
630.631	850.08
631.049	820.04
631.468	836.33
631.886	809.93
632.305	821.73
632.723	830.43
633.141	789.43
633.559	791.39
633.978	783.24
634.396	795.04
634.814	755.71
635.232	759.08
635.65	739.68
636.067	745.02
636.485	740.53
636.903	754.02
637.321	745.02
637.738	714.94
638.156	724.78
638.573	721.13
638.991	722.53
639.408	695.82
639.825	721.13
640.243	696.66
640.66	694.69
641.077	712.69
641.494	695.53
641.911	702
642.328	690.19
642.745	666.84
643.162	700.04
643.579	684.85
643.995	660.93
644.412	691.6
644.829	647.42
645.245	663.46
645.662	655.02
646.078	678.94
646.495	644.32
646.911	659.8
647.327	612.79
647.743	642.92
648.159	627.15
648.576	618.14
648.992	611.67
649.408	603.78
649.824	603.78
650.239	605.47
650.655	598.71
651.071	609.98
651.487	629.12
651.902	620.11
652.318	633.91
652.733	601.81
653.149	613.07
653.564	606.6
653.979	611.38
654.395	600.68
654.81	586.32
655.225	584.63
655.64	581.25
656.055	580.97
656.47	578.71
656.885	555.04
657.3	606.03
657.715	554.48
658.13	557.3
658.544	585.47
658.959	555.61
659.374	569.41
659.788	591.95
660.202	542.36
660.617	567.72
661.031	546.87
661.445	565.75
661.86	578.15
662.274	562.37
662.688	550.53
663.102	542.36
663.516	528.83
663.93	531.65
664.344	533.62
664.758	539.82
665.171	537.57
665.585	517.27
665.999	541.52
666.412	513.32
666.826	535.03
667.239	535.6
667.653	515.02
668.066	512.48
668.479	499.22
668.892	516.71
669.306	542.64
669.719	506.27
670.132	503.45
670.545	493.58
670.958	496.97
671.37	516.71
671.783	508.53
672.196	518.96
672.609	515.58
673.021	520.65
673.434	489.07
673.846	456.34
674.259	502.04
674.671	488.79
675.084	501.2
675.496	496.69
675.908	483.99
676.32	507.12
676.732	500.07
677.144	496.69
677.556	482.86
677.968	482.58
678.38	501.48
678.792	486.81
679.204	490.2
679.615	474.68
680.027	471.02
680.439	479.48
680.85	489.63
681.262	488.22
681.673	480.33
682.084	481.17
682.496	502.89
682.907	469.04
683.318	484.28
683.729	500.92
684.14	485.69
684.551	464.81
684.962	472.71
685.373	453.52
685.784	472.43
686.194	478.35
686.605	453.8
687.016	462.27
687.426	451.27
687.837	452.68
688.247	487.94
688.657	470.45
689.068	453.24
689.478	461.71
689.888	456.34
690.298	436.02
690.708	444.49
691.118	432.36
691.528	450.98
691.938	454.37
692.348	432.64
692.758	431.51
693.168	473.27
693.577	447.88
693.987	451.55
694.396	440.26
694.806	451.27
695.215	453.8
695.625	439.41
696.034	455.5
696.443	447.03
696.852	469.04
697.262	432.64
697.671	433.48
698.08	459.45
698.489	451.83
698.897	434.05
699.306	463.68
699.715	480.04
700.124	438.28
700.532	446.19
700.941	454.65
701.35	435.46
701.758	446.75
702.166	442.23
702.575	456.06
702.983	417.39
703.391	456.91
703.799	438.56
704.208	413.72
704.616	419.09
705.024	463.68
705.432	409.21
705.839	437.72
706.247	420.22
706.655	427.84
707.063	441.39
707.47	428.97
707.878	422.76
708.285	430.38
708.693	426.71
709.1	414.57
709.508	413.16
709.915	396.78
710.322	445.34
710.729	424.45
711.136	426.14
711.543	415.13
711.95	416.55
712.357	375.88
712.764	401.3
713.171	422.47
713.578	400.73
713.984	428.12
714.391	394.52
714.797	410.33
715.204	415.98
715.61	432.92
716.017	422.47
716.423	407.79
716.829	412.59
717.236	411.18
717.642	424.45
718.048	408.36
718.454	402.71
718.86	409.21
719.266	408.36
719.671	403.56
720.077	396.22
720.483	407.79
720.889	413.16
721.294	404.69
721.7	417.96
722.105	430.94
722.511	394.52
722.916	411.18
723.321	413.44
723.726	406.95
724.132	418.52
724.537	410.9
724.942	393.67
725.347	416.26
725.752	413.16
726.156	404.12
726.561	391.41
726.966	427.56
727.371	400.17
727.775	421.06
728.18	423.32
728.584	395.93
728.989	434.61
729.393	393.96
729.798	391.13
730.202	413.16
730.606	403.56
731.01	420.78
731.414	375.31
731.818	401.86
732.222	410.9
732.626	387.74
733.03	425.58
733.434	377.86
733.837	415.13
734.241	393.96
734.645	430.66
735.048	389.72
735.452	412.03
735.855	411.75
736.258	406.95
736.662	408.92
737.065	422.47
737.468	379.55
737.871	404.12
738.274	382.09
738.677	402.71
739.08	410.33
739.483	392.83
739.886	434.33
740.289	395.09
740.691	409.21
741.094	388.03
741.497	384.35
741.899	402.43
742.302	434.9
742.704	398.76
743.106	392.83
743.508	398.76
743.911	388.87
744.313	415.42
744.715	389.15
745.117	397.06
745.519	409.49
745.921	404.69
746.323	406.66
746.724	393.11
747.126	411.18
747.528	415.98
747.929	378.14
748.331	381.53
748.732	383.22
749.134	398.47
749.535	435.18
749.936	369.66
750.338	377.57
750.739	414.85
751.14	401.86
751.541	400.45
751.942	405.82
752.343	400.17
752.744	410.62
753.144	375.88
753.545	411.46
753.946	415.7
754.346	401.58
754.747	382.38
755.148	423.32
755.548	413.16
755.948	403.84
756.349	393.67
756.749	362.04
757.149	386.9
757.549	391.7
757.949	399.04
758.349	398.47
758.749	399.6
759.149	373.62
759.549	414.29
759.949	407.51
760.348	383.51
760.748	395.65
761.148	396.78
761.547	370.79
761.947	379.27
762.346	386.61
762.745	402.43
763.145	393.11
763.544	389.15
763.943	402.15
764.342	379.55
764.741	378.7
765.14	398.19
765.539	407.23
765.938	398.47
766.336	411.18
766.735	415.13
767.134	433.77
767.532	388.87
767.931	393.39
768.329	392.26
768.728	397.35
769.126	397.63
769.525	427.27
769.923	404.12
770.321	411.75
770.719	371.36
771.117	378.7
771.515	392.26
771.913	395.93
772.311	415.7
772.709	383.51
773.106	393.39
773.504	424.17
773.902	391.13
774.299	400.73
774.697	406.38
775.094	403.56
775.491	414.85
775.889	390.85
776.286	400.45
776.683	385.77
777.08	381.25
777.477	388.31
777.874	382.94
778.271	365.14
778.668	384.35
779.065	404.12
779.462	383.22
779.858	393.96
780.255	394.8
780.652	391.41
781.048	375.03
781.444	385.2
781.841	401.02
782.237	412.03
782.633	379.55
783.03	384.35
783.426	376.73
783.822	406.95
784.218	350.45
784.614	407.23
785.01	385.2
785.405	369.38
785.801	365.14
786.197	402.71
786.593	374.75
786.988	395.37
787.384	376.44
787.779	401.58
788.174	389.44
788.57	393.39
788.965	401.58
789.36	388.59
789.755	384.64
790.15	384.35
790.545	406.38
790.94	408.92
791.335	388.87
791.73	395.93
792.125	367.12
792.52	379.55
792.914	394.52
793.309	388.87
793.703	404.4
794.098	397.63
794.492	389.15
794.887	368.53
795.281	407.23
795.675	373.34
796.069	357.52
796.463	387.46
796.857	419.09
797.251	380.96
797.645	367.97
798.039	386.9
798.433	379.55
798.826	393.67
799.22	380.68
799.614	377.57
800.007	394.52
800.401	390.85
800.794	397.35
801.187	394.24
801.581	396.5
801.974	398.19
802.367	389.44
802.76	402.15
803.153	398.76
803.546	412.88
803.939	400.73
804.332	394.52
804.725	394.8
805.117	369.1
805.51	359.49
805.903	385.77
806.295	361.47
806.688	395.09
807.08	417.39
807.472	407.79
807.865	392.26
808.257	371.08
808.649	369.38
809.041	374.75
809.433	365.14
809.825	365.99
810.217	406.38
810.609	368.25
811.001	406.66
811.392	393.39
811.784	386.05
812.175	360.91
812.567	388.03
812.958	375.03
813.35	385.48
813.741	369.1
814.132	404.69
814.524	387.74
814.915	388.59
815.306	372.49
815.697	400.73
816.088	401.86
816.479	369.1
816.87	383.79
817.26	426.14
817.651	393.39
818.042	383.51
818.432	385.48
818.823	382.66
819.213	394.8
819.604	391.13
819.994	405.25
820.384	427.56
820.775	389.44
821.165	382.94
821.555	382.38
821.945	399.89
822.335	378.42
822.725	389.72
823.114	395.09
823.504	360.34
823.894	364.01
824.284	406.38
824.673	389.15
825.063	363.45
825.452	373.62
825.842	400.17
826.231	371.36
826.62	382.94
827.009	373.05
827.399	388.87
827.788	386.05
828.177	404.12
828.566	385.48
828.954	395.65
829.343	401.86
829.732	400.45
830.121	399.6
830.509	376.16
830.898	387.74
831.286	374.75
831.675	408.92
832.063	398.47
832.452	371.08
832.84	357.8
833.228	405.82
833.616	371.36
834.004	370.79
834.392	378.42
834.78	388.31
835.168	402.15
835.556	377.57
835.944	369.66
836.331	392.54
836.719	380.96
837.107	388.31
837.494	386.61
837.881	384.35
838.269	397.63
838.656	378.7
839.043	368.25
839.431	388.59
839.818	399.6
840.205	404.69
840.592	401.86
840.979	365.43
841.366	370.51
841.752	374.18
842.139	388.03
842.526	369.1
842.912	403.84
843.299	388.31
843.685	381.81
844.072	363.73
844.458	389.44
844.844	382.09
845.231	392.83
845.617	377.01
846.003	390.85
846.389	364.58
846.775	393.67
847.161	375.31
847.547	382.94
847.933	386.61
848.318	387.74
848.704	403.28
849.09	391.98
849.475	395.93
849.861	359.21
850.246	396.78
850.631	369.66
851.017	385.77
851.402	376.16
851.787	391.41
852.172	384.07
852.557	368.53
852.942	400.17
853.327	377.86
853.712	366.56
854.097	396.22
854.481	376.73
854.866	387.18
855.25	376.16
855.635	381.81
856.019	410.05
856.404	370.51
856.788	382.66
857.172	382.66
857.557	355.25
857.941	396.5
858.325	382.66
858.709	376.73
859.093	388.03
859.477	392.26
859.86	381.25
860.244	362.6
860.628	374.18
861.012	390.85
861.395	372.21
861.779	391.13
862.162	377.86
862.545	377.57
862.929	390
863.312	393.11
863.695	364.3
864.078	392.83
864.461	386.33
864.844	383.22
865.227	391.98
865.61	389.15
865.993	374.18
866.376	382.94
866.758	386.05
867.141	394.52
867.523	375.88
867.906	377.01
868.288	375.31
868.671	358.93
869.053	392.83
869.435	365.71
869.817	366.27
870.199	364.58
870.581	397.35
870.963	391.41
871.345	394.52
871.727	405.25
872.109	388.59
872.491	385.48
872.872	405.25
873.254	341.69
873.635	385.2
874.017	389.44
874.398	394.52
874.779	378.14
875.161	375.6
875.542	371.92
875.923	414.01
876.304	386.05
876.685	393.96
877.066	412.59
877.447	365.14
877.828	370.79
878.208	394.52
878.589	380.96
878.97	376.44
879.35	390.85
879.731	381.53
880.111	370.79
880.491	396.22
880.872	396.22
881.252	408.08
881.632	402.43
882.012	375.6
882.392	344.23
882.772	394.8
883.152	382.38
883.532	367.69
883.912	354.97
884.291	381.25
884.671	384.64
885.051	390
885.43	375.6
885.81	395.65
886.189	379.27
886.568	398.47
886.948	393.96
887.327	367.4
887.706	389.15
888.085	384.35
888.464	367.4
888.843	376.16
889.222	379.83
889.601	393.39
889.979	407.51
890.358	405.53
890.737	358.93
891.115	377.29
891.494	386.61
891.872	382.38
892.25	376.73
892.629	370.23
893.007	365.71
893.385	371.92
893.763	383.22
894.141	382.38
894.519	377.01
894.897	384.64
895.275	380.96
895.653	364.01
896.03	390.28
896.408	383.79
896.786	353.28
897.163	370.23
897.541	381.53
897.918	388.31
898.295	380.68
898.673	365.99
899.05	378.7
899.427	377.29
899.804	357.52
900.181	377.29
900.558	384.35
900.935	391.7
901.312	383.51
901.688	369.38
902.065	379.27
902.442	376.16
902.818	390
903.195	377.86
903.571	359.78
903.947	367.4
904.324	348.76
904.7	375.31
905.076	401.3
905.452	370.51
905.828	373.05
906.204	358.93
906.58	372.77
906.956	412.88
907.331	350.45
907.707	364.58
908.083	379.83
908.458	372.77
908.834	369.95
909.209	404.97
909.585	378.14
909.96	373.9
910.335	392.26
910.71	390.57
911.086	404.97
911.461	380.68
911.836	374.18
912.21	373.05
912.585	384.07
912.96	357.52
913.335	392.26
913.709	393.67
914.084	384.35
914.459	393.39
914.833	379.83
915.207	378.42
915.582	379.27
915.956	364.3
916.33	382.94
916.704	367.12
917.078	370.51
917.452	384.07
917.826	370.51
918.2	415.42
918.574	367.69
918.948	375.88
919.321	368.53
919.695	395.93
920.068	364.01
920.442	365.43
920.815	412.59
921.189	380.12
921.562	383.79
921.935	369.66
922.308	398.19
922.681	393.39
923.054	354.12
923.427	372.21
923.8	390.57
924.173	385.77
924.546	385.48
924.919	396.5
925.291	379.83
925.664	364.01
926.036	383.79
926.409	398.76
926.781	364.01
927.153	406.66
927.526	401.3
927.898	366.84
928.27	379.83
928.642	375.03
929.014	367.12
929.386	377.29
929.758	372.77
930.129	358.93
930.501	383.79
930.873	404.69
931.244	376.73
931.616	384.35
931.987	387.18
932.359	370.23
932.73	370.51
933.101	382.94
933.472	384.64
933.843	369.66
934.214	376.73
934.585	380.12
934.956	387.18
935.327	349.04
935.698	383.51
936.069	378.7
936.439	376.73
936.81	379.55
937.18	373.9
937.551	380.68
937.921	392.26
938.292	391.41
938.662	355.82
939.032	398.19
939.402	380.68
939.772	357.23
940.142	373.62
940.512	399.32
940.882	367.12
941.252	350.17
941.621	377.86
941.991	395.37
942.361	383.22
942.73	382.09
943.1	380.4
943.469	371.36
943.838	369.1
944.208	333.49
944.577	384.35
944.946	391.13
945.315	360.34
945.684	378.14
946.053	390.85
946.422	360.06
946.791	383.79
947.159	375.03
947.528	391.13
947.897	381.81
948.265	363.73
948.634	361.19
949.002	374.47
949.371	345.08
949.739	357.23
950.107	379.83
950.475	389.15
950.843	368.82
951.211	362.6
951.579	386.61
951.947	406.95
952.315	375.88
952.683	381.53
953.05	357.23
953.418	368.82
953.785	367.4
954.153	384.07
954.52	373.9
954.888	377.57
955.255	353.84
955.622	410.33
955.989	393.11
956.356	378.7
956.723	370.79
957.09	377.57
957.457	364.58
957.824	382.66
958.191	389.72
958.557	375.31
958.924	380.12
959.291	355.82
959.657	342.26
960.023	371.08
960.39	371.08
960.756	348.19
961.122	353.84
961.488	355.25
961.855	360.62
962.221	362.04
962.586	377.01
962.952	367.4
963.318	398.76
963.684	382.38
964.05	363.17
964.415	375.31
964.781	377.57
965.146	342.82
965.512	347.63
965.877	362.88
966.242	389.72
966.608	382.66
966.973	377.29
967.338	371.36
967.703	386.33
968.068	376.44
968.433	367.4
968.797	383.51
969.162	369.38
969.527	373.62
969.891	388.31
970.256	360.91
970.62	358.08
970.985	377.57
971.349	365.14
971.714	382.38
972.078	358.08
972.442	362.04
972.806	374.47
973.17	383.22
973.534	378.7
973.898	351.58
974.262	365.14
974.625	351.02
974.989	355.25
975.353	360.34
975.716	365.43
976.08	367.12
976.443	361.75
976.806	355.54
977.17	352.43
977.533	361.19
977.896	380.12
978.259	356.1
978.622	394.8
978.985	397.91
979.348	341.69
979.711	355.54
980.073	390.85
980.436	391.41
980.799	381.53
981.161	362.04
981.524	362.6
981.886	375.6
982.248	363.45
982.611	374.75
982.973	356.95
983.335	359.78
983.697	357.52
984.059	372.49
984.421	398.76
984.783	372.21
985.145	378.14
985.506	360.06
985.868	357.52
986.23	389.72
986.591	347.34
986.953	381.81
987.314	387.46
987.675	364.3
988.037	525.17
988.398	387.18
988.759	370.23
989.12	370.79
989.481	370.79
989.842	388.03
990.203	379.55
990.564	383.51
990.924	386.61
991.285	519.53
991.646	361.47
992.006	365.99
992.367	357.23
992.727	379.27
993.087	354.41
993.448	350.17
993.808	370.79
994.168	397.63
994.528	384.07
994.888	383.79
995.248	374.18
995.608	368.53
995.967	388.31
996.327	359.21
996.687	390.85
997.046	379.55
997.406	365.71
997.765	365.99
998.125	377.29
998.484	384.07
998.843	373.9
999.202	369.66
999.561	369.1
999.92	390.85
1000.279	368.82
1000.638	363.73
1000.997	366.56
1001.356	401.58
1001.715	379.27
1002.073	373.9
1002.432	382.66
1002.79	383.22
1003.149	343.39
1003.507	371.64
1003.865	378.14
1004.224	387.46
1004.582	335.47
1004.94	381.25
1005.298	364.3
1005.656	345.36
1006.014	378.7
1006.371	362.6
1006.729	353.84
1007.087	367.69
1007.445	364.3
1007.802	379.27
1008.16	395.93
1008.517	380.68
1008.874	380.96
1009.232	380.96
1009.589	381.81
1009.946	351.02
1010.303	366.56
1010.66	379.83
1011.017	365.14
1011.374	364.86
1011.731	364.58
1012.087	404.69
1012.444	354.97
1012.801	359.78
1013.157	382.66
1013.513	355.25
1013.87	356.95
1014.226	363.45
1014.582	374.75
1014.939	386.33
1015.295	374.18
1015.651	343.67
1016.007	390.57
1016.363	388.87
1016.719	382.09
1017.074	364.86
1017.43	353.84
1017.786	374.75
1018.141	354.12
1018.497	361.47
1018.852	374.18
1019.208	367.4
1019.563	359.49
1019.918	368.53
1020.273	368.25
1020.628	369.38
1020.983	363.45
1021.338	384.07
1021.693	340.84
1022.048	377.57
1022.403	360.91
1022.757	369.1
1023.112	369.66
1023.467	385.48
1023.821	363.17
1024.175	356.67
1024.53	387.74
1024.884	343.39
1025.238	356.1
1025.592	374.75
1025.946	375.31
1026.3	365.99
1026.654	399.04
1027.008	390.28
1027.362	399.89
1027.716	341.41
1028.069	371.08
1028.423	386.33
1028.777	368.53
1029.13	371.36
1029.483	375.6
1029.837	363.45
1030.19	371.36
1030.543	369.1
1030.896	373.62
1031.249	372.21
1031.602	381.25
1031.955	382.66
1032.308	390
1032.661	372.49
1033.013	369.1
1033.366	367.97
1033.719	383.51
1034.071	373.9
1034.424	377.57
1034.776	372.21
1035.128	367.97
1035.48	359.49
1035.833	401.86
1036.185	370.23
1036.537	370.23
1036.889	370.23
