Data from SCSF78-405_irradiation_FLMS019251_19-23-27-954.txt Node
Date: Fri Feb 22 19:23:27 PST 2019
User: mu3e
Spectrometer: FLMS01925
Trigger mode: 0
Integration Time (sec): 1.206000E-2
Scans to average: 10
Electric dark correction enabled: true
Nonlinearity correction enabled: true
Boxcar width: 0
XAxis mode: Wavelengths
Number of Pixels in Spectrum: 2048
>>>>>Begin Spectral Data<<<<<
187.103	-74.53
187.574	-74.53
188.045	-74.53
188.516	-136.51
188.987	-122.29
189.458	-143.91
189.929	-132.25
190.4	-95.57
190.871	-98.41
191.342	-66.57
191.813	-59.47
192.284	-51.8
192.754	2.73
193.225	2.73
193.696	22.32
194.166	42.75
194.637	64.88
195.107	87.29
195.578	127.26
196.048	140.3
196.518	156.74
196.989	182.23
197.459	211.96
197.929	260.36
198.399	264.04
198.869	302.79
199.339	304.76
199.809	332.19
200.279	333.03
200.749	379.66
201.219	362.14
201.689	372.03
202.159	383.89
202.628	361.58
203.098	384.74
203.568	384.46
204.037	378.81
204.507	388.41
204.976	426.82
205.445	392.37
205.915	374.57
206.384	413.55
206.853	392.37
207.323	424.84
207.792	403.1
208.261	414.11
208.73	385.59
209.199	390.67
209.668	416.65
210.137	392.37
210.606	388.98
211.075	365.25
211.543	362.71
212.012	394.91
212.481	386.15
212.95	393.78
213.418	388.41
213.887	364.97
214.355	392.37
214.824	363.55
215.292	371.18
215.76	346.32
216.229	356.77
216.697	380.5
217.165	375.14
217.633	369.49
218.101	387.28
218.569	370.9
219.037	365.25
219.505	342.93
219.973	373.16
220.441	378.53
220.909	371.75
221.377	369.49
221.844	362.99
222.312	371.47
222.78	379.66
223.247	378.53
223.715	336.43
224.182	339.25
224.65	357.34
225.117	358.19
225.584	337.27
226.052	362.42
226.519	365.53
226.986	356.21
227.453	366.1
227.92	365.81
228.387	388.7
228.854	369.77
229.321	372.03
229.788	400.84
230.255	364.97
230.722	351.69
231.189	358.75
231.655	358.47
232.122	348.3
232.589	364.68
233.055	364.4
233.522	349.43
233.988	358.75
234.454	361.86
234.921	354.51
235.387	378.81
235.853	355.08
236.32	355.36
236.786	407.33
237.252	368.64
237.718	381.07
238.184	377.68
238.65	361.86
239.116	359.03
239.582	366.1
240.047	378.81
240.513	377.12
240.979	394.34
241.445	364.12
241.91	374.86
242.376	367.23
242.841	372.6
243.307	384.46
243.772	379.66
244.238	366.95
244.703	369.77
245.168	354.8
245.633	390.67
246.099	359.88
246.564	383.33
247.029	362.42
247.494	403.38
247.959	412.7
248.424	372.6
248.889	370.05
249.353	392.65
249.818	375.99
250.283	355.93
250.748	354.23
251.212	385.31
251.677	396.04
252.141	380.22
252.606	368.92
253.07	401.12
253.535	383.05
253.999	381.92
254.463	371.18
254.927	363.27
255.392	380.22
255.856	374.57
256.32	356.21
256.784	377.68
257.248	392.09
257.712	372.31
258.176	380.79
258.64	374.01
259.103	389.26
259.567	394.06
260.031	414.11
260.495	389.83
260.958	354.8
261.422	379.37
261.885	418.06
262.349	388.13
262.812	387.57
263.275	372.31
263.739	378.53
264.202	387.57
264.665	390.39
265.128	404.51
265.591	363.27
266.054	391.52
266.517	390.67
266.98	403.66
267.443	368.36
267.906	379.94
268.369	385.59
268.832	387.57
269.294	380.22
269.757	402.53
270.22	375.14
270.682	372.88
271.145	382.2
271.607	396.32
272.07	395.47
272.532	396.04
272.994	389.54
273.456	392.09
273.919	407.33
274.381	370.62
274.843	415.24
275.305	370.05
275.767	410.16
276.229	417.5
276.691	416.09
277.153	413.83
277.614	383.05
278.076	380.22
278.538	409.59
279	402.82
279.461	407.62
279.923	374.01
280.384	376.83
280.846	394.34
281.307	384.74
281.769	411.57
282.23	407.33
282.691	391.24
283.152	398.3
283.613	384.74
284.075	384.74
284.536	390.11
284.997	408.46
285.458	405.08
285.918	384.74
286.379	392.09
286.84	373.73
287.301	391.8
287.762	425.97
288.222	405.92
288.683	407.62
289.143	400.56
289.604	404.79
290.064	427.1
290.525	387.57
290.985	382.76
291.445	396.04
291.906	405.36
292.366	388.7
292.826	373.16
293.286	370.34
293.746	389.26
294.206	388.98
294.666	398.02
295.126	414.68
295.586	415.81
296.046	398.02
296.506	401.12
296.965	383.89
297.425	409.88
297.884	419.76
298.344	377.96
298.804	415.24
299.263	410.72
299.722	391.52
300.182	416.65
300.641	404.51
301.1	402.82
301.559	386.44
302.019	386.15
302.478	390.11
302.937	404.79
303.396	403.95
303.855	384.18
304.314	384.74
304.772	402.25
305.231	418.63
305.69	404.23
306.149	398.3
306.607	384.18
307.066	418.35
307.524	423.15
307.983	396.04
308.441	399.71
308.9	416.65
309.358	399.99
309.816	425.97
310.275	385.59
310.733	398.86
311.191	430.49
311.649	405.92
312.107	403.1
312.565	399.71
313.023	413.83
313.481	402.53
313.939	391.8
314.397	402.53
314.854	391.52
315.312	417.5
315.77	412.13
316.227	402.25
316.685	413.55
317.142	437.82
317.6	418.06
318.057	411.85
318.514	419.19
318.972	422.86
319.429	409.03
319.886	417.22
320.343	419.76
320.8	425.4
321.257	400.56
321.714	436.13
322.171	390.67
322.628	399.71
323.085	397.17
323.542	415.81
323.998	420.89
324.455	412.42
324.912	414.39
325.368	411.57
325.825	388.13
326.281	406.21
326.738	431.05
327.194	421.73
327.65	382.48
328.107	405.08
328.563	414.68
329.019	410.44
329.475	399.99
329.931	408.75
330.387	391.8
330.843	437.26
331.299	425.12
331.755	410.72
332.211	428.51
332.666	394.06
333.122	425.97
333.578	416.09
334.033	398.58
334.489	417.5
334.944	410.44
335.4	410.44
335.855	429.36
336.31	430.2
336.766	399.71
337.221	408.75
337.676	409.03
338.131	401.12
338.586	402.53
339.041	421.73
339.496	420.89
339.951	399.15
340.406	432.74
340.861	411.29
341.316	409.03
341.771	420.04
342.225	420.04
342.68	407.33
343.134	424.84
343.589	405.64
344.043	426.53
344.498	415.24
344.952	427.1
345.406	433.31
345.861	424.84
346.315	402.25
346.769	416.37
347.223	400.84
347.677	414.39
348.131	400.28
348.585	407.9
349.039	413.83
349.493	415.81
349.947	427.1
350.401	429.64
350.854	410.72
351.308	394.63
351.762	426.82
352.215	440.93
352.669	423.71
353.122	412.7
353.575	381.63
354.029	427.1
354.482	419.19
354.935	412.42
355.388	399.43
355.842	442.9
356.295	397.17
356.748	410.16
357.201	429.07
357.654	412.13
358.106	405.36
358.559	406.49
359.012	414.11
359.465	426.82
359.917	445.16
360.37	420.89
360.823	432.18
361.275	426.25
361.728	425.4
362.18	409.88
362.632	417.78
363.085	396.04
363.537	418.63
363.989	409.59
364.441	425.69
364.893	421.17
365.345	416.93
365.797	405.64
366.249	415.81
366.701	414.68
367.153	425.69
367.605	417.78
368.057	425.69
368.508	407.9
368.96	417.78
369.411	437.82
369.863	417.78
370.314	414.68
370.766	402.53
371.217	438.67
371.669	396.04
372.12	438.67
372.571	424.84
373.022	429.92
373.473	429.64
373.924	458.43
374.375	432.46
374.826	425.69
375.277	439.52
375.728	433.59
376.179	414.96
376.63	422.02
377.08	460.12
377.531	445.44
377.981	447.14
378.432	443.19
378.883	406.77
379.333	386.72
379.783	422.86
380.234	442.06
380.684	426.25
381.134	414.68
381.584	406.77
382.034	432.74
382.485	422.3
382.935	434.44
383.385	429.92
383.834	444.32
384.284	423.43
384.734	422.02
385.184	415.52
385.634	441.78
386.083	427.1
386.533	442.34
386.982	438.95
387.432	414.11
387.881	432.46
388.331	433.87
388.78	430.77
389.229	446.86
389.679	433.31
390.128	421.73
390.577	444.03
391.026	425.69
391.475	422.86
391.924	425.12
392.373	419.48
392.822	441.21
393.27	445.16
393.719	439.52
394.168	444.32
394.617	431.61
395.065	409.59
395.514	420.6
395.962	463.79
396.411	471.97
396.859	452.5
397.307	438.95
397.756	490.02
398.204	453.63
398.652	484.95
399.1	471.97
399.548	453.06
399.996	467.74
400.444	472.25
400.892	462.38
401.34	442.34
401.788	444.88
402.236	468.3
402.683	467.45
403.131	456.73
403.579	468.02
404.026	466.33
404.474	472.82
404.921	485.23
405.369	468.3
405.816	477.89
406.263	468.58
406.71	483.25
407.158	489.74
407.605	463.79
408.052	476.2
408.499	496.23
408.946	483.53
409.393	497.64
409.84	504.69
410.286	505.82
410.733	552.05
411.18	555.71
411.626	582.48
412.073	619.09
412.52	673.7
412.966	769.58
413.413	914.16
413.859	1050.63
414.305	1279.02
414.752	1555.99
415.198	1875.76
415.644	2261.26
416.09	2759.02
416.536	3282.43
416.982	3894.45
417.428	4609.81
417.874	5400.11
418.32	6193.99
418.766	7050.86
419.211	8068.4
419.657	9018.58
420.103	10194.79
420.548	11033.37
420.994	12345.22
421.439	13429.86
421.885	14370.6
422.33	15804.66
422.776	16835.14
423.221	17847.96
423.666	19113.79
424.111	20349.08
424.556	21271.28
425.001	22577.15
425.446	24070.64
425.891	25263.01
426.336	26094.34
426.781	27219.81
427.226	29280.58
427.671	30019.78
428.115	30944.63
428.56	32479.29
429.005	34056.96
429.449	34459.49
429.894	35831.12
430.338	36854.16
430.782	37088.15
431.227	38489.83
431.671	38979.64
432.115	40470.8
432.559	41284.04
433.003	41156.15
433.447	42181.44
433.891	42450.67
434.335	42808.76
434.779	43550.52
435.223	43795.82
435.667	43737.34
436.111	44307.07
436.554	44391.27
436.998	43954.84
437.442	43915.32
437.885	46009.26
438.328	44507.12
438.772	44868.63
439.215	45207.96
439.659	44911.61
440.102	45315.75
440.545	44720.18
440.988	44336.38
441.431	45349.01
441.874	44800.29
442.317	44972.95
442.76	44526.18
443.203	44076.93
443.646	44713.9
444.089	44313.83
444.531	44803.56
444.974	43690.87
445.417	44665.95
445.859	43847.06
446.302	45052.18
446.744	44263.72
447.186	45249
447.629	44242.18
448.071	44388.26
448.513	44536.71
448.956	45814.56
449.398	45128.16
449.84	43816.56
450.282	44368.46
450.724	44961.89
451.166	44722.69
451.607	44405.81
452.049	44723.19
452.491	45664.53
452.933	45264.61
453.374	45847.92
453.816	46178.87
454.257	45836.04
454.699	46927.5
455.14	46586.98
455.582	46193.56
456.023	46324.33
456.464	46411.32
456.905	47116.32
457.347	46938.19
457.788	46094.29
458.229	46176.59
458.67	47187.48
459.111	45375.22
459.552	45377.74
459.992	45272.17
460.433	44973.71
460.874	44195.85
461.315	45297.36
461.755	44293.79
462.196	43926.57
462.636	43309.48
463.077	42768.2
463.517	42904.83
463.957	43218.48
464.398	42888.9
464.838	42953.88
465.278	41928.11
465.718	42113.43
466.158	41008.28
466.598	41432.55
467.038	41007.29
467.478	41535.06
467.918	41684.93
468.358	40885.68
468.798	40605.83
469.237	40593.24
469.677	40481.17
470.117	41261.78
470.556	38929.99
470.996	39471.76
471.435	39656.13
471.874	40281.81
472.314	39867.93
472.753	39060.26
473.192	39272.72
473.631	38948.67
474.07	39060.26
474.509	39133.04
474.948	39244.43
475.387	38596.64
475.826	37703.44
476.265	39455.02
476.704	38935.65
477.143	39305.68
477.581	39003.23
478.02	39610.58
478.458	38294.71
478.897	38844.23
479.335	39977.58
479.774	39387.6
480.212	39732.95
480.65	39634.21
481.089	39384.65
481.527	39016.51
481.965	38372.01
482.403	40443.66
482.841	40030.57
483.279	40085.04
483.717	39988.91
484.155	39597.78
484.592	40062.61
485.03	40208.07
485.468	39174.1
485.905	39352.67
486.343	39859.31
486.781	39353.65
487.218	38672.03
487.655	38626.6
488.093	37938.29
488.53	39279.61
488.967	38395.82
489.405	38149.95
489.842	37434.41
490.279	37499.33
490.716	37086.92
491.153	37414.57
491.59	36967.72
492.027	36263.48
492.463	35924.22
492.9	35130.66
493.337	35108.93
493.773	35190.72
494.21	34397.52
494.647	34061.35
495.083	33379.7
495.519	33244.86
495.956	33067.36
496.392	32497.58
496.828	32309.61
497.265	31578.91
497.701	31701.55
498.137	31455.04
498.573	30645.35
499.009	30930.97
499.445	30319.42
499.881	29800.12
500.316	30065.66
500.752	29141.62
501.188	28915.42
501.624	28827.71
502.059	27729.91
502.495	27618.33
502.93	27455.33
503.366	27724.29
503.801	27063.07
504.236	26862.94
504.672	26356.54
505.107	26143.4
505.542	25568.59
505.977	25597.56
506.412	25123.92
506.847	25443.58
507.282	24888.66
507.717	24542.82
508.152	24609
508.587	24454.47
509.021	23709.67
509.456	23409.85
509.891	23522.06
510.325	23381.98
510.76	23035.04
511.194	22696.98
511.628	22813.31
512.063	22094.55
512.497	22268.91
512.931	21723.35
513.366	21565.11
513.8	21661.45
514.234	21018.41
514.668	20993.12
515.102	21221.96
515.536	20364.47
515.969	20580.25
516.403	20139.39
516.837	19776.92
517.271	19816.71
517.704	19361.85
518.138	19398.69
518.571	19209.94
519.005	18835.92
519.438	18644.67
519.871	18518.44
520.305	18187.97
520.738	18137.02
521.171	17611.96
521.604	17750.98
522.037	17536.43
522.47	17280.7
522.903	17010.53
523.336	16838.65
523.769	16683.24
524.202	16195.77
524.634	16255.02
525.067	16051.89
525.5	15900.4
525.932	15852.16
526.365	15397.99
526.797	15267.86
527.23	15297.31
527.662	14808.08
528.094	14620.45
528.527	14603.04
528.959	14309.5
529.391	14042.71
529.823	13618.52
530.255	13708.87
530.687	13341.44
531.119	13165.53
531.551	13189.37
531.982	12830.36
532.414	12582.7
532.846	12378.79
533.277	12255.65
533.709	11896.56
534.14	11824.16
534.572	11712.71
535.003	11557.06
535.435	11317.48
535.866	11171
536.297	10954.02
536.728	10932.26
537.159	10796.01
537.59	10539.38
538.022	10473.69
538.452	10322.99
538.883	10055.69
539.314	10064.43
539.745	9809.62
540.176	9680.02
540.606	9380.49
541.037	9361.64
541.468	9281.05
541.898	9204.29
542.328	9092.06
542.759	8846.9
543.189	8804.15
543.619	8730.53
544.05	8528.41
544.48	8337.72
544.91	8334.6
545.34	8175.93
545.77	8030.11
546.2	7965.22
546.63	7840.83
547.06	7769.07
547.489	7629.87
547.919	7461.23
548.349	7426.43
548.778	7378.79
549.208	7204.05
549.637	7127.74
550.067	7063.46
550.496	7031.7
550.926	6900.11
551.355	6711.27
551.784	6817.3
552.213	6649.14
552.642	6557.99
553.071	6486.81
553.5	6415.06
553.929	6201.92
554.358	6263.76
554.787	6102.21
555.216	6059.87
555.645	5970.1
556.073	5905.18
556.502	5800.43
556.93	5633.68
557.359	5628.89
557.787	5639.52
558.216	5558.98
558.644	5513.77
559.072	5483.97
559.5	5361.75
559.929	5361.22
560.357	5307.92
560.785	5259.13
561.213	5252.73
561.641	5114.49
562.068	5101.67
562.496	5055.98
562.924	4974.99
563.352	5007.34
563.779	4974.18
564.207	4913.99
564.634	4854.84
565.062	4826.18
565.489	4773.14
565.917	4716.58
566.344	4732.93
566.771	4683.33
567.198	4618.66
567.625	4533.01
568.053	4509.9
568.48	4485.18
568.907	4458.3
569.333	4355
569.76	4210.09
570.187	4260.76
570.614	4192.3
571.04	4278.54
571.467	4028.51
571.894	3992.58
572.32	3857.11
572.747	3843.31
573.173	3795.4
573.599	3747.73
574.026	3643.64
574.452	3591.27
574.878	3548.11
575.304	3476.94
575.73	3430.74
576.156	3365.73
576.582	3377.7
577.008	3348.86
577.434	3260.91
577.86	3129.78
578.285	3131.69
578.711	3102.22
579.137	3032.87
579.562	2920.81
579.988	2930.11
580.413	2896.74
580.838	2873.48
581.264	2835.44
581.689	2802.3
582.114	2737.09
582.539	2685
582.964	2681.43
583.39	2604.32
583.814	2621.89
584.239	2538.68
584.664	2533.19
585.089	2480.14
585.514	2446.59
585.939	2420.73
586.363	2365.68
586.788	2352.47
587.212	2350.54
587.637	2294.06
588.061	2287.17
588.485	2202.52
588.91	2207.21
589.334	2189
589.758	2097.89
590.182	2119.71
590.606	2080.21
591.03	2034.61
591.454	2002.25
591.878	1973.21
592.302	1993.13
592.726	1947.47
593.15	1936.4
593.573	1898.75
593.997	1886.84
594.42	1818.95
594.844	1838.08
595.267	1826.99
595.691	1808.42
596.114	1786.23
596.537	1734.36
596.96	1730.19
597.384	1747.12
597.807	1723.25
598.23	1672.17
598.653	1664.67
599.076	1662.17
599.499	1663.28
599.921	1650.78
600.344	1607.15
600.767	1631.05
601.189	1610.49
601.612	1566.84
602.034	1571.29
602.457	1566.56
602.879	1561.55
603.302	1544.86
603.724	1537.91
604.146	1530.4
604.568	1519.55
604.991	1503.4
605.413	1503.13
605.835	1507.3
606.257	1498.95
606.678	1493.11
607.1	1457.74
607.522	1494.22
607.944	1435.18
608.365	1420.42
608.787	1415.96
609.209	1399.8
609.63	1417.07
610.051	1404.26
610.473	1395.06
610.894	1340.97
611.315	1362.72
611.737	1312.79
612.158	1284.05
612.579	1299.68
613	1266.74
613.421	1269.25
613.842	1246.08
614.263	1215.08
614.683	1240.77
615.104	1178.75
615.525	1201.11
615.945	1173.72
616.366	1159.74
616.787	1183.5
617.207	1163.65
617.627	1148
618.048	1116.39
618.468	1115.28
618.888	1120.59
619.308	1074.7
619.728	1067.15
620.148	1062.11
620.568	1028.51
620.988	1049.23
621.408	1028.23
621.828	1046.71
622.248	999.38
622.668	1006.1
623.087	1002.46
623.507	964.07
623.926	978.36
624.346	939.96
624.765	966.59
625.185	915
625.604	905.47
626.023	912.48
626.442	944.17
626.861	879.66
627.28	912.76
627.699	866.47
628.118	935.76
628.537	858.61
628.956	838.68
629.375	859.73
629.794	861.42
630.212	894.81
630.631	867.03
631.049	840.64
631.468	844.29
631.886	825.48
632.305	820.15
632.723	828.01
633.141	811.44
633.559	789.53
633.978	812.56
634.396	770.14
634.814	781.66
635.232	780.54
635.65	765.65
636.067	740.35
636.485	740.07
636.903	730.51
637.321	735.85
637.738	769.86
638.156	763.12
638.573	731.07
638.991	742.04
639.408	715.61
639.825	729.67
640.243	707.17
640.66	690.3
641.077	691.98
641.494	678.76
641.911	703.23
642.328	677.35
642.745	669.2
643.162	677.64
643.579	693.39
643.995	659.91
644.412	684.11
644.829	664.97
645.245	683.26
645.662	655.97
646.078	656.25
646.495	644.15
646.911	634.58
647.327	617.12
647.743	646.12
648.159	634.86
648.576	613.46
648.992	613.46
649.408	640.21
649.824	618.81
650.239	628.38
650.655	598.25
651.071	626.69
651.487	614.31
651.902	623.32
652.318	608.96
652.733	598.82
653.149	584.73
653.564	603.32
653.979	562.76
654.395	598.82
654.81	575.44
655.225	592.06
655.64	596.56
656.055	571.49
656.47	589.8
656.885	563.88
657.3	574.03
657.715	571.77
658.13	571.49
658.544	576.28
658.959	589.24
659.374	575.15
659.788	568.96
660.202	564.73
660.617	588.4
661.031	570.08
661.445	576.28
661.86	540.21
662.274	569.52
662.688	551.2
663.102	524.14
663.516	540.49
663.93	566.14
664.344	561.35
664.758	550.08
665.171	527.53
665.585	529.78
665.999	516.81
666.412	548.1
666.826	546.69
667.239	532.32
667.653	503.28
668.066	518.5
668.479	542.47
668.892	548.39
669.306	493.97
669.719	514.28
670.132	524.14
670.545	509.2
670.958	513.15
671.37	508.35
671.783	517.66
672.196	503.56
672.609	505.25
673.021	506.38
673.434	516.25
673.846	499.89
674.259	501.3
674.671	489.74
675.084	507.79
675.496	497.36
675.908	501.02
676.32	495.1
676.732	480.43
677.144	496.51
677.556	491.43
677.968	473.94
678.38	491.71
678.792	493.12
679.204	505.53
679.615	482.41
680.027	486.36
680.439	482.97
680.85	469.43
681.262	493.69
681.673	457.86
682.084	482.41
682.496	464.63
682.907	485.51
683.318	454.76
683.729	502.71
684.14	484.1
684.551	439.52
684.962	444.6
685.373	486.07
685.784	473.38
686.194	463.22
686.605	443.75
687.016	446.01
687.426	470.28
687.837	475.64
688.247	451.37
688.657	457.86
689.068	464.35
689.478	479.59
689.888	458.14
690.298	447.42
690.708	468.58
691.118	467.74
691.528	453.35
691.938	465.48
692.348	442.34
692.758	437.54
693.168	449.96
693.577	463.79
693.987	436.69
694.396	448.27
694.806	445.16
695.215	444.6
695.625	458.71
696.034	455.04
696.443	444.88
696.852	446.01
697.262	451.65
697.671	477.33
698.08	462.66
698.489	426.53
698.897	466.33
699.306	448.55
699.715	460.68
700.124	442.34
700.532	426.25
700.941	431.33
701.35	435
701.758	458.71
702.166	416.09
702.575	447.42
702.983	430.2
703.391	440.65
703.799	406.21
704.208	445.73
704.616	417.22
705.024	428.51
705.432	429.64
705.839	438.11
706.247	424.27
706.655	437.54
707.063	440.36
707.47	428.51
707.878	444.88
708.285	428.79
708.693	444.32
709.1	424.56
709.508	421.73
709.915	431.61
710.322	444.6
710.729	453.35
711.136	417.5
711.543	418.06
711.95	395.76
712.357	422.86
712.764	437.82
713.171	435.28
713.578	437.54
713.984	421.17
714.391	430.2
714.797	428.23
715.204	409.88
715.61	440.65
716.017	417.5
716.423	443.75
716.829	438.95
717.236	410.44
717.642	406.21
718.048	431.61
718.454	409.31
718.86	433.59
719.266	430.77
719.671	445.16
720.077	410.16
720.483	416.93
720.889	405.08
721.294	396.89
721.7	413.55
722.105	432.74
722.511	434.44
722.916	429.64
723.321	438.39
723.726	438.67
724.132	399.99
724.537	403.66
724.942	416.37
725.347	416.37
725.752	427.66
726.156	414.96
726.561	387.85
726.966	411.29
727.371	415.24
727.775	401.4
728.18	392.37
728.584	411.57
728.989	379.94
729.393	404.79
729.798	440.08
730.202	430.2
730.606	419.19
731.01	444.6
731.414	398.58
731.818	410.44
732.222	423.71
732.626	413.26
733.03	413.26
733.434	400.28
733.837	440.36
734.241	394.34
734.645	396.89
735.048	400.28
735.452	398.58
735.855	414.68
736.258	401.97
736.662	428.23
737.065	412.7
737.468	394.63
737.871	431.61
738.274	410.72
738.677	426.82
739.08	369.49
739.483	400.84
739.886	434.44
740.289	435.57
740.691	410.44
741.094	416.93
741.497	399.99
741.899	407.9
742.302	418.91
742.704	414.68
743.106	420.04
743.508	408.46
743.911	389.26
744.313	403.66
744.715	395.19
745.117	419.76
745.519	421.73
745.921	423.43
746.323	406.77
746.724	389.26
747.126	409.88
747.528	385.31
747.929	425.97
748.331	396.32
748.732	403.1
749.134	390.96
749.535	425.97
749.936	396.04
750.338	414.11
750.739	424.56
751.14	426.82
751.541	403.95
751.942	417.22
752.343	400.28
752.744	390.96
753.144	387
753.545	397.45
753.946	398.3
754.346	410.16
754.747	398.86
755.148	375.7
755.548	426.82
755.948	388.13
756.349	392.65
756.749	396.6
757.149	383.61
757.549	420.04
757.949	402.25
758.349	388.98
758.749	404.79
759.149	397.73
759.549	420.6
759.949	396.89
760.348	408.46
760.748	388.13
761.148	406.77
761.547	415.24
761.947	410.44
762.346	398.86
762.745	417.5
763.145	411.85
763.544	398.58
763.943	436.13
764.342	431.33
764.741	403.95
765.14	381.35
765.539	400.28
765.938	406.77
766.336	392.37
766.735	409.59
767.134	395.19
767.532	414.68
767.931	397.17
768.329	412.98
768.728	393.21
769.126	421.45
769.525	411.01
769.923	404.23
770.321	410.16
770.719	379.37
771.117	411.29
771.515	403.38
771.913	398.58
772.311	409.31
772.709	395.47
773.106	395.76
773.504	394.06
773.902	374.57
774.299	395.47
774.697	383.05
775.094	414.39
775.491	375.42
775.889	390.11
776.286	407.62
776.683	407.9
777.08	407.62
777.477	423.15
777.874	396.6
778.271	386.72
778.668	387.28
779.065	407.9
779.462	362.71
779.858	387.85
780.255	381.35
780.652	405.64
781.048	381.07
781.444	398.3
781.841	392.65
782.237	369.49
782.633	368.92
783.03	392.37
783.426	412.7
783.822	391.8
784.218	402.53
784.614	394.63
785.01	409.03
785.405	398.58
785.801	384.74
786.197	417.78
786.593	375.14
786.988	389.83
787.384	407.05
787.779	399.99
788.174	396.32
788.57	388.7
788.965	380.22
789.36	404.51
789.755	384.18
790.15	391.52
790.545	394.34
790.94	418.35
791.335	413.55
791.73	393.5
792.125	381.07
792.52	411.57
792.914	411.29
793.309	391.52
793.703	390.67
794.098	388.7
794.492	375.42
794.887	387.85
795.281	387.85
795.675	403.38
796.069	405.08
796.463	405.64
796.857	414.39
797.251	366.95
797.645	392.09
798.039	383.89
798.433	393.78
798.826	395.47
799.22	404.51
799.614	395.19
800.007	389.83
800.401	414.39
800.794	359.88
801.187	392.37
801.581	411.01
801.974	399.15
802.367	392.09
802.76	398.86
803.153	377.12
803.546	385.31
803.939	375.99
804.332	396.32
804.725	393.5
805.117	380.5
805.51	385.59
805.903	391.24
806.295	380.79
806.688	389.26
807.08	391.8
807.472	391.52
807.865	391.8
808.257	373.16
808.649	383.61
809.041	382.2
809.433	396.32
809.825	386.72
810.217	402.25
810.609	377.68
811.001	401.4
811.392	407.62
811.784	411.29
812.175	396.6
812.567	370.34
812.958	381.35
813.35	408.75
813.741	387.57
814.132	363.27
814.524	372.88
814.915	374.29
815.306	422.86
815.697	398.86
816.088	385.31
816.479	386.15
816.87	380.79
817.26	385.31
817.651	404.51
818.042	388.13
818.432	390.67
818.823	406.49
819.213	367.23
819.604	405.08
819.994	383.89
820.384	365.81
820.775	372.03
821.165	375.14
821.555	407.9
821.945	370.34
822.335	393.5
822.725	429.92
823.114	388.41
823.504	392.37
823.894	403.1
824.284	399.99
824.673	380.5
825.063	389.83
825.452	364.4
825.842	379.09
826.231	385.59
826.62	388.7
827.009	407.05
827.399	375.99
827.788	382.48
828.177	361.29
828.566	381.35
828.954	398.02
829.343	405.92
829.732	400.84
830.121	387.85
830.509	387.57
830.898	418.91
831.286	402.82
831.675	394.91
832.063	381.35
832.452	383.33
832.84	370.34
833.228	407.33
833.616	386.15
834.004	412.42
834.392	390.11
834.78	391.8
835.168	378.53
835.556	391.8
835.944	394.34
836.331	383.05
836.719	406.77
837.107	391.8
837.494	427.38
837.881	379.09
838.269	360.16
838.656	397.73
839.043	368.64
839.431	387
839.818	397.45
840.205	393.78
840.592	359.03
840.979	381.07
841.366	411.57
841.752	398.3
842.139	383.61
842.526	403.66
842.912	401.4
843.299	376.83
843.685	385.87
844.072	409.59
844.458	387.85
844.844	393.21
845.231	391.24
845.617	405.36
846.003	412.13
846.389	399.43
846.775	379.09
847.161	390.11
847.547	369.77
847.933	378.81
848.318	408.75
848.704	412.13
849.09	403.1
849.475	394.34
849.861	382.2
850.246	385.59
850.631	381.07
851.017	407.33
851.402	386.72
851.787	403.38
852.172	402.53
852.557	411.57
852.942	381.63
853.327	402.25
853.712	362.99
854.097	401.12
854.481	396.89
854.866	376.55
855.25	373.73
855.635	392.09
856.019	396.32
856.404	398.02
856.788	395.47
857.172	369.49
857.557	408.46
857.941	391.8
858.325	392.09
858.709	397.73
859.093	381.07
859.477	381.07
859.86	383.05
860.244	397.45
860.628	387.28
861.012	407.33
861.395	382.2
861.779	382.2
862.162	377.4
862.545	372.6
862.929	381.07
863.312	410.16
863.695	377.12
864.078	398.02
864.461	361.01
864.844	386.44
865.227	402.82
865.61	413.26
865.993	387.85
866.376	383.33
866.758	380.22
867.141	382.48
867.523	418.63
867.906	377.12
868.288	374.01
868.671	391.52
869.053	391.52
869.435	397.17
869.817	405.64
870.199	390.39
870.581	363.84
870.963	399.43
871.345	387.57
871.727	383.05
872.109	422.58
872.491	392.09
872.872	393.78
873.254	373.16
873.635	378.25
874.017	392.93
874.398	382.76
874.779	370.34
875.161	388.41
875.542	401.4
875.923	392.93
876.304	381.63
876.685	391.52
877.066	407.33
877.447	372.03
877.828	389.26
878.208	365.53
878.589	397.17
878.97	387.57
879.35	388.7
879.731	376.27
880.111	371.75
880.491	374.01
880.872	402.82
881.252	387.57
881.632	387.85
882.012	398.02
882.392	359.6
882.772	370.62
883.152	391.52
883.532	409.59
883.912	353.67
884.291	376.83
884.671	387.57
885.051	360.73
885.43	401.4
885.81	394.34
886.189	380.79
886.568	399.43
886.948	382.2
887.327	386.44
887.706	409.03
888.085	403.95
888.464	411.85
888.843	368.92
889.222	381.35
889.601	407.33
889.979	386.15
890.358	385.02
890.737	373.73
891.115	396.32
891.494	388.98
891.872	409.31
892.25	374.01
892.629	384.18
893.007	382.48
893.385	370.34
893.763	353.38
894.141	393.78
894.519	377.12
894.897	404.23
895.275	395.76
895.653	377.96
896.03	398.86
896.408	394.63
896.786	388.13
897.163	396.6
897.541	387
897.918	389.83
898.295	369.77
898.673	386.72
899.05	379.94
899.427	402.82
899.804	395.47
900.181	402.25
900.558	391.8
900.935	399.71
901.312	383.33
901.688	396.32
902.065	362.42
902.442	394.34
902.818	381.92
903.195	362.14
903.571	385.02
903.947	362.99
904.324	387.28
904.7	391.52
905.076	380.79
905.452	393.78
905.828	383.33
906.204	360.45
906.58	378.25
906.956	407.62
907.331	379.94
907.707	385.02
908.083	356.21
908.458	370.9
908.834	391.8
909.209	384.46
909.585	391.24
909.96	376.83
910.335	385.31
910.71	400.28
911.086	364.12
911.461	390.11
911.836	389.54
912.21	360.73
912.585	388.41
912.96	408.18
913.335	391.8
913.709	375.42
914.084	385.02
914.459	409.59
914.833	390.11
915.207	382.48
915.582	353.95
915.956	374.01
916.33	392.09
916.704	384.74
917.078	375.14
917.452	386.44
917.826	380.22
918.2	403.66
918.574	378.25
918.948	368.92
919.321	370.34
919.695	369.21
920.068	377.96
920.442	395.47
920.815	370.62
921.189	393.78
921.562	398.3
921.935	397.17
922.308	375.7
922.681	404.23
923.054	393.78
923.427	394.06
923.8	398.02
924.173	391.24
924.546	364.97
924.919	375.42
925.291	399.99
925.664	391.52
926.036	367.79
926.409	381.07
926.781	383.33
927.153	372.31
927.526	377.4
927.898	374.01
928.27	384.74
928.642	361.86
929.014	374.29
929.386	389.83
929.758	366.1
930.129	375.14
930.501	376.83
930.873	378.81
931.244	381.35
931.616	379.37
931.987	373.44
932.359	374.86
932.73	384.46
933.101	402.82
933.472	405.36
933.843	407.33
934.214	369.21
934.585	377.68
934.956	370.34
935.327	387
935.698	392.37
936.069	372.03
936.439	374.57
936.81	395.76
937.18	390.11
937.551	385.87
937.921	370.9
938.292	382.2
938.662	368.36
939.032	370.9
939.402	380.79
939.772	387.28
940.142	353.38
940.512	352.25
940.882	399.99
941.252	373.44
941.621	402.25
941.991	357.9
942.361	338.12
942.73	393.78
943.1	382.2
943.469	372.6
943.838	375.7
944.208	368.36
944.577	381.92
944.946	413.55
945.315	397.73
945.684	403.38
946.053	384.74
946.422	377.96
946.791	376.83
947.159	365.53
947.528	383.89
947.897	377.68
948.265	388.7
948.634	355.08
949.002	385.02
949.371	344.91
949.739	400.28
950.107	394.63
950.475	373.16
950.843	407.33
951.211	377.96
951.579	357.06
951.947	370.62
952.315	375.42
952.683	398.58
953.05	363.27
953.418	377.96
953.785	379.09
954.153	384.74
954.52	369.49
954.888	365.53
955.255	385.87
955.622	383.89
955.989	372.03
956.356	374.57
956.723	376.83
957.09	367.23
957.457	378.81
957.824	356.49
958.191	381.92
958.557	379.09
958.924	375.99
959.291	384.46
959.657	386.72
960.023	387.57
960.39	345.47
960.756	353.38
961.122	376.27
961.488	346.04
961.855	385.02
962.221	385.31
962.586	381.92
962.952	387.57
963.318	372.88
963.684	357.34
964.05	388.98
964.415	384.74
964.781	378.25
965.146	390.67
965.512	363.55
965.877	390.39
966.242	357.62
966.608	356.77
966.973	381.07
967.338	368.08
967.703	377.12
968.068	368.08
968.433	354.8
968.797	380.22
969.162	348.01
969.527	366.66
969.891	383.05
970.256	379.09
970.62	385.59
970.985	377.68
971.349	397.17
971.714	390.67
972.078	382.2
972.442	379.66
972.806	396.04
973.17	380.22
973.534	346.6
973.898	411.57
974.262	370.34
974.625	372.88
974.989	379.37
975.353	370.34
975.716	375.7
976.08	389.83
976.443	357.34
976.806	374.29
977.17	357.9
977.533	402.82
977.896	399.99
978.259	375.14
978.622	384.46
978.985	359.03
979.348	396.6
979.711	398.3
980.073	375.7
980.436	367.23
980.799	354.51
981.161	382.76
981.524	368.08
981.886	387.85
982.248	366.95
982.611	377.68
982.973	379.66
983.335	387
983.697	374.57
984.059	357.9
984.421	398.3
984.783	358.47
985.145	406.49
985.506	386.72
985.868	368.64
986.23	385.02
986.591	397.45
986.953	354.51
987.314	369.49
987.675	365.81
988.037	505.25
988.398	378.53
988.759	377.68
989.12	362.42
989.481	368.08
989.842	390.96
990.203	359.32
990.564	388.7
990.924	387.85
991.285	509.2
991.646	378.81
992.006	361.29
992.367	375.14
992.727	352.82
993.087	372.31
993.448	370.9
993.808	373.44
994.168	383.61
994.528	376.27
994.888	371.18
995.248	385.02
995.608	370.05
995.967	386.44
996.327	386.44
996.687	377.96
997.046	384.74
997.406	364.68
997.765	388.41
998.125	379.94
998.484	402.53
998.843	398.58
999.202	391.8
999.561	388.41
999.92	380.79
1000.279	402.53
1000.638	392.65
1000.997	385.59
1001.356	378.25
1001.715	372.03
1002.073	381.92
1002.432	386.15
1002.79	376.27
1003.149	372.03
1003.507	368.36
1003.865	351.97
1004.224	368.64
1004.582	384.74
1004.94	375.14
1005.298	365.81
1005.656	373.73
1006.014	362.42
1006.371	371.18
1006.729	406.77
1007.087	359.32
1007.445	388.7
1007.802	363.55
1008.16	361.01
1008.517	368.64
1008.874	366.38
1009.232	373.44
1009.589	392.37
1009.946	347.17
1010.303	387.57
1010.66	379.94
1011.017	382.2
1011.374	338.69
1011.731	397.17
1012.087	385.31
1012.444	402.25
1012.801	414.11
1013.157	390.39
1013.513	383.33
1013.87	368.64
1014.226	398.58
1014.582	360.16
1014.939	362.99
1015.295	379.66
1015.651	381.63
1016.007	363.27
1016.363	368.64
1016.719	357.62
1017.074	381.92
1017.43	384.18
1017.786	377.96
1018.141	357.06
1018.497	347.45
1018.852	377.96
1019.208	379.94
1019.563	396.32
1019.918	400.28
1020.273	390.11
1020.628	376.83
1020.983	359.32
1021.338	387.28
1021.693	390.11
1022.048	399.71
1022.403	392.65
1022.757	393.21
1023.112	385.02
1023.467	382.48
1023.821	355.08
1024.175	391.8
1024.53	373.16
1024.884	375.14
1025.238	410.44
1025.592	377.4
1025.946	351.97
1026.3	372.31
1026.654	382.48
1027.008	366.95
1027.362	373.73
1027.716	383.33
1028.069	382.48
1028.423	359.03
1028.777	378.25
1029.13	363.27
1029.483	375.42
1029.837	358.47
1030.19	407.62
1030.543	376.55
1030.896	369.49
1031.249	365.53
1031.602	368.64
1031.955	377.4
1032.308	356.21
1032.661	369.21
1033.013	367.79
1033.366	376.55
1033.719	382.48
1034.071	373.73
1034.424	382.48
1034.776	380.5
1035.128	394.63
1035.48	360.73
1035.833	387.28
1036.185	388.7
1036.537	388.7
1036.889	388.7
