Data from SCSF78-405_irradiation_FLMS019251_19-07-27-941.txt Node
Date: Fri Feb 22 19:07:27 PST 2019
User: mu3e
Spectrometer: FLMS01925
Trigger mode: 0
Integration Time (sec): 1.206000E-2
Scans to average: 10
Electric dark correction enabled: true
Nonlinearity correction enabled: true
Boxcar width: 0
XAxis mode: Wavelengths
Number of Pixels in Spectrum: 2048
>>>>>Begin Spectral Data<<<<<
187.103	-106.05
187.574	-106.05
188.045	-106.05
188.516	-130.51
188.987	-104.34
189.458	-144.44
189.929	-135.34
190.4	-96.38
190.871	-74.21
191.342	-69.66
191.813	-54.6
192.284	-71.94
192.754	-18.24
193.225	7.88
193.696	16.39
194.166	54.42
194.637	92.43
195.107	106.32
195.578	91.58
196.048	128.15
196.518	166.69
196.989	177.17
197.459	218.79
197.929	223.32
198.399	243.13
198.869	281.61
199.339	314.13
199.809	331.94
200.279	323.74
200.749	334.77
201.219	361.05
201.689	369.52
202.159	385.91
202.628	382.8
203.098	394.94
203.568	405.39
204.037	389.86
204.507	376.02
204.976	416.12
205.445	402.85
205.915	385.91
206.384	408.22
206.853	408.5
207.323	419.51
207.792	399.18
208.261	405.39
208.73	402.29
209.199	389.01
209.668	389.3
210.137	404.26
210.606	406.81
211.075	368.39
211.543	381.95
212.012	370.37
212.481	368.39
212.95	355.4
213.418	378.85
213.887	384.78
214.355	378.56
214.824	368.96
215.292	351.72
215.76	384.49
216.229	368.39
216.697	356.81
217.165	385.06
217.633	368.96
218.101	353.42
218.569	366.13
219.037	369.52
219.505	370.94
219.973	335.05
220.441	363.87
220.909	361.05
221.377	352.85
221.844	339.01
222.312	380.26
222.78	360.76
223.247	340.98
223.715	356.24
224.182	367.55
224.65	356.81
225.117	372.35
225.584	372.91
226.052	359.35
226.519	376.02
226.986	383.36
227.453	377.15
227.92	361.33
228.387	364.72
228.854	332.22
229.321	387.32
229.788	396.36
230.255	326.29
230.722	371.5
231.189	363.87
231.655	372.91
232.122	359.63
232.589	382.23
233.055	381.67
233.522	399.46
233.988	375.17
234.454	403.7
234.921	354.55
235.387	359.92
235.853	361.61
236.32	373.48
236.786	368.39
237.252	397.2
237.718	396.07
238.184	383.93
238.65	391.27
239.116	390.99
239.582	376.02
240.047	395.79
240.513	385.34
240.979	402.57
241.445	380.26
241.91	358.79
242.376	394.66
242.841	387.6
243.307	371.22
243.772	405.11
244.238	374.04
244.703	379.41
245.168	392.69
245.633	385.62
246.099	362.74
246.564	387.04
247.029	360.76
247.494	381.11
247.959	361.33
248.424	372.91
248.889	360.48
249.353	371.5
249.818	389.01
250.283	376.59
250.748	392.97
251.212	391.84
251.677	371.78
252.141	374.89
252.606	362.46
253.07	377.72
253.535	400.31
253.999	390.43
254.463	404.26
254.927	402.29
255.392	391.27
255.856	371.22
256.32	384.78
256.784	390.14
257.248	398.05
257.712	387.6
258.176	372.35
258.64	374.61
259.103	397.2
259.567	394.1
260.031	411.89
260.495	389.86
260.958	383.36
261.422	387.88
261.885	403.42
262.349	380.54
262.812	370.37
263.275	393.25
263.739	396.36
264.202	383.08
264.665	394.66
265.128	361.61
265.591	404.55
266.054	401.16
266.517	383.36
266.98	408.78
267.443	398.9
267.906	378.28
268.369	385.91
268.832	410.19
269.294	373.76
269.757	406.24
270.22	381.67
270.682	382.8
271.145	392.4
271.607	372.35
272.07	383.36
272.532	385.06
272.994	402.57
273.456	392.97
273.919	376.02
274.381	408.5
274.843	392.12
275.305	419.23
275.767	375.46
276.229	418.66
276.691	398.9
277.153	409.63
277.614	398.05
278.076	401.44
278.538	410.76
279	396.92
279.461	400.31
279.923	377.15
280.384	389.3
280.846	385.62
281.307	363.87
281.769	366.7
282.23	398.62
282.691	372.07
283.152	381.39
283.613	390.71
284.075	422.33
284.536	390.43
284.997	390.43
285.458	397.77
285.918	383.65
286.379	366.98
286.84	382.23
287.301	396.64
287.762	421.49
288.222	387.6
288.683	387.88
289.143	422.33
289.604	398.62
290.064	419.23
290.525	406.81
290.985	387.32
291.445	409.06
291.906	372.07
292.366	386.75
292.826	403.98
293.286	405.39
293.746	392.4
294.206	415.56
294.666	408.22
295.126	402.85
295.586	393.25
296.046	413.3
296.506	429.39
296.965	425.44
297.425	422.33
297.884	401.16
298.344	411.89
298.804	407.93
299.263	386.47
299.722	389.3
300.182	398.9
300.641	416.97
301.1	399.75
301.559	407.65
302.019	423.18
302.478	411.04
302.937	401.44
303.396	393.53
303.855	405.39
304.314	389.86
304.772	407.65
305.231	388.17
305.69	403.98
306.149	411.04
306.607	412.73
307.066	394.66
307.524	410.48
307.983	370.94
308.441	407.09
308.9	389.86
309.358	419.51
309.816	405.39
310.275	409.35
310.733	383.36
311.191	414.15
311.649	428.83
312.107	404.83
312.565	384.49
313.023	403.7
313.481	400.03
313.939	420.08
314.397	410.76
314.854	407.65
315.312	409.06
315.77	420.64
316.227	414.43
316.685	419.79
317.142	372.35
317.6	387.32
318.057	422.33
318.514	426.85
318.972	405.68
319.429	414.99
319.886	422.33
320.343	397.2
320.8	386.19
321.257	397.77
321.714	405.11
322.171	401.44
322.628	412.45
323.085	395.51
323.542	419.23
323.998	420.64
324.455	413.02
324.912	423.18
325.368	424.31
325.825	374.61
326.281	415.56
326.738	410.48
327.194	422.05
327.65	414.43
328.107	401.72
328.563	401.16
329.019	383.08
329.475	410.48
329.931	387.32
330.387	409.35
330.843	434.75
331.299	405.11
331.755	420.64
332.211	405.39
332.666	384.49
333.122	430.24
333.578	403.98
334.033	401.72
334.489	413.3
334.944	429.11
335.4	432.21
335.855	424.59
336.31	385.91
336.766	412.45
337.221	409.35
337.676	395.23
338.131	435.04
338.586	415.56
339.041	398.33
339.496	407.93
339.951	414.15
340.406	403.98
340.861	410.48
341.316	380.82
341.771	398.05
342.225	392.97
342.68	403.42
343.134	407.09
343.589	411.32
344.043	410.76
344.498	416.12
344.952	415.28
345.406	415.56
345.861	402.57
346.315	397.2
346.769	394.66
347.223	407.65
347.677	392.69
348.131	387.32
348.585	418.95
349.039	418.1
349.493	419.51
349.947	413.02
350.401	402.57
350.854	417.53
351.308	393.53
351.762	403.98
352.215	402.57
352.669	411.61
353.122	425.72
353.575	442.94
354.029	419.51
354.482	408.22
354.935	426.29
355.388	426
355.842	392.97
356.295	420.64
356.748	399.75
357.201	400.88
357.654	420.08
358.106	462.41
358.559	438.71
359.012	424.03
359.465	417.82
359.917	427.13
360.37	413.58
360.823	409.06
361.275	421.49
361.728	435.6
362.18	408.5
362.632	444.92
363.085	424.87
363.537	436.73
363.989	419.51
364.441	421.77
364.893	418.66
365.345	438.42
365.797	417.82
366.249	446.61
366.701	413.58
367.153	416.69
367.605	447.17
368.057	418.95
368.508	427.42
368.96	400.31
369.411	411.04
369.863	416.97
370.314	432.21
370.766	414.15
371.217	448.87
371.669	431.37
372.12	422.33
372.571	430.52
373.022	405.96
373.473	432.5
373.924	400.31
374.375	431.65
374.826	410.48
375.277	439.55
375.728	411.04
376.179	422.05
376.63	435.88
377.08	442.09
377.531	407.09
377.981	406.81
378.432	422.9
378.883	432.5
379.333	408.78
379.783	426.57
380.234	443.5
380.684	428.26
381.134	441.81
381.584	406.81
382.034	411.89
382.485	454.23
382.935	421.2
383.385	428.54
383.834	413.02
384.284	442.94
384.734	431.93
385.184	440.68
385.634	423.18
386.083	426
386.533	433.34
386.982	422.9
387.432	409.06
387.881	403.98
388.331	426.29
388.78	453.95
389.229	432.21
389.679	442.94
390.128	421.49
390.577	448.58
391.026	423.46
391.475	447.74
391.924	437.01
392.373	424.59
392.822	448.02
393.27	450.84
393.719	457.9
394.168	455.36
394.617	434.75
395.065	443.79
395.514	429.11
395.962	423.18
396.411	447.74
396.859	453.1
397.307	473.13
397.756	462.41
398.204	484.42
398.652	448.02
399.1	454.51
399.548	420.36
399.996	456.49
400.444	459.59
400.892	483.57
401.34	442.38
401.788	419.23
402.236	425.16
402.683	449.15
403.131	446.33
403.579	436.45
404.026	464.1
404.474	419.23
404.921	455.07
405.369	453.1
405.816	446.89
406.263	477.08
406.71	449.71
407.158	490.34
407.605	491.19
408.052	472.29
408.499	485.83
408.946	487.24
409.393	498.8
409.84	496.83
410.286	512.05
410.733	504.72
411.18	538.56
411.626	581.11
412.073	617.72
412.52	675.98
412.966	774.39
413.413	904.1
413.859	1061.86
414.305	1246.11
414.752	1561.59
415.198	1873.3
415.644	2256.61
416.09	2745.35
416.536	3254.68
416.982	3940.72
417.428	4646.34
417.874	5470.43
418.32	6279.65
418.766	7097.34
419.211	8135.88
419.657	9029.48
420.103	10191.22
420.548	11092.51
420.994	12342.2
421.439	13441.04
421.885	14386.79
422.33	15836.86
422.776	16886.04
423.221	17810.5
423.666	19073.71
424.111	20407.22
424.556	21316.66
425.001	22654.76
425.446	24138.65
425.891	25236.26
426.336	26149.32
426.781	27430.15
427.226	29325.3
427.671	30070.32
428.115	30867.1
428.56	32627.55
429.005	34076.99
429.449	34511
429.894	35876.6
430.338	36961.63
430.782	37053.66
431.227	38484.71
431.671	38956.57
432.115	40453.81
432.559	41438.52
433.003	41253.39
433.447	42108
433.891	42671.96
434.335	42931.26
434.779	43725.88
435.223	43904.6
435.667	43996.14
436.111	44520.44
436.554	44592.44
436.998	43990.14
437.442	44152.56
437.885	46042.18
438.328	44550.79
438.772	44804.85
439.215	45335.43
439.659	44976.76
440.102	45237.7
440.545	44629.58
440.988	44514.42
441.431	45390.87
441.874	44995.62
442.317	45137.5
442.76	44542.26
443.203	44157.57
443.646	44876.46
444.089	44470.78
444.531	45045.16
444.974	43862.34
445.417	45018.25
445.859	43897.6
446.302	45224.35
446.744	44337.67
447.186	45429.44
447.629	44523.7
448.071	44549.29
448.513	44503.38
448.956	45965.02
449.398	45226.87
449.84	43975.38
450.282	44533.48
450.724	45129.45
451.166	44812.38
451.607	44606.24
452.049	44815.4
452.491	45753.2
452.933	45499.03
453.374	45789.83
453.816	46565.16
454.257	46041.42
454.699	47075.81
455.14	46651.79
455.582	46523.27
456.023	46517.43
456.464	46696.78
456.905	46973.37
457.347	47120.68
457.788	46277.71
458.229	46404.75
458.67	47343.5
459.111	45449.61
459.552	45577.24
459.992	45476.84
460.433	45165.19
460.874	44266.76
461.315	45534.85
461.755	44533.48
462.196	43980.88
462.636	43229.23
463.077	42987.78
463.517	43084.43
463.957	43376.86
464.398	43063.5
464.838	43150.46
465.278	41938.8
465.718	42274.33
466.158	41259.58
466.598	41708
467.038	41126.99
467.478	41612.61
467.918	41670.59
468.358	41166.56
468.798	40721.92
469.237	40645.12
469.677	40612.52
470.117	41476.4
470.556	39061.03
470.996	39452.84
471.435	39686.69
471.874	40322.05
472.314	40030.84
472.753	39117.58
473.192	39334
473.631	38918.23
474.07	39186.18
474.509	39182.98
474.948	39375.08
475.387	38698.34
475.826	38079.58
476.265	39484.09
476.704	39093.24
477.143	39580.33
477.581	39045.3
478.02	39666
478.458	38442.98
478.897	39063.24
479.335	40107.5
479.774	39712.05
480.212	39833.97
480.65	39695.8
481.089	39386.65
481.527	38987.78
481.965	38560.82
482.403	40313.91
482.841	40152.62
483.279	40148.18
483.717	40211.8
484.155	39727.57
484.592	40231.28
485.03	40287.27
485.468	39502.8
485.905	39442.26
486.343	40050.07
486.781	39446.44
487.218	38739.36
487.655	38671.57
488.093	37906.2
488.53	39303
488.967	38487.41
489.405	38238.06
489.842	37618.19
490.279	37542.97
490.716	37174.85
491.153	37558.16
491.59	36930.06
492.027	36466.7
492.463	35931.83
492.9	35287.44
493.337	35213.7
493.773	35295.5
494.21	34462.2
494.647	34208.23
495.083	33557.75
495.519	33155.41
495.956	33231.24
496.392	32619.51
496.828	32386.92
497.265	31634.53
497.701	31652.57
498.137	31541.87
498.573	30791.98
499.009	31050.26
499.445	30488.77
499.881	29867.52
500.316	30076.18
500.752	29352.4
501.188	29078.87
501.624	29111.36
502.059	27809.22
502.495	27690.55
502.93	27655.31
503.366	27928.11
503.801	27264.89
504.236	26962.92
504.672	26588.5
505.107	26339.89
505.542	25627.8
505.977	25785.9
506.412	25211.19
506.847	25526.87
507.282	25006.21
507.717	24676.69
508.152	24624.78
508.587	24299.18
509.021	23764.17
509.456	23443.91
509.891	23496.2
510.325	23500.39
510.76	23111.09
511.194	22817.3
511.628	22881.5
512.063	22185.36
512.497	22324.08
512.931	21873.88
513.366	21788.98
513.8	21712.98
514.234	21053.16
514.668	21122.58
515.102	21257.68
515.536	20378.41
515.969	20608.83
516.403	20200.8
516.837	19779.94
517.271	19821.72
517.704	19547.07
518.138	19325.52
518.571	19269.75
519.005	19028.12
519.438	18729.74
519.871	18624.24
520.305	18231.69
520.738	18155.78
521.171	17720.76
521.604	17897.98
522.037	17505.19
522.47	17266.97
522.903	16935.9
523.336	16918.87
523.769	16783.3
524.202	16329.59
524.634	16337.63
525.067	16076.28
525.5	15961.74
525.932	15862.24
526.365	15519.54
526.797	15344.41
527.23	15309.42
527.662	14792.73
528.094	14640.41
528.527	14595.51
528.959	14321.14
529.391	14189.55
529.823	13688.66
530.255	13740.03
530.687	13380.5
531.119	13228.44
531.551	13222.61
531.982	12845.37
532.414	12717.13
532.846	12430.71
533.277	12253.9
533.709	11938.38
534.14	11947.05
534.572	11814.5
535.003	11600.48
535.435	11376.79
535.866	11260.77
536.297	10995.78
536.728	10983.75
537.159	10857.78
537.59	10588.15
538.022	10457.56
538.452	10306.58
538.883	10099.18
539.314	10093.27
539.745	9774.11
540.176	9705.31
540.606	9385.17
541.037	9452.29
541.468	9336.88
541.898	9132.44
542.328	9081.23
542.759	8931.63
543.189	8759.08
543.619	8740.67
544.05	8524.03
544.48	8440.4
544.91	8346.33
545.34	8266.24
545.77	8096.3
546.2	8040.3
546.63	7798.33
547.06	7821.82
547.489	7638.53
547.919	7431.43
548.349	7412.33
548.778	7432.74
549.208	7259.91
549.637	7149.8
550.067	7062.18
550.496	7088.94
550.926	6929.31
551.355	6758.41
551.784	6806.81
552.213	6630.74
552.642	6565.14
553.071	6545.9
553.5	6396.35
553.929	6233.67
554.358	6274.63
554.787	6165.46
555.216	6144.57
555.645	6001.39
556.073	5986.03
556.502	5865.97
556.93	5760.12
557.359	5700.65
557.787	5683.92
558.216	5609.53
558.644	5499.96
559.072	5458.72
559.5	5389.49
559.929	5370.84
560.357	5294.09
560.785	5261.03
561.213	5201.28
561.641	5135.88
562.068	5082.74
562.496	5057.89
562.924	4992.13
563.352	5021.27
563.779	4989.19
564.207	4944.26
564.634	4877.09
565.062	4866.92
565.489	4770.76
565.917	4763.26
566.344	4739.67
566.771	4708.57
567.198	4613.6
567.625	4602.59
568.053	4492.47
568.48	4474.19
568.907	4470.43
569.333	4342.92
569.76	4273.72
570.187	4292.58
570.614	4137.86
571.04	4328.93
571.467	4054.74
571.894	3990.72
572.32	3870.41
572.747	3832.52
573.173	3792.73
573.599	3747.76
574.026	3672.42
574.452	3632.28
574.878	3559.28
575.304	3520.45
575.73	3470.46
576.156	3377.19
576.582	3392.43
577.008	3279.47
577.434	3262.58
577.86	3126.82
578.285	3152.73
578.711	3078.51
579.137	3047.66
579.562	2921.94
579.988	2991.93
580.413	2923.58
580.838	2836.84
581.264	2856.82
581.689	2781.25
582.114	2748.09
582.539	2700.94
582.964	2696.28
583.39	2633.18
583.814	2599.42
584.239	2532.12
584.664	2535.15
585.089	2479.08
585.514	2470.83
585.939	2447.45
586.363	2359.11
586.788	2311.46
587.212	2310.91
587.637	2269.57
588.061	2245.31
588.485	2215.8
588.91	2224.35
589.334	2183.52
589.758	2193.73
590.182	2122.23
590.606	2103.73
591.03	2083.84
591.454	2009.2
591.878	2042.66
592.302	1995.93
592.726	1931.45
593.15	1946.68
593.573	1921.21
593.997	1903.77
594.42	1883.55
594.844	1825.64
595.267	1806.23
595.691	1773.79
596.114	1794.59
596.537	1744.38
596.96	1756.87
597.384	1717.18
597.807	1679.15
598.23	1674.98
598.653	1662.76
599.076	1693.31
599.499	1650.54
599.921	1613.58
600.344	1622.75
600.767	1610.24
601.189	1592.45
601.612	1587.73
602.034	1590.79
602.457	1539.61
602.879	1582.72
603.302	1546.01
603.724	1523.2
604.146	1538.5
604.568	1493.14
604.991	1485.9
605.413	1555.47
605.835	1489.52
606.257	1494.53
606.678	1497.87
607.1	1456.67
607.522	1482.84
607.944	1434.66
608.365	1448.87
608.787	1425.75
609.209	1392.03
609.63	1393.98
610.051	1431.6
610.473	1411.81
610.894	1348.25
611.315	1347.14
611.737	1361.08
612.158	1322.03
612.579	1295.53
613	1299.99
613.421	1281.57
613.842	1287.43
614.263	1193.04
614.683	1240.81
615.104	1262.03
615.525	1192.76
615.945	1197.23
616.366	1188.01
616.787	1162.29
617.207	1121.18
617.627	1138.8
618.048	1132.37
618.468	1100.48
618.888	1087.61
619.308	1078.66
619.728	1084.25
620.148	1076.14
620.568	1064.1
620.988	1041.43
621.408	1022.38
621.828	1023.22
622.248	992.41
622.668	993.53
623.087	998.57
623.507	1024.9
623.926	961.3
624.346	959.9
624.765	954.86
625.185	957.38
625.604	944.2
626.023	927.38
626.442	932.71
626.861	929.34
627.28	920.09
627.699	905.78
628.118	885.3
628.537	883.34
628.956	874.92
629.375	881.94
629.794	849.1
630.212	844.33
630.631	847.98
631.049	832.26
631.468	814
631.886	809.51
632.305	800.24
632.723	829.45
633.141	806.14
633.559	793.5
633.978	790.13
634.396	782.82
634.814	781.14
635.232	791.25
635.65	767.65
636.067	784.23
636.485	783.95
636.903	788.44
637.321	746.57
637.738	733.08
638.156	739.54
638.573	715.36
638.991	742.35
639.408	718.46
639.825	725.2
640.243	732.23
640.66	687.24
641.077	719.58
641.494	682.17
641.911	686.96
642.328	698.49
642.745	687.24
643.162	678.23
643.579	690.89
643.995	661.35
644.412	665.29
644.829	685.55
645.245	661.63
645.662	656.29
646.078	645.59
646.495	664.73
646.911	650.94
647.327	660.79
647.743	623.91
648.159	639.12
648.576	633.49
648.992	652.63
649.408	632.64
649.824	623.91
650.239	597.16
650.655	612.37
651.071	616.03
651.487	608.15
651.902	581.95
652.318	605.33
652.733	618.85
653.149	603.36
653.564	608.99
653.979	572.65
654.395	582.8
654.81	578.01
655.225	570.12
655.64	589.56
656.055	591.25
656.47	577.44
656.885	596.88
657.3	596.6
657.715	569.27
658.13	542.5
658.544	550.11
658.959	572.94
659.374	545.6
659.788	596.6
660.202	550.39
660.617	555.18
661.031	537.43
661.445	559.97
661.86	563.92
662.274	532.35
662.688	559.13
663.102	554.34
663.516	531.51
663.93	534.61
664.344	543.91
664.758	546.45
665.171	536.58
665.585	543.07
665.999	532.92
666.412	521.36
666.826	519.1
667.239	522.49
667.653	531.51
668.066	532.64
668.479	523.05
668.892	523.05
669.306	532.92
669.719	514.87
670.132	516.57
670.545	535.74
670.958	494.29
671.37	513.18
671.783	517.41
672.196	501.9
672.609	513.46
673.021	509.52
673.434	498.8
673.846	505.01
674.259	499.36
674.671	486.39
675.084	527.84
675.496	530.66
675.908	497.11
676.32	498.24
676.732	490.62
677.144	484.42
677.556	510.93
677.968	497.95
678.38	501.62
678.792	519.1
679.204	494.29
679.615	472
680.027	485.26
680.439	475.39
680.85	486.95
681.262	486.95
681.673	480.19
682.084	489.49
682.496	481.88
682.907	465.23
683.318	474.26
683.729	483.29
684.14	473.98
684.551	462.69
684.962	456.77
685.373	489.78
685.784	462.41
686.194	476.24
686.605	487.52
687.016	476.52
687.426	472.85
687.837	483.57
688.247	462.13
688.657	467.77
689.068	476.52
689.478	445.2
689.888	469.46
690.298	447.74
690.708	452.53
691.118	452.53
691.528	443.22
691.938	466.64
692.348	457.33
692.758	463.82
693.168	468.9
693.577	467.21
693.987	463.54
694.396	450.56
694.806	453.66
695.215	471.16
695.625	478.77
696.034	467.49
696.443	450
696.852	455.07
697.262	452.53
697.671	444.92
698.08	458.74
698.489	425.16
698.897	435.32
699.306	437.58
699.715	427.98
700.124	447.74
700.532	464.1
700.941	455.64
701.35	423.75
701.758	431.08
702.166	433.06
702.575	435.6
702.983	444.07
703.391	435.6
703.799	437.01
704.208	428.83
704.616	422.33
705.024	454.79
705.432	418.66
705.839	430.8
706.247	447.46
706.655	412.17
707.063	450.28
707.47	433.34
707.878	422.9
708.285	421.49
708.693	446.04
709.1	438.14
709.508	433.06
709.915	453.95
710.322	416.97
710.729	434.47
711.136	443.22
711.543	445.48
711.95	404.83
712.357	410.19
712.764	418.66
713.171	437.58
713.578	398.9
713.984	428.26
714.391	439.27
714.797	403.7
715.204	428.54
715.61	409.06
716.017	444.07
716.423	401.44
716.829	439.27
717.236	393.53
717.642	403.42
718.048	454.51
718.454	413.58
718.86	413.3
719.266	401.16
719.671	424.87
720.077	421.2
720.483	428.26
720.889	417.53
721.294	422.62
721.7	434.47
722.105	425.16
722.511	408.22
722.916	442.09
723.321	392.4
723.726	423.75
724.132	454.23
724.537	410.19
724.942	419.23
725.347	418.95
725.752	399.46
726.156	406.81
726.561	393.81
726.966	418.38
727.371	413.02
727.775	417.53
728.18	401.16
728.584	405.39
728.989	405.96
729.393	398.05
729.798	407.65
730.202	433.91
730.606	424.03
731.01	432.78
731.414	424.31
731.818	428.83
732.222	427.42
732.626	423.75
733.03	407.37
733.434	416.97
733.837	392.97
734.241	394.94
734.645	410.48
735.048	404.83
735.452	404.55
735.855	403.42
736.258	409.35
736.662	432.5
737.065	423.18
737.468	426
737.871	435.6
738.274	426.57
738.677	402.57
739.08	437.29
739.483	416.69
739.886	411.89
740.289	409.35
740.691	398.33
741.094	419.79
741.497	403.13
741.899	381.67
742.302	401.72
742.704	401.72
743.106	420.08
743.508	382.52
743.911	433.06
744.313	401.44
744.715	415.28
745.117	401.44
745.519	392.12
745.921	404.26
746.323	433.34
746.724	393.25
747.126	391.84
747.528	420.92
747.929	414.43
748.331	401.72
748.732	409.06
749.134	404.55
749.535	420.92
749.936	426.85
750.338	405.39
750.739	422.05
751.14	403.7
751.541	403.98
751.942	411.61
752.343	380.54
752.744	383.65
753.144	405.96
753.545	392.4
753.946	416.12
754.346	406.24
754.747	410.19
755.148	442.94
755.548	401.44
755.948	408.22
756.349	413.86
756.749	393.25
757.149	398.33
757.549	396.92
757.949	397.2
758.349	416.12
758.749	397.77
759.149	388.73
759.549	395.79
759.949	401.44
760.348	389.86
760.748	416.97
761.148	410.48
761.547	389.01
761.947	403.7
762.346	405.39
762.745	431.08
763.145	415.84
763.544	418.66
763.943	424.31
764.342	389.3
764.741	405.68
765.14	414.71
765.539	409.06
765.938	390.99
766.336	399.18
766.735	387.88
767.134	394.38
767.532	406.24
767.931	413.3
768.329	421.77
768.728	396.07
769.126	421.2
769.525	399.46
769.923	383.93
770.321	381.95
770.719	381.39
771.117	413.86
771.515	394.94
771.913	420.92
772.311	369.52
772.709	424.59
773.106	400.31
773.504	398.62
773.902	399.18
774.299	391.84
774.697	390.14
775.094	406.81
775.491	388.17
775.889	398.62
776.286	411.89
776.683	392.4
777.08	422.05
777.477	402.57
777.874	417.25
778.271	395.51
778.668	378
779.065	392.12
779.462	400.88
779.858	409.35
780.255	403.13
780.652	422.33
781.048	361.05
781.444	394.38
781.841	417.53
782.237	388.17
782.633	382.23
783.03	433.06
783.426	382.8
783.822	389.3
784.218	396.64
784.614	377.72
785.01	400.88
785.405	388.73
785.801	397.77
786.197	403.98
786.593	374.33
786.988	412.73
787.384	416.41
787.779	417.53
788.174	428.26
788.57	392.69
788.965	388.17
789.36	421.77
789.755	396.64
790.15	422.62
790.545	390.43
790.94	409.91
791.335	403.42
791.73	394.94
792.125	392.12
792.52	387.6
792.914	388.73
793.309	404.26
793.703	407.37
794.098	411.04
794.492	437.29
794.887	413.02
795.281	382.52
795.675	396.64
796.069	398.05
796.463	420.92
796.857	387.6
797.251	392.97
797.645	416.12
798.039	368.39
798.433	398.05
798.826	402.57
799.22	385.34
799.614	393.25
800.007	359.63
800.401	384.49
800.794	371.22
801.187	412.73
801.581	414.99
801.974	386.47
802.367	412.73
802.76	413.58
803.153	406.24
803.546	391.27
803.939	396.07
804.332	413.86
804.725	396.64
805.117	412.17
805.51	379.41
805.903	391.27
806.295	386.47
806.688	390.14
807.08	401.44
807.472	412.73
807.865	402.57
808.257	407.37
808.649	400.88
809.041	402.85
809.433	407.09
809.825	386.19
810.217	383.93
810.609	408.22
811.001	429.67
811.392	402.85
811.784	392.4
812.175	395.23
812.567	372.63
812.958	392.69
813.35	396.64
813.741	396.64
814.132	390.71
814.524	390.43
814.915	414.15
815.306	384.49
815.697	389.01
816.088	408.5
816.479	394.66
816.87	399.46
817.26	394.66
817.651	372.35
818.042	385.91
818.432	394.66
818.823	392.12
819.213	416.12
819.604	387.32
819.994	417.53
820.384	399.18
820.775	401.44
821.165	359.92
821.555	402.29
821.945	397.2
822.335	391.56
822.725	389.86
823.114	392.97
823.504	397.49
823.894	398.05
824.284	398.33
824.673	396.92
825.063	416.69
825.452	398.9
825.842	385.34
826.231	385.91
826.62	379.41
827.009	383.93
827.399	403.13
827.788	384.78
828.177	414.43
828.566	375.46
828.954	400.31
829.343	383.36
829.732	398.05
830.121	416.41
830.509	385.34
830.898	394.1
831.286	404.26
831.675	371.22
832.063	415.84
832.452	396.07
832.84	364.44
833.228	389.01
833.616	410.48
834.004	373.2
834.392	416.41
834.78	378
835.168	378.56
835.556	410.19
835.944	399.46
836.331	391.56
836.719	398.05
837.107	404.26
837.494	382.52
837.881	382.23
838.269	392.97
838.656	393.25
839.043	401.72
839.431	372.07
839.818	395.51
840.205	375.46
840.592	401.16
840.979	385.91
841.366	393.53
841.752	379.13
842.139	400.03
842.526	368.39
842.912	402.29
843.299	384.21
843.685	372.35
844.072	383.93
844.458	398.05
844.844	386.19
845.231	426.57
845.617	394.38
846.003	382.8
846.389	373.2
846.775	385.06
847.161	383.93
847.547	386.47
847.933	391.84
848.318	372.63
848.704	394.94
849.09	394.94
849.475	417.25
849.861	411.61
850.246	372.63
850.631	400.31
851.017	376.87
851.402	421.77
851.787	405.96
852.172	386.19
852.557	415.28
852.942	399.46
853.327	384.21
853.712	371.22
854.097	401.16
854.481	377.15
854.866	371.78
855.25	379.13
855.635	370.37
856.019	389.86
856.404	381.67
856.788	358.5
857.172	372.07
857.557	405.68
857.941	382.23
858.325	371.22
858.709	418.66
859.093	381.11
859.477	366.13
859.86	403.13
860.244	408.78
860.628	398.9
861.012	376.87
861.395	398.9
861.779	414.15
862.162	364.16
862.545	378.28
862.929	406.81
863.312	400.31
863.695	382.23
864.078	385.62
864.461	392.4
864.844	374.04
865.227	414.99
865.61	394.94
865.993	393.25
866.376	404.26
866.758	409.06
867.141	394.66
867.523	403.13
867.906	372.07
868.288	388.17
868.671	367.55
869.053	390.71
869.435	389.86
869.817	376.3
870.199	383.93
870.581	379.13
870.963	413.58
871.345	388.45
871.727	404.83
872.109	406.52
872.491	374.61
872.872	385.06
873.254	373.48
873.635	372.07
874.017	400.59
874.398	412.17
874.779	358.5
875.161	357.37
875.542	362.74
875.923	362.46
876.304	391.56
876.685	383.65
877.066	371.5
877.447	381.67
877.828	376.02
878.208	379.69
878.589	414.99
878.97	392.4
879.35	375.46
879.731	400.88
880.111	350.87
880.491	412.45
880.872	396.64
881.252	377.15
881.632	415.28
882.012	389.3
882.392	388.73
882.772	388.73
883.152	375.46
883.532	390.99
883.912	377.43
884.291	386.19
884.671	401.72
885.051	354.55
885.43	388.45
885.81	396.64
886.189	374.04
886.568	394.38
886.948	359.63
887.327	391.84
887.706	359.92
888.085	398.62
888.464	385.34
888.843	386.47
889.222	406.24
889.601	398.9
889.979	409.91
890.358	399.75
890.737	405.68
891.115	386.75
891.494	362.74
891.872	372.07
892.25	361.89
892.629	368.11
893.007	374.89
893.385	402.29
893.763	383.36
894.141	388.45
894.519	379.69
894.897	387.6
895.275	402.85
895.653	370.65
896.03	382.8
896.408	389.01
896.786	386.47
897.163	378.28
897.541	396.07
897.918	392.97
898.295	400.03
898.673	359.92
899.05	369.24
899.427	392.4
899.804	358.22
900.181	370.09
900.558	391.84
900.935	382.52
901.312	382.23
901.688	389.3
902.065	376.59
902.442	387.32
902.818	356.24
903.195	383.65
903.571	375.17
903.947	365.29
904.324	381.39
904.7	370.65
905.076	399.75
905.452	388.45
905.828	397.77
906.204	394.94
906.58	399.46
906.956	369.81
907.331	379.41
907.707	401.16
908.083	372.07
908.458	398.33
908.834	382.23
909.209	386.75
909.585	397.77
909.96	387.04
910.335	387.04
910.71	389.01
911.086	391.56
911.461	397.77
911.836	367.83
912.21	374.89
912.585	363.02
912.96	386.75
913.335	393.53
913.709	396.07
914.084	391.84
914.459	398.33
914.833	396.07
915.207	387.04
915.582	394.38
915.956	363.02
916.33	373.2
916.704	396.07
917.078	401.16
917.452	402
917.826	368.68
918.2	393.25
918.574	394.38
918.948	376.87
919.321	385.62
919.695	387.88
920.068	370.09
920.442	383.65
920.815	374.61
921.189	362.74
921.562	364.16
921.935	386.47
922.308	389.01
922.681	401.72
923.054	358.5
923.427	371.22
923.8	391.84
924.173	389.3
924.546	384.21
924.919	398.62
925.291	390.43
925.664	379.98
926.036	367.83
926.409	369.24
926.781	361.61
927.153	389.3
927.526	414.71
927.898	404.55
928.27	371.5
928.642	400.03
929.014	378
929.386	399.75
929.758	366.13
930.129	363.59
930.501	372.91
930.873	377.43
931.244	379.13
931.616	359.35
931.987	354.83
932.359	381.95
932.73	402
933.101	389.58
933.472	379.98
933.843	390.43
934.214	375.74
934.585	374.04
934.956	408.5
935.327	369.81
935.698	401.72
936.069	398.05
936.439	382.52
936.81	373.2
937.18	371.5
937.551	369.81
937.921	377.72
938.292	396.07
938.662	364.44
939.032	364.72
939.402	381.95
939.772	405.96
940.142	357.37
940.512	369.81
940.882	368.39
941.252	385.91
941.621	390.99
941.991	371.22
942.361	392.12
942.73	379.69
943.1	400.31
943.469	374.61
943.838	369.81
944.208	376.87
944.577	389.86
944.946	385.91
945.315	396.92
945.684	371.78
946.053	379.98
946.422	381.39
946.791	387.6
947.159	377.72
947.528	381.11
947.897	367.26
948.265	353.98
948.634	374.61
949.002	394.94
949.371	394.94
949.739	355.4
950.107	415.56
950.475	385.62
950.843	389.58
951.211	405.68
951.579	391.84
951.947	402.85
952.315	393.81
952.683	364.16
953.05	360.48
953.418	398.33
953.785	372.63
954.153	386.47
954.52	383.08
954.888	381.67
955.255	386.19
955.622	387.6
955.989	370.94
956.356	382.8
956.723	376.3
957.09	359.07
957.457	390.43
957.824	401.44
958.191	397.77
958.557	381.95
958.924	382.52
959.291	369.52
959.657	382.23
960.023	389.3
960.39	357.37
960.756	372.07
961.122	378.28
961.488	370.37
961.855	379.41
962.221	386.75
962.586	382.23
962.952	379.98
963.318	393.25
963.684	380.54
964.05	377.15
964.415	379.41
964.781	375.46
965.146	380.54
965.512	388.17
965.877	379.13
966.242	375.17
966.608	371.5
966.973	383.08
967.338	382.8
967.703	358.79
968.068	361.89
968.433	380.82
968.797	378.28
969.162	363.31
969.527	381.67
969.891	382.23
970.256	383.93
970.62	363.02
970.985	367.55
971.349	375.74
971.714	364.72
972.078	380.54
972.442	372.91
972.806	370.37
973.17	365.85
973.534	384.78
973.898	402.85
974.262	363.31
974.625	375.17
974.989	366.42
975.353	388.17
975.716	367.26
976.08	359.92
976.443	388.73
976.806	384.78
977.17	380.82
977.533	366.13
977.896	396.92
978.259	352.01
978.622	399.18
978.985	373.76
979.348	376.87
979.711	380.54
980.073	398.05
980.436	378.85
980.799	377.72
981.161	380.54
981.524	389.58
981.886	376.87
982.248	390.43
982.611	371.5
982.973	391.56
983.335	379.41
983.697	382.8
984.059	417.53
984.421	372.07
984.783	379.41
985.145	405.39
985.506	379.41
985.868	378.56
986.23	378.85
986.591	389.86
986.953	393.53
987.314	379.41
987.675	381.11
988.037	477.08
988.398	369.52
988.759	361.33
989.12	374.89
989.481	396.92
989.842	372.91
990.203	357.66
990.564	388.45
990.924	380.54
991.285	478.49
991.646	378.28
992.006	369.24
992.367	370.94
992.727	357.94
993.087	370.09
993.448	379.98
993.808	368.96
994.168	378.85
994.528	367.26
994.888	387.6
995.248	374.89
995.608	369.52
995.967	387.88
996.327	354.27
996.687	394.1
997.046	389.01
997.406	385.34
997.765	385.34
998.125	376.87
998.484	398.05
998.843	378.56
999.202	382.8
999.561	376.59
999.92	385.06
1000.279	405.68
1000.638	368.68
1000.997	364.44
1001.356	372.63
1001.715	368.39
1002.073	372.35
1002.432	365
1002.79	382.23
1003.149	369.81
1003.507	382.8
1003.865	383.65
1004.224	373.48
1004.582	374.04
1004.94	361.89
1005.298	346.64
1005.656	387.6
1006.014	368.39
1006.371	376.87
1006.729	370.37
1007.087	386.47
1007.445	376.59
1007.802	378.56
1008.16	363.87
1008.517	405.96
1008.874	395.51
1009.232	378
1009.589	403.42
1009.946	385.62
1010.303	363.87
1010.66	364.44
1011.017	398.33
1011.374	381.95
1011.731	381.95
1012.087	346.35
1012.444	378
1012.801	368.96
1013.157	367.26
1013.513	364.16
1013.87	401.72
1014.226	376.3
1014.582	383.65
1014.939	371.5
1015.295	389.3
1015.651	385.91
1016.007	381.67
1016.363	378.85
1016.719	378.85
1017.074	370.37
1017.43	392.69
1017.786	378
1018.141	366.42
1018.497	381.11
1018.852	390.99
1019.208	374.33
1019.563	381.67
1019.918	376.59
1020.273	371.5
1020.628	386.75
1020.983	365.29
1021.338	390.99
1021.693	384.49
1022.048	385.62
1022.403	411.89
1022.757	371.78
1023.112	382.23
1023.467	382.23
1023.821	381.67
1024.175	373.48
1024.53	372.91
1024.884	395.23
1025.238	366.13
1025.592	365
1025.946	363.02
1026.3	364.44
1026.654	377.15
1027.008	370.37
1027.362	357.94
1027.716	379.13
1028.069	364.16
1028.423	372.63
1028.777	372.63
1029.13	387.6
1029.483	387.32
1029.837	376.59
1030.19	390.14
1030.543	376.87
1030.896	358.5
1031.249	401.16
1031.602	353.14
1031.955	377.43
1032.308	378.56
1032.661	364.16
1033.013	387.32
1033.366	383.36
1033.719	374.89
1034.071	361.89
1034.424	414.15
1034.776	383.93
1035.128	353.7
1035.48	363.31
1035.833	351.72
1036.185	396.92
1036.537	396.92
1036.889	396.92
