Data from SCSF78-405_irradiation_FLMS019251_14-27-27-899.txt Node
Date: Fri Feb 22 14:27:27 PST 2019
User: mu3e
Spectrometer: FLMS01925
Trigger mode: 0
Integration Time (sec): 1.206000E-2
Scans to average: 10
Electric dark correction enabled: true
Nonlinearity correction enabled: true
Boxcar width: 0
XAxis mode: Wavelengths
Number of Pixels in Spectrum: 2048
>>>>>Begin Spectral Data<<<<<
187.103	-89.15
187.574	-89.15
188.045	-89.15
188.516	-142.04
188.987	-126.4
189.458	-144.32
189.929	-133.51
190.4	-135.5
190.871	-82.9
191.342	-52.21
191.813	-78.63
192.284	-47.38
192.754	-39.71
193.225	15.1
193.696	5.73
194.166	47.17
194.637	89.15
195.107	119.2
195.578	128.27
196.048	155.2
196.518	153.21
196.989	166.53
197.459	186.07
197.929	243.54
198.399	273.53
198.869	298.14
199.339	271.55
199.809	315.67
200.279	339.98
200.749	329.8
201.219	358.06
201.689	380.1
202.159	368.8
202.628	373.6
203.098	363.71
203.568	395.92
204.037	403.54
204.507	384.05
204.976	418.22
205.445	384.62
205.915	393.66
206.384	388.29
206.853	415.12
207.323	397.33
207.792	399.02
208.261	408.06
208.73	380.66
209.199	406.08
209.668	386.6
210.137	371.91
210.606	378.4
211.075	391.96
211.543	380.66
212.012	377.27
212.481	389.7
212.95	363.43
213.418	380.66
213.887	365.41
214.355	376.14
214.824	362.02
215.292	393.37
215.76	358.35
216.229	359.19
216.697	362.02
217.165	351.85
217.633	361.74
218.101	349.59
218.569	358.91
219.037	335.17
219.505	358.35
219.973	362.02
220.441	347.61
220.909	373.88
221.377	356.65
221.844	357.22
222.312	356.37
222.78	346.76
223.247	356.65
223.715	347.32
224.182	364.28
224.65	356.65
225.117	347.89
225.584	352.13
226.052	340.83
226.519	366.54
226.986	345.91
227.453	360.04
227.92	369.65
228.387	382.92
228.854	358.35
229.321	337.72
229.788	366.26
230.255	372.47
230.722	362.02
231.189	382.64
231.655	351.56
232.122	369.93
232.589	347.32
233.055	383.77
233.522	382.36
233.988	381.23
234.454	351.85
234.921	346.76
235.387	411.16
235.853	379.25
236.32	365.41
236.786	373.88
237.252	348.46
237.718	393.09
238.184	402.41
238.65	379.82
239.116	368.23
239.582	367.39
240.047	370.21
240.513	372.75
240.979	371.06
241.445	364.84
241.91	394.79
242.376	364.28
242.841	344.22
243.307	365.97
243.772	372.19
244.238	408.91
244.703	384.34
245.168	373.88
245.633	363.71
246.099	392.81
246.564	374.45
247.029	348.46
247.494	364
247.959	380.66
248.424	332.91
248.889	374.73
249.353	375.01
249.818	375.01
250.283	373.88
250.748	368.23
251.212	369.65
251.677	361.17
252.141	374.45
252.606	398.74
253.07	341.39
253.535	380.66
253.999	377.27
254.463	401.85
254.927	388.29
255.392	353.54
255.856	385.18
256.32	404.95
256.784	383.49
257.248	401
257.712	370.49
258.176	380.66
258.64	373.6
259.103	370.49
259.567	380.1
260.031	386.6
260.495	394.5
260.958	410.03
261.422	351.56
261.885	406.93
262.349	385.18
262.812	385.47
263.275	394.22
263.739	397.61
264.202	376.71
264.665	391.4
265.128	374.17
265.591	391.96
266.054	385.47
266.517	368.52
266.98	388.57
267.443	371.62
267.906	398.74
268.369	410.03
268.832	367.39
269.294	358.63
269.757	381.23
270.22	402.69
270.682	384.9
271.145	386.31
271.607	395.92
272.07	395.35
272.532	375.01
272.994	384.05
273.456	387.16
273.919	386.31
274.381	398.46
274.843	367.1
275.305	386.6
275.767	382.92
276.229	362.3
276.691	394.79
277.153	389.7
277.614	382.08
278.076	391.11
278.538	372.75
279	386.03
279.461	377.27
279.923	397.05
280.384	391.11
280.846	412.01
281.307	394.79
281.769	393.09
282.23	413.71
282.691	397.05
283.152	432.62
283.613	401.85
284.075	406.08
284.536	374.17
284.997	373.6
285.458	377.56
285.918	396.76
286.379	390.55
286.84	383.21
287.301	397.61
287.762	385.75
288.222	389.42
288.683	379.53
289.143	412.86
289.604	395.07
290.064	384.05
290.525	388.01
290.985	382.08
291.445	401
291.906	386.6
292.366	398.74
292.826	394.22
293.286	394.79
293.746	405.52
294.206	403.26
294.666	414.27
295.126	384.62
295.586	422.74
296.046	398.17
296.506	397.05
296.965	403.82
297.425	422.17
297.884	402.98
298.344	382.92
298.804	380.66
299.263	395.92
299.722	399.3
300.182	374.45
300.641	392.53
301.1	406.08
301.559	404.39
302.019	378.69
302.478	399.02
302.937	418.5
303.396	411.45
303.855	415.12
304.314	392.53
304.772	402.98
305.231	397.61
305.69	398.46
306.149	382.64
306.607	405.52
307.066	394.5
307.524	415.4
307.983	408.06
308.441	395.92
308.9	418.79
309.358	399.59
309.816	412.86
310.275	397.61
310.733	391.4
311.191	398.17
311.649	403.26
312.107	389.98
312.565	381.51
313.023	397.05
313.481	403.26
313.939	418.79
314.397	391.96
314.854	390.27
315.312	394.79
315.77	413.14
316.227	396.48
316.685	395.92
317.142	399.87
317.6	397.61
318.057	411.45
318.514	405.8
318.972	381.79
319.429	411.73
319.886	410.6
320.343	405.23
320.8	417.09
321.257	409.47
321.714	396.48
322.171	411.45
322.628	393.37
323.085	387.44
323.542	414.83
323.998	433.75
324.455	404.95
324.912	400.43
325.368	380.95
325.825	404.1
326.281	391.4
326.738	390.27
327.194	418.22
327.65	401.56
328.107	391.11
328.563	405.23
329.019	411.16
329.475	382.64
329.931	379.82
330.387	408.62
330.843	376.99
331.299	415.68
331.755	401.28
332.211	419.07
332.666	415.96
333.122	405.52
333.578	404.95
334.033	397.33
334.489	406.65
334.944	414.83
335.4	412.01
335.855	411.45
336.31	401
336.766	393.94
337.221	436.01
337.676	430.36
338.131	409.19
338.586	414.55
339.041	425.28
339.496	436.01
339.951	410.6
340.406	409.75
340.861	407.78
341.316	419.92
341.771	403.26
342.225	396.2
342.68	407.49
343.134	423.87
343.589	398.17
344.043	385.18
344.498	407.21
344.952	413.71
345.406	430.93
345.861	381.51
346.315	389.42
346.769	416.81
347.223	426.13
347.677	413.42
348.131	444.47
348.585	420.76
349.039	432.06
349.493	423.3
349.947	439.39
350.401	414.83
350.854	433.75
351.308	430.64
351.762	417.09
352.215	414.83
352.669	393.09
353.122	426.13
353.575	404.67
354.029	406.36
354.482	376.43
354.935	411.45
355.388	407.78
355.842	422.17
356.295	406.65
356.748	417.94
357.201	412.29
357.654	411.45
358.106	410.6
358.559	405.8
359.012	417.94
359.465	389.98
359.917	421.33
360.37	365.69
360.823	410.32
361.275	437.42
361.728	428.67
362.18	423.3
362.632	445.32
363.085	417.38
363.537	394.79
363.989	413.71
364.441	401
364.893	429.23
365.345	418.79
365.797	417.38
366.249	443.06
366.701	419.63
367.153	417.09
367.605	389.98
368.057	416.81
368.508	416.53
368.96	409.19
369.411	422.17
369.863	414.27
370.314	418.22
370.766	409.47
371.217	411.45
371.669	431.77
372.12	419.63
372.571	408.34
373.022	435.44
373.473	432.9
373.924	434.88
374.375	432.62
374.826	412.29
375.277	419.07
375.728	410.6
376.179	432.9
376.63	428.39
377.08	414.27
377.531	434.88
377.981	443.35
378.432	426.41
378.883	424.72
379.333	426.69
379.783	424.72
380.234	438.27
380.684	422.74
381.134	437.7
381.584	428.67
382.034	431.49
382.485	421.61
382.935	410.32
383.385	414.27
383.834	407.78
384.284	414.55
384.734	429.51
385.184	451.81
385.634	429.23
386.083	403.54
386.533	450.97
386.982	438.55
387.432	422.17
387.881	436.29
388.331	437.42
388.78	456.89
389.229	448.71
389.679	435.44
390.128	413.99
390.577	432.62
391.026	413.99
391.475	423.02
391.924	434.03
392.373	415.96
392.822	448.14
393.27	456.61
393.719	419.92
394.168	423.3
394.617	418.5
395.065	424.15
395.514	460.28
395.962	438.83
396.411	447.01
396.859	422.74
397.307	433.18
397.756	447.86
398.204	439.96
398.652	454.92
399.1	473.26
399.548	454.35
399.996	440.52
400.444	469.02
400.892	452.38
401.34	454.63
401.788	475.79
402.236	446.45
402.683	449.27
403.131	456.33
403.579	445.6
404.026	469.87
404.474	470.72
404.921	464.51
405.369	460
405.816	498.08
406.263	456.61
406.71	492.16
407.158	465.92
407.605	501.74
408.052	510.2
408.499	475.23
408.946	500.9
409.393	510.77
409.84	502.31
410.286	541.78
410.733	529.38
411.18	555.59
411.626	566.3
412.073	643.18
412.52	711.27
412.966	775.92
413.413	917.97
413.859	1056.95
414.305	1328.57
414.752	1590.35
415.198	1883.39
415.644	2352.9
416.09	2811.22
416.536	3389.28
416.982	4079.15
417.428	4789.1
417.874	5646.58
418.32	6472.72
418.766	7327.87
419.211	8507.27
419.657	9383.48
420.103	10633.14
420.548	11495.67
420.994	12826.95
421.439	14096.93
421.885	15055.45
422.33	16488.53
422.776	17598.09
423.221	18677.23
423.666	19928.75
424.111	21250.35
424.556	22323.69
425.001	23732.73
425.446	25162.15
425.891	26428.52
426.336	27428.05
426.781	28590.81
427.226	30819.89
427.671	31513.94
428.115	32287.07
428.56	34172.97
429.005	35598.2
429.449	36197.61
429.894	37700.15
430.338	38726.21
430.782	38853.71
431.227	40464.77
431.671	40953.29
432.115	42229
432.559	43443.08
433.003	43324.34
433.447	44255.85
433.891	44595.31
434.335	45099.62
434.779	45934.02
435.223	45996.75
435.667	46134.69
436.111	46690.28
436.554	46673.5
436.998	46268.45
437.442	46433.28
437.885	48473.81
438.328	46779.27
438.772	47265.72
439.215	47730.72
439.659	47369.16
440.102	47712.27
440.545	46957.18
440.988	46846.19
441.431	47685.63
441.874	47391.13
442.317	47523.83
442.76	46934.77
443.203	46418.56
443.646	47204.72
444.089	46719.51
444.531	47395.22
444.974	45946.41
445.417	47056.8
445.859	46204.59
446.302	47426.4
446.744	46588.9
447.186	47859.96
447.629	46901.93
448.071	46744.43
448.513	46961.51
448.956	48559.5
449.398	47617.5
449.84	46332.58
450.282	46938.85
450.724	47526.65
451.166	47220.28
451.607	47278.74
452.049	47209.57
452.491	48348.49
452.933	47761.48
453.374	48411.13
453.816	48940.86
454.257	48471.23
454.699	49664.39
455.14	49099.39
455.582	49064.34
456.023	49014.51
456.464	49229.83
456.905	49643.74
457.347	49550
457.788	48840.85
458.229	48868.56
458.67	49989.87
459.111	47785.06
459.552	48162.33
459.992	48041.23
460.433	47962.37
460.874	46746.47
461.315	47920.78
461.755	46898.87
462.196	46485.3
462.636	45800.3
463.077	45350.66
463.517	45354.94
463.957	45736.39
464.398	45440.39
464.838	45487.8
465.278	44404.45
465.718	44736.64
466.158	43563.39
466.598	43899.46
467.038	43494.99
467.478	44000.51
467.918	44019.27
468.358	43215.37
468.798	43064.11
469.237	42811.63
469.677	42823.83
470.117	43636.56
470.556	41190.42
470.996	41853.11
471.435	42029.95
471.874	42617.11
472.314	42384.47
472.753	41411.89
473.192	41489.63
473.631	41145.9
474.07	41444.07
474.509	41362.63
474.948	41655.58
475.387	41021.77
475.826	39949.13
476.265	41875.92
476.704	41306.95
477.143	41737.1
477.581	41260.18
478.02	41861.05
478.458	40687.7
478.897	41138.72
479.335	42418.26
479.774	41940.9
480.212	42245.13
480.65	42073.12
481.089	41720.25
481.527	41261.17
481.965	40697.08
482.403	42772.32
482.841	42371.05
483.279	42443.35
483.717	42540.03
484.155	42206.9
484.592	42525.37
485.03	42849.22
485.468	41661.53
485.905	41745.53
486.343	42317.65
486.781	41639.72
487.218	41082.34
487.655	41050.94
488.093	40245.2
488.53	41700.92
488.967	40801.81
489.405	40571.4
489.842	39745.65
490.279	39834.07
490.716	39420.46
491.153	39806.98
491.59	39312.95
492.027	38539.81
492.463	38233.5
492.9	37462.47
493.337	37258.7
493.773	37394.13
494.21	36480.5
494.647	36352.12
495.083	35686.38
495.519	35334.43
495.956	35307.57
496.392	34555.76
496.828	34236.88
497.265	33605.89
497.701	33727.34
498.137	33403.74
498.573	32532.09
499.009	33006.54
499.445	32063.99
499.881	31716.56
500.316	32195.65
500.752	31025.01
501.188	30866.48
501.624	30844.53
502.059	29613.76
502.495	29423.32
502.93	29219.66
503.366	29501.7
503.801	28847.64
504.236	28629.43
504.672	28274.26
505.107	27832.57
505.542	27299.77
505.977	27321.8
506.412	26825.1
506.847	27123.71
507.282	26429.74
507.717	26160.47
508.152	26198.73
508.587	25871.92
509.021	25282.81
509.456	24924.94
509.891	24966
510.325	24972.64
510.76	24522.28
511.194	24380.28
511.628	24354.93
512.063	23573.98
512.497	23741.61
512.931	23231.87
513.366	22994.94
513.8	23116.14
514.234	22566.91
514.668	22412.69
515.102	22565.92
515.536	21742.05
515.969	21959.86
516.403	21478.07
516.837	21011.11
517.271	21187.15
517.704	20680.42
518.138	20677.94
518.571	20464.2
519.005	20118.41
519.438	19934.22
519.871	19791.98
520.305	19410.53
520.738	19395.6
521.171	18840.05
521.604	19017.26
522.037	18719.37
522.47	18401.05
522.903	17982.04
523.336	17947.31
523.769	17800.62
524.202	17279.84
524.634	17395.72
525.067	17131.13
525.5	16946.29
525.932	16700.18
526.365	16442.12
526.797	16253.4
527.23	16339.49
527.662	15732.65
528.094	15546.82
528.527	15520.91
528.959	15324.89
529.391	15021.94
529.823	14641.53
530.255	14707.86
530.687	14385.89
531.119	14094.41
531.551	14074.95
531.982	13644.48
532.414	13465.47
532.846	13218.66
533.277	12992.69
533.709	12720.55
534.14	12666.69
534.572	12513.71
535.003	12290.4
535.435	12097.2
535.866	11902.05
536.297	11666.43
536.728	11689.13
537.159	11527.08
537.59	11272.39
538.022	11224.84
538.452	10940.09
538.883	10734.14
539.314	10694.16
539.745	10471.02
540.176	10268.94
540.606	10068.18
541.037	10014.16
541.468	9861.27
541.898	9759.53
542.328	9724.23
542.759	9503.25
543.189	9353.26
543.619	9286.1
544.05	9048.48
544.48	8962.04
544.91	8847.82
545.34	8746.75
545.77	8655.46
546.2	8532.45
546.63	8333.19
547.06	8378.68
547.489	8180.76
547.919	7932.26
548.349	7924.7
548.778	7940.86
549.208	7735.02
549.637	7615.12
550.067	7499.83
550.496	7481.52
550.926	7402.23
551.355	7201.58
551.784	7198.69
552.213	7091.95
552.642	6953.33
553.071	6944.66
553.5	6803.77
553.929	6645.07
554.358	6677.46
554.787	6498.03
555.216	6476.41
555.645	6394.36
556.073	6244.62
556.502	6224.8
556.93	6076.43
557.359	6010.51
557.787	6066.63
558.216	5898.97
558.644	5894.46
559.072	5816.49
559.5	5695.72
559.929	5667.84
560.357	5681.12
560.785	5572.43
561.213	5533.33
561.641	5435.94
562.068	5426.89
562.496	5367.76
562.924	5346.72
563.352	5295.28
563.779	5279.81
564.207	5252.35
564.634	5235.54
565.062	5223.27
565.489	5098.35
565.917	5100.75
566.344	5051.06
566.771	4971.93
567.198	4957.75
567.625	4907.99
568.053	4811.6
568.48	4782.13
568.907	4737.11
569.333	4629.82
569.76	4483.72
570.187	4543.37
570.614	4439.09
571.04	4562.17
571.467	4344.66
571.894	4272.22
572.32	4183.56
572.747	4134.74
573.173	3986.25
573.599	3933.27
574.026	3878.1
574.452	3871.61
574.878	3821.54
575.304	3733.79
575.73	3683.92
576.156	3613.95
576.582	3605.27
577.008	3505.35
577.434	3447.74
577.86	3334.32
578.285	3381.12
578.711	3291.84
579.137	3230.28
579.562	3145.21
579.988	3150.12
580.413	3058.97
580.838	3006.8
581.264	3013.09
581.689	2926.98
582.114	2945.58
582.539	2883.49
582.964	2812.59
583.39	2818.89
583.814	2776.71
584.239	2715.59
584.664	2699.69
585.089	2645.92
585.514	2595.69
585.939	2575.92
586.363	2545.71
586.788	2500.64
587.212	2444.27
587.637	2423.36
588.061	2420.06
588.485	2319.02
588.91	2336.65
589.334	2293.12
589.758	2283.2
590.182	2243.77
590.606	2206.54
591.03	2173.7
591.454	2122.63
591.878	2091.14
592.302	2132.02
592.726	2046.65
593.15	2077.88
593.573	2032.55
593.997	1984.71
594.42	1966.45
594.844	1943.75
595.267	1926.04
595.691	1885.61
596.114	1885.89
596.537	1879.52
596.96	1837.96
597.384	1809.13
597.807	1791.94
598.23	1775.3
598.653	1771.97
599.076	1746.17
599.499	1730.35
599.921	1700.65
600.344	1663.71
600.767	1702.04
601.189	1704.53
601.612	1671.49
602.034	1687.04
602.457	1605.09
602.879	1611.76
603.302	1665.1
603.724	1622.04
604.146	1626.49
604.568	1593.97
604.991	1585.63
605.413	1580.34
605.835	1595.63
606.257	1566.72
606.678	1534.73
607.1	1544.46
607.522	1553.37
607.944	1542.8
608.365	1521.37
608.787	1486.02
609.209	1483.52
609.63	1456.79
610.051	1428.65
610.473	1457.07
610.894	1449.27
611.315	1404.13
611.737	1409.71
612.158	1393.82
612.579	1346.98
613	1350.89
613.421	1330.25
613.842	1333.87
614.263	1338.61
614.683	1298.72
615.104	1291.46
615.525	1254.06
615.945	1221.1
616.366	1238.42
616.787	1253.5
617.207	1201.26
617.627	1175.55
618.048	1164.09
618.468	1158.78
618.888	1128.86
619.308	1166.33
619.728	1110.12
620.148	1101.17
620.568	1107.6
620.988	1088.01
621.408	1059.19
621.828	1081.58
622.248	1031.19
622.668	1051.07
623.087	1022.23
623.507	1040.99
623.926	1018.3
624.346	1002.9
624.765	989.17
625.185	970.95
625.604	975.44
626.023	965.35
626.442	957.22
626.861	963.39
627.28	929.46
627.699	924.98
628.118	930.87
628.537	906.47
628.956	910.95
629.375	896.65
629.794	885.15
630.212	879.25
630.631	895.25
631.049	871.96
631.468	868.03
631.886	853.43
632.305	872.24
632.723	840.52
633.141	846.7
633.559	814.69
633.978	825.92
634.396	836.03
634.814	798.12
635.232	778.73
635.65	786.04
636.067	792.78
636.485	784.63
636.903	813
637.321	768.9
637.738	764.4
638.156	726.17
638.573	763.28
638.991	747.54
639.408	723.64
639.825	721.39
640.243	738.82
640.66	705.36
641.077	705.08
641.494	713.52
641.911	719.42
642.328	729.55
642.745	691.58
643.162	719.42
643.579	708.17
643.995	698.33
644.412	697.49
644.829	669.92
645.245	684.27
645.662	669.07
646.078	682.3
646.495	689.89
646.911	671.6
647.327	647.68
647.743	649.65
648.159	641.21
648.576	638.68
648.992	640.93
649.408	602.64
649.824	671.89
650.239	635.58
650.655	684.55
651.071	642.34
651.487	636.99
651.902	622.07
652.318	649.09
652.733	613.06
653.149	626.57
653.564	624.32
653.979	600.66
654.395	631.64
654.81	589.68
655.225	613.62
655.64	625.45
656.055	587.43
656.47	604.89
656.885	607.71
657.3	587.15
657.715	605.73
658.13	594.75
658.544	577.85
658.959	561.79
659.374	536.71
659.788	586.3
660.202	599.26
660.617	579.54
661.031	556.15
661.445	566.86
661.86	578.98
662.274	563.48
662.688	586.02
663.102	550.52
663.516	531.35
663.93	559.82
664.344	564.61
664.758	557.28
665.171	549.39
665.585	568.83
665.999	527.68
666.412	545.73
666.826	553.05
667.239	543.75
667.653	540.65
668.066	540.37
668.479	520.64
668.892	523.46
669.306	545.73
669.719	528.53
670.132	511.9
670.545	540.09
670.958	515.56
671.37	525.71
671.783	517.82
672.196	498.92
672.609	530.79
673.021	518.66
673.434	525.71
673.846	527.4
674.259	514.15
674.671	518.1
675.084	501.74
675.496	502.87
675.908	480.59
676.32	504
676.732	501.46
677.144	485.39
677.556	499.21
677.968	509.08
678.38	496.1
678.792	471.56
679.204	502.87
679.615	489.62
680.027	504.85
680.439	471.28
680.85	478.05
681.262	507.38
681.673	477.77
682.084	474.1
682.496	474.1
682.907	477.77
683.318	463.1
683.729	466.2
684.14	469.02
684.551	455.2
684.962	485.95
685.373	481.72
685.784	479.18
686.194	488.77
686.605	463.38
687.016	463.38
687.426	455.76
687.837	477.21
688.247	445.6
688.657	473.54
689.068	466.48
689.478	491.87
689.888	466.77
690.298	453.79
690.708	462.82
691.118	483.98
691.528	446.73
691.938	460.28
692.348	457.74
692.758	459.71
693.168	444.19
693.577	463.1
693.987	447.86
694.396	453.22
694.806	462.82
695.215	473.26
695.625	449.84
696.034	456.33
696.443	442.5
696.852	482
697.262	437.42
697.671	432.34
698.08	432.06
698.489	445.04
698.897	429.8
699.306	440.24
699.715	458.87
700.124	446.45
700.532	436.29
700.941	429.51
701.35	447.01
701.758	439.96
702.166	444.19
702.575	430.64
702.983	414.55
703.391	454.07
703.799	441.37
704.208	433.75
704.616	400.43
705.024	458.3
705.432	467.33
705.839	437.7
706.247	432.34
706.655	445.04
707.063	421.05
707.47	438.55
707.878	443.63
708.285	440.24
708.693	430.08
709.1	422.17
709.508	417.94
709.915	445.6
710.322	441.09
710.729	423.3
711.136	434.88
711.543	413.99
711.95	432.62
712.357	424.43
712.764	419.63
713.171	420.2
713.578	415.12
713.984	421.89
714.391	419.92
714.797	417.38
715.204	438.27
715.61	431.21
716.017	431.21
716.423	427.54
716.829	441.37
717.236	420.2
717.642	414.55
718.048	426.41
718.454	434.6
718.86	406.93
719.266	419.92
719.671	436.85
720.077	406.65
720.483	407.78
720.889	376.43
721.294	423.87
721.7	432.62
722.105	411.16
722.511	426.69
722.916	437.14
723.321	415.4
723.726	425.84
724.132	411.16
724.537	424.72
724.942	421.61
725.347	421.89
725.752	417.94
726.156	405.8
726.561	411.16
726.966	421.61
727.371	406.93
727.775	424.43
728.18	413.71
728.584	420.2
728.989	434.03
729.393	410.32
729.798	395.92
730.202	404.1
730.606	416.81
731.01	422.17
731.414	432.62
731.818	412.86
732.222	389.42
732.626	402.41
733.03	402.69
733.434	430.64
733.837	420.48
734.241	391.96
734.645	440.52
735.048	409.47
735.452	407.78
735.855	399.59
736.258	401.56
736.662	421.61
737.065	424.72
737.468	412.58
737.871	394.79
738.274	441.65
738.677	424.72
739.08	417.38
739.483	421.05
739.886	393.37
740.289	404.1
740.691	409.47
741.094	385.75
741.497	412.01
741.899	407.21
742.302	404.95
742.704	395.92
743.106	385.75
743.508	397.89
743.911	421.61
744.313	394.22
744.715	402.41
745.117	442.22
745.519	391.68
745.921	408.06
746.323	408.62
746.724	409.19
747.126	401.56
747.528	419.35
747.929	395.92
748.331	441.37
748.732	398.46
749.134	406.36
749.535	401.28
749.936	416.53
750.338	402.69
750.739	394.22
751.14	426.97
751.541	402.41
751.942	403.82
752.343	409.19
752.744	401.28
753.144	401
753.545	415.68
753.946	421.05
754.346	401.85
754.747	423.59
755.148	417.66
755.548	398.74
755.948	381.51
756.349	408.91
756.749	396.2
757.149	436.29
757.549	410.03
757.949	413.14
758.349	381.79
758.749	413.99
759.149	411.45
759.549	373.6
759.949	383.77
760.348	400.15
760.748	393.09
761.148	391.11
761.547	364.84
761.947	409.47
762.346	406.93
762.745	367.67
763.145	398.46
763.544	398.17
763.943	393.66
764.342	404.1
764.741	404.1
765.14	401.28
765.539	393.37
765.938	381.23
766.336	377.27
766.735	394.79
767.134	380.95
767.532	400.43
767.931	393.66
768.329	386.6
768.728	409.19
769.126	395.92
769.525	400.72
769.923	425.28
770.321	404.67
770.719	386.88
771.117	403.82
771.515	392.53
771.913	387.16
772.311	390.55
772.709	420.2
773.106	372.19
773.504	392.24
773.902	418.22
774.299	424.15
774.697	404.1
775.094	384.34
775.491	402.41
775.889	400.72
776.286	399.3
776.683	378.4
777.08	394.22
777.477	393.37
777.874	391.4
778.271	381.79
778.668	399.59
779.065	401.28
779.462	406.36
779.858	401
780.255	398.46
780.652	365.69
781.048	410.88
781.444	400.43
781.841	383.77
782.237	397.61
782.633	382.64
783.03	399.3
783.426	381.23
783.822	390.83
784.218	383.21
784.614	371.06
785.01	372.47
785.405	409.19
785.801	393.94
786.197	394.5
786.593	390.83
786.988	389.7
787.384	383.49
787.779	397.33
788.174	386.03
788.57	393.94
788.965	414.55
789.36	397.61
789.755	387.16
790.15	395.63
790.545	397.61
790.94	393.37
791.335	387.16
791.73	392.24
792.125	392.53
792.52	404.67
792.914	393.37
793.309	391.96
793.703	357.78
794.098	390.83
794.492	394.5
794.887	403.26
795.281	378.69
795.675	394.5
796.069	378.12
796.463	398.46
796.857	409.19
797.251	389.98
797.645	379.25
798.039	397.33
798.433	401
798.826	395.63
799.22	387.44
799.614	390.83
800.007	401
800.401	393.94
800.794	392.81
801.187	385.18
801.581	401.56
801.974	402.69
802.367	412.86
802.76	399.59
803.153	387.16
803.546	381.51
803.939	396.2
804.332	385.18
804.725	396.2
805.117	402.69
805.51	381.23
805.903	397.61
806.295	406.65
806.688	417.38
807.08	375.3
807.472	380.1
807.865	400.72
808.257	376.14
808.649	401.28
809.041	396.76
809.433	408.06
809.825	378.97
810.217	365.13
810.609	406.93
811.001	396.48
811.392	398.46
811.784	398.46
812.175	392.81
812.567	395.35
812.958	399.59
813.35	376.71
813.741	376.99
814.132	395.35
814.524	386.6
814.915	395.35
815.306	390.83
815.697	391.68
816.088	360.32
816.479	404.1
816.87	369.08
817.26	396.2
817.651	383.49
818.042	413.14
818.432	395.63
818.823	371.62
819.213	393.09
819.604	414.55
819.994	393.66
820.384	375.01
820.775	390.55
821.165	404.1
821.555	384.05
821.945	405.8
822.335	377.56
822.725	381.51
823.114	396.2
823.504	387.16
823.894	389.7
824.284	372.75
824.673	385.18
825.063	378.12
825.452	416.81
825.842	372.47
826.231	383.21
826.62	397.05
827.009	386.31
827.399	366.54
827.788	381.51
828.177	391.68
828.566	393.66
828.954	401
829.343	382.08
829.732	365.69
830.121	377.84
830.509	382.92
830.898	381.79
831.286	387.73
831.675	387.44
832.063	388.57
832.452	384.34
832.84	381.51
833.228	384.9
833.616	384.9
834.004	372.75
834.392	383.21
834.78	374.45
835.168	387.44
835.556	388.85
835.944	396.76
836.331	426.69
836.719	383.77
837.107	390.27
837.494	404.1
837.881	390.83
838.269	386.03
838.656	386.88
839.043	392.24
839.431	373.6
839.818	372.47
840.205	398.74
840.592	410.03
840.979	359.19
841.366	374.17
841.752	392.81
842.139	378.97
842.526	395.07
842.912	391.4
843.299	385.47
843.685	385.18
844.072	401.56
844.458	388.85
844.844	375.3
845.231	350.15
845.617	361.17
846.003	384.62
846.389	402.41
846.775	379.25
847.161	380.38
847.547	379.82
847.933	362.58
848.318	411.45
848.704	374.73
849.09	400.72
849.475	372.47
849.861	378.69
850.246	397.89
850.631	350.72
851.017	397.61
851.402	382.08
851.787	380.95
852.172	395.63
852.557	394.79
852.942	388.01
853.327	392.81
853.712	381.79
854.097	371.62
854.481	400.15
854.866	370.78
855.25	407.21
855.635	382.08
856.019	386.31
856.404	388.29
856.788	382.36
857.172	394.79
857.557	374.17
857.941	405.52
858.325	395.92
858.709	385.75
859.093	367.95
859.477	387.16
859.86	399.87
860.244	387.16
860.628	400.72
861.012	389.42
861.395	384.9
861.779	393.66
862.162	365.97
862.545	373.88
862.929	389.7
863.312	388.29
863.695	374.45
864.078	379.53
864.461	372.47
864.844	362.3
865.227	386.03
865.61	350.15
865.993	403.26
866.376	415.12
866.758	406.08
867.141	363.43
867.523	378.12
867.906	371.34
868.288	385.75
868.671	369.36
869.053	385.75
869.435	373.6
869.817	371.06
870.199	381.51
870.581	393.37
870.963	356.08
871.345	373.88
871.727	376.43
872.109	349.02
872.491	383.49
872.872	390.83
873.254	387.16
873.635	353.82
874.017	393.37
874.398	376.43
874.779	356.65
875.161	376.71
875.542	371.91
875.923	375.3
876.304	357.78
876.685	358.91
877.066	369.08
877.447	369.08
877.828	380.95
878.208	391.96
878.589	401.28
878.97	393.09
879.35	393.37
879.731	364
880.111	377.84
880.491	376.43
880.872	377.27
881.252	359.48
881.632	392.24
882.012	386.03
882.392	380.95
882.772	388.57
883.152	363.15
883.532	388.29
883.912	396.48
884.291	384.05
884.671	368.52
885.051	382.92
885.43	413.99
885.81	397.05
886.189	356.93
886.568	371.34
886.948	338.28
887.327	384.9
887.706	390.55
888.085	383.49
888.464	377.27
888.843	378.4
889.222	357.22
889.601	385.47
889.979	378.4
890.358	365.69
890.737	389.14
891.115	375.86
891.494	383.21
891.872	394.22
892.25	380.66
892.629	384.62
893.007	367.1
893.385	377.27
893.763	390.27
894.141	389.42
894.519	366.54
894.897	386.6
895.275	388.57
895.653	375.3
896.03	373.88
896.408	388.01
896.786	364
897.163	396.76
897.541	391.68
897.918	367.95
898.295	362.58
898.673	362.02
899.05	388.85
899.427	401.85
899.804	389.14
900.181	386.88
900.558	368.52
900.935	387.73
901.312	363.71
901.688	358.63
902.065	370.49
902.442	364.56
902.818	368.8
903.195	379.82
903.571	393.94
903.947	374.73
904.324	366.26
904.7	374.45
905.076	368.23
905.452	382.08
905.828	377.56
906.204	373.88
906.58	365.69
906.956	375.86
907.331	375.58
907.707	393.94
908.083	401
908.458	376.43
908.834	378.97
909.209	364
909.585	370.49
909.96	389.42
910.335	376.99
910.71	396.2
911.086	378.97
911.461	392.81
911.836	398.74
912.21	397.33
912.585	376.14
912.96	391.11
913.335	380.38
913.709	365.97
914.084	364
914.459	358.63
914.833	387.44
915.207	405.52
915.582	369.36
915.956	367.67
916.33	385.47
916.704	396.76
917.078	371.91
917.452	395.63
917.826	391.11
918.2	386.6
918.574	385.18
918.948	373.04
919.321	392.24
919.695	359.76
920.068	378.69
920.442	401.28
920.815	391.11
921.189	351.56
921.562	360.32
921.935	376.14
922.308	396.48
922.681	387.73
923.054	389.14
923.427	395.07
923.8	381.23
924.173	358.06
924.546	376.99
924.919	375.86
925.291	379.82
925.664	367.67
926.036	386.88
926.409	369.93
926.781	388.29
927.153	377.27
927.526	388.01
927.898	374.45
928.27	419.07
928.642	376.14
929.014	357.78
929.386	367.67
929.758	365.69
930.129	361.74
930.501	379.25
930.873	391.68
931.244	393.09
931.616	362.87
931.987	373.04
932.359	377.84
932.73	369.36
933.101	362.3
933.472	372.47
933.843	383.21
934.214	379.25
934.585	397.33
934.956	386.03
935.327	398.17
935.698	365.97
936.069	366.26
936.439	386.31
936.81	380.1
937.18	374.17
937.551	382.36
937.921	389.98
938.292	370.49
938.662	371.91
939.032	373.88
939.402	371.91
939.772	353.54
940.142	365.97
940.512	373.88
940.882	371.91
941.252	358.63
941.621	381.51
941.991	384.34
942.361	384.62
942.73	346.76
943.1	364.84
943.469	382.64
943.838	388.85
944.208	393.66
944.577	378.4
944.946	358.63
945.315	368.8
945.684	384.05
946.053	370.21
946.422	358.91
946.791	375.86
947.159	351
947.528	384.9
947.897	361.17
948.265	381.79
948.634	387.73
949.002	366.26
949.371	391.4
949.739	365.13
950.107	362.58
950.475	372.75
950.843	395.07
951.211	370.78
951.579	379.82
951.947	386.6
952.315	370.49
952.683	367.95
953.05	377.56
953.418	359.19
953.785	372.75
954.153	397.33
954.52	341.39
954.888	386.6
955.255	389.7
955.622	400.43
955.989	399.87
956.356	375.3
956.723	385.75
957.09	363.71
957.457	328.67
957.824	381.23
958.191	375.3
958.557	393.09
958.924	365.97
959.291	357.78
959.657	361.17
960.023	378.4
960.39	378.12
960.756	386.88
961.122	381.79
961.488	367.1
961.855	365.69
962.221	359.19
962.586	375.86
962.952	364
963.318	353.82
963.684	359.48
964.05	357.78
964.415	383.21
964.781	386.88
965.146	369.36
965.512	383.21
965.877	389.14
966.242	376.43
966.608	375.01
966.973	385.75
967.338	375.58
967.703	360.04
968.068	372.19
968.433	373.88
968.797	373.04
969.162	353.54
969.527	352.69
969.891	389.42
970.256	376.14
970.62	369.65
970.985	363.71
971.349	374.17
971.714	379.53
972.078	374.45
972.442	360.89
972.806	375.3
973.17	388.29
973.534	351.85
973.898	384.62
974.262	374.73
974.625	375.3
974.989	365.97
975.353	387.73
975.716	382.08
976.08	380.66
976.443	391.96
976.806	376.14
977.17	359.76
977.533	364
977.896	372.19
978.259	374.45
978.622	368.8
978.985	385.47
979.348	361.17
979.711	370.78
980.073	382.36
980.436	372.47
980.799	360.61
981.161	379.82
981.524	364.28
981.886	387.73
982.248	367.67
982.611	360.61
982.973	372.75
983.335	377.84
983.697	398.74
984.059	362.58
984.421	401.85
984.783	387.73
985.145	371.06
985.506	350.43
985.868	380.1
986.23	403.82
986.591	382.64
986.953	376.99
987.314	360.61
987.675	395.07
988.037	508.51
988.398	403.26
988.759	371.06
989.12	362.3
989.481	361.17
989.842	373.88
990.203	371.34
990.564	366.26
990.924	361.74
991.285	527.4
991.646	367.95
992.006	385.18
992.367	365.69
992.727	375.3
993.087	370.49
993.448	351.85
993.808	388.29
994.168	389.7
994.528	377.84
994.888	379.25
995.248	361.74
995.608	368.23
995.967	398.17
996.327	371.91
996.687	389.42
997.046	384.62
997.406	368.52
997.765	382.36
998.125	380.1
998.484	380.1
998.843	370.21
999.202	373.6
999.561	376.71
999.92	348.17
1000.279	389.42
1000.638	385.18
1000.997	351.85
1001.356	365.69
1001.715	371.62
1002.073	350.72
1002.432	378.4
1002.79	360.32
1003.149	371.34
1003.507	375.58
1003.865	378.12
1004.224	368.23
1004.582	374.17
1004.94	378.97
1005.298	367.67
1005.656	351.56
1006.014	353.54
1006.371	379.82
1006.729	365.69
1007.087	371.91
1007.445	375.01
1007.802	382.92
1008.16	377.27
1008.517	373.32
1008.874	401.85
1009.232	352.41
1009.589	376.71
1009.946	373.88
1010.303	385.47
1010.66	372.75
1011.017	347.61
1011.374	379.53
1011.731	376.43
1012.087	363.43
1012.444	375.86
1012.801	366.82
1013.157	376.71
1013.513	346.76
1013.87	346.19
1014.226	354.39
1014.582	375.01
1014.939	380.38
1015.295	360.61
1015.651	394.5
1016.007	366.82
1016.363	358.63
1016.719	373.04
1017.074	384.05
1017.43	364.84
1017.786	370.78
1018.141	387.16
1018.497	372.75
1018.852	390.55
1019.208	366.26
1019.563	378.69
1019.918	371.62
1020.273	383.77
1020.628	373.32
1020.983	378.69
1021.338	374.17
1021.693	344.78
1022.048	369.08
1022.403	372.19
1022.757	364
1023.112	370.49
1023.467	371.34
1023.821	359.19
1024.175	382.64
1024.53	374.45
1024.884	351.56
1025.238	372.19
1025.592	373.32
1025.946	378.69
1026.3	376.14
1026.654	379.53
1027.008	381.23
1027.362	375.86
1027.716	366.26
1028.069	369.93
1028.423	358.35
1028.777	386.03
1029.13	343.93
1029.483	386.6
1029.837	385.18
1030.19	357.78
1030.543	357.5
1030.896	374.73
1031.249	349.3
1031.602	362.87
1031.955	378.12
1032.308	348.17
1032.661	364
1033.013	366.26
1033.366	355.8
1033.719	359.76
1034.071	371.06
1034.424	359.19
1034.776	370.78
1035.128	334.04
1035.48	377.56
1035.833	371.62
1036.185	367.67
1036.537	367.67
1036.889	367.67
