Data from SCSF78-405_irradiation_FLMS019251_19-35-27-878.txt Node
Date: Fri Feb 22 19:35:27 PST 2019
User: mu3e
Spectrometer: FLMS01925
Trigger mode: 0
Integration Time (sec): 1.206000E-2
Scans to average: 10
Electric dark correction enabled: true
Nonlinearity correction enabled: true
Boxcar width: 0
XAxis mode: Wavelengths
Number of Pixels in Spectrum: 2048
>>>>>Begin Spectral Data<<<<<
187.103	-91.46
187.574	-91.46
188.045	-91.46
188.516	-120.46
188.987	-143.5
189.458	-113.35
189.929	-126.44
190.4	-112.22
190.871	-89.47
191.342	-76.11
191.813	-51.96
192.284	-39.74
192.754	-30.08
193.225	-8.78
193.696	10.81
194.166	56.78
194.637	51.11
195.107	86.85
195.578	122
196.048	157.14
196.518	162.53
196.989	200.2
197.459	197.65
197.929	227.37
198.399	292.45
198.869	317.05
199.339	324.96
199.809	298.38
200.279	338.81
200.749	376.39
201.219	360.01
201.689	373.85
202.159	369.61
202.628	383.45
203.098	396.73
203.568	399.55
204.037	405.76
204.507	402.94
204.976	409.43
205.445	398.99
205.915	397.86
206.384	423.83
206.853	413.39
207.323	386.56
207.792	412.26
208.261	380.63
208.73	406.33
209.199	398.99
209.668	377.8
210.137	382.32
210.606	371.59
211.075	389.95
211.543	405.76
212.012	380.35
212.481	382.61
212.95	371.59
213.418	385.71
213.887	374.13
214.355	395.88
214.824	347.01
215.292	384.02
215.76	376.39
216.229	363.4
216.697	371.59
217.165	352.38
217.633	359.44
218.101	358.03
218.569	363.96
219.037	367.92
219.505	369.89
219.973	355.48
220.441	343.33
220.909	350.12
221.377	367.63
221.844	361.42
222.312	348.99
222.78	382.04
223.247	375.54
223.715	358.03
224.182	361.7
224.65	364.53
225.117	380.63
225.584	365.37
226.052	359.16
226.519	364.53
226.986	376.96
227.453	335.99
227.92	382.04
228.387	391.64
228.854	381.19
229.321	375.83
229.788	368.48
230.255	343.05
230.722	368.2
231.189	373
231.655	377.24
232.122	352.09
232.589	361.7
233.055	372.15
233.522	361.14
233.988	360.01
234.454	373
234.921	382.32
235.387	383.17
235.853	377.24
236.32	387.97
236.786	365.37
237.252	382.89
237.718	383.74
238.184	370.18
238.65	402.38
239.116	392.21
239.582	366.79
240.047	344.18
240.513	381.76
240.979	383.45
241.445	398.42
241.91	385.15
242.376	394.75
242.841	376.96
243.307	401.81
243.772	392.21
244.238	371.87
244.703	399.83
245.168	376.67
245.633	388.25
246.099	374.41
246.564	376.96
247.029	390.23
247.494	353.79
247.959	386.84
248.424	382.32
248.889	352.38
249.353	382.61
249.818	380.35
250.283	359.44
250.748	351.25
251.212	370.46
251.677	374.13
252.141	396.73
252.606	384.3
253.07	375.26
253.535	366.5
253.999	381.76
254.463	389.38
254.927	382.89
255.392	385.71
255.856	389.38
256.32	388.82
256.784	390.23
257.248	375.54
257.712	386.28
258.176	404.35
258.64	375.26
259.103	400.4
259.567	393.06
260.031	388.54
260.495	364.81
260.958	367.63
261.422	377.24
261.885	392.77
262.349	367.07
262.812	384.58
263.275	385.43
263.739	394.75
264.202	364.24
264.665	371.87
265.128	402.94
265.591	398.42
266.054	353.22
266.517	393.06
266.98	368.48
267.443	410.56
267.906	385.15
268.369	406.33
268.832	386.84
269.294	372.44
269.757	376.39
270.22	394.19
270.682	405.76
271.145	385.43
271.607	403.5
272.07	381.19
272.532	391.08
272.994	376.96
273.456	403.5
273.919	414.23
274.381	383.17
274.843	418.75
275.305	385.71
275.767	407.74
276.229	371.31
276.691	391.36
277.153	385.43
277.614	384.02
278.076	376.96
278.538	410.85
279	395.03
279.461	394.19
279.923	391.08
280.384	383.74
280.846	377.52
281.307	421.01
281.769	392.49
282.23	391.36
282.691	407.46
283.152	388.25
283.613	407.18
284.075	396.73
284.536	397.29
284.997	401.25
285.458	351.25
285.918	415.08
286.379	413.67
286.84	408.59
287.301	398.14
287.762	393.62
288.222	402.66
288.683	418.75
289.143	391.36
289.604	398.14
290.064	398.99
290.525	397.86
290.985	398.14
291.445	404.63
291.906	379.5
292.366	409.43
292.826	405.2
293.286	429.76
293.746	413.67
294.206	406.33
294.666	409.15
295.126	420.16
295.586	400.4
296.046	403.22
296.506	417.62
296.965	393.06
297.425	414.23
297.884	396.44
298.344	399.83
298.804	415.65
299.263	401.81
299.722	391.64
300.182	385.43
300.641	404.92
301.1	382.61
301.559	406.33
302.019	408.31
302.478	397.86
302.937	396.73
303.396	405.76
303.855	422.99
304.314	417.62
304.772	408.87
305.231	373.85
305.69	416.21
306.149	407.18
306.607	403.79
307.066	424.4
307.524	389.1
307.983	384.02
308.441	410.28
308.9	457.42
309.358	422.99
309.816	415.08
310.275	426.37
310.733	395.32
311.191	387.69
311.649	425.53
312.107	407.46
312.565	407.46
313.023	398.42
313.481	436.54
313.939	371.59
314.397	418.19
314.854	420.73
315.312	425.53
315.77	402.09
316.227	424.4
316.685	394.47
317.142	424.68
317.6	403.5
318.057	420.45
318.514	404.63
318.972	404.07
319.429	447.54
319.886	440.49
320.343	397.86
320.8	406.33
321.257	395.88
321.714	406.61
322.171	408.31
322.628	419.88
323.085	383.17
323.542	417.9
323.998	417.9
324.455	401.25
324.912	419.88
325.368	421.29
325.825	438.79
326.281	411.69
326.738	405.76
327.194	405.76
327.65	439.64
328.107	418.75
328.563	413.39
329.019	413.11
329.475	376.39
329.931	428.63
330.387	417.62
330.843	454.32
331.299	400.12
331.755	408.31
332.211	404.35
332.666	404.92
333.122	405.48
333.578	408.59
334.033	408.87
334.489	405.76
334.944	395.88
335.4	391.64
335.855	429.2
336.31	416.21
336.766	419.03
337.221	398.14
337.676	420.16
338.131	406.33
338.586	383.45
339.041	423.83
339.496	440.77
339.951	388.82
340.406	409.72
340.861	410.28
341.316	415.08
341.771	401.53
342.225	410.56
342.68	414.52
343.134	413.11
343.589	412.26
344.043	419.88
344.498	394.19
344.952	395.88
345.406	421.86
345.861	401.53
346.315	422.7
346.769	413.39
347.223	434
347.677	413.67
348.131	411.13
348.585	430.61
349.039	426.94
349.493	394.47
349.947	413.39
350.401	411.41
350.854	383.17
351.308	420.73
351.762	411.13
352.215	438.23
352.669	439.08
353.122	436.54
353.575	403.5
354.029	417.34
354.482	415.65
354.935	406.89
355.388	416.21
355.842	426.09
356.295	416.21
356.748	421.58
357.201	410.56
357.654	418.75
358.106	421.01
358.559	424.96
359.012	452.34
359.465	408.31
359.917	433.71
360.37	385.15
360.823	403.5
361.275	419.88
361.728	410.56
362.18	419.03
362.632	414.52
363.085	434.56
363.537	391.36
363.989	402.09
364.441	415.36
364.893	406.89
365.345	423.83
365.797	417.9
366.249	403.22
366.701	413.39
367.153	426.94
367.605	419.6
368.057	428.91
368.508	417.9
368.96	430.33
369.411	414.52
369.863	430.89
370.314	437.38
370.766	437.67
371.217	415.65
371.669	428.35
372.12	472.66
372.571	432.58
373.022	407.74
373.473	415.93
373.924	402.38
374.375	427.22
374.826	421.86
375.277	422.42
375.728	427.5
376.179	434.28
376.63	422.99
377.08	411.41
377.531	409.72
377.981	422.99
378.432	409.15
378.883	423.27
379.333	414.52
379.783	428.35
380.234	409.43
380.684	439.08
381.134	456.01
381.584	429.48
382.034	421.01
382.485	424.96
382.935	434.84
383.385	411.13
383.834	448.95
384.284	450.65
384.734	449.52
385.184	424.12
385.634	421.29
386.083	442.46
386.533	441.9
386.982	435.41
387.432	424.68
387.881	445.85
388.331	400.68
388.78	411.98
389.229	426.66
389.679	445.29
390.128	416.21
390.577	435.97
391.026	432.87
391.475	446.7
391.924	451.49
392.373	436.25
392.822	421.29
393.27	430.33
393.719	439.92
394.168	414.8
394.617	428.91
395.065	425.53
395.514	431.74
395.962	442.18
396.411	430.89
396.859	418.75
397.307	435.41
397.756	450.37
398.204	432.58
398.652	455.73
399.1	450.37
399.548	436.82
399.996	447.26
400.444	477.17
400.892	446.98
401.34	461.65
401.788	442.18
402.236	457.14
402.683	448.67
403.131	455.73
403.579	448.39
404.026	445
404.474	471.53
404.921	438.79
405.369	471.81
405.816	469.84
406.263	470.4
406.71	466.73
407.158	497.2
407.605	468.71
408.052	478.86
408.499	492.12
408.946	500.58
409.393	516.09
409.84	523.14
410.286	486.76
410.733	527.09
411.18	533.01
411.626	585.14
412.073	608.8
412.52	679.17
412.966	793.87
413.413	909.24
413.859	1082.94
414.305	1271.61
414.752	1548.6
415.198	1908.01
415.644	2292.81
416.09	2749.55
416.536	3298.62
416.982	3928.91
417.428	4618.78
417.874	5377.32
418.32	6195.95
418.766	7043.89
419.211	8117.99
419.657	8940.52
420.103	10209.29
420.548	10973.08
420.994	12229.81
421.439	13344.6
421.885	14338.9
422.33	15718.8
422.776	16877.1
423.221	17715.84
423.666	18969.88
424.111	20291.31
424.556	21188.85
425.001	22684.73
425.446	23970
425.891	25156.96
426.336	26024.03
426.781	27204
427.226	29285.08
427.671	29969.85
428.115	30769.13
428.56	32364.33
429.005	33848.77
429.449	34382.25
429.894	35828.54
430.338	36800.93
430.782	36928.67
431.227	38484.3
431.671	38898.65
432.115	40320.89
432.559	41394.04
433.003	41113.47
433.447	42019.75
433.891	42478.61
434.335	42841.72
434.779	43513.43
435.223	43712.46
435.667	43841.67
436.111	44342.76
436.554	44193.96
436.998	43707.97
437.442	43867.92
437.885	45902.89
438.328	44328.73
438.772	44644.47
439.215	45080.46
439.659	44783.83
440.102	45132.05
440.545	44448.54
440.988	44332.48
441.431	45171.31
441.874	44611.59
442.317	45040.21
442.76	44439.77
443.203	43948.94
443.646	44575.96
444.089	44252.06
444.531	44833.06
444.974	43514.18
445.417	44749.67
445.859	43638.52
446.302	44840.1
446.744	44081.3
447.186	45250.12
447.629	44153.39
448.071	44197.96
448.513	44407.68
448.956	45623.75
449.398	44900.66
449.84	43707.47
450.282	44194.21
450.724	45019.08
451.166	44553.63
451.607	44424.22
452.049	44530.3
452.491	45613.4
452.933	45125.75
453.374	45710.85
453.816	46151.12
454.257	45821.75
454.699	46825.29
455.14	46516.49
455.582	46387.33
456.023	46379.21
456.464	46395.7
456.905	46890.95
457.347	46959.95
457.788	45947.9
458.229	46113.64
458.67	47093.99
459.111	45334.76
459.552	45319.89
459.992	45182.64
460.433	45015.06
460.874	44081.05
461.315	45171.31
461.755	44383.61
462.196	43864.92
462.636	43081.02
463.077	42710.09
463.517	42880.3
463.957	43233.79
464.398	42774.78
464.838	42803.14
465.278	41877.88
465.718	42110.56
466.158	41089.98
466.598	41414.09
467.038	40947.82
467.478	41389.33
467.918	41502.72
468.358	40828.47
468.798	40400.58
469.237	40383.31
469.677	40425.75
470.117	41194.84
470.556	38823.7
470.996	39362.86
471.435	39560.22
471.874	40129.52
472.314	39839.96
472.753	39051.52
473.192	39232.98
473.631	38800.36
474.07	38965.74
474.509	38976.55
474.948	39275.53
475.387	38704.56
475.826	37781.49
476.265	39299.64
476.704	38896.68
477.143	39275.53
477.581	38970.16
478.02	39541.02
478.458	38282.3
478.897	38929.12
479.335	40002.58
479.774	39330.88
480.212	39662.14
480.65	39604.29
481.089	39232
481.527	38860.56
481.965	38210.9
482.403	40286.36
482.841	39961.18
483.279	39942.69
483.717	40107.58
484.155	39545.95
484.592	39902.53
485.03	40105.61
485.468	39154.29
485.905	39273.07
486.343	39795.37
486.781	39227.57
487.218	38558.93
487.655	38570.72
488.093	37630.52
488.53	38980.73
488.967	38382.18
489.405	38050.47
489.842	37352.46
490.279	37355.16
490.716	36939.19
491.153	37305.19
491.59	36821.73
492.027	36260.9
492.463	35846.38
492.9	35110.99
493.337	35121.49
493.773	35142.73
494.21	34361.51
494.647	34062.68
495.083	33425.65
495.519	32939.7
495.956	32931.41
496.392	32375.3
496.828	32202.69
497.265	31469.29
497.701	31557.55
498.137	31412.47
498.573	30404.43
499.009	30890.11
499.445	30236.33
499.881	29791.2
500.316	30102.85
500.752	29152.96
501.188	28822.2
501.624	28819.26
502.059	27703.11
502.495	27593.48
502.93	27550.4
503.366	27622.11
503.801	27052.65
504.236	26768.46
504.672	26508.9
505.107	25990.41
505.542	25568.45
505.977	25560.84
506.412	25154.26
506.847	25459.4
507.282	24791.63
507.717	24509.46
508.152	24511.18
508.587	24227.37
509.021	23520.44
509.456	23300.68
509.891	23349.03
510.325	23421.79
510.76	22922.32
511.194	22769.95
511.628	22802.06
512.063	22233.16
512.497	22281.14
512.931	21771.98
513.366	21544.17
513.8	21558.54
514.234	20934.45
514.668	20956.27
515.102	21106.3
515.536	20352.41
515.969	20486.27
516.403	20109.93
516.837	19653.4
517.271	19869.79
517.704	19321.62
518.138	19235.95
518.571	19022.21
519.005	18735.05
519.438	18685.43
519.871	18498.84
520.305	18222.53
520.738	18074.44
521.171	17563.8
521.604	17697.34
522.037	17469.99
522.47	17225.24
522.903	16960.28
523.336	16785.38
523.769	16718.7
524.202	16218.98
524.634	16253.87
525.067	16068.07
525.5	15841.21
525.932	15814.07
526.365	15408.16
526.797	15269.48
527.23	15256.39
527.662	14646.04
528.094	14571.87
528.527	14487.84
528.959	14200.24
529.391	14061.27
529.823	13560.15
530.255	13648.24
530.687	13322.3
531.119	13198.86
531.551	13036.04
531.982	12812.45
532.414	12559.43
532.846	12324.72
533.277	12214.28
533.709	11871.94
534.14	11781.43
534.572	11596.73
535.003	11543.38
535.435	11334.2
535.866	11177.76
536.297	10839.42
536.728	10896.27
537.159	10804.06
537.59	10557.19
538.022	10488.69
538.452	10270.19
538.883	10048.6
539.314	10005.38
539.745	9696.11
540.176	9723.17
540.606	9389.9
541.037	9402.81
541.468	9296.4
541.898	9100.71
542.328	9084.41
542.759	8887.43
543.189	8796.74
543.619	8697.71
544.05	8565.39
544.48	8337.57
544.91	8264.76
545.34	8112.26
545.77	7980.19
546.2	7961.16
546.63	7819.29
547.06	7712.01
547.489	7606.21
547.919	7400.89
548.349	7475.47
548.778	7387.8
549.208	7279.9
549.637	7147
550.067	6996.37
550.496	7051.76
550.926	6928.6
551.355	6740.07
551.784	6739.81
552.213	6577.34
552.642	6514.35
553.071	6466.62
553.5	6434.7
553.929	6190.4
554.358	6226.35
554.787	6031.66
555.216	6092.01
555.645	5958.29
556.073	5951.41
556.502	5837.95
556.93	5684.01
557.359	5616.79
557.787	5577.98
558.216	5549.79
558.644	5465.45
559.072	5448.42
559.5	5374.12
559.929	5333.89
560.357	5296.04
560.785	5224.31
561.213	5167.74
561.641	5100.98
562.068	5097.24
562.496	5050.22
562.924	5023.5
563.352	4977.51
563.779	4918.93
564.207	4953.97
564.634	4818.8
565.062	4840.5
565.489	4733.32
565.917	4740.83
566.344	4690.69
566.771	4652.33
567.198	4593.28
567.625	4520.23
568.053	4470.78
568.48	4486.37
568.907	4423.19
569.333	4363.46
569.76	4211.02
570.187	4289.7
570.614	4133.09
571.04	4310.43
571.467	4048.07
571.894	4014.04
572.32	3873.47
572.747	3824.76
573.173	3793.62
573.599	3709.37
574.026	3593.56
574.452	3612.02
574.878	3554.2
575.304	3475.7
575.73	3433.85
576.156	3363.4
576.582	3365.03
577.008	3265.66
577.434	3235.97
577.86	3142.18
578.285	3152.82
578.711	3063.85
579.137	3036
579.562	2944.45
579.988	2975.89
580.413	2874.15
580.838	2831.18
581.264	2850.07
581.689	2777.22
582.114	2721.59
582.539	2710.9
582.964	2658.51
583.39	2618.17
583.814	2577.81
584.239	2497.03
584.664	2541.55
585.089	2496.48
585.514	2440.38
585.939	2419.2
586.363	2361.67
586.788	2342.4
587.212	2297.22
587.637	2275.17
588.061	2237.95
588.485	2161.25
588.91	2165.11
589.334	2117.35
589.758	2153.24
590.182	2067.07
590.606	2048.83
591.03	2047.17
591.454	1993.52
591.878	2005.14
592.302	2008.74
592.726	1979.97
593.15	1909.12
593.573	1897.76
593.997	1853.72
594.42	1836.26
594.844	1831.27
595.267	1786.08
595.691	1834.04
596.114	1752.51
596.537	1751.68
596.96	1713.11
597.384	1751.68
597.807	1710.05
598.23	1689.51
598.653	1660.62
599.076	1646.73
599.499	1656.18
599.921	1647.57
600.344	1604.77
600.767	1566.96
601.189	1587.54
601.612	1583.37
602.034	1568.35
602.457	1542.2
602.879	1542.76
603.302	1561.4
603.724	1542.2
604.146	1535.81
604.568	1492.39
604.991	1518
605.413	1522.45
605.835	1495.73
606.257	1496.85
606.678	1460.37
607.1	1480.7
607.522	1455.36
607.944	1450.07
608.365	1443.38
608.787	1418.31
609.209	1404.66
609.63	1370.65
610.051	1386.26
610.473	1371.49
610.894	1348.9
611.315	1312.08
611.737	1316.54
612.158	1320.73
612.579	1275.24
613	1288.36
613.421	1260.16
613.842	1277.19
614.263	1242.29
614.683	1210.17
615.104	1246.48
615.525	1196.2
615.945	1194.24
616.366	1170.49
616.787	1164.62
617.207	1150.08
617.627	1110.64
618.048	1092.46
618.468	1138.33
618.888	1108.68
619.308	1082.94
619.728	1034.79
620.148	1077.62
620.568	1050.75
620.988	1025.27
621.408	1020.79
621.828	1031.15
622.248	994.46
622.668	995.02
623.087	984.93
623.507	996.7
623.926	978.77
624.346	933.64
624.765	969.8
625.185	937.28
625.604	937.56
626.023	939.52
626.442	899.98
626.861	926.91
627.28	881.46
627.699	899.98
628.118	882.3
628.537	889.88
628.956	885.39
629.375	852.56
629.794	844.14
630.212	867.99
630.631	852.56
631.049	855.64
631.468	811.28
631.886	832.62
632.305	814.93
632.723	819.71
633.141	791.62
633.559	797.52
633.978	801.17
634.396	773.08
634.814	792.18
635.232	771.39
635.65	773.36
636.067	768.02
636.485	752
636.903	745.53
637.321	735.13
637.738	765.21
638.156	738.23
638.573	726.98
638.991	723.32
639.408	700.55
639.825	701.67
640.243	727.82
640.66	698.86
641.077	721.07
641.494	715.45
641.911	669.04
642.328	703.92
642.745	657.22
643.162	693.79
643.579	645.96
643.995	696.89
644.412	696.04
644.829	657.5
645.245	649.9
645.662	653.56
646.078	663.69
646.495	641.74
646.911	658.06
647.327	651.59
647.743	663.13
648.159	606.26
648.576	631.32
648.992	614.43
649.408	612.74
649.824	622.88
650.239	620.9
650.655	630.76
651.071	630.76
651.487	630.48
651.902	596.12
652.318	593.03
652.733	594.15
653.149	583.73
653.564	603.73
653.979	615.84
654.395	575.28
654.81	595.56
655.225	612.74
655.64	569.64
656.055	590.21
656.47	578.1
656.885	587.39
657.3	573.87
657.715	605.42
658.13	593.31
658.544	569.64
658.959	564.85
659.374	568.52
659.788	584.01
660.202	561.47
660.617	551.89
661.031	562.88
661.445	538.93
661.86	535.82
662.274	547.94
662.688	542.87
663.102	521.73
663.516	553.58
663.93	540.9
664.344	536.95
664.758	509.61
665.171	551.04
665.585	516.65
665.999	533.01
666.412	520.88
666.826	517.22
667.239	512.71
667.653	514.96
668.066	550.2
668.479	544
668.892	554.43
669.306	519.76
669.719	518.35
670.132	521.73
670.545	504.53
670.958	500.86
671.37	509.32
671.783	521.45
672.196	511.86
672.609	506.22
673.021	504.81
673.434	502.84
673.846	510.17
674.259	492.12
674.671	537.8
675.084	494.09
675.496	503.68
675.908	498.89
676.32	495.5
676.732	489.02
677.144	526.8
677.556	488.45
677.968	506.22
678.38	475.76
678.792	486.2
679.204	501.15
679.615	498.32
680.027	501.71
680.439	478.02
680.85	465.6
681.262	473.78
681.673	478.86
682.084	481.12
682.496	469.55
682.907	492.12
683.318	491.84
683.729	479.14
684.14	497.48
684.551	463.63
684.962	452.06
685.373	465.89
685.784	456.01
686.194	454.6
686.605	474.35
687.016	460.24
687.426	441.05
687.837	483.66
688.247	485.35
688.657	452.06
689.068	472.09
689.478	466.73
689.888	424.4
690.298	479.99
690.708	443.31
691.118	450.65
691.528	472.09
691.938	469.84
692.348	455.45
692.758	452.06
693.168	468.14
693.577	465.04
693.987	485.91
694.396	433.43
694.806	461.37
695.215	455.16
695.625	456.01
696.034	430.33
696.443	468.99
696.852	458.55
697.262	440.49
697.671	459.11
698.08	442.75
698.489	472.94
698.897	435.69
699.306	441.33
699.715	433.15
700.124	430.33
700.532	462.78
700.941	447.54
701.35	420.16
701.758	454.6
702.166	428.91
702.575	441.33
702.983	456.01
703.391	459.11
703.799	420.73
704.208	456.29
704.616	428.35
705.024	447.54
705.432	434.28
705.839	439.92
706.247	438.51
706.655	415.08
707.063	449.24
707.47	438.23
707.878	421.86
708.285	426.94
708.693	421.29
709.1	433.15
709.508	436.25
709.915	448.39
710.322	415.93
710.729	458.55
711.136	441.9
711.543	422.42
711.95	421.86
712.357	419.03
712.764	407.18
713.171	405.48
713.578	428.07
713.984	399.83
714.391	443.59
714.797	386.28
715.204	434.56
715.61	415.93
716.017	406.05
716.423	421.29
716.829	423.27
717.236	408.87
717.642	420.45
718.048	437.38
718.454	437.67
718.86	416.49
719.266	422.99
719.671	439.36
720.077	402.66
720.483	421.86
720.889	445.85
721.294	417.9
721.7	435.69
722.105	444.72
722.511	440.77
722.916	449.8
723.321	414.52
723.726	408.02
724.132	425.25
724.537	423.83
724.942	422.14
725.347	432.58
725.752	441.9
726.156	388.82
726.561	424.12
726.966	413.67
727.371	416.49
727.775	417.62
728.18	432.02
728.584	432.3
728.989	434.84
729.393	412.54
729.798	402.66
730.202	415.93
730.606	420.73
731.01	430.61
731.414	402.66
731.818	427.22
732.222	406.61
732.626	409.15
733.03	403.79
733.434	414.52
733.837	408.02
734.241	440.77
734.645	428.91
735.048	459.96
735.452	404.07
735.855	434.56
736.258	418.75
736.662	396.44
737.065	397.57
737.468	400.68
737.871	399.27
738.274	426.37
738.677	409.43
739.08	440.49
739.483	399.83
739.886	426.37
740.289	424.68
740.691	407.18
741.094	414.52
741.497	404.35
741.899	413.39
742.302	419.32
742.704	420.45
743.106	412.82
743.508	394.75
743.911	402.94
744.313	421.58
744.715	411.98
745.117	396.73
745.519	403.79
745.921	409.43
746.323	388.82
746.724	414.8
747.126	421.58
747.528	403.79
747.929	396.73
748.331	413.11
748.732	399.55
749.134	416.49
749.535	400.68
749.936	405.2
750.338	410.28
750.739	395.03
751.14	411.69
751.541	390.8
751.942	402.94
752.343	407.18
752.744	406.89
753.144	421.29
753.545	411.69
753.946	414.8
754.346	405.48
754.747	395.32
755.148	401.25
755.548	400.4
755.948	408.31
756.349	410
756.749	382.04
757.149	434.56
757.549	397.01
757.949	421.01
758.349	407.46
758.749	396.73
759.149	399.55
759.549	410.85
759.949	385.71
760.348	387.41
760.748	387.12
761.148	422.7
761.547	386.84
761.947	416.78
762.346	393.34
762.745	391.64
763.145	406.33
763.544	404.07
763.943	404.63
764.342	409.72
764.741	399.55
765.14	398.7
765.539	384.02
765.938	374.98
766.336	401.25
766.735	372.44
767.134	370.74
767.532	410
767.931	408.02
768.329	402.94
768.728	395.32
769.126	382.32
769.525	411.98
769.923	422.99
770.321	405.2
770.719	384.02
771.117	421.58
771.515	403.79
771.913	407.18
772.311	384.3
772.709	386
773.106	398.42
773.504	409.72
773.902	420.73
774.299	432.02
774.697	411.69
775.094	413.39
775.491	379.5
775.889	393.06
776.286	376.11
776.683	388.25
777.08	421.58
777.477	401.81
777.874	378.37
778.271	417.06
778.668	393.9
779.065	399.27
779.462	394.75
779.858	400.96
780.255	387.97
780.652	417.06
781.048	415.93
781.444	384.02
781.841	382.89
782.237	393.9
782.633	388.54
783.03	399.83
783.426	410.56
783.822	389.38
784.218	388.25
784.614	413.67
785.01	405.2
785.405	397.01
785.801	413.95
786.197	387.97
786.593	419.03
786.988	417.62
787.384	394.47
787.779	389.95
788.174	373.85
788.57	406.61
788.965	392.21
789.36	415.08
789.755	408.31
790.15	415.36
790.545	423.55
790.94	409.15
791.335	399.55
791.73	405.2
792.125	398.7
792.52	407.18
792.914	396.44
793.309	400.96
793.703	404.63
794.098	398.7
794.492	426.37
794.887	406.61
795.281	411.41
795.675	382.89
796.069	377.24
796.463	408.87
796.857	393.62
797.251	378.93
797.645	391.08
798.039	391.64
798.433	375.26
798.826	404.63
799.22	405.2
799.614	384.58
800.007	411.98
800.401	407.18
800.794	404.35
801.187	395.32
801.581	400.4
801.974	388.82
802.367	398.7
802.76	380.91
803.153	389.95
803.546	387.97
803.939	391.93
804.332	418.19
804.725	397.86
805.117	405.48
805.51	370.18
805.903	401.81
806.295	409.43
806.688	392.49
807.08	389.67
807.472	397.86
807.865	393.34
808.257	412.82
808.649	389.95
809.041	384.02
809.433	399.55
809.825	394.75
810.217	380.35
810.609	392.49
811.001	401.81
811.392	389.1
811.784	386.56
812.175	405.2
812.567	395.88
812.958	387.69
813.35	394.75
813.741	400.12
814.132	386.56
814.524	400.68
814.915	397.29
815.306	410
815.697	380.63
816.088	389.67
816.479	408.31
816.87	387.12
817.26	375.26
817.651	403.79
818.042	413.39
818.432	403.79
818.823	384.02
819.213	400.4
819.604	393.62
819.994	403.79
820.384	397.57
820.775	393.9
821.165	399.55
821.555	405.76
821.945	384.02
822.335	416.78
822.725	397.29
823.114	402.09
823.504	375.26
823.894	400.4
824.284	396.44
824.673	398.7
825.063	402.38
825.452	387.41
825.842	369.89
826.231	384.87
826.62	381.19
827.009	387.97
827.399	393.34
827.788	424.96
828.177	378.09
828.566	404.07
828.954	398.42
829.343	403.22
829.732	386.84
830.121	382.89
830.509	401.53
830.898	397.57
831.286	415.36
831.675	411.98
832.063	364.24
832.452	415.08
832.84	374.13
833.228	397.01
833.616	400.96
834.004	407.46
834.392	388.25
834.78	401.81
835.168	383.74
835.556	415.36
835.944	384.87
836.331	406.61
836.719	372.15
837.107	390.51
837.494	392.21
837.881	406.61
838.269	397.57
838.656	391.36
839.043	373.57
839.431	388.82
839.818	383.45
840.205	385.15
840.592	396.16
840.979	412.82
841.366	387.69
841.752	390.51
842.139	402.38
842.526	390.51
842.912	425.25
843.299	387.97
843.685	393.34
844.072	387.12
844.458	389.95
844.844	404.92
845.231	407.18
845.617	391.08
846.003	404.92
846.389	388.25
846.775	411.69
847.161	394.75
847.547	389.67
847.933	363.68
848.318	387.69
848.704	355.2
849.09	389.38
849.475	392.21
849.861	394.19
850.246	387.69
850.631	372.72
851.017	418.75
851.402	398.14
851.787	393.62
852.172	426.09
852.557	382.89
852.942	395.88
853.327	390.23
853.712	397.57
854.097	390.51
854.481	384.87
854.866	371.02
855.25	395.88
855.635	368.48
856.019	404.92
856.404	422.14
856.788	390.23
857.172	370.18
857.557	382.32
857.941	404.63
858.325	386
858.709	376.96
859.093	387.41
859.477	410
859.86	389.67
860.244	387.12
860.628	391.64
861.012	382.61
861.395	406.33
861.779	383.45
862.162	401.81
862.545	349.55
862.929	400.96
863.312	394.47
863.695	389.67
864.078	368.48
864.461	401.25
864.844	410.56
865.227	382.89
865.61	397.01
865.993	389.67
866.376	391.36
866.758	377.52
867.141	381.76
867.523	385.71
867.906	404.35
868.288	376.11
868.671	389.1
869.053	398.14
869.435	400.4
869.817	419.32
870.199	403.22
870.581	367.92
870.963	385.71
871.345	380.35
871.727	381.48
872.109	372.44
872.491	373.85
872.872	392.77
873.254	405.76
873.635	380.63
874.017	413.95
874.398	380.91
874.779	405.76
875.161	371.02
875.542	372.44
875.923	382.61
876.304	378.37
876.685	376.39
877.066	393.9
877.447	387.12
877.828	358.88
878.208	392.49
878.589	378.65
878.97	393.62
879.35	385.71
879.731	384.02
880.111	398.99
880.491	390.8
880.872	403.79
881.252	407.46
881.632	387.69
882.012	379.22
882.392	372.72
882.772	383.17
883.152	386.28
883.532	366.79
883.912	384.87
884.291	390.51
884.671	352.09
885.051	370.18
885.43	395.03
885.81	380.06
886.189	389.38
886.568	391.93
886.948	389.95
887.327	397.01
887.706	361.14
888.085	384.58
888.464	378.37
888.843	387.69
889.222	390.51
889.601	373.57
889.979	384.02
890.358	409.43
890.737	360.85
891.115	406.33
891.494	385.15
891.872	393.06
892.25	386
892.629	406.05
893.007	363.4
893.385	417.62
893.763	371.87
894.141	389.67
894.519	395.03
894.897	384.02
895.275	381.19
895.653	391.93
896.03	387.41
896.408	398.7
896.786	380.91
897.163	405.2
897.541	384.02
897.918	371.59
898.295	369.89
898.673	382.89
899.05	391.93
899.427	404.92
899.804	391.64
900.181	388.82
900.558	421.01
900.935	380.35
901.312	380.63
901.688	362.27
902.065	398.14
902.442	384.02
902.818	374.13
903.195	358.03
903.571	396.73
903.947	404.35
904.324	400.68
904.7	381.48
905.076	381.19
905.452	371.59
905.828	384.3
906.204	392.49
906.58	388.54
906.956	379.78
907.331	404.63
907.707	370.18
908.083	372.15
908.458	371.02
908.834	380.63
909.209	410.28
909.585	373.28
909.96	395.03
910.335	349.55
910.71	385.43
911.086	387.69
911.461	397.86
911.836	398.7
912.21	386.28
912.585	363.68
912.96	402.94
913.335	374.13
913.709	390.8
914.084	401.81
914.459	380.91
914.833	369.61
915.207	382.04
915.582	396.44
915.956	369.33
916.33	395.88
916.704	391.36
917.078	422.99
917.452	377.24
917.826	381.48
918.2	377.8
918.574	372.72
918.948	356.9
919.321	389.38
919.695	385.15
920.068	382.89
920.442	367.07
920.815	358.03
921.189	381.76
921.562	388.54
921.935	396.16
922.308	378.65
922.681	364.53
923.054	374.41
923.427	380.35
923.8	386.84
924.173	386.28
924.546	395.88
924.919	398.42
925.291	357.74
925.664	393.9
926.036	398.14
926.409	405.76
926.781	375.26
927.153	391.36
927.526	380.63
927.898	377.52
928.27	389.38
928.642	397.01
929.014	395.6
929.386	404.07
929.758	383.74
930.129	377.8
930.501	412.26
930.873	403.79
931.244	376.11
931.616	359.44
931.987	398.14
932.359	385.43
932.73	387.41
933.101	387.41
933.472	374.41
933.843	383.45
934.214	364.81
934.585	398.42
934.956	382.04
935.327	375.83
935.698	376.67
936.069	413.11
936.439	369.89
936.81	365.66
937.18	383.17
937.551	365.09
937.921	373.85
938.292	365.94
938.662	411.13
939.032	382.32
939.402	375.26
939.772	383.45
940.142	374.13
940.512	371.02
940.882	376.67
941.252	376.39
941.621	398.7
941.991	387.69
942.361	382.04
942.73	385.15
943.1	384.02
943.469	387.97
943.838	380.63
944.208	374.7
944.577	380.63
944.946	383.45
945.315	375.26
945.684	391.36
946.053	365.94
946.422	376.11
946.791	376.11
947.159	374.13
947.528	396.44
947.897	356.61
948.265	378.37
948.634	363.68
949.002	386
949.371	388.82
949.739	409.15
950.107	376.67
950.475	389.95
950.843	401.25
951.211	352.38
951.579	366.5
951.947	383.17
952.315	379.5
952.683	363.96
953.05	361.7
953.418	367.35
953.785	388.25
954.153	373
954.52	407.74
954.888	369.61
955.255	377.24
955.622	376.96
955.989	372.15
956.356	375.54
956.723	356.05
957.09	370.74
957.457	382.32
957.824	392.49
958.191	376.67
958.557	369.05
958.924	385.43
959.291	392.21
959.657	389.1
960.023	394.47
960.39	358.88
960.756	378.93
961.122	382.61
961.488	364.81
961.855	401.81
962.221	383.17
962.586	373.28
962.952	392.21
963.318	380.06
963.684	399.83
964.05	367.07
964.415	366.22
964.781	391.64
965.146	376.11
965.512	393.34
965.877	371.59
966.242	376.67
966.608	378.93
966.973	385.15
967.338	384.58
967.703	368.76
968.068	389.38
968.433	387.12
968.797	397.29
969.162	377.52
969.527	389.67
969.891	380.06
970.256	400.12
970.62	382.61
970.985	382.04
971.349	368.2
971.714	384.87
972.078	353.51
972.442	398.7
972.806	356.33
973.17	384.3
973.534	389.95
973.898	377.8
974.262	381.48
974.625	378.93
974.989	360.01
975.353	375.26
975.716	364.53
976.08	363.68
976.443	403.79
976.806	350.68
977.17	364.53
977.533	380.06
977.896	374.41
978.259	392.77
978.622	400.4
978.985	357.46
979.348	395.32
979.711	394.47
980.073	366.5
980.436	376.39
980.799	375.54
981.161	378.93
981.524	386.84
981.886	365.09
982.248	360.01
982.611	386.28
982.973	385.71
983.335	384.87
983.697	380.63
984.059	378.93
984.421	395.32
984.783	364.24
985.145	407.74
985.506	344.75
985.868	380.91
986.23	384.87
986.591	396.73
986.953	347.01
987.314	392.49
987.675	369.89
988.037	525.39
988.398	368.76
988.759	347.29
989.12	376.96
989.481	382.32
989.842	381.76
990.203	372.72
990.564	393.9
990.924	382.32
991.285	474.07
991.646	377.52
992.006	390.51
992.367	367.07
992.727	382.04
993.087	389.95
993.448	382.89
993.808	373.28
994.168	380.06
994.528	396.73
994.888	387.12
995.248	378.93
995.608	372.15
995.967	380.91
996.327	363.96
996.687	373
997.046	369.05
997.406	369.61
997.765	376.39
998.125	387.97
998.484	378.37
998.843	381.48
999.202	386.84
999.561	393.34
999.92	341.07
1000.279	356.9
1000.638	381.48
1000.997	386.56
1001.356	382.61
1001.715	384.02
1002.073	398.14
1002.432	386.84
1002.79	381.19
1003.149	373.57
1003.507	387.41
1003.865	356.61
1004.224	361.98
1004.582	360.85
1004.94	393.9
1005.298	383.17
1005.656	396.16
1006.014	350.68
1006.371	383.45
1006.729	373.57
1007.087	387.69
1007.445	402.09
1007.802	393.06
1008.16	354.35
1008.517	373
1008.874	380.63
1009.232	379.5
1009.589	366.5
1009.946	382.89
1010.303	382.32
1010.66	369.61
1011.017	370.46
1011.374	391.08
1011.731	371.59
1012.087	370.46
1012.444	396.16
1012.801	383.17
1013.157	371.59
1013.513	403.79
1013.87	376.67
1014.226	350.12
1014.582	391.64
1014.939	353.51
1015.295	368.48
1015.651	374.98
1016.007	368.48
1016.363	357.46
1016.719	385.43
1017.074	390.23
1017.43	386.28
1017.786	361.14
1018.141	392.77
1018.497	370.46
1018.852	358.31
1019.208	363.68
1019.563	393.62
1019.918	359.44
1020.273	378.65
1020.628	388.54
1020.983	353.79
1021.338	367.07
1021.693	391.36
1022.048	353.22
1022.403	335.42
1022.757	384.87
1023.112	386.28
1023.467	387.41
1023.821	374.41
1024.175	352.38
1024.53	411.13
1024.884	393.62
1025.238	379.78
1025.592	356.61
1025.946	373.28
1026.3	392.77
1026.654	380.91
1027.008	384.02
1027.362	381.48
1027.716	386
1028.069	376.67
1028.423	368.48
1028.777	392.77
1029.13	392.49
1029.483	355.48
1029.837	390.51
1030.19	393.34
1030.543	398.7
1030.896	384.02
1031.249	386
1031.602	354.07
1031.955	390.51
1032.308	385.43
1032.661	370.74
1033.013	374.98
1033.366	394.19
1033.719	362.83
1034.071	388.25
1034.424	382.04
1034.776	356.05
1035.128	397.29
1035.48	384.3
1035.833	402.94
1036.185	353.22
1036.537	353.22
1036.889	353.22
