Data from SCSF78-405_irradiation_FLMS019251_08-39-27-884.txt Node
Date: Fri Feb 22 08:39:27 PST 2019
User: mu3e
Spectrometer: FLMS01925
Trigger mode: 0
Integration Time (sec): 1.206000E-2
Scans to average: 10
Electric dark correction enabled: true
Nonlinearity correction enabled: true
Boxcar width: 0
XAxis mode: Wavelengths
Number of Pixels in Spectrum: 2048
>>>>>Begin Spectral Data<<<<<
187.103	-99.87
187.574	-99.87
188.045	-99.87
188.516	-118.35
188.987	-117.21
189.458	-130.01
189.929	-118.35
190.4	-102.71
190.871	-91.34
191.342	-107.83
191.813	-66.33
192.284	-29.68
192.754	-32.8
193.225	-7.52
193.696	33.92
194.166	44.99
194.637	56.34
195.107	99.73
195.578	111.92
196.048	158.68
196.518	179.93
196.989	148.77
197.459	179.65
197.929	234.86
198.399	278.15
198.869	296.25
199.339	304.16
199.809	332.43
200.279	307.84
200.749	350.52
201.219	346.28
201.689	369.17
202.159	390.92
202.628	396.85
203.098	372.84
203.568	371.43
204.037	389.79
204.507	372.84
204.976	407.58
205.445	413.51
205.915	374.54
206.384	401.37
206.853	401.93
207.323	395.44
207.792	447.95
208.261	399.39
208.73	374.82
209.199	401.09
209.668	396.85
210.137	414.08
210.606	381.03
211.075	366.63
211.543	379.9
212.012	361.82
212.481	400.8
212.95	368.04
213.418	378.21
213.887	380.47
214.355	384.42
214.824	376.8
215.292	372.84
215.76	371.15
216.229	359.85
216.697	334.41
217.165	361.82
217.633	377.93
218.101	355.61
218.569	367.47
219.037	387.25
219.505	332.72
219.973	356.17
220.441	349.39
220.909	368.04
221.377	365.21
221.844	381.03
222.312	359.28
222.78	370.86
223.247	384.14
223.715	347.41
224.182	350.8
224.65	379.06
225.117	384.99
225.584	381.6
226.052	346.57
226.519	350.24
226.986	376.8
227.453	348.83
227.92	390.36
228.387	345.44
228.854	341.2
229.321	373.69
229.788	373.12
230.255	366.06
230.722	357.59
231.189	371.43
231.655	383.01
232.122	379.06
232.589	379.9
233.055	393.74
233.522	365.78
233.988	361.54
234.454	374.25
234.921	366.06
235.387	375.38
235.853	376.51
236.32	360.13
236.786	390.64
237.252	380.47
237.718	377.36
238.184	386.97
238.65	392.33
239.116	407.02
239.582	399.67
240.047	377.93
240.513	389.79
240.979	365.21
241.445	362.11
241.91	379.06
242.376	372.84
242.841	393.74
243.307	403.91
243.772	395.72
244.238	379.9
244.703	366.91
245.168	355.61
245.633	390.64
246.099	405.04
246.564	353.91
247.029	380.75
247.494	377.93
247.959	374.25
248.424	376.51
248.889	379.62
249.353	383.29
249.818	365.78
250.283	366.91
250.748	361.26
251.212	367.19
251.677	373.41
252.141	391.48
252.606	384.99
253.07	357.59
253.535	399.96
253.999	367.47
254.463	371.43
254.927	382.73
255.392	393.74
255.856	387.53
256.32	391.77
256.784	382.45
257.248	379.34
257.712	388.66
258.176	389.79
258.64	389.51
259.103	407.3
259.567	389.23
260.031	394.87
260.495	397.42
260.958	396
261.422	383.86
261.885	379.34
262.349	382.16
262.812	374.25
263.275	391.48
263.739	369.45
264.202	368.89
264.665	403.63
265.128	383.86
265.591	391.2
266.054	406.45
266.517	393.18
266.98	414.08
267.443	386.68
267.906	401.37
268.369	407.86
268.832	410.12
269.294	410.69
269.757	381.88
270.22	399.67
270.682	406.45
271.145	371.15
271.607	399.67
272.07	412.38
272.532	395.72
272.994	392.61
273.456	393.46
273.919	396.85
274.381	407.02
274.843	373.12
275.305	397.42
275.767	385.55
276.229	393.74
276.691	392.9
277.153	385.55
277.614	398.26
278.076	385.55
278.538	384.71
279	403.06
279.461	408.15
279.923	395.44
280.384	414.92
280.846	373.69
281.307	399.39
281.769	383.58
282.23	425.09
282.691	404.19
283.152	405.32
283.613	387.25
284.075	405.61
284.536	386.68
284.997	386.4
285.458	393.74
285.918	417.46
286.379	411.53
286.84	405.61
287.301	415.21
287.762	416.33
288.222	416.9
288.683	409.84
289.143	399.67
289.604	416.9
290.064	394.31
290.525	423.11
290.985	388.66
291.445	396
291.906	400.8
292.366	401.65
292.826	362.39
293.286	384.42
293.746	391.48
294.206	397.98
294.666	392.61
295.126	402.5
295.586	423.67
296.046	389.51
296.506	403.63
296.965	385.84
297.425	405.04
297.884	384.99
298.344	405.04
298.804	391.77
299.263	387.25
299.722	385.84
300.182	409.84
300.641	394.03
301.1	378.49
301.559	399.39
302.019	402.5
302.478	397.13
302.937	392.9
303.396	405.04
303.855	419.16
304.314	406.17
304.772	402.5
305.231	423.39
305.69	402.5
306.149	400.24
306.607	424.24
307.066	415.21
307.524	408.71
307.983	407.86
308.441	427.63
308.9	398.55
309.358	419.16
309.816	414.08
310.275	440.05
310.733	415.77
311.191	394.87
311.649	405.89
312.107	421.98
312.565	406.73
313.023	426.22
313.481	400.24
313.939	417.46
314.397	423.96
314.854	406.45
315.312	432.99
315.77	412.66
316.227	424.24
316.685	382.73
317.142	412.66
317.6	408.99
318.057	416.33
318.514	424.8
318.972	428.19
319.429	410.69
319.886	434.97
320.343	401.93
320.8	415.77
321.257	407.86
321.714	402.5
322.171	403.35
322.628	414.08
323.085	388.1
323.542	398.55
323.998	405.04
324.455	404.48
324.912	420.29
325.368	420
325.825	411.25
326.281	438.64
326.738	403.91
327.194	400.52
327.65	401.65
328.107	409.84
328.563	422.26
329.019	418.59
329.475	425.93
329.931	415.77
330.387	408.15
330.843	410.69
331.299	414.08
331.755	440.61
332.211	410.12
332.666	421.98
333.122	426.78
333.578	427.34
334.033	401.65
334.489	413.51
334.944	455
335.4	435.25
335.855	434.4
336.31	407.02
336.766	412.66
337.221	408.43
337.676	408.71
338.131	412.66
338.586	425.65
339.041	385.27
339.496	418.88
339.951	436.38
340.406	438.07
340.861	412.95
341.316	418.59
341.771	426.78
342.225	433.84
342.68	416.9
343.134	435.25
343.589	410.41
344.043	437.22
344.498	436.38
344.952	437.79
345.406	414.36
345.861	433.27
346.315	403.35
346.769	425.93
347.223	436.1
347.677	415.77
348.131	412.95
348.585	400.24
349.039	432.43
349.493	438.92
349.947	430.45
350.401	442.02
350.854	417.75
351.308	448.23
351.762	428.19
352.215	439.48
352.669	415.77
353.122	431.58
353.575	438.64
354.029	445.69
354.482	449.64
354.935	433.55
355.388	409.28
355.842	415.49
356.295	406.17
356.748	410.97
357.201	421.42
357.654	413.51
358.106	431.01
358.559	422.83
359.012	431.3
359.465	442.3
359.917	425.65
360.37	446.82
360.823	417.75
361.275	401.37
361.728	425.65
362.18	437.51
362.632	439.2
363.085	426.5
363.537	445.41
363.989	402.78
364.441	431.01
364.893	410.69
365.345	434.12
365.797	412.66
366.249	447.1
366.701	434.97
367.153	449.92
367.605	435.53
368.057	429.04
368.508	435.25
368.96	432.99
369.411	421.98
369.863	406.17
370.314	419.44
370.766	418.88
371.217	429.32
371.669	418.88
372.12	431.01
372.571	416.9
373.022	451.62
373.473	428.19
373.924	400.24
374.375	441.18
374.826	428.47
375.277	439.2
375.728	426.78
376.179	430.17
376.63	421.13
377.08	420.29
377.531	449.92
377.981	418.31
378.432	433.84
378.883	440.89
379.333	432.43
379.783	420
380.234	418.59
380.684	440.89
381.134	432.71
381.584	446.26
382.034	431.86
382.485	419.16
382.935	433.84
383.385	444
383.834	459.52
384.284	431.86
384.734	439.2
385.184	415.21
385.634	429.6
386.083	421.98
386.533	431.58
386.982	441.46
387.432	432.14
387.881	434.97
388.331	425.93
388.78	451.9
389.229	446.82
389.679	450.49
390.128	436.94
390.577	456.42
391.026	442.59
391.475	445.69
391.924	457.54
392.373	444
392.822	452.46
393.27	436.94
393.719	453.88
394.168	422.83
394.617	439.76
395.065	430.73
395.514	463.19
395.962	452.75
396.411	444
396.859	446.26
397.307	472.78
397.756	442.3
398.204	471.37
398.652	445.69
399.1	483.5
399.548	454.44
399.996	461.78
400.444	450.21
400.892	458.11
401.34	462.34
401.788	475.6
402.236	483.78
402.683	460.37
403.131	478.7
403.579	467.98
404.026	484.35
404.474	437.22
404.921	479.55
405.369	500.7
405.816	486.88
406.263	473.63
406.71	466.57
407.158	478.7
407.605	464.32
408.052	523.83
408.499	495.35
408.946	520.72
409.393	517.91
409.84	522.7
410.286	527.49
410.733	549.2
411.18	561.31
411.626	602.44
412.073	630.88
412.52	693.36
412.966	793.99
413.413	921.7
413.859	1101.81
414.305	1301.88
414.752	1626.57
415.198	1923.63
415.644	2403.36
416.09	2893.15
416.536	3448.92
416.982	4209.52
417.428	4996.08
417.874	5827.98
418.32	6735.71
418.766	7672.42
419.211	8834.43
419.657	9905.64
420.103	11149.74
420.548	12139.04
420.994	13613.42
421.439	14718.28
421.885	15946.6
422.33	17511.13
422.776	18666.08
423.221	19863.43
423.666	21228.12
424.111	22753.76
424.556	23799.6
425.001	25352.66
425.446	26838.4
425.891	28222.99
426.336	29156.73
426.781	30617.76
427.226	32887.63
427.671	33645.97
428.115	34604.64
428.56	36513.11
429.005	38199.47
429.449	38680.11
429.894	40199.9
430.338	41411.97
430.782	41569.45
431.227	43323.92
431.671	43844.03
432.115	45437.7
432.559	46468.37
433.003	46546.06
433.447	47509.33
433.891	47874.15
434.335	48525.5
434.779	49443.92
435.223	49509.64
435.667	49541.99
436.111	50277.79
436.554	50188.83
436.998	49755.99
437.442	49987.33
437.885	51998.72
438.328	50350.25
438.772	50688.72
439.215	51266.41
439.659	50732.96
440.102	51464.93
440.545	50798.98
440.988	50441.78
441.431	51534.92
441.874	50869.58
442.317	51232.49
442.76	50633.12
443.203	50122.31
443.646	50985.98
444.089	50492.21
444.531	51203.93
444.974	49833.46
445.417	51055.45
445.859	49893.46
446.302	51287.51
446.744	50358.69
447.186	51603.64
447.629	50792.88
448.071	50664.62
448.513	51010.19
448.956	52320.9
449.398	51393.16
449.84	50074.22
450.282	50660.12
450.724	51442.7
451.166	51183.91
451.607	51130.31
452.049	51138.04
452.491	52332.87
452.933	51899.29
453.374	52463.08
453.816	52939.85
454.257	52598.53
454.699	53711.86
455.14	53323.81
455.582	53074.95
456.023	53031.9
456.464	53189.11
456.905	53877.38
457.347	53925.76
457.788	52932.42
458.229	53065.28
458.67	54098.91
459.111	52046.87
459.552	52412.92
459.992	52019.27
460.433	51831.84
460.874	50691.1
461.315	52156.59
461.755	51072.76
462.196	50438.61
462.636	49754.16
463.077	49400.4
463.517	49439.49
463.957	49810.95
464.398	49397.02
464.838	49577.49
465.278	48273.35
465.718	48705.59
466.158	47476.34
466.598	47852.08
467.038	47439.26
467.478	47940.62
467.918	48127.17
468.358	47228.02
468.798	46991.65
469.237	46865.86
469.677	46731.04
470.117	47712.35
470.556	44944.26
470.996	45675.1
471.435	45822.62
471.874	46507.97
472.314	46258.39
472.753	45134.92
473.192	45332.85
473.631	44908.82
474.07	45226.81
474.509	45178.97
474.948	45594.58
475.387	44851.26
475.826	43864.03
476.265	45718.03
476.704	45194.83
477.143	45539.08
477.581	45211.2
478.02	45953.07
478.458	44471.47
478.897	45134.17
479.335	46545.55
479.774	45902.49
480.212	46171.74
480.65	46051.48
481.089	45784.72
481.527	45168.4
481.965	44661.4
482.403	46820.06
482.841	46652.74
483.279	46682.48
483.717	46623.78
484.155	46233.56
484.592	46587.2
485.03	46955.48
485.468	45687.48
485.905	46025.93
486.343	46528.54
486.781	45767.54
487.218	45055.41
487.655	45035.04
488.093	44034.11
488.53	45685.96
488.967	44784.44
489.405	44581.59
489.842	43665.36
490.279	43686.09
490.716	43476.1
491.153	43796.79
491.59	43037.78
492.027	42384.05
492.463	42025.06
492.9	41213.01
493.337	40984.51
493.773	41261.5
494.21	40314.1
494.647	39848.93
495.083	39143.82
495.519	38759.69
495.956	38743.72
496.392	38001.53
496.828	37761.26
497.265	36896.71
497.701	37160.34
498.137	36828.93
498.573	35749.98
499.009	36402.57
499.445	35488.36
499.881	34894.82
500.316	35388.72
500.752	34175.24
501.188	33930.58
501.624	33967.9
502.059	32420.02
502.495	32537.53
502.93	32470.24
503.366	32564.84
503.801	31862.44
504.236	31452.57
504.672	31051.91
505.107	30871.92
505.542	30036.1
505.977	30163.72
506.412	29653.38
506.847	29828.4
507.282	29262.23
507.717	28992.1
508.152	28923.94
508.587	28665.18
509.021	27815.03
509.456	27595.79
509.891	27674.83
510.325	27538.52
510.76	27060.1
511.194	26783.76
511.628	26994.46
512.063	26199.05
512.497	26334.68
512.931	25730.61
513.366	25589.43
513.8	25527.79
514.234	24826.17
514.668	24857.4
515.102	25081.37
515.536	24045.98
515.969	24263.42
516.403	23695.59
516.837	23375.53
517.271	23527.7
517.704	23023.9
518.138	22806.12
518.571	22637.41
519.005	22246.63
519.438	22187.77
519.871	21894.85
520.305	21374.34
520.738	21484.09
521.171	20974.24
521.604	21042.44
522.037	20800.1
522.47	20330.42
522.903	20038.71
523.336	19932.31
523.769	19702.76
524.202	19308.03
524.634	19205.93
525.067	18935.1
525.5	18871.29
525.932	18728.18
526.365	18334.99
526.797	18105.77
527.23	18127
527.662	17413.56
528.094	17293.94
528.527	17269.66
528.959	17021.27
529.391	16672.68
529.823	16166.12
530.255	16286.36
530.687	15827.5
531.119	15640.71
531.551	15547.65
531.982	15223.77
532.414	15059.31
532.846	14720.3
533.277	14606.04
533.709	14206.16
534.14	14071.74
534.572	13859.87
535.003	13782.47
535.435	13422.49
535.866	13323.93
536.297	12968.92
536.728	13011.8
537.159	12927.04
537.59	12539.46
538.022	12387.92
538.452	12172.65
538.883	12000.24
539.314	11926.85
539.745	11697.12
540.176	11503.67
540.606	11110.61
541.037	11230.54
541.468	10936.33
541.898	10899.46
542.328	10824.93
542.759	10611.68
543.189	10499.07
543.619	10291.88
544.05	10053.08
544.48	9945.02
544.91	9792.59
545.34	9712.46
545.77	9566.02
546.2	9494.04
546.63	9283.08
547.06	9253.11
547.489	9088.41
547.919	8831.06
548.349	8891.42
548.778	8846.87
549.208	8690.56
549.637	8491.51
550.067	8350.69
550.496	8370.44
550.926	8169.65
551.355	8013.4
551.784	8059.77
552.213	7821.49
552.642	7707.94
553.071	7672.95
553.5	7601.09
553.929	7330.31
554.358	7444.19
554.787	7195.37
555.216	7222.63
555.645	7085.47
556.073	6985.19
556.502	6919.52
556.93	6771.76
557.359	6686.23
557.787	6712.82
558.216	6522.9
558.644	6516.83
559.072	6483.08
559.5	6333.72
559.929	6354.05
560.357	6381.24
560.785	6210.08
561.213	6177.83
561.641	6001.06
562.068	6062.75
562.496	5923.96
562.924	5912.04
563.352	5909.92
563.779	5859.81
564.207	5835.15
564.634	5776.51
565.062	5762.71
565.489	5685.72
565.917	5671.9
566.344	5573.84
566.771	5557.62
567.198	5478.61
567.625	5394.75
568.053	5354.79
568.48	5308.69
568.907	5312.15
569.333	5183.07
569.76	5005.43
570.187	5069.58
570.614	4916.37
571.04	5081.33
571.467	4795.35
571.894	4727.27
572.32	4607.89
572.747	4564.67
573.173	4468.21
573.599	4429.49
574.026	4296.82
574.452	4294.39
574.878	4245.1
575.304	4124.57
575.73	4096.24
576.156	4017.67
576.582	4014.16
577.008	3894.14
577.434	3831.64
577.86	3669.1
578.285	3744.99
578.711	3636.55
579.137	3664.76
579.562	3460.33
579.988	3521.46
580.413	3413.84
580.838	3376.04
581.264	3357.81
581.689	3321.34
582.114	3293.56
582.539	3172.3
582.964	3171.48
583.39	3128.93
583.814	3004.43
584.239	2989.4
584.664	2942.93
585.089	2939.65
585.514	2883.85
585.939	2843.34
586.363	2804.19
586.788	2797.07
587.212	2699.77
587.637	2669.6
588.061	2645.19
588.485	2620.49
588.91	2591.66
589.334	2556.78
589.758	2495.78
590.182	2465.53
590.606	2403.36
591.03	2414.92
591.454	2360.14
591.878	2343.62
592.302	2340.59
592.726	2301.47
593.15	2257.65
593.573	2240.55
593.997	2202.49
594.42	2149.5
594.844	2158.61
595.267	2121.61
595.691	2096.48
596.114	2074.93
596.537	2119.4
596.96	2021.3
597.384	2018.81
597.807	1959.89
598.23	1958.51
598.653	1973.45
599.076	1946.33
599.499	1929.45
599.921	1896.5
600.344	1887.64
600.767	1864.64
601.189	1879.6
601.612	1843.86
602.034	1838.6
602.457	1811.71
602.879	1815.31
603.302	1801.45
603.724	1812.26
604.146	1770.94
604.568	1737.1
604.991	1721.83
605.413	1806.44
605.835	1786.75
606.257	1700.73
606.678	1711.56
607.1	1755.96
607.522	1708.79
607.944	1674.63
608.365	1648.8
608.787	1661.58
609.209	1642.41
609.63	1620.18
610.051	1602.95
610.473	1592.11
610.894	1600.17
611.315	1589.05
611.737	1541.49
612.158	1545.39
612.579	1471.08
613	1494.46
613.421	1467.74
613.842	1448.8
614.263	1418.15
614.683	1435.43
615.104	1388.33
615.525	1362.96
615.945	1382.48
616.366	1337.59
616.787	1330.33
617.207	1361.57
617.627	1282.62
618.048	1288.76
618.468	1285.41
618.888	1256.1
619.308	1241.58
619.728	1227.61
620.148	1228.45
620.568	1203.31
620.988	1147.4
621.408	1171.17
621.828	1159.15
622.248	1153.28
622.668	1123.63
623.087	1133.98
623.507	1109.37
623.926	1112.72
624.346	1113
624.765	1084.18
625.185	1066.27
625.604	1056.19
626.023	1063.75
626.442	1020.63
626.861	1039.12
627.28	999.34
627.699	1038.56
628.118	994.3
628.537	991.5
628.956	979.73
629.375	978.05
629.794	956.19
630.212	988.7
630.631	953.94
631.049	930.67
631.468	927.59
631.886	883.55
632.305	907.12
632.723	925.35
633.141	913.01
633.559	899.54
633.978	907.68
634.396	848.75
634.814	862.5
635.232	858.01
635.65	831.06
636.067	834.43
636.485	848.75
636.903	829.1
637.321	819.55
637.738	808.32
638.156	834.71
638.573	812.25
638.991	766.74
639.408	807.75
639.825	782.47
640.243	786.12
640.66	797.08
641.077	768.7
641.494	772.92
641.911	759.99
642.328	776.01
642.745	738.35
643.162	783.31
643.579	743.97
643.995	738.63
644.412	712.48
644.829	710.23
645.245	717.26
645.662	715.86
646.078	715.86
646.495	731.6
646.911	715.01
647.327	697.01
647.743	702.64
648.159	720.64
648.576	717.82
648.992	680.13
649.408	702.92
649.824	658.19
650.239	670.85
650.655	679.29
651.071	672.82
651.487	675.63
651.902	671.97
652.318	669.16
652.733	677.32
653.149	643.27
653.564	635.67
653.979	635.11
654.395	653.12
654.81	656.5
655.225	630.04
655.64	622.44
656.055	625.25
656.47	629.76
656.885	603.29
657.3	614.83
657.715	617.65
658.13	605.26
658.544	611.17
658.959	624.41
659.374	604.41
659.788	604.7
660.202	594.56
660.617	612.3
661.031	585.54
661.445	579.63
661.86	596.25
662.274	584.98
662.688	598.22
663.102	539.89
663.516	596.53
663.93	592.3
664.344	585.54
664.758	570.05
665.171	586.39
665.585	581.32
665.999	580.47
666.412	554.27
666.826	554.27
667.239	558.78
667.653	582.44
668.066	548.91
668.479	548.63
668.892	587.51
669.306	544.97
669.719	547.79
670.132	562.44
670.545	555.4
670.958	582.44
671.37	547.22
671.783	521.85
672.196	536.51
672.609	530.03
673.021	527.21
673.434	529.18
673.846	529.18
674.259	511.42
674.671	527.21
675.084	536.23
675.496	512.27
675.908	557.93
676.32	529.46
676.732	511.7
677.144	543.56
677.556	537.64
677.968	503.81
678.38	530.31
678.792	504.65
679.204	518.75
679.615	525.52
680.027	531.72
680.439	533.13
680.85	493.94
681.262	514.8
681.673	507.47
682.084	503.52
682.496	484.06
682.907	521.57
683.318	499.29
683.729	504.09
684.14	496.76
684.551	500.14
684.962	464.6
685.373	494.22
685.784	514.52
686.194	505.22
686.605	483.78
687.016	478.42
687.426	500.14
687.837	476.45
688.247	501.83
688.657	512.55
689.068	500.99
689.478	470.8
689.888	478.99
690.298	459.8
690.708	474.75
691.118	484.63
691.528	471.93
691.938	475.04
692.348	477.58
692.758	445.97
693.168	466.01
693.577	484.35
693.987	466.01
694.396	468.55
694.806	497.32
695.215	488.01
695.625	458.95
696.034	444.56
696.443	456.42
696.852	470.52
697.262	460.08
697.671	435.53
698.08	469.11
698.489	479.55
698.897	435.25
699.306	451.9
699.715	464.88
700.124	456.42
700.532	458.39
700.941	461.78
701.35	447.67
701.758	476.17
702.166	447.38
702.575	472.78
702.983	432.99
703.391	464.03
703.799	474.47
704.208	450.21
704.616	448.51
705.024	447.1
705.432	456.98
705.839	461.78
706.247	466.86
706.655	458.11
707.063	453.88
707.47	451.62
707.878	432.99
708.285	429.04
708.693	430.45
709.1	444.28
709.508	442.59
709.915	421.7
710.322	440.33
710.729	426.78
711.136	435.81
711.543	430.73
711.95	449.92
712.357	443.15
712.764	416.9
713.171	440.89
713.578	444.84
713.984	432.43
714.391	428.76
714.797	389.51
715.204	428.76
715.61	437.79
716.017	416.9
716.423	436.66
716.829	425.65
717.236	440.05
717.642	432.99
718.048	438.35
718.454	428.19
718.86	448.23
719.266	433.27
719.671	420.85
720.077	427.06
720.483	401.65
720.889	436.1
721.294	424.24
721.7	438.07
722.105	417.46
722.511	431.58
722.916	421.13
723.321	414.92
723.726	411.82
724.132	422.83
724.537	447.38
724.942	443.15
725.347	432.71
725.752	445.41
726.156	434.4
726.561	423.39
726.966	408.71
727.371	416.9
727.775	405.04
728.18	422.55
728.584	401.09
728.989	412.66
729.393	412.38
729.798	416.9
730.202	432.71
730.606	414.92
731.01	424.24
731.414	407.86
731.818	412.38
732.222	425.65
732.626	419.16
733.03	425.37
733.434	431.86
733.837	436.94
734.241	430.73
734.645	414.36
735.048	420
735.452	434.12
735.855	433.84
736.258	418.03
736.662	396.29
737.065	410.41
737.468	427.06
737.871	418.31
738.274	410.12
738.677	432.71
739.08	432.99
739.483	408.71
739.886	430.45
740.289	428.19
740.691	403.06
741.094	409.84
741.497	427.06
741.899	442.3
742.302	406.17
742.704	419.44
743.106	393.46
743.508	418.59
743.911	401.09
744.313	415.77
744.715	403.06
745.117	409.28
745.519	440.61
745.921	415.49
746.323	414.64
746.724	413.51
747.126	407.02
747.528	377.36
747.929	423.11
748.331	399.11
748.732	415.21
749.134	417.75
749.535	397.7
749.936	417.75
750.338	410.12
750.739	424.52
751.14	381.03
751.541	419.44
751.942	417.18
752.343	398.26
752.744	410.41
753.144	412.1
753.545	401.93
753.946	409.28
754.346	403.35
754.747	410.69
755.148	393.46
755.548	419.72
755.948	407.86
756.349	418.59
756.749	408.99
757.149	407.86
757.549	431.01
757.949	406.45
758.349	426.22
758.749	392.9
759.149	377.64
759.549	417.18
759.949	416.9
760.348	427.34
760.748	407.86
761.148	401.93
761.547	386.4
761.947	388.66
762.346	394.59
762.745	396
763.145	387.81
763.544	415.49
763.943	397.7
764.342	406.73
764.741	397.13
765.14	383.86
765.539	407.3
765.938	418.59
766.336	370.02
766.735	410.41
767.134	403.06
767.532	420
767.931	437.79
768.329	399.39
768.728	405.32
769.126	392.61
769.525	446.54
769.923	398.55
770.321	396.85
770.719	428.19
771.117	408.99
771.515	394.87
771.913	398.55
772.311	408.43
772.709	398.83
773.106	385.55
773.504	392.33
773.902	390.07
774.299	416.9
774.697	428.19
775.094	377.64
775.491	422.83
775.889	420.57
776.286	416.62
776.683	399.11
777.08	427.91
777.477	412.95
777.874	417.46
778.271	414.92
778.668	407.3
779.065	404.19
779.462	411.53
779.858	407.02
780.255	397.98
780.652	371.99
781.048	401.09
781.444	375.67
781.841	390.92
782.237	392.9
782.633	384.42
783.03	420.57
783.426	379.34
783.822	380.19
784.218	397.42
784.614	408.71
785.01	402.78
785.405	391.48
785.801	402.22
786.197	409.84
786.593	407.02
786.988	398.26
787.384	397.13
787.779	391.77
788.174	384.14
788.57	407.58
788.965	399.96
789.36	380.75
789.755	378.77
790.15	412.66
790.545	413.79
790.94	403.06
791.335	381.6
791.73	398.55
792.125	421.42
792.52	405.32
792.914	407.86
793.309	388.66
793.703	382.45
794.098	378.21
794.492	413.79
794.887	413.23
795.281	394.03
795.675	392.61
796.069	360.13
796.463	407.3
796.857	388.1
797.251	390.07
797.645	407.02
798.039	419.16
798.433	398.26
798.826	409.84
799.22	400.24
799.614	392.05
800.007	388.66
800.401	400.52
800.794	408.15
801.187	383.58
801.581	391.77
801.974	406.17
802.367	378.21
802.76	416.05
803.153	416.05
803.546	377.64
803.939	398.83
804.332	388.94
804.725	370.58
805.117	399.67
805.51	410.69
805.903	408.43
806.295	423.39
806.688	370.02
807.08	373.69
807.472	397.7
807.865	383.29
808.257	397.13
808.649	383.86
809.041	411.53
809.433	409.84
809.825	404.48
810.217	412.1
810.609	401.37
811.001	405.32
811.392	386.4
811.784	394.59
812.175	394.31
812.567	381.03
812.958	368.32
813.35	375.95
813.741	388.38
814.132	409.84
814.524	411.82
814.915	393.18
815.306	392.05
815.697	371.99
816.088	390.64
816.479	417.18
816.87	395.16
817.26	400.24
817.651	415.21
818.042	394.59
818.432	374.82
818.823	397.13
819.213	402.22
819.604	407.02
819.994	392.33
820.384	394.31
820.775	399.11
821.165	400.8
821.555	397.98
821.945	393.46
822.335	396.57
822.725	408.15
823.114	380.47
823.504	397.98
823.894	396.85
824.284	409.84
824.673	393.46
825.063	419.44
825.452	408.43
825.842	398.26
826.231	369.73
826.62	397.7
827.009	394.31
827.399	381.88
827.788	391.2
828.177	374.54
828.566	400.8
828.954	385.84
829.343	378.49
829.732	373.97
830.121	421.13
830.509	367.19
830.898	400.24
831.286	392.61
831.675	388.66
832.063	384.99
832.452	387.53
832.84	378.49
833.228	418.03
833.616	392.61
834.004	392.9
834.392	392.33
834.78	374.54
835.168	390.36
835.556	390.92
835.944	405.89
836.331	408.71
836.719	393.18
837.107	381.03
837.494	397.98
837.881	393.74
838.269	376.51
838.656	378.21
839.043	392.05
839.431	398.55
839.818	373.69
840.205	392.61
840.592	393.18
840.979	381.88
841.366	383.01
841.752	373.69
842.139	383.01
842.526	388.94
842.912	420.57
843.299	396.57
843.685	379.34
844.072	377.64
844.458	400.8
844.844	405.32
845.231	402.78
845.617	389.23
846.003	382.45
846.389	364.37
846.775	370.02
847.161	385.27
847.547	389.23
847.933	388.1
848.318	397.7
848.704	385.84
849.09	387.25
849.475	372.56
849.861	386.4
850.246	390.07
850.631	402.78
851.017	403.63
851.402	397.13
851.787	397.13
852.172	380.19
852.557	398.26
852.942	412.1
853.327	395.44
853.712	371.43
854.097	368.04
854.481	387.25
854.866	379.62
855.25	377.36
855.635	388.1
856.019	398.83
856.404	392.61
856.788	398.26
857.172	387.53
857.557	392.9
857.941	414.36
858.325	358.15
858.709	416.9
859.093	397.42
859.477	371.43
859.86	383.29
860.244	409.56
860.628	377.08
861.012	392.05
861.395	407.02
861.779	407.3
862.162	369.17
862.545	393.74
862.929	381.6
863.312	395.16
863.695	409.84
864.078	400.8
864.461	376.23
864.844	385.27
865.227	415.21
865.61	373.97
865.993	377.08
866.376	420.57
866.758	381.32
867.141	394.59
867.523	372.84
867.906	394.03
868.288	383.86
868.671	388.94
869.053	396.57
869.435	388.38
869.817	383.86
870.199	372.56
870.581	368.04
870.963	397.42
871.345	370.86
871.727	402.22
872.109	362.95
872.491	392.61
872.872	388.94
873.254	401.37
873.635	390.07
874.017	377.36
874.398	391.2
874.779	390.64
875.161	397.13
875.542	373.41
875.923	373.69
876.304	382.16
876.685	388.66
877.066	383.29
877.447	380.47
877.828	386.97
878.208	376.8
878.589	373.12
878.97	399.39
879.35	401.65
879.731	394.31
880.111	417.75
880.491	373.97
880.872	393.46
881.252	379.34
881.632	360.98
882.012	392.33
882.392	408.71
882.772	390.92
883.152	387.53
883.532	403.91
883.912	389.51
884.291	380.75
884.671	366.91
885.051	397.7
885.43	401.65
885.81	414.08
886.189	383.01
886.568	383.86
886.948	394.87
887.327	401.09
887.706	407.86
888.085	416.62
888.464	385.55
888.843	411.25
889.222	409.84
889.601	386.97
889.979	396
890.358	392.61
890.737	378.49
891.115	375.67
891.494	389.51
891.872	383.86
892.25	362.95
892.629	376.8
893.007	394.03
893.385	413.23
893.763	389.79
894.141	394.03
894.519	377.36
894.897	403.06
895.275	385.27
895.653	393.74
896.03	370.86
896.408	395.16
896.786	404.19
897.163	395.44
897.541	369.45
897.918	389.51
898.295	380.75
898.673	390.64
899.05	377.36
899.427	406.17
899.804	396.85
900.181	375.95
900.558	366.34
900.935	383.29
901.312	354.2
901.688	358.72
902.065	381.32
902.442	367.76
902.818	378.21
903.195	392.33
903.571	377.08
903.947	377.36
904.324	400.52
904.7	394.59
905.076	375.38
905.452	410.41
905.828	373.12
906.204	382.45
906.58	353.06
906.956	378.21
907.331	386.68
907.707	376.8
908.083	405.04
908.458	392.33
908.834	404.76
909.209	374.54
909.585	395.72
909.96	393.46
910.335	390.64
910.71	377.93
911.086	386.12
911.461	396.29
911.836	403.63
912.21	401.37
912.585	370.86
912.96	401.09
913.335	379.9
913.709	396.85
914.084	373.97
914.459	377.64
914.833	354.48
915.207	384.14
915.582	371.99
915.956	375.1
916.33	410.41
916.704	383.01
917.078	367.47
917.452	386.4
917.826	372.84
918.2	367.19
918.574	369.17
918.948	388.94
919.321	392.05
919.695	377.36
920.068	373.12
920.442	374.54
920.815	350.24
921.189	397.98
921.562	372.84
921.935	380.19
922.308	403.91
922.681	380.75
923.054	383.01
923.427	383.01
923.8	398.83
924.173	377.64
924.546	373.69
924.919	365.21
925.291	368.6
925.664	377.08
926.036	406.73
926.409	407.02
926.781	378.77
927.153	383.29
927.526	402.78
927.898	377.08
928.27	421.98
928.642	398.83
929.014	384.71
929.386	370.58
929.758	363.8
930.129	390.92
930.501	375.95
930.873	383.58
931.244	374.54
931.616	376.23
931.987	375.67
932.359	369.73
932.73	383.29
933.101	391.2
933.472	377.36
933.843	380.19
934.214	381.6
934.585	384.14
934.956	388.1
935.327	381.6
935.698	404.19
936.069	381.32
936.439	403.63
936.81	376.23
937.18	408.71
937.551	395.44
937.921	393.74
938.292	411.82
938.662	387.81
939.032	408.99
939.402	381.88
939.772	390.07
940.142	370.58
940.512	378.21
940.882	400.8
941.252	373.69
941.621	394.03
941.991	404.19
942.361	391.48
942.73	342.89
943.1	379.62
943.469	402.78
943.838	370.3
944.208	387.53
944.577	375.67
944.946	362.95
945.315	375.95
945.684	380.47
946.053	381.32
946.422	370.3
946.791	388.38
947.159	386.97
947.528	384.71
947.897	360.98
948.265	393.18
948.634	390.07
949.002	351.93
949.371	383.29
949.739	381.32
950.107	367.76
950.475	377.64
950.843	378.21
951.211	385.55
951.579	367.19
951.947	396.85
952.315	363.8
952.683	371.71
953.05	384.14
953.418	382.73
953.785	388.38
954.153	386.68
954.52	375.67
954.888	384.71
955.255	377.36
955.622	352.78
955.989	400.24
956.356	383.01
956.723	384.99
957.09	370.02
957.457	382.16
957.824	364.65
958.191	365.5
958.557	361.54
958.924	353.91
959.291	381.03
959.657	391.77
960.023	397.13
960.39	369.17
960.756	356.46
961.122	365.21
961.488	375.95
961.855	392.33
962.221	369.73
962.586	388.94
962.952	388.38
963.318	372.56
963.684	349.39
964.05	370.86
964.415	385.84
964.781	339.5
965.146	368.04
965.512	386.68
965.877	355.89
966.242	386.4
966.608	353.35
966.973	378.49
967.338	397.42
967.703	378.77
968.068	360.13
968.433	370.02
968.797	380.47
969.162	374.25
969.527	387.53
969.891	387.25
970.256	393.18
970.62	371.15
970.985	384.14
971.349	391.48
971.714	370.58
972.078	371.15
972.442	376.51
972.806	379.9
973.17	377.93
973.534	362.95
973.898	374.54
974.262	379.9
974.625	358.15
974.989	386.4
975.353	371.43
975.716	372.28
976.08	387.81
976.443	355.61
976.806	390.36
977.17	376.23
977.533	402.78
977.896	348.54
978.259	382.16
978.622	377.93
978.985	393.46
979.348	381.88
979.711	388.66
980.073	396
980.436	373.69
980.799	399.67
981.161	398.83
981.524	386.97
981.886	369.73
982.248	378.77
982.611	376.51
982.973	396
983.335	370.02
983.697	372.28
984.059	366.34
984.421	401.65
984.783	401.65
985.145	375.38
985.506	364.65
985.868	372.84
986.23	354.48
986.591	363.24
986.953	364.65
987.314	377.64
987.675	379.62
988.037	519.88
988.398	381.6
988.759	378.77
989.12	354.2
989.481	379.34
989.842	371.71
990.203	383.29
990.564	362.95
990.924	380.47
991.285	493.94
991.646	345.44
992.006	407.58
992.367	371.15
992.727	389.79
993.087	376.23
993.448	356.17
993.808	357.02
994.168	385.27
994.528	390.07
994.888	377.08
995.248	384.71
995.608	379.06
995.967	373.97
996.327	397.7
996.687	370.86
997.046	384.42
997.406	390.36
997.765	379.9
998.125	394.59
998.484	374.54
998.843	397.98
999.202	355.33
999.561	376.23
999.92	377.36
1000.279	390.64
1000.638	348.26
1000.997	385.55
1001.356	371.99
1001.715	376.23
1002.073	384.71
1002.432	386.4
1002.79	368.04
1003.149	353.63
1003.507	383.29
1003.865	366.91
1004.224	343.46
1004.582	375.38
1004.94	393.46
1005.298	383.01
1005.656	371.15
1006.014	371.15
1006.371	379.06
1006.729	380.75
1007.087	390.07
1007.445	376.8
1007.802	369.73
1008.16	397.42
1008.517	362.39
1008.874	362.95
1009.232	380.19
1009.589	392.9
1009.946	377.64
1010.303	373.69
1010.66	391.2
1011.017	371.15
1011.374	361.26
1011.731	377.36
1012.087	372.84
1012.444	386.4
1012.801	359.85
1013.157	355.89
1013.513	338.65
1013.87	391.77
1014.226	353.06
1014.582	351.93
1014.939	368.04
1015.295	380.19
1015.651	367.47
1016.007	384.71
1016.363	388.94
1016.719	357.02
1017.074	379.34
1017.43	379.06
1017.786	370.02
1018.141	382.73
1018.497	376.23
1018.852	395.72
1019.208	373.97
1019.563	379.34
1019.918	379.62
1020.273	375.95
1020.628	381.88
1020.983	378.49
1021.338	379.9
1021.693	351.09
1022.048	357.59
1022.403	356.17
1022.757	374.54
1023.112	393.74
1023.467	368.6
1023.821	382.73
1024.175	382.16
1024.53	371.43
1024.884	368.04
1025.238	349.39
1025.592	357.59
1025.946	380.19
1026.3	367.19
1026.654	400.24
1027.008	340.35
1027.362	369.73
1027.716	369.17
1028.069	352.22
1028.423	348.26
1028.777	362.11
1029.13	375.1
1029.483	396.29
1029.837	363.24
1030.19	347.41
1030.543	377.08
1030.896	397.7
1031.249	380.19
1031.602	370.3
1031.955	357.87
1032.308	382.45
1032.661	393.74
1033.013	364.93
1033.366	365.78
1033.719	370.86
1034.071	366.91
1034.424	382.73
1034.776	384.99
1035.128	373.12
1035.48	359.28
1035.833	375.67
1036.185	385.27
1036.537	385.27
1036.889	385.27
