Data from SCSF78-405_irradiation_FLMS019251_15-04-27-938.txt Node
Date: Fri Feb 22 15:04:27 PST 2019
User: mu3e
Spectrometer: FLMS01925
Trigger mode: 0
Integration Time (sec): 1.206000E-2
Scans to average: 10
Electric dark correction enabled: true
Nonlinearity correction enabled: true
Boxcar width: 0
XAxis mode: Wavelengths
Number of Pixels in Spectrum: 2048
>>>>>Begin Spectral Data<<<<<
187.103	-67.87
187.574	-67.87
188.045	-67.87
188.516	-129.28
188.987	-132.41
189.458	-134.68
189.929	-160
190.4	-111.93
190.871	-70.14
191.342	-72.13
191.813	-76.97
192.284	-33.21
192.754	-9.35
193.225	-14.75
193.696	19.61
194.166	51.67
194.637	61.89
195.107	100.17
195.578	133.62
196.048	129.94
196.518	185.19
196.989	190
197.459	202.18
197.929	260.48
198.399	277.17
198.869	277.17
199.339	336.27
199.809	355.2
200.279	348.42
200.749	351.25
201.219	341.92
201.689	371.31
202.159	389.38
202.628	377.24
203.098	386
203.568	405.76
204.037	419.6
204.507	402.38
204.976	395.88
205.445	389.67
205.915	389.38
206.384	391.36
206.853	391.93
207.323	408.02
207.792	431.17
208.261	397.01
208.73	396.44
209.199	428.35
209.668	393.06
210.137	400.4
210.606	377.24
211.075	360.01
211.543	409.72
212.012	371.87
212.481	401.25
212.95	390.51
213.418	394.19
213.887	369.33
214.355	377.8
214.824	358.03
215.292	369.61
215.76	382.32
216.229	356.33
216.697	381.19
217.165	383.45
217.633	370.46
218.101	374.13
218.569	373.28
219.037	346.44
219.505	361.98
219.973	359.16
220.441	368.2
220.909	376.39
221.377	356.05
221.844	343.62
222.312	383.17
222.78	360.29
223.247	374.98
223.715	373.57
224.182	379.22
224.65	349.83
225.117	374.98
225.584	392.21
226.052	360.85
226.519	372.15
226.986	372.44
227.453	387.97
227.92	381.19
228.387	395.6
228.854	364.81
229.321	366.79
229.788	370.74
230.255	336.55
230.722	393.9
231.189	357.18
231.655	379.22
232.122	383.74
232.589	390.23
233.055	388.82
233.522	373
233.988	367.07
234.454	364.53
234.921	376.39
235.387	363.96
235.853	352.94
236.32	356.61
236.786	389.67
237.252	354.07
237.718	368.76
238.184	369.33
238.65	382.89
239.116	385.15
239.582	368.48
240.047	382.32
240.513	368.76
240.979	377.8
241.445	381.19
241.91	390.51
242.376	372.15
242.841	388.82
243.307	371.59
243.772	376.67
244.238	393.62
244.703	387.41
245.168	387.97
245.633	378.09
246.099	405.76
246.564	354.64
247.029	365.66
247.494	381.19
247.959	374.7
248.424	382.32
248.889	357.46
249.353	388.54
249.818	367.92
250.283	390.8
250.748	396.44
251.212	369.05
251.677	391.36
252.141	367.92
252.606	380.06
253.07	393.9
253.535	383.17
253.999	395.32
254.463	397.29
254.927	366.5
255.392	363.68
255.856	407.46
256.32	389.38
256.784	380.63
257.248	390.23
257.712	397.86
258.176	402.94
258.64	414.8
259.103	408.31
259.567	387.69
260.031	408.59
260.495	366.5
260.958	381.19
261.422	392.49
261.885	380.06
262.349	408.02
262.812	376.39
263.275	392.21
263.739	374.98
264.202	388.54
264.665	395.32
265.128	404.07
265.591	422.42
266.054	390.23
266.517	393.34
266.98	376.67
267.443	399.55
267.906	420.16
268.369	402.38
268.832	391.64
269.294	427.22
269.757	399.27
270.22	394.75
270.682	399.27
271.145	399.55
271.607	376.39
272.07	377.24
272.532	380.35
272.994	371.87
273.456	400.68
273.919	410.28
274.381	417.06
274.843	390.51
275.305	414.23
275.767	413.39
276.229	381.19
276.691	384.58
277.153	433.71
277.614	421.01
278.076	391.08
278.538	400.68
279	399.83
279.461	402.94
279.923	407.46
280.384	393.9
280.846	405.76
281.307	406.33
281.769	404.07
282.23	399.27
282.691	403.79
283.152	384.58
283.613	395.03
284.075	394.19
284.536	411.13
284.997	387.97
285.458	402.66
285.918	402.38
286.379	391.64
286.84	391.08
287.301	410
287.762	384.87
288.222	397.86
288.683	419.88
289.143	398.99
289.604	402.66
290.064	391.36
290.525	409.72
290.985	404.35
291.445	398.7
291.906	391.36
292.366	410.85
292.826	398.42
293.286	403.5
293.746	406.33
294.206	415.08
294.666	406.05
295.126	412.54
295.586	434.84
296.046	417.62
296.506	406.33
296.965	378.09
297.425	395.6
297.884	365.37
298.344	420.16
298.804	405.2
299.263	422.99
299.722	387.12
300.182	406.89
300.641	387.41
301.1	402.09
301.559	387.41
302.019	398.99
302.478	423.83
302.937	418.19
303.396	416.49
303.855	420.73
304.314	376.39
304.772	402.94
305.231	402.66
305.69	407.18
306.149	425.53
306.607	411.13
307.066	418.75
307.524	390.23
307.983	422.14
308.441	395.6
308.9	419.6
309.358	428.63
309.816	401.25
310.275	414.52
310.733	397.57
311.191	409.15
311.649	402.38
312.107	404.63
312.565	388.25
313.023	414.8
313.481	414.52
313.939	391.64
314.397	421.29
314.854	424.12
315.312	415.65
315.77	400.68
316.227	384.02
316.685	438.23
317.142	384.3
317.6	405.76
318.057	406.33
318.514	419.03
318.972	382.32
319.429	386
319.886	413.39
320.343	410
320.8	440.49
321.257	426.37
321.714	386
322.171	421.01
322.628	373.85
323.085	414.52
323.542	401.81
323.998	397.01
324.455	434.56
324.912	410
325.368	409.15
325.825	423.83
326.281	408.87
326.738	402.66
327.194	412.82
327.65	430.04
328.107	417.62
328.563	403.5
329.019	415.93
329.475	421.29
329.931	400.96
330.387	395.88
330.843	392.77
331.299	437.67
331.755	435.69
332.211	415.93
332.666	430.89
333.122	404.07
333.578	410.56
334.033	410.56
334.489	404.07
334.944	416.49
335.4	411.41
335.855	425.25
336.31	430.33
336.766	404.63
337.221	393.34
337.676	412.54
338.131	444.16
338.586	382.61
339.041	407.18
339.496	406.89
339.951	426.66
340.406	431.74
340.861	415.93
341.316	419.03
341.771	423.27
342.225	410
342.68	407.18
343.134	419.6
343.589	429.48
344.043	395.32
344.498	412.26
344.952	435.12
345.406	406.33
345.861	415.36
346.315	423.27
346.769	402.66
347.223	415.36
347.677	415.36
348.131	431.46
348.585	411.13
349.039	423.83
349.493	404.92
349.947	412.26
350.401	410.85
350.854	434.28
351.308	403.5
351.762	419.6
352.215	420.45
352.669	412.26
353.122	433.43
353.575	430.04
354.029	424.12
354.482	423.55
354.935	425.81
355.388	425.53
355.842	426.09
356.295	413.39
356.748	427.22
357.201	406.05
357.654	422.99
358.106	412.26
358.559	421.58
359.012	415.65
359.465	433.71
359.917	428.07
360.37	401.53
360.823	423.55
361.275	435.12
361.728	417.62
362.18	431.74
362.632	418.75
363.085	415.36
363.537	412.82
363.989	458.55
364.441	414.8
364.893	458.83
365.345	423.27
365.797	423.83
366.249	424.12
366.701	442.75
367.153	405.2
367.605	428.07
368.057	413.67
368.508	412.54
368.96	435.97
369.411	432.02
369.863	439.08
370.314	422.42
370.766	426.37
371.217	422.7
371.669	419.88
372.12	400.68
372.571	426.37
373.022	451.78
373.473	426.09
373.924	429.48
374.375	459.11
374.826	424.4
375.277	424.4
375.728	412.82
376.179	438.51
376.63	428.35
377.08	427.5
377.531	415.08
377.981	452.06
378.432	439.92
378.883	408.87
379.333	440.21
379.783	420.73
380.234	407.74
380.684	416.21
381.134	433.71
381.584	423.83
382.034	439.64
382.485	423.27
382.935	405.76
383.385	423.55
383.834	411.41
384.284	436.54
384.734	403.79
385.184	440.49
385.634	412.26
386.083	446.13
386.533	461.94
386.982	427.5
387.432	438.51
387.881	410.56
388.331	422.42
388.78	437.67
389.229	417.9
389.679	424.68
390.128	442.18
390.577	446.98
391.026	438.79
391.475	425.53
391.924	414.23
392.373	467.3
392.822	423.55
393.27	443.59
393.719	428.07
394.168	448.67
394.617	449.52
395.065	430.04
395.514	451.21
395.962	454.03
396.411	457.98
396.859	429.76
397.307	432.87
397.756	443.31
398.204	447.26
398.652	454.32
399.1	460.81
399.548	439.92
399.996	455.73
400.444	432.87
400.892	454.6
401.34	470.12
401.788	449.52
402.236	465.6
402.683	471.81
403.131	496.91
403.579	484.22
404.026	488.74
404.474	483.09
404.921	458.27
405.369	472.37
405.816	487.33
406.263	467.86
406.71	473.22
407.158	471.81
407.605	495.79
408.052	505.38
408.499	511.58
408.946	515.53
409.393	483.94
409.84	506.79
410.286	519.76
410.733	563.44
411.18	536.11
411.626	575
412.073	612.18
412.52	689.01
412.966	772.23
413.413	933.36
413.859	1072.87
414.305	1309.57
414.752	1615.61
415.198	1885.3
415.644	2312.65
416.09	2794.75
416.536	3419.43
416.982	4007.56
417.428	4756.64
417.874	5555.11
418.32	6481.12
418.766	7352.72
419.211	8412.68
419.657	9333.08
420.103	10641.83
420.548	11412.89
420.994	12832.76
421.439	13930.82
421.885	14908.01
422.33	16444.85
422.776	17485
423.221	18562.21
423.666	19955.57
424.111	21236.2
424.556	22138.69
425.001	23527.59
425.446	25144.43
425.891	26276.7
426.336	27175.35
426.781	28544.59
427.226	30589.84
427.671	31240.56
428.115	32152.71
428.56	33859.26
429.005	35392.03
429.449	35939.23
429.894	37458.77
430.338	38518.42
430.782	38567.28
431.227	40297.21
431.671	40626.43
432.115	42150.77
432.559	43140.57
433.003	43069.56
433.447	43994.97
433.891	44197.46
434.335	44762.48
434.779	45545.02
435.223	45838.68
435.667	45842.47
436.111	46534.26
436.554	46213.43
436.998	45815.43
437.442	46088.33
437.885	48028.86
438.328	46452.78
438.772	46807.73
439.215	47418.96
439.659	46953.59
440.102	47432.25
440.545	46748.72
440.988	46551.78
441.431	47414.1
441.874	46847.17
442.317	47206.47
442.76	46710.58
443.203	46075.16
443.646	46756.86
444.089	46228.38
444.531	47004.28
444.974	45862.95
445.417	47044.54
445.859	45853.34
446.302	47001.73
446.744	46263.85
447.186	47433.02
447.629	46491.36
448.071	46398.74
448.513	46669.91
448.956	48164.61
449.398	47111.07
449.84	45933.23
450.282	46597.25
450.724	47142.69
451.166	46874.4
451.607	46765
452.049	46898.59
452.491	47863.52
452.933	47505.9
453.374	48175.68
453.816	48594.08
454.257	48231.27
454.699	49262.31
455.14	48927.87
455.582	48727.98
456.023	48762.64
456.464	48804.57
456.905	49361.74
457.347	49308.37
457.788	48351.03
458.229	48437.14
458.67	49696.24
459.111	47582.4
459.552	47727.61
459.992	47633.09
460.433	47426.63
460.874	46485.78
461.315	47733.77
461.755	46582.26
462.196	46231.42
462.636	45410.61
463.077	45063.1
463.517	45051.28
463.957	45434.31
464.398	44970.05
464.838	45174.08
465.278	43987.97
465.718	44356.79
466.158	43103.44
466.598	43660.75
467.038	43055.36
467.478	43634.78
467.918	43783.68
468.358	42999.56
468.798	42698.4
469.237	42671.29
469.677	42637.71
470.117	43253.24
470.556	40951.28
470.996	41565.13
471.435	41539.13
471.874	42233.68
472.314	41987.5
472.753	41040.52
473.192	41179.5
473.631	40866.76
474.07	41200.53
474.509	41018.52
474.948	41408.89
475.387	40691.13
475.826	39685.78
476.265	41377.95
476.704	40985.64
477.143	41482.67
477.581	41034.34
478.02	41688.26
478.458	40274.03
478.897	40939.91
479.335	42115.28
479.774	41572.81
480.212	41862.75
480.65	41801.27
481.089	41377.45
481.527	40986.14
481.965	40381.34
482.403	42418.47
482.841	42186.76
483.279	42278.38
483.717	42264.97
484.155	41737.07
484.592	42169.88
485.03	42358.85
485.468	41447.51
485.905	41513.62
486.343	42084.01
486.781	41438.1
487.218	40719.77
487.655	40884.8
488.093	39789.95
488.53	41289.1
488.967	40412.43
489.405	40350.5
489.842	39530.19
490.279	39520.35
490.716	38946.07
491.153	39402.96
491.59	38990.07
492.027	38179.25
492.463	37802.82
492.9	37031.22
493.337	36969.78
493.773	37041.01
494.21	36171.67
494.647	36010.59
495.083	35440.14
495.519	34885.93
495.956	34938.65
496.392	34218.55
496.828	34098.05
497.265	33441.26
497.701	33378.84
498.137	33055.03
498.573	32214.39
499.009	32722.23
499.445	31895.25
499.881	31493.91
500.316	31837.71
500.752	30851.81
501.188	30640.82
501.624	30657.17
502.059	29373.73
502.495	29305.6
502.93	29130.49
503.366	29235.02
503.801	28692.69
504.236	28602.76
504.672	27844.28
505.107	27548.2
505.542	27159.19
505.977	26950.5
506.412	26554.01
506.847	26910.08
507.282	26242.11
507.717	25990.41
508.152	25892.99
508.587	25795.55
509.021	25052.26
509.456	24692.75
509.891	24762.36
510.325	24631.74
510.76	24462.7
511.194	24105.97
511.628	24179.85
512.063	23332.01
512.497	23656.04
512.931	23007.99
513.366	22957.38
513.8	22801.57
514.234	22193.1
514.668	22275.2
515.102	22430.21
515.536	21606.83
515.969	21776.68
516.403	21316.99
516.837	20897.24
517.271	21094.15
517.704	20623.8
518.138	20424.68
518.571	20247.34
519.005	19900.13
519.438	19866.31
519.871	19656.63
520.305	19185.89
520.738	19111.16
521.171	18636.79
521.604	18824.07
522.037	18513.06
522.47	18207.3
522.903	17943.28
523.336	17811.58
523.769	17643.83
524.202	17137.11
524.634	17223.24
525.067	16921.7
525.5	16886.12
525.932	16684.36
526.365	16341.47
526.797	16133.11
527.23	16218.98
527.662	15586.03
528.094	15478.87
528.527	15416.72
528.959	15185.13
529.391	14939.01
529.823	14404.29
530.255	14439.63
530.687	14138.09
531.119	13957.12
531.551	13945.74
531.982	13639.13
532.414	13372.21
532.846	13125.32
533.277	12927.95
533.709	12571.37
534.14	12555.87
534.572	12438.16
535.003	12303.09
535.435	12013.63
535.866	11882.9
536.297	11514.02
536.728	11607.19
537.159	11417.24
537.59	11177.5
538.022	11073.91
538.452	10862.21
538.883	10657.47
539.314	10567.45
539.745	10435.05
540.176	10215.97
540.606	9894.97
541.037	10027.5
541.468	9762.85
541.898	9732.45
542.328	9569.26
542.759	9374.66
543.189	9383.44
543.619	9171.31
544.05	8984.27
544.48	8941.55
544.91	8787.15
545.34	8592.12
545.77	8486.46
546.2	8426.72
546.63	8261.64
547.06	8314.69
547.489	8061.74
547.919	7868.08
548.349	7938.22
548.778	7895.46
549.208	7636.78
549.637	7548.44
550.067	7427.85
550.496	7482.01
550.926	7300.08
551.355	7128.64
551.784	7199.45
552.213	6975.36
552.642	6924.4
553.071	6851.86
553.5	6797.42
553.929	6620.81
554.358	6584.19
554.787	6436.81
555.216	6415.17
555.645	6277.35
556.073	6256.48
556.502	6200.71
556.93	6009.68
557.359	5985.31
557.787	5990.35
558.216	5897.61
558.644	5858.37
559.072	5751.45
559.5	5697.55
559.929	5683.74
560.357	5663.29
560.785	5527.45
561.213	5508.56
561.641	5423.66
562.068	5365.6
562.496	5306.44
562.924	5271.51
563.352	5273.91
563.779	5221.37
564.207	5248.05
564.634	5164.53
565.062	5181.88
565.489	5072.93
565.917	5051.29
566.344	5035.26
566.771	4951.57
567.198	4868.07
567.625	4840.23
568.053	4805.94
568.48	4727.69
568.907	4686.66
569.333	4591.67
569.76	4450.89
570.187	4515.93
570.614	4406.51
571.04	4538.77
571.467	4309.89
571.894	4260.07
572.32	4154.94
572.747	4103.95
573.173	4050.23
573.599	3961.35
574.026	3866.7
574.452	3826.11
574.878	3765.46
575.304	3691.21
575.73	3644.3
576.156	3549.05
576.582	3539.54
577.008	3470
577.434	3451.79
577.86	3337.55
578.285	3361.77
578.711	3277.38
579.137	3190.72
579.562	3086.24
579.988	3147.09
580.413	3029.72
580.838	3019.06
581.264	2977.53
581.689	2925.03
582.114	2916.83
582.539	2836.93
582.964	2832.82
583.39	2786.54
583.814	2744.61
584.239	2657.69
584.664	2654.94
585.089	2604.72
585.514	2534.68
585.939	2508.03
586.363	2523.14
586.788	2450.56
587.212	2456.34
587.637	2396.08
588.061	2418.37
588.485	2335.24
588.91	2334.13
589.334	2303.55
589.758	2274.89
590.182	2222.5
590.606	2201.81
591.03	2131.16
591.454	2104.37
591.878	2107.13
592.302	2075.91
592.726	2080.06
593.15	2051.04
593.573	2031.13
593.997	1988.27
594.42	1945.1
594.844	1934.59
595.267	1908.84
595.691	1914.38
596.114	1840.41
596.537	1854.82
596.96	1857.6
597.384	1845.68
597.807	1741.69
598.23	1785.8
598.653	1745.85
599.076	1728.65
599.499	1743.08
599.921	1703.67
600.344	1689.23
600.767	1675.07
601.189	1711.44
601.612	1682.29
602.034	1627.84
602.457	1634.23
602.879	1628.95
603.302	1631.73
603.724	1618.67
604.146	1608.11
604.568	1575.3
604.991	1613.11
605.413	1595.6
605.835	1604.22
606.257	1551.38
606.678	1549.16
607.1	1520.5
607.522	1554.72
607.944	1531.08
608.365	1517.44
608.787	1514.38
609.209	1482.09
609.63	1465.39
610.051	1476.25
610.473	1448.12
610.894	1433.91
611.315	1414.69
611.737	1396.85
612.158	1413.57
612.579	1339.42
613	1368.42
613.421	1328.54
613.842	1305.66
614.263	1291.43
614.683	1248.16
615.104	1278.59
615.525	1287.52
615.945	1255.42
616.366	1208.49
616.787	1201.51
617.207	1201.79
617.627	1162.66
618.048	1177.19
618.468	1128.82
618.888	1121.27
619.308	1140.29
619.728	1120.43
620.148	1102.81
620.568	1110.64
620.988	1088.54
621.408	1066.43
621.828	1067.27
622.248	1049.35
622.668	1035.07
623.087	1051.31
623.507	1019.67
623.926	1020.79
624.346	1003.7
624.765	993.9
625.185	988.85
625.604	998.66
626.023	982.13
626.442	963.07
626.861	932.23
627.28	931.95
627.699	965.03
628.118	929.43
628.537	932.79
628.956	918.21
629.375	881.74
629.794	886.23
630.212	887.36
630.631	867.15
631.049	866.87
631.468	895.77
631.886	850.87
632.305	870.24
632.723	832.34
633.141	859.57
633.559	836.84
633.978	849.75
634.396	813.81
634.814	807.63
635.232	782.35
635.65	793.02
636.067	770.83
636.485	796.11
636.903	789.37
637.321	766.61
637.738	791.06
638.156	780.38
638.573	750.31
638.991	747.5
639.408	755.37
639.825	753.12
640.243	754.53
640.66	738.51
641.077	741.88
641.494	721.07
641.911	730.63
642.328	703.36
642.745	720.23
643.162	691.83
643.579	705.05
643.995	714.33
644.412	678.32
644.829	696.33
645.245	675.79
645.662	670.16
646.078	663.97
646.495	680.29
646.911	661.44
647.327	649.06
647.743	683.39
648.159	676.35
648.576	670.16
648.992	658.63
649.408	647.65
649.824	646.8
650.239	653.56
650.655	653.28
651.071	631.04
651.487	605.98
651.902	629.63
652.318	610.77
652.733	626.54
653.149	605.98
653.564	636.11
653.979	602.6
654.395	588.52
654.81	609.36
655.225	601.47
655.64	601.19
656.055	621.75
656.47	611.05
656.885	604.85
657.3	610.49
657.715	583.45
658.13	585.42
658.544	577.53
658.959	598.09
659.374	610.77
659.788	583.17
660.202	571.33
660.617	571.62
661.031	585.98
661.445	579.79
661.86	572.18
662.274	566.83
662.688	588.8
663.102	566.54
663.516	546.54
663.93	556.96
664.344	558.37
664.758	540.05
665.171	536.95
665.585	542.59
665.999	560.91
666.412	536.95
666.826	528.5
667.239	563.73
667.653	528.78
668.066	559.5
668.479	553.86
668.892	524.55
669.306	532.72
669.719	509.04
670.132	551.61
670.545	489.02
670.958	518.91
671.37	523.98
671.783	525.11
672.196	513.83
672.609	525.11
673.021	538.93
673.434	524.83
673.846	503.4
674.259	494.94
674.671	528.5
675.084	508.2
675.496	501.43
675.908	487.33
676.32	537.52
676.732	486.48
677.144	473.22
677.556	511.3
677.968	488.74
678.38	525.96
678.792	507.35
679.204	519.47
679.615	498.89
680.027	480.84
680.439	516.65
680.85	500.3
681.262	513.83
681.673	515.53
682.084	492.68
682.496	497.2
682.907	475.76
683.318	494.09
683.729	480.27
684.14	486.48
684.551	483.66
684.962	480.56
685.373	457.42
685.784	490.43
686.194	491.27
686.605	505.66
687.016	470.96
687.426	477.45
687.837	467.58
688.247	460.52
688.657	457.98
689.068	474.35
689.478	451.21
689.888	490.43
690.298	478.58
690.708	478.86
691.118	487.61
691.528	482.53
691.938	459.96
692.348	448.67
692.758	478.86
693.168	498.04
693.577	480.27
693.987	470.12
694.396	434
694.806	464.19
695.215	460.81
695.625	459.4
696.034	454.32
696.443	444.16
696.852	438.51
697.262	442.46
697.671	462.22
698.08	473.22
698.489	449.8
698.897	450.93
699.306	450.37
699.715	479.43
700.124	455.73
700.532	457.98
700.941	453.75
701.35	426.94
701.758	445.29
702.166	463.91
702.575	450.08
702.983	430.04
703.391	456.57
703.799	476.89
704.208	439.08
704.616	442.18
705.024	440.77
705.432	398.42
705.839	448.95
706.247	438.79
706.655	452.91
707.063	445.85
707.47	446.7
707.878	425.25
708.285	464.47
708.693	431.17
709.1	448.11
709.508	422.14
709.915	434
710.322	426.94
710.729	436.25
711.136	437.67
711.543	439.36
711.95	435.97
712.357	413.95
712.764	432.3
713.171	434.84
713.578	441.9
713.984	413.95
714.391	433.15
714.797	425.25
715.204	435.12
715.61	448.67
716.017	427.79
716.423	425.25
716.829	437.1
717.236	434.28
717.642	394.47
718.048	392.21
718.454	415.08
718.86	390.23
719.266	422.14
719.671	435.97
720.077	423.83
720.483	413.95
720.889	428.91
721.294	431.46
721.7	439.64
722.105	425.81
722.511	434
722.916	430.61
723.321	419.03
723.726	434.56
724.132	414.8
724.537	415.36
724.942	431.17
725.347	413.11
725.752	430.61
726.156	422.7
726.561	447.54
726.966	410.28
727.371	398.14
727.775	406.89
728.18	429.76
728.584	402.66
728.989	409.72
729.393	385.43
729.798	395.6
730.202	430.04
730.606	419.32
731.01	423.83
731.414	409.15
731.818	411.69
732.222	391.36
732.626	402.66
733.03	416.21
733.434	400.68
733.837	429.2
734.241	443.87
734.645	413.39
735.048	408.31
735.452	417.34
735.855	432.58
736.258	415.36
736.662	394.75
737.065	423.83
737.468	433.71
737.871	444.44
738.274	440.77
738.677	418.19
739.08	443.31
739.483	423.55
739.886	413.39
740.289	415.65
740.691	405.76
741.094	415.93
741.497	412.54
741.899	426.37
742.302	442.46
742.704	420.16
743.106	408.31
743.508	415.36
743.911	430.89
744.313	432.02
744.715	404.92
745.117	417.06
745.519	410
745.921	426.09
746.323	418.19
746.724	437.1
747.126	422.99
747.528	417.06
747.929	416.21
748.331	404.63
748.732	391.08
749.134	390.8
749.535	398.99
749.936	413.11
750.338	427.79
750.739	407.46
751.14	406.61
751.541	412.54
751.942	408.31
752.343	417.34
752.744	450.65
753.144	415.08
753.545	397.29
753.946	393.34
754.346	425.25
754.747	413.67
755.148	429.76
755.548	412.26
755.948	383.74
756.349	407.18
756.749	413.95
757.149	428.35
757.549	405.48
757.949	412.26
758.349	397.57
758.749	385.71
759.149	396.73
759.549	412.82
759.949	386.56
760.348	416.21
760.748	426.66
761.148	407.18
761.547	413.67
761.947	413.95
762.346	418.75
762.745	417.06
763.145	408.87
763.544	408.31
763.943	384.87
764.342	391.93
764.741	390.8
765.14	424.12
765.539	394.75
765.938	422.99
766.336	411.69
766.735	391.36
767.134	413.67
767.532	398.7
767.931	402.38
768.329	403.22
768.728	383.17
769.126	403.5
769.525	412.54
769.923	428.91
770.321	391.64
770.719	397.29
771.117	388.82
771.515	389.67
771.913	374.41
772.311	397.29
772.709	387.97
773.106	407.18
773.504	383.45
773.902	391.08
774.299	397.57
774.697	432.02
775.094	403.79
775.491	411.69
775.889	411.41
776.286	419.6
776.683	403.5
777.08	378.09
777.477	398.42
777.874	392.49
778.271	386.56
778.668	398.7
779.065	415.08
779.462	408.87
779.858	405.48
780.255	430.61
780.652	432.87
781.048	402.09
781.444	406.05
781.841	407.74
782.237	383.17
782.633	412.54
783.03	381.19
783.426	394.75
783.822	388.25
784.218	396.44
784.614	424.4
785.01	412.82
785.405	392.21
785.801	383.45
786.197	405.2
786.593	398.42
786.988	398.14
787.384	396.73
787.779	387.97
788.174	397.29
788.57	410
788.965	393.34
789.36	402.38
789.755	407.18
790.15	370.74
790.545	420.45
790.94	384.87
791.335	426.66
791.73	374.98
792.125	381.48
792.52	397.57
792.914	398.14
793.309	387.12
793.703	408.59
794.098	390.51
794.492	401.81
794.887	388.82
795.281	390.23
795.675	402.09
796.069	399.27
796.463	395.6
796.857	398.42
797.251	400.12
797.645	419.88
798.039	385.71
798.433	417.34
798.826	372.72
799.22	378.37
799.614	396.16
800.007	410
800.401	408.02
800.794	412.26
801.187	397.86
801.581	422.99
801.974	404.92
802.367	392.77
802.76	412.54
803.153	396.44
803.546	382.89
803.939	392.21
804.332	410.85
804.725	395.6
805.117	425.53
805.51	426.66
805.903	388.25
806.295	393.06
806.688	404.07
807.08	411.98
807.472	404.63
807.865	406.61
808.257	392.21
808.649	409.43
809.041	404.07
809.433	414.23
809.825	376.39
810.217	409.72
810.609	400.96
811.001	390.8
811.392	412.54
811.784	416.21
812.175	393.34
812.567	407.74
812.958	409.15
813.35	397.29
813.741	380.63
814.132	410.56
814.524	391.36
814.915	397.86
815.306	391.93
815.697	419.03
816.088	398.42
816.479	402.38
816.87	398.14
817.26	389.38
817.651	411.41
818.042	394.19
818.432	389.95
818.823	360.29
819.213	392.77
819.604	400.12
819.994	388.54
820.384	401.53
820.775	382.61
821.165	383.17
821.555	379.22
821.945	383.45
822.335	417.9
822.725	397.29
823.114	416.49
823.504	378.09
823.894	404.35
824.284	378.37
824.673	376.67
825.063	397.86
825.452	408.87
825.842	396.44
826.231	385.71
826.62	386.28
827.009	428.63
827.399	412.54
827.788	413.67
828.177	400.4
828.566	360.85
828.954	392.77
829.343	408.87
829.732	386.56
830.121	381.48
830.509	426.66
830.898	401.25
831.286	380.63
831.675	414.23
832.063	449.8
832.452	404.07
832.84	402.94
833.228	409.72
833.616	405.76
834.004	412.82
834.392	430.89
834.78	396.73
835.168	373.28
835.556	384.58
835.944	380.91
836.331	377.52
836.719	400.4
837.107	402.38
837.494	401.53
837.881	375.54
838.269	396.16
838.656	393.06
839.043	427.79
839.431	404.35
839.818	397.29
840.205	396.44
840.592	399.83
840.979	398.99
841.366	408.87
841.752	380.63
842.139	401.53
842.526	383.74
842.912	382.61
843.299	381.19
843.685	407.18
844.072	374.41
844.458	390.8
844.844	385.43
845.231	403.79
845.617	399.83
846.003	386
846.389	382.89
846.775	405.48
847.161	376.11
847.547	370.74
847.933	400.12
848.318	388.25
848.704	413.11
849.09	388.54
849.475	382.89
849.861	381.19
850.246	401.53
850.631	405.76
851.017	402.38
851.402	385.43
851.787	399.27
852.172	391.64
852.557	372.44
852.942	391.36
853.327	395.6
853.712	397.57
854.097	408.87
854.481	376.11
854.866	394.19
855.25	374.41
855.635	384.3
856.019	383.17
856.404	379.78
856.788	391.64
857.172	374.98
857.557	381.48
857.941	389.95
858.325	387.12
858.709	407.18
859.093	398.42
859.477	399.55
859.86	378.65
860.244	383.74
860.628	389.1
861.012	371.59
861.395	381.76
861.779	382.89
862.162	405.76
862.545	385.15
862.929	401.25
863.312	365.94
863.695	420.16
864.078	396.16
864.461	420.45
864.844	410.85
865.227	392.49
865.61	388.25
865.993	378.93
866.376	389.1
866.758	387.12
867.141	389.95
867.523	388.54
867.906	371.02
868.288	385.43
868.671	384.02
869.053	385.43
869.435	362.83
869.817	371.31
870.199	399.83
870.581	392.21
870.963	373.85
871.345	408.59
871.727	396.73
872.109	383.45
872.491	412.82
872.872	393.34
873.254	378.65
873.635	405.2
874.017	393.62
874.398	394.47
874.779	396.44
875.161	388.54
875.542	389.38
875.923	368.76
876.304	398.42
876.685	385.15
877.066	385.71
877.447	389.38
877.828	400.96
878.208	414.8
878.589	397.86
878.97	403.22
879.35	390.51
879.731	387.69
880.111	374.41
880.491	415.65
880.872	396.73
881.252	393.06
881.632	367.92
882.012	404.63
882.392	391.08
882.772	383.45
883.152	382.61
883.532	392.49
883.912	385.71
884.291	382.89
884.671	370.18
885.051	388.82
885.43	394.75
885.81	365.37
886.189	394.75
886.568	389.38
886.948	393.06
887.327	396.44
887.706	377.8
888.085	398.14
888.464	341.64
888.843	369.05
889.222	376.67
889.601	391.36
889.979	384.3
890.358	385.71
890.737	386
891.115	397.29
891.494	389.1
891.872	374.7
892.25	378.93
892.629	391.64
893.007	396.16
893.385	421.01
893.763	395.88
894.141	380.91
894.519	412.54
894.897	382.61
895.275	391.93
895.653	406.61
896.03	405.76
896.408	402.66
896.786	380.06
897.163	405.76
897.541	391.93
897.918	395.88
898.295	384.02
898.673	396.44
899.05	441.33
899.427	395.32
899.804	379.5
900.181	398.14
900.558	382.04
900.935	386
901.312	379.5
901.688	384.3
902.065	371.87
902.442	381.76
902.818	393.06
903.195	383.17
903.571	391.64
903.947	394.47
904.324	367.07
904.7	397.57
905.076	409.43
905.452	416.21
905.828	399.83
906.204	368.76
906.58	371.87
906.956	384.58
907.331	384.87
907.707	415.65
908.083	394.19
908.458	371.87
908.834	402.94
909.209	382.61
909.585	391.36
909.96	394.75
910.335	365.94
910.71	389.67
911.086	400.12
911.461	394.75
911.836	399.55
912.21	350.4
912.585	386
912.96	377.52
913.335	397.29
913.709	367.07
914.084	376.67
914.459	412.26
914.833	393.34
915.207	395.88
915.582	391.64
915.956	380.91
916.33	368.76
916.704	387.97
917.078	371.87
917.452	371.31
917.826	385.43
918.2	397.29
918.574	377.52
918.948	384.02
919.321	391.64
919.695	387.41
920.068	392.21
920.442	390.8
920.815	400.12
921.189	388.54
921.562	398.7
921.935	387.12
922.308	392.77
922.681	381.48
923.054	405.76
923.427	369.89
923.8	393.34
924.173	402.66
924.546	384.58
924.919	370.18
925.291	389.1
925.664	389.95
926.036	384.87
926.409	394.75
926.781	390.23
927.153	403.5
927.526	370.46
927.898	410.85
928.27	376.96
928.642	405.76
929.014	391.64
929.386	402.38
929.758	399.27
930.129	393.62
930.501	374.13
930.873	387.12
931.244	368.2
931.616	376.39
931.987	399.83
932.359	381.48
932.73	374.41
933.101	395.32
933.472	402.66
933.843	386.56
934.214	361.42
934.585	404.92
934.956	372.44
935.327	382.32
935.698	407.74
936.069	380.91
936.439	370.46
936.81	391.08
937.18	380.63
937.551	390.23
937.921	388.25
938.292	379.22
938.662	370.46
939.032	396.16
939.402	365.94
939.772	395.32
940.142	376.96
940.512	387.69
940.882	404.07
941.252	384.02
941.621	394.47
941.991	392.21
942.361	373.28
942.73	366.5
943.1	395.32
943.469	381.76
943.838	384.58
944.208	385.71
944.577	405.48
944.946	384.3
945.315	379.22
945.684	352.38
946.053	401.53
946.422	370.74
946.791	372.72
947.159	375.54
947.528	395.03
947.897	373.28
948.265	385.71
948.634	381.48
949.002	409.15
949.371	361.14
949.739	370.46
950.107	389.1
950.475	378.37
950.843	397.29
951.211	375.83
951.579	403.22
951.947	374.41
952.315	398.7
952.683	385.15
953.05	391.08
953.418	385.43
953.785	351.81
954.153	376.39
954.52	399.83
954.888	373.85
955.255	389.1
955.622	394.75
955.989	397.01
956.356	368.76
956.723	384.02
957.09	391.64
957.457	388.25
957.824	368.48
958.191	374.13
958.557	378.09
958.924	380.35
959.291	383.17
959.657	386.84
960.023	387.12
960.39	396.73
960.756	373.85
961.122	390.51
961.488	408.02
961.855	378.93
962.221	380.63
962.586	380.35
962.952	365.37
963.318	371.87
963.684	385.71
964.05	403.22
964.415	390.23
964.781	382.32
965.146	375.83
965.512	387.12
965.877	388.25
966.242	394.75
966.608	398.14
966.973	385.71
967.338	387.97
967.703	408.02
968.068	405.48
968.433	369.89
968.797	409.43
969.162	373.28
969.527	363.68
969.891	367.07
970.256	388.82
970.62	372.15
970.985	367.63
971.349	379.78
971.714	381.48
972.078	373.85
972.442	350.4
972.806	388.54
973.17	350.96
973.534	364.53
973.898	363.4
974.262	413.11
974.625	411.98
974.989	366.22
975.353	373.28
975.716	389.38
976.08	390.23
976.443	385.15
976.806	377.52
977.17	381.76
977.533	386.84
977.896	349.55
978.259	368.48
978.622	402.66
978.985	375.54
979.348	363.68
979.711	392.77
980.073	391.36
980.436	359.72
980.799	391.64
981.161	387.69
981.524	396.44
981.886	382.61
982.248	402.66
982.611	404.92
982.973	376.67
983.335	384.87
983.697	368.2
984.059	381.48
984.421	383.45
984.783	374.41
985.145	351.25
985.506	382.89
985.868	342.49
986.23	371.87
986.591	389.1
986.953	358.59
987.314	372.44
987.675	360.01
988.037	500.3
988.398	386.28
988.759	381.76
989.12	388.82
989.481	381.19
989.842	382.32
990.203	368.48
990.564	382.32
990.924	388.82
991.285	502.27
991.646	360.85
992.006	371.87
992.367	363.4
992.727	356.9
993.087	355.48
993.448	387.97
993.808	393.9
994.168	414.23
994.528	365.94
994.888	385.43
995.248	382.32
995.608	396.73
995.967	382.89
996.327	370.18
996.687	378.65
997.046	371.31
997.406	377.8
997.765	354.07
998.125	380.63
998.484	371.59
998.843	367.92
999.202	356.9
999.561	381.19
999.92	377.24
1000.279	397.01
1000.638	363.68
1000.997	386.28
1001.356	362.83
1001.715	388.82
1002.073	380.63
1002.432	368.2
1002.79	386.84
1003.149	349.83
1003.507	368.48
1003.865	366.79
1004.224	388.82
1004.582	378.93
1004.94	350.96
1005.298	359.44
1005.656	373
1006.014	367.35
1006.371	347.29
1006.729	369.05
1007.087	373.28
1007.445	374.41
1007.802	365.66
1008.16	363.11
1008.517	384.02
1008.874	383.45
1009.232	356.61
1009.589	367.92
1009.946	376.67
1010.303	400.12
1010.66	371.31
1011.017	383.74
1011.374	370.74
1011.731	366.22
1012.087	377.24
1012.444	361.14
1012.801	368.2
1013.157	380.06
1013.513	396.73
1013.87	382.32
1014.226	384.87
1014.582	389.67
1014.939	378.09
1015.295	385.71
1015.651	356.33
1016.007	388.54
1016.363	381.76
1016.719	369.61
1017.074	369.61
1017.43	371.31
1017.786	361.98
1018.141	407.74
1018.497	389.1
1018.852	404.07
1019.208	376.67
1019.563	367.63
1019.918	374.7
1020.273	382.89
1020.628	357.18
1020.983	386.84
1021.338	361.42
1021.693	377.24
1022.048	374.7
1022.403	379.78
1022.757	374.13
1023.112	362.27
1023.467	384.58
1023.821	363.4
1024.175	383.45
1024.53	362.83
1024.884	373
1025.238	365.66
1025.592	404.63
1025.946	383.17
1026.3	390.51
1026.654	367.35
1027.008	377.8
1027.362	360.85
1027.716	378.37
1028.069	389.1
1028.423	389.95
1028.777	388.82
1029.13	364.24
1029.483	374.13
1029.837	380.91
1030.19	374.7
1030.543	384.87
1030.896	370.46
1031.249	396.16
1031.602	368.76
1031.955	378.09
1032.308	358.31
1032.661	411.69
1033.013	380.91
1033.366	358.59
1033.719	372.72
1034.071	371.59
1034.424	360.85
1034.776	401.25
1035.128	382.61
1035.48	371.87
1035.833	376.67
1036.185	376.39
1036.537	376.39
1036.889	376.39
