Data from SCSF78-405_irradiation_FLMS019251_20-23-27-895.txt Node
Date: Fri Feb 22 20:23:27 PST 2019
User: mu3e
Spectrometer: FLMS01925
Trigger mode: 0
Integration Time (sec): 1.206000E-2
Scans to average: 10
Electric dark correction enabled: true
Nonlinearity correction enabled: true
Boxcar width: 0
XAxis mode: Wavelengths
Number of Pixels in Spectrum: 2048
>>>>>Begin Spectral Data<<<<<
187.103	-81.58
187.574	-81.58
188.045	-81.58
188.516	-147.56
188.987	-135.32
189.458	-107.74
189.929	-114.28
190.4	-108.88
190.871	-98.36
191.342	-82.44
191.813	-56.01
192.284	-44.07
192.754	-30.44
193.225	-8.86
193.696	14.99
194.166	12.15
194.637	62.95
195.107	93.87
195.578	114.28
196.048	175.2
196.518	176.62
196.989	206.07
197.459	183.98
197.929	239.47
198.399	260.41
198.869	293.22
199.339	294.64
199.809	323.19
200.279	326.87
200.749	346.65
201.219	350.61
201.689	366.15
202.159	381.41
202.628	385.08
203.098	352.31
203.568	388.18
204.037	390.44
204.507	392.7
204.976	385.64
205.445	400.05
205.915	401.18
206.384	405.13
206.853	394.96
207.323	383.1
207.792	384.51
208.261	380.28
208.73	373.5
209.199	398.92
209.668	387.9
210.137	410.21
210.606	376.04
211.075	380.28
211.543	378.3
212.012	354
212.481	392.99
212.95	389.88
213.418	376.04
213.887	352.02
214.355	347.22
214.824	348.35
215.292	347.78
215.76	360.5
216.229	355.41
216.697	341.57
217.165	326.59
217.633	346.37
218.101	330.26
218.569	346.37
219.037	349.76
219.505	354.57
219.973	356.26
220.441	335.07
220.909	355.13
221.377	308.21
221.844	351.18
222.312	354.28
222.78	382.25
223.247	326.87
223.715	325.46
224.182	353.44
224.65	347.22
225.117	349.2
225.584	348.35
226.052	368.13
226.519	344.96
226.986	351.46
227.453	361.63
227.92	362.76
228.387	359.37
228.854	366.15
229.321	343.55
229.788	361.63
230.255	330.26
230.722	357.67
231.189	344.68
231.655	348.63
232.122	352.87
232.589	344.39
233.055	345.81
233.522	349.76
233.988	359.37
234.454	355.41
234.921	381.97
235.387	361.06
235.853	354.28
236.32	390.44
236.786	371.52
237.252	391.29
237.718	355.13
238.184	379.43
238.65	357.67
239.116	376.32
239.582	370.67
240.047	338.46
240.513	369.82
240.979	364.46
241.445	350.33
241.91	369.82
242.376	361.35
242.841	385.08
243.307	378.02
243.772	385.64
244.238	362.48
244.703	383.66
245.168	372.37
245.633	358.8
246.099	385.36
246.564	374.06
247.029	370.95
247.494	348.91
247.959	365.87
248.424	359.37
248.889	369.26
249.353	369.82
249.818	361.91
250.283	345.81
250.748	350.61
251.212	363.89
251.677	381.41
252.141	358.24
252.606	367.56
253.07	381.12
253.535	381.69
253.999	368.41
254.463	364.46
254.927	379.15
255.392	368.69
255.856	351.18
256.32	366.72
256.784	361.06
257.248	368.13
257.712	394.12
258.176	398.07
258.64	377.17
259.103	358.8
259.567	363.33
260.031	375.47
260.495	362.48
260.958	384.79
261.422	360.78
261.885	363.89
262.349	369.26
262.812	365.87
263.275	376.6
263.739	391.29
264.202	369.26
264.665	369.82
265.128	376.04
265.591	377.17
266.054	398.63
266.517	388.75
266.98	376.04
267.443	390.44
267.906	385.08
268.369	384.51
268.832	404
269.294	363.61
269.757	368.69
270.22	383.1
270.682	378.86
271.145	362.76
271.607	397.22
272.07	386.21
272.532	379.99
272.994	366.15
273.456	389.03
273.919	397.22
274.381	380.84
274.843	360.5
275.305	406.82
275.767	371.24
276.229	355.98
276.691	390.73
277.153	401.18
277.614	372.65
278.076	352.87
278.538	366.15
279	389.31
279.461	386.49
279.923	336.76
280.384	382.54
280.846	385.36
281.307	390.73
281.769	365.59
282.23	385.36
282.691	374.91
283.152	384.23
283.613	380.84
284.075	376.6
284.536	386.49
284.997	371.52
285.458	381.97
285.918	379.15
286.379	365.59
286.84	370.39
287.301	393.83
287.762	412.75
288.222	385.92
288.683	351.46
289.143	379.99
289.604	389.03
290.064	390.44
290.525	393.27
290.985	394.96
291.445	379.99
291.906	381.97
292.366	385.36
292.826	389.88
293.286	383.66
293.746	371.24
294.206	378.58
294.666	373.5
295.126	393.55
295.586	422.35
296.046	386.49
296.506	396.37
296.965	379.99
297.425	385.92
297.884	374.91
298.344	409.93
298.804	399.48
299.263	395.53
299.722	360.78
300.182	393.27
300.641	394.68
301.1	395.24
301.559	385.64
302.019	394.96
302.478	368.98
302.937	406.54
303.396	371.24
303.855	398.35
304.314	361.63
304.772	391.01
305.231	399.2
305.69	390.73
306.149	391.57
306.607	406.26
307.066	415.86
307.524	397.79
307.983	411.91
308.441	407.39
308.9	411.91
309.358	411.06
309.816	383.66
310.275	394.96
310.733	412.19
311.191	397.79
311.649	386.77
312.107	403.72
312.565	398.07
313.023	412.47
313.481	411.34
313.939	401.18
314.397	388.47
314.854	397.79
315.312	437.03
315.77	428
316.227	409.08
316.685	405.41
317.142	408.23
317.6	381.97
318.057	392.7
318.514	375.19
318.972	398.35
319.429	421.22
319.886	383.1
320.343	377.45
320.8	400.61
321.257	376.89
321.714	399.76
322.171	397.22
322.628	404.28
323.085	407.11
323.542	387.9
323.998	410.49
324.455	398.63
324.912	404
325.368	395.24
325.825	388.75
326.281	416.99
326.738	376.89
327.194	417.55
327.65	393.27
328.107	406.54
328.563	386.21
329.019	385.36
329.475	416.14
329.931	399.48
330.387	419.25
330.843	422.35
331.299	415.86
331.755	401.46
332.211	398.92
332.666	389.6
333.122	383.1
333.578	411.06
334.033	396.09
334.489	394.4
334.944	416.71
335.4	416.99
335.855	411.62
336.31	381.41
336.766	417.27
337.221	412.47
337.676	405.13
338.131	394.68
338.586	407.11
339.041	410.78
339.496	377.45
339.951	399.2
340.406	407.95
340.861	409.65
341.316	390.44
341.771	404.28
342.225	409.36
342.68	379.43
343.134	395.24
343.589	408.23
344.043	384.51
344.498	413.03
344.952	410.21
345.406	419.25
345.861	419.53
346.315	428
346.769	402.02
347.223	391.86
347.677	426.02
348.131	414.73
348.585	393.55
349.039	415.29
349.493	400.89
349.947	392.7
350.401	420.94
350.854	403.43
351.308	399.76
351.762	413.32
352.215	395.24
352.669	389.6
353.122	400.61
353.575	405.13
354.029	394.4
354.482	402.02
354.935	438.72
355.388	407.11
355.842	415.01
356.295	404.85
356.748	399.76
357.201	399.48
357.654	403.72
358.106	431.38
358.559	406.82
359.012	402.87
359.465	413.32
359.917	402.02
360.37	407.39
360.823	376.6
361.275	397.5
361.728	423.48
362.18	386.21
362.632	405.13
363.085	411.06
363.537	407.11
363.989	430.82
364.441	411.62
364.893	375.47
365.345	399.76
365.797	388.18
366.249	402.87
366.701	391.01
367.153	409.36
367.605	402.87
368.057	387.62
368.508	426.02
368.96	416.14
369.411	383.66
369.863	420.09
370.314	407.95
370.766	381.41
371.217	396.66
371.669	396.37
372.12	431.67
372.571	411.62
373.022	411.91
373.473	401.74
373.924	418.96
374.375	408.52
374.826	392.7
375.277	426.59
375.728	391.29
376.179	422.35
376.63	400.33
377.08	403.72
377.531	418.12
377.981	391.57
378.432	422.92
378.883	424.61
379.333	429.41
379.783	424.61
380.234	431.38
380.684	404
381.134	420.66
381.584	417.27
382.034	413.6
382.485	409.36
382.935	426.87
383.385	435.62
383.834	426.02
384.284	405.13
384.734	410.21
385.184	408.8
385.634	433.08
386.083	402.02
386.533	417.83
386.982	439.01
387.432	400.33
387.881	430.82
388.331	407.95
388.78	384.51
389.229	414.73
389.679	413.03
390.128	422.63
390.577	430.54
391.026	394.96
391.475	441.83
391.924	432.23
392.373	439.01
392.822	437.88
393.27	451.99
393.719	458.48
394.168	406.54
394.617	416.99
395.065	423.48
395.514	407.11
395.962	428.56
396.411	475.12
396.859	409.93
397.307	430.54
397.756	428.84
398.204	445.22
398.652	438.44
399.1	433.64
399.548	426.59
399.996	438.72
400.444	436.18
400.892	435.62
401.34	446.91
401.788	436.18
402.236	439.57
402.683	445.78
403.131	453.68
403.579	451.14
404.026	453.4
404.474	433.36
404.921	429.97
405.369	438.44
405.816	492.33
406.263	444.37
406.71	469.48
407.158	459.61
407.605	444.65
408.052	486.69
408.499	479.64
408.946	474.84
409.393	487.54
409.84	479.92
410.286	514.89
410.733	508.41
411.18	521.09
411.626	570.42
412.073	617.17
412.52	644.2
412.966	749.4
413.413	899.63
413.859	1061.6
414.305	1260.93
414.752	1543.25
415.198	1843.12
415.644	2233.47
416.09	2725.08
416.536	3260.97
416.982	3878.81
417.428	4570.12
417.874	5328.76
418.32	6171.83
418.766	7066.39
419.211	7937.9
419.657	8938.12
420.103	10166.82
420.548	10917.46
420.994	12203.02
421.439	13304.49
421.885	14343.89
422.33	15698.62
422.776	16642.92
423.221	17651.27
423.666	18863.64
424.111	20158.08
424.556	21049.21
425.001	22466.24
425.446	23768.13
425.891	25061.04
426.336	25796.23
426.781	27031.03
427.226	28957.73
427.671	29698.38
428.115	30589.54
428.56	32220.18
429.005	33687.01
429.449	34103.11
429.894	35528.74
430.338	36601.73
430.782	36602.7
431.227	38114.43
431.671	38514.68
432.115	39991.67
432.559	40948.26
433.003	40841.5
433.447	41674.57
433.891	42067.32
434.335	42509.61
434.779	43141.26
435.223	43403.57
435.667	43521.11
436.111	43875.11
436.554	43825.36
436.998	43493.65
437.442	43605
437.885	45481.14
438.328	43948.38
438.772	44397.34
439.215	44823.96
439.659	44484.09
440.102	44666.75
440.545	44130.8
440.988	44047.95
441.431	44798.83
441.874	44409.62
442.317	44600.74
442.76	44060.21
443.203	43467.45
443.646	44303.1
444.089	43832.86
444.531	44513.18
444.974	43168.17
445.417	44274.04
445.859	43292.57
446.302	44388.81
446.744	43850.36
447.186	44797.33
447.629	43837.36
448.071	43973.89
448.513	44120.28
448.956	45314.54
449.398	44544.79
449.84	43397.83
450.282	43921.37
450.724	44481.08
451.166	44342.95
451.607	44248.49
452.049	44206.16
452.491	45137.52
452.933	44816.92
453.374	45411.81
453.816	45800.46
454.257	45318.32
454.699	46389.04
455.14	46126.75
455.582	45837.86
456.023	45827.5
456.464	46010.32
456.905	46525.31
457.347	46426.33
457.788	45512.42
458.229	45855.3
458.67	46799.27
459.111	44794.81
459.552	45082.91
459.992	44818.93
460.433	44719.72
460.874	43813.36
461.315	44855.11
461.755	43856.61
462.196	43497.64
462.636	42868.04
463.077	42467.86
463.517	42421.14
463.957	42729.43
464.398	42483.27
464.838	42602.84
465.278	41537.58
465.718	41775.68
466.158	40574.52
466.598	41025.13
467.038	40693.29
467.478	40993.74
467.918	41229.16
468.358	40497.5
468.798	40210.09
469.237	40055.75
469.677	40021
470.117	40870.66
470.556	38557.64
470.996	39008.93
471.435	39183.74
471.874	39808.61
472.314	39625.15
472.753	38575.57
473.192	38815.53
473.631	38393.16
474.07	38662.5
474.509	38677.48
474.948	38921.93
475.387	38268.01
475.826	37397.96
476.265	38982.63
476.704	38487.92
477.143	38823.4
477.581	38469.75
478.02	39187.18
478.458	37787.07
478.897	38499.46
479.335	39599.3
479.774	39041.38
480.212	39199.23
480.65	39092.51
481.089	39008.44
481.527	38475.15
481.965	37982.97
482.403	39820.19
482.841	39461.22
483.279	39514.13
483.717	39598.32
484.155	39205.62
484.592	39705.91
485.03	39908.38
485.468	38794.41
485.905	38990.5
486.343	39488.04
486.781	38834.7
487.218	38229.97
487.655	38205.93
488.093	37516.77
488.53	38743.31
488.967	37902.54
489.405	37673.84
489.842	36852.99
490.279	36961.65
490.716	36653.34
491.153	37145.97
491.59	36500.47
492.027	35827.26
492.463	35594.44
492.9	34831.92
493.337	34672.31
493.773	34742.6
494.21	33960.9
494.647	33622.87
495.083	32997.67
495.519	32707.29
495.956	32709.49
496.392	32107.05
496.828	31942
497.265	31183.43
497.701	31320.97
498.137	31072.47
498.573	30333.86
499.009	30671.99
499.445	29988.83
499.881	29422.99
500.316	29764.04
500.752	28833.86
501.188	28582.17
501.624	28691.65
502.059	27441.42
502.495	27281.07
502.93	27239.93
503.366	27443.87
503.801	26775.51
504.236	26668.17
504.672	26235.19
505.107	25805.06
505.542	25312.2
505.977	25345.36
506.412	24827.23
506.847	25071.61
507.282	24480.11
507.717	24325.05
508.152	24212.54
508.587	24071.67
509.021	23455.77
509.456	23135.05
509.891	23189.09
510.325	23129.62
510.76	22807.19
511.194	22513.44
511.628	22536.92
512.063	21892.7
512.497	22088.66
512.931	21540.89
513.366	21434.37
513.8	21375.9
514.234	20723.01
514.668	20835.66
515.102	20974.32
515.536	20150.37
515.969	20393.08
516.403	19995.28
516.837	19536.63
517.271	19512.74
517.704	19245.11
518.138	19117.83
518.571	18874.36
519.005	18664.17
519.438	18522.23
519.871	18246.19
520.305	17895.49
520.738	17901.99
521.171	17485.44
521.604	17543.73
522.037	17343.32
522.47	17019.84
522.903	16659.22
523.336	16686.8
523.769	16482.66
524.202	16142.34
524.634	16034.61
525.067	15888.89
525.5	15750.41
525.932	15560.31
526.365	15274.7
526.797	15064.42
527.23	15153.59
527.662	14579.63
528.094	14472.38
528.527	14362.32
528.959	14081.42
529.391	13953.26
529.823	13491.46
530.255	13500.83
530.687	13190.17
531.119	13044.86
531.551	12964.94
531.982	12752.71
532.414	12517.93
532.846	12225.16
533.277	12090.74
533.709	11828.54
534.14	11716.59
534.572	11497.11
535.003	11436.07
535.435	11179.74
535.866	11019.34
536.297	10720.21
536.728	10792.47
537.159	10686.88
537.59	10448.33
538.022	10355.4
538.452	10176.33
538.883	9977.27
539.314	9879.72
539.745	9680.07
540.176	9584.92
540.606	9328.37
541.037	9370.21
541.468	9193.48
541.898	9023.03
542.328	8966.6
542.759	8743.28
543.189	8667.82
543.619	8499.12
544.05	8438.86
544.48	8253.25
544.91	8154.37
545.34	8065.58
545.77	7937.12
546.2	7819.49
546.63	7794.7
547.06	7655.79
547.489	7536.08
547.919	7352.65
548.349	7370.46
548.778	7308.92
549.208	7207.77
549.637	7039.1
550.067	6896.48
550.496	6961.9
550.926	6815.51
551.355	6648.4
551.784	6711.06
552.213	6482.37
552.642	6442.81
553.071	6387.4
553.5	6306.61
553.929	6120.78
554.358	6138.77
554.787	6093.53
555.216	6026.03
555.645	5920.87
556.073	5826.47
556.502	5765.18
556.93	5593.86
557.359	5597.58
557.787	5595.99
558.216	5461.66
558.644	5410.81
559.072	5381.25
559.5	5244.78
559.929	5314.9
560.357	5256.78
560.785	5160.73
561.213	5193.02
561.641	5028.77
562.068	5046.15
562.496	5003.91
562.924	4926.89
563.352	4906.28
563.779	4834
564.207	4853.55
564.634	4793.02
565.062	4788.46
565.489	4709.39
565.917	4691.69
566.344	4631.06
566.771	4607.44
567.198	4573.88
567.625	4508.34
568.053	4410.21
568.48	4411.56
568.907	4347.25
569.333	4303.63
569.76	4180.49
570.187	4229.55
570.614	4093.08
571.04	4247.07
571.467	3987.23
571.894	3939.93
572.32	3831.46
572.747	3792.47
573.173	3744.26
573.599	3675.15
574.026	3596.21
574.452	3570.43
574.878	3534.59
575.304	3441.12
575.73	3411.48
576.156	3343.74
576.582	3304.27
577.008	3204.01
577.434	3209.19
577.86	3049.86
578.285	3133.65
578.711	3071.7
579.137	2978.28
579.562	2907.46
579.988	2911.29
580.413	2841.24
580.838	2807.56
581.264	2765.65
581.689	2723.44
582.114	2714.39
582.539	2666.95
582.964	2593.39
583.39	2607.95
583.814	2552.2
584.239	2501.91
584.664	2513.73
585.089	2436.19
585.514	2417.21
585.939	2356.37
586.363	2305.97
586.788	2283.37
587.212	2279.78
587.637	2248.63
588.061	2230.43
588.485	2172.5
588.91	2164.22
589.334	2138.54
589.758	2130.81
590.182	2077.22
590.606	2023.88
591.03	2008.39
591.454	1985.16
591.878	1966.34
592.302	1975.75
592.726	1933.69
593.15	1906.55
593.573	1855.86
593.997	1852.54
594.42	1792.39
594.844	1806.8
595.267	1782.4
595.691	1778.24
596.114	1749.11
596.537	1729.13
596.96	1740.24
597.384	1740.24
597.807	1695.55
598.23	1656.39
598.653	1627.77
599.076	1612.21
599.499	1584.96
599.921	1598.31
600.344	1606.65
600.767	1586.63
601.189	1594.7
601.612	1556.88
602.034	1545.2
602.457	1520.15
602.879	1506.52
603.302	1514.31
603.724	1481.19
604.146	1491.49
604.568	1496.5
604.991	1475.9
605.413	1478.96
605.835	1514.03
606.257	1405.7
606.678	1456.68
607.1	1413.5
607.522	1451.11
607.944	1408.49
608.365	1404.31
608.787	1408.49
609.209	1390.37
609.63	1360.26
610.051	1363.05
610.473	1338.79
610.894	1361.66
611.315	1333.21
611.737	1281.03
612.158	1271.26
612.579	1306.99
613	1259.26
613.421	1279.91
613.842	1246.41
614.263	1195.85
614.683	1201.44
615.104	1193.05
615.525	1152.52
615.945	1144.14
616.366	1166.22
616.787	1137.7
617.207	1123.16
617.627	1086.23
618.048	1105.82
618.468	1077.83
618.888	1096.58
619.308	1058.8
619.728	1047.6
620.148	1033.6
620.568	1052.64
620.988	1002.23
621.408	994.11
621.828	1005.31
622.248	976.73
622.668	965.8
623.087	978.7
623.507	946.74
623.926	965.8
624.346	963.56
624.765	945.62
625.185	934.41
625.604	915.06
626.023	910.29
626.442	877.75
626.861	904.96
627.28	889.25
627.699	848.84
628.118	888.97
628.537	891.49
628.956	805.03
629.375	812.05
629.794	829.75
630.212	849.96
630.631	827.78
631.049	813.74
631.468	810.37
631.886	796.89
632.305	799.7
632.723	795.76
633.141	781.44
633.559	804.47
633.978	757.83
634.396	780.87
634.814	748.56
635.232	765.14
635.65	765.14
636.067	737.59
636.485	721.57
636.903	741.25
637.321	743.5
637.738	704.98
638.156	744.34
638.573	693.72
638.991	713.97
639.408	699.35
639.825	704.98
640.243	686.69
640.66	667
641.077	659.4
641.494	698.22
641.911	689.79
642.328	687.82
642.745	661.93
643.162	647.3
643.579	645.89
643.995	617.46
644.412	668.97
644.829	644.2
645.245	651.24
645.662	646.17
646.078	627.03
646.495	637.16
646.911	627.03
647.327	636.04
647.743	636.04
648.159	609.85
648.576	622.24
648.992	638.01
649.408	610.7
649.824	592.11
650.239	608.73
650.655	611.26
651.071	618.58
651.487	593.24
651.902	601.69
652.318	599.43
652.733	581.41
653.149	539.42
653.564	578.02
653.979	577.18
654.395	560.27
654.81	574.64
655.225	572.95
655.64	553.51
656.055	577.18
656.47	572.67
656.885	570.42
657.3	591.55
657.715	577.46
658.13	544.21
658.544	543.08
658.959	561.68
659.374	582.25
659.788	560.27
660.202	557.46
660.617	552.67
661.031	549.57
661.445	533.78
661.86	557.46
662.274	540.26
662.688	532.65
663.102	544.77
663.516	506.71
663.93	546.75
664.344	545.34
664.758	541.67
665.171	554.36
665.585	543.08
665.999	512.35
666.412	547.03
666.826	525.04
667.239	547.59
667.653	497.13
668.066	528.14
668.479	533.5
668.892	499.1
669.306	520.53
669.719	509.82
670.132	507.84
670.545	516.3
670.958	512.64
671.37	482.18
671.783	494.87
672.196	487.82
672.609	506.43
673.021	502.77
673.434	502.2
673.846	490.36
674.259	485.56
674.671	520.81
675.084	488.1
675.496	469.48
675.908	462.71
676.32	495.72
676.732	486.69
677.144	483.87
677.556	484.15
677.968	487.25
678.38	491.77
678.792	462.71
679.204	465.81
679.615	466.94
680.027	487.54
680.439	478.23
680.85	455.94
681.262	481.33
681.673	483.59
682.084	472.3
682.496	472.59
682.907	475.97
683.318	466.38
683.729	462.15
684.14	474.56
684.551	472.02
684.962	461.02
685.373	474.84
685.784	451.14
686.194	453.96
686.605	451.71
687.016	431.1
687.426	423.2
687.837	459.89
688.247	446.34
688.657	466.66
689.068	445.78
689.478	453.12
689.888	447.76
690.298	455.37
690.708	463.56
691.118	450.29
691.528	439.85
691.938	455.66
692.348	452.83
692.758	450.01
693.168	453.4
693.577	445.78
693.987	436.75
694.396	428
694.806	445.78
695.215	424.61
695.625	436.75
696.034	439.29
696.443	422.92
696.852	431.38
697.262	432.23
697.671	449.17
698.08	404
698.489	433.93
698.897	426.3
699.306	444.65
699.715	434.77
700.124	403.72
700.532	433.64
700.941	430.54
701.35	412.19
701.758	408.52
702.166	436.18
702.575	410.49
702.983	416.71
703.391	441.26
703.799	435.62
704.208	434.77
704.616	439.85
705.024	429.69
705.432	408.52
705.839	427.43
706.247	416.14
706.655	394.12
707.063	407.11
707.47	431.1
707.878	417.83
708.285	401.18
708.693	424.05
709.1	416.42
709.508	409.36
709.915	424.05
710.322	437.88
710.729	411.06
711.136	426.02
711.543	416.99
711.95	402.59
712.357	417.55
712.764	416.71
713.171	424.89
713.578	413.32
713.984	419.53
714.391	395.24
714.797	412.47
715.204	419.25
715.61	444.37
716.017	421.5
716.423	418.4
716.829	396.09
717.236	394.12
717.642	419.53
718.048	387.9
718.454	409.93
718.86	414.16
719.266	407.95
719.671	413.6
720.077	409.36
720.483	418.68
720.889	398.35
721.294	401.74
721.7	390.16
722.105	430.26
722.511	389.03
722.916	433.36
723.321	420.66
723.726	424.05
724.132	416.71
724.537	437.88
724.942	416.99
725.347	385.08
725.752	390.73
726.156	409.36
726.561	392.14
726.966	404.85
727.371	414.73
727.775	394.68
728.18	404.85
728.584	403.72
728.989	417.27
729.393	403.43
729.798	398.92
730.202	428.56
730.606	409.93
731.01	428.56
731.414	403.15
731.818	408.23
732.222	388.75
732.626	414.16
733.03	415.58
733.434	394.68
733.837	401.46
734.241	415.29
734.645	392.99
735.048	379.43
735.452	399.76
735.855	394.4
736.258	395.81
736.662	417.27
737.065	403.43
737.468	396.94
737.871	401.18
738.274	395.24
738.677	425.74
739.08	392.7
739.483	371.52
739.886	419.53
740.289	403.43
740.691	433.36
741.094	412.75
741.497	392.99
741.899	396.66
742.302	408.8
742.704	402.02
743.106	408.8
743.508	422.63
743.911	402.87
744.313	373.78
744.715	397.5
745.117	430.54
745.519	376.89
745.921	410.78
746.323	406.26
746.724	399.2
747.126	394.12
747.528	368.98
747.929	392.14
748.331	379.15
748.732	396.09
749.134	393.27
749.535	395.81
749.936	376.32
750.338	396.37
750.739	410.78
751.14	394.4
751.541	415.29
751.942	356.26
752.343	376.04
752.744	386.77
753.144	391.01
753.545	408.8
753.946	390.44
754.346	403.72
754.747	374.34
755.148	383.1
755.548	386.77
755.948	403.15
756.349	399.48
756.749	387.9
757.149	412.75
757.549	394.4
757.949	385.92
758.349	415.01
758.749	400.61
759.149	421.22
759.549	395.81
759.949	423.76
760.348	402.59
760.748	392.42
761.148	387.9
761.547	391.29
761.947	364.17
762.346	374.63
762.745	385.64
763.145	397.5
763.544	381.41
763.943	391.57
764.342	366.72
764.741	403.43
765.14	398.92
765.539	377.45
765.938	374.06
766.336	404.56
766.735	392.42
767.134	363.89
767.532	379.15
767.931	402.02
768.329	409.08
768.728	380.84
769.126	376.89
769.525	370.11
769.923	367
770.321	381.97
770.719	407.95
771.117	360.78
771.515	387.62
771.913	375.19
772.311	375.19
772.709	394.12
773.106	378.3
773.504	393.27
773.902	378.58
774.299	374.63
774.697	393.27
775.094	401.74
775.491	373.21
775.889	389.88
776.286	415.86
776.683	395.53
777.08	391.57
777.477	392.14
777.874	377.17
778.271	392.14
778.668	384.51
779.065	388.75
779.462	405.69
779.858	387.62
780.255	379.15
780.652	378.02
781.048	420.66
781.444	365.87
781.841	389.6
782.237	360.5
782.633	388.47
783.03	395.24
783.426	375.19
783.822	381.97
784.218	386.21
784.614	374.06
785.01	378.58
785.405	374.91
785.801	392.7
786.197	415.86
786.593	388.47
786.988	389.31
787.384	417.83
787.779	392.42
788.174	411.91
788.57	376.04
788.965	359.93
789.36	375.76
789.755	372.08
790.15	375.47
790.545	394.12
790.94	390.73
791.335	392.7
791.73	365.02
792.125	396.66
792.52	344.96
792.914	370.67
793.309	354.85
793.703	382.54
794.098	394.4
794.492	383.1
794.887	375.76
795.281	352.59
795.675	375.19
796.069	366.43
796.463	406.26
796.857	375.76
797.251	376.89
797.645	395.81
798.039	381.41
798.433	385.92
798.826	390.73
799.22	362.48
799.614	397.22
800.007	382.82
800.401	374.91
800.794	384.51
801.187	383.95
801.581	393.83
801.974	379.71
802.367	396.37
802.76	371.8
803.153	388.75
803.546	385.36
803.939	402.3
804.332	397.79
804.725	390.73
805.117	380.28
805.51	375.76
805.903	385.08
806.295	361.35
806.688	379.15
807.08	376.89
807.472	357.11
807.865	395.81
808.257	362.2
808.649	379.71
809.041	368.41
809.433	366.43
809.825	394.96
810.217	390.73
810.609	380.56
811.001	389.88
811.392	401.74
811.784	397.79
812.175	365.87
812.567	379.15
812.958	398.92
813.35	373.21
813.741	389.88
814.132	374.63
814.524	378.58
814.915	415.58
815.306	387.05
815.697	371.52
816.088	398.63
816.479	389.03
816.87	382.54
817.26	402.3
817.651	375.47
818.042	360.22
818.432	396.66
818.823	401.46
819.213	387.62
819.604	402.87
819.994	393.55
820.384	363.61
820.775	391.29
821.165	389.31
821.555	372.93
821.945	378.02
822.335	391.01
822.725	375.76
823.114	361.35
823.504	371.52
823.894	392.14
824.284	377.17
824.673	368.41
825.063	356.83
825.452	379.99
825.842	337.04
826.231	369.54
826.62	373.78
827.009	385.92
827.399	393.27
827.788	382.82
828.177	392.7
828.566	382.54
828.954	383.38
829.343	391.86
829.732	370.39
830.121	395.81
830.509	392.42
830.898	388.75
831.286	373.5
831.675	354
832.063	373.78
832.452	377.45
832.84	392.7
833.228	393.55
833.616	377.17
834.004	380.84
834.392	389.6
834.78	382.25
835.168	398.35
835.556	368.69
835.944	376.32
836.331	384.79
836.719	381.97
837.107	375.76
837.494	393.27
837.881	356.83
838.269	378.86
838.656	363.89
839.043	369.54
839.431	385.08
839.818	373.78
840.205	370.67
840.592	386.21
840.979	376.32
841.366	378.86
841.752	397.79
842.139	391.29
842.526	379.15
842.912	400.61
843.299	383.66
843.685	373.5
844.072	385.92
844.458	399.76
844.844	376.89
845.231	368.13
845.617	390.44
846.003	387.62
846.389	369.26
846.775	380.56
847.161	419.25
847.547	372.65
847.933	402.87
848.318	375.47
848.704	392.14
849.09	376.89
849.475	367.56
849.861	381.69
850.246	399.2
850.631	369.82
851.017	392.99
851.402	384.23
851.787	386.77
852.172	381.97
852.557	383.1
852.942	386.77
853.327	376.32
853.712	372.08
854.097	378.3
854.481	380.84
854.866	361.06
855.25	377.73
855.635	374.63
856.019	381.41
856.404	389.03
856.788	384.51
857.172	379.99
857.557	391.01
857.941	392.14
858.325	399.2
858.709	347.22
859.093	396.66
859.477	380.28
859.86	379.43
860.244	367.85
860.628	393.55
861.012	375.76
861.395	353.15
861.779	379.71
862.162	385.64
862.545	390.44
862.929	392.14
863.312	376.04
863.695	361.06
864.078	375.76
864.461	386.49
864.844	395.53
865.227	392.99
865.61	386.77
865.993	391.86
866.376	360.78
866.758	380.28
867.141	379.43
867.523	363.89
867.906	369.82
868.288	380.84
868.671	378.02
869.053	399.2
869.435	386.21
869.817	378.02
870.199	360.78
870.581	386.77
870.963	385.36
871.345	396.09
871.727	387.62
872.109	384.79
872.491	366.15
872.872	356.26
873.254	379.71
873.635	348.35
874.017	374.91
874.398	384.51
874.779	379.15
875.161	382.25
875.542	383.1
875.923	398.63
876.304	361.91
876.685	372.08
877.066	377.45
877.447	387.05
877.828	391.29
878.208	381.41
878.589	409.65
878.97	366.72
879.35	359.93
879.731	374.91
880.111	386.77
880.491	387.05
880.872	365.59
881.252	378.3
881.632	380.28
882.012	394.12
882.392	362.76
882.772	392.99
883.152	377.17
883.532	365.02
883.912	386.21
884.291	366.43
884.671	372.93
885.051	379.43
885.43	373.21
885.81	385.08
886.189	372.93
886.568	381.97
886.948	396.66
887.327	357.39
887.706	381.41
888.085	377.17
888.464	358.52
888.843	393.83
889.222	385.08
889.601	379.15
889.979	394.96
890.358	367.56
890.737	372.08
891.115	364.17
891.494	397.22
891.872	371.24
892.25	372.37
892.629	382.54
893.007	385.92
893.385	390.44
893.763	332.81
894.141	390.16
894.519	370.95
894.897	367
895.275	392.42
895.653	370.95
896.03	372.93
896.408	370.39
896.786	357.11
897.163	370.67
897.541	372.93
897.918	379.43
898.295	374.63
898.673	365.02
899.05	381.12
899.427	365.3
899.804	386.21
900.181	387.9
900.558	370.95
900.935	383.1
901.312	375.76
901.688	362.76
902.065	384.79
902.442	369.82
902.818	383.38
903.195	360.78
903.571	382.54
903.947	359.93
904.324	370.39
904.7	356.54
905.076	361.35
905.452	372.93
905.828	370.95
906.204	365.87
906.58	389.31
906.956	377.45
907.331	401.18
907.707	386.77
908.083	377.17
908.458	367.28
908.834	363.33
909.209	383.38
909.585	394.12
909.96	403.72
910.335	376.32
910.71	368.13
911.086	374.34
911.461	351.18
911.836	355.13
912.21	370.95
912.585	374.63
912.96	339.59
913.335	368.13
913.709	362.48
914.084	366.43
914.459	370.67
914.833	367.85
915.207	380.56
915.582	349.48
915.956	362.48
916.33	392.42
916.704	379.15
917.078	379.99
917.452	377.45
917.826	387.34
918.2	389.6
918.574	393.55
918.948	363.89
919.321	342.41
919.695	389.03
920.068	380.28
920.442	395.53
920.815	383.95
921.189	380.56
921.562	386.49
921.935	361.35
922.308	376.6
922.681	383.95
923.054	376.6
923.427	386.49
923.8	364.17
924.173	379.99
924.546	389.88
924.919	382.25
925.291	386.49
925.664	409.36
926.036	338.18
926.409	372.93
926.781	360.22
927.153	396.94
927.526	384.51
927.898	383.1
928.27	359.93
928.642	372.37
929.014	362.76
929.386	354
929.758	379.71
930.129	371.8
930.501	396.66
930.873	346.65
931.244	359.37
931.616	357.96
931.987	351.46
932.359	373.5
932.73	375.76
933.101	361.63
933.472	368.13
933.843	355.7
934.214	372.37
934.585	377.45
934.956	364.46
935.327	384.79
935.698	372.65
936.069	394.12
936.439	376.04
936.81	382.25
937.18	393.27
937.551	373.78
937.921	362.2
938.292	372.93
938.662	366.43
939.032	382.25
939.402	376.32
939.772	372.65
940.142	365.87
940.512	376.32
940.882	393.55
941.252	362.76
941.621	379.99
941.991	378.3
942.361	387.62
942.73	383.95
943.1	352.31
943.469	359.93
943.838	354
944.208	354
944.577	365.87
944.946	362.76
945.315	363.61
945.684	374.63
946.053	356.83
946.422	418.68
946.791	361.06
947.159	341.57
947.528	394.96
947.897	378.58
948.265	368.98
948.634	359.37
949.002	379.15
949.371	361.91
949.739	357.39
950.107	406.26
950.475	375.76
950.843	383.1
951.211	372.37
951.579	375.76
951.947	366.15
952.315	394.96
952.683	350.61
953.05	357.96
953.418	371.8
953.785	402.59
954.153	360.78
954.52	385.64
954.888	355.41
955.255	372.37
955.622	381.41
955.989	380.84
956.356	386.21
956.723	394.96
957.09	371.24
957.457	374.91
957.824	381.69
958.191	364.46
958.557	346.09
958.924	395.24
959.291	370.11
959.657	365.02
960.023	364.46
960.39	341.85
960.756	374.91
961.122	395.81
961.488	379.71
961.855	357.11
962.221	357.11
962.586	371.52
962.952	366.43
963.318	369.26
963.684	352.87
964.05	367.28
964.415	352.87
964.781	374.06
965.146	352.59
965.512	349.2
965.877	366.43
966.242	368.98
966.608	405.13
966.973	368.98
967.338	396.09
967.703	353.44
968.068	364.17
968.433	376.32
968.797	363.04
969.162	354
969.527	346.37
969.891	377.73
970.256	355.7
970.62	363.04
970.985	360.78
971.349	387.9
971.714	372.37
972.078	366.43
972.442	382.54
972.806	360.22
973.17	344.11
973.534	364.74
973.898	385.08
974.262	375.76
974.625	369.54
974.989	344.96
975.353	371.24
975.716	386.21
976.08	344.39
976.443	357.67
976.806	331.67
977.17	353.15
977.533	345.24
977.896	385.36
978.259	374.06
978.622	346.65
978.985	375.76
979.348	337.89
979.711	358.52
980.073	363.89
980.436	365.87
980.799	354.57
981.161	348.91
981.524	318.39
981.886	360.5
982.248	358.8
982.611	359.65
982.973	396.66
983.335	364.46
983.697	359.65
984.059	366.15
984.421	352.02
984.783	377.17
985.145	368.13
985.506	365.59
985.868	375.19
986.23	368.41
986.591	348.91
986.953	353.72
987.314	367.85
987.675	346.37
988.037	475.69
988.398	386.21
988.759	365.02
989.12	373.21
989.481	378.02
989.842	362.48
990.203	369.82
990.564	367.28
990.924	381.97
991.285	500.51
991.646	409.65
992.006	369.54
992.367	367.85
992.727	392.14
993.087	379.43
993.448	348.07
993.808	357.96
994.168	354
994.528	371.52
994.888	376.89
995.248	375.76
995.608	342.7
995.967	359.37
996.327	331.96
996.687	381.41
997.046	359.09
997.406	351.18
997.765	386.21
998.125	365.02
998.484	359.93
998.843	367
999.202	348.91
999.561	358.8
999.92	384.23
1000.279	371.24
1000.638	348.63
1000.997	368.13
1001.356	357.67
1001.715	371.52
1002.073	403.43
1002.432	359.65
1002.79	372.65
1003.149	355.13
1003.507	345.81
1003.865	376.89
1004.224	350.04
1004.582	364.74
1004.94	370.95
1005.298	368.98
1005.656	343.26
1006.014	387.34
1006.371	367.56
1006.729	372.37
1007.087	369.82
1007.445	354.85
1007.802	368.13
1008.16	372.08
1008.517	368.41
1008.874	370.39
1009.232	341.85
1009.589	363.61
1009.946	355.7
1010.303	388.47
1010.66	358.8
1011.017	353.44
1011.374	363.61
1011.731	348.91
1012.087	366.72
1012.444	378.86
1012.801	369.26
1013.157	335.91
1013.513	379.15
1013.87	357.11
1014.226	344.96
1014.582	356.83
1014.939	355.41
1015.295	372.65
1015.651	380.56
1016.007	361.63
1016.363	362.76
1016.719	364.46
1017.074	383.95
1017.43	365.3
1017.786	383.66
1018.141	368.13
1018.497	348.35
1018.852	398.35
1019.208	353.72
1019.563	379.99
1019.918	373.21
1020.273	372.37
1020.628	335.63
1020.983	356.83
1021.338	366.43
1021.693	360.78
1022.048	367.85
1022.403	364.17
1022.757	350.33
1023.112	370.11
1023.467	384.23
1023.821	355.98
1024.175	376.04
1024.53	367
1024.884	377.17
1025.238	381.69
1025.592	367.85
1025.946	362.2
1026.3	375.76
1026.654	366.72
1027.008	375.47
1027.362	374.63
1027.716	380.56
1028.069	357.67
1028.423	367
1028.777	367.85
1029.13	350.04
1029.483	349.48
1029.837	386.77
1030.19	371.8
1030.543	363.61
1030.896	354.85
1031.249	362.48
1031.602	369.54
1031.955	368.13
1032.308	329.7
1032.661	386.77
1033.013	393.83
1033.366	360.22
1033.719	381.69
1034.071	334.22
1034.424	379.15
1034.776	356.83
1035.128	339.59
1035.48	396.37
1035.833	360.78
1036.185	338.74
1036.537	338.74
1036.889	338.74
