Data from SCSF78-405_irradiation_FLMS019251_17-42-27-885.txt Node
Date: Fri Feb 22 17:42:27 PST 2019
User: mu3e
Spectrometer: FLMS01925
Trigger mode: 0
Integration Time (sec): 1.206000E-2
Scans to average: 10
Electric dark correction enabled: true
Nonlinearity correction enabled: true
Boxcar width: 0
XAxis mode: Wavelengths
Number of Pixels in Spectrum: 2048
>>>>>Begin Spectral Data<<<<<
187.103	-87.61
187.574	-87.61
188.045	-87.61
188.516	-121.73
188.987	-126.56
189.458	-133.95
189.929	-111.2
190.4	-127.7
190.871	-96.99
191.342	-67.43
191.813	-79.08
192.284	-40.15
192.754	-36.74
193.225	-5.5
193.696	29.7
194.166	52.12
194.637	67.44
195.107	99.77
195.578	117.63
196.048	151.07
196.518	179.96
196.989	184.78
197.459	182.8
197.929	242.82
198.399	258.38
198.869	268.28
199.339	327.1
199.809	317.2
200.279	338.69
200.749	361.58
201.219	351.97
201.689	367.79
202.159	377.12
202.628	385.31
203.098	394.91
203.568	399.71
204.037	414.68
204.507	417.78
204.976	418.35
205.445	392.37
205.915	398.58
206.384	381.63
206.853	404.23
207.323	387.85
207.792	404.51
208.261	385.31
208.73	409.59
209.199	385.31
209.668	407.33
210.137	376.83
210.606	380.5
211.075	375.7
211.543	389.54
212.012	367.51
212.481	374.29
212.95	363.84
213.418	367.79
213.887	347.45
214.355	332.75
214.824	355.64
215.292	367.23
215.76	362.99
216.229	375.14
216.697	339.54
217.165	358.75
217.633	348.58
218.101	370.34
218.569	346.6
219.037	346.6
219.505	341.8
219.973	349.14
220.441	349.71
220.909	347.73
221.377	378.53
221.844	384.46
222.312	372.88
222.78	368.08
223.247	360.16
223.715	361.86
224.182	348.3
224.65	365.53
225.117	368.08
225.584	342.93
226.052	381.07
226.519	365.81
226.986	377.96
227.453	373.73
227.92	372.88
228.387	362.42
228.854	336.43
229.321	372.03
229.788	390.67
230.255	374.86
230.722	361.86
231.189	343.21
231.655	370.05
232.122	379.94
232.589	354.51
233.055	369.21
233.522	358.75
233.988	364.12
234.454	352.54
234.921	388.98
235.387	374.57
235.853	406.49
236.32	343.77
236.786	362.14
237.252	359.32
237.718	372.88
238.184	381.63
238.65	369.21
239.116	394.34
239.582	387.85
240.047	374.01
240.513	386.44
240.979	359.32
241.445	389.83
241.91	375.99
242.376	371.75
242.841	357.06
243.307	372.03
243.772	396.89
244.238	374.57
244.703	379.94
245.168	382.76
245.633	359.6
246.099	386.72
246.564	429.92
247.029	398.3
247.494	364.12
247.959	398.58
248.424	372.6
248.889	351.12
249.353	347.45
249.818	382.48
250.283	375.99
250.748	370.62
251.212	354.51
251.677	374.57
252.141	380.5
252.606	355.93
253.07	355.93
253.535	364.97
253.999	384.46
254.463	363.84
254.927	369.49
255.392	384.18
255.856	364.12
256.32	394.91
256.784	380.5
257.248	353.95
257.712	380.22
258.176	365.25
258.64	394.63
259.103	346.32
259.567	383.89
260.031	406.49
260.495	391.52
260.958	381.92
261.422	395.19
261.885	390.67
262.349	389.54
262.812	387.85
263.275	384.18
263.739	393.5
264.202	395.76
264.665	370.05
265.128	348.58
265.591	380.5
266.054	388.98
266.517	393.21
266.98	357.34
267.443	388.7
267.906	408.46
268.369	420.32
268.832	393.21
269.294	370.62
269.757	379.09
270.22	362.71
270.682	402.25
271.145	386.72
271.607	358.75
272.07	404.79
272.532	394.06
272.994	388.7
273.456	385.59
273.919	370.62
274.381	374.57
274.843	388.7
275.305	393.5
275.767	412.42
276.229	419.48
276.691	400.56
277.153	396.6
277.614	384.46
278.076	380.22
278.538	395.19
279	378.53
279.461	396.04
279.923	393.21
280.384	396.04
280.846	390.96
281.307	377.12
281.769	392.65
282.23	404.79
282.691	399.43
283.152	370.62
283.613	384.18
284.075	401.97
284.536	389.26
284.997	394.06
285.458	402.53
285.918	401.12
286.379	391.8
286.84	381.07
287.301	386.44
287.762	395.47
288.222	390.39
288.683	399.71
289.143	400.28
289.604	383.05
290.064	402.53
290.525	396.04
290.985	403.95
291.445	355.64
291.906	401.12
292.366	387.85
292.826	395.19
293.286	364.4
293.746	390.67
294.206	412.7
294.666	390.39
295.126	424.56
295.586	398.3
296.046	390.96
296.506	377.4
296.965	402.82
297.425	386.44
297.884	410.44
298.344	389.54
298.804	358.47
299.263	389.54
299.722	394.34
300.182	402.82
300.641	388.98
301.1	394.34
301.559	409.59
302.019	372.88
302.478	388.98
302.937	385.31
303.396	417.5
303.855	414.11
304.314	427.1
304.772	415.24
305.231	396.6
305.69	382.76
306.149	408.46
306.607	395.19
307.066	404.51
307.524	415.81
307.983	392.93
308.441	413.83
308.9	392.37
309.358	423.71
309.816	402.53
310.275	388.41
310.733	397.73
311.191	399.99
311.649	392.65
312.107	399.71
312.565	364.12
313.023	409.59
313.481	406.77
313.939	408.18
314.397	392.65
314.854	392.65
315.312	389.83
315.77	402.53
316.227	407.9
316.685	400.84
317.142	421.17
317.6	403.95
318.057	401.12
318.514	425.12
318.972	382.2
319.429	385.02
319.886	384.74
320.343	399.99
320.8	397.73
321.257	386.72
321.714	420.04
322.171	407.62
322.628	425.69
323.085	364.4
323.542	381.07
323.998	387
324.455	393.21
324.912	389.26
325.368	415.52
325.825	412.7
326.281	412.98
326.738	407.05
327.194	410.16
327.65	422.02
328.107	423.43
328.563	405.08
329.019	417.22
329.475	422.3
329.931	422.86
330.387	408.18
330.843	409.31
331.299	380.5
331.755	417.22
332.211	413.26
332.666	401.69
333.122	414.96
333.578	402.82
334.033	388.98
334.489	429.36
334.944	403.66
335.4	399.71
335.855	422.3
336.31	412.98
336.766	394.34
337.221	434.15
337.676	394.34
338.131	412.42
338.586	411.85
339.041	410.44
339.496	401.12
339.951	421.17
340.406	399.99
340.861	422.58
341.316	385.87
341.771	406.77
342.225	410.16
342.68	408.18
343.134	411.29
343.589	379.37
344.043	400.84
344.498	406.49
344.952	428.51
345.406	434.44
345.861	378.81
346.315	442.06
346.769	432.46
347.223	412.98
347.677	414.11
348.131	401.12
348.585	431.33
349.039	423.43
349.493	396.04
349.947	416.65
350.401	432.46
350.854	419.76
351.308	414.39
351.762	405.08
352.215	393.21
352.669	400.28
353.122	407.33
353.575	403.1
354.029	421.45
354.482	398.02
354.935	416.37
355.388	404.23
355.842	399.43
356.295	383.61
356.748	434.15
357.201	401.4
357.654	431.33
358.106	406.49
358.559	440.36
359.012	407.62
359.465	401.69
359.917	392.09
360.37	422.02
360.823	407.9
361.275	446.29
361.728	401.4
362.18	387
362.632	444.6
363.085	420.89
363.537	395.76
363.989	416.09
364.441	397.45
364.893	429.64
365.345	431.9
365.797	441.49
366.249	406.77
366.701	408.46
367.153	388.41
367.605	412.7
368.057	406.77
368.508	438.95
368.96	422.58
369.411	405.36
369.863	417.78
370.314	400.84
370.766	419.76
371.217	403.38
371.669	412.13
372.12	431.05
372.571	453.63
373.022	431.9
373.473	437.54
373.924	429.07
374.375	445.44
374.826	427.1
375.277	402.82
375.728	418.06
376.179	431.33
376.63	411.57
377.08	415.24
377.531	417.78
377.981	394.91
378.432	434.72
378.883	399.15
379.333	381.63
379.783	436.41
380.234	430.2
380.684	427.94
381.134	430.2
381.584	424.27
382.034	428.23
382.485	420.32
382.935	420.32
383.385	425.69
383.834	418.35
384.284	416.93
384.734	414.39
385.184	427.38
385.634	416.65
386.083	426.82
386.533	426.25
386.982	419.19
387.432	433.31
387.881	434.72
388.331	448.83
388.78	435.57
389.229	432.46
389.679	428.79
390.128	443.47
390.577	420.89
391.026	411.85
391.475	422.86
391.924	435.28
392.373	420.6
392.822	449.11
393.27	416.65
393.719	431.9
394.168	447.98
394.617	466.04
395.065	420.32
395.514	421.73
395.962	444.03
396.411	427.66
396.859	407.62
397.307	466.33
397.756	458.71
398.204	442.62
398.652	463.22
399.1	452.5
399.548	470.84
399.996	458.71
400.444	470.84
400.892	460.97
401.34	475.92
401.788	460.68
402.236	444.88
402.683	439.8
403.131	443.47
403.579	469.99
404.026	475.07
404.474	460.68
404.921	455.6
405.369	449.96
405.816	477.33
406.263	471.69
406.71	481.84
407.158	479.87
407.605	471.69
408.052	440.08
408.499	482.69
408.946	494.25
409.393	497.07
409.84	493.69
410.286	497.92
410.733	519.91
411.18	547.54
411.626	591.78
412.073	626.41
412.52	658.78
412.966	768.18
413.413	920.89
413.859	1066.59
414.305	1303.03
414.752	1557.1
415.198	1877.98
415.644	2276.43
416.09	2746.41
416.536	3349.4
416.982	3955.29
417.428	4703.98
417.874	5512.7
418.32	6308.93
418.766	7129.58
419.211	8207.42
419.657	9152.84
420.103	10335.58
420.548	11227.76
420.994	12494.75
421.439	13624.59
421.885	14656.77
422.33	16116.18
422.776	17058.12
423.221	18105.3
423.666	19327.98
424.111	20622.94
424.556	21587.4
425.001	22918.26
425.446	24315.65
425.891	25634.39
426.336	26449.46
426.781	27621.27
427.226	29803.29
427.671	30429.46
428.115	31395.78
428.56	33000.31
429.005	34617.85
429.449	34913.4
429.894	36394.29
430.338	37527.99
430.782	37465.03
431.227	39051.17
431.671	39544.85
432.115	41038.93
432.559	41937.28
433.003	41884.22
433.447	42826.18
433.891	43108.82
434.335	43629.42
434.779	44305.06
435.223	44603.7
435.667	44642.85
436.111	45177.74
436.554	45071.55
436.998	44598.94
437.442	44736
437.885	46755.99
438.328	45180.01
438.772	45441.01
439.215	45960.43
439.659	45698.87
440.102	45978.39
440.545	45257.06
440.988	45083.87
441.431	45972.58
441.874	45522.96
442.317	45887.1
442.76	45379.5
443.203	44791.5
443.646	45343.21
444.089	44981.5
444.531	45730.69
444.974	44378.24
445.417	45495.22
445.859	44522.16
446.302	45631.46
446.744	45040.6
447.186	46216.36
447.629	45108.53
448.071	45110.29
448.513	45150.06
448.956	46624.32
449.398	45727.91
449.84	44535.96
450.282	45266.63
450.724	45845.65
451.166	45460.17
451.607	45430.92
452.049	45520.69
452.491	46518.67
452.933	46126.95
453.374	46592.82
453.816	47224.22
454.257	46818.05
454.699	47833.39
455.14	47327.12
455.582	47234.69
456.023	47140.03
456.464	47504.25
456.905	47714.43
457.347	47782.36
457.788	46859.28
458.229	47054.37
458.67	48104.06
459.111	46370.22
459.552	46285.03
459.992	46185.2
460.433	45954.87
460.874	44944.54
461.315	46171.02
461.755	45156.85
462.196	44884.47
462.636	44077.69
463.077	43770.82
463.517	43666.39
463.957	44031.64
464.398	43753.08
464.838	43771.07
465.278	42634.87
465.718	42936.95
466.158	41975.23
466.598	42207.75
467.038	41853.47
467.478	42254.43
467.918	42410.17
468.358	41796.2
468.798	41211.8
469.237	41224.66
469.677	41235.8
470.117	41915.96
470.556	39630.52
470.996	40115.12
471.435	40336.33
471.874	41102.48
472.314	40768.82
472.753	39641.84
473.192	39896.26
473.631	39562.33
474.07	39762.51
474.509	39857.09
474.948	40042.15
475.387	39422.05
475.826	38597.62
476.265	40154.32
476.704	39741.33
477.143	40080.36
477.581	39799.45
478.02	40312.65
478.458	39079.44
478.897	39498.83
479.335	40806.86
479.774	40300.81
480.212	40413.55
480.65	40337.56
481.089	40133.61
481.527	39674.59
481.965	39057.31
482.403	40989.49
482.841	40862.7
483.279	40827.62
483.717	40813.53
484.155	40385.18
484.592	40888.15
485.03	41073.79
485.468	39866.95
485.905	40269.23
486.343	40618.67
486.781	40021.69
487.218	39465.36
487.655	39462.9
488.093	38589.27
488.53	39842.8
488.967	39129.35
489.405	38995.61
489.842	38173.5
490.279	38104.57
490.716	37791.93
491.153	38112.66
491.59	37491.73
492.027	37036.25
492.463	36647.67
492.9	35833.81
493.337	35770.77
493.773	35861.18
494.21	35009.09
494.647	34768.42
495.083	34176.24
495.519	33835
495.956	33766.96
496.392	33089.06
496.828	32981.05
497.265	32144.8
497.701	32186.24
498.137	31900.5
498.573	31258.98
499.009	31642.3
499.445	30819.75
499.881	30458.73
500.316	30673.16
500.752	29764.48
501.188	29614.6
501.624	29496.68
502.059	28220.82
502.495	28141.1
502.93	28092.19
503.366	28218.86
503.801	27641.58
504.236	27426.2
504.672	26983.22
505.107	26779.38
505.542	26109.3
505.977	26098.75
506.412	25678.59
506.847	25951.78
507.282	25393.47
507.717	25045.76
508.152	25155.13
508.587	24849.31
509.021	24089.61
509.456	23793.72
509.891	23833.39
510.325	23938.11
510.76	23467.81
511.194	23347.93
511.628	23244.81
512.063	22586.05
512.497	22704.39
512.931	22333.69
513.366	22076.49
513.8	22120.53
514.234	21363.71
514.668	21458.85
515.102	21645.85
515.536	20804.1
515.969	21033.79
516.403	20511.23
516.837	20216.42
517.271	20275.3
517.704	19820.44
518.138	19733.89
518.571	19515.93
519.005	19229.62
519.438	19086.89
519.871	18933.39
520.305	18508.71
520.738	18479.52
521.171	18013.88
521.604	18145.26
522.037	17853.21
522.47	17506.16
522.903	17312.49
523.336	17153.03
523.769	17089.17
524.202	16730.88
524.634	16552.6
525.067	16357.17
525.5	16203.56
525.932	16114.92
526.365	15720.19
526.797	15581.64
527.23	15563.03
527.662	15061.35
528.094	14961.83
528.527	14863.54
528.959	14675.69
529.391	14438.51
529.823	13901.63
530.255	14048.77
530.687	13687.87
531.119	13429.86
531.551	13354.37
531.982	13107.21
532.414	12898.65
532.846	12598.96
533.277	12541.78
533.709	12202.97
534.14	12092.47
534.572	11973.26
535.003	11839.2
535.435	11634.64
535.866	11428.36
536.297	11065.1
536.728	11173.3
537.159	11062.8
537.59	10818.55
538.022	10674.02
538.452	10507.82
538.883	10273.41
539.314	10203.78
539.745	9957.66
540.176	9834.35
540.606	9643.67
541.037	9636.97
541.468	9478.07
541.898	9359.57
542.328	9292.41
542.759	9064.9
543.189	9038.51
543.619	8842.24
544.05	8664.66
544.48	8588.37
544.91	8497.51
545.34	8251.12
545.77	8175.93
546.2	8034.54
546.63	7990.24
547.06	7940.98
547.489	7782.64
547.919	7637.97
548.349	7589.63
548.778	7585.18
549.208	7400.25
549.637	7300.75
550.067	7168.92
550.496	7148.2
550.926	7020.41
551.355	6861.47
551.784	6945.56
552.213	6735.75
552.642	6617.53
553.071	6596.99
553.5	6544.02
553.929	6320.82
554.358	6362.01
554.787	6277.24
555.216	6201.92
555.645	6077.34
556.073	6072.57
556.502	5918.96
556.93	5809.71
557.359	5761.42
557.787	5732.22
558.216	5689.2
558.644	5631.55
559.072	5541.96
559.5	5477.05
559.929	5476.52
560.357	5440.58
560.785	5355.36
561.213	5327.91
561.641	5235.93
562.068	5208.72
562.496	5158.01
562.924	5087.24
563.352	5097.13
563.779	5062.4
564.207	5074.15
564.634	4928.98
565.062	4955.46
565.489	4858.32
565.917	4827.52
566.344	4775.82
566.771	4729.18
567.198	4731.86
567.625	4691.64
568.053	4581.89
568.48	4562.82
568.907	4513.93
569.333	4453.46
569.76	4313.01
570.187	4385.14
570.614	4234.08
571.04	4412.85
571.467	4101.4
571.894	4107.61
572.32	3969.34
572.747	3953.39
573.173	3845.75
573.599	3786.46
574.026	3726.87
574.452	3670.76
574.878	3601.04
575.304	3567.93
575.73	3511.45
576.156	3443.79
576.582	3467.98
577.008	3354.03
577.434	3332.53
577.86	3211.32
578.285	3224.4
578.711	3112.59
579.137	3088.3
579.562	3023.31
579.988	3000.91
580.413	2932.03
580.838	2896.47
581.264	2842.28
581.689	2833.52
582.114	2769.71
582.539	2736
582.964	2740.66
583.39	2711.87
583.814	2579.34
584.239	2554.07
584.664	2550.22
585.089	2507.08
585.514	2500.49
585.939	2456.22
586.363	2424.03
586.788	2414.13
587.212	2404.22
587.637	2269.53
588.061	2289.1
588.485	2256.03
588.91	2246.65
589.334	2198.66
589.758	2196.73
590.182	2171.34
590.606	2113.36
591.03	2089.6
591.454	2072.2
591.878	2069.71
592.302	2030.74
592.726	1994.23
593.15	1978.19
593.573	1931.42
593.997	1932.8
594.42	1879.64
594.844	1843.62
595.267	1881.58
595.691	1802.87
596.114	1791.22
596.537	1763.21
596.96	1789.28
597.384	1766.26
597.807	1734.08
598.23	1707.15
598.653	1675.78
599.076	1692.16
599.499	1693.83
599.921	1676.06
600.344	1628.55
600.767	1640.5
601.189	1610.21
601.612	1577.13
602.034	1584.63
602.457	1584.36
602.879	1616.05
603.302	1564.61
603.724	1542.36
604.146	1551.54
604.568	1532.07
604.991	1514.82
605.413	1551.54
605.835	1535.41
606.257	1490.32
606.678	1511.75
607.1	1497.56
607.522	1473.34
607.944	1456.07
608.365	1447.44
608.787	1434.91
609.209	1382.79
609.63	1407.88
610.051	1433.79
610.473	1375.55
610.894	1404.53
611.315	1371.64
611.737	1360.49
612.158	1303.86
612.579	1286.56
613	1309.17
613.421	1302.75
613.842	1271.77
614.263	1251.11
614.683	1227.37
615.104	1240.77
615.525	1213.96
615.945	1212.56
616.366	1200.55
616.787	1146.04
617.207	1165.89
617.627	1143.52
618.048	1117.79
618.468	1156.67
618.888	1119.47
619.308	1103.25
619.728	1087.58
620.148	1063.51
620.568	1046.43
620.988	1044.47
621.408	1048.11
621.828	1026.83
622.248	977.24
622.668	1007.5
623.087	998.26
623.507	977.24
623.926	969.96
624.346	954.54
624.765	967.99
625.185	946.13
625.604	923.42
626.023	937.16
626.442	925.38
626.861	918.93
627.28	899.58
627.699	896.77
628.118	892
628.537	894.25
628.956	881.06
629.375	841.49
629.794	867.59
630.212	857.77
630.631	870.4
631.049	846.54
631.468	828.57
631.886	835.59
632.305	789.81
632.723	838.68
633.141	791.5
633.559	805.54
633.978	787.85
634.396	778.29
634.814	748.5
635.232	792.06
635.65	770.14
636.067	745.97
636.485	743.72
636.903	769.58
637.321	757.78
637.738	761.99
638.156	743.72
638.573	740.35
638.991	732.2
639.408	717.58
639.825	714.77
640.243	704.64
640.66	695.36
641.077	664.97
641.494	703.8
641.911	700.98
642.328	686.64
642.745	710.55
643.162	683.83
643.579	678.2
643.995	690.01
644.412	656.81
644.829	647.81
645.245	643.87
645.662	635.14
646.078	674.54
646.495	660.47
646.911	640.49
647.327	649.78
647.743	641.33
648.159	644.15
648.576	629.23
648.992	625.29
649.408	621.63
649.824	616.84
650.239	650.62
650.655	630.35
651.071	626.13
651.487	576.28
651.902	581.07
652.318	589.24
652.733	603.04
653.149	590.93
653.564	577.69
653.979	610.36
654.395	620.5
654.81	569.52
655.225	586.99
655.64	610.08
656.055	576.85
656.47	557.4
656.885	590.65
657.3	571.21
657.715	580.23
658.13	571.77
658.544	559.66
658.959	585.58
659.374	570.36
659.788	561.63
660.202	568.39
660.617	565.29
661.031	554.87
661.445	549.23
661.86	552.61
662.274	544.72
662.688	562.76
663.102	539.37
663.516	554.87
663.93	548.67
664.344	505.82
664.758	535.7
665.171	535.98
665.585	528.94
665.999	523.86
666.412	532.04
666.826	504.12
667.239	523.86
667.653	541.34
668.066	537.39
668.479	526.12
668.892	506.94
669.306	515.4
669.719	535.42
670.132	499.33
670.545	510.61
670.958	512.02
671.37	501.02
671.783	481.28
672.196	524.43
672.609	523.58
673.021	492.56
673.434	541.9
673.846	497.64
674.259	483.25
674.671	509.48
675.084	492
675.496	501.59
675.908	495.38
676.32	495.38
676.732	479.87
677.144	490.3
677.556	481.84
677.968	458.71
678.38	475.07
678.792	475.92
679.204	493.41
679.615	455.6
680.027	463.5
680.439	479.59
680.85	488.61
681.262	506.1
681.673	479.02
682.084	477.33
682.496	460.97
682.907	468.87
683.318	477.61
683.729	491.15
684.14	485.23
684.551	465.2
684.962	451.94
685.373	500.46
685.784	458.43
686.194	471.69
686.605	469.99
687.016	473.66
687.426	478.46
687.837	477.05
688.247	446.01
688.657	475.35
689.068	435
689.478	489.46
689.888	438.11
690.298	439.8
690.708	427.66
691.118	451.37
691.528	467.17
691.938	472.82
692.348	449.4
692.758	482.69
693.168	457.58
693.577	453.63
693.987	464.07
694.396	463.22
694.806	447.42
695.215	436.69
695.625	441.21
696.034	474.51
696.443	447.98
696.852	455.04
697.262	433.31
697.671	449.96
698.08	459.55
698.489	428.79
698.897	435.57
699.306	454.48
699.715	439.24
700.124	446.57
700.532	448.83
700.941	420.89
701.35	439.24
701.758	468.02
702.166	422.58
702.575	452.78
702.983	444.03
703.391	468.3
703.799	421.45
704.208	438.11
704.616	419.19
705.024	431.61
705.432	433.31
705.839	430.77
706.247	443.47
706.655	451.09
707.063	433.31
707.47	453.63
707.878	427.94
708.285	423.71
708.693	438.11
709.1	450.52
709.508	415.81
709.915	418.91
710.322	422.58
710.729	437.82
711.136	408.46
711.543	409.03
711.95	444.32
712.357	419.76
712.764	417.22
713.171	425.69
713.578	390.96
713.984	441.78
714.391	418.35
714.797	425.69
715.204	415.81
715.61	409.88
716.017	411.57
716.423	411.29
716.829	437.26
717.236	411.29
717.642	437.54
718.048	401.69
718.454	412.98
718.86	418.06
719.266	443.75
719.671	417.5
720.077	406.49
720.483	417.5
720.889	422.86
721.294	422.58
721.7	391.8
722.105	421.45
722.511	407.9
722.916	399.71
723.321	420.32
723.726	424.56
724.132	419.19
724.537	410.16
724.942	413.55
725.347	404.51
725.752	396.89
726.156	405.36
726.561	400.84
726.966	396.04
727.371	422.02
727.775	418.35
728.18	424.56
728.584	415.81
728.989	415.52
729.393	426.25
729.798	414.96
730.202	384.46
730.606	426.25
731.01	421.17
731.414	400.56
731.818	415.24
732.222	417.5
732.626	422.86
733.03	440.36
733.434	416.93
733.837	407.62
734.241	401.69
734.645	431.9
735.048	417.78
735.452	421.73
735.855	416.09
736.258	411.01
736.662	403.38
737.065	417.78
737.468	428.79
737.871	402.25
738.274	391.52
738.677	416.65
739.08	411.29
739.483	402.82
739.886	403.95
740.289	405.36
740.691	402.53
741.094	395.76
741.497	408.75
741.899	412.13
742.302	407.33
742.704	431.61
743.106	404.23
743.508	408.75
743.911	406.21
744.313	396.89
744.715	403.95
745.117	414.68
745.519	425.69
745.921	419.19
746.323	417.78
746.724	435.57
747.126	409.31
747.528	413.83
747.929	429.92
748.331	411.29
748.732	417.78
749.134	403.1
749.535	397.45
749.936	421.17
750.338	393.21
750.739	432.18
751.14	375.42
751.541	387.28
751.942	403.95
752.343	428.51
752.744	390.96
753.144	396.04
753.545	379.94
753.946	431.61
754.346	411.85
754.747	397.17
755.148	402.53
755.548	413.83
755.948	433.59
756.349	414.11
756.749	392.65
757.149	381.07
757.549	397.73
757.949	402.53
758.349	401.4
758.749	416.37
759.149	390.11
759.549	391.8
759.949	419.19
760.348	417.78
760.748	414.11
761.148	413.55
761.547	387.28
761.947	385.87
762.346	386.44
762.745	373.44
763.145	381.92
763.544	411.57
763.943	391.8
764.342	392.37
764.741	403.1
765.14	402.53
765.539	386.72
765.938	397.17
766.336	377.96
766.735	399.71
767.134	384.74
767.532	401.69
767.931	383.61
768.329	401.12
768.728	387.57
769.126	405.08
769.525	427.38
769.923	375.14
770.321	409.03
770.719	394.91
771.117	401.12
771.515	426.25
771.913	382.48
772.311	404.23
772.709	388.98
773.106	420.04
773.504	394.91
773.902	412.42
774.299	407.33
774.697	385.02
775.094	405.36
775.491	394.34
775.889	398.86
776.286	411.85
776.683	391.8
777.08	400.56
777.477	388.13
777.874	391.52
778.271	391.8
778.668	385.31
779.065	385.87
779.462	392.93
779.858	389.83
780.255	413.83
780.652	405.08
781.048	391.24
781.444	377.96
781.841	411.57
782.237	399.15
782.633	407.05
783.03	407.62
783.426	408.75
783.822	425.69
784.218	411.85
784.614	382.2
785.01	430.77
785.405	408.75
785.801	356.49
786.197	383.61
786.593	386.72
786.988	421.17
787.384	424.27
787.779	361.58
788.174	371.18
788.57	390.96
788.965	378.81
789.36	376.55
789.755	400.84
790.15	389.54
790.545	381.63
790.94	385.87
791.335	388.98
791.73	402.82
792.125	387.57
792.52	369.49
792.914	377.68
793.309	384.74
793.703	397.17
794.098	408.18
794.492	391.8
794.887	407.62
795.281	384.18
795.675	382.2
796.069	380.79
796.463	390.11
796.857	374.86
797.251	402.82
797.645	372.03
798.039	393.5
798.433	397.45
798.826	389.83
799.22	396.04
799.614	399.15
800.007	416.37
800.401	413.83
800.794	377.96
801.187	386.15
801.581	404.23
801.974	380.22
802.367	367.79
802.76	374.01
803.153	366.95
803.546	395.76
803.939	391.8
804.332	381.92
804.725	382.76
805.117	355.08
805.51	389.83
805.903	396.04
806.295	406.21
806.688	403.95
807.08	366.38
807.472	374.29
807.865	381.07
808.257	427.66
808.649	396.6
809.041	382.76
809.433	386.72
809.825	442.06
810.217	414.68
810.609	392.09
811.001	377.68
811.392	376.55
811.784	412.13
812.175	395.76
812.567	399.71
812.958	399.71
813.35	375.14
813.741	411.29
814.132	389.26
814.524	401.4
814.915	396.89
815.306	406.77
815.697	392.93
816.088	368.08
816.479	388.41
816.87	406.49
817.26	372.03
817.651	379.66
818.042	386.72
818.432	419.48
818.823	391.24
819.213	397.45
819.604	404.51
819.994	392.37
820.384	392.93
820.775	405.64
821.165	384.74
821.555	375.7
821.945	399.15
822.335	352.25
822.725	373.73
823.114	408.18
823.504	381.63
823.894	418.06
824.284	359.32
824.673	409.03
825.063	391.8
825.452	393.21
825.842	401.69
826.231	354.51
826.62	411.85
827.009	409.59
827.399	372.6
827.788	393.21
828.177	369.21
828.566	410.72
828.954	416.37
829.343	403.95
829.732	391.8
830.121	385.02
830.509	385.59
830.898	410.44
831.286	364.12
831.675	389.26
832.063	381.92
832.452	377.12
832.84	383.89
833.228	393.5
833.616	394.63
834.004	381.92
834.392	402.25
834.78	385.87
835.168	392.09
835.556	368.92
835.944	385.31
836.331	373.44
836.719	384.46
837.107	391.24
837.494	373.44
837.881	369.77
838.269	383.89
838.656	385.59
839.043	396.32
839.431	415.24
839.818	365.53
840.205	379.37
840.592	403.1
840.979	401.12
841.366	386.72
841.752	382.2
842.139	407.33
842.526	393.5
842.912	390.11
843.299	390.67
843.685	394.34
844.072	405.64
844.458	385.87
844.844	401.12
845.231	377.68
845.617	378.25
846.003	387.57
846.389	406.21
846.775	384.74
847.161	388.41
847.547	372.88
847.933	392.37
848.318	423.99
848.704	406.21
849.09	390.11
849.475	371.18
849.861	370.05
850.246	405.64
850.631	394.34
851.017	383.05
851.402	397.17
851.787	368.64
852.172	383.89
852.557	376.55
852.942	395.76
853.327	360.45
853.712	397.45
854.097	398.58
854.481	398.86
854.866	389.54
855.25	353.38
855.635	401.4
856.019	387
856.404	388.98
856.788	379.66
857.172	384.18
857.557	377.4
857.941	375.42
858.325	396.04
858.709	380.5
859.093	383.61
859.477	375.7
859.86	382.48
860.244	374.86
860.628	395.76
861.012	381.07
861.395	366.1
861.779	405.36
862.162	383.05
862.545	392.65
862.929	377.96
863.312	380.79
863.695	375.14
864.078	418.91
864.461	377.12
864.844	405.08
865.227	368.64
865.61	397.17
865.993	381.63
866.376	367.51
866.758	365.53
867.141	404.79
867.523	385.02
867.906	381.35
868.288	388.98
868.671	405.92
869.053	374.86
869.435	387.28
869.817	380.5
870.199	389.26
870.581	395.76
870.963	385.31
871.345	380.5
871.727	374.01
872.109	374.01
872.491	370.9
872.872	368.64
873.254	371.75
873.635	398.86
874.017	391.24
874.398	375.42
874.779	416.93
875.161	351.4
875.542	399.99
875.923	400.56
876.304	405.08
876.685	376.83
877.066	416.37
877.447	386.72
877.828	374.01
878.208	368.92
878.589	407.05
878.97	390.39
879.35	387.28
879.731	369.77
880.111	397.45
880.491	389.83
880.872	390.96
881.252	351.12
881.632	402.82
882.012	394.06
882.392	381.35
882.772	369.21
883.152	378.53
883.532	408.75
883.912	381.63
884.291	388.13
884.671	396.04
885.051	376.27
885.43	376.27
885.81	355.08
886.189	361.58
886.568	388.13
886.948	394.91
887.327	389.26
887.706	370.34
888.085	358.75
888.464	389.54
888.843	418.91
889.222	356.77
889.601	379.09
889.979	374.57
890.358	391.24
890.737	364.68
891.115	379.94
891.494	376.55
891.872	385.59
892.25	421.45
892.629	393.78
893.007	388.41
893.385	375.42
893.763	356.49
894.141	394.63
894.519	377.96
894.897	363.27
895.275	380.5
895.653	387
896.03	378.25
896.408	372.88
896.786	394.63
897.163	384.18
897.541	399.15
897.918	374.29
898.295	360.16
898.673	383.61
899.05	382.2
899.427	395.76
899.804	364.4
900.181	369.49
900.558	390.11
900.935	372.6
901.312	393.21
901.688	368.64
902.065	391.52
902.442	388.13
902.818	378.25
903.195	407.33
903.571	374.57
903.947	363.84
904.324	406.49
904.7	372.03
905.076	386.72
905.452	365.25
905.828	411.57
906.204	378.53
906.58	356.21
906.956	402.53
907.331	373.44
907.707	368.36
908.083	374.57
908.458	379.94
908.834	368.36
909.209	373.16
909.585	404.51
909.96	384.18
910.335	366.38
910.71	389.83
911.086	395.47
911.461	364.97
911.836	397.17
912.21	413.83
912.585	377.12
912.96	379.94
913.335	395.19
913.709	371.18
914.084	368.36
914.459	375.42
914.833	399.99
915.207	388.13
915.582	389.26
915.956	370.9
916.33	390.11
916.704	372.03
917.078	384.74
917.452	348.86
917.826	378.81
918.2	351.97
918.574	392.65
918.948	370.05
919.321	372.88
919.695	385.59
920.068	360.45
920.442	380.5
920.815	403.66
921.189	378.81
921.562	377.4
921.935	395.76
922.308	388.98
922.681	389.26
923.054	397.73
923.427	376.27
923.8	382.76
924.173	388.98
924.546	395.19
924.919	343.77
925.291	361.29
925.664	380.79
926.036	354.23
926.409	371.18
926.781	373.73
927.153	388.41
927.526	372.88
927.898	399.71
928.27	371.18
928.642	383.33
929.014	374.57
929.386	366.95
929.758	400.28
930.129	379.66
930.501	397.17
930.873	364.97
931.244	365.81
931.616	395.19
931.987	370.9
932.359	373.16
932.73	387.85
933.101	386.44
933.472	363.84
933.843	383.33
934.214	382.76
934.585	375.42
934.956	366.95
935.327	378.25
935.698	384.74
936.069	391.52
936.439	401.4
936.81	402.53
937.18	406.49
937.551	386.15
937.921	354.23
938.292	405.08
938.662	365.81
939.032	362.42
939.402	361.86
939.772	394.63
940.142	375.42
940.512	358.75
940.882	379.66
941.252	378.81
941.621	352.82
941.991	394.91
942.361	388.98
942.73	376.55
943.1	370.62
943.469	374.01
943.838	399.71
944.208	372.03
944.577	386.44
944.946	369.77
945.315	386.72
945.684	409.03
946.053	372.03
946.422	391.24
946.791	359.32
947.159	364.12
947.528	362.42
947.897	362.14
948.265	381.35
948.634	355.64
949.002	369.21
949.371	367.79
949.739	378.81
950.107	387
950.475	373.44
950.843	351.97
951.211	365.53
951.579	381.63
951.947	365.53
952.315	380.5
952.683	375.14
953.05	388.7
953.418	368.36
953.785	367.79
954.153	388.7
954.52	344.06
954.888	369.49
955.255	383.61
955.622	376.27
955.989	378.53
956.356	379.94
956.723	367.79
957.09	390.67
957.457	392.09
957.824	377.96
958.191	377.12
958.557	377.96
958.924	374.86
959.291	397.73
959.657	398.02
960.023	377.4
960.39	379.94
960.756	374.86
961.122	383.61
961.488	372.6
961.855	361.01
962.221	357.06
962.586	364.97
962.952	380.22
963.318	365.53
963.684	352.54
964.05	367.79
964.415	360.16
964.781	387
965.146	383.33
965.512	394.06
965.877	387
966.242	393.78
966.608	362.14
966.973	376.55
967.338	373.73
967.703	368.64
968.068	344.91
968.433	382.2
968.797	372.31
969.162	375.7
969.527	389.26
969.891	380.5
970.256	391.52
970.62	362.99
970.985	403.95
971.349	356.49
971.714	388.7
972.078	391.52
972.442	369.77
972.806	393.21
973.17	384.46
973.534	381.92
973.898	395.47
974.262	357.9
974.625	364.12
974.989	356.77
975.353	365.81
975.716	385.59
976.08	361.58
976.443	374.01
976.806	381.63
977.17	381.07
977.533	383.33
977.896	362.99
978.259	370.62
978.622	387.85
978.985	382.2
979.348	363.84
979.711	362.42
980.073	392.09
980.436	401.97
980.799	371.18
981.161	382.2
981.524	396.89
981.886	387
982.248	377.96
982.611	367.51
982.973	392.93
983.335	377.96
983.697	370.62
984.059	360.16
984.421	354.51
984.783	389.83
985.145	372.03
985.506	368.64
985.868	367.23
986.23	362.99
986.591	358.19
986.953	370.05
987.314	342.93
987.675	381.92
988.037	508.07
988.398	364.12
988.759	374.86
989.12	387.85
989.481	379.09
989.842	397.17
990.203	407.62
990.564	360.45
990.924	381.63
991.285	512.3
991.646	383.89
992.006	363.84
992.367	371.47
992.727	355.93
993.087	373.44
993.448	366.1
993.808	368.36
994.168	372.88
994.528	366.95
994.888	373.44
995.248	364.12
995.608	362.14
995.967	351.69
996.327	375.99
996.687	364.12
997.046	392.65
997.406	399.15
997.765	352.25
998.125	366.1
998.484	374.01
998.843	369.77
999.202	372.03
999.561	375.99
999.92	365.81
1000.279	369.77
1000.638	378.81
1000.997	371.18
1001.356	363.55
1001.715	356.49
1002.073	351.97
1002.432	367.51
1002.79	354.8
1003.149	372.6
1003.507	348.3
1003.865	395.19
1004.224	362.14
1004.582	376.55
1004.94	359.03
1005.298	344.62
1005.656	385.31
1006.014	380.22
1006.371	361.29
1006.729	373.44
1007.087	364.12
1007.445	371.47
1007.802	378.53
1008.16	392.09
1008.517	355.93
1008.874	334.73
1009.232	390.39
1009.589	365.25
1009.946	375.7
1010.303	346.88
1010.66	355.93
1011.017	380.5
1011.374	377.4
1011.731	371.47
1012.087	370.9
1012.444	391.52
1012.801	384.18
1013.157	345.19
1013.513	387.85
1013.87	381.63
1014.226	366.95
1014.582	345.19
1014.939	387.28
1015.295	374.57
1015.651	372.88
1016.007	382.2
1016.363	375.42
1016.719	366.95
1017.074	370.62
1017.43	389.54
1017.786	379.37
1018.141	344.62
1018.497	380.5
1018.852	369.21
1019.208	406.21
1019.563	375.42
1019.918	358.19
1020.273	381.35
1020.628	372.6
1020.983	375.42
1021.338	392.37
1021.693	373.16
1022.048	372.03
1022.403	359.6
1022.757	370.05
1023.112	368.64
1023.467	385.31
1023.821	385.31
1024.175	386.15
1024.53	364.68
1024.884	377.12
1025.238	398.3
1025.592	381.92
1025.946	354.8
1026.3	369.49
1026.654	389.26
1027.008	388.13
1027.362	369.49
1027.716	378.81
1028.069	364.4
1028.423	369.49
1028.777	370.34
1029.13	413.26
1029.483	387.57
1029.837	345.19
1030.19	355.36
1030.543	373.73
1030.896	397.73
1031.249	372.6
1031.602	384.74
1031.955	341.8
1032.308	388.41
1032.661	382.76
1033.013	381.63
1033.366	372.6
1033.719	378.81
1034.071	371.18
1034.424	374.57
1034.776	387
1035.128	381.92
1035.48	378.25
1035.833	377.4
1036.185	355.93
1036.537	355.93
1036.889	355.93
