Data from SCSF78-405_irradiation_FLMS019251_15-26-27-894.txt Node
Date: Fri Feb 22 15:26:27 PST 2019
User: mu3e
Spectrometer: FLMS01925
Trigger mode: 0
Integration Time (sec): 1.206000E-2
Scans to average: 10
Electric dark correction enabled: true
Nonlinearity correction enabled: true
Boxcar width: 0
XAxis mode: Wavelengths
Number of Pixels in Spectrum: 2048
>>>>>Begin Spectral Data<<<<<
187.103	-90.43
187.574	-90.43
188.045	-90.43
188.516	-131.38
188.987	-146.17
189.458	-116.59
189.929	-130.24
190.4	-106.64
190.871	-87.02
191.342	-42.97
191.813	-68.55
192.284	-37.01
192.754	-8.04
193.225	-10.31
193.696	37.66
194.166	45.89
194.637	55.26
195.107	95.25
195.578	118.78
196.048	107.44
196.518	146.27
196.989	178.57
197.459	202.07
197.929	245.38
198.399	283.86
198.869	299.69
199.339	328.81
199.809	320.9
200.279	330.79
200.749	322.59
201.219	340.4
201.689	348.6
202.159	363.57
202.628	366.96
203.098	372.33
203.568	374.59
204.037	393.23
204.507	412.15
204.976	405.09
205.445	424.86
205.915	401.7
206.384	402.55
206.853	391.82
207.323	402.27
207.792	398.03
208.261	398.6
208.73	394.08
209.199	396.06
209.668	382.5
210.137	406.22
210.606	398.6
211.075	355.1
211.543	379.11
212.012	381.37
212.481	364.42
212.95	363.01
213.418	373.74
213.887	361.03
214.355	386.45
214.824	336.73
215.292	370.92
215.76	342.66
216.229	356.51
216.697	357.64
217.165	354.81
217.633	348.88
218.101	368.09
218.569	356.23
219.037	357.64
219.505	377.42
219.973	354.81
220.441	345.77
220.909	382.5
221.377	362.16
221.844	333.05
222.312	369.51
222.78	351.99
223.247	355.94
223.715	340.68
224.182	343.79
224.65	355.38
225.117	331.64
225.584	365.55
226.052	337.86
226.519	346.62
226.986	349.73
227.453	362.16
227.92	354.81
228.387	362.16
228.854	349.16
229.321	338.99
229.788	366.68
230.255	367.25
230.722	357.36
231.189	348.88
231.655	344.36
232.122	355.38
232.589	379.39
233.055	353.4
233.522	371.2
233.988	346.62
234.454	385.89
234.921	396.34
235.387	358.49
235.853	364.99
236.32	365.83
236.786	368.38
237.252	381.65
237.718	365.83
238.184	354.25
238.65	375.44
239.116	354.53
239.582	372.05
240.047	387.87
240.513	373.74
240.979	380.8
241.445	359.33
241.91	344.08
242.376	395.49
242.841	372.61
243.307	363.57
243.772	377.13
244.238	368.09
244.703	364.99
245.168	379.68
245.633	369.22
246.099	372.05
246.564	368.66
247.029	383.06
247.494	384.76
247.959	378.26
248.424	359.05
248.889	396.34
249.353	366.96
249.818	354.81
250.283	396.34
250.748	381.09
251.212	374.59
251.677	351.99
252.141	379.68
252.606	347.75
253.07	398.88
253.535	366.12
253.999	399.45
254.463	361.88
254.927	373.46
255.392	361.59
255.856	382.78
256.32	363.85
256.784	388.15
257.248	384.19
257.712	367.25
258.176	370.92
258.64	359.9
259.103	371.2
259.567	386.17
260.031	371.2
260.495	373.18
260.958	375.44
261.422	401.42
261.885	376.85
262.349	377.98
262.812	381.37
263.275	405.94
263.739	391.26
264.202	385.89
264.665	393.23
265.128	387.3
265.591	390.69
266.054	403.12
266.517	373.74
266.98	378.26
267.443	389.28
267.906	395.77
268.369	370.64
268.832	376.57
269.294	374.31
269.757	377.7
270.22	410.46
270.682	388.71
271.145	370.92
271.607	375.72
272.07	359.9
272.532	383.63
272.994	377.98
273.456	397.75
273.919	368.38
274.381	373.74
274.843	383.06
275.305	415.54
275.767	380.24
276.229	376.29
276.691	377.13
277.153	365.27
277.614	398.88
278.076	408.76
278.538	379.11
279	400.01
279.461	409.89
279.923	371.2
280.384	396.9
280.846	401.14
281.307	388.43
281.769	396.06
282.23	383.91
282.691	388.71
283.152	381.09
283.613	401.99
284.075	392.95
284.536	420.34
284.997	391.82
285.458	368.38
285.918	397.19
286.379	398.6
286.84	374.31
287.301	378.55
287.762	388.43
288.222	389
288.683	379.68
289.143	380.52
289.604	413.85
290.064	405.94
290.525	410.18
290.985	410.74
291.445	403.4
291.906	392.67
292.366	403.4
292.826	402.83
293.286	379.11
293.746	364.14
294.206	400.01
294.666	400.01
295.126	392.95
295.586	403.96
296.046	378.83
296.506	407.63
296.965	371.77
297.425	418.36
297.884	412.15
298.344	407.63
298.804	370.35
299.263	402.55
299.722	355.1
300.182	381.93
300.641	397.75
301.1	385.32
301.559	379.11
302.019	426.27
302.478	379.39
302.937	381.09
303.396	382.78
303.855	410.18
304.314	402.55
304.772	380.52
305.231	411.59
305.69	411.02
306.149	392.1
306.607	405.38
307.066	409.33
307.524	414.98
307.983	385.61
308.441	396.62
308.9	393.51
309.358	397.47
309.816	404.81
310.275	387.02
310.733	405.09
311.191	403.4
311.649	409.89
312.107	407.35
312.565	393.23
313.023	407.92
313.481	413.28
313.939	411.31
314.397	395.21
314.854	376
315.312	401.7
315.77	432.48
316.227	392.67
316.685	406.51
317.142	420.62
317.6	405.09
318.057	396.9
318.514	369.51
318.972	427.96
319.429	414.98
319.886	411.87
320.343	425.42
320.8	390.41
321.257	392.1
321.714	390.97
322.171	414.41
322.628	391.82
323.085	402.83
323.542	399.45
323.998	412.72
324.455	404.53
324.912	392.95
325.368	405.94
325.825	403.12
326.281	391.54
326.738	420.34
327.194	408.76
327.65	382.22
328.107	415.54
328.563	426.55
329.019	403.4
329.475	394.64
329.931	394.08
330.387	420.34
330.843	404.53
331.299	404.81
331.755	412.72
332.211	425.99
332.666	412.43
333.122	407.07
333.578	407.92
334.033	402.55
334.489	403.12
334.944	416.95
335.4	418.36
335.855	432.76
336.31	395.49
336.766	407.35
337.221	416.11
337.676	413
338.131	383.06
338.586	396.62
339.041	427.12
339.496	392.39
339.951	442.92
340.406	412.15
340.861	405.66
341.316	394.08
341.771	394.36
342.225	401.42
342.68	392.67
343.134	407.63
343.589	406.51
344.043	421.47
344.498	404.25
344.952	394.08
345.406	408.76
345.861	406.79
346.315	419.49
346.769	402.83
347.223	407.92
347.677	400.29
348.131	414.41
348.585	396.06
349.039	412.72
349.493	428.24
349.947	411.02
350.401	434.45
350.854	396.62
351.308	429.37
351.762	435.58
352.215	406.22
352.669	418.08
353.122	433.89
353.575	404.81
354.029	423.45
354.482	411.02
354.935	391.82
355.388	393.23
355.842	396.06
356.295	401.42
356.748	420.34
357.201	425.7
357.654	408.2
358.106	401.14
358.559	425.14
359.012	418.93
359.465	398.32
359.917	396.06
360.37	414.69
360.823	405.38
361.275	410.18
361.728	409.89
362.18	408.2
362.632	421.19
363.085	420.06
363.537	415.82
363.989	400.58
364.441	423.16
364.893	421.75
365.345	410.18
365.797	407.92
366.249	393.51
366.701	398.03
367.153	410.74
367.605	414.41
368.057	405.94
368.508	429.09
368.96	427.4
369.411	412.15
369.863	436.71
370.314	427.68
370.766	428.81
371.217	436.43
371.669	419.78
372.12	387.87
372.571	422.6
373.022	438.12
373.473	411.31
373.924	417.52
374.375	427.12
374.826	424.29
375.277	408.76
375.728	408.2
376.179	425.7
376.63	416.95
377.08	380.52
377.531	417.23
377.981	434.74
378.432	402.27
378.883	417.8
379.333	404.81
379.783	383.63
380.234	432.2
380.684	411.31
381.134	429.94
381.584	446.59
382.034	421.47
382.485	423.16
382.935	440.1
383.385	410.18
383.834	437.56
384.284	409.05
384.734	417.23
385.184	413
385.634	426.55
386.083	420.9
386.533	419.78
386.982	434.74
387.432	447.72
387.881	438.41
388.331	391.54
388.78	426.83
389.229	451.11
389.679	414.41
390.128	425.99
390.577	428.81
391.026	401.99
391.475	415.26
391.924	428.53
392.373	438.12
392.822	426.55
393.27	424.01
393.719	394.93
394.168	423.45
394.617	452.52
395.065	432.76
395.514	430.78
395.962	441.23
396.411	448.85
396.859	427.12
397.307	414.69
397.756	448.28
398.204	445.74
398.652	443.77
399.1	436.71
399.548	442.36
399.996	463.24
400.444	444.05
400.892	427.4
401.34	430.78
401.788	436.15
402.236	439.82
402.683	447.72
403.131	455.06
403.579	477.35
404.026	479.04
404.474	474.53
404.921	449.98
405.369	471.42
405.816	491.73
406.263	463.8
406.71	479.04
407.158	456.75
407.605	498.5
408.052	471.99
408.499	501.6
408.946	490.89
409.393	486.66
409.84	498.22
410.286	514.29
410.733	518.52
411.18	551.78
411.626	565.59
412.073	621.36
412.52	674.84
412.966	758.36
413.413	904.36
413.859	1071.92
414.305	1286.02
414.752	1585.76
415.198	1905.97
415.644	2262.94
416.09	2814.64
416.536	3343.71
416.982	4028.79
417.428	4761.36
417.874	5588.78
418.32	6441.99
418.766	7321.46
419.211	8371.53
419.657	9344.09
420.103	10486.8
420.548	11397.22
420.994	12770.2
421.439	13856.88
421.885	15024.84
422.33	16423.18
422.776	17395.34
423.221	18525.69
423.666	19877.16
424.111	20991.4
424.556	21948.6
425.001	23508.26
425.446	24991.94
425.891	26159.85
426.336	27142.2
426.781	28332.57
427.226	30515.35
427.671	31094.88
428.115	32070.94
428.56	33790.14
429.005	35179.26
429.449	35882.2
429.894	37098.94
430.338	38272.64
430.782	38427.01
431.227	40053.01
431.671	40439.48
432.115	41938.29
432.559	42983.03
433.003	43025.62
433.447	43877.58
433.891	44038.41
434.335	44739.28
434.779	45337.94
435.223	45589.33
435.667	45713.53
436.111	46134.31
436.554	46191.29
436.998	45602.46
437.442	45614.57
437.885	47950.17
438.328	46220.93
438.772	46744.56
439.215	47066.11
439.659	46708.2
440.102	47172.19
440.545	46543.31
440.988	46297.22
441.431	47168.36
441.874	46679.99
442.317	47028.39
442.76	46620.78
443.203	45999.91
443.646	46522.74
444.089	46216.12
444.531	46863.11
444.974	45751.67
445.417	46721.68
445.859	45709.24
446.302	46852.42
446.744	46063.43
447.186	47322.79
447.629	46265.28
448.071	46230.56
448.513	46403.21
448.956	47703.94
449.398	46966.73
449.84	45666.82
450.282	46391.54
450.724	46949.16
451.166	46660.16
451.607	46569.97
452.049	46567.18
452.491	47713.94
452.933	47199.23
453.374	47841.87
453.816	48306.36
454.257	47820.84
454.699	49056.68
455.14	48695.81
455.582	48440.14
456.023	48492.77
456.464	48527.1
456.905	49082.12
457.347	49113.54
457.788	48115.65
458.229	48203.89
458.67	49219.82
459.111	47504.26
459.552	47557.48
459.992	47308.23
460.433	47236.75
460.874	46102.91
461.315	47417.58
461.755	46390.28
462.196	46008.77
462.636	45157.37
463.077	44855.83
463.517	44996.35
463.957	45084.39
464.398	44937.77
464.838	44858.85
465.278	43804.08
465.718	44029.4
466.158	43071.71
466.598	43530.56
467.038	42854.32
467.478	43524.57
467.918	43600.72
468.358	42823.7
468.798	42467.83
469.237	42368.2
469.677	42297.9
470.117	43145.96
470.556	40643.87
470.996	41126.73
471.435	41468.46
471.874	42205.04
472.314	41798.95
472.753	40946.99
473.192	41043.65
473.631	40671.03
474.07	40907.69
474.509	40951.93
474.948	41346.42
475.387	40512.53
475.826	39496.14
476.265	41211.07
476.704	40805.15
477.143	41231.61
477.581	40877.79
478.02	41664.13
478.458	40020.97
478.897	40873.34
479.335	42081.18
479.774	41277.38
480.212	41696.34
480.65	41305.84
481.089	41254.37
481.527	40734.75
481.965	40399.75
482.403	42262.14
482.841	41887.95
483.279	42015.68
483.717	42033.55
484.155	41561.57
484.592	41932.59
485.03	42094.34
485.468	41186.34
485.905	41236.8
486.343	42021.14
486.781	41236.06
487.218	40483.41
487.655	40469.58
488.093	39635.71
488.53	41118.82
488.967	40341.28
489.405	40058.68
489.842	39230.92
490.279	39212.97
490.716	38941.07
491.153	39286.26
491.59	38684.08
492.027	38038.36
492.463	37598.57
492.9	36928.08
493.337	36891.13
493.773	36942.03
494.21	35949.65
494.647	35803.53
495.083	35191.71
495.519	34814.08
495.956	34753.55
496.392	34029.9
496.828	33709.91
497.265	33128.57
497.701	33151.98
498.137	32964.97
498.573	32030.71
499.009	32524.41
499.445	31760.08
499.881	31317.04
500.316	31593.55
500.752	30652.69
501.188	30566.09
501.624	30401.42
502.059	29211.24
502.495	29015.35
502.93	29007.04
503.366	29110.12
503.801	28610.73
504.236	28343.57
504.672	27753.42
505.107	27535.87
505.542	26979.56
505.977	26952.37
506.412	26446.78
506.847	26687.5
507.282	26175.06
507.717	25862.71
508.152	25815.59
508.587	25459.8
509.021	24854.74
509.456	24687.74
509.891	24736.69
510.325	24649.86
510.76	24295.97
511.194	24057.36
511.628	23997.75
512.063	23372.86
512.497	23443.65
512.931	22969.39
513.366	22849.39
513.8	22768.63
514.234	22137.11
514.668	22104.22
515.102	22382.41
515.536	21430.63
515.969	21574.29
516.403	21194.71
516.837	20841.83
517.271	20902.85
517.704	20497.84
518.138	20290.47
518.571	20132.7
519.005	19793.35
519.438	19582.39
519.871	19573.68
520.305	19122.78
520.738	19042.55
521.171	18509.72
521.604	18746.93
522.037	18504.98
522.47	18124.55
522.903	17773.49
523.336	17614.98
523.769	17582.21
524.202	17014.8
524.634	17161.55
525.067	16926.87
525.5	16739.66
525.932	16493.67
526.365	16207.84
526.797	16111.42
527.23	16091.84
527.662	15636.48
528.094	15389.19
528.527	15268.63
528.959	15121.32
529.391	14847.17
529.823	14387.03
530.255	14515.25
530.687	14071.79
531.119	13857.9
531.551	13788.59
531.982	13459.77
532.414	13350.84
532.846	13036.96
533.277	12889.53
533.709	12541.03
534.14	12512.56
534.572	12376.77
535.003	12144.18
535.435	11968.18
535.866	11794.85
536.297	11455.71
536.728	11595.87
537.159	11380.61
537.59	11147.23
538.022	10994.49
538.452	10770.4
538.883	10559.41
539.314	10542.73
539.745	10285.25
540.176	10179.38
540.606	9863.46
541.037	9917.01
541.468	9730.29
541.898	9654.51
542.328	9539.49
542.759	9421.82
543.189	9298.89
543.619	9141.22
544.05	8910.64
544.48	8835.52
544.91	8746.62
545.34	8573.34
545.77	8447.92
546.2	8388.16
546.63	8193.38
547.06	8222
547.489	8061.64
547.919	7783.7
548.349	7826.5
548.778	7787.36
549.208	7602.97
549.637	7523.24
550.067	7420.42
550.496	7429.06
550.926	7299.45
551.355	7079.74
551.784	7077.64
552.213	6959.24
552.642	6818.37
553.071	6846.24
553.5	6705.5
553.929	6481.55
554.358	6564.59
554.787	6491.57
555.216	6425.36
555.645	6240.79
556.073	6160.69
556.502	6145.08
556.93	6009.05
557.359	5939.38
557.787	5907.58
558.216	5818.48
558.644	5781.87
559.072	5790.63
559.5	5658.14
559.929	5621.74
560.357	5556.34
560.785	5505
561.213	5402.52
561.641	5403.59
562.068	5374.29
562.496	5266.61
562.924	5241.01
563.352	5194.59
563.779	5243.95
564.207	5228.47
564.634	5132.66
565.062	5138.54
565.489	4993.72
565.917	5044.51
566.344	4972.6
566.771	4936.75
567.198	4884.57
567.625	4794.06
568.053	4679.05
568.48	4753.86
568.907	4674.22
569.333	4568.21
569.76	4459.93
570.187	4458.31
570.614	4384.62
571.04	4460.46
571.467	4281.52
571.894	4202.02
572.32	4120.04
572.747	4054.72
573.173	3982.6
573.599	3964.22
574.026	3854.15
574.452	3780.25
574.878	3768.33
575.304	3689.48
575.73	3622.5
576.156	3546.5
576.582	3562.52
577.008	3419.33
577.434	3390.78
577.86	3282.99
578.285	3325.2
578.711	3229.87
579.137	3156.81
579.562	3142.35
579.988	3101.69
580.413	3020.6
580.838	2974.42
581.264	2998.74
581.689	2930.4
582.114	2883.63
582.539	2832.72
582.964	2797.12
583.39	2784.24
583.814	2747.53
584.239	2672.95
584.664	2647.16
585.089	2614.22
585.514	2571.39
585.939	2518.64
586.363	2465.31
586.788	2472.73
587.212	2437.26
587.637	2398.18
588.061	2362.67
588.485	2312.54
588.91	2297.11
589.334	2294.63
589.758	2245.84
590.182	2216.06
590.606	2170.81
591.03	2136.85
591.454	2092.66
591.878	2091.83
592.302	2050.93
592.726	2039.88
593.15	2014.44
593.573	1972.4
593.997	1976.55
594.42	1936.7
594.844	1923.96
595.267	1881.87
595.691	1857.49
596.114	1860.54
596.537	1779.32
596.96	1795.4
597.384	1832.55
597.807	1761.29
598.23	1769.05
598.653	1756.85
599.076	1757.68
599.499	1709.39
599.921	1695.79
600.344	1676.35
600.767	1679.68
601.189	1662.74
601.612	1638.02
602.034	1609.12
602.457	1590.49
602.879	1618.84
603.302	1655.24
603.724	1588.54
604.146	1576.87
604.568	1567.69
604.991	1565.46
605.413	1559.07
605.835	1572.7
606.257	1517.62
606.678	1549.05
607.1	1554.62
607.522	1527.91
607.944	1516.22
608.365	1499.53
608.787	1500.64
609.209	1425.17
609.63	1452.75
610.051	1452.19
610.473	1413.19
610.894	1399.54
611.315	1368.31
611.737	1339.87
612.158	1364.13
612.579	1322.02
613	1345.73
613.421	1330.11
613.842	1317.27
614.263	1270.39
614.683	1290.76
615.104	1304.72
615.525	1237.16
615.945	1208.67
616.366	1219.56
616.787	1198.33
617.207	1170.1
617.627	1145.5
618.048	1148.29
618.468	1145.22
618.888	1126.48
619.308	1147.18
619.728	1119.49
620.148	1100.47
620.568	1111.66
620.988	1061.85
621.408	1062.41
621.828	1047.01
622.248	1034.97
622.668	1025.17
623.087	1028.25
623.507	1012.28
623.926	1044.49
624.346	1014.8
624.765	975.58
625.185	956.8
625.604	958.2
626.023	978.38
626.442	933.25
626.861	915.02
627.28	948.67
627.699	927.92
628.118	921.47
628.537	897.35
628.956	887.25
629.375	897.07
629.794	885.29
630.212	888.93
630.631	879.39
631.049	834.77
631.468	876.03
631.886	831.4
632.305	828.03
632.723	836.45
633.141	824.1
633.559	837.85
633.978	778.03
634.396	788.14
634.814	801.91
635.232	753.02
635.65	765.95
636.067	791.8
636.485	791.23
636.903	780.28
637.321	745.99
637.738	758.36
638.156	769.6
638.573	762.29
638.991	725.19
639.408	729.97
639.825	720.13
640.243	742.34
640.66	718.16
641.077	674.56
641.494	714.78
641.911	674.56
642.328	696.22
642.745	716.19
643.162	693.97
643.579	692.85
643.995	666.96
644.412	652.61
644.829	679.06
645.245	661.33
645.662	681.03
646.078	648.67
646.495	652.61
646.911	671.75
647.327	652.33
647.743	654.58
648.159	682.16
648.576	655.99
648.992	643.88
649.408	663.3
649.824	636
650.239	622.49
650.655	628.12
651.071	603.06
651.487	626.15
651.902	584.47
652.318	599.12
652.733	616.86
653.149	625.59
653.564	605.88
653.979	605.31
654.395	615.73
654.81	587.29
655.225	564.47
655.64	600.24
656.055	585.6
656.47	585.6
656.885	573.76
657.3	562.49
657.715	554.6
658.13	562.21
658.544	578.83
658.959	565.31
659.374	574.61
659.788	603.62
660.202	592.36
660.617	560.8
661.031	569.26
661.445	550.38
661.86	565.31
662.274	539.67
662.688	535.72
663.102	570.38
663.516	533.75
663.93	570.1
664.344	538.26
664.758	549.53
665.171	546.43
665.585	548.4
665.999	518.8
666.412	552.07
666.826	503.01
667.239	552.35
667.653	505.83
668.066	546.43
668.479	501.89
668.892	510.91
669.306	527.26
669.719	526.98
670.132	497.94
670.545	516.27
670.958	497.37
671.37	529.8
671.783	497.37
672.196	507.53
672.609	529.24
673.021	500.76
673.434	507.53
673.846	497.94
674.259	492.86
674.671	492.3
675.084	488.63
675.496	521.62
675.908	504.99
676.32	488.63
676.732	495.68
677.144	493.42
677.556	480.17
677.968	484.96
678.38	505.27
678.792	504.42
679.204	488.35
679.615	483.55
680.027	488.07
680.439	477.91
680.85	489.19
681.262	475.94
681.673	491.17
682.084	474.24
682.496	445.46
682.907	482.99
683.318	496.81
683.729	482.71
684.14	460.42
684.551	474.81
684.962	452.52
685.373	443.2
685.784	487.22
686.194	467.19
686.605	472.55
687.016	456.75
687.426	446.03
687.837	468.04
688.247	449.98
688.657	444.62
689.068	435.3
689.478	469.45
689.888	468.04
690.298	453.65
690.708	433.89
691.118	447.44
691.528	462.39
691.938	453.08
692.348	453.93
692.758	458.44
693.168	443.2
693.577	441.51
693.987	456.47
694.396	454.77
694.806	446.03
695.215	470.86
695.625	459.01
696.034	453.93
696.443	436.71
696.852	457.88
697.262	458.44
697.671	444.05
698.08	448.85
698.489	455.9
698.897	458.73
699.306	407.35
699.715	488.35
700.124	451.95
700.532	438.97
700.941	413.28
701.35	462.11
701.758	449.41
702.166	429.37
702.575	427.96
702.983	440.66
703.391	445.74
703.799	444.33
704.208	441.23
704.616	455.34
705.024	422.32
705.432	418.65
705.839	402.55
706.247	452.24
706.655	431.35
707.063	430.78
707.47	429.37
707.878	422.32
708.285	406.79
708.693	451.39
709.1	420.62
709.508	457.88
709.915	411.59
710.322	431.35
710.729	435.58
711.136	436.71
711.543	435.02
711.95	423.16
712.357	401.42
712.764	411.02
713.171	433.61
713.578	411.02
713.984	387.3
714.391	401.99
714.797	436.71
715.204	426.27
715.61	435.58
716.017	406.51
716.423	422.03
716.829	424.01
717.236	406.79
717.642	426.83
718.048	396.9
718.454	420.34
718.86	383.63
719.266	405.94
719.671	406.22
720.077	401.14
720.483	415.26
720.889	436.99
721.294	452.52
721.7	406.22
722.105	423.16
722.511	417.23
722.916	408.76
723.321	391.82
723.726	419.78
724.132	416.67
724.537	410.74
724.942	403.4
725.347	405.66
725.752	402.83
726.156	403.96
726.561	413.56
726.966	413.85
727.371	420.62
727.775	406.22
728.18	418.36
728.584	426.27
728.989	418.36
729.393	381.93
729.798	409.05
730.202	407.63
730.606	395.21
731.01	420.34
731.414	415.82
731.818	446.31
732.222	387.02
732.626	404.53
733.03	387.87
733.434	409.05
733.837	390.69
734.241	409.05
734.645	401.99
735.048	421.75
735.452	414.98
735.855	384.19
736.258	429.94
736.662	414.98
737.065	392.95
737.468	396.9
737.871	431.63
738.274	412.43
738.677	406.79
739.08	408.76
739.483	398.88
739.886	394.64
740.289	418.08
740.691	396.06
741.094	402.55
741.497	414.41
741.899	402.83
742.302	386.74
742.704	392.1
743.106	423.73
743.508	415.26
743.911	404.25
744.313	415.26
744.715	408.48
745.117	392.67
745.519	418.93
745.921	398.32
746.323	413.56
746.724	420.34
747.126	403.96
747.528	397.19
747.929	387.02
748.331	380.52
748.732	397.75
749.134	398.32
749.535	420.06
749.936	399.73
750.338	403.4
750.739	390.13
751.14	400.29
751.541	423.73
751.942	396.34
752.343	391.54
752.744	407.92
753.144	413.85
753.545	391.82
753.946	406.22
754.346	393.8
754.747	409.89
755.148	386.17
755.548	431.07
755.948	392.95
756.349	405.38
756.749	404.25
757.149	375.72
757.549	393.51
757.949	387.3
758.349	377.13
758.749	385.89
759.149	378.83
759.549	408.76
759.949	388.43
760.348	417.8
760.748	403.68
761.148	405.09
761.547	389.56
761.947	389.56
762.346	381.93
762.745	408.76
763.145	404.53
763.544	381.09
763.943	390.97
764.342	426.27
764.741	394.64
765.14	398.6
765.539	406.79
765.938	410.18
766.336	408.2
766.735	399.73
767.134	397.19
767.532	399.45
767.931	400.86
768.329	393.51
768.728	411.87
769.126	373.74
769.525	389
769.923	398.88
770.321	417.23
770.719	423.45
771.117	394.64
771.515	403.68
771.913	401.14
772.311	389.28
772.709	378.55
773.106	389.28
773.504	363.01
773.902	405.09
774.299	395.49
774.697	384.19
775.094	396.9
775.491	396.62
775.889	412.72
776.286	402.83
776.683	389.56
777.08	407.92
777.477	422.88
777.874	373.74
778.271	397.47
778.668	373.74
779.065	400.86
779.462	392.39
779.858	392.67
780.255	391.26
780.652	383.63
781.048	422.03
781.444	397.19
781.841	393.51
782.237	398.32
782.633	416.67
783.03	376.57
783.426	403.96
783.822	378.55
784.218	405.38
784.614	374.03
785.01	384.76
785.405	401.7
785.801	389.84
786.197	406.22
786.593	385.04
786.988	380.8
787.384	396.34
787.779	385.61
788.174	402.55
788.57	392.1
788.965	367.53
789.36	407.92
789.755	408.2
790.15	379.11
790.545	360.46
790.94	383.35
791.335	396.62
791.73	400.86
792.125	389
792.52	398.88
792.914	405.38
793.309	413.28
793.703	389.56
794.098	363.85
794.492	374.31
794.887	363.01
795.281	402.27
795.675	389.56
796.069	380.8
796.463	375.44
796.857	390.97
797.251	400.01
797.645	373.74
798.039	372.33
798.433	390.97
798.826	423.16
799.22	394.08
799.614	372.05
800.007	384.48
800.401	391.54
800.794	375.44
801.187	398.03
801.581	405.94
801.974	389.56
802.367	387.58
802.76	380.24
803.153	406.51
803.546	401.99
803.939	391.26
804.332	379.96
804.725	391.54
805.117	398.32
805.51	385.32
805.903	392.95
806.295	391.82
806.688	385.61
807.08	409.33
807.472	374.03
807.865	376.85
808.257	382.5
808.649	387.58
809.041	398.88
809.433	375.44
809.825	391.26
810.217	371.77
810.609	387.3
811.001	401.14
811.392	353.12
811.784	381.65
812.175	402.83
812.567	409.61
812.958	392.95
813.35	412.43
813.741	377.98
814.132	396.62
814.524	405.66
814.915	382.5
815.306	402.27
815.697	390.69
816.088	386.45
816.479	385.32
816.87	376.85
817.26	389
817.651	379.96
818.042	390.97
818.432	403.96
818.823	403.68
819.213	409.89
819.604	394.36
819.994	371.48
820.384	382.78
820.775	411.59
821.165	375.44
821.555	393.51
821.945	364.7
822.335	392.39
822.725	388.71
823.114	387.3
823.504	369.79
823.894	390.13
824.284	379.11
824.673	408.76
825.063	370.92
825.452	396.06
825.842	363.85
826.231	390.41
826.62	373.18
827.009	376.85
827.399	386.74
827.788	394.36
828.177	358.49
828.566	386.17
828.954	403.68
829.343	396.62
829.732	398.03
830.121	390.13
830.509	381.09
830.898	403.12
831.286	409.05
831.675	383.91
832.063	359.62
832.452	375.16
832.84	377.98
833.228	371.48
833.616	377.7
834.004	384.48
834.392	385.89
834.78	392.67
835.168	409.61
835.556	408.76
835.944	378.55
836.331	384.19
836.719	402.27
837.107	359.62
837.494	381.93
837.881	381.93
838.269	401.99
838.656	396.34
839.043	387.58
839.431	353.4
839.818	378.55
840.205	362.44
840.592	381.65
840.979	388.43
841.366	377.98
841.752	375.44
842.139	371.2
842.526	363.85
842.912	381.37
843.299	380.8
843.685	371.2
844.072	376.29
844.458	379.39
844.844	375.44
845.231	385.32
845.617	383.63
846.003	419.49
846.389	368.66
846.775	416.11
847.161	390.97
847.547	391.26
847.933	369.79
848.318	383.06
848.704	388.71
849.09	385.61
849.475	381.93
849.861	381.37
850.246	392.39
850.631	382.5
851.017	388.43
851.402	380.24
851.787	400.29
852.172	387.87
852.557	391.26
852.942	389.84
853.327	390.97
853.712	372.61
854.097	396.62
854.481	378.83
854.866	370.64
855.25	393.23
855.635	405.09
856.019	386.17
856.404	364.7
856.788	364.14
857.172	400.01
857.557	381.09
857.941	352.84
858.325	387.87
858.709	420.06
859.093	381.09
859.477	374.03
859.86	394.36
860.244	335.6
860.628	385.61
861.012	384.19
861.395	411.31
861.779	393.8
862.162	384.48
862.545	413.85
862.929	394.36
863.312	383.63
863.695	362.44
864.078	393.8
864.461	371.2
864.844	370.64
865.227	371.2
865.61	385.89
865.993	394.08
866.376	390.13
866.758	386.45
867.141	374.87
867.523	395.21
867.906	385.32
868.288	383.63
868.671	394.36
869.053	402.27
869.435	395.77
869.817	369.79
870.199	380.24
870.581	424.29
870.963	355.94
871.345	370.92
871.727	394.36
872.109	398.03
872.491	374.87
872.872	368.66
873.254	377.42
873.635	382.22
874.017	369.22
874.398	379.68
874.779	387.02
875.161	387.3
875.542	400.86
875.923	374.87
876.304	391.26
876.685	401.14
877.066	373.46
877.447	397.47
877.828	389.28
878.208	386.45
878.589	391.82
878.97	376.85
879.35	372.9
879.731	396.62
880.111	357.92
880.491	376.29
880.872	389.56
881.252	402.27
881.632	385.32
882.012	374.87
882.392	389.56
882.772	369.79
883.152	384.19
883.532	374.31
883.912	384.76
884.291	386.45
884.671	388.43
885.051	368.94
885.43	381.37
885.81	370.92
886.189	376
886.568	369.22
886.948	370.92
887.327	360.75
887.706	365.27
888.085	362.72
888.464	358.2
888.843	379.39
889.222	406.79
889.601	383.63
889.979	381.09
890.358	379.96
890.737	374.59
891.115	379.11
891.494	367.81
891.872	338.71
892.25	380.8
892.629	360.75
893.007	389
893.385	388.43
893.763	372.05
894.141	382.78
894.519	375.16
894.897	376.29
895.275	381.65
895.653	382.22
896.03	345.49
896.408	379.11
896.786	392.1
897.163	398.6
897.541	374.31
897.918	374.87
898.295	374.31
898.673	393.8
899.05	359.05
899.427	377.98
899.804	378.55
900.181	349.16
900.558	387.87
900.935	392.67
901.312	370.35
901.688	397.75
902.065	385.61
902.442	386.74
902.818	372.9
903.195	384.76
903.571	372.61
903.947	385.32
904.324	379.11
904.7	397.19
905.076	384.76
905.452	401.99
905.828	376.85
906.204	363.29
906.58	364.7
906.956	389.84
907.331	386.74
907.707	343.51
908.083	364.14
908.458	369.51
908.834	375.72
909.209	405.38
909.585	384.19
909.96	361.03
910.335	392.67
910.71	368.09
911.086	361.31
911.461	410.74
911.836	384.48
912.21	378.83
912.585	396.9
912.96	374.59
913.335	375.44
913.709	380.24
914.084	368.09
914.459	371.48
914.833	390.69
915.207	386.17
915.582	375.72
915.956	392.1
916.33	389.84
916.704	381.93
917.078	363.01
917.452	348.31
917.826	360.75
918.2	365.27
918.574	410.18
918.948	367.25
919.321	381.93
919.695	374.87
920.068	386.74
920.442	387.3
920.815	398.32
921.189	340.68
921.562	393.51
921.935	362.72
922.308	388.15
922.681	369.79
923.054	348.6
923.427	369.79
923.8	367.81
924.173	374.59
924.546	358.2
924.919	386.17
925.291	349.73
925.664	386.45
926.036	370.07
926.409	379.39
926.781	375.72
927.153	359.9
927.526	402.83
927.898	367.81
928.27	381.37
928.642	370.07
929.014	383.06
929.386	374.03
929.758	364.14
930.129	371.48
930.501	400.29
930.873	389.56
931.244	357.36
931.616	380.8
931.987	362.16
932.359	383.35
932.73	371.77
933.101	369.51
933.472	373.74
933.843	368.66
934.214	381.37
934.585	374.59
934.956	380.52
935.327	369.22
935.698	383.06
936.069	350.01
936.439	373.18
936.81	364.7
937.18	385.61
937.551	385.04
937.921	364.42
938.292	379.68
938.662	392.67
939.032	356.23
939.402	384.48
939.772	389.84
940.142	362.72
940.512	355.1
940.882	347.75
941.252	370.35
941.621	376.57
941.991	357.07
942.361	376.57
942.73	362.72
943.1	367.53
943.469	407.92
943.838	390.69
944.208	382.78
944.577	386.74
944.946	374.03
945.315	357.92
945.684	348.31
946.053	353.68
946.422	354.81
946.791	380.8
947.159	377.98
947.528	366.68
947.897	376.57
948.265	386.45
948.634	393.51
949.002	379.68
949.371	362.16
949.739	360.75
950.107	390.97
950.475	395.21
950.843	391.54
951.211	396.06
951.579	383.63
951.947	387.58
952.315	365.83
952.683	382.5
953.05	391.54
953.418	360.18
953.785	372.05
954.153	356.79
954.52	362.16
954.888	364.42
955.255	391.82
955.622	365.83
955.989	389.28
956.356	371.48
956.723	372.33
957.09	383.06
957.457	374.31
957.824	377.13
958.191	374.87
958.557	353.12
958.924	359.33
959.291	372.61
959.657	364.99
960.023	389
960.39	376.29
960.756	376
961.122	403.12
961.488	372.61
961.855	398.88
962.221	391.54
962.586	381.37
962.952	358.2
963.318	371.48
963.684	358.2
964.05	363.57
964.415	368.66
964.781	370.64
965.146	367.53
965.512	373.74
965.877	401.14
966.242	395.49
966.608	377.42
966.973	363.85
967.338	364.14
967.703	378.83
968.068	353.68
968.433	358.77
968.797	351.99
969.162	341.53
969.527	380.8
969.891	384.76
970.256	368.38
970.62	376.85
970.985	364.14
971.349	358.77
971.714	394.08
972.078	380.24
972.442	374.31
972.806	377.7
973.17	344.92
973.534	350.57
973.898	356.79
974.262	368.94
974.625	376.85
974.989	365.83
975.353	390.97
975.716	367.81
976.08	367.53
976.443	366.12
976.806	361.03
977.17	380.8
977.533	379.39
977.896	356.23
978.259	368.38
978.622	388.43
978.985	351.99
979.348	385.61
979.711	345.21
980.073	392.67
980.436	370.64
980.799	373.18
981.161	374.03
981.524	381.09
981.886	352.84
982.248	345.77
982.611	383.63
982.973	364.14
983.335	374.31
983.697	359.05
984.059	389.56
984.421	365.83
984.783	377.7
985.145	372.33
985.506	344.64
985.868	368.38
986.23	382.78
986.591	382.22
986.953	383.63
987.314	356.51
987.675	352.55
988.037	504.71
988.398	384.19
988.759	384.19
989.12	369.22
989.481	381.93
989.842	357.36
990.203	352.84
990.564	368.38
990.924	371.48
991.285	454.21
991.646	375.16
992.006	368.09
992.367	356.79
992.727	397.47
993.087	383.06
993.448	361.59
993.808	373.46
994.168	358.2
994.528	344.64
994.888	392.39
995.248	389.84
995.608	346.34
995.967	367.25
996.327	376
996.687	360.75
997.046	356.79
997.406	375.44
997.765	372.33
998.125	384.48
998.484	372.61
998.843	393.51
999.202	383.06
999.561	352.84
999.92	357.36
1000.279	380.24
1000.638	359.33
1000.997	359.9
1001.356	384.76
1001.715	371.2
1002.073	375.44
1002.432	355.1
1002.79	370.64
1003.149	357.92
1003.507	344.36
1003.865	375.16
1004.224	368.94
1004.582	340.12
1004.94	375.16
1005.298	365.83
1005.656	372.33
1006.014	384.48
1006.371	356.79
1006.729	387.58
1007.087	374.59
1007.445	355.66
1007.802	370.92
1008.16	356.23
1008.517	386.45
1008.874	384.76
1009.232	340.97
1009.589	373.74
1009.946	384.76
1010.303	359.33
1010.66	382.22
1011.017	365.27
1011.374	400.86
1011.731	385.61
1012.087	357.07
1012.444	371.2
1012.801	381.65
1013.157	398.32
1013.513	367.53
1013.87	386.45
1014.226	359.05
1014.582	357.92
1014.939	363.29
1015.295	388.43
1015.651	358.77
1016.007	358.77
1016.363	379.11
1016.719	372.33
1017.074	372.61
1017.43	380.8
1017.786	367.53
1018.141	368.94
1018.497	368.09
1018.852	372.33
1019.208	374.03
1019.563	369.79
1019.918	390.41
1020.273	381.37
1020.628	389
1020.983	373.18
1021.338	346.9
1021.693	368.38
1022.048	329.38
1022.403	368.09
1022.757	366.96
1023.112	372.05
1023.467	346.9
1023.821	378.26
1024.175	387.58
1024.53	367.53
1024.884	381.37
1025.238	389.56
1025.592	388.15
1025.946	362.16
1026.3	398.32
1026.654	364.42
1027.008	345.49
1027.362	342.66
1027.716	354.53
1028.069	381.09
1028.423	373.74
1028.777	359.9
1029.13	377.7
1029.483	346.9
1029.837	363.29
1030.19	368.94
1030.543	374.03
1030.896	401.7
1031.249	354.81
1031.602	366.96
1031.955	350.29
1032.308	358.2
1032.661	370.64
1033.013	384.76
1033.366	350.29
1033.719	373.18
1034.071	374.03
1034.424	360.75
1034.776	367.25
1035.128	336.73
1035.48	358.2
1035.833	355.1
1036.185	368.66
1036.537	368.66
1036.889	368.66
