Data from SCSF78-405_irradiation_FLMS019251_12-03-27-872.txt Node
Date: Fri Feb 22 12:03:27 PST 2019
User: mu3e
Spectrometer: FLMS01925
Trigger mode: 0
Integration Time (sec): 1.206000E-2
Scans to average: 10
Electric dark correction enabled: true
Nonlinearity correction enabled: true
Boxcar width: 0
XAxis mode: Wavelengths
Number of Pixels in Spectrum: 2048
>>>>>Begin Spectral Data<<<<<
187.103	-72.01
187.574	-72.01
188.045	-72.01
188.516	-134.27
188.987	-133.71
189.458	-127.73
189.929	-137.12
190.4	-132.28
190.871	-80.82
191.342	-101.86
191.813	-55.81
192.284	-25.13
192.754	-25.13
193.225	3.27
193.696	20.3
194.166	77.04
194.637	71.66
195.107	101.43
195.578	127.23
196.048	107.67
196.518	176.25
196.989	173.41
197.459	204.57
197.929	229.76
198.399	276.45
198.869	282.67
199.339	314.63
199.809	317.73
200.279	317.45
200.749	333.56
201.219	334.13
201.689	360.98
202.159	364.65
202.628	375.67
203.098	390.36
203.568	377.36
204.037	382.45
204.507	400.52
204.976	417.18
205.445	398.26
205.915	413.79
206.384	387.25
206.853	411.82
207.323	388.94
207.792	397.13
208.261	382.73
208.73	381.32
209.199	415.21
209.668	385.27
210.137	377.36
210.606	394.59
211.075	381.6
211.543	407.3
212.012	390.92
212.481	385.27
212.95	364.08
213.418	370.58
213.887	357.87
214.355	391.48
214.824	373.41
215.292	360.13
215.76	374.54
216.229	393.46
216.697	360.98
217.165	363.24
217.633	349.67
218.101	362.39
218.569	374.25
219.037	329.04
219.505	353.06
219.973	341.48
220.441	346.28
220.909	334.7
221.377	359
221.844	362.11
222.312	378.77
222.78	385.55
223.247	368.6
223.715	344.02
224.182	375.38
224.65	375.38
225.117	371.71
225.584	348.54
226.052	341.2
226.519	369.17
226.986	352.22
227.453	343.46
227.92	352.78
228.387	359
228.854	356.17
229.321	372.56
229.788	374.25
230.255	393.74
230.722	353.35
231.189	370.86
231.655	388.1
232.122	372.28
232.589	365.5
233.055	387.53
233.522	387.25
233.988	373.12
234.454	364.37
234.921	371.71
235.387	370.02
235.853	365.78
236.32	380.47
236.786	380.47
237.252	368.6
237.718	375.67
238.184	379.06
238.65	383.01
239.116	399.11
239.582	353.63
240.047	333.85
240.513	366.34
240.979	398.83
241.445	377.36
241.91	378.49
242.376	377.64
242.841	376.51
243.307	372.28
243.772	362.39
244.238	378.21
244.703	396.57
245.168	396.85
245.633	370.86
246.099	360.69
246.564	374.82
247.029	395.16
247.494	376.23
247.959	373.69
248.424	400.8
248.889	388.38
249.353	400.24
249.818	396.57
250.283	370.58
250.748	383.01
251.212	372.84
251.677	368.89
252.141	361.82
252.606	380.47
253.07	386.68
253.535	384.14
253.999	392.05
254.463	391.48
254.927	390.36
255.392	376.8
255.856	349.67
256.32	394.03
256.784	383.58
257.248	383.58
257.712	382.73
258.176	404.48
258.64	376.8
259.103	353.91
259.567	385.27
260.031	385.55
260.495	381.6
260.958	362.95
261.422	396
261.885	392.05
262.349	383.29
262.812	357.3
263.275	370.86
263.739	388.38
264.202	383.29
264.665	392.9
265.128	396
265.591	398.83
266.054	392.05
266.517	377.64
266.98	385.84
267.443	403.35
267.906	387.53
268.369	384.71
268.832	402.22
269.294	370.58
269.757	446.82
270.22	383.29
270.682	377.93
271.145	433.55
271.607	379.34
272.07	366.91
272.532	359.28
272.994	389.51
273.456	399.11
273.919	408.43
274.381	390.92
274.843	367.19
275.305	404.76
275.767	369.73
276.229	399.11
276.691	422.83
277.153	393.18
277.614	384.14
278.076	370.86
278.538	388.66
279	383.58
279.461	418.59
279.923	410.69
280.384	390.07
280.846	390.92
281.307	388.94
281.769	386.4
282.23	412.1
282.691	397.98
283.152	373.97
283.613	399.96
284.075	425.93
284.536	375.38
284.997	434.68
285.458	406.45
285.918	401.37
286.379	394.03
286.84	412.95
287.301	390.07
287.762	409.84
288.222	412.95
288.683	394.87
289.143	401.65
289.604	389.51
290.064	378.49
290.525	376.51
290.985	401.65
291.445	403.63
291.906	398.55
292.366	409.28
292.826	376.8
293.286	359.28
293.746	387.25
294.206	378.77
294.666	403.63
295.126	413.79
295.586	408.15
296.046	389.23
296.506	408.99
296.965	381.03
297.425	414.64
297.884	394.31
298.344	396
298.804	391.77
299.263	408.15
299.722	383.86
300.182	398.83
300.641	434.68
301.1	385.55
301.559	385.55
302.019	392.05
302.478	374.82
302.937	407.58
303.396	404.76
303.855	427.06
304.314	390.07
304.772	391.2
305.231	405.04
305.69	396
306.149	396.85
306.607	410.41
307.066	381.32
307.524	422.55
307.983	390.92
308.441	395.16
308.9	406.45
309.358	399.11
309.816	396.29
310.275	400.8
310.733	389.79
311.191	417.46
311.649	384.42
312.107	397.98
312.565	398.83
313.023	388.1
313.481	405.32
313.939	419.44
314.397	403.35
314.854	420.85
315.312	407.3
315.77	393.46
316.227	406.17
316.685	408.15
317.142	403.35
317.6	399.11
318.057	425.65
318.514	403.63
318.972	409.28
319.429	387.81
319.886	410.12
320.343	409.56
320.8	420.57
321.257	400.8
321.714	407.86
322.171	404.19
322.628	395.44
323.085	382.73
323.542	409.56
323.998	430.73
324.455	425.93
324.912	396.29
325.368	422.83
325.825	400.24
326.281	390.92
326.738	412.66
327.194	412.66
327.65	427.34
328.107	428.76
328.563	413.79
329.019	410.12
329.475	436.66
329.931	407.02
330.387	409.84
330.843	407.3
331.299	435.81
331.755	381.32
332.211	420.85
332.666	409.84
333.122	413.23
333.578	418.31
334.033	426.78
334.489	424.52
334.944	400.24
335.4	421.42
335.855	404.76
336.31	397.42
336.766	405.61
337.221	424.8
337.676	417.18
338.131	407.02
338.586	414.08
339.041	422.83
339.496	400.52
339.951	398.83
340.406	433.55
340.861	423.11
341.316	433.84
341.771	433.55
342.225	415.21
342.68	418.59
343.134	416.62
343.589	429.04
344.043	418.03
344.498	407.3
344.952	423.11
345.406	423.39
345.861	423.67
346.315	403.35
346.769	433.84
347.223	408.71
347.677	418.59
348.131	442.02
348.585	412.95
349.039	409.56
349.493	422.26
349.947	422.55
350.401	454.72
350.854	412.38
351.308	418.03
351.762	420.85
352.215	459.24
352.669	407.86
353.122	419.16
353.575	408.71
354.029	402.22
354.482	425.09
354.935	400.8
355.388	407.02
355.842	398.83
356.295	417.46
356.748	412.1
357.201	422.26
357.654	445.13
358.106	397.42
358.559	414.36
359.012	426.5
359.465	393.18
359.917	424.8
360.37	403.35
360.823	433.55
361.275	403.35
361.728	424.8
362.18	393.74
362.632	425.93
363.085	409.56
363.537	420.57
363.989	410.12
364.441	429.04
364.893	440.61
365.345	453.31
365.797	411.53
366.249	423.96
366.701	434.97
367.153	396.29
367.605	429.89
368.057	419.16
368.508	419.72
368.96	432.14
369.411	420.57
369.863	409.28
370.314	406.17
370.766	392.33
371.217	446.26
371.669	423.11
372.12	432.43
372.571	434.4
373.022	416.9
373.473	423.39
373.924	438.35
374.375	434.12
374.826	429.04
375.277	396.85
375.728	434.97
376.179	431.86
376.63	429.04
377.08	431.01
377.531	405.89
377.981	412.95
378.432	442.02
378.883	434.97
379.333	419.44
379.783	417.18
380.234	419.72
380.684	407.86
381.134	431.86
381.584	429.32
382.034	421.98
382.485	436.66
382.935	432.14
383.385	433.84
383.834	433.84
384.284	434.12
384.734	405.04
385.184	435.25
385.634	439.2
386.083	456.98
386.533	442.87
386.982	416.9
387.432	448.51
387.881	408.71
388.331	424.52
388.78	437.51
389.229	446.54
389.679	427.63
390.128	425.37
390.577	430.73
391.026	442.3
391.475	418.03
391.924	427.06
392.373	460.65
392.822	436.66
393.27	449.64
393.719	445.13
394.168	432.99
394.617	437.79
395.065	425.09
395.514	441.18
395.962	447.95
396.411	448.8
396.859	468.55
397.307	449.64
397.756	435.25
398.204	437.51
398.652	453.88
399.1	439.48
399.548	457.83
399.996	469.68
400.444	461.49
400.892	432.14
401.34	451.9
401.788	475.32
402.236	448.8
402.683	456.98
403.131	434.4
403.579	475.32
404.026	483.22
404.474	468.27
404.921	487.73
405.369	478.7
405.816	470.52
406.263	488.58
406.71	478.14
407.158	491.96
407.605	499.29
408.052	481.81
408.499	485.47
408.946	497.32
409.393	491.4
409.84	511.7
410.286	539.33
410.733	530.59
411.18	556.52
411.626	589.77
412.073	662.41
412.52	686.32
412.966	780.51
413.413	919.46
413.859	1078.31
414.305	1311.64
414.752	1629.07
415.198	1916.99
415.644	2357.66
416.09	2872.9
416.536	3463.32
416.982	4094.35
417.428	4932.69
417.874	5700.59
418.32	6550.31
418.766	7504.36
419.211	8596.13
419.657	9683.59
420.103	10855.15
420.548	11837.89
420.994	13172.6
421.439	14399.1
421.885	15472.43
422.33	16838.12
422.776	18107.77
423.221	19084.86
423.666	20596.35
424.111	21948.06
424.556	22936.01
425.001	24418.26
425.446	25848.92
425.891	27289.07
426.336	28114.42
426.781	29497.38
427.226	31583.02
427.671	32274.47
428.115	33372.6
428.56	35049.58
429.005	36765.56
429.449	37207.84
429.894	38786.22
430.338	39880.22
430.782	39984.45
431.227	41649.22
431.671	42222.87
432.115	43692.84
432.559	44736.47
433.003	44715.37
433.447	45573.39
433.891	45965.71
434.335	46391.75
434.779	47200.97
435.223	47344.2
435.667	47524.17
436.111	48116.12
436.554	48136.43
436.998	47588.4
437.442	47716.2
437.885	49757.3
438.328	48177.08
438.772	48513.63
439.215	49032.5
439.659	48707.14
440.102	49078.44
440.545	48417.66
440.988	48270.77
441.431	49252.54
441.874	48780.87
442.317	49044.43
442.76	48446.03
443.203	48024.35
443.646	48783.98
444.089	48185.82
444.531	48780.87
444.974	47520.84
445.417	48848.18
445.859	47679.3
446.302	49067.79
446.744	48055.45
447.186	49283.76
447.629	48254.55
448.071	48316.1
448.513	48517.5
448.956	49902.1
449.398	48974.39
449.84	47695.44
450.282	48480.85
450.724	49163.37
451.166	48757.06
451.607	48594.71
452.049	48655.95
452.491	49781.11
452.933	49389.98
453.374	49982.08
453.816	50559.59
454.257	50054.26
454.699	51312.37
455.14	50674.95
455.582	50694.28
456.023	50724.48
456.464	50805.61
456.905	51242.1
457.347	51527.14
457.788	50403.52
458.229	50464.22
458.67	51749.93
459.111	49727.47
459.552	49690.35
459.992	49523.72
460.433	49361.85
460.874	48328.98
461.315	49525.81
461.755	48603.49
462.196	48135.92
462.636	47323
463.077	46908.37
463.517	47110.16
463.957	47311.25
464.398	47056.37
464.838	46897.17
465.278	45977.35
465.718	46144.9
466.158	45200.12
466.598	45513.85
467.038	45000.33
467.478	45443.24
467.918	45512.84
468.358	44786.2
468.798	44482.25
469.237	44448.65
469.677	44281.23
470.117	45074.28
470.556	42753.24
470.996	43256.09
471.435	43492.57
471.874	44022.35
472.314	43863.03
472.753	42810.72
473.192	43024.83
473.631	42593.31
474.07	42830.88
474.509	42935.68
474.948	43204.98
475.387	42476.98
475.826	41601.4
476.265	43203.99
476.704	42731.1
477.143	43195.01
477.581	42873.44
478.02	43597.43
478.458	42075.18
478.897	42802.26
479.335	44019.1
479.774	43289.75
480.212	43666.11
480.65	43634.89
481.089	43215.45
481.527	42871.69
481.965	42310.27
482.403	44326.33
482.841	44135.98
483.279	44202.83
483.717	44083.66
484.155	43657.86
484.592	44041.12
485.03	44222.36
485.468	43173.58
485.905	43428.69
486.343	44112.95
486.781	43224.68
487.218	42538.87
487.655	42633.6
488.093	41778.82
488.53	43131.46
488.967	42250.67
489.405	42087.34
489.842	41252.84
490.279	41246.4
490.716	40831.79
491.153	41214.49
491.59	40676.91
492.027	39944.28
492.463	39678.75
492.9	38762.64
493.337	38684.28
493.773	38763.13
494.21	37941.45
494.647	37723.76
495.083	37041.12
495.519	36605.56
495.956	36629.05
496.392	35918.08
496.828	35669.85
497.265	34868.7
497.701	35039.81
498.137	34636.12
498.573	33892.53
499.009	34317.71
499.445	33424.79
499.881	32933.96
500.316	33213.62
500.752	32267.16
501.188	32043.59
501.624	31927.78
502.059	30662.64
502.495	30640.69
502.93	30481.39
503.366	30793.87
503.801	30021.7
504.236	29696.35
504.672	29304.73
505.107	29024.83
505.542	28453.53
505.977	28394.13
506.412	27736.25
506.847	28142.05
507.282	27600.68
507.717	27246.22
508.152	27160.27
508.587	27052.02
509.021	26260.62
509.456	25943.9
509.891	25962.06
510.325	25973.1
510.76	25544.49
511.194	25190.25
511.628	25346.02
512.063	24549.18
512.497	24768.62
512.931	24168.87
513.366	23954.34
513.8	23969.12
514.234	23186.79
514.668	23283.76
515.102	23534.11
515.536	22590.46
515.969	22763.89
516.403	22337.62
516.837	21893.86
517.271	22031.44
517.704	21527.44
518.138	21488.55
518.571	21251.42
519.005	20916.7
519.438	20794.64
519.871	20599.58
520.305	20152.78
520.738	20025.53
521.171	19695.05
521.604	19734.11
522.037	19412.6
522.47	19095.58
522.903	18765.58
523.336	18524.15
523.769	18593
524.202	17986.87
524.634	18032.09
525.067	17757.2
525.5	17639.94
525.932	17476.86
526.365	17027.53
526.797	16857.16
527.23	16988.2
527.662	16440.44
528.094	16221.35
528.527	16191.22
528.959	15796.58
529.391	15665.1
529.823	15173.15
530.255	15223.01
530.687	14864.52
531.119	14634.55
531.551	14673.39
531.982	14270.57
532.414	14123.8
532.846	13824.97
533.277	13614.18
533.709	13294.02
534.14	13212.66
534.572	12951.41
535.003	13020.17
535.435	12581.14
535.866	12433.95
536.297	12162.97
536.728	12242.64
537.159	11975.27
537.59	11770.58
538.022	11592.76
538.452	11400.23
538.883	11169.18
539.314	11101.4
539.745	10949.13
540.176	10739.6
540.606	10464.94
541.037	10475.2
541.468	10314.23
541.898	10189.1
542.328	10076.49
542.759	9861.61
543.189	9801.09
543.619	9685.91
544.05	9402.41
544.48	9369.61
544.91	9202.19
545.34	9088.67
545.77	8938.56
546.2	8903.34
546.63	8697.82
547.06	8673.96
547.489	8470.99
547.919	8214.67
548.349	8286.72
548.778	8257.07
549.208	8041.28
549.637	7935.99
550.067	7788.87
550.496	7801.66
550.926	7735.1
551.355	7511.94
551.784	7488.92
552.213	7303.6
552.642	7236
553.071	7192.22
553.5	7116.69
553.929	6945
554.358	6923.2
554.787	6772.29
555.216	6780.97
555.645	6686.76
556.073	6570.34
556.502	6533.44
556.93	6325.01
557.359	6284.07
557.787	6211.93
558.216	6207.17
558.644	6110.64
559.072	6070.69
559.5	5958.41
559.929	5911.24
560.357	5878.1
560.785	5827.19
561.213	5752.63
561.641	5675.89
562.068	5585.54
562.496	5567.72
562.924	5523.04
563.352	5601.75
563.779	5484.73
564.207	5491.12
564.634	5414.19
565.062	5404.87
565.489	5314.82
565.917	5288.43
566.344	5247.9
566.771	5210.28
567.198	5166.25
567.625	5079.73
568.053	4951.95
568.48	4928.94
568.907	4916.1
569.333	4834.45
569.76	4663.44
570.187	4783.56
570.614	4622.39
571.04	4738.8
571.467	4524.64
571.894	4421.42
572.32	4324.28
572.747	4276.89
573.173	4207.63
573.599	4189.3
574.026	4034.69
574.452	4004.16
574.878	3954.98
575.304	3856
575.73	3848.15
576.156	3802.95
576.582	3695.66
577.008	3619.19
577.434	3593.41
577.86	3536.67
578.285	3473.65
578.711	3410.85
579.137	3357.53
579.562	3257.34
579.988	3310.72
580.413	3158.12
580.838	3151.03
581.264	3102.73
581.689	3074.62
582.114	3001.42
582.539	2987.49
582.964	2939.1
583.39	2919.14
583.814	2858.4
584.239	2792.68
584.664	2778.16
585.089	2743.64
585.514	2668.23
585.939	2652.32
586.363	2608.13
586.788	2602.09
587.212	2580.4
587.637	2487.53
588.061	2554.04
588.485	2446.56
588.91	2406.39
589.334	2389.05
589.758	2371.43
590.182	2314.14
590.606	2246.62
591.03	2277.77
591.454	2198.9
591.878	2218.21
592.302	2218.76
592.726	2135.69
593.15	2134.87
593.573	2058.9
593.997	2088.74
594.42	2029.04
594.844	2014.94
595.267	1978.15
595.691	1991.16
596.114	1938.86
596.537	1905.36
596.96	1917.27
597.384	1920.03
597.807	1871.29
598.23	1801.45
598.653	1832.22
599.076	1802
599.499	1800.34
599.921	1818.08
600.344	1749.58
600.767	1762.9
601.189	1741.54
601.612	1770.67
602.034	1710.45
602.457	1709.62
602.879	1691.02
603.302	1696.29
603.724	1689.35
604.146	1671.02
604.568	1646.3
604.991	1618.24
605.413	1648.8
605.835	1678.24
606.257	1601
606.678	1586.27
607.1	1624.35
607.522	1608.51
607.944	1571.53
608.365	1580.15
608.787	1536.76
609.209	1515.89
609.63	1533.15
610.051	1524.8
610.473	1484.44
610.894	1472.19
611.315	1458.55
611.737	1436.26
612.158	1439.05
612.579	1424.56
613	1416.76
613.421	1389.73
613.842	1383.04
614.263	1337.31
614.683	1320.01
615.104	1325.31
615.525	1295.46
615.945	1315.27
616.366	1266.43
616.787	1256.1
617.207	1243.81
617.627	1191.29
618.048	1182.07
618.468	1203.87
618.888	1199.11
619.308	1178.99
619.728	1157.75
620.148	1122.51
620.568	1131.74
620.988	1130.9
621.408	1121.95
621.828	1095.38
622.248	1064.03
622.668	1084.46
623.087	1074.95
623.507	1030.15
623.926	1081.39
624.346	1021.75
624.765	1022.03
625.185	995.98
625.604	998.78
626.023	988.14
626.442	1002.99
626.861	980.29
627.28	975.25
627.699	963.47
628.118	950.86
628.537	975.25
628.956	919.18
629.375	940.77
629.794	939.37
630.212	903.19
630.631	902.07
631.049	883.55
631.468	883.27
631.886	867.27
632.305	905.15
632.723	876.54
633.141	845.1
633.559	799.33
633.978	813.65
634.396	845.1
634.814	857.73
635.232	851.84
635.65	831.62
636.067	789.78
636.485	798.2
636.903	825.45
637.321	797.92
637.738	798.2
638.156	768.98
638.573	786.97
638.991	786.97
639.408	752.4
639.825	749.31
640.243	785.56
640.66	775.45
641.077	719.51
641.494	761.4
641.911	740.32
642.328	729.91
642.745	719.79
643.162	745.38
643.579	736.38
643.995	718.95
644.412	697.01
644.829	715.01
645.245	712.2
645.662	697.86
646.078	667.19
646.495	693.36
646.911	689.14
647.327	665.78
647.743	651.71
648.159	664.38
648.576	676.48
648.992	667.75
649.408	662.41
649.824	645.24
650.239	651.99
650.655	640.17
651.071	638.2
651.487	636.51
651.902	636.79
652.318	618.21
652.733	628.07
653.149	628.07
653.564	653.12
653.979	624.41
654.395	597.94
654.81	622.44
655.225	607.51
655.64	617.37
656.055	599.34
656.47	593.71
656.885	606.95
657.3	621.59
657.715	584.98
658.13	577.37
658.544	612.3
658.959	589.77
659.374	580.47
659.788	585.26
660.202	588.08
660.617	572.87
661.031	577.09
661.445	602.16
661.86	570.33
662.274	589.77
662.688	569.77
663.102	542.99
663.516	524.39
663.93	574.56
664.344	571.46
664.758	587.51
665.171	544.97
665.585	560.47
665.999	543.56
666.412	536.79
666.826	534.54
667.239	537.36
667.653	539.05
668.066	545.81
668.479	508.6
668.892	530.31
669.306	520.72
669.719	525.52
670.132	548.63
670.545	540.46
670.958	538.48
671.37	549.2
671.783	537.36
672.196	539.61
672.609	523.54
673.021	511.42
673.434	536.79
673.846	502.68
674.259	515.37
674.671	504.09
675.084	521.85
675.496	498.45
675.908	502.68
676.32	508.88
676.732	491.96
677.144	483.5
677.556	476.17
677.968	504.65
678.38	522.7
678.792	480.68
679.204	486.04
679.615	484.63
680.027	502.11
680.439	508.88
680.85	500.7
681.262	498.17
681.673	484.35
682.084	491.4
682.496	460.37
682.907	491.96
683.318	493.09
683.729	506.63
684.14	476.73
684.551	476.73
684.962	473.06
685.373	482.94
685.784	471.93
686.194	513.39
686.605	451.9
687.016	463.47
687.426	486.04
687.837	460.37
688.247	477.86
688.657	489.99
689.068	468.27
689.478	495.06
689.888	462.34
690.298	475.6
690.708	483.78
691.118	482.65
691.528	446.82
691.938	487.73
692.348	458.11
692.758	459.24
693.168	457.54
693.577	442.87
693.987	464.03
694.396	479.55
694.806	467.42
695.215	475.88
695.625	453.03
696.034	459.24
696.443	458.39
696.852	486.88
697.262	432.43
697.671	465.44
698.08	469.39
698.489	439.76
698.897	431.01
699.306	446.26
699.715	435.53
700.124	436.1
700.532	419.72
700.941	454.72
701.35	450.49
701.758	455.29
702.166	428.47
702.575	445.13
702.983	460.08
703.391	471.65
703.799	448.23
704.208	462.62
704.616	435.53
705.024	443.72
705.432	434.4
705.839	432.14
706.247	418.88
706.655	455
707.063	436.66
707.47	420.85
707.878	429.89
708.285	454.72
708.693	440.89
709.1	444
709.508	415.77
709.915	458.11
710.322	451.62
710.729	424.24
711.136	436.38
711.543	426.78
711.95	441.46
712.357	445.97
712.764	435.81
713.171	432.43
713.578	421.42
713.984	434.4
714.391	425.93
714.797	423.67
715.204	394.87
715.61	418.31
716.017	425.37
716.423	434.12
716.829	425.65
717.236	409.56
717.642	397.98
718.048	398.83
718.454	417.46
718.86	410.41
719.266	421.13
719.671	419.72
720.077	422.83
720.483	456.98
720.889	435.25
721.294	440.61
721.7	403.91
722.105	409.56
722.511	404.76
722.916	414.92
723.321	419.44
723.726	423.67
724.132	403.91
724.537	434.68
724.942	431.58
725.347	434.12
725.752	427.63
726.156	411.25
726.561	432.71
726.966	420.57
727.371	419.72
727.775	428.76
728.18	438.07
728.584	411.82
728.989	455.29
729.393	410.97
729.798	405.89
730.202	428.47
730.606	418.59
731.01	418.88
731.414	420.57
731.818	414.92
732.222	426.22
732.626	404.76
733.03	421.13
733.434	392.05
733.837	421.98
734.241	381.6
734.645	432.99
735.048	424.8
735.452	430.17
735.855	401.37
736.258	412.95
736.662	411.82
737.065	394.87
737.468	413.51
737.871	400.52
738.274	414.64
738.677	418.31
739.08	418.88
739.483	407.58
739.886	394.31
740.289	404.48
740.691	395.72
741.094	393.18
741.497	360.41
741.899	386.4
742.302	403.06
742.704	416.62
743.106	407.86
743.508	417.18
743.911	419.16
744.313	384.14
744.715	393.74
745.117	398.26
745.519	385.55
745.921	407.02
746.323	416.33
746.724	399.39
747.126	402.78
747.528	405.32
747.929	394.03
748.331	407.02
748.732	423.39
749.134	413.23
749.535	425.37
749.936	398.83
750.338	411.25
750.739	390.07
751.14	388.38
751.541	395.16
751.942	405.61
752.343	405.04
752.744	405.89
753.144	390.36
753.545	387.81
753.946	398.83
754.346	384.99
754.747	387.81
755.148	370.58
755.548	419.44
755.948	388.94
756.349	403.63
756.749	412.1
757.149	389.51
757.549	401.09
757.949	411.25
758.349	414.36
758.749	403.06
759.149	418.31
759.549	401.93
759.949	414.92
760.348	402.5
760.748	386.12
761.148	404.19
761.547	436.66
761.947	440.05
762.346	434.68
762.745	377.08
763.145	396.29
763.544	389.79
763.943	363.24
764.342	401.09
764.741	379.62
765.14	410.97
765.539	405.61
765.938	391.48
766.336	399.11
766.735	378.21
767.134	393.74
767.532	399.67
767.931	429.6
768.329	389.79
768.728	392.05
769.126	408.43
769.525	392.05
769.923	418.03
770.321	399.11
770.719	383.29
771.117	425.93
771.515	404.19
771.913	388.94
772.311	396.85
772.709	403.06
773.106	371.99
773.504	408.99
773.902	378.77
774.299	419.16
774.697	415.21
775.094	408.43
775.491	371.43
775.889	389.23
776.286	399.39
776.683	415.77
777.08	403.91
777.477	393.46
777.874	412.66
778.271	398.26
778.668	388.66
779.065	383.86
779.462	397.98
779.858	416.9
780.255	379.06
780.652	372.28
781.048	409.84
781.444	398.26
781.841	403.35
782.237	390.07
782.633	416.9
783.03	397.98
783.426	423.67
783.822	414.36
784.218	399.67
784.614	389.79
785.01	405.04
785.405	397.98
785.801	407.3
786.197	375.95
786.593	391.2
786.988	371.71
787.384	359.56
787.779	398.26
788.174	387.25
788.57	401.65
788.965	409.84
789.36	396.85
789.755	399.11
790.15	363.8
790.545	393.74
790.94	367.76
791.335	373.41
791.73	395.16
792.125	436.38
792.52	422.26
792.914	405.04
793.309	394.87
793.703	388.38
794.098	376.23
794.492	411.25
794.887	410.41
795.281	423.67
795.675	388.66
796.069	406.17
796.463	379.9
796.857	391.77
797.251	399.11
797.645	360.69
798.039	398.83
798.433	382.73
798.826	397.98
799.22	381.03
799.614	384.99
800.007	392.61
800.401	376.51
800.794	362.95
801.187	398.55
801.581	388.94
801.974	383.86
802.367	388.66
802.76	393.74
803.153	394.31
803.546	403.91
803.939	377.36
804.332	383.58
804.725	384.99
805.117	404.19
805.51	409.28
805.903	398.55
806.295	390.92
806.688	413.79
807.08	392.61
807.472	375.67
807.865	402.5
808.257	396
808.649	378.77
809.041	389.23
809.433	422.55
809.825	395.16
810.217	399.96
810.609	384.71
811.001	404.19
811.392	378.21
811.784	405.89
812.175	407.3
812.567	394.31
812.958	385.84
813.35	374.25
813.741	391.2
814.132	386.68
814.524	414.08
814.915	387.25
815.306	403.35
815.697	401.37
816.088	379.06
816.479	380.75
816.87	390.36
817.26	414.36
817.651	373.12
818.042	395.44
818.432	381.88
818.823	407.3
819.213	374.54
819.604	397.13
819.994	383.29
820.384	368.6
820.775	404.76
821.165	396.29
821.555	398.55
821.945	383.29
822.335	392.9
822.725	402.5
823.114	388.38
823.504	396
823.894	392.9
824.284	389.51
824.673	398.55
825.063	395.44
825.452	408.15
825.842	399.67
826.231	424.52
826.62	375.67
827.009	405.89
827.399	412.1
827.788	389.79
828.177	388.1
828.566	379.34
828.954	410.97
829.343	362.39
829.732	369.45
830.121	392.61
830.509	387.53
830.898	394.87
831.286	379.62
831.675	379.06
832.063	379.9
832.452	392.61
832.84	381.32
833.228	373.12
833.616	374.82
834.004	375.67
834.392	392.05
834.78	368.04
835.168	384.42
835.556	371.15
835.944	380.19
836.331	421.42
836.719	391.2
837.107	394.87
837.494	404.19
837.881	384.42
838.269	367.47
838.656	396.29
839.043	366.34
839.431	389.23
839.818	365.5
840.205	375.67
840.592	418.31
840.979	364.93
841.366	397.13
841.752	389.23
842.139	412.1
842.526	401.09
842.912	381.03
843.299	398.83
843.685	395.72
844.072	379.62
844.458	398.55
844.844	382.16
845.231	384.99
845.617	380.19
846.003	409.84
846.389	386.97
846.775	401.93
847.161	405.61
847.547	391.48
847.933	367.47
848.318	362.95
848.704	388.38
849.09	403.06
849.475	394.87
849.861	372.84
850.246	396.85
850.631	377.64
851.017	404.48
851.402	370.3
851.787	379.34
852.172	396.29
852.557	397.98
852.942	397.42
853.327	385.84
853.712	382.73
854.097	370.3
854.481	399.96
854.866	396.29
855.25	368.04
855.635	385.55
856.019	373.41
856.404	378.49
856.788	371.43
857.172	391.77
857.557	385.84
857.941	383.86
858.325	377.08
858.709	379.06
859.093	383.86
859.477	402.78
859.86	402.22
860.244	396.57
860.628	404.76
861.012	372.84
861.395	373.97
861.779	386.12
862.162	386.4
862.545	377.36
862.929	388.1
863.312	394.31
863.695	392.61
864.078	397.98
864.461	403.63
864.844	383.29
865.227	376.8
865.61	392.33
865.993	410.12
866.376	385.27
866.758	373.41
867.141	393.18
867.523	377.36
867.906	403.06
868.288	402.78
868.671	394.03
869.053	371.99
869.435	403.35
869.817	400.52
870.199	379.06
870.581	404.48
870.963	377.36
871.345	404.19
871.727	402.78
872.109	381.88
872.491	383.29
872.872	395.16
873.254	384.42
873.635	353.91
874.017	400.52
874.398	375.38
874.779	386.4
875.161	350.52
875.542	386.4
875.923	401.65
876.304	367.47
876.685	381.88
877.066	375.95
877.447	341.2
877.828	380.19
878.208	405.32
878.589	356.17
878.97	389.23
879.35	389.79
879.731	401.93
880.111	370.02
880.491	364.37
880.872	400.52
881.252	373.69
881.632	390.64
882.012	406.17
882.392	373.12
882.772	351.37
883.152	365.78
883.532	373.69
883.912	383.86
884.291	367.19
884.671	363.8
885.051	377.93
885.43	367.47
885.81	378.21
886.189	387.53
886.568	373.41
886.948	400.24
887.327	386.97
887.706	399.67
888.085	381.32
888.464	409.56
888.843	393.18
889.222	380.47
889.601	359.56
889.979	388.94
890.358	367.76
890.737	366.63
891.115	373.12
891.494	387.25
891.872	392.61
892.25	369.73
892.629	407.58
893.007	384.42
893.385	401.93
893.763	383.29
894.141	366.91
894.519	379.62
894.897	359.56
895.275	371.15
895.653	353.63
896.03	386.12
896.408	390.64
896.786	373.41
897.163	381.03
897.541	384.42
897.918	375.95
898.295	395.72
898.673	377.08
899.05	373.12
899.427	376.8
899.804	366.34
900.181	380.75
900.558	389.23
900.935	396.57
901.312	386.12
901.688	402.22
902.065	388.1
902.442	420.29
902.818	371.43
903.195	383.58
903.571	392.33
903.947	354.2
904.324	377.36
904.7	390.64
905.076	373.41
905.452	383.58
905.828	393.18
906.204	396.85
906.58	353.63
906.956	371.15
907.331	385.84
907.707	352.22
908.083	379.62
908.458	389.51
908.834	370.02
909.209	396.85
909.585	365.21
909.96	401.65
910.335	370.58
910.71	378.21
911.086	379.34
911.461	362.11
911.836	408.15
912.21	400.24
912.585	377.36
912.96	373.41
913.335	407.86
913.709	346.28
914.084	362.95
914.459	404.76
914.833	364.37
915.207	390.92
915.582	388.38
915.956	396.85
916.33	396.57
916.704	381.03
917.078	397.42
917.452	363.52
917.826	369.45
918.2	375.67
918.574	371.43
918.948	365.5
919.321	375.38
919.695	375.1
920.068	366.63
920.442	381.32
920.815	384.71
921.189	386.68
921.562	364.08
921.935	365.5
922.308	359
922.681	353.35
923.054	383.01
923.427	362.39
923.8	396.57
924.173	357.3
924.546	392.61
924.919	398.83
925.291	364.37
925.664	365.78
926.036	380.47
926.409	378.21
926.781	375.67
927.153	401.65
927.526	352.78
927.898	389.51
928.27	384.14
928.642	378.21
929.014	370.58
929.386	368.6
929.758	372.56
930.129	371.71
930.501	350.24
930.873	367.19
931.244	381.88
931.616	377.93
931.987	368.6
932.359	384.99
932.73	416.05
933.101	367.19
933.472	373.12
933.843	404.76
934.214	371.43
934.585	381.03
934.956	381.6
935.327	371.99
935.698	359.28
936.069	384.99
936.439	411.25
936.81	396
937.18	394.03
937.551	374.82
937.921	385.27
938.292	396.57
938.662	347.7
939.032	395.72
939.402	394.31
939.772	385.84
940.142	404.19
940.512	404.76
940.882	412.1
941.252	383.86
941.621	380.19
941.991	382.45
942.361	392.33
942.73	357.59
943.1	354.76
943.469	390.36
943.838	382.16
944.208	381.88
944.577	384.42
944.946	357.02
945.315	328.76
945.684	351.09
946.053	354.2
946.422	384.99
946.791	375.1
947.159	375.38
947.528	367.19
947.897	367.47
948.265	397.7
948.634	385.55
949.002	379.34
949.371	368.89
949.739	394.03
950.107	390.07
950.475	373.41
950.843	376.8
951.211	369.45
951.579	375.38
951.947	371.43
952.315	369.45
952.683	381.03
953.05	378.77
953.418	376.8
953.785	366.06
954.153	379.06
954.52	377.64
954.888	375.38
955.255	370.3
955.622	381.6
955.989	360.13
956.356	347.13
956.723	388.94
957.09	376.8
957.457	355.33
957.824	360.98
958.191	377.36
958.557	355.33
958.924	384.42
959.291	397.42
959.657	382.16
960.023	369.73
960.39	371.71
960.756	351.93
961.122	393.18
961.488	354.2
961.855	362.95
962.221	391.77
962.586	355.04
962.952	392.9
963.318	381.03
963.684	366.63
964.05	391.48
964.415	383.58
964.781	388.1
965.146	374.25
965.512	368.6
965.877	359.56
966.242	396
966.608	375.67
966.973	365.21
967.338	374.25
967.703	374.25
968.068	380.19
968.433	351.65
968.797	405.32
969.162	364.08
969.527	363.24
969.891	383.29
970.256	364.08
970.62	361.82
970.985	385.27
971.349	366.63
971.714	370.3
972.078	362.39
972.442	347.13
972.806	384.14
973.17	388.94
973.534	385.55
973.898	374.82
974.262	371.99
974.625	373.69
974.989	369.45
975.353	374.25
975.716	353.35
976.08	383.86
976.443	388.66
976.806	383.58
977.17	401.37
977.533	374.25
977.896	371.15
978.259	381.32
978.622	397.98
978.985	370.3
979.348	336.39
979.711	375.1
980.073	385.55
980.436	369.73
980.799	362.95
981.161	396
981.524	386.97
981.886	386.12
982.248	380.75
982.611	376.8
982.973	352.78
983.335	345.15
983.697	362.67
984.059	378.21
984.421	370.86
984.783	384.42
985.145	351.37
985.506	360.69
985.868	397.7
986.23	373.69
986.591	367.19
986.953	378.77
987.314	373.69
987.675	367.47
988.037	548.35
988.398	389.23
988.759	390.07
989.12	373.69
989.481	374.82
989.842	375.1
990.203	388.1
990.564	363.24
990.924	382.45
991.285	462.06
991.646	367.19
992.006	363.24
992.367	378.21
992.727	347.7
993.087	365.78
993.448	355.89
993.808	387.81
994.168	364.08
994.528	381.03
994.888	379.34
995.248	377.93
995.608	366.91
995.967	367.47
996.327	359.56
996.687	368.89
997.046	356.17
997.406	380.47
997.765	376.51
998.125	359.56
998.484	361.82
998.843	370.58
999.202	378.49
999.561	367.76
999.92	387.53
1000.279	364.08
1000.638	366.34
1000.997	361.82
1001.356	379.34
1001.715	387.53
1002.073	373.97
1002.432	369.17
1002.79	358.15
1003.149	397.42
1003.507	361.54
1003.865	387.53
1004.224	363.52
1004.582	373.12
1004.94	360.41
1005.298	359.85
1005.656	356.74
1006.014	373.41
1006.371	380.19
1006.729	384.42
1007.087	376.51
1007.445	392.33
1007.802	382.45
1008.16	386.12
1008.517	361.82
1008.874	353.35
1009.232	363.8
1009.589	381.6
1009.946	377.64
1010.303	358.72
1010.66	386.4
1011.017	407.02
1011.374	354.48
1011.731	383.01
1012.087	375.67
1012.444	384.42
1012.801	367.76
1013.157	361.26
1013.513	357.02
1013.87	396
1014.226	386.4
1014.582	343.46
1014.939	364.08
1015.295	368.6
1015.651	355.04
1016.007	368.32
1016.363	371.71
1016.719	358.43
1017.074	363.52
1017.43	370.58
1017.786	377.93
1018.141	370.02
1018.497	368.6
1018.852	367.76
1019.208	390.07
1019.563	353.63
1019.918	370.86
1020.273	397.13
1020.628	363.24
1020.983	368.6
1021.338	380.47
1021.693	381.32
1022.048	391.77
1022.403	392.61
1022.757	349.39
1023.112	370.86
1023.467	354.48
1023.821	383.29
1024.175	408.15
1024.53	360.98
1024.884	385.55
1025.238	398.26
1025.592	366.91
1025.946	368.04
1026.3	412.1
1026.654	367.76
1027.008	382.73
1027.362	356.74
1027.716	396.85
1028.069	352.78
1028.423	356.46
1028.777	380.19
1029.13	357.3
1029.483	355.33
1029.837	383.58
1030.19	355.61
1030.543	369.73
1030.896	367.76
1031.249	373.69
1031.602	418.03
1031.955	370.58
1032.308	360.13
1032.661	386.97
1033.013	370.3
1033.366	380.47
1033.719	364.93
1034.071	378.21
1034.424	396.29
1034.776	384.14
1035.128	380.19
1035.48	377.08
1035.833	396
1036.185	379.34
1036.537	379.34
1036.889	379.34
