Data from SCSF78-405_irradiation_FLMS019251_16-04-27-865.txt Node
Date: Fri Feb 22 16:04:27 PST 2019
User: mu3e
Spectrometer: FLMS01925
Trigger mode: 0
Integration Time (sec): 1.206000E-2
Scans to average: 10
Electric dark correction enabled: true
Nonlinearity correction enabled: true
Boxcar width: 0
XAxis mode: Wavelengths
Number of Pixels in Spectrum: 2048
>>>>>Begin Spectral Data<<<<<
187.103	-77.87
187.574	-77.87
188.045	-77.87
188.516	-150.67
188.987	-127.06
189.458	-142.7
189.929	-137.87
190.4	-106.87
190.871	-107.72
191.342	-82.7
191.813	-55.71
192.284	-40.36
192.754	-9.12
193.225	11.89
193.696	7.35
194.166	51.34
194.637	85.94
195.107	102.11
195.578	124.22
196.048	151.14
196.518	148.02
196.989	159.64
197.459	216.28
197.929	238.36
198.399	259.01
198.869	275.14
199.339	308.51
199.809	329.71
200.279	329.15
200.749	328.02
201.219	322.93
201.689	360.52
202.159	379.73
202.628	409.38
203.098	376.62
203.568	366.73
204.037	366.17
204.507	380.58
204.976	396.39
205.445	410.79
205.915	358.54
206.384	389.33
206.853	412.49
207.323	390.18
207.792	432.81
208.261	376.06
208.73	396.96
209.199	379.73
209.668	400.63
210.137	388.2
210.606	390.18
211.075	376.06
211.543	354.87
212.012	367.58
212.481	339.89
212.95	373.51
213.418	343.28
213.887	352.04
214.355	369.84
214.824	366.17
215.292	380.58
215.76	343
216.229	353.17
216.697	358.54
217.165	354.87
217.633	343
218.101	357.69
218.569	363.63
219.037	348.08
219.505	366.17
219.973	377.19
220.441	344.41
220.909	333.67
221.377	360.23
221.844	330
222.312	348.08
222.78	373.51
223.247	358.26
223.715	365.04
224.182	344.98
224.65	360.23
225.117	339.32
225.584	321.23
226.052	353.45
226.519	353.74
226.986	369.56
227.453	362.21
227.92	368.99
228.387	373.8
228.854	352.32
229.321	365.04
229.788	366.17
230.255	362.21
230.722	395.83
231.189	359.1
231.655	366.73
232.122	354.58
232.589	361.37
233.055	370.41
233.522	356.56
233.988	376.34
234.454	374.36
234.921	377.19
235.387	364.19
235.853	377.47
236.32	366.17
236.786	378.88
237.252	397.52
237.718	369.84
238.184	379.73
238.65	357.97
239.116	356.28
239.582	374.64
240.047	362.5
240.513	368.15
240.979	377.75
241.445	352.89
241.91	363.91
242.376	368.43
242.841	379.16
243.307	351.19
243.772	361.93
244.238	349.5
244.703	368.43
245.168	368.71
245.633	369.84
246.099	383.4
246.564	347.8
247.029	366.73
247.494	346.11
247.959	354.02
248.424	364.76
248.889	375.77
249.353	353.17
249.818	391.59
250.283	371.82
250.748	355.43
251.212	365.32
251.677	406.84
252.141	344.41
252.606	364.19
253.07	394.7
253.535	364.19
253.999	356.28
254.463	393.57
254.927	393
255.392	383.68
255.856	390.46
256.32	389.61
256.784	388.77
257.248	372.67
257.712	361.08
258.176	388.77
258.64	374.93
259.103	368.15
259.567	378.32
260.031	386.79
260.495	376.34
260.958	394.42
261.422	383.96
261.885	387.64
262.349	401.48
262.812	379.16
263.275	406.56
263.739	357.13
264.202	389.33
264.665	396.11
265.128	367.3
265.591	370.97
266.054	401.48
266.517	393.85
266.98	366.73
267.443	374.36
267.906	398.65
268.369	394.98
268.832	375.77
269.294	375.49
269.757	408.82
270.22	367.86
270.682	393.57
271.145	385.09
271.607	365.6
272.07	384.81
272.532	369.28
272.994	393
273.456	398.65
273.919	411.64
274.381	368.99
274.843	354.02
275.305	371.82
275.767	365.89
276.229	388.48
276.691	358.26
277.153	377.19
277.614	403.45
278.076	383.96
278.538	400.63
279	421.8
279.461	366.17
279.923	376.62
280.384	391.03
280.846	388.77
281.307	396.11
281.769	385.38
282.23	364.76
282.691	396.67
283.152	368.15
283.613	389.61
284.075	378.6
284.536	396.96
284.997	380.29
285.458	360.23
285.918	392.44
286.379	416.44
286.84	373.51
287.301	392.16
287.762	377.19
288.222	413.9
288.683	385.66
289.143	363.06
289.604	386.79
290.064	381.14
290.525	376.06
290.985	406.84
291.445	399.22
291.906	410.23
292.366	373.8
292.826	391.59
293.286	392.44
293.746	400.63
294.206	400.06
294.666	365.6
295.126	388.48
295.586	387.35
296.046	363.91
296.506	394.98
296.965	388.48
297.425	395.83
297.884	381.71
298.344	381.14
298.804	401.48
299.263	398.93
299.722	407.41
300.182	392.72
300.641	397.8
301.1	393.57
301.559	381.42
302.019	382.84
302.478	380.58
302.937	390.18
303.396	400.91
303.855	398.09
304.314	401.19
304.772	394.7
305.231	398.65
305.69	418.42
306.149	398.93
306.607	406.56
307.066	389.9
307.524	372.1
307.983	405.99
308.441	405.71
308.9	420.39
309.358	409.38
309.816	422.93
310.275	359.1
310.733	379.16
311.191	409.95
311.649	391.59
312.107	379.45
312.565	392.72
313.023	417.85
313.481	390.46
313.939	394.42
314.397	383.96
314.854	393.85
315.312	405.15
315.77	413.33
316.227	377.75
316.685	376.34
317.142	399.22
317.6	407.69
318.057	387.64
318.514	407.41
318.972	407.12
319.429	398.37
319.886	426.89
320.343	396.96
320.8	396.96
321.257	378.6
321.714	382.27
322.171	411.64
322.628	392.44
323.085	396.96
323.542	398.65
323.998	409.66
324.455	382.55
324.912	404.02
325.368	415.88
325.825	385.38
326.281	408.25
326.738	394.42
327.194	418.13
327.65	398.93
328.107	394.98
328.563	399.78
329.019	416.44
329.475	408.53
329.931	415.03
330.387	418.7
330.843	409.95
331.299	399.78
331.755	400.63
332.211	422.65
332.666	389.61
333.122	424.91
333.578	413.05
334.033	402.6
334.489	390.18
334.944	386.22
335.4	410.23
335.855	395.54
336.31	392.44
336.766	401.19
337.221	389.33
337.676	426.89
338.131	406.28
338.586	416.16
339.041	403.45
339.496	415.31
339.951	415.31
340.406	429.43
340.861	389.61
341.316	416.44
341.771	402.32
342.225	415.03
342.68	420.96
343.134	417
343.589	385.38
344.043	381.42
344.498	437.05
344.952	408.25
345.406	424.63
345.861	402.6
346.315	435.64
346.769	427.17
347.223	415.31
347.677	422.65
348.131	435.64
348.585	390.74
349.039	426.32
349.493	417
349.947	395.83
350.401	406.28
350.854	422.93
351.308	405.15
351.762	405.71
352.215	397.24
352.669	405.71
353.122	422.09
353.575	399.22
354.029	417
354.482	398.09
354.935	395.83
355.388	399.22
355.842	405.71
356.295	403.73
356.748	410.51
357.201	396.39
357.654	432.25
358.106	403.45
358.559	426.32
359.012	411.64
359.465	426.6
359.917	413.05
360.37	418.42
360.823	431.4
361.275	400.35
361.728	390.46
362.18	422.37
362.632	401.76
363.085	443.54
363.537	410.51
363.989	411.92
364.441	413.33
364.893	421.52
365.345	418.42
365.797	386.79
366.249	406.28
366.701	420.39
367.153	418.42
367.605	406.56
368.057	434.23
368.508	448.05
368.96	418.98
369.411	418.7
369.863	411.08
370.314	418.13
370.766	417.85
371.217	450.59
371.669	432.53
372.12	417
372.571	427.45
373.022	430.56
373.473	394.98
373.924	415.88
374.375	418.42
374.826	424.06
375.277	415.03
375.728	399.5
376.179	417
376.63	409.95
377.08	427.73
377.531	438.74
377.981	412.77
378.432	409.95
378.883	419.26
379.333	431.4
379.783	429.71
380.234	425.76
380.684	425.19
381.134	402.32
381.584	420.11
382.034	419.55
382.485	413.05
382.935	401.48
383.385	431.12
383.834	419.55
384.284	434.79
384.734	439.31
385.184	394.13
385.634	420.11
386.083	416.72
386.533	420.39
386.982	423.22
387.432	405.99
387.881	423.22
388.331	426.89
388.78	465.83
389.229	415.88
389.679	426.6
390.128	444.39
390.577	436.77
391.026	424.06
391.475	403.45
391.924	437.33
392.373	415.88
392.822	441.85
393.27	424.06
393.719	413.33
394.168	431.12
394.617	436.48
395.065	419.83
395.514	431.12
395.962	431.12
396.411	434.23
396.859	444.95
397.307	440.15
397.756	453.7
398.204	459.62
398.652	448.62
399.1	442.97
399.548	456.8
399.996	439.02
400.444	451.44
400.892	460.75
401.34	446.64
401.788	466.68
402.236	422.93
402.683	452.01
403.131	456.24
403.579	453.42
404.026	454.83
404.474	471.19
404.921	456.24
405.369	450.88
405.816	473.17
406.263	464.14
406.71	475.99
407.158	452.01
407.605	492.91
408.052	498.27
408.499	477.4
408.946	505.6
409.393	482.48
409.84	509.55
410.286	539.44
410.733	511.81
411.18	536.9
411.626	589.03
412.073	621.7
412.52	676.02
412.966	782.86
413.413	906.1
413.859	1082.61
414.305	1284.68
414.752	1573.58
415.198	1886.63
415.644	2326.64
416.09	2837.15
416.536	3327.15
416.982	3988.86
417.428	4667.57
417.874	5518.35
418.32	6359.7
418.766	7207.52
419.211	8326.09
419.657	9290.15
420.103	10516.61
420.548	11379.89
420.994	12671.7
421.439	13729.18
421.885	14866.12
422.33	16232.49
422.776	17331.57
423.221	18409.96
423.666	19647.63
424.111	20908.36
424.556	21892.47
425.001	23307.29
425.446	24682.37
425.891	25957.98
426.336	26977.16
426.781	28128.2
427.226	30234.09
427.671	30935.18
428.115	31807.91
428.56	33457.55
429.005	35082.87
429.449	35562.21
429.894	37135.7
430.338	38194.66
430.782	38108.55
431.227	39823.4
431.671	40105.81
432.115	41705.06
432.559	42836.94
433.003	42411.97
433.447	43559.32
433.891	43975.16
434.335	44330.93
434.779	45089.47
435.223	45340
435.667	45417.62
436.111	45917.76
436.554	45919.02
436.998	45316.32
437.442	45397.21
437.885	47447.03
438.328	45827.77
438.772	46127.27
439.215	46780.47
439.659	46311.46
440.102	46756.05
440.545	46066.51
440.988	46018.43
441.431	46913.56
441.874	46354.06
442.317	46598.47
442.76	46144.23
443.203	45616.89
443.646	46302.33
444.089	45795.68
444.531	46536.76
444.974	45298.43
445.417	46339.86
445.859	45350.08
446.302	46597.2
446.744	45814.88
447.186	46955.83
447.629	45867.7
448.071	45936.47
448.513	46033.36
448.956	47498.43
449.398	46619.81
449.84	45465.02
450.282	46067.78
450.724	46580.69
451.166	46316.28
451.607	46258.48
452.049	46244.04
452.491	47408.94
452.933	46943.1
453.374	47455.21
453.816	47907.35
454.257	47571.6
454.699	48635.89
455.14	48312.08
455.582	48093.84
456.023	48237.65
456.464	48232.25
456.905	48782
457.347	48742.93
457.788	47726.54
458.229	48014.17
458.67	49083.47
459.111	47153.1
459.552	47126.07
459.992	47054.68
460.433	46902.36
460.874	45773.19
461.315	47228.37
461.755	46063.47
462.196	45586.86
462.636	44777.25
463.077	44472.57
463.517	44658.48
463.957	44958.94
464.398	44505.42
464.838	44505.92
465.278	43372.9
465.718	43688.43
466.158	42649.11
466.598	43013.96
467.038	42680.94
467.478	43006.24
467.918	43223.77
468.358	42429.36
468.798	42162.88
469.237	41982.49
469.677	42040.29
470.117	42768.51
470.556	40476.05
470.996	40855.35
471.435	41164.86
471.874	41846.59
472.314	41540.32
472.753	40755.79
473.192	40768.39
473.631	40246.61
474.07	40734.3
474.509	40569.6
474.948	40901.07
475.387	40187.67
475.826	39158.42
476.265	40930.23
476.704	40523.68
477.143	40876.11
477.581	40596.75
478.02	41073.61
478.458	39855.43
478.897	40512.82
479.335	41513.82
479.774	41007.6
480.212	41246
480.65	41064.71
481.089	40814.34
481.527	40541.7
481.965	39989.22
482.403	41936.11
482.841	41709.02
483.279	41563.85
483.717	41604.47
484.155	41259.86
484.592	41632.21
485.03	41825.02
485.468	40833.36
485.905	41044.43
486.343	41533.38
486.781	40776.29
487.218	40161.04
487.655	40189.64
488.093	39333.29
488.53	40706.89
488.967	39937.97
489.405	39836.95
489.842	38877.47
490.279	38875.99
490.716	38603.58
491.153	38963.23
491.59	38322.99
492.027	37761.59
492.463	37315.68
492.9	36649.44
493.337	36523.72
493.773	36616.66
494.21	35734.68
494.647	35646.73
495.083	34809.97
495.519	34547.88
495.956	34551.78
496.392	33788.24
496.828	33494.37
497.265	32856.03
497.701	32963.8
498.137	32732.18
498.573	31888.86
499.009	32329.42
499.445	31509.96
499.881	31017.61
500.316	31317.33
500.752	30388.04
501.188	30222.38
501.624	30168.21
502.059	28864.91
502.495	28736.63
502.93	28643.04
503.366	28863.44
503.801	28259.75
504.236	27966.3
504.672	27488.43
505.107	27310.71
505.542	26672.84
505.977	26702.01
506.412	26267.82
506.847	26533.62
507.282	26044.59
507.717	25676.2
508.152	25599.34
508.587	25311.72
509.021	24691.97
509.456	24370.11
509.891	24339.1
510.325	24365.93
510.76	23889.64
511.194	23744.98
511.628	23864.75
512.063	23197
512.497	23300.88
512.931	22753.36
513.366	22581.17
513.8	22522.6
514.234	21783.32
514.668	21887.77
515.102	21941.72
515.536	21360.8
515.969	21392.27
516.403	20935.64
516.837	20578.57
517.271	20654.03
517.704	20280.83
518.138	20040.54
518.571	19861.04
519.005	19643.9
519.438	19544.11
519.871	19386.31
520.305	18889.58
520.738	18933.7
521.171	18358.29
521.604	18580.37
522.037	18299.88
522.47	17900.26
522.903	17582.01
523.336	17593.01
523.769	17393.13
524.202	16926.16
524.634	17017.1
525.067	16754.75
525.5	16664.25
525.932	16458.1
526.365	16110.47
526.797	15882.63
527.23	15939.66
527.662	15366.84
528.094	15267.67
528.527	15254.58
528.959	14978.02
529.391	14746.62
529.823	14285.57
530.255	14272.44
530.687	13927.49
531.119	13763.08
531.551	13684.39
531.982	13355.44
532.414	13098.65
532.846	12936.78
533.277	12828.9
533.709	12442.69
534.14	12372.75
534.572	12170.7
535.003	12088.21
535.435	11788.78
535.866	11627.05
536.297	11380.91
536.728	11487.93
537.159	11284.32
537.59	11008.87
538.022	10873.94
538.452	10732.52
538.883	10538.67
539.314	10430.64
539.745	10186.62
540.176	10051.12
540.606	9837.76
541.037	9848.83
541.468	9653.53
541.898	9564.57
542.328	9488.46
542.759	9273.1
543.189	9142.04
543.619	9061.08
544.05	8877.53
544.48	8736.04
544.91	8644.75
545.34	8483.29
545.77	8343.5
546.2	8289.42
546.63	8149.18
547.06	8133.83
547.489	7970.76
547.919	7758.17
548.349	7734.94
548.778	7730.76
549.208	7548.39
549.637	7513.61
550.067	7358.17
550.496	7330.15
550.926	7196.25
551.355	7094.49
551.784	7051.45
552.213	6854.44
552.642	6763.44
553.071	6809.74
553.5	6643.67
553.929	6421.46
554.358	6505.07
554.787	6395.07
555.216	6409.85
555.645	6244.54
556.073	6155.45
556.502	6039.29
556.93	5929.63
557.359	5920.62
557.787	5888.28
558.216	5802.35
558.644	5729.36
559.072	5672
559.5	5592.28
559.929	5582.45
560.357	5612.75
560.785	5461.68
561.213	5380.47
561.641	5345.03
562.068	5299.19
562.496	5260.26
562.924	5217.32
563.352	5176.49
563.779	5136.18
564.207	5144.73
564.634	5070.21
565.062	5080.63
565.489	4995.64
565.917	4939.75
566.344	4941.35
566.771	4869.36
567.198	4825.72
567.625	4754.98
568.053	4639.93
568.48	4685.54
568.907	4638.32
569.333	4537.37
569.76	4420.18
570.187	4471.8
570.614	4322.23
571.04	4487.13
571.467	4208.81
571.894	4149.76
572.32	4048.29
572.747	3983.73
573.173	3961.84
573.599	3895.06
574.026	3799.26
574.452	3767.3
574.878	3707.15
575.304	3670.82
575.73	3606
576.156	3529.71
576.582	3486.79
577.008	3409.59
577.434	3349.74
577.86	3286.86
578.285	3304.29
578.711	3194.49
579.137	3164.49
579.562	3048.24
579.988	3046.05
580.413	3004.8
580.838	2931
581.264	2973.38
581.689	2885.04
582.114	2824.55
582.539	2840.43
582.964	2731.13
583.39	2758.27
583.814	2703.72
584.239	2640.35
584.664	2645.84
585.089	2585.72
585.514	2543.7
585.939	2506.88
586.363	2495.06
586.788	2470.04
587.212	2394.38
587.637	2378.42
588.061	2411.17
588.485	2300.2
588.91	2278.15
589.334	2212.25
589.758	2198.18
590.182	2203.69
590.606	2160.37
591.03	2163.68
591.454	2078.35
591.878	2060.38
592.302	2053.2
592.726	2008.96
593.15	2007.58
593.573	1966.08
593.997	1944.78
594.42	1927.61
594.844	1937.58
595.267	1857.82
595.691	1869.46
596.114	1794.07
596.537	1827.06
596.96	1815.14
597.384	1790.74
597.807	1724.16
598.23	1769.11
598.653	1721.94
599.076	1709.17
599.499	1707.5
599.921	1688.62
600.344	1637.24
600.767	1658.07
601.189	1631.4
601.612	1615.84
602.034	1617.23
602.457	1608.33
602.879	1590.54
603.302	1575.81
603.724	1576.08
604.146	1546.6
604.568	1551.89
604.991	1549.66
605.413	1592.49
605.835	1563.29
606.257	1536.31
606.678	1540.76
607.1	1516
607.522	1525.74
607.944	1478.42
608.365	1489.56
608.787	1482.87
609.209	1436.09
609.63	1390.11
610.051	1413.24
610.473	1416.03
610.894	1382.31
611.315	1370.04
611.737	1354.42
612.158	1351.08
612.579	1338.81
613	1313.98
613.421	1295
613.842	1283.84
614.263	1260.67
614.683	1286.35
615.104	1232.74
615.525	1258.71
615.945	1215.7
616.366	1189.44
616.787	1188.88
617.207	1200.62
617.627	1129.89
618.048	1128.49
618.468	1104.44
618.888	1129.89
619.308	1118.98
619.728	1111.15
620.148	1081.49
620.568	1074.49
620.988	1048.18
621.408	1057.98
621.828	1033.34
622.248	1050.42
622.668	996.09
623.087	1030.26
623.507	996.09
623.926	1002.81
624.346	997.21
624.765	973.67
625.185	984.88
625.604	952.37
626.023	911.71
626.442	940.31
626.861	917.6
627.28	880.85
627.699	934.14
628.118	921.24
628.537	902.17
628.956	899.93
629.375	904.7
629.794	856.43
630.212	889.55
630.631	872.99
631.049	822.18
631.468	831.45
631.886	831.73
632.305	850.26
632.723	812.91
633.141	845.49
633.559	820.22
633.978	807.3
634.396	796.62
634.814	788.2
635.232	774.43
635.65	805.33
636.067	755.6
636.485	767.4
636.903	774.15
637.321	733.96
637.738	748.85
638.156	767.97
638.573	749.7
638.991	732.27
639.408	747.45
639.825	697.4
640.243	733.11
640.66	704.71
641.077	716.52
641.494	708.93
641.911	692.05
642.328	691.21
642.745	698.52
643.162	699.93
643.579	677.43
643.995	690.37
644.412	684.46
644.829	665.89
645.245	675.17
645.662	639.43
646.078	652.38
646.495	627.61
646.911	637.46
647.327	666.17
647.743	649.28
648.159	660.26
648.576	617.47
648.992	623.39
649.408	619.16
649.824	619.44
650.239	616.07
650.655	627.89
651.071	623.67
651.487	627.89
651.902	625.36
652.318	613.81
652.733	597.76
653.149	608.46
653.564	603.39
653.979	603.96
654.395	585.65
654.81	591.28
655.225	573.82
655.64	602.27
656.055	580.86
656.47	609.03
656.885	588.75
657.3	588.75
657.715	562.26
658.13	586.78
658.544	573.82
658.959	582.55
659.374	593.54
659.788	581.42
660.202	557.19
660.617	549.58
661.031	549.3
661.445	549.86
661.86	544.23
662.274	542.82
662.688	560.01
663.102	540.56
663.516	549.3
663.93	560.01
664.344	522.8
664.758	530.7
665.171	545.92
665.585	547.61
665.999	543.95
666.412	536.05
666.826	548.46
667.239	513.22
667.653	526.75
668.066	561.42
668.479	540.56
668.892	502.5
669.306	536.05
669.719	502.78
670.132	505.6
670.545	538.87
670.958	538.59
671.37	510.4
671.783	514.63
672.196	485.58
672.609	510.4
673.021	489.25
673.434	507.01
673.846	512.94
674.259	488.68
674.671	490.37
675.084	481.07
675.496	516.6
675.908	511.53
676.32	490.09
676.732	495.73
677.144	523.09
677.556	487.27
677.968	525.91
678.38	512.37
678.792	495.45
679.204	497.43
679.615	492.63
680.027	466.96
680.439	495.17
680.85	477.96
681.262	483.04
681.673	511.24
682.084	470.63
682.496	472.32
682.907	475.42
683.318	478.53
683.729	465.83
684.14	468.09
684.551	499.68
684.962	485.02
685.373	471.76
685.784	470.06
686.194	479.37
686.605	459.34
687.016	466.96
687.426	478.53
687.837	456.24
688.247	456.8
688.657	457.65
689.068	453.42
689.478	447.49
689.888	448.62
690.298	482.76
690.708	459.06
691.118	445.23
691.528	438.46
691.938	455.11
692.348	445.23
692.758	459.06
693.168	431.12
693.577	455.67
693.987	424.91
694.396	420.11
694.806	448.9
695.215	436.77
695.625	405.15
696.034	459.06
696.443	474.86
696.852	465.83
697.262	469.5
697.671	431.12
698.08	428.86
698.489	455.67
698.897	443.54
699.306	426.6
699.715	461.32
700.124	442.41
700.532	444.39
700.941	462.16
701.35	440.15
701.758	447.21
702.166	444.95
702.575	437.05
702.983	460.75
703.391	418.42
703.799	423.78
704.208	399.5
704.616	442.13
705.024	432.81
705.432	426.32
705.839	423.5
706.247	434.79
706.655	437.61
707.063	425.19
707.47	429.71
707.878	445.23
708.285	426.04
708.693	426.6
709.1	437.33
709.508	431.97
709.915	425.76
710.322	414.75
710.729	421.52
711.136	418.42
711.543	421.24
711.95	411.92
712.357	452.01
712.764	417.29
713.171	417.29
713.578	405.15
713.984	424.35
714.391	410.51
714.797	432.25
715.204	431.4
715.61	414.18
716.017	402.32
716.423	433.94
716.829	420.68
717.236	441
717.642	402.04
718.048	414.18
718.454	433.66
718.86	419.55
719.266	421.52
719.671	390.74
720.077	422.09
720.483	447.21
720.889	401.76
721.294	417.85
721.7	401.19
722.105	399.78
722.511	436.2
722.916	438.74
723.321	397.8
723.726	436.77
724.132	399.78
724.537	417.29
724.942	409.66
725.347	417.29
725.752	403.73
726.156	425.76
726.561	418.98
726.966	403.73
727.371	432.81
727.775	413.62
728.18	391.03
728.584	415.31
728.989	423.5
729.393	395.26
729.798	421.8
730.202	421.24
730.606	398.65
731.01	407.12
731.414	421.8
731.818	433.66
732.222	398.65
732.626	357.69
733.03	427.17
733.434	427.45
733.837	387.64
734.241	429.99
734.645	393.29
735.048	417.29
735.452	389.9
735.855	394.42
736.258	414.46
736.662	417.85
737.065	402.6
737.468	408.53
737.871	380.01
738.274	400.91
738.677	407.12
739.08	380.29
739.483	432.81
739.886	413.62
740.289	411.36
740.691	406.84
741.094	397.8
741.497	384.53
741.899	378.32
742.302	401.76
742.704	398.37
743.106	374.08
743.508	374.36
743.911	367.58
744.313	390.46
744.715	396.11
745.117	409.66
745.519	406.56
745.921	397.52
746.323	425.76
746.724	390.46
747.126	398.37
747.528	385.09
747.929	405.43
748.331	388.48
748.732	386.79
749.134	414.75
749.535	419.26
749.936	374.08
750.338	407.12
750.739	398.09
751.14	373.51
751.541	400.35
751.942	401.48
752.343	407.12
752.744	391.31
753.144	402.32
753.545	394.13
753.946	392.44
754.346	395.26
754.747	404.3
755.148	412.21
755.548	391.31
755.948	417.85
756.349	392.72
756.749	410.51
757.149	406.56
757.549	396.11
757.949	390.18
758.349	386.22
758.749	389.05
759.149	392.44
759.549	420.68
759.949	401.76
760.348	378.03
760.748	370.69
761.148	396.39
761.547	404.02
761.947	384.53
762.346	397.8
762.745	392.72
763.145	409.95
763.544	397.24
763.943	399.5
764.342	395.54
764.741	395.54
765.14	397.52
765.539	396.11
765.938	405.71
766.336	392.72
766.735	385.94
767.134	374.64
767.532	384.53
767.931	428.86
768.329	414.75
768.728	382.84
769.126	407.12
769.525	406.56
769.923	378.32
770.321	389.33
770.719	422.93
771.117	408.25
771.515	393.29
771.913	401.76
772.311	381.99
772.709	420.96
773.106	376.62
773.504	404.02
773.902	373.8
774.299	401.76
774.697	405.71
775.094	402.6
775.491	396.67
775.889	414.75
776.286	386.79
776.683	407.41
777.08	414.18
777.477	385.94
777.874	374.93
778.271	376.06
778.668	377.47
779.065	369.28
779.462	410.79
779.858	392.72
780.255	399.5
780.652	387.35
781.048	387.35
781.444	392.16
781.841	366.45
782.237	380.86
782.633	376.06
783.03	400.35
783.426	393.29
783.822	384.25
784.218	381.42
784.614	383.12
785.01	395.54
785.405	384.81
785.801	385.38
786.197	418.98
786.593	362.5
786.988	390.74
787.384	389.33
787.779	385.38
788.174	382.84
788.57	392.16
788.965	402.04
789.36	404.3
789.755	390.18
790.15	400.63
790.545	384.81
790.94	403.73
791.335	372.1
791.73	387.64
792.125	372.38
792.52	405.99
792.914	400.91
793.309	394.98
793.703	396.11
794.098	361.65
794.492	420.96
794.887	402.6
795.281	390.74
795.675	389.61
796.069	399.78
796.463	381.14
796.857	396.11
797.251	416.44
797.645	381.71
798.039	420.39
798.433	386.22
798.826	395.83
799.22	408.82
799.614	400.63
800.007	412.21
800.401	401.19
800.794	380.01
801.187	409.66
801.581	403.73
801.974	406.84
802.367	402.04
802.76	396.96
803.153	390.46
803.546	396.39
803.939	382.27
804.332	382.84
804.725	394.98
805.117	389.9
805.51	393
805.903	416.16
806.295	386.51
806.688	363.91
807.08	391.31
807.472	392.16
807.865	390.18
808.257	390.74
808.649	380.86
809.041	387.35
809.433	374.93
809.825	367.02
810.217	382.27
810.609	391.87
811.001	368.71
811.392	405.15
811.784	387.64
812.175	396.67
812.567	431.12
812.958	391.87
813.35	398.09
813.741	394.13
814.132	394.42
814.524	391.87
814.915	383.12
815.306	395.26
815.697	400.06
816.088	372.95
816.479	386.79
816.87	360.52
817.26	391.03
817.651	382.55
818.042	384.81
818.432	390.18
818.823	406.28
819.213	388.2
819.604	376.9
819.994	379.45
820.384	368.15
820.775	373.8
821.165	406.84
821.555	366.45
821.945	388.48
822.335	382.27
822.725	404.3
823.114	383.12
823.504	358.54
823.894	405.43
824.284	372.1
824.673	391.59
825.063	384.81
825.452	387.07
825.842	358.26
826.231	378.88
826.62	399.5
827.009	375.49
827.399	370.69
827.788	381.99
828.177	393
828.566	390.74
828.954	369.28
829.343	402.6
829.732	368.71
830.121	371.82
830.509	368.99
830.898	399.78
831.286	356
831.675	381.71
832.063	398.93
832.452	362.21
832.84	417.85
833.228	402.6
833.616	391.31
834.004	386.79
834.392	369.56
834.78	377.75
835.168	378.03
835.556	429.71
835.944	362.5
836.331	360.52
836.719	369.56
837.107	402.6
837.494	385.09
837.881	376.9
838.269	384.81
838.656	376.06
839.043	397.52
839.431	365.04
839.818	375.21
840.205	371.54
840.592	388.48
840.979	373.51
841.366	400.63
841.752	402.6
842.139	387.92
842.526	381.99
842.912	381.14
843.299	404.02
843.685	400.91
844.072	393
844.458	386.51
844.844	385.94
845.231	417.85
845.617	376.34
846.003	385.66
846.389	371.82
846.775	370.41
847.161	380.29
847.547	392.44
847.933	391.03
848.318	383.96
848.704	374.08
849.09	385.09
849.475	383.12
849.861	386.79
850.246	370.12
850.631	394.13
851.017	406.84
851.402	366.17
851.787	389.05
852.172	398.09
852.557	378.03
852.942	396.11
853.327	373.8
853.712	386.51
854.097	381.42
854.481	364.76
854.866	387.35
855.25	390.74
855.635	376.62
856.019	393.57
856.404	387.35
856.788	355.71
857.172	387.92
857.557	395.26
857.941	404.86
858.325	377.75
858.709	393
859.093	373.8
859.477	388.48
859.86	359.39
860.244	345.82
860.628	394.7
861.012	365.6
861.395	373.8
861.779	367.86
862.162	358.26
862.545	381.42
862.929	372.95
863.312	369.84
863.695	377.75
864.078	368.99
864.461	352.04
864.844	390.46
865.227	415.31
865.61	375.77
865.993	393.85
866.376	405.71
866.758	384.25
867.141	372.38
867.523	378.6
867.906	392.16
868.288	359.1
868.671	389.05
869.053	400.63
869.435	402.32
869.817	394.13
870.199	383.96
870.581	362.78
870.963	408.25
871.345	397.8
871.727	398.09
872.109	376.06
872.491	378.6
872.872	393.57
873.254	382.84
873.635	385.38
874.017	387.64
874.398	414.18
874.779	355.43
875.161	379.73
875.542	385.38
875.923	379.16
876.304	335.08
876.685	368.15
877.066	387.35
877.447	391.59
877.828	376.06
878.208	365.04
878.589	386.79
878.97	372.95
879.35	368.43
879.731	384.53
880.111	403.73
880.491	385.94
880.872	353.17
881.252	371.82
881.632	382.55
882.012	370.12
882.392	366.45
882.772	369.28
883.152	386.51
883.532	369.56
883.912	378.03
884.291	370.69
884.671	383.12
885.051	365.89
885.43	378.88
885.81	354.3
886.189	384.81
886.568	381.14
886.948	395.83
887.327	378.32
887.706	375.21
888.085	376.9
888.464	355.71
888.843	373.51
889.222	390.18
889.601	394.13
889.979	394.98
890.358	380.86
890.737	364.76
891.115	390.74
891.494	389.9
891.872	395.83
892.25	346.11
892.629	351.48
893.007	370.12
893.385	393
893.763	373.23
894.141	388.77
894.519	364.19
894.897	374.08
895.275	342.15
895.653	367.58
896.03	378.32
896.408	370.97
896.786	394.98
897.163	379.73
897.541	352.32
897.918	380.29
898.295	400.06
898.673	374.93
899.05	367.86
899.427	393
899.804	375.21
900.181	367.86
900.558	374.64
900.935	363.34
901.312	361.93
901.688	389.33
902.065	385.66
902.442	395.54
902.818	353.74
903.195	380.58
903.571	367.02
903.947	365.6
904.324	375.49
904.7	367.3
905.076	370.41
905.452	380.58
905.828	380.86
906.204	383.12
906.58	380.29
906.956	374.64
907.331	380.86
907.707	393.57
908.083	374.93
908.458	362.21
908.834	394.7
909.209	375.21
909.585	365.32
909.96	390.46
910.335	394.7
910.71	373.23
911.086	385.94
911.461	389.33
911.836	411.08
912.21	389.33
912.585	366.17
912.96	370.97
913.335	391.87
913.709	375.21
914.084	368.99
914.459	360.23
914.833	361.37
915.207	402.32
915.582	368.99
915.956	406.56
916.33	385.66
916.704	393.85
917.078	371.82
917.452	372.1
917.826	372.67
918.2	380.58
918.574	389.05
918.948	361.65
919.321	381.99
919.695	389.05
920.068	392.72
920.442	366.17
920.815	381.99
921.189	376.9
921.562	370.41
921.935	362.78
922.308	381.14
922.681	372.95
923.054	383.4
923.427	388.2
923.8	370.97
924.173	365.6
924.546	364.76
924.919	371.82
925.291	373.8
925.664	375.21
926.036	370.41
926.409	394.7
926.781	394.98
927.153	370.97
927.526	373.23
927.898	380.86
928.27	377.47
928.642	391.03
929.014	372.1
929.386	388.77
929.758	370.41
930.129	345.82
930.501	335.37
930.873	367.58
931.244	354.02
931.616	399.78
931.987	354.58
932.359	367.58
932.73	387.35
933.101	382.84
933.472	378.32
933.843	376.06
934.214	360.23
934.585	384.81
934.956	368.99
935.327	375.77
935.698	364.47
936.069	379.16
936.439	372.67
936.81	353.45
937.18	376.06
937.551	404.02
937.921	386.22
938.292	381.14
938.662	387.92
939.032	361.65
939.402	380.01
939.772	373.51
940.142	355.43
940.512	371.82
940.882	378.6
941.252	385.38
941.621	375.77
941.991	367.3
942.361	380.86
942.73	378.32
943.1	375.49
943.469	381.14
943.838	376.9
944.208	382.55
944.577	386.22
944.946	379.45
945.315	395.83
945.684	372.1
946.053	384.81
946.422	374.64
946.791	378.88
947.159	378.32
947.528	374.08
947.897	382.84
948.265	390.46
948.634	379.45
949.002	375.21
949.371	343
949.739	389.9
950.107	388.77
950.475	379.16
950.843	353.45
951.211	370.41
951.579	367.58
951.947	378.88
952.315	385.09
952.683	376.9
953.05	359.67
953.418	387.92
953.785	387.07
954.153	359.1
954.52	364.76
954.888	366.17
955.255	382.84
955.622	341.87
955.989	379.73
956.356	369.84
956.723	384.53
957.09	372.67
957.457	352.61
957.824	381.71
958.191	356
958.557	353.74
958.924	372.67
959.291	359.1
959.657	376.06
960.023	395.54
960.39	371.82
960.756	354.58
961.122	380.29
961.488	389.33
961.855	389.33
962.221	386.51
962.586	371.25
962.952	367.86
963.318	368.99
963.684	371.54
964.05	373.51
964.415	397.24
964.781	391.31
965.146	376.06
965.512	384.53
965.877	379.73
966.242	378.32
966.608	383.12
966.973	368.99
967.338	384.53
967.703	383.4
968.068	355.71
968.433	378.88
968.797	367.3
969.162	357.13
969.527	372.38
969.891	385.66
970.256	358.26
970.62	364.47
970.985	346.39
971.349	365.04
971.714	351.76
972.078	395.54
972.442	404.58
972.806	368.99
973.17	381.71
973.534	382.84
973.898	356.28
974.262	346.39
974.625	368.15
974.989	373.51
975.353	376.34
975.716	382.27
976.08	381.14
976.443	361.08
976.806	362.5
977.17	372.1
977.533	377.75
977.896	374.93
978.259	375.21
978.622	385.94
978.985	388.48
979.348	364.47
979.711	376.06
980.073	361.08
980.436	365.04
980.799	379.45
981.161	371.54
981.524	345.54
981.886	385.66
982.248	350.06
982.611	377.47
982.973	393.57
983.335	365.04
983.697	353.17
984.059	357.41
984.421	370.12
984.783	375.77
985.145	374.08
985.506	345.54
985.868	345.26
986.23	339.89
986.591	358.54
986.953	366.73
987.314	367.86
987.675	374.36
988.037	539.15
988.398	369.56
988.759	379.16
989.12	350.63
989.481	384.53
989.842	368.43
990.203	363.91
990.564	372.1
990.924	361.08
991.285	513.22
991.646	370.12
992.006	363.91
992.367	363.34
992.727	345.26
993.087	394.7
993.448	380.01
993.808	375.21
994.168	376.62
994.528	363.91
994.888	359.39
995.248	365.32
995.608	349.78
995.967	381.71
996.327	364.47
996.687	348.93
997.046	374.64
997.406	364.76
997.765	353.17
998.125	375.49
998.484	378.6
998.843	376.34
999.202	376.62
999.561	368.71
999.92	388.2
1000.279	360.23
1000.638	389.9
1000.997	351.76
1001.356	360.23
1001.715	376.34
1002.073	389.9
1002.432	347.8
1002.79	378.6
1003.149	352.04
1003.507	351.48
1003.865	374.36
1004.224	382.27
1004.582	366.45
1004.94	367.02
1005.298	364.76
1005.656	365.89
1006.014	358.54
1006.371	365.32
1006.729	376.34
1007.087	375.77
1007.445	377.75
1007.802	372.38
1008.16	378.6
1008.517	363.63
1008.874	356.28
1009.232	387.07
1009.589	350.91
1009.946	397.52
1010.303	350.91
1010.66	362.78
1011.017	375.21
1011.374	356.84
1011.731	368.15
1012.087	359.67
1012.444	351.19
1012.801	359.95
1013.157	376.34
1013.513	382.55
1013.87	376.9
1014.226	367.3
1014.582	361.37
1014.939	376.62
1015.295	358.26
1015.651	393.85
1016.007	361.08
1016.363	331.13
1016.719	378.88
1017.074	373.51
1017.43	376.06
1017.786	392.72
1018.141	368.43
1018.497	383.12
1018.852	395.83
1019.208	377.75
1019.563	370.97
1019.918	378.88
1020.273	372.95
1020.628	376.06
1020.983	363.63
1021.338	385.66
1021.693	367.3
1022.048	359.95
1022.403	367.02
1022.757	394.13
1023.112	382.55
1023.467	354.58
1023.821	399.22
1024.175	356
1024.53	377.75
1024.884	344.69
1025.238	399.22
1025.592	368.71
1025.946	392.16
1026.3	347.8
1026.654	380.58
1027.008	360.8
1027.362	368.15
1027.716	379.73
1028.069	362.5
1028.423	372.95
1028.777	391.03
1029.13	383.4
1029.483	377.75
1029.837	350.06
1030.19	389.9
1030.543	365.89
1030.896	361.65
1031.249	356.56
1031.602	372.95
1031.955	376.34
1032.308	372.95
1032.661	354.02
1033.013	346.67
1033.366	389.33
1033.719	369.56
1034.071	341.87
1034.424	329.43
1034.776	354.02
1035.128	363.34
1035.48	382.27
1035.833	330.56
1036.185	381.71
1036.537	381.71
1036.889	381.71
