Data from SCSF78-405_irradiation_FLMS019251_19-01-27-864.txt Node
Date: Fri Feb 22 19:01:27 PST 2019
User: mu3e
Spectrometer: FLMS01925
Trigger mode: 0
Integration Time (sec): 1.206000E-2
Scans to average: 10
Electric dark correction enabled: true
Nonlinearity correction enabled: true
Boxcar width: 0
XAxis mode: Wavelengths
Number of Pixels in Spectrum: 2048
>>>>>Begin Spectral Data<<<<<
187.103	-74.25
187.574	-74.25
188.045	-74.25
188.516	-123.43
188.987	-146.19
189.458	-161.84
189.929	-120.02
190.4	-93.86
190.871	-85.33
191.342	-45.83
191.813	-65.15
192.284	-41.85
192.754	-38.73
193.225	-18.85
193.696	29.98
194.166	48.71
194.637	88.99
195.107	86.44
195.578	103.17
196.048	147.95
196.518	165.23
196.989	213.1
197.459	219.89
197.929	223
198.399	273.94
198.869	304.76
199.339	301.09
199.809	322.29
200.279	345.19
200.749	333.32
201.219	355.64
201.689	365.81
202.159	374.29
202.628	388.98
203.098	375.99
203.568	404.79
204.037	394.63
204.507	400.56
204.976	393.78
205.445	411.57
205.915	415.24
206.384	395.47
206.853	385.87
207.323	391.52
207.792	401.12
208.261	398.3
208.73	408.75
209.199	389.26
209.668	377.96
210.137	394.63
210.606	396.89
211.075	389.83
211.543	362.71
212.012	364.12
212.481	385.02
212.95	387
213.418	394.34
213.887	368.36
214.355	363.84
214.824	365.25
215.292	353.95
215.76	361.58
216.229	362.71
216.697	367.79
217.165	354.51
217.633	345.75
218.101	380.79
218.569	376.83
219.037	373.16
219.505	370.62
219.973	366.66
220.441	348.01
220.909	360.73
221.377	370.62
221.844	345.47
222.312	380.79
222.78	368.64
223.247	355.36
223.715	352.82
224.182	366.38
224.65	365.53
225.117	369.77
225.584	371.47
226.052	359.88
226.519	349.43
226.986	369.21
227.453	365.81
227.92	361.01
228.387	394.34
228.854	356.21
229.321	374.29
229.788	374.57
230.255	354.8
230.722	378.25
231.189	377.68
231.655	397.73
232.122	389.54
232.589	352.25
233.055	369.77
233.522	352.25
233.988	366.38
234.454	344.62
234.921	349.71
235.387	392.09
235.853	353.67
236.32	385.87
236.786	357.62
237.252	374.01
237.718	388.41
238.184	376.55
238.65	396.89
239.116	377.96
239.582	385.02
240.047	366.66
240.513	375.42
240.979	370.05
241.445	371.47
241.91	364.4
242.376	354.23
242.841	368.36
243.307	391.24
243.772	398.3
244.238	355.36
244.703	394.63
245.168	354.51
245.633	386.72
246.099	394.34
246.564	388.7
247.029	383.61
247.494	368.36
247.959	384.46
248.424	388.98
248.889	362.42
249.353	371.47
249.818	403.95
250.283	383.89
250.748	379.94
251.212	395.76
251.677	399.15
252.141	371.47
252.606	384.74
253.07	385.59
253.535	399.71
253.999	367.23
254.463	401.12
254.927	386.44
255.392	375.42
255.856	371.47
256.32	393.5
256.784	379.37
257.248	395.76
257.712	383.05
258.176	391.8
258.64	386.72
259.103	364.68
259.567	399.43
260.031	403.1
260.495	399.99
260.958	389.26
261.422	384.46
261.885	391.52
262.349	376.27
262.812	375.99
263.275	422.02
263.739	374.01
264.202	387.57
264.665	381.63
265.128	396.32
265.591	400.84
266.054	399.71
266.517	395.76
266.98	388.13
267.443	372.31
267.906	382.2
268.369	388.13
268.832	372.88
269.294	386.15
269.757	367.51
270.22	402.82
270.682	380.5
271.145	405.08
271.607	368.36
272.07	384.74
272.532	403.38
272.994	395.47
273.456	381.92
273.919	416.93
274.381	405.36
274.843	385.02
275.305	394.63
275.767	404.23
276.229	423.15
276.691	391.52
277.153	396.89
277.614	390.11
278.076	422.02
278.538	446.29
279	385.87
279.461	383.05
279.923	383.33
280.384	385.87
280.846	403.38
281.307	383.89
281.769	391.52
282.23	383.89
282.691	406.77
283.152	388.13
283.613	391.52
284.075	382.48
284.536	386.15
284.997	393.5
285.458	421.17
285.918	409.03
286.379	383.33
286.84	379.94
287.301	401.69
287.762	383.89
288.222	359.32
288.683	394.63
289.143	387.28
289.604	412.98
290.064	402.53
290.525	394.91
290.985	383.05
291.445	381.35
291.906	399.99
292.366	401.97
292.826	405.36
293.286	400.56
293.746	419.48
294.206	407.9
294.666	413.83
295.126	425.69
295.586	403.66
296.046	401.4
296.506	398.86
296.965	371.75
297.425	381.92
297.884	396.6
298.344	391.8
298.804	405.92
299.263	383.05
299.722	392.65
300.182	410.72
300.641	397.45
301.1	403.95
301.559	398.02
302.019	381.35
302.478	402.53
302.937	395.76
303.396	408.46
303.855	402.25
304.314	425.69
304.772	416.65
305.231	408.46
305.69	413.26
306.149	397.17
306.607	400.28
307.066	398.02
307.524	394.63
307.983	430.49
308.441	397.45
308.9	391.24
309.358	419.76
309.816	398.58
310.275	392.37
310.733	394.06
311.191	393.21
311.649	405.92
312.107	426.82
312.565	389.54
313.023	412.42
313.481	422.58
313.939	410.44
314.397	406.21
314.854	394.63
315.312	402.82
315.77	400.56
316.227	431.9
316.685	400.28
317.142	422.58
317.6	409.31
318.057	421.17
318.514	392.65
318.972	419.76
319.429	414.68
319.886	393.21
320.343	408.46
320.8	407.05
321.257	415.52
321.714	425.4
322.171	417.5
322.628	414.39
323.085	421.17
323.542	395.19
323.998	418.63
324.455	418.63
324.912	421.73
325.368	409.88
325.825	403.95
326.281	408.46
326.738	394.06
327.194	415.81
327.65	391.52
328.107	399.99
328.563	402.82
329.019	385.02
329.475	375.42
329.931	409.03
330.387	429.92
330.843	391.8
331.299	418.35
331.755	390.39
332.211	417.22
332.666	388.7
333.122	401.97
333.578	402.53
334.033	403.1
334.489	423.99
334.944	391.52
335.4	427.94
335.855	410.72
336.31	420.6
336.766	422.02
337.221	395.47
337.676	402.25
338.131	409.31
338.586	397.17
339.041	428.51
339.496	417.78
339.951	407.33
340.406	407.62
340.861	434.44
341.316	412.13
341.771	383.61
342.225	398.86
342.68	403.66
343.134	399.71
343.589	428.23
344.043	419.48
344.498	407.33
344.952	407.62
345.406	413.55
345.861	411.01
346.315	420.6
346.769	403.66
347.223	428.23
347.677	412.13
348.131	431.9
348.585	393.21
349.039	408.18
349.493	402.25
349.947	412.42
350.401	421.45
350.854	399.71
351.308	398.02
351.762	407.05
352.215	400.56
352.669	416.93
353.122	394.63
353.575	427.1
354.029	392.09
354.482	414.39
354.935	427.94
355.388	418.35
355.842	411.57
356.295	397.17
356.748	421.73
357.201	423.43
357.654	437.82
358.106	420.89
358.559	425.97
359.012	422.58
359.465	433.03
359.917	411.29
360.37	405.92
360.823	419.48
361.275	409.88
361.728	403.66
362.18	439.8
362.632	418.35
363.085	412.98
363.537	414.68
363.989	425.4
364.441	407.9
364.893	421.73
365.345	440.36
365.797	424.84
366.249	390.67
366.701	435.57
367.153	395.47
367.605	423.71
368.057	419.48
368.508	405.36
368.96	407.33
369.411	429.64
369.863	443.47
370.314	424.56
370.766	417.5
371.217	426.82
371.669	422.02
372.12	420.32
372.571	396.6
373.022	441.49
373.473	416.65
373.924	418.35
374.375	422.02
374.826	401.97
375.277	416.65
375.728	404.51
376.179	420.32
376.63	408.18
377.08	406.21
377.531	433.03
377.981	458.99
378.432	409.31
378.883	433.87
379.333	419.76
379.783	413.26
380.234	420.04
380.684	418.35
381.134	438.67
381.584	425.12
382.034	460.97
382.485	469.15
382.935	416.09
383.385	422.86
383.834	422.3
384.284	451.65
384.734	435.57
385.184	425.4
385.634	426.53
386.083	444.88
386.533	438.95
386.982	434.44
387.432	411.01
387.881	424.84
388.331	427.38
388.78	426.82
389.229	438.67
389.679	442.9
390.128	409.88
390.577	436.41
391.026	419.19
391.475	413.55
391.924	405.36
392.373	408.46
392.822	434.44
393.27	424.56
393.719	471.69
394.168	435.57
394.617	426.25
395.065	444.88
395.514	409.31
395.962	438.67
396.411	432.74
396.859	424.27
397.307	441.21
397.756	432.74
398.204	450.52
398.652	447.42
399.1	453.35
399.548	464.07
399.996	467.74
400.444	474.51
400.892	456.45
401.34	426.82
401.788	447.98
402.236	476.2
402.683	446.29
403.131	458.71
403.579	462.09
404.026	460.4
404.474	469.43
404.921	445.44
405.369	460.68
405.816	486.92
406.263	458.43
406.71	467.45
407.158	458.99
407.605	492.56
408.052	497.92
408.499	488.61
408.946	488.33
409.393	503.84
409.84	518.5
410.286	519.35
410.733	540.21
411.18	544.72
411.626	582.2
412.073	606.98
412.52	667.51
412.966	798.24
413.413	902.1
413.859	1064.63
414.305	1316.14
414.752	1555.43
415.198	1843.06
415.644	2269.53
416.09	2760.39
416.536	3293.05
416.982	3928.25
417.428	4680.64
417.874	5386.53
418.32	6210.91
418.766	7099.41
419.211	8147.82
419.657	9034.11
420.103	10213.03
420.548	11096.31
420.994	12374.21
421.439	13405.29
421.885	14487.98
422.33	15897.89
422.776	16847.92
423.221	17949.42
423.666	19115.79
424.111	20443.7
424.556	21397.91
425.001	22702.66
425.446	24097.49
425.891	25379.22
426.336	26080.35
426.781	27451.17
427.226	29461.03
427.671	29971.94
428.115	30964.39
428.56	32508.3
429.005	34068.67
429.449	34639.08
429.894	35936.68
430.338	36997.33
430.782	37096.47
431.227	38679.89
431.671	39044.78
432.115	40557.93
432.559	41483.55
433.003	41363.73
433.447	42153.39
433.891	42696.3
434.335	43047.53
434.779	43776.32
435.223	44081.44
435.667	44109.47
436.111	44476.27
436.554	44379.74
436.998	44092.45
437.442	44220.89
437.885	46068.47
438.328	44758.6
438.772	44828.93
439.215	45424.37
439.659	45178.5
440.102	45276.7
440.545	44790.5
440.988	44645.36
441.431	45526.5
441.874	44879.94
442.317	45256.81
442.76	44838.48
443.203	44218.14
443.646	44819.89
444.089	44440.66
444.531	45018.97
444.974	43904.32
445.417	44938.01
445.859	43837.31
446.302	45130.68
446.744	44374.48
447.186	45445.54
447.629	44556.53
448.071	44515.14
448.513	44560.55
448.956	46054.55
449.398	45269.4
449.84	44000.36
450.282	44701.35
450.724	45180.51
451.166	44838.98
451.607	44637.33
452.049	44844.26
452.491	45933.88
452.933	45566.86
453.374	46036.08
453.816	46641.6
454.257	46108.98
454.699	47109.94
455.14	46770.23
455.582	46505.97
456.023	46536.44
456.464	46640.07
456.905	47422.42
457.347	47193.6
457.788	46337.51
458.229	46396.86
458.67	47549.02
459.111	45516.15
459.552	45656.71
459.992	45370.93
460.433	45331.12
460.874	44302.56
461.315	45598.4
461.755	44559.79
462.196	44132
462.636	43332.93
463.077	43089.88
463.517	43163.89
463.957	43412
464.398	42967.58
464.838	43043.29
465.278	42104.5
465.718	42232.58
466.158	41248.17
466.598	41698.31
467.038	41194.73
467.478	41629.92
467.918	41797.94
468.358	41067.37
468.798	40745.85
469.237	40625.58
469.677	40560.9
470.117	41315.47
470.556	39117.79
470.996	39669.67
471.435	39817.92
471.874	40356.06
472.314	40128.18
472.753	39255.26
473.192	39392.03
473.631	39046.5
474.07	39137.95
474.509	39271.49
474.948	39633.97
475.387	38860.94
475.826	37881.16
476.265	39563.81
476.704	39113.61
477.143	39454.53
477.581	39190.82
478.02	39643.81
478.458	38459.64
478.897	39115.33
479.335	40205.85
479.774	39584.48
480.212	39859.31
480.65	39781.72
481.089	39592.85
481.527	38948.42
481.965	38519.3
482.403	40437.24
482.841	40167.63
483.279	40292.67
483.717	40279.59
484.155	39762.26
484.592	40245.31
485.03	40355.57
485.468	39406.79
485.905	39651.2
486.343	39930.76
486.781	39453.05
487.218	38817.21
487.655	38724.59
488.093	37957.66
488.53	39376.04
488.967	38533.54
489.405	38283.42
489.842	37670.11
490.279	37646.59
490.716	37240.68
491.153	37687.02
491.59	37152.05
492.027	36382.31
492.463	35869.73
492.9	35412.44
493.337	35138.96
493.773	35216.6
494.21	34521.71
494.647	34295.29
495.083	33614.29
495.519	33264.86
495.956	33238.04
496.392	32501.48
496.828	32364.22
497.265	31589.39
497.701	31919.76
498.137	31529.41
498.573	30772.68
499.009	31225.82
499.445	30384.32
499.881	29869.44
500.316	30190.59
500.752	29278.87
501.188	29140.15
501.624	29072.49
502.059	27856.89
502.495	27660.67
502.93	27571.59
503.366	27854.69
503.801	27224.95
504.236	26902.14
504.672	26539.93
505.107	26351.14
505.542	25737.76
505.977	25627.03
506.412	25231.07
506.847	25522.91
507.282	25021.67
507.717	24780.7
508.152	24728.8
508.587	24407.71
509.021	23796.68
509.456	23468.55
509.891	23558.8
510.325	23559.54
510.76	23075.03
511.194	22921.23
511.628	22961.72
512.063	22246.66
512.497	22422.44
512.931	21822.86
513.366	21695.37
513.8	21780.53
514.234	21159.49
514.668	21075.94
515.102	21246.99
515.536	20456.36
515.969	20700.63
516.403	20322.25
516.837	19872.17
517.271	19840.84
517.704	19660
518.138	19385
518.571	19263.24
519.005	18866.59
519.438	18869.33
519.871	18717.24
520.305	18317.79
520.738	18170.74
521.171	17638.22
521.604	17745.73
522.037	17554.69
522.47	17374.55
522.903	16999.25
523.336	16905.81
523.769	16794.79
524.202	16262.55
524.634	16316.26
525.067	16140.54
525.5	15949.4
525.932	15811.19
526.365	15398.74
526.797	15280.95
527.23	15412.58
527.662	14819.68
528.094	14610.61
528.527	14603.8
528.959	14358.99
529.391	14161.22
529.823	13646.61
530.255	13809.06
530.687	13391.11
531.119	13209.9
531.551	13219.28
531.982	12832.9
532.414	12689.92
532.846	12484.83
533.277	12259.73
533.709	11971.22
534.14	11927.14
534.572	11748.42
535.003	11556.8
535.435	11419.93
535.866	11254.35
536.297	10958.89
536.728	10993.45
537.159	10882.33
537.59	10619.15
538.022	10517.06
538.452	10317.85
538.883	10070.6
539.314	10061.35
539.745	9884.3
540.176	9685.43
540.606	9426.96
541.037	9448.91
541.468	9311.53
541.898	9164.73
542.328	9075.25
542.759	8916.84
543.189	8902.33
543.619	8744.79
544.05	8518.03
544.48	8468.17
544.91	8362.93
545.34	8164.48
545.77	8056.68
546.2	7953.23
546.63	7822.83
547.06	7852.57
547.489	7665.4
547.919	7428.52
548.349	7508.31
548.778	7405.75
549.208	7324.06
549.637	7147.41
550.067	7055.58
550.496	7091.54
550.926	6933.48
551.355	6803.62
551.784	6740.75
552.213	6658.09
552.642	6561.68
553.071	6569.06
553.5	6433.53
553.929	6225.44
554.358	6281.73
554.787	6147.71
555.216	6188.43
555.645	5984.67
556.073	5935.13
556.502	5874.69
556.93	5694.25
557.359	5699.56
557.787	5670.08
558.216	5550.74
558.644	5548.08
559.072	5474.92
559.5	5358.82
559.929	5350.56
560.357	5318.05
560.785	5265.26
561.213	5213.52
561.641	5106.74
562.068	5106.74
562.496	5051.98
562.924	5019.37
563.352	5004.4
563.779	4958.67
564.207	4979.26
564.634	4860.46
565.062	4878.93
565.489	4831.27
565.917	4783.59
566.344	4731.06
566.771	4670.72
567.198	4651.13
567.625	4555.3
568.053	4533.28
568.48	4537.04
568.907	4455.07
569.333	4395.1
569.76	4193.92
570.187	4313.55
570.614	4139.17
571.04	4333.74
571.467	4057.67
571.894	3994.74
572.32	3897.42
572.747	3870.37
573.173	3770.76
573.599	3739.6
574.026	3623.56
574.452	3614.34
574.878	3569.56
575.304	3508.19
575.73	3467.7
576.156	3358.11
576.582	3398.1
577.008	3274.81
577.434	3278.89
577.86	3143.42
578.285	3195.24
578.711	3134.42
579.137	3085.03
579.562	2943.78
579.988	2979.87
580.413	2917.8
580.838	2890.45
581.264	2854.33
581.689	2769.43
582.114	2754.63
582.539	2753.26
582.964	2695.42
583.39	2637.26
583.814	2562.58
584.239	2502.68
584.664	2543.36
585.089	2456.22
585.514	2468.32
585.939	2416.88
586.363	2391.01
586.788	2328.23
587.212	2335.94
587.637	2280.56
588.061	2267.33
588.485	2217.14
588.91	2200.31
589.334	2167.48
589.758	2168.03
590.182	2103.69
590.606	2105.35
591.03	2077.45
591.454	2016.64
591.878	2004.19
592.302	1976.25
592.726	1957.99
593.15	1949.41
593.573	1917.02
593.997	1875.48
594.42	1841.4
594.844	1828.65
595.267	1805.09
595.691	1813.68
596.114	1774.86
596.537	1747.4
596.96	1784.29
597.384	1739.91
597.807	1734.36
598.23	1708.82
598.653	1674.67
599.076	1696.88
599.499	1630.78
599.921	1616.05
600.344	1665.22
600.767	1596.59
601.189	1611.88
601.612	1575.18
602.034	1602.43
602.457	1550.71
602.879	1564.06
603.302	1572.4
603.724	1532.35
604.146	1509.81
604.568	1502.85
604.991	1506.74
605.413	1505.07
605.835	1512.87
606.257	1473.34
606.678	1457.19
607.1	1510.36
607.522	1457.74
607.944	1437.97
608.365	1420.14
608.787	1455.24
609.209	1413.45
609.63	1390.88
610.051	1382.24
610.473	1358.82
610.894	1366.9
611.315	1362.72
611.737	1330.09
612.158	1340.69
612.579	1313.35
613	1277.07
613.421	1265.62
613.842	1273.72
614.263	1231.84
614.683	1232.67
615.104	1196.63
615.525	1187.13
615.945	1188.25
616.366	1172.32
616.787	1173.72
617.207	1148.84
617.627	1127.86
618.048	1114.72
618.468	1112.76
618.888	1104.09
619.308	1083.66
619.728	1065.19
620.148	1089.82
620.568	1049.51
620.988	1036.35
621.408	1037.19
621.828	1025.71
622.248	1021.51
622.668	994.9
623.087	1001.9
623.507	969.4
623.926	968.27
624.346	937.44
624.765	953.7
625.185	945.01
625.604	930.99
626.023	928.47
626.442	909.68
626.861	908.55
627.28	905.19
627.699	909.68
628.118	891.72
628.537	884.99
628.956	859.45
629.375	876.01
629.794	861.13
630.212	862.54
630.631	852.15
631.049	827.17
631.468	828.29
631.886	827.17
632.305	818.74
632.723	783.07
633.141	801.33
633.559	792.06
633.978	791.5
634.396	786.72
634.814	773.23
635.232	785.32
635.65	796.55
636.067	774.64
636.485	797.4
636.903	749.35
637.321	765.09
637.738	750.47
638.156	731.64
638.573	700.42
638.991	728.82
639.408	738.95
639.825	740.63
640.243	732.76
640.66	705.48
641.077	710.83
641.494	696.48
641.911	687.76
642.328	703.8
642.745	649.5
643.162	680.17
643.579	661.6
643.995	661.88
644.412	659.35
644.829	648.37
645.245	664.13
645.662	655.69
646.078	654.84
646.495	626.69
646.911	624.72
647.327	628.1
647.743	634.01
648.159	628.67
648.576	657.09
648.992	641.61
649.408	635.7
649.824	624.16
650.239	606.42
650.655	618.53
651.071	594.31
651.487	595.44
651.902	625.85
652.318	629.23
652.733	599.1
653.149	600.22
653.564	612.62
653.979	582.48
654.395	610.36
654.81	607.27
655.225	584.73
655.64	577.97
656.055	618.81
656.47	601.07
656.885	588.4
657.3	590.09
657.715	561.63
658.13	558.25
658.544	552.05
658.959	565.58
659.374	563.32
659.788	522.73
660.202	565.29
660.617	570.08
661.031	545.57
661.445	564.73
661.86	546.41
662.274	550.36
662.688	552.61
663.102	523.86
663.516	563.6
663.93	568.96
664.344	535.42
664.758	544.16
665.171	553.74
665.585	545.57
665.999	524.99
666.412	515.69
666.826	519.07
667.239	550.92
667.653	521.61
668.066	534.29
668.479	513.99
668.892	554.02
669.306	525.55
669.719	527.53
670.132	481
670.545	515.12
670.958	530.91
671.37	515.4
671.783	503
672.196	519.63
672.609	523.3
673.021	531.47
673.434	534.57
673.846	497.92
674.259	498.2
674.671	526.4
675.084	499.33
675.496	506.94
675.908	486.36
676.32	485.23
676.732	521.61
677.144	498.2
677.556	495.1
677.968	494.54
678.38	502.43
678.792	477.89
679.204	492.28
679.615	503
680.027	460.97
680.439	485.79
680.85	475.92
681.262	489.74
681.673	476.2
682.084	486.07
682.496	490.02
682.907	468.87
683.318	490.87
683.729	484.38
684.14	464.07
684.551	479.3
684.962	461.53
685.373	477.33
685.784	475.07
686.194	442.34
686.605	461.25
687.016	454.76
687.426	475.35
687.837	475.92
688.247	477.89
688.657	460.97
689.068	455.32
689.478	451.65
689.888	450.81
690.298	469.43
690.708	452.5
691.118	476.2
691.528	435.85
691.938	511.74
692.348	459.55
692.758	461.53
693.168	494.54
693.577	474.23
693.987	447.14
694.396	468.58
694.806	453.35
695.215	474.51
695.625	456.73
696.034	440.08
696.443	453.35
696.852	450.81
697.262	440.08
697.671	438.67
698.08	460.12
698.489	435.85
698.897	444.03
699.306	457.01
699.715	438.67
700.124	429.92
700.532	448.83
700.941	458.71
701.35	447.7
701.758	457.86
702.166	449.4
702.575	471.69
702.983	451.65
703.391	422.02
703.799	425.4
704.208	439.24
704.616	431.61
705.024	446.01
705.432	444.88
705.839	414.96
706.247	431.05
706.655	427.1
707.063	429.07
707.47	450.52
707.878	461.81
708.285	438.67
708.693	459.84
709.1	421.45
709.508	434.15
709.915	433.59
710.322	425.69
710.729	458.71
711.136	419.48
711.543	409.88
711.95	442.9
712.357	427.38
712.764	414.11
713.171	412.98
713.578	437.82
713.984	397.45
714.391	425.4
714.797	431.33
715.204	435.28
715.61	424.56
716.017	430.49
716.423	401.4
716.829	405.92
717.236	445.73
717.642	431.33
718.048	421.73
718.454	423.15
718.86	408.18
719.266	424.56
719.671	433.59
720.077	411.85
720.483	414.68
720.889	423.15
721.294	399.99
721.7	425.69
722.105	396.04
722.511	413.83
722.916	407.05
723.321	415.81
723.726	449.96
724.132	414.68
724.537	416.65
724.942	409.88
725.347	414.68
725.752	438.39
726.156	423.15
726.561	407.33
726.966	411.29
727.371	423.15
727.775	419.19
728.18	394.34
728.584	416.65
728.989	404.23
729.393	415.52
729.798	433.03
730.202	400.56
730.606	392.37
731.01	429.36
731.414	405.92
731.818	407.33
732.222	419.19
732.626	402.82
733.03	411.57
733.434	399.15
733.837	416.37
734.241	431.61
734.645	419.48
735.048	406.49
735.452	403.95
735.855	420.89
736.258	415.81
736.662	429.36
737.065	405.08
737.468	403.66
737.871	403.66
738.274	408.75
738.677	409.59
739.08	404.79
739.483	422.58
739.886	378.25
740.289	401.97
740.691	412.7
741.094	419.76
741.497	411.57
741.899	401.97
742.302	411.01
742.704	410.16
743.106	422.86
743.508	422.58
743.911	400.84
744.313	410.16
744.715	436.41
745.117	424.56
745.519	433.87
745.921	414.11
746.323	407.05
746.724	401.97
747.126	411.01
747.528	408.18
747.929	403.38
748.331	421.73
748.732	411.01
749.134	402.82
749.535	421.17
749.936	401.4
750.338	394.91
750.739	419.19
751.14	391.8
751.541	387.85
751.942	393.78
752.343	396.89
752.744	402.53
753.144	400.28
753.545	409.88
753.946	389.83
754.346	387
754.747	418.91
755.148	427.1
755.548	383.89
755.948	409.31
756.349	431.61
756.749	401.4
757.149	401.69
757.549	412.42
757.949	387
758.349	405.08
758.749	425.97
759.149	395.47
759.549	398.58
759.949	404.51
760.348	405.92
760.748	419.76
761.148	390.96
761.547	388.13
761.947	395.76
762.346	386.44
762.745	417.78
763.145	390.67
763.544	416.37
763.943	404.51
764.342	398.02
764.741	393.78
765.14	405.08
765.539	388.7
765.938	396.89
766.336	379.09
766.735	426.82
767.134	394.91
767.532	419.76
767.931	406.77
768.329	387.85
768.728	415.81
769.126	399.71
769.525	400.84
769.923	406.21
770.321	385.02
770.719	395.19
771.117	377.4
771.515	401.97
771.913	406.77
772.311	410.16
772.709	396.32
773.106	411.85
773.504	421.45
773.902	411.29
774.299	403.66
774.697	419.48
775.094	410.16
775.491	387.28
775.889	400.84
776.286	377.96
776.683	400.84
777.08	418.35
777.477	396.04
777.874	393.5
778.271	436.13
778.668	387
779.065	387
779.462	381.92
779.858	403.95
780.255	404.51
780.652	392.37
781.048	383.61
781.444	399.99
781.841	376.27
782.237	397.73
782.633	396.89
783.03	388.98
783.426	415.52
783.822	378.53
784.218	407.33
784.614	386.44
785.01	410.72
785.405	375.14
785.801	389.26
786.197	394.91
786.593	399.43
786.988	401.97
787.384	407.9
787.779	411.01
788.174	379.09
788.57	383.61
788.965	393.78
789.36	419.48
789.755	384.74
790.15	407.33
790.545	426.82
790.94	381.35
791.335	391.24
791.73	401.97
792.125	390.67
792.52	422.3
792.914	394.06
793.309	401.4
793.703	376.27
794.098	396.04
794.492	390.39
794.887	407.9
795.281	423.15
795.675	396.89
796.069	399.99
796.463	423.99
796.857	388.41
797.251	419.19
797.645	394.63
798.039	388.98
798.433	414.68
798.826	400.56
799.22	401.12
799.614	420.89
800.007	398.58
800.401	393.78
800.794	389.54
801.187	401.69
801.581	393.78
801.974	386.44
802.367	409.31
802.76	400.84
803.153	422.3
803.546	422.02
803.939	401.12
804.332	413.83
804.725	392.65
805.117	386.15
805.51	411.85
805.903	382.48
806.295	380.79
806.688	403.38
807.08	381.92
807.472	387.85
807.865	398.58
808.257	397.17
808.649	418.91
809.041	411.85
809.433	407.05
809.825	390.11
810.217	409.03
810.609	416.65
811.001	396.89
811.392	419.48
811.784	427.38
812.175	409.88
812.567	399.15
812.958	393.21
813.35	389.83
813.741	392.37
814.132	400.84
814.524	393.78
814.915	398.02
815.306	394.91
815.697	422.58
816.088	397.45
816.479	408.18
816.87	393.78
817.26	391.52
817.651	392.37
818.042	401.4
818.432	362.71
818.823	393.78
819.213	390.39
819.604	383.05
819.994	394.06
820.384	382.48
820.775	389.26
821.165	365.53
821.555	385.02
821.945	387.85
822.335	396.04
822.725	379.94
823.114	415.81
823.504	381.92
823.894	403.1
824.284	412.98
824.673	392.09
825.063	368.64
825.452	405.08
825.842	412.13
826.231	409.03
826.62	400.28
827.009	383.61
827.399	397.45
827.788	393.5
828.177	371.75
828.566	382.2
828.954	390.39
829.343	415.24
829.732	392.93
830.121	379.37
830.509	374.29
830.898	415.81
831.286	409.03
831.675	409.88
832.063	372.31
832.452	410.72
832.84	397.73
833.228	372.31
833.616	390.96
834.004	385.31
834.392	382.76
834.78	403.1
835.168	411.01
835.556	374.86
835.944	404.79
836.331	409.59
836.719	375.14
837.107	377.4
837.494	384.46
837.881	400.56
838.269	403.95
838.656	428.51
839.043	371.47
839.431	405.92
839.818	397.45
840.205	401.12
840.592	396.04
840.979	396.6
841.366	395.19
841.752	380.79
842.139	379.09
842.526	380.79
842.912	398.02
843.299	376.55
843.685	380.5
844.072	399.99
844.458	375.14
844.844	376.55
845.231	392.93
845.617	425.69
846.003	383.89
846.389	395.47
846.775	395.47
847.161	396.6
847.547	414.39
847.933	373.16
848.318	389.26
848.704	384.46
849.09	409.88
849.475	386.15
849.861	400.84
850.246	394.91
850.631	385.31
851.017	406.49
851.402	388.98
851.787	385.59
852.172	409.88
852.557	382.76
852.942	415.52
853.327	393.78
853.712	366.95
854.097	397.45
854.481	390.39
854.866	382.76
855.25	371.47
855.635	397.45
856.019	403.1
856.404	388.98
856.788	391.52
857.172	371.75
857.557	374.01
857.941	385.59
858.325	375.7
858.709	386.15
859.093	369.77
859.477	393.21
859.86	373.16
860.244	392.37
860.628	397.73
861.012	380.79
861.395	392.09
861.779	385.02
862.162	376.83
862.545	390.96
862.929	392.65
863.312	385.31
863.695	382.48
864.078	385.02
864.461	374.57
864.844	368.36
865.227	392.93
865.61	394.06
865.993	377.68
866.376	386.15
866.758	390.96
867.141	400.28
867.523	391.52
867.906	402.25
868.288	403.95
868.671	376.27
869.053	382.48
869.435	353.38
869.817	376.55
870.199	386.15
870.581	377.96
870.963	419.76
871.345	398.58
871.727	388.7
872.109	388.13
872.491	384.46
872.872	372.31
873.254	382.48
873.635	386.44
874.017	400.28
874.398	410.44
874.779	373.44
875.161	370.34
875.542	375.7
875.923	383.89
876.304	379.09
876.685	371.47
877.066	383.61
877.447	374.01
877.828	376.55
878.208	406.49
878.589	394.63
878.97	391.24
879.35	391.8
879.731	390.39
880.111	403.38
880.491	372.88
880.872	368.92
881.252	385.87
881.632	394.34
882.012	388.41
882.392	396.89
882.772	377.12
883.152	392.65
883.532	388.13
883.912	368.64
884.291	382.2
884.671	413.26
885.051	414.96
885.43	375.42
885.81	375.7
886.189	389.26
886.568	390.67
886.948	379.94
887.327	372.31
887.706	389.83
888.085	401.97
888.464	384.46
888.843	395.76
889.222	392.09
889.601	368.36
889.979	364.4
890.358	381.07
890.737	384.46
891.115	377.12
891.494	387.85
891.872	392.37
892.25	373.44
892.629	374.86
893.007	371.47
893.385	389.26
893.763	406.77
894.141	395.19
894.519	388.41
894.897	399.99
895.275	420.04
895.653	387.57
896.03	373.73
896.408	356.49
896.786	380.5
897.163	390.11
897.541	411.01
897.918	425.12
898.295	366.38
898.673	388.41
899.05	368.64
899.427	388.41
899.804	404.51
900.181	376.27
900.558	373.73
900.935	397.17
901.312	371.18
901.688	385.87
902.065	404.79
902.442	401.69
902.818	391.8
903.195	393.21
903.571	380.79
903.947	414.96
904.324	378.25
904.7	385.59
905.076	391.8
905.452	375.14
905.828	390.11
906.204	379.09
906.58	390.39
906.956	358.19
907.331	390.96
907.707	387
908.083	372.6
908.458	399.15
908.834	366.1
909.209	374.01
909.585	388.13
909.96	377.12
910.335	358.47
910.71	402.25
911.086	395.76
911.461	377.12
911.836	374.57
912.21	411.85
912.585	405.92
912.96	382.76
913.335	368.92
913.709	354.51
914.084	383.61
914.459	385.59
914.833	389.26
915.207	386.15
915.582	407.9
915.956	383.61
916.33	382.2
916.704	405.92
917.078	387.57
917.452	372.03
917.826	378.25
918.2	366.38
918.574	375.42
918.948	387.57
919.321	372.88
919.695	389.26
920.068	355.93
920.442	369.77
920.815	363.27
921.189	381.63
921.562	381.35
921.935	412.98
922.308	356.77
922.681	356.21
923.054	387.85
923.427	384.46
923.8	372.03
924.173	403.38
924.546	399.99
924.919	365.25
925.291	361.58
925.664	372.88
926.036	380.22
926.409	373.73
926.781	412.42
927.153	387.85
927.526	385.02
927.898	385.59
928.27	383.05
928.642	378.81
929.014	385.31
929.386	375.99
929.758	351.69
930.129	385.31
930.501	389.26
930.873	378.25
931.244	368.64
931.616	410.16
931.987	418.63
932.359	387.85
932.73	377.68
933.101	377.96
933.472	366.66
933.843	364.4
934.214	363.55
934.585	381.07
934.956	385.87
935.327	374.86
935.698	388.13
936.069	395.76
936.439	379.94
936.81	392.65
937.18	392.93
937.551	387.85
937.921	388.7
938.292	367.79
938.662	382.76
939.032	392.09
939.402	370.34
939.772	388.7
940.142	375.99
940.512	399.43
940.882	390.67
941.252	374.57
941.621	377.68
941.991	400.28
942.361	408.18
942.73	382.2
943.1	379.09
943.469	375.7
943.838	363.55
944.208	366.38
944.577	367.23
944.946	381.92
945.315	402.82
945.684	376.27
946.053	379.66
946.422	396.32
946.791	373.44
947.159	381.35
947.528	403.66
947.897	395.19
948.265	390.67
948.634	387.28
949.002	355.08
949.371	356.77
949.739	380.5
950.107	364.4
950.475	366.95
950.843	413.55
951.211	373.73
951.579	368.64
951.947	385.87
952.315	404.79
952.683	383.61
953.05	377.12
953.418	375.99
953.785	385.31
954.153	370.05
954.52	360.16
954.888	366.66
955.255	401.12
955.622	396.6
955.989	368.08
956.356	374.29
956.723	386.44
957.09	363.27
957.457	368.36
957.824	385.87
958.191	381.63
958.557	377.4
958.924	381.63
959.291	394.63
959.657	375.14
960.023	355.36
960.39	377.96
960.756	384.46
961.122	355.08
961.488	364.4
961.855	385.87
962.221	404.79
962.586	381.92
962.952	385.87
963.318	354.8
963.684	394.63
964.05	365.81
964.415	373.73
964.781	399.43
965.146	399.71
965.512	369.21
965.877	377.4
966.242	404.79
966.608	375.14
966.973	379.94
967.338	359.88
967.703	362.71
968.068	383.89
968.433	389.54
968.797	361.86
969.162	362.99
969.527	373.44
969.891	379.94
970.256	390.39
970.62	373.44
970.985	363.84
971.349	392.93
971.714	408.18
972.078	397.45
972.442	358.47
972.806	396.89
973.17	392.65
973.534	362.71
973.898	374.01
974.262	390.39
974.625	379.94
974.989	370.9
975.353	379.37
975.716	369.49
976.08	386.44
976.443	359.03
976.806	375.99
977.17	380.79
977.533	391.8
977.896	355.93
978.259	352.25
978.622	417.5
978.985	369.77
979.348	404.79
979.711	368.64
980.073	387.28
980.436	372.31
980.799	391.52
981.161	367.51
981.524	399.15
981.886	363.55
982.248	392.09
982.611	396.89
982.973	383.89
983.335	375.99
983.697	386.72
984.059	398.58
984.421	377.96
984.783	375.42
985.145	369.49
985.506	358.75
985.868	382.76
986.23	371.47
986.591	349.99
986.953	374.86
987.314	391.52
987.675	377.68
988.037	525.27
988.398	364.68
988.759	372.6
989.12	372.31
989.481	408.75
989.842	372.6
990.203	366.95
990.564	371.75
990.924	396.04
991.285	521.61
991.646	373.44
992.006	396.04
992.367	400.84
992.727	358.75
993.087	360.73
993.448	376.83
993.808	374.57
994.168	370.34
994.528	336.99
994.888	380.22
995.248	359.6
995.608	402.25
995.967	369.77
996.327	357.34
996.687	388.13
997.046	399.43
997.406	372.88
997.765	389.83
998.125	392.37
998.484	375.99
998.843	388.98
999.202	381.92
999.561	358.75
999.92	361.01
1000.279	385.31
1000.638	375.7
1000.997	375.42
1001.356	379.37
1001.715	395.47
1002.073	368.36
1002.432	379.37
1002.79	367.23
1003.149	350.84
1003.507	361.86
1003.865	363.55
1004.224	366.1
1004.582	389.83
1004.94	371.47
1005.298	381.07
1005.656	411.29
1006.014	372.6
1006.371	375.99
1006.729	392.37
1007.087	366.38
1007.445	374.29
1007.802	368.08
1008.16	378.53
1008.517	367.23
1008.874	349.99
1009.232	372.03
1009.589	365.53
1009.946	388.41
1010.303	383.61
1010.66	389.26
1011.017	368.36
1011.374	377.4
1011.731	379.94
1012.087	379.09
1012.444	386.15
1012.801	375.7
1013.157	366.38
1013.513	366.66
1013.87	377.4
1014.226	367.79
1014.582	386.15
1014.939	380.22
1015.295	384.18
1015.651	392.65
1016.007	383.33
1016.363	397.45
1016.719	382.48
1017.074	380.5
1017.43	366.1
1017.786	366.1
1018.141	407.05
1018.497	414.11
1018.852	382.76
1019.208	372.88
1019.563	368.64
1019.918	381.92
1020.273	406.49
1020.628	365.81
1020.983	369.77
1021.338	356.21
1021.693	392.09
1022.048	357.34
1022.403	363.55
1022.757	366.66
1023.112	372.88
1023.467	372.6
1023.821	405.92
1024.175	376.55
1024.53	372.31
1024.884	368.36
1025.238	342.08
1025.592	405.08
1025.946	374.01
1026.3	370.62
1026.654	396.32
1027.008	398.58
1027.362	381.07
1027.716	359.6
1028.069	372.03
1028.423	362.14
1028.777	364.12
1029.13	357.06
1029.483	367.51
1029.837	392.65
1030.19	383.05
1030.543	370.62
1030.896	351.69
1031.249	387
1031.602	389.54
1031.955	377.68
1032.308	378.81
1032.661	388.41
1033.013	353.67
1033.366	358.75
1033.719	346.88
1034.071	388.41
1034.424	368.08
1034.776	381.07
1035.128	386.15
1035.48	376.27
1035.833	402.25
1036.185	398.58
1036.537	398.58
1036.889	398.58
