Data from SCSF78-405_irradiation_FLMS019251_08-57-27-973.txt Node
Date: Fri Feb 22 08:57:27 PST 2019
User: mu3e
Spectrometer: FLMS01925
Trigger mode: 0
Integration Time (sec): 1.206000E-2
Scans to average: 10
Electric dark correction enabled: true
Nonlinearity correction enabled: true
Boxcar width: 0
XAxis mode: Wavelengths
Number of Pixels in Spectrum: 2048
>>>>>Begin Spectral Data<<<<<
187.103	-89.86
187.574	-89.86
188.045	-89.86
188.516	-116.87
188.987	-153.85
189.458	-135.07
189.929	-131.09
190.4	-114.88
190.871	-104.93
191.342	-75.08
191.813	-91
192.284	-40.42
192.754	5.59
193.225	-21.39
193.696	42.2
194.166	33.97
194.637	97.8
195.107	111.69
195.578	128.13
196.048	130.4
196.518	162.99
196.989	183.38
197.459	210
197.929	225
198.399	271.69
198.869	283.57
199.339	301.39
199.809	328.81
200.279	332.49
200.749	335.6
201.219	374.87
201.689	362.72
202.159	361.88
202.628	370.07
203.098	400.29
203.568	388.15
204.037	375.72
204.507	399.16
204.976	406.51
205.445	409.05
205.915	389
206.384	428.81
206.853	405.66
207.323	375.16
207.792	419.21
208.261	414.69
208.73	418.36
209.199	350.57
209.668	386.17
210.137	421.19
210.606	401.7
211.075	373.46
211.543	408.48
212.012	385.89
212.481	363.29
212.95	378.55
213.418	372.9
213.887	358.77
214.355	371.48
214.824	382.22
215.292	355.38
215.76	383.91
216.229	370.92
216.697	368.94
217.165	373.18
217.633	380.24
218.101	347.18
218.569	369.22
219.037	342.38
219.505	361.59
219.973	350.29
220.441	338.14
220.909	354.81
221.377	348.03
221.844	375.16
222.312	371.48
222.78	348.31
223.247	364.7
223.715	365.27
224.182	348.88
224.65	354.81
225.117	332.2
225.584	377.7
226.052	361.31
226.519	353.4
226.986	352.84
227.453	385.04
227.92	383.06
228.387	393.23
228.854	377.7
229.321	364.14
229.788	375.72
230.255	354.25
230.722	390.41
231.189	381.09
231.655	385.61
232.122	355.38
232.589	375.16
233.055	366.68
233.522	374.03
233.988	382.22
234.454	387.3
234.921	396.62
235.387	376.85
235.853	371.48
236.32	376.29
236.786	399.45
237.252	371.48
237.718	398.6
238.184	382.5
238.65	390.97
239.116	359.62
239.582	356.51
240.047	379.39
240.513	397.75
240.979	380.24
241.445	379.68
241.91	381.93
242.376	377.13
242.841	389.28
243.307	383.06
243.772	392.39
244.238	389.84
244.703	383.06
245.168	373.74
245.633	407.92
246.099	378.83
246.564	429.09
247.029	409.33
247.494	366.4
247.959	403.4
248.424	368.09
248.889	411.31
249.353	344.92
249.818	375.44
250.283	377.98
250.748	395.49
251.212	391.26
251.677	406.79
252.141	385.04
252.606	370.07
253.07	391.26
253.535	382.78
253.999	394.64
254.463	390.69
254.927	385.04
255.392	381.09
255.856	411.59
256.32	393.8
256.784	393.51
257.248	383.06
257.712	400.86
258.176	392.67
258.64	368.09
259.103	380.24
259.567	400.01
260.031	366.96
260.495	392.39
260.958	383.63
261.422	396.9
261.885	388.43
262.349	372.33
262.812	382.5
263.275	401.14
263.739	380.52
264.202	364.42
264.665	377.7
265.128	389.56
265.591	395.77
266.054	378.83
266.517	372.33
266.98	383.35
267.443	377.98
267.906	374.59
268.369	404.53
268.832	378.55
269.294	401.14
269.757	395.21
270.22	396.34
270.682	385.32
271.145	390.69
271.607	399.73
272.07	403.68
272.532	393.51
272.994	390.97
273.456	431.63
273.919	394.36
274.381	381.65
274.843	413.56
275.305	363.57
275.767	379.68
276.229	414.41
276.691	419.78
277.153	403.12
277.614	407.35
278.076	361.88
278.538	399.45
279	405.94
279.461	412.72
279.923	406.79
280.384	407.35
280.846	391.82
281.307	393.51
281.769	405.38
282.23	396.62
282.691	379.39
283.152	411.31
283.613	399.45
284.075	392.67
284.536	379.11
284.997	403.68
285.458	402.27
285.918	387.58
286.379	410.18
286.84	402.83
287.301	403.4
287.762	400.58
288.222	410.18
288.683	422.6
289.143	406.22
289.604	400.29
290.064	438.69
290.525	398.88
290.985	407.63
291.445	387.02
291.906	397.75
292.366	419.21
292.826	387.87
293.286	396.06
293.746	415.54
294.206	406.79
294.666	396.9
295.126	414.13
295.586	408.2
296.046	423.45
296.506	405.66
296.965	390.69
297.425	399.16
297.884	395.21
298.344	388.43
298.804	409.89
299.263	399.73
299.722	409.61
300.182	394.93
300.641	418.93
301.1	401.42
301.559	397.75
302.019	391.26
302.478	414.69
302.937	407.92
303.396	403.68
303.855	390.97
304.314	401.7
304.772	410.18
305.231	369.51
305.69	387.02
306.149	393.51
306.607	418.36
307.066	413.28
307.524	398.03
307.983	411.31
308.441	427.4
308.9	400.29
309.358	434.74
309.816	390.97
310.275	385.32
310.733	409.89
311.191	404.53
311.649	405.38
312.107	409.33
312.565	392.67
313.023	413.28
313.481	404.25
313.939	392.95
314.397	396.34
314.854	425.42
315.312	405.94
315.77	400.29
316.227	394.93
316.685	408.48
317.142	427.12
317.6	403.68
318.057	410.18
318.514	416.67
318.972	408.2
319.429	412.43
319.886	428.24
320.343	436.15
320.8	414.98
321.257	400.29
321.714	409.61
322.171	443.77
322.628	416.67
323.085	415.54
323.542	434.17
323.998	391.54
324.455	422.32
324.912	432.76
325.368	416.11
325.825	412.72
326.281	416.67
326.738	405.66
327.194	378.55
327.65	372.33
328.107	411.02
328.563	424.29
329.019	444.9
329.475	400.86
329.931	403.96
330.387	428.24
330.843	409.05
331.299	407.35
331.755	432.48
332.211	431.35
332.666	420.62
333.122	411.87
333.578	400.29
334.033	450.82
334.489	439.82
334.944	413
335.4	420.9
335.855	404.25
336.31	414.13
336.766	415.26
337.221	402.83
337.676	435.02
338.131	425.42
338.586	417.23
339.041	419.21
339.496	422.88
339.951	434.17
340.406	411.31
340.861	404.53
341.316	410.46
341.771	447.44
342.225	416.95
342.68	424.86
343.134	411.31
343.589	406.51
344.043	411.31
344.498	428.81
344.952	407.35
345.406	438.12
345.861	400.29
346.315	396.9
346.769	416.67
347.223	405.09
347.677	405.94
348.131	439.82
348.585	411.87
349.039	392.95
349.493	435.02
349.947	439.25
350.401	432.48
350.854	430.5
351.308	410.46
351.762	435.3
352.215	406.51
352.669	421.47
353.122	431.91
353.575	428.24
354.029	401.99
354.482	430.22
354.935	402.83
355.388	410.18
355.842	413
356.295	427.12
356.748	444.9
357.201	415.82
357.654	398.6
358.106	404.81
358.559	401.42
359.012	429.66
359.465	419.78
359.917	415.82
360.37	416.11
360.823	424.01
361.275	401.99
361.728	415.54
362.18	422.03
362.632	420.9
363.085	411.02
363.537	423.16
363.989	380.8
364.441	429.66
364.893	417.23
365.345	442.92
365.797	437.84
366.249	439.25
366.701	440.66
367.153	422.88
367.605	436.15
368.057	442.64
368.508	425.99
368.96	429.09
369.411	444.62
369.863	450.82
370.314	408.76
370.766	431.07
371.217	422.03
371.669	428.53
372.12	437.28
372.571	429.94
373.022	430.78
373.473	432.48
373.924	428.53
374.375	436.99
374.826	430.5
375.277	433.04
375.728	436.15
376.179	431.35
376.63	415.54
377.08	420.9
377.531	437.84
377.981	449.13
378.432	429.94
378.883	459.85
379.333	453.08
379.783	424.57
380.234	437.56
380.684	426.27
381.134	452.24
381.584	453.36
382.034	433.61
382.485	416.11
382.935	438.69
383.385	427.12
383.834	451.95
384.284	424.01
384.734	419.21
385.184	404.25
385.634	451.95
386.083	451.39
386.533	444.33
386.982	456.19
387.432	424.29
387.881	426.55
388.331	442.08
388.78	448.28
389.229	433.04
389.679	430.5
390.128	444.05
390.577	439.54
391.026	430.22
391.475	444.9
391.924	427.4
392.373	441.51
392.822	450.54
393.27	448
393.719	445.74
394.168	447.16
394.617	450.54
395.065	425.99
395.514	432.2
395.962	433.04
396.411	456.75
396.859	457.6
397.307	450.54
397.756	435.02
398.204	473.11
398.652	457.6
399.1	473.4
399.548	444.62
399.996	475.65
400.444	446.87
400.892	451.95
401.34	450.82
401.788	468.88
402.236	441.51
402.683	462.96
403.131	480.73
403.579	470.01
404.026	460.7
404.474	493.14
404.921	470.86
405.369	471.14
405.816	477.63
406.263	496.53
406.71	503.58
407.158	492.3
407.605	501.04
408.052	486.37
408.499	501.6
408.946	503.01
409.393	518.52
409.84	509.78
410.286	544.18
410.733	535.72
411.18	591.51
411.626	601.65
412.073	644.73
412.52	708.31
412.966	794.6
413.413	922.31
413.859	1105.78
414.305	1328.15
414.752	1629.68
415.198	1954.69
415.644	2408.92
416.09	2928.49
416.536	3537.27
416.982	4191.24
417.428	4958.69
417.874	5769.4
418.32	6743.39
418.766	7702.77
419.211	8846.92
419.657	9948.67
420.103	11207.84
420.548	12070.08
420.994	13534.98
421.439	14775.57
421.885	15973.28
422.33	17531.94
422.776	18616.25
423.221	19881.88
423.666	21300.54
424.111	22640.42
424.556	23713.88
425.001	25363.76
425.446	26771.56
425.891	28085.36
426.336	29067.87
426.781	30464.36
427.226	32968.63
427.671	33456.53
428.115	34569.55
428.56	36473.78
429.005	38109.74
429.449	38661.73
429.894	40165.43
430.338	41246.7
430.782	41492.73
431.227	43121.79
431.671	43681.14
432.115	45323.83
432.559	46461.32
433.003	46372.78
433.447	47434.71
433.891	47841.36
434.335	48377.74
434.779	49212.8
435.223	49419.21
435.667	49606.26
436.111	50136.29
436.554	50155.48
436.998	49691.18
437.442	49839.01
437.885	51858.32
438.328	50270.2
438.772	50609.36
439.215	51253.64
439.659	50907.61
440.102	51275.27
440.545	50589.26
440.988	50370.6
441.431	51215.19
441.874	50762.17
442.317	51065.61
442.76	50610.42
443.203	49918.93
443.646	50753.16
444.089	50368.49
444.531	51073.6
444.974	49773.83
445.417	50850.25
445.859	49720.99
446.302	51110.1
446.744	50309.45
447.186	51517.53
447.629	50501.24
448.071	50553.3
448.513	50587.67
448.956	52166.4
449.398	51226.13
449.84	49965.08
450.282	50657.26
450.724	51296.92
451.166	50990.82
451.607	50794.79
452.049	51056.83
452.491	52081.03
452.933	51516.46
453.374	52270.39
453.816	52818.36
454.257	52317.96
454.699	53516.91
455.14	53107.87
455.582	52999.13
456.023	52995.55
456.464	53014.02
456.905	53811.99
457.347	53645.33
457.788	52733.84
458.229	52976.26
458.67	54106.87
459.111	52065.06
459.552	52212.81
459.992	51874.78
460.433	51652.32
460.874	50700.16
461.315	51974.16
461.755	50998.01
462.196	50478.26
462.636	49561.35
463.077	49329.61
463.517	49297.08
463.957	49592.16
464.398	49269.76
464.838	49346.8
465.278	48103.82
465.718	48480.64
466.158	47213.52
466.598	47672.95
467.038	47102.05
467.478	47789.29
467.918	47905.5
468.358	47020.74
468.798	46847.84
469.237	46719.39
469.677	46557.78
470.117	47513.99
470.556	44858.6
470.996	45466.74
471.435	45670.36
471.874	46387.49
472.314	46068.74
472.753	45006.67
473.192	45261.36
473.631	44848.04
474.07	44939.03
474.509	45153.6
474.948	45424.38
475.387	44668.72
475.826	43703.88
476.265	45573.94
476.704	45027.54
477.143	45389.85
477.581	45054.45
478.02	45768.85
478.458	44361.21
478.897	44987.3
479.335	46337.02
479.774	45665.31
480.212	45983.97
480.65	45940.47
481.089	45623.91
481.527	45051.94
481.965	44476.78
482.403	46653.81
482.841	46324.34
483.279	46224.23
483.717	46427.57
484.155	45995.11
484.592	46545.59
485.03	46721.42
485.468	45593.37
485.905	45695.1
486.343	46304.06
486.781	45584.79
487.218	44922.94
487.655	44878.95
488.093	43880.83
488.53	45498.77
488.967	44614.76
489.405	44379.51
489.842	43436.97
490.279	43470.41
490.716	43152.19
491.153	43501.11
491.59	42974.07
492.027	42073.74
492.463	41863.4
492.9	40911.15
493.337	40944.02
493.773	40924.99
494.21	40174.3
494.647	39707.11
495.083	38910.35
495.519	38455.24
495.956	38589.53
496.392	37713.75
496.828	37614.99
497.265	36868.13
497.701	36944.48
498.137	36640.59
498.573	35698.23
499.009	36137.6
499.445	35309.65
499.881	34745.25
500.316	35138.73
500.752	33991.36
501.188	33751.85
501.624	33787.95
502.059	32462.73
502.495	32341.56
502.93	32272.56
503.366	32361.55
503.801	31681.33
504.236	31279.24
504.672	30866.6
505.107	30715.86
505.542	30022.23
505.977	30100.57
506.412	29460.07
506.847	29733.25
507.282	29098.89
507.717	28833.83
508.152	28872.19
508.587	28438.17
509.021	27635.72
509.456	27405.9
509.891	27382.89
510.325	27361.59
510.76	26979.07
511.194	26717.4
511.628	26808.8
512.063	26029.83
512.497	26267.04
512.931	25557.8
513.366	25365.48
513.8	25432.79
514.234	24708.89
514.668	24815.64
515.102	24944.49
515.536	23957.84
515.969	24210.04
516.403	23652.75
516.837	23254.94
517.271	23374.1
517.704	22791.6
518.138	22769.86
518.571	22513.41
519.005	22179.65
519.438	22114.85
519.871	21901.08
520.305	21363.48
520.738	21218.75
521.171	20887.47
521.604	21018.68
522.037	20616.51
522.47	20274.57
522.903	19902.77
523.336	19832.89
523.769	19647.08
524.202	19223.16
524.634	19104.59
525.067	18868.35
525.5	18746.18
525.932	18514.21
526.365	18171.25
526.797	18044.12
527.23	17937.69
527.662	17360.31
528.094	17102.71
528.527	17116.73
528.959	16838.67
529.391	16619.07
529.823	16098.87
530.255	16174.2
530.687	15730.01
531.119	15547.95
531.551	15454.62
531.982	15121.07
532.414	14863.81
532.846	14548.56
533.277	14454.68
533.709	14110.45
534.14	13939.83
534.572	13832.35
535.003	13702.56
535.435	13345.51
535.866	13208.65
536.297	12885.72
536.728	12893.34
537.159	12802.7
537.59	12475.44
538.022	12384.4
538.452	12130.18
538.883	11917.47
539.314	11792.81
539.745	11536.65
540.176	11369.62
540.606	11163.34
541.037	11183.03
541.468	10936.63
541.898	10789.88
542.328	10694.29
542.759	10415.96
543.189	10385.15
543.619	10306.83
544.05	10016.09
544.48	9972.86
544.91	9798.56
545.34	9674.62
545.77	9515.76
546.2	9429.05
546.63	9277.44
547.06	9233.77
547.489	9092.6
547.919	8763.73
548.349	8774.36
548.778	8787.06
549.208	8600.07
549.637	8465.84
550.067	8304.2
550.496	8267.53
550.926	8150.7
551.355	7952.72
551.784	7994.43
552.213	7793.1
552.642	7718.7
553.071	7703.03
553.5	7578.66
553.929	7317.53
554.358	7333.24
554.787	7197.51
555.216	7165
555.645	6989.44
556.073	6927.98
556.502	6873.05
556.93	6750.5
557.359	6639.15
557.787	6672.85
558.216	6584.62
558.644	6512.66
559.072	6364.4
559.5	6298.12
559.929	6355.16
560.357	6299.18
560.785	6177.61
561.213	6184.75
561.641	5972.76
562.068	6054.59
562.496	5945.48
562.924	5885.05
563.352	5837.58
563.779	5829.62
564.207	5847.66
564.634	5757.45
565.062	5712.06
565.489	5589.84
565.917	5591.7
566.344	5543.57
566.771	5469.35
567.198	5542.51
567.625	5384.68
568.053	5327.66
568.48	5283.95
568.907	5258.88
569.333	5109.16
569.76	4999.07
570.187	4991.85
570.614	4886.71
571.04	5038.9
571.467	4777.44
571.894	4700.51
572.32	4583.78
572.747	4543.5
573.173	4459.12
573.599	4425.24
574.026	4277.48
574.452	4268.59
574.878	4248.11
575.304	4116.8
575.73	4025.01
576.156	3995.57
576.582	3969.09
577.008	3835.48
577.434	3771.86
577.86	3675.11
578.285	3723.63
578.711	3656.13
579.137	3566.05
579.562	3520.7
579.988	3527.22
580.413	3392.68
580.838	3367.11
581.264	3337.17
581.689	3248.4
582.114	3238.86
582.539	3216.79
582.964	3130.35
583.39	3084.23
583.814	3027.7
584.239	2952.82
584.664	2953.92
585.089	2903.32
585.514	2818.75
585.939	2803.14
586.363	2783.97
586.788	2755.47
587.212	2743.14
587.637	2679.8
588.061	2566.72
588.485	2603.79
588.91	2587.32
589.334	2542.55
589.758	2530.73
590.182	2480.43
590.606	2436.98
591.03	2397.63
591.454	2362.12
591.878	2354.69
592.302	2340.09
592.726	2265.14
593.15	2258.52
593.573	2195.37
593.997	2193.99
594.42	2129.4
594.844	2163.35
595.267	2118.35
595.691	2091
596.114	2028.82
596.537	2056.46
596.96	2010.29
597.384	2005.31
597.807	1931.16
598.23	1980.14
598.653	1962.16
599.076	1921.19
599.499	1933.65
599.921	1871.34
600.344	1870.24
600.767	1847.52
601.189	1862.76
601.612	1882.15
602.034	1840.31
602.457	1810.1
602.879	1768.5
603.302	1761.01
603.724	1801.5
604.146	1757.13
604.568	1735.48
604.991	1699.68
605.413	1774.6
605.835	1727.71
606.257	1714.39
606.678	1704.67
607.1	1716.33
607.522	1709.12
607.944	1688.85
608.365	1668.3
608.787	1627.18
609.209	1605.5
609.63	1609.95
610.051	1611.34
610.473	1564.63
610.894	1556.84
611.315	1548.78
611.737	1537.09
612.158	1517.06
612.579	1502.03
613	1483.38
613.421	1456.65
613.842	1455.81
614.263	1427.68
614.683	1401.49
615.104	1400.65
615.525	1379.74
615.945	1360.51
616.366	1341.26
616.787	1308.9
617.207	1315.6
617.627	1267.6
618.048	1267.6
618.468	1261.18
618.888	1250.01
619.308	1226.27
619.728	1222.91
620.148	1232.97
620.568	1211.74
620.988	1176.53
621.408	1160.88
621.828	1139.35
622.248	1124.52
622.668	1160.32
623.087	1105.78
623.507	1134.87
623.926	1101.31
624.346	1066.6
624.765	1101.86
625.185	1059.61
625.604	1021.53
626.023	1036.37
626.442	1004.72
626.861	1059.33
627.28	1001.64
627.699	995.75
628.118	987.91
628.537	1022.37
628.956	972.78
629.375	957.08
629.794	963.53
630.212	956.24
630.631	931.57
631.049	902.68
631.468	939.42
631.886	931.01
632.305	907.45
632.723	905.49
633.141	889.21
633.559	891.74
633.978	866.49
634.396	860.59
634.814	864.52
635.232	832.8
635.65	834.48
636.067	851.61
636.485	840.1
636.903	822.69
637.321	838.7
637.738	814.83
638.156	821.57
638.573	799.1
638.991	796.29
639.408	806.12
639.825	781.4
640.243	793.76
640.66	770.44
641.077	773.81
641.494	797.13
641.911	782.52
642.328	748.8
642.745	745.15
643.162	729.69
643.579	751.33
643.995	733.06
644.412	751.89
644.829	707.75
645.245	718.16
645.662	729.4
646.078	715.35
646.495	723.22
646.911	702.41
647.327	675.97
647.743	683.56
648.159	695.66
648.576	675.12
648.992	695.94
649.408	704.94
649.824	676.81
650.239	696.5
650.655	651.77
651.071	664.43
651.487	677.37
651.902	654.3
652.318	657.39
652.733	636.28
653.149	625.02
653.564	657.11
653.979	629.53
654.395	631.22
654.81	638.25
655.225	633.47
655.64	646.7
656.055	647.82
656.47	608.41
656.885	605.88
657.3	601.65
657.715	635.16
658.13	615.73
658.544	623.9
658.959	629.81
659.374	584.19
659.788	630.65
660.202	600.52
660.617	601.65
661.031	583.91
661.445	622.21
661.86	610.66
662.274	552.07
662.688	573.2
663.102	593.76
663.516	557.7
663.93	567.57
664.344	579.12
664.758	578.83
665.171	588.69
665.585	552.91
665.999	570.38
666.412	572.35
666.826	579.96
667.239	563.62
667.653	552.35
668.066	553.48
668.479	552.07
668.892	563.9
669.306	581.93
669.719	559.96
670.132	546.43
670.545	528.67
670.958	525.01
671.37	523.03
671.783	526.13
672.196	532.34
672.609	545.87
673.021	543.05
673.434	550.38
673.846	520.78
674.259	547.84
674.671	549.53
675.084	543.61
675.496	512.6
675.908	539.67
676.32	535.72
676.732	519.09
677.144	535.72
677.556	514.57
677.968	524.16
678.38	537.69
678.792	527.83
679.204	506.4
679.615	503.86
680.027	506.4
680.439	499.91
680.85	497.66
681.262	530.64
681.673	537.69
682.084	510.35
682.496	496.24
682.907	492.58
683.318	464.37
683.729	514.57
684.14	502.17
684.551	488.63
684.962	498.22
685.373	482.71
685.784	485.81
686.194	467.47
686.605	505.55
687.016	483.83
687.426	499.35
687.837	470.58
688.247	483.55
688.657	487.78
689.068	492.86
689.478	471.7
689.888	482.14
690.298	479.32
690.708	474.81
691.118	482.42
691.528	470.29
691.938	487.78
692.348	473.96
692.758	480.73
693.168	482.71
693.577	465.22
693.987	443.2
694.396	445.74
694.806	439.82
695.215	464.93
695.625	450.82
696.034	498.22
696.443	436.15
696.852	477.63
697.262	465.5
697.671	468.88
698.08	458.16
698.489	469.17
698.897	468.6
699.306	440.95
699.715	458.16
700.124	440.1
700.532	476.5
700.941	461.26
701.35	440.95
701.758	455.34
702.166	449.98
702.575	448.57
702.983	449.13
703.391	440.66
703.799	447.72
704.208	464.93
704.616	457.88
705.024	452.52
705.432	429.66
705.839	459.29
706.247	478.76
706.655	453.36
707.063	427.12
707.47	437.84
707.878	441.79
708.285	448
708.693	475.65
709.1	458.73
709.508	444.33
709.915	416.95
710.322	436.71
710.729	426.55
711.136	428.53
711.543	424.86
711.95	434.74
712.357	418.08
712.764	433.33
713.171	425.14
713.578	429.37
713.984	406.79
714.391	433.33
714.797	440.1
715.204	431.07
715.61	443.77
716.017	446.03
716.423	414.13
716.829	416.95
717.236	452.8
717.642	430.22
718.048	440.95
718.454	440.1
718.86	411.02
719.266	424.01
719.671	430.5
720.077	442.92
720.483	430.22
720.889	438.97
721.294	449.7
721.7	420.62
722.105	433.04
722.511	417.8
722.916	400.29
723.321	414.13
723.726	438.12
724.132	446.03
724.537	433.89
724.942	421.47
725.347	394.08
725.752	420.9
726.156	404.81
726.561	400.01
726.966	432.76
727.371	441.79
727.775	431.91
728.18	424.01
728.584	418.93
728.989	437.84
729.393	451.67
729.798	412.15
730.202	424.57
730.606	431.35
731.01	425.42
731.414	438.41
731.818	429.66
732.222	414.13
732.626	424.01
733.03	421.19
733.434	403.12
733.837	401.14
734.241	408.76
734.645	411.02
735.048	409.05
735.452	432.76
735.855	436.99
736.258	442.92
736.662	440.1
737.065	412.43
737.468	414.69
737.871	436.15
738.274	433.61
738.677	454.49
739.08	411.87
739.483	441.51
739.886	414.13
740.289	414.69
740.691	411.59
741.094	416.67
741.497	402.27
741.899	444.9
742.302	398.32
742.704	410.74
743.106	413.85
743.508	426.83
743.911	439.25
744.313	409.61
744.715	424.01
745.117	425.7
745.519	412.15
745.921	435.02
746.323	416.67
746.724	419.49
747.126	401.14
747.528	414.69
747.929	423.45
748.331	420.06
748.732	375.16
749.134	429.66
749.535	405.94
749.936	402.83
750.338	388.43
750.739	416.11
751.14	431.63
751.541	420.62
751.942	414.98
752.343	389.84
752.744	425.42
753.144	417.52
753.545	435.87
753.946	421.75
754.346	413.56
754.747	403.96
755.148	426.83
755.548	416.67
755.948	404.25
756.349	410.18
756.749	438.69
757.149	404.53
757.549	399.73
757.949	409.89
758.349	386.74
758.749	414.98
759.149	391.26
759.549	390.13
759.949	378.26
760.348	377.7
760.748	384.48
761.148	416.67
761.547	388.71
761.947	405.66
762.346	381.93
762.745	422.03
763.145	386.74
763.544	423.73
763.943	413.85
764.342	398.32
764.741	403.4
765.14	417.52
765.539	406.51
765.938	393.8
766.336	400.58
766.735	387.87
767.134	371.77
767.532	415.54
767.931	390.69
768.329	420.06
768.728	399.73
769.126	425.7
769.525	412.15
769.923	400.29
770.321	390.97
770.719	400.01
771.117	410.74
771.515	411.59
771.913	423.16
772.311	431.91
772.709	414.69
773.106	394.36
773.504	406.51
773.902	388.71
774.299	424.86
774.697	422.88
775.094	409.89
775.491	422.88
775.889	372.05
776.286	397.75
776.683	400.29
777.08	414.69
777.477	407.07
777.874	407.63
778.271	414.41
778.668	398.03
779.065	408.48
779.462	394.93
779.858	429.94
780.255	414.13
780.652	382.78
781.048	397.75
781.444	410.74
781.841	407.63
782.237	405.94
782.633	395.21
783.03	395.77
783.426	414.98
783.822	401.14
784.218	403.96
784.614	379.96
785.01	424.86
785.405	422.88
785.801	409.61
786.197	400.01
786.593	413.85
786.988	419.78
787.384	418.36
787.779	420.9
788.174	393.8
788.57	433.89
788.965	409.89
789.36	409.61
789.755	386.17
790.15	420.06
790.545	407.63
790.94	409.05
791.335	397.19
791.73	423.45
792.125	392.39
792.52	398.88
792.914	404.53
793.309	393.51
793.703	395.21
794.098	421.47
794.492	404.53
794.887	399.73
795.281	409.89
795.675	398.6
796.069	371.77
796.463	392.67
796.857	421.75
797.251	403.96
797.645	370.64
798.039	383.35
798.433	403.4
798.826	389
799.22	416.39
799.614	401.14
800.007	392.1
800.401	412.72
800.794	389.28
801.187	377.13
801.581	410.18
801.974	401.99
802.367	398.88
802.76	401.42
803.153	363.29
803.546	396.34
803.939	413.56
804.332	412.43
804.725	373.46
805.117	401.7
805.51	409.33
805.903	382.78
806.295	403.68
806.688	398.03
807.08	382.78
807.472	431.63
807.865	378.55
808.257	400.29
808.649	382.5
809.041	394.93
809.433	382.78
809.825	384.19
810.217	401.14
810.609	403.96
811.001	384.76
811.392	420.9
811.784	396.62
812.175	387.02
812.567	396.06
812.958	407.63
813.35	394.36
813.741	374.87
814.132	377.42
814.524	401.7
814.915	403.96
815.306	394.08
815.697	404.81
816.088	397.19
816.479	419.21
816.87	409.33
817.26	392.95
817.651	393.51
818.042	405.38
818.432	391.82
818.823	404.81
819.213	432.76
819.604	398.03
819.994	379.39
820.384	389.56
820.775	389.56
821.165	401.99
821.555	401.7
821.945	408.2
822.335	398.32
822.725	379.68
823.114	396.9
823.504	398.88
823.894	391.54
824.284	377.98
824.673	386.17
825.063	374.59
825.452	401.99
825.842	392.1
826.231	364.99
826.62	385.04
827.009	418.93
827.399	404.81
827.788	384.19
828.177	389.56
828.566	362.44
828.954	381.37
829.343	376.57
829.732	395.21
830.121	390.41
830.509	361.88
830.898	407.92
831.286	416.67
831.675	358.49
832.063	392.39
832.452	382.78
832.84	402.27
833.228	393.23
833.616	387.3
834.004	380.24
834.392	370.07
834.78	371.48
835.168	380.52
835.556	405.66
835.944	372.9
836.331	397.75
836.719	372.05
837.107	378.26
837.494	371.48
837.881	407.07
838.269	388.43
838.656	368.66
839.043	409.33
839.431	387.02
839.818	396.06
840.205	390.69
840.592	390.97
840.979	417.23
841.366	373.46
841.752	384.19
842.139	389.56
842.526	407.07
842.912	374.31
843.299	401.42
843.685	400.58
844.072	385.61
844.458	425.99
844.844	394.36
845.231	415.26
845.617	390.97
846.003	386.45
846.389	383.35
846.775	404.25
847.161	418.36
847.547	399.16
847.933	399.45
848.318	411.31
848.704	407.07
849.09	399.16
849.475	408.48
849.861	406.22
850.246	391.26
850.631	391.82
851.017	392.1
851.402	406.22
851.787	404.25
852.172	405.66
852.557	390.13
852.942	390.41
853.327	398.03
853.712	402.83
854.097	394.08
854.481	369.22
854.866	396.06
855.25	396.06
855.635	368.38
856.019	388.43
856.404	379.11
856.788	427.68
857.172	364.14
857.557	389.84
857.941	396.34
858.325	387.02
858.709	357.92
859.093	375.16
859.477	372.05
859.86	400.58
860.244	404.81
860.628	382.22
861.012	374.03
861.395	366.12
861.779	377.42
862.162	383.06
862.545	415.26
862.929	402.55
863.312	380.52
863.695	396.06
864.078	383.63
864.461	363.29
864.844	391.26
865.227	382.22
865.61	380.52
865.993	365.83
866.376	403.4
866.758	397.19
867.141	377.42
867.523	393.23
867.906	393.23
868.288	370.07
868.671	392.67
869.053	386.74
869.435	397.47
869.817	378.55
870.199	367.25
870.581	361.31
870.963	355.66
871.345	385.32
871.727	381.37
872.109	372.61
872.491	406.22
872.872	389.28
873.254	409.05
873.635	383.06
874.017	416.39
874.398	382.22
874.779	412.43
875.161	397.75
875.542	403.96
875.923	364.7
876.304	378.83
876.685	354.53
877.066	387.87
877.447	374.59
877.828	332.77
878.208	381.65
878.589	384.76
878.97	389
879.35	377.98
879.731	398.6
880.111	375.72
880.491	390.13
880.872	382.22
881.252	391.82
881.632	351.99
882.012	373.18
882.392	361.88
882.772	405.66
883.152	370.35
883.532	389.56
883.912	380.24
884.291	385.89
884.671	413
885.051	354.25
885.43	386.17
885.81	400.01
886.189	416.95
886.568	387.87
886.948	394.08
887.327	398.32
887.706	380.8
888.085	375.72
888.464	392.67
888.843	376.85
889.222	367.53
889.601	366.68
889.979	341.81
890.358	389
890.737	416.11
891.115	395.21
891.494	391.26
891.872	380.52
892.25	390.69
892.629	380.8
893.007	389.84
893.385	394.64
893.763	384.19
894.141	389
894.519	400.86
894.897	366.4
895.275	407.92
895.653	396.9
896.03	404.53
896.408	396.62
896.786	343.79
897.163	359.05
897.541	390.41
897.918	377.13
898.295	371.48
898.673	379.96
899.05	413
899.427	381.37
899.804	369.79
900.181	386.17
900.558	368.66
900.935	404.53
901.312	367.81
901.688	372.05
902.065	388.43
902.442	376.85
902.818	383.91
903.195	377.42
903.571	407.35
903.947	407.63
904.324	406.22
904.7	392.39
905.076	389
905.452	374.03
905.828	379.39
906.204	392.39
906.58	414.98
906.956	375.16
907.331	393.23
907.707	385.32
908.083	397.47
908.458	366.68
908.834	380.8
909.209	367.81
909.585	381.37
909.96	360.18
910.335	390.97
910.71	389
911.086	383.35
911.461	354.81
911.836	366.4
912.21	394.08
912.585	396.34
912.96	390.97
913.335	377.7
913.709	398.6
914.084	368.09
914.459	369.22
914.833	379.68
915.207	388.71
915.582	366.68
915.956	380.24
916.33	408.48
916.704	393.51
917.078	365.27
917.452	381.37
917.826	370.35
918.2	402.27
918.574	385.61
918.948	387.58
919.321	381.65
919.695	383.35
920.068	393.51
920.442	383.35
920.815	385.32
921.189	398.88
921.562	395.77
921.935	376
922.308	364.42
922.681	374.87
923.054	393.8
923.427	370.07
923.8	396.06
924.173	380.52
924.546	409.33
924.919	397.75
925.291	374.03
925.664	390.69
926.036	369.22
926.409	367.25
926.781	410.18
927.153	422.6
927.526	381.93
927.898	385.04
928.27	387.02
928.642	401.99
929.014	381.37
929.386	388.15
929.758	385.04
930.129	392.67
930.501	374.87
930.873	371.48
931.244	371.2
931.616	381.09
931.987	376.85
932.359	353.12
932.73	400.01
933.101	372.05
933.472	361.03
933.843	380.52
934.214	377.98
934.585	343.79
934.956	400.01
935.327	379.11
935.698	406.51
936.069	377.42
936.439	396.34
936.81	382.5
937.18	354.25
937.551	375.44
937.921	361.88
938.292	404.25
938.662	385.32
939.032	383.35
939.402	379.96
939.772	377.13
940.142	398.88
940.512	383.35
940.882	374.59
941.252	405.66
941.621	374.87
941.991	361.03
942.361	395.49
942.73	376.85
943.1	348.6
943.469	391.26
943.838	374.31
944.208	376
944.577	376.29
944.946	377.42
945.315	382.78
945.684	382.78
946.053	359.9
946.422	383.06
946.791	406.79
947.159	370.92
947.528	379.96
947.897	361.59
948.265	384.19
948.634	366.96
949.002	399.45
949.371	381.65
949.739	377.7
950.107	399.16
950.475	356.23
950.843	374.03
951.211	369.22
951.579	381.93
951.947	375.72
952.315	363.85
952.683	386.45
953.05	390.97
953.418	395.77
953.785	371.2
954.153	364.14
954.52	371.2
954.888	381.93
955.255	384.76
955.622	400.58
955.989	374.31
956.356	406.22
956.723	376.57
957.09	385.61
957.457	378.55
957.824	368.66
958.191	377.42
958.557	371.48
958.924	389.84
959.291	382.78
959.657	381.37
960.023	379.96
960.39	368.94
960.756	379.39
961.122	371.48
961.488	375.72
961.855	373.74
962.221	385.32
962.586	371.77
962.952	371.48
963.318	373.46
963.684	368.09
964.05	384.19
964.415	358.49
964.781	380.8
965.146	359.05
965.512	384.48
965.877	372.61
966.242	379.68
966.608	371.77
966.973	381.37
967.338	373.46
967.703	364.99
968.068	364.42
968.433	389.84
968.797	384.76
969.162	364.7
969.527	372.61
969.891	376.57
970.256	378.55
970.62	357.36
970.985	374.87
971.349	396.9
971.714	398.32
972.078	360.46
972.442	386.45
972.806	371.2
973.17	384.19
973.534	371.48
973.898	373.46
974.262	390.97
974.625	386.45
974.989	383.63
975.353	376
975.716	357.92
976.08	369.22
976.443	368.09
976.806	377.13
977.17	366.68
977.533	396.62
977.896	368.38
978.259	387.02
978.622	388.43
978.985	372.61
979.348	385.32
979.711	377.42
980.073	397.19
980.436	376.85
980.799	373.74
981.161	376.57
981.524	361.03
981.886	372.05
982.248	361.88
982.611	357.64
982.973	372.61
983.335	380.24
983.697	341.25
984.059	391.54
984.421	389.56
984.783	371.48
985.145	379.68
985.506	343.51
985.868	374.03
986.23	372.61
986.591	380.8
986.953	363.29
987.314	349.44
987.675	364.99
988.037	482.42
988.398	378.26
988.759	396.06
989.12	342.38
989.481	360.75
989.842	365.83
990.203	340.4
990.564	379.39
990.924	362.44
991.285	493.14
991.646	372.05
992.006	367.25
992.367	380.24
992.727	369.51
993.087	355.66
993.448	350.29
993.808	364.99
994.168	357.07
994.528	356.23
994.888	381.09
995.248	357.36
995.608	379.96
995.967	361.88
996.327	369.22
996.687	365.27
997.046	355.66
997.406	391.26
997.765	354.81
998.125	360.46
998.484	387.3
998.843	377.7
999.202	396.06
999.561	370.92
999.92	378.55
1000.279	386.17
1000.638	380.24
1000.997	361.59
1001.356	363.01
1001.715	361.88
1002.073	355.38
1002.432	356.51
1002.79	341.81
1003.149	344.64
1003.507	368.09
1003.865	351.71
1004.224	352.27
1004.582	359.62
1004.94	375.44
1005.298	395.21
1005.656	400.58
1006.014	375.72
1006.371	387.3
1006.729	381.93
1007.087	386.74
1007.445	374.31
1007.802	371.2
1008.16	355.94
1008.517	376.85
1008.874	395.21
1009.232	378.26
1009.589	371.77
1009.946	395.77
1010.303	372.33
1010.66	397.19
1011.017	384.48
1011.374	383.06
1011.731	367.81
1012.087	374.03
1012.444	379.96
1012.801	385.61
1013.157	357.92
1013.513	375.72
1013.87	373.46
1014.226	363.57
1014.582	359.05
1014.939	367.81
1015.295	392.39
1015.651	361.31
1016.007	362.16
1016.363	388.71
1016.719	397.19
1017.074	385.89
1017.43	383.91
1017.786	379.39
1018.141	353.12
1018.497	340.4
1018.852	376.57
1019.208	351.14
1019.563	402.55
1019.918	392.1
1020.273	375.72
1020.628	366.12
1020.983	367.81
1021.338	367.25
1021.693	382.5
1022.048	392.95
1022.403	367.81
1022.757	383.35
1023.112	387.87
1023.467	394.08
1023.821	365.83
1024.175	383.63
1024.53	407.35
1024.884	370.35
1025.238	383.63
1025.592	397.75
1025.946	361.88
1026.3	377.13
1026.654	355.1
1027.008	373.46
1027.362	363.57
1027.716	371.77
1028.069	398.32
1028.423	382.5
1028.777	368.09
1029.13	359.62
1029.483	382.22
1029.837	357.07
1030.19	397.47
1030.543	361.03
1030.896	367.53
1031.249	381.93
1031.602	350.01
1031.955	384.19
1032.308	347.47
1032.661	392.39
1033.013	389.56
1033.366	365.27
1033.719	375.44
1034.071	376.29
1034.424	374.03
1034.776	346.34
1035.128	381.65
1035.48	383.06
1035.833	381.65
1036.185	395.49
1036.537	395.49
1036.889	395.49
