Data from SCSF78-405_irradiation_FLMS019251_20-20-27-857.txt Node
Date: Fri Feb 22 20:20:27 PST 2019
User: mu3e
Spectrometer: FLMS01925
Trigger mode: 0
Integration Time (sec): 1.206000E-2
Scans to average: 10
Electric dark correction enabled: true
Nonlinearity correction enabled: true
Boxcar width: 0
XAxis mode: Wavelengths
Number of Pixels in Spectrum: 2048
>>>>>Begin Spectral Data<<<<<
187.103	-68.23
187.574	-68.23
188.045	-68.23
188.516	-136.18
188.987	-147.84
189.458	-120.53
189.929	-127.64
190.4	-100.06
190.871	-100.06
191.342	-83
191.813	-69.65
192.284	-22.2
192.754	-52.6
193.225	15.56
193.696	52.74
194.166	22.37
194.637	77.42
195.107	99.82
195.578	106.34
196.048	154.52
196.518	146.02
196.989	198.71
197.459	213.43
197.929	204.94
198.399	286.72
198.869	279.65
199.339	292.66
199.809	293.22
200.279	313.3
200.749	348.35
201.219	361.35
201.689	365.02
202.159	353.72
202.628	396.37
203.098	369.54
203.568	398.07
204.037	379.43
204.507	379.99
204.976	399.76
205.445	394.12
205.915	405.98
206.384	382.25
206.853	413.6
207.323	387.9
207.792	398.07
208.261	439.29
208.73	379.15
209.199	372.65
209.668	359.09
210.137	393.83
210.606	381.97
211.075	355.98
211.543	397.79
212.012	387.62
212.481	375.76
212.95	363.61
213.418	380.56
213.887	361.63
214.355	323.48
214.824	364.46
215.292	347.78
215.76	352.87
216.229	376.04
216.697	337.04
217.165	376.32
217.633	346.65
218.101	372.08
218.569	342.98
219.037	339.59
219.505	342.13
219.973	352.31
220.441	338.74
220.909	365.59
221.377	346.94
221.844	331.96
222.312	366.43
222.78	348.91
223.247	329.41
223.715	376.89
224.182	357.39
224.65	350.04
225.117	374.06
225.584	346.94
226.052	344.96
226.519	355.41
226.986	348.91
227.453	345.24
227.92	372.08
228.387	347.22
228.854	365.3
229.321	327.15
229.788	343.26
230.255	352.59
230.722	367.28
231.189	364.46
231.655	353.72
232.122	343.26
232.589	372.37
233.055	370.11
233.522	366.72
233.988	350.89
234.454	367.56
234.921	368.98
235.387	387.9
235.853	354.28
236.32	395.24
236.786	338.74
237.252	348.63
237.718	392.7
238.184	372.37
238.65	375.47
239.116	348.63
239.582	365.59
240.047	391.29
240.513	373.5
240.979	373.21
241.445	396.66
241.91	358.52
242.376	372.37
242.841	361.35
243.307	373.78
243.772	363.89
244.238	384.51
244.703	369.54
245.168	396.94
245.633	400.61
246.099	376.32
246.564	385.36
247.029	377.17
247.494	375.47
247.959	369.54
248.424	369.54
248.889	367.85
249.353	364.17
249.818	389.03
250.283	375.47
250.748	371.52
251.212	368.41
251.677	376.89
252.141	388.75
252.606	371.8
253.07	367.28
253.535	355.13
253.999	369.82
254.463	378.3
254.927	367.85
255.392	353.15
255.856	379.15
256.32	387.34
256.784	400.61
257.248	405.69
257.712	379.15
258.176	365.87
258.64	381.41
259.103	357.67
259.567	394.4
260.031	406.82
260.495	381.41
260.958	385.08
261.422	389.31
261.885	350.89
262.349	370.11
262.812	349.48
263.275	371.52
263.739	394.4
264.202	382.54
264.665	369.54
265.128	403.43
265.591	380.84
266.054	352.59
266.517	378.02
266.98	395.81
267.443	394.68
267.906	379.15
268.369	361.63
268.832	381.12
269.294	373.78
269.757	387.05
270.22	376.04
270.682	357.96
271.145	400.05
271.607	384.51
272.07	386.21
272.532	393.83
272.994	366.15
273.456	369.54
273.919	371.52
274.381	399.48
274.843	381.97
275.305	407.11
275.767	394.12
276.229	379.99
276.691	386.77
277.153	394.96
277.614	395.53
278.076	387.9
278.538	377.45
279	387.34
279.461	395.53
279.923	395.81
280.384	386.21
280.846	374.91
281.307	389.6
281.769	385.08
282.23	389.6
282.691	391.29
283.152	414.73
283.613	370.11
284.075	372.37
284.536	372.08
284.997	365.3
285.458	412.19
285.918	384.23
286.379	364.46
286.84	385.08
287.301	382.54
287.762	391.01
288.222	392.42
288.683	394.12
289.143	397.79
289.604	380.84
290.064	391.01
290.525	379.99
290.985	385.92
291.445	393.55
291.906	393.55
292.366	384.51
292.826	400.89
293.286	396.66
293.746	415.29
294.206	378.58
294.666	410.78
295.126	385.36
295.586	389.31
296.046	391.01
296.506	366.15
296.965	389.6
297.425	396.37
297.884	398.63
298.344	367.56
298.804	384.79
299.263	386.21
299.722	405.69
300.182	393.83
300.641	382.54
301.1	380.56
301.559	401.18
302.019	399.2
302.478	399.48
302.937	382.25
303.396	401.18
303.855	366.72
304.314	371.8
304.772	383.95
305.231	380.56
305.69	388.47
306.149	386.77
306.607	389.6
307.066	387.62
307.524	378.58
307.983	415.86
308.441	375.47
308.9	401.18
309.358	401.46
309.816	417.55
310.275	392.42
310.733	378.02
311.191	406.82
311.649	395.24
312.107	422.07
312.565	394.4
313.023	413.03
313.481	401.18
313.939	367
314.397	379.15
314.854	393.27
315.312	396.09
315.77	382.54
316.227	394.12
316.685	395.81
317.142	393.83
317.6	381.41
318.057	405.69
318.514	389.31
318.972	403.15
319.429	389.88
319.886	396.66
320.343	398.35
320.8	412.47
321.257	402.59
321.714	409.36
322.171	425.74
322.628	399.2
323.085	405.13
323.542	387.9
323.998	385.92
324.455	377.73
324.912	402.02
325.368	401.74
325.825	404.85
326.281	388.18
326.738	422.07
327.194	409.36
327.65	390.44
328.107	367.28
328.563	408.8
329.019	422.63
329.475	401.46
329.931	379.43
330.387	431.1
330.843	377.73
331.299	396.66
331.755	416.42
332.211	382.54
332.666	398.63
333.122	395.53
333.578	417.27
334.033	385.36
334.489	402.3
334.944	400.89
335.4	408.23
335.855	400.89
336.31	401.74
336.766	392.99
337.221	394.12
337.676	395.81
338.131	423.48
338.586	380.56
339.041	399.76
339.496	385.92
339.951	400.89
340.406	394.12
340.861	393.55
341.316	377.45
341.771	415.58
342.225	414.16
342.68	382.54
343.134	407.67
343.589	412.47
344.043	398.35
344.498	407.11
344.952	406.54
345.406	411.34
345.861	380.28
346.315	422.63
346.769	413.88
347.223	416.14
347.677	412.47
348.131	427.43
348.585	393.55
349.039	408.8
349.493	432.23
349.947	424.61
350.401	414.45
350.854	408.52
351.308	406.26
351.762	429.69
352.215	393.27
352.669	398.07
353.122	395.81
353.575	411.62
354.029	398.63
354.482	410.49
354.935	376.89
355.388	430.82
355.842	436.75
356.295	400.61
356.748	429.41
357.201	405.13
357.654	388.47
358.106	421.79
358.559	395.81
359.012	389.88
359.465	396.09
359.917	376.6
360.37	420.66
360.823	391.29
361.275	436.75
361.728	406.54
362.18	425.17
362.632	443.52
363.085	421.22
363.537	437.88
363.989	418.4
364.441	415.58
364.893	400.05
365.345	406.54
365.797	433.36
366.249	421.79
366.701	432.8
367.153	418.4
367.605	410.78
368.057	411.34
368.508	426.02
368.96	422.07
369.411	392.7
369.863	394.12
370.314	415.86
370.766	400.61
371.217	433.93
371.669	403.15
372.12	399.2
372.571	390.16
373.022	409.36
373.473	415.86
373.924	409.65
374.375	414.45
374.826	397.5
375.277	384.51
375.728	427.15
376.179	409.65
376.63	403.43
377.08	413.6
377.531	426.59
377.981	392.99
378.432	389.31
378.883	401.46
379.333	408.8
379.783	401.18
380.234	422.35
380.684	429.13
381.134	414.16
381.584	435.62
382.034	418.12
382.485	436.18
382.935	428
383.385	406.26
383.834	426.02
384.284	411.06
384.734	401.74
385.184	395.53
385.634	429.97
386.083	434.49
386.533	422.07
386.982	421.22
387.432	411.06
387.881	416.42
388.331	433.08
388.78	414.73
389.229	427.43
389.679	413.32
390.128	434.21
390.577	418.96
391.026	436.47
391.475	413.03
391.924	437.88
392.373	428
392.822	447.47
393.27	426.87
393.719	433.64
394.168	408.8
394.617	455.09
395.065	429.13
395.514	433.93
395.962	425.17
396.411	428
396.859	433.36
397.307	441.26
397.756	434.21
398.204	432.51
398.652	438.44
399.1	445.78
399.548	447.76
399.996	468.92
400.444	453.96
400.892	449.45
401.34	415.86
401.788	471.74
402.236	451.71
402.683	445.5
403.131	449.17
403.579	466.94
404.026	426.02
404.474	457.35
404.921	474.84
405.369	466.1
405.816	454.53
406.263	474.84
406.71	485
407.158	449.17
407.605	457.91
408.052	459.89
408.499	485
408.946	472.87
409.393	466.94
409.84	505.87
410.286	501.64
410.733	515.46
411.18	539.14
411.626	607.6
412.073	615.77
412.52	686.41
412.966	751.37
413.413	917.58
413.859	1045.64
414.305	1248.09
414.752	1526
415.198	1815.95
415.644	2215.81
416.09	2698.76
416.536	3213.55
416.982	3904.24
417.428	4569.05
417.874	5385.51
418.32	6139.83
418.766	6982.12
419.211	8071.57
419.657	8944.33
420.103	10120.8
420.548	10914.13
420.994	12268.43
421.439	13255.83
421.885	14249.69
422.33	15617.9
422.776	16755.74
423.221	17674.27
423.666	18953.37
424.111	20208.27
424.556	20982
425.001	22425.21
425.446	23843.79
425.891	25121.26
426.336	25918.7
426.781	27061.16
427.226	29085
427.671	29725.23
428.115	30609.05
428.56	32077.31
429.005	33694.57
429.449	34221.18
429.894	35578.32
430.338	36584.85
430.782	36590.47
431.227	38142.39
431.671	38567.96
432.115	40029.38
432.559	40971.24
433.003	40834.09
433.447	41692.9
433.891	41961.89
434.335	42466.37
434.779	43161.94
435.223	43381.61
435.667	43434.51
436.111	43894.11
436.554	43907.62
436.998	43346.19
437.442	43567.54
437.885	45545.71
438.328	44004.41
438.772	44260.01
439.215	44840.79
439.659	44481.08
440.102	44765.93
440.545	44201.66
440.988	44063.97
441.431	44787.03
441.874	44418.64
442.317	44552.57
442.76	44156.83
443.203	43677.68
443.646	44210.67
444.089	43985.65
444.531	44532.75
444.974	43246.44
445.417	44327.66
445.859	43240.71
446.302	44583.43
446.744	43833.11
447.186	44933.78
447.629	43984.4
448.071	43964.39
448.513	44042.45
448.956	45378.04
449.398	44586.19
449.84	43427.27
450.282	43924.12
450.724	44513.93
451.166	44178.37
451.607	44189.39
452.049	44146.82
452.491	45338.98
452.933	44737.8
453.374	45412.82
453.816	45817.14
454.257	45461.73
454.699	46550.96
455.14	46134.34
455.582	45955.93
456.023	45893.98
456.464	46177.9
456.905	46644.69
457.347	46652.57
457.788	45577.5
458.229	45861.62
458.67	46783.76
459.111	44836.02
459.552	45038.64
459.992	44890.29
460.433	44568.37
460.874	43700.91
461.315	44724.99
461.755	44028.93
462.196	43409.31
462.636	42781.43
463.077	42388.35
463.517	42334.44
463.957	42757.05
464.398	42509.37
464.838	42572.75
465.278	41530.4
465.718	41701.33
466.158	40533.79
466.598	41104.26
467.038	40520.21
467.478	41061.23
467.918	41061.48
468.358	40621.18
468.798	40166.45
469.237	40048.36
469.677	40023.96
470.117	40849.9
470.556	38463.61
470.996	38982.14
471.435	39155.46
471.874	39785.21
472.314	39574.19
472.753	38724.39
473.192	38842.07
473.631	38486.93
474.07	38639.41
474.509	38731.27
474.948	38981.65
475.387	38336.23
475.826	37371.75
476.265	39083.42
476.704	38475.15
477.143	38952.4
477.581	38625.66
478.02	39185.95
478.458	38011.9
478.897	38593.98
479.335	39696.31
479.774	39139.23
480.212	39279.9
480.65	39208.08
481.089	38882.61
481.527	38451.83
481.965	38014.6
482.403	39929.08
482.841	39630.57
483.279	39600.28
483.717	39702.96
484.155	39334.02
484.592	39534.07
485.03	39801.71
485.468	38892.44
485.905	38879.91
486.343	39391.34
486.781	38857.55
487.218	38212.31
487.655	38330.09
488.093	37441.07
488.53	38674.78
488.967	37886.85
489.405	37805.21
489.842	36927.38
490.279	37009.37
490.716	36601.73
491.153	37092.6
491.59	36423.68
492.027	35884.19
492.463	35545.1
492.9	34806.54
493.337	34709.9
493.773	34780.43
494.21	34121.16
494.647	33788.47
495.083	33116.17
495.519	32658.29
495.956	32680.96
496.392	32111.69
496.828	31873.49
497.265	31179.53
497.701	31300.73
498.137	31035.4
498.573	30316.54
499.009	30797.85
499.445	30021.04
499.881	29443.01
500.316	29750.86
500.752	28983.13
501.188	28745.9
501.624	28556.51
502.059	27485.73
502.495	27352.8
502.93	27223.28
503.366	27411.07
503.801	26806.87
504.236	26563.26
504.672	26142.96
505.107	26064.45
505.542	25318.34
505.977	25253.97
506.412	24884.52
506.847	25146.33
507.282	24603.39
507.717	24267.93
508.152	24366.65
508.587	24013.54
509.021	23383.01
509.456	23112.34
509.891	23168.61
510.325	23125.67
510.76	22732.35
511.194	22517.4
511.628	22603.39
512.063	21812.02
512.497	22003.06
512.931	21678.58
513.366	21295.61
513.8	21409.85
514.234	20731.7
514.668	20753.28
515.102	21016.48
515.536	20099.93
515.969	20431.57
516.403	19901.8
516.837	19547.58
517.271	19555.55
517.704	19288.19
518.138	19076.47
518.571	18936.67
519.005	18554.66
519.438	18507.26
519.871	18348.54
520.305	17964.96
520.738	17883
521.171	17428.9
521.604	17508.71
522.037	17298.52
522.47	17049.4
522.903	16721.15
523.336	16642.67
523.769	16589.01
524.202	16073.28
524.634	16032.6
525.067	15855.97
525.5	15720.24
525.932	15624.44
526.365	15146.28
526.797	15109.77
527.23	15189.85
527.662	14600.57
528.094	14463.04
528.527	14442.34
528.959	14199.42
529.391	13962.62
529.823	13451.44
530.255	13557.3
530.687	13294.86
531.119	13024.82
531.551	13002.49
531.982	12696.58
532.414	12548.43
532.846	12213.45
533.277	12108.82
533.709	11811.46
534.14	11747.96
534.572	11575.74
535.003	11494.3
535.435	11192.53
535.866	11006.03
536.297	10793.24
536.728	10706.37
537.159	10664.84
537.59	10556.62
538.022	10297.35
538.452	10142.65
538.883	10015.09
539.314	9907.52
539.745	9726.71
540.176	9524.31
540.606	9304.6
541.037	9322.69
541.468	9158.06
541.898	9070.12
542.328	8992.75
542.759	8743.54
543.189	8657.96
543.619	8617.49
544.05	8462.24
544.48	8270.94
544.91	8211.63
545.34	8038.75
545.77	7907.91
546.2	7841.14
546.63	7778.78
547.06	7713.77
547.489	7561.97
547.919	7340.61
548.349	7375.17
548.778	7321.75
549.208	7183.39
549.637	6986.32
550.067	6994.46
550.496	6966.62
550.926	6826.81
551.355	6658.14
551.784	6647.87
552.213	6572.79
552.642	6451.52
553.071	6414.32
553.5	6328.26
553.929	6115.75
554.358	6171.83
554.787	6061.77
555.216	5986.04
555.645	5911.85
556.073	5883.49
556.502	5737.31
556.93	5631.34
557.359	5563.55
557.787	5603.16
558.216	5506.63
558.644	5436.9
559.072	5365.8
559.5	5303.71
559.929	5313.84
560.357	5253.85
560.785	5180.21
561.213	5195.96
561.641	5037.6
562.068	5023.96
562.496	4984.4
562.924	4917.79
563.352	4940.8
563.779	4850.6
564.207	4836.68
564.634	4791.68
565.062	4778.28
565.489	4724.94
565.917	4656.01
566.344	4695.45
566.771	4615.49
567.198	4601.54
567.625	4464.53
568.053	4457.27
568.48	4391.65
568.907	4409.4
569.333	4306.6
569.76	4144.35
570.187	4252.46
570.614	4112.52
571.04	4233.32
571.467	3993.44
571.894	3929.38
572.32	3852.57
572.747	3790.58
573.173	3783.26
573.599	3736.4
574.026	3618.19
574.452	3592.41
574.878	3515.03
575.304	3426.71
575.73	3337.75
576.156	3308.62
576.582	3320.88
577.008	3205.65
577.434	3197.74
577.86	3109.92
578.285	3124.1
578.711	3038.11
579.137	3018.45
579.562	2868.88
579.988	2944.11
580.413	2851.09
580.838	2759.62
581.264	2808.38
581.689	2733.31
582.114	2722.89
582.539	2640.06
582.964	2639.78
583.39	2603.28
583.814	2554.95
584.239	2493.39
584.664	2517.3
585.089	2474.97
585.514	2406.2
585.939	2374.27
586.363	2332.96
586.788	2372.62
587.212	2323.32
587.637	2262.42
588.061	2247.53
588.485	2208.37
588.91	2170.01
589.334	2137.44
589.758	2130.26
590.182	2044.89
590.606	2072.8
591.03	2013.09
591.454	1962.75
591.878	1953.89
592.302	1998.43
592.726	1905.17
593.15	1918.46
593.573	1851.71
593.997	1868.89
594.42	1819.56
594.844	1817.34
595.267	1788.78
595.691	1773.25
596.114	1717.2
596.537	1731.91
596.96	1723.31
597.384	1727.75
597.807	1689.72
598.23	1646.39
598.653	1650.28
599.076	1621.38
599.499	1602.48
599.921	1599.98
600.344	1598.87
600.767	1563
601.189	1555.49
601.612	1557.43
602.034	1549.92
602.457	1558.82
602.879	1526
603.302	1561.88
603.724	1512.92
604.146	1525.44
604.568	1458.35
604.991	1472.28
605.413	1483.97
605.835	1475.06
606.257	1439.69
606.678	1457.52
607.1	1436.35
607.522	1468.38
607.944	1377.55
608.365	1416.29
608.787	1388.42
609.209	1371.97
609.63	1380.34
610.051	1338.23
610.473	1358.31
610.894	1348.55
611.315	1371.97
611.737	1295.27
612.158	1268.19
612.579	1281.03
613	1269.31
613.421	1275.73
613.842	1217.08
614.263	1194.17
614.683	1226.86
615.104	1193.05
615.525	1179.36
615.945	1156.44
616.366	1153.64
616.787	1136.86
617.207	1131.27
617.627	1100.78
618.048	1079.23
618.468	1088.47
618.888	1063
619.308	1073.36
619.728	1028.28
620.148	1044.8
620.568	1063
620.988	1022.96
621.408	1011.2
621.828	1023.52
622.248	986.26
622.668	975.05
623.087	966.65
623.507	971.13
623.926	959.92
624.346	952.91
624.765	939.73
625.185	918.14
625.604	902.15
626.023	931.04
626.442	900.19
626.861	872.41
627.28	892.34
627.699	888.13
628.118	867.92
628.537	884.76
628.956	834.24
629.375	850.52
629.794	849.4
630.212	823.57
630.631	853.05
631.049	811.77
631.468	802.79
631.886	776.94
632.305	804.47
632.723	797.45
633.141	802.51
633.559	807.84
633.978	782.84
634.396	770.2
634.814	778.63
635.232	729.16
635.65	734.5
636.067	741.25
636.485	751.93
636.903	746.03
637.321	722.69
637.738	744.34
638.156	736.19
638.573	696.82
638.991	692.88
639.408	701.88
639.825	692.6
640.243	734.5
640.66	703.57
641.077	705.54
641.494	716.51
641.911	705.54
642.328	701.04
642.745	654.61
643.162	656.87
643.579	675.72
643.995	652.93
644.412	662.21
644.829	672.91
645.245	640.26
645.662	620.55
646.078	634.07
646.495	632.1
646.911	608.73
647.327	621.68
647.743	574.08
648.159	649.83
648.576	619.15
648.992	606.47
649.408	613.51
649.824	602.25
650.239	580.84
650.655	618.58
651.071	604.22
651.487	632.66
651.902	593.24
652.318	605.35
652.733	585.35
653.149	603.94
653.564	600.28
653.979	589.29
654.395	572.11
654.81	582.53
655.225	603.38
655.64	602.53
656.055	541.96
656.47	570.7
656.885	578.02
657.3	558.3
657.715	589.57
658.13	559.15
658.544	562.53
658.959	590.98
659.374	542.24
659.788	574.08
660.202	558.02
660.617	536.32
661.031	540.26
661.445	542.52
661.86	539.14
662.274	546.47
662.688	569.01
663.102	532.94
663.516	532.09
663.93	533.78
664.344	535.75
664.758	530.12
665.171	508.12
665.585	523.91
665.999	529.27
666.412	530.68
666.826	524.76
667.239	511.79
667.653	522.5
668.066	519.12
668.479	523.91
668.892	495.43
669.306	512.92
669.719	506.15
670.132	510.94
670.545	512.92
670.958	494.59
671.37	503.05
671.783	524.48
672.196	518.28
672.609	492.05
673.021	495.43
673.434	525.61
673.846	533.78
674.259	511.79
674.671	495.15
675.084	502.2
675.496	497.97
675.908	495.43
676.32	470.89
676.732	488.66
677.144	468.07
677.556	490.36
677.968	492.9
678.38	476.54
678.792	472.3
679.204	485.84
679.615	473.15
680.027	476.82
680.439	465.25
680.85	472.3
681.262	456.79
681.673	493.74
682.084	476.82
682.496	451.14
682.907	465.25
683.318	477.66
683.729	472.02
684.14	451.71
684.551	459.32
684.962	498.82
685.373	482.46
685.784	459.89
686.194	447.47
686.605	476.82
687.016	457.63
687.426	460.17
687.837	447.19
688.247	459.32
688.657	450.58
689.068	434.77
689.478	453.68
689.888	466.66
690.298	453.12
690.708	454.25
691.118	453.96
691.528	418.96
691.938	436.75
692.348	452.55
692.758	450.01
693.168	444.93
693.577	458.2
693.987	448.6
694.396	445.78
694.806	439.29
695.215	451.71
695.625	435.34
696.034	429.13
696.443	444.65
696.852	420.94
697.262	422.35
697.671	453.96
698.08	408.8
698.489	460.74
698.897	448.6
699.306	427.72
699.715	455.66
700.124	448.6
700.532	464.4
700.941	450.58
701.35	426.59
701.758	420.09
702.166	458.2
702.575	422.92
702.983	440.13
703.391	429.97
703.799	413.6
704.208	462.15
704.616	438.44
705.024	399.76
705.432	430.54
705.839	411.91
706.247	448.32
706.655	416.99
707.063	447.47
707.47	432.51
707.878	431.1
708.285	421.5
708.693	409.93
709.1	406.54
709.508	406.54
709.915	421.22
710.322	420.66
710.729	444.65
711.136	423.76
711.543	413.03
711.95	414.16
712.357	390.73
712.764	429.97
713.171	395.81
713.578	429.13
713.984	421.5
714.391	411.06
714.797	398.07
715.204	408.23
715.61	414.45
716.017	415.01
716.423	428
716.829	388.47
717.236	408.23
717.642	409.36
718.048	414.16
718.454	386.49
718.86	442.11
719.266	412.19
719.671	402.3
720.077	411.91
720.483	413.03
720.889	404.85
721.294	407.39
721.7	379.99
722.105	392.14
722.511	439.29
722.916	430.82
723.321	399.76
723.726	399.76
724.132	398.92
724.537	415.58
724.942	430.82
725.347	417.83
725.752	399.76
726.156	378.86
726.561	400.89
726.966	400.05
727.371	414.16
727.775	422.35
728.18	398.92
728.584	393.55
728.989	401.74
729.393	411.91
729.798	414.73
730.202	420.09
730.606	407.95
731.01	409.65
731.414	410.21
731.818	413.88
732.222	391.57
732.626	395.81
733.03	404.56
733.434	392.42
733.837	399.76
734.241	390.44
734.645	404.85
735.048	415.58
735.452	404.85
735.855	415.29
736.258	391.01
736.662	426.87
737.065	402.59
737.468	402.87
737.871	414.73
738.274	405.98
738.677	416.99
739.08	396.66
739.483	391.29
739.886	396.94
740.289	407.39
740.691	403.43
741.094	391.86
741.497	400.05
741.899	380.84
742.302	399.48
742.704	390.16
743.106	387.34
743.508	407.11
743.911	355.7
744.313	411.34
744.715	398.35
745.117	393.83
745.519	409.93
745.921	393.83
746.323	420.09
746.724	372.93
747.126	394.68
747.528	404.85
747.929	397.5
748.331	411.06
748.732	399.48
749.134	395.24
749.535	399.48
749.936	415.01
750.338	373.78
750.739	384.51
751.14	400.61
751.541	422.63
751.942	396.66
752.343	414.73
752.744	398.63
753.144	379.71
753.545	383.1
753.946	396.66
754.346	414.73
754.747	400.89
755.148	416.99
755.548	378.02
755.948	375.76
756.349	405.41
756.749	387.62
757.149	433.08
757.549	424.89
757.949	411.06
758.349	387.05
758.749	402.3
759.149	395.81
759.549	383.1
759.949	395.53
760.348	428.84
760.748	414.73
761.148	409.36
761.547	385.92
761.947	398.63
762.346	354.57
762.745	409.65
763.145	369.26
763.544	373.5
763.943	379.99
764.342	386.21
764.741	374.06
765.14	399.48
765.539	393.55
765.938	394.96
766.336	397.22
766.735	423.76
767.134	374.06
767.532	374.91
767.931	389.03
768.329	409.93
768.728	389.6
769.126	399.48
769.525	402.02
769.923	391.01
770.321	416.71
770.719	389.88
771.117	399.76
771.515	391.86
771.913	398.63
772.311	406.26
772.709	381.97
773.106	398.07
773.504	407.11
773.902	388.75
774.299	396.94
774.697	399.76
775.094	373.21
775.491	371.8
775.889	387.34
776.286	392.14
776.683	388.75
777.08	386.49
777.477	359.65
777.874	389.88
778.271	395.81
778.668	393.27
779.065	376.89
779.462	386.49
779.858	401.18
780.255	377.17
780.652	374.06
781.048	402.87
781.444	389.31
781.841	412.19
782.237	365.02
782.633	388.47
783.03	421.22
783.426	401.46
783.822	389.88
784.218	385.36
784.614	389.6
785.01	403.43
785.405	391.86
785.801	380.84
786.197	392.14
786.593	388.47
786.988	377.45
787.384	393.27
787.779	386.77
788.174	369.54
788.57	404.28
788.965	372.93
789.36	404.28
789.755	383.95
790.15	402.87
790.545	398.35
790.94	400.89
791.335	373.5
791.73	364.74
792.125	400.05
792.52	378.58
792.914	364.46
793.309	374.91
793.703	395.81
794.098	398.92
794.492	383.66
794.887	376.04
795.281	403.15
795.675	352.31
796.069	392.99
796.463	395.81
796.857	370.39
797.251	414.16
797.645	394.4
798.039	352.02
798.433	394.12
798.826	389.6
799.22	388.75
799.614	372.08
800.007	380.56
800.401	388.18
800.794	390.44
801.187	372.08
801.581	395.53
801.974	379.15
802.367	365.02
802.76	386.77
803.153	386.49
803.546	404.28
803.939	382.54
804.332	376.89
804.725	392.99
805.117	369.26
805.51	369.82
805.903	368.98
806.295	401.74
806.688	375.76
807.08	391.01
807.472	384.79
807.865	389.03
808.257	379.99
808.649	396.37
809.041	392.99
809.433	393.27
809.825	407.67
810.217	388.47
810.609	386.77
811.001	383.66
811.392	375.19
811.784	410.49
812.175	389.88
812.567	393.83
812.958	384.51
813.35	376.6
813.741	392.7
814.132	402.3
814.524	396.66
814.915	387.62
815.306	381.41
815.697	409.36
816.088	372.65
816.479	411.91
816.87	384.79
817.26	385.36
817.651	398.07
818.042	405.69
818.432	396.37
818.823	394.68
819.213	390.44
819.604	401.74
819.994	405.13
820.384	402.02
820.775	405.98
821.165	378.3
821.555	398.07
821.945	410.78
822.335	398.07
822.725	397.22
823.114	367.28
823.504	404.28
823.894	395.81
824.284	393.83
824.673	385.92
825.063	385.08
825.452	364.46
825.842	391.01
826.231	381.97
826.62	377.73
827.009	384.23
827.399	361.35
827.788	383.95
828.177	364.46
828.566	375.76
828.954	375.19
829.343	367.28
829.732	378.58
830.121	390.16
830.509	350.33
830.898	352.31
831.286	365.02
831.675	368.69
832.063	352.87
832.452	406.82
832.84	370.39
833.228	402.87
833.616	400.89
834.004	398.63
834.392	352.31
834.78	391.01
835.168	378.02
835.556	412.19
835.944	373.5
836.331	392.99
836.719	368.13
837.107	388.18
837.494	365.02
837.881	374.91
838.269	402.59
838.656	376.32
839.043	386.77
839.431	384.79
839.818	382.54
840.205	380.28
840.592	371.52
840.979	400.33
841.366	379.99
841.752	381.97
842.139	387.62
842.526	370.39
842.912	392.14
843.299	381.41
843.685	375.76
844.072	371.52
844.458	372.08
844.844	371.24
845.231	354
845.617	353.44
846.003	383.66
846.389	373.21
846.775	386.49
847.161	399.2
847.547	378.86
847.933	398.35
848.318	380.56
848.704	377.45
849.09	379.15
849.475	389.31
849.861	376.32
850.246	393.83
850.631	374.63
851.017	403.15
851.402	380.56
851.787	370.39
852.172	391.57
852.557	371.24
852.942	370.11
853.327	381.12
853.712	373.21
854.097	377.17
854.481	353.44
854.866	381.12
855.25	363.89
855.635	394.4
856.019	352.31
856.404	391.29
856.788	387.9
857.172	375.76
857.557	368.13
857.941	373.5
858.325	359.65
858.709	391.86
859.093	388.47
859.477	389.31
859.86	370.11
860.244	368.41
860.628	412.47
861.012	394.4
861.395	366.72
861.779	371.24
862.162	370.11
862.545	400.05
862.929	382.25
863.312	376.6
863.695	405.69
864.078	376.89
864.461	367.56
864.844	375.76
865.227	371.8
865.61	371.24
865.993	383.95
866.376	358.8
866.758	389.31
867.141	388.47
867.523	373.5
867.906	391.57
868.288	374.06
868.671	400.05
869.053	360.22
869.435	370.39
869.817	402.59
870.199	379.43
870.581	385.64
870.963	387.9
871.345	397.79
871.727	386.49
872.109	390.73
872.491	368.98
872.872	373.78
873.254	378.3
873.635	385.08
874.017	413.6
874.398	380.84
874.779	367
875.161	380.56
875.542	383.38
875.923	364.17
876.304	380.56
876.685	396.66
877.066	391.86
877.447	384.23
877.828	387.05
878.208	381.41
878.589	394.12
878.97	403.72
879.35	366.43
879.731	369.54
880.111	379.15
880.491	379.43
880.872	377.17
881.252	362.2
881.632	379.99
882.012	393.27
882.392	365.59
882.772	372.93
883.152	377.17
883.532	372.93
883.912	399.48
884.291	398.63
884.671	390.16
885.051	415.29
885.43	421.79
885.81	367.28
886.189	381.12
886.568	355.98
886.948	346.94
887.327	349.76
887.706	376.89
888.085	366.72
888.464	376.32
888.843	398.07
889.222	371.24
889.601	372.65
889.979	376.04
890.358	397.22
890.737	377.17
891.115	365.59
891.494	376.89
891.872	389.03
892.25	357.39
892.629	356.26
893.007	372.37
893.385	379.99
893.763	389.03
894.141	393.27
894.519	389.31
894.897	373.5
895.275	363.61
895.653	387.05
896.03	390.73
896.408	367
896.786	395.24
897.163	387.62
897.541	350.04
897.918	351.46
898.295	404.28
898.673	390.73
899.05	378.86
899.427	382.54
899.804	386.21
900.181	378.86
900.558	393.83
900.935	381.41
901.312	385.92
901.688	378.3
902.065	374.91
902.442	356.26
902.818	378.58
903.195	372.93
903.571	359.37
903.947	377.17
904.324	376.89
904.7	363.04
905.076	394.4
905.452	348.07
905.828	371.52
906.204	402.3
906.58	388.18
906.956	386.77
907.331	391.57
907.707	387.05
908.083	375.47
908.458	407.67
908.834	377.17
909.209	382.54
909.585	374.63
909.96	402.87
910.335	383.66
910.71	366.72
911.086	362.76
911.461	395.53
911.836	377.45
912.21	369.54
912.585	395.24
912.96	388.18
913.335	377.45
913.709	385.64
914.084	365.87
914.459	377.73
914.833	387.9
915.207	378.86
915.582	372.65
915.956	363.61
916.33	381.12
916.704	377.45
917.078	368.41
917.452	374.63
917.826	388.18
918.2	348.07
918.574	386.77
918.948	375.47
919.321	387.34
919.695	373.21
920.068	378.86
920.442	370.95
920.815	370.11
921.189	358.52
921.562	379.99
921.935	379.99
922.308	389.88
922.681	376.89
923.054	352.87
923.427	385.08
923.8	374.91
924.173	395.24
924.546	372.65
924.919	368.98
925.291	369.54
925.664	350.89
926.036	393.55
926.409	386.21
926.781	365.02
927.153	385.92
927.526	370.67
927.898	377.17
928.27	373.21
928.642	374.34
929.014	378.02
929.386	360.22
929.758	367.56
930.129	366.15
930.501	349.76
930.873	378.58
931.244	383.38
931.616	374.63
931.987	394.96
932.359	372.08
932.73	363.04
933.101	368.41
933.472	381.41
933.843	379.71
934.214	375.76
934.585	371.24
934.956	356.83
935.327	369.54
935.698	374.06
936.069	362.2
936.439	348.63
936.81	370.67
937.18	383.66
937.551	379.99
937.921	364.74
938.292	365.87
938.662	359.37
939.032	362.2
939.402	352.02
939.772	383.38
940.142	363.61
940.512	361.35
940.882	377.45
941.252	397.5
941.621	354.28
941.991	353.15
942.361	369.26
942.73	387.34
943.1	348.07
943.469	355.7
943.838	380.56
944.208	355.41
944.577	364.74
944.946	388.47
945.315	386.21
945.684	357.11
946.053	383.66
946.422	370.67
946.791	370.67
947.159	368.41
947.528	369.54
947.897	376.89
948.265	368.98
948.634	355.41
949.002	367.85
949.371	378.3
949.739	341.28
950.107	354.57
950.475	351.74
950.843	347.5
951.211	378.3
951.579	370.39
951.947	358.52
952.315	373.78
952.683	390.73
953.05	360.78
953.418	366.15
953.785	348.07
954.153	366.72
954.52	357.67
954.888	358.52
955.255	391.86
955.622	371.52
955.989	351.18
956.356	354
956.723	367.56
957.09	389.6
957.457	350.89
957.824	386.21
958.191	350.89
958.557	388.47
958.924	378.86
959.291	353.44
959.657	372.65
960.023	372.37
960.39	385.08
960.756	415.01
961.122	370.95
961.488	368.98
961.855	392.7
962.221	371.8
962.586	392.99
962.952	377.45
963.318	342.41
963.684	384.79
964.05	351.18
964.415	381.69
964.781	366.43
965.146	366.43
965.512	370.11
965.877	391.86
966.242	351.46
966.608	382.54
966.973	372.65
967.338	364.46
967.703	376.04
968.068	407.95
968.433	377.17
968.797	372.08
969.162	361.63
969.527	359.37
969.891	358.8
970.256	352.59
970.62	363.89
970.985	359.65
971.349	372.65
971.714	353.72
972.078	377.45
972.442	366.72
972.806	385.92
973.17	380.56
973.534	385.36
973.898	379.43
974.262	384.23
974.625	370.95
974.989	367
975.353	354.57
975.716	370.11
976.08	376.89
976.443	346.37
976.806	374.91
977.17	395.24
977.533	397.79
977.896	355.98
978.259	383.95
978.622	364.74
978.985	360.5
979.348	360.5
979.711	347.78
980.073	381.97
980.436	339.02
980.799	348.91
981.161	353.72
981.524	365.87
981.886	371.8
982.248	378.02
982.611	375.76
982.973	386.21
983.335	393.27
983.697	363.89
984.059	358.8
984.421	393.27
984.783	378.58
985.145	368.98
985.506	388.47
985.868	362.2
986.23	366.43
986.591	373.5
986.953	351.74
987.314	367.28
987.675	379.43
988.037	539.7
988.398	374.34
988.759	375.47
989.12	384.51
989.481	344.11
989.842	361.06
990.203	370.95
990.564	350.33
990.924	356.54
991.285	441.55
991.646	357.96
992.006	345.24
992.367	389.6
992.727	362.48
993.087	373.78
993.448	349.2
993.808	371.52
994.168	393.83
994.528	387.62
994.888	361.63
995.248	378.58
995.608	349.76
995.967	362.48
996.327	369.54
996.687	392.99
997.046	351.74
997.406	372.37
997.765	365.02
998.125	370.95
998.484	380.56
998.843	387.9
999.202	359.65
999.561	352.59
999.92	368.13
1000.279	373.78
1000.638	363.04
1000.997	358.24
1001.356	376.32
1001.715	363.61
1002.073	371.8
1002.432	377.73
1002.79	355.98
1003.149	386.21
1003.507	360.78
1003.865	362.2
1004.224	365.3
1004.582	378.02
1004.94	374.91
1005.298	361.91
1005.656	366.72
1006.014	342.13
1006.371	374.06
1006.729	375.19
1007.087	373.21
1007.445	355.98
1007.802	381.69
1008.16	376.6
1008.517	381.41
1008.874	382.54
1009.232	365.59
1009.589	392.99
1009.946	375.47
1010.303	374.06
1010.66	364.46
1011.017	350.89
1011.374	361.35
1011.731	364.17
1012.087	348.91
1012.444	355.41
1012.801	364.46
1013.157	374.34
1013.513	369.26
1013.87	376.6
1014.226	356.54
1014.582	372.08
1014.939	368.69
1015.295	368.69
1015.651	337.33
1016.007	343.26
1016.363	374.91
1016.719	369.54
1017.074	361.63
1017.43	419.25
1017.786	368.98
1018.141	353.44
1018.497	362.76
1018.852	337.33
1019.208	372.37
1019.563	364.46
1019.918	393.27
1020.273	363.89
1020.628	348.07
1020.983	379.43
1021.338	371.24
1021.693	359.93
1022.048	372.37
1022.403	376.04
1022.757	348.35
1023.112	354.28
1023.467	381.97
1023.821	353.44
1024.175	383.95
1024.53	367
1024.884	329.98
1025.238	362.76
1025.592	365.87
1025.946	381.97
1026.3	369.82
1026.654	357.96
1027.008	370.67
1027.362	357.39
1027.716	344.96
1028.069	388.47
1028.423	372.65
1028.777	380.84
1029.13	355.7
1029.483	386.21
1029.837	371.24
1030.19	395.53
1030.543	352.59
1030.896	386.21
1031.249	378.58
1031.602	355.7
1031.955	378.02
1032.308	358.8
1032.661	350.89
1033.013	374.63
1033.366	370.39
1033.719	331.39
1034.071	338.46
1034.424	374.91
1034.776	355.7
1035.128	331.39
1035.48	365.3
1035.833	396.66
1036.185	398.63
1036.537	398.63
1036.889	398.63
