Data from SCSF78-405_irradiation_FLMS019251_17-43-27-938.txt Node
Date: Fri Feb 22 17:43:27 PST 2019
User: mu3e
Spectrometer: FLMS01925
Trigger mode: 0
Integration Time (sec): 1.206000E-2
Scans to average: 10
Electric dark correction enabled: true
Nonlinearity correction enabled: true
Boxcar width: 0
XAxis mode: Wavelengths
Number of Pixels in Spectrum: 2048
>>>>>Begin Spectral Data<<<<<
187.103	-114.63
187.574	-114.63
188.045	-114.63
188.516	-123.45
188.987	-146.77
189.458	-122.6
189.929	-114.63
190.4	-100.99
190.871	-92.46
191.342	-78.81
191.813	-53.52
192.284	-46.42
192.754	-16.03
193.225	-16.59
193.696	31.38
194.166	60.89
194.637	71.11
195.107	84.72
195.578	128.1
196.048	104.57
196.518	160.4
196.989	170.6
197.459	197.51
197.929	209.4
198.399	266.85
198.869	292.02
199.339	288.63
199.809	304.46
200.279	316.9
200.749	342.91
201.219	370.32
201.689	365.23
202.159	360.43
202.628	370.32
203.098	395.46
203.568	365.23
204.037	377.1
204.507	388.68
204.976	403.93
205.445	394.04
205.915	418.05
206.384	395.17
206.853	385.85
207.323	398.56
207.792	409.86
208.261	386.42
208.73	374.27
209.199	388.96
209.668	382.75
210.137	407.32
210.606	390.66
211.075	377.66
211.543	404.49
212.012	365.51
212.481	369.75
212.95	397.43
213.418	377.94
213.887	364.95
214.355	377.66
214.824	368.06
215.292	362.69
215.76	372.01
216.229	366.93
216.697	364.38
217.165	367.21
217.633	355.91
218.101	357.32
218.569	349.97
219.037	334.71
219.505	343.19
219.973	373.99
220.441	353.08
220.909	375.4
221.377	339.24
221.844	372.58
222.312	361.56
222.78	362.97
223.247	358.17
223.715	358.45
224.182	340.65
224.65	366.93
225.117	354.78
225.584	357.32
226.052	351.1
226.519	338.1
226.986	365.8
227.453	358.17
227.92	352.52
228.387	354.21
228.854	371.17
229.321	357.6
229.788	325.67
230.255	374.56
230.722	343.47
231.189	364.67
231.655	359.86
232.122	351.39
232.589	356.47
233.055	373.71
233.522	368.34
233.988	356.47
234.454	364.95
234.921	362.12
235.387	359.86
235.853	359.86
236.32	369.19
236.786	367.77
237.252	370.88
237.718	392.63
238.184	373.99
238.65	394.33
239.116	402.52
239.582	346.58
240.047	376.25
240.513	347.71
240.979	361.84
241.445	361.28
241.91	385.57
242.376	359.02
242.841	377.94
243.307	363.25
243.772	365.23
244.238	388.4
244.703	354.21
245.168	349.97
245.633	368.62
246.099	388.4
246.564	367.77
247.029	346.02
247.494	390.37
247.959	370.04
248.424	391.22
248.889	349.69
249.353	357.04
249.818	376.81
250.283	387.27
250.748	365.23
251.212	391.22
251.677	372.86
252.141	353.93
252.606	355.63
253.07	372.3
253.535	394.33
253.999	368.06
254.463	357.6
254.927	353.93
255.392	368.62
255.856	389.53
256.32	379.07
256.784	379.07
257.248	383.31
257.712	383.59
258.176	378.23
258.64	386.14
259.103	407.03
259.567	369.19
260.031	377.94
260.495	379.07
260.958	377.38
261.422	370.04
261.885	388.11
262.349	374.27
262.812	370.32
263.275	381.62
263.739	402.23
264.202	374.27
264.665	375.4
265.128	383.59
265.591	353.37
266.054	381.9
266.517	422
266.98	406.19
267.443	378.79
267.906	382.75
268.369	373.43
268.832	386.7
269.294	366.08
269.757	379.92
270.22	401.1
270.682	383.59
271.145	384.72
271.607	397.43
272.07	392.35
272.532	360.99
272.994	392.63
273.456	366.08
273.919	377.94
274.381	377.66
274.843	362.41
275.305	401.39
275.767	389.53
276.229	393.76
276.691	379.36
277.153	375.69
277.614	402.23
278.076	375.69
278.538	378.23
279	372.58
279.461	385.29
279.923	398.85
280.384	377.38
280.846	359.02
281.307	377.38
281.769	388.11
282.23	347.43
282.691	383.31
283.152	387.55
283.613	411.83
284.075	385.57
284.536	376.25
284.997	362.69
285.458	414.09
285.918	401.39
286.379	384.72
286.84	400.26
287.301	387.55
287.762	353.37
288.222	385.29
288.683	405.06
289.143	395.46
289.604	399.13
290.064	426.52
290.525	413.53
290.985	377.38
291.445	372.58
291.906	411.55
292.366	372.86
292.826	396.59
293.286	370.88
293.746	373.71
294.206	361.28
294.666	393.48
295.126	387.27
295.586	378.51
296.046	396.02
296.506	401.95
296.965	385.85
297.425	376.81
297.884	384.16
298.344	401.1
298.804	383.31
299.263	401.1
299.722	384.16
300.182	391.22
300.641	378.79
301.1	391.5
301.559	389.81
302.019	390.94
302.478	404.78
302.937	400.54
303.396	405.91
303.855	397.72
304.314	424.26
304.772	402.52
305.231	373.14
305.69	396.59
306.149	402.23
306.607	402.52
307.066	408.73
307.524	386.14
307.983	408.45
308.441	424.54
308.9	392.63
309.358	422.85
309.816	400.82
310.275	379.36
310.733	433.29
311.191	385.01
311.649	419.74
312.107	409.01
312.565	397.72
313.023	413.81
313.481	386.42
313.939	405.62
314.397	390.09
314.854	396.87
315.312	424.82
315.77	381.05
316.227	405.62
316.685	394.61
317.142	394.33
317.6	420.3
318.057	380.2
318.514	430.19
318.972	407.32
319.429	414.66
319.886	407.03
320.343	416.92
320.8	419.74
321.257	357.89
321.714	407.32
322.171	401.95
322.628	409.01
323.085	421.43
323.542	411.55
323.998	386.14
324.455	420.02
324.912	410.14
325.368	418.33
325.825	421.72
326.281	405.06
326.738	409.58
327.194	403.36
327.65	411.55
328.107	412.96
328.563	422.56
329.019	421.15
329.475	399.69
329.931	396.87
330.387	398
330.843	403.65
331.299	396.3
331.755	420.02
332.211	407.88
332.666	415.79
333.122	410.99
333.578	420.02
334.033	382.46
334.489	411.83
334.944	393.76
335.4	410.42
335.855	412.68
336.31	425.1
336.766	403.36
337.221	420.3
337.676	388.68
338.131	427.36
338.586	395.17
339.041	400.26
339.496	408.45
339.951	409.01
340.406	394.61
340.861	411.55
341.316	424.54
341.771	424.54
342.225	414.09
342.68	404.49
343.134	409.29
343.589	403.36
344.043	404.78
344.498	361.56
344.952	394.33
345.406	420.87
345.861	407.32
346.315	396.59
346.769	434.98
347.223	388.68
347.677	401.1
348.131	418.61
348.585	437.24
349.039	409.01
349.493	411.27
349.947	428.77
350.401	428.49
350.854	414.09
351.308	411.83
351.762	410.99
352.215	427.08
352.669	420.87
353.122	410.99
353.575	419.46
354.029	398.28
354.482	428.77
354.935	405.91
355.388	416.92
355.842	400.82
356.295	420.59
356.748	438.65
357.201	417.2
357.654	420.02
358.106	434.7
358.559	408.73
359.012	405.34
359.465	377.66
359.917	430.75
360.37	437.24
360.823	426.8
361.275	439.22
361.728	427.36
362.18	414.94
362.632	416.63
363.085	405.34
363.537	407.88
363.989	409.86
364.441	412.96
364.893	403.08
365.345	397.43
365.797	408.45
366.249	430.75
366.701	418.05
367.153	420.59
367.605	431.88
368.057	407.03
368.508	421.72
368.96	407.03
369.411	404.21
369.863	414.38
370.314	409.01
370.766	418.89
371.217	434.14
371.669	413.53
372.12	400.82
372.571	420.59
373.022	407.03
373.473	403.36
373.924	400.82
374.375	409.58
374.826	417.48
375.277	423.41
375.728	418.89
376.179	418.33
376.63	399.97
377.08	413.53
377.531	418.33
377.981	425.39
378.432	429.06
378.883	418.89
379.333	414.38
379.783	438.65
380.234	424.82
380.684	460.67
381.134	410.42
381.584	424.54
382.034	410.42
382.485	417.76
382.935	424.26
383.385	393.2
383.834	425.1
384.284	428.77
384.734	422.28
385.184	434.7
385.634	447.4
386.083	405.62
386.533	403.36
386.982	451.35
387.432	413.81
387.881	429.62
388.331	433.29
388.78	419.46
389.229	408.45
389.679	413.81
390.128	437.81
390.577	410.42
391.026	411.55
391.475	420.87
391.924	431.31
392.373	428.49
392.822	445.14
393.27	437.24
393.719	428.49
394.168	435.83
394.617	435.55
395.065	424.54
395.514	413.25
395.962	475.05
396.411	437.24
396.859	453.89
397.307	455.87
397.756	457.56
398.204	437.52
398.652	430.19
399.1	450.22
399.548	444.58
399.996	438.94
400.444	434.98
400.892	480.41
401.34	459.54
401.788	465.74
402.236	438.65
402.683	454.46
403.131	438.94
403.579	423.41
404.026	467.72
404.474	459.54
404.921	460.1
405.369	473.08
405.816	483.24
406.263	488.59
406.71	461.23
407.158	483.24
407.605	468.57
408.052	444.86
408.499	481.82
408.946	502.98
409.393	513.98
409.84	516.23
410.286	490
410.733	498.75
411.18	551.19
411.626	557.95
412.073	610.63
412.52	700.69
412.966	775.18
413.413	888.9
413.859	1070.21
414.305	1269.8
414.752	1593.24
415.198	1863.28
415.644	2297.35
416.09	2758.18
416.536	3293.85
416.982	3900.11
417.428	4613.28
417.874	5437.37
418.32	6271.94
418.766	7178.08
419.211	8205.32
419.657	9070.06
420.103	10320.66
420.548	11112.67
420.994	12470.84
421.439	13566.6
421.885	14618.92
422.33	16059.66
422.776	17176.8
423.221	18035.1
423.666	19298.83
424.111	20612.26
424.556	21592.09
425.001	23051.31
425.446	24291.51
425.891	25680.54
426.336	26487.21
426.781	27683.65
427.226	29820.36
427.671	30506.53
428.115	31201.91
428.56	32931.05
429.005	34589.53
429.449	34950.73
429.894	36309.67
430.338	37499.31
430.782	37555.91
431.227	39130.32
431.671	39561.82
432.115	40964.26
432.559	42036
433.003	41729.51
433.447	42794.06
433.891	42997.7
434.335	43541.76
434.779	44322.84
435.223	44574.58
435.667	44584.62
436.111	44944.28
436.554	45086.63
436.998	44577.59
437.442	44663.92
437.885	46663.18
438.328	45150.04
438.772	45483.1
439.215	46075.04
439.659	45699.11
440.102	45999.12
440.545	45368.65
440.988	45248.73
441.431	46094.28
441.874	45486.13
442.317	45948.53
442.76	45258.05
443.203	44828.67
443.646	45501.76
444.089	44981.99
444.531	45652.15
444.974	44261.2
445.417	45513.36
445.859	44638.57
446.302	45731.18
446.744	44934.47
447.186	46046.69
447.629	45067.25
448.071	45066.75
448.513	45156.84
448.956	46671.82
449.398	45735.73
449.84	44554.01
450.282	45248.73
450.724	45776.65
451.166	45618.07
451.607	45306.92
452.049	45328.83
452.491	46674.62
452.933	46045.68
453.374	46649.46
453.816	47162.72
454.257	46668.52
454.699	47665.49
455.14	47368.74
455.582	47250.5
456.023	47168.84
456.464	47459.99
456.905	47888.02
457.347	47942.44
457.788	46914.75
458.229	46990.14
458.67	48031.05
459.111	46292.87
459.552	46322.03
459.992	46230.53
460.433	46023.92
460.874	44904.56
461.315	46043.91
461.755	45161.12
462.196	44864.1
462.636	44167.79
463.077	43745.57
463.517	43818.3
463.957	43989.09
464.398	43620.92
464.838	43783.8
465.278	42764.45
465.718	42972.05
466.158	41771.15
466.598	42200.29
467.038	41788.5
467.478	42256.4
467.918	42415.62
468.358	41596.22
468.798	41529.1
469.237	41157.12
469.677	41243.2
470.117	41989.11
470.556	39503.98
470.996	40142.71
471.435	40314.36
471.874	41019.14
472.314	40689.03
472.753	39756.33
473.192	39922.37
473.631	39597.52
474.07	39638.63
474.509	39766.43
474.948	40070.23
475.387	39482.32
475.826	38405.87
476.265	40121.26
476.704	39641.34
477.143	40003.44
477.581	39702.15
478.02	40249.98
478.458	39141.13
478.897	39593.82
479.335	40744.1
479.774	40298.32
480.212	40404.65
480.65	40415.26
481.089	40042.63
481.527	39711.02
481.965	39075
482.403	41088.62
482.841	40764.36
483.279	40891.1
483.717	40854.29
484.155	40466.84
484.592	40910.87
485.03	40952.4
485.468	40021.18
485.905	40175.75
486.343	40666.55
486.781	40023.16
487.218	39376.27
487.655	39238.76
488.093	38605.46
488.53	40013.3
488.967	39195.48
489.405	38994.12
489.842	38140.37
490.279	38239.48
490.716	37804.17
491.153	38238.5
491.59	37579.43
492.027	36884.74
492.463	36668.93
492.9	35854.32
493.337	35809.12
493.773	35819.62
494.21	34900.69
494.647	34816.97
495.083	34235.26
495.519	33854.5
495.956	33746.46
496.392	33080.02
496.828	32836.21
497.265	32213.53
497.701	32269.85
498.137	31909.02
498.573	31264.09
499.009	31596.69
499.445	30801.2
499.881	30365.52
500.316	30680.71
500.752	29834.52
501.188	29481.04
501.624	29496.66
502.059	28263.59
502.495	28208.82
502.93	28108.56
503.366	28275.08
503.801	27651.11
504.236	27407.33
504.672	26934.95
505.107	26718.35
505.542	26032.25
505.977	26131.61
506.412	25598.77
506.847	25883.79
507.282	25374.54
507.717	25058.52
508.152	25064.18
508.587	24882
509.021	24340.74
509.456	23881.43
509.891	23881.92
510.325	23938.1
510.76	23459.9
511.194	23306.97
511.628	23365.93
512.063	22673.74
512.497	22821.45
512.931	22288.18
513.366	22138.57
513.8	22108.39
514.234	21364.69
514.668	21507.64
515.102	21673.56
515.536	20776.3
515.969	21055.84
516.403	20561.86
516.837	20218.39
517.271	20242.49
517.704	19902.49
518.138	19709.74
518.571	19507.2
519.005	19188.51
519.438	19136.95
519.871	18917.17
520.305	18584.79
520.738	18475.01
521.171	18028.35
521.604	18144.75
522.037	17878.94
522.47	17541.16
522.903	17289.2
523.336	17147.5
523.769	17042.82
524.202	16612.27
524.634	16622.3
525.067	16454.76
525.5	16265.55
525.932	16105.62
526.365	15745.57
526.797	15541.38
527.23	15717.16
527.662	15067.89
528.094	14945.19
528.527	14867.56
528.959	14664.33
529.391	14413.5
529.823	13964.07
530.255	13949.66
530.687	13547.61
531.119	13417.69
531.551	13363.47
531.982	13140.92
532.414	12954.47
532.846	12594.37
533.277	12479.23
533.709	12070.3
534.14	12093.22
534.572	11962.8
535.003	11824.65
535.435	11597.88
535.866	11421.96
536.297	11160.24
536.728	11132.11
537.159	10978.84
537.59	10775.24
538.022	10649.39
538.452	10407.71
538.883	10307.31
539.314	10191.43
539.745	10009.62
540.176	9835.36
540.606	9595.69
541.037	9535.59
541.468	9438.31
541.898	9345.87
542.328	9304.54
542.759	9135.76
543.189	8919.41
543.619	8807.5
544.05	8696.28
544.48	8535.15
544.91	8432.04
545.34	8284.66
545.77	8258.13
546.2	8084.53
546.63	7990.75
547.06	7961.82
547.489	7855.16
547.919	7569.22
548.349	7619.93
548.778	7587.52
549.208	7421.96
549.637	7314.61
550.067	7173.36
550.496	7181.22
550.926	7055.83
551.355	6868.29
551.784	6878.01
552.213	6769.67
552.642	6640.69
553.071	6603.82
553.5	6523.7
553.929	6394.19
554.358	6321.07
554.787	6275.63
555.216	6245.78
555.645	6113.04
556.073	6049.79
556.502	5946.77
556.93	5807.84
557.359	5810.76
557.787	5778.12
558.216	5646.15
558.644	5541.94
559.072	5572.26
559.5	5482.62
559.929	5488.21
560.357	5437.64
560.785	5299.91
561.213	5323.1
561.641	5229.78
562.068	5214.84
562.496	5132.9
562.924	5062.38
563.352	5108.6
563.779	5034.59
564.207	5024.43
564.634	4918.53
565.062	4989.94
565.489	4875.17
565.917	4854.29
566.344	4844.11
566.771	4772.85
567.198	4736.94
567.625	4672.85
568.053	4533.53
568.48	4564.95
568.907	4501.55
569.333	4493.22
569.76	4309.76
570.187	4329.15
570.614	4227.33
571.04	4379.74
571.467	4157.5
571.894	4080.87
572.32	3974.46
572.747	3923.37
573.173	3827.06
573.599	3816.77
574.026	3720.62
574.452	3669.11
574.878	3614.59
575.304	3563.03
575.73	3511.16
576.156	3485.89
576.582	3408.15
577.008	3350.2
577.434	3269.89
577.86	3227.11
578.285	3201.22
578.711	3170.68
579.137	3102.75
579.562	2962.9
579.988	3001.44
580.413	2953.88
580.838	2895.08
581.264	2881.95
581.689	2849.11
582.114	2804.75
582.539	2764.76
582.964	2735.71
583.39	2675.93
583.814	2657.82
584.239	2631.76
584.664	2596.89
585.089	2538.94
585.514	2482.87
585.939	2470.23
586.363	2377.78
586.788	2408.06
587.212	2382.46
587.637	2343.36
588.061	2294.05
588.485	2253.8
588.91	2240.84
589.334	2212.44
589.758	2174.08
590.182	2140.68
590.606	2106.71
591.03	2071.9
591.454	2046.2
591.878	2035.14
592.302	2032.93
592.726	1977.07
593.15	1995.32
593.573	1930.85
593.997	1900.67
594.42	1850.53
594.844	1912.3
595.267	1847.76
595.691	1820.32
596.114	1782.61
596.537	1787.32
596.96	1786.77
597.384	1763.75
597.807	1737.95
598.23	1723.79
598.653	1722.13
599.076	1696.31
599.499	1648.54
599.921	1608.53
600.344	1637.15
600.767	1647.71
601.189	1624.64
601.612	1614.64
602.034	1579.33
602.457	1571.55
602.879	1535.67
603.302	1576
603.724	1546.79
604.146	1532.88
604.568	1474.99
604.991	1511.18
605.413	1496.43
605.835	1501.44
606.257	1500.05
606.678	1491.97
607.1	1465.25
607.522	1491.14
607.944	1483.07
608.365	1460.79
608.787	1450.49
609.209	1434.33
609.63	1423.19
610.051	1424.3
610.473	1378.87
610.894	1393.65
611.315	1333.7
611.737	1338.44
612.158	1319.75
612.579	1359.36
613	1297.71
613.421	1301.89
613.842	1270.91
614.263	1232.66
614.683	1259.74
615.104	1237.4
615.525	1185.72
615.945	1213.66
616.366	1202.49
616.787	1193.54
617.207	1137.07
617.627	1139.87
618.048	1109.66
618.468	1118.89
618.888	1094.28
619.308	1096.79
619.728	1102.11
620.148	1034.65
620.568	1068.53
620.988	1041.09
621.408	1012.53
621.828	1021.77
622.248	1001.04
622.668	1021.21
623.087	1006.36
623.507	953.68
623.926	980.59
624.346	944.99
624.765	984.79
625.185	935.18
625.604	912.74
626.023	932.65
626.442	930.41
626.861	915.27
627.28	891.7
627.699	900.4
628.118	895.35
628.537	883.29
628.956	895.63
629.375	893.67
629.794	886.93
630.212	874.87
630.631	853.82
631.049	830.24
631.468	842.03
631.886	796.54
632.305	825.74
632.723	803.28
633.141	826.31
633.559	802.72
633.978	782.49
634.396	761.98
634.814	762.26
635.232	795.69
635.65	775.75
636.067	754.95
636.485	740.05
636.903	770.13
637.321	756.07
637.738	739.49
638.156	738.08
638.573	729.37
638.991	712.78
639.408	697.87
639.825	720.37
640.243	716.44
640.66	699.84
641.077	693.37
641.494	711.94
641.911	680.99
642.328	666.36
642.745	662.99
643.162	679.31
643.579	631.74
643.995	674.81
644.412	684.09
644.829	649.76
645.245	674.81
645.662	642.72
646.078	650.6
646.495	664.68
646.911	634.28
647.327	650.6
647.743	646.38
648.159	652.01
648.576	619.36
648.992	632.59
649.408	643
649.824	645.82
650.239	604.43
650.655	629.77
651.071	626.68
651.487	603.31
651.902	595.98
652.318	589.22
652.733	598.52
653.149	597.11
653.564	591.76
653.979	570.63
654.395	606.68
654.81	641.32
655.225	594.57
655.64	577.95
656.055	567.25
656.47	561.61
656.885	582.18
657.3	581.05
657.715	586.12
658.13	561.33
658.544	557.1
658.959	552.03
659.374	529.48
659.788	553.44
660.202	537.38
660.617	555.41
661.031	549.78
661.445	543.86
661.86	546.11
662.274	546.39
662.688	551.19
663.102	539.91
663.516	533.99
663.93	533.43
664.344	544.99
664.758	549.78
665.171	539.35
665.585	529.76
665.999	554
666.412	540.48
666.826	495.36
667.239	537.94
667.653	520.74
668.066	547.8
668.479	554
668.892	519.05
669.306	537.38
669.719	518.2
670.132	521.31
670.545	518.49
670.958	510.59
671.37	510.87
671.783	505.23
672.196	522.72
672.609	497.9
673.021	486.9
673.434	515.39
673.846	493.95
674.259	529.76
674.671	504.67
675.084	485.21
675.496	504.67
675.908	504.11
676.32	507.21
676.732	486.06
677.144	513.69
677.556	486.9
677.968	496.77
678.38	469.41
678.792	459.82
679.204	506.36
679.615	479.57
680.027	501.57
680.439	456.43
680.85	496.49
681.262	470.54
681.673	483.8
682.084	490.85
682.496	477.03
682.907	474.77
683.318	439.22
683.729	474.77
684.14	455.87
684.551	497.06
684.962	456.15
685.373	443.73
685.784	468
686.194	461.79
686.605	444.3
687.016	468.57
687.426	493.11
687.837	501.29
688.247	465.18
688.657	447.12
689.068	447.68
689.478	484.65
689.888	429.62
690.298	449.94
690.708	468.85
691.118	428.49
691.528	434.42
691.938	465.18
692.348	463.2
692.758	474.77
693.168	444.02
693.577	446.84
693.987	453.33
694.396	450.79
694.806	441.76
695.215	429.62
695.625	455.59
696.034	395.74
696.443	435.55
696.852	427.36
697.262	440.35
697.671	431.03
698.08	431.88
698.489	459.82
698.897	434.14
699.306	434.14
699.715	435.27
700.124	436.4
700.532	425.95
700.941	427.08
701.35	436.11
701.758	429.9
702.166	443.45
702.575	438.09
702.983	439.22
703.391	451.64
703.799	438.09
704.208	458.41
704.616	434.98
705.024	449.1
705.432	415.22
705.839	432.44
706.247	446.56
706.655	448.81
707.063	450.51
707.47	441.76
707.878	438.94
708.285	418.33
708.693	453.61
709.1	394.04
709.508	409.58
709.915	422
710.322	427.08
710.729	436.96
711.136	421.72
711.543	424.82
711.95	419.74
712.357	431.03
712.764	420.59
713.171	420.02
713.578	392.07
713.984	422.56
714.391	423.13
714.797	410.14
715.204	416.92
715.61	425.39
716.017	405.34
716.423	402.23
716.829	428.77
717.236	429.06
717.642	408.16
718.048	401.1
718.454	431.03
718.86	432.44
719.266	424.26
719.671	416.92
720.077	431.03
720.483	435.83
720.889	403.36
721.294	420.3
721.7	409.01
722.105	396.02
722.511	402.52
722.916	423.13
723.321	397.15
723.726	422.85
724.132	392.91
724.537	424.54
724.942	404.49
725.347	408.73
725.752	423.97
726.156	434.14
726.561	412.4
726.966	420.02
727.371	415.79
727.775	410.42
728.18	422.85
728.584	413.81
728.989	402.23
729.393	412.4
729.798	394.61
730.202	435.27
730.606	437.81
731.01	384.44
731.414	411.83
731.818	410.42
732.222	390.66
732.626	424.54
733.03	418.61
733.434	405.06
733.837	419.18
734.241	393.48
734.645	392.91
735.048	421.43
735.452	405.06
735.855	382.75
736.258	397.72
736.662	393.76
737.065	412.68
737.468	413.53
737.871	418.61
738.274	386.42
738.677	411.55
739.08	392.63
739.483	430.75
739.886	426.8
740.289	400.54
740.691	403.36
741.094	417.2
741.497	403.36
741.899	422
742.302	385.29
742.704	427.64
743.106	395.46
743.508	403.36
743.911	379.36
744.313	422.56
744.715	408.73
745.117	422.28
745.519	410.99
745.921	408.73
746.323	429.06
746.724	404.21
747.126	389.24
747.528	407.88
747.929	423.97
748.331	388.11
748.732	431.31
749.134	394.04
749.535	423.69
749.936	430.19
750.338	395.74
750.739	425.67
751.14	403.36
751.541	402.52
751.942	393.48
752.343	396.3
752.744	407.32
753.144	375.97
753.545	395.46
753.946	388.4
754.346	389.81
754.747	398
755.148	406.47
755.548	391.22
755.948	401.1
756.349	398.28
756.749	394.61
757.149	395.17
757.549	394.33
757.949	379.36
758.349	398.56
758.749	420.59
759.149	386.14
759.549	419.74
759.949	397.15
760.348	403.08
760.748	415.51
761.148	384.72
761.547	408.45
761.947	386.7
762.346	367.77
762.745	376.25
763.145	397.15
763.544	409.01
763.943	410.42
764.342	399.41
764.741	388.11
765.14	391.5
765.539	396.3
765.938	410.71
766.336	402.52
766.735	402.52
767.134	383.31
767.532	394.89
767.931	388.96
768.329	369.47
768.728	417.48
769.126	390.09
769.525	389.81
769.923	401.95
770.321	389.24
770.719	399.13
771.117	401.95
771.515	407.03
771.913	403.36
772.311	378.79
772.709	393.2
773.106	386.14
773.504	391.22
773.902	385.85
774.299	393.76
774.697	400.26
775.094	396.59
775.491	395.74
775.889	389.81
776.286	386.42
776.683	417.2
777.08	425.39
777.477	395.17
777.874	401.95
778.271	388.96
778.668	388.11
779.065	428.77
779.462	399.41
779.858	399.69
780.255	397.15
780.652	383.59
781.048	405.91
781.444	409.58
781.841	382.46
782.237	395.74
782.633	394.61
783.03	401.1
783.426	399.69
783.822	418.33
784.218	377.94
784.614	398.28
785.01	391.79
785.405	377.66
785.801	371.45
786.197	392.07
786.593	407.03
786.988	389.24
787.384	386.98
787.779	398.28
788.174	399.41
788.57	415.22
788.965	379.36
789.36	375.4
789.755	395.17
790.15	374.84
790.545	425.1
790.94	374.84
791.335	416.35
791.73	396.87
792.125	378.79
792.52	396.87
792.914	378.79
793.309	396.02
793.703	406.47
794.098	397.15
794.492	391.5
794.887	392.63
795.281	385.57
795.675	399.41
796.069	392.91
796.463	367.21
796.857	387.27
797.251	357.89
797.645	394.89
798.039	393.76
798.433	392.07
798.826	370.88
799.22	396.3
799.614	397.43
800.007	382.46
800.401	381.05
800.794	364.1
801.187	390.37
801.581	407.03
801.974	385.29
802.367	395.17
802.76	377.94
803.153	382.18
803.546	364.38
803.939	370.6
804.332	394.61
804.725	384.16
805.117	363.25
805.51	408.45
805.903	389.53
806.295	374.27
806.688	397.72
807.08	391.5
807.472	397.15
807.865	384.72
808.257	389.81
808.649	388.68
809.041	384.44
809.433	387.83
809.825	372.58
810.217	385.57
810.609	380.77
811.001	403.93
811.392	406.19
811.784	383.59
812.175	397.72
812.567	400.26
812.958	393.48
813.35	390.09
813.741	380.49
814.132	392.63
814.524	385.85
814.915	389.81
815.306	386.14
815.697	390.37
816.088	407.88
816.479	413.81
816.87	373.14
817.26	397.43
817.651	415.79
818.042	363.25
818.432	364.95
818.823	397.43
819.213	370.04
819.604	378.51
819.994	381.33
820.384	410.42
820.775	407.6
821.165	393.76
821.555	392.63
821.945	390.37
822.335	381.05
822.725	396.59
823.114	392.63
823.504	390.94
823.894	385.85
824.284	398
824.673	381.05
825.063	399.69
825.452	388.11
825.842	367.77
826.231	404.49
826.62	405.06
827.009	380.2
827.399	392.07
827.788	371.45
828.177	379.36
828.566	389.24
828.954	394.89
829.343	396.59
829.732	372.58
830.121	380.77
830.509	412.96
830.898	383.03
831.286	388.96
831.675	417.2
832.063	397.72
832.452	393.48
832.84	402.8
833.228	368.91
833.616	395.46
834.004	402.23
834.392	394.89
834.78	381.9
835.168	385.01
835.556	373.71
835.944	369.19
836.331	385.29
836.719	372.3
837.107	375.4
837.494	370.04
837.881	397.15
838.269	382.46
838.656	410.99
839.043	378.79
839.431	373.99
839.818	396.02
840.205	377.94
840.592	375.4
840.979	366.36
841.366	384.16
841.752	357.32
842.139	389.24
842.526	370.88
842.912	348.84
843.299	379.92
843.685	392.63
844.072	377.94
844.458	363.25
844.844	388.11
845.231	367.77
845.617	352.8
846.003	381.05
846.389	382.18
846.775	375.69
847.161	386.98
847.547	384.16
847.933	375.4
848.318	345.17
848.704	381.33
849.09	372.86
849.475	393.76
849.861	400.26
850.246	372.01
850.631	381.33
851.017	374.56
851.402	368.62
851.787	388.68
852.172	359.3
852.557	380.77
852.942	398.85
853.327	376.53
853.712	388.96
854.097	404.49
854.481	389.81
854.866	392.63
855.25	366.08
855.635	372.3
856.019	385.29
856.404	361.56
856.788	373.71
857.172	378.23
857.557	386.42
857.941	380.49
858.325	375.12
858.709	374.56
859.093	372.58
859.477	377.38
859.86	407.6
860.244	382.18
860.628	388.96
861.012	398.85
861.395	351.67
861.779	369.47
862.162	372.86
862.545	375.4
862.929	365.51
863.312	390.94
863.695	388.4
864.078	409.29
864.461	373.71
864.844	375.97
865.227	381.9
865.61	373.43
865.993	379.36
866.376	391.79
866.758	375.12
867.141	356.76
867.523	374.84
867.906	362.97
868.288	373.99
868.671	378.79
869.053	401.67
869.435	378.51
869.817	382.18
870.199	366.08
870.581	387.27
870.963	357.89
871.345	365.23
871.727	402.52
872.109	401.39
872.491	375.12
872.872	368.91
873.254	378.23
873.635	393.2
874.017	362.12
874.398	392.35
874.779	386.42
875.161	376.53
875.542	375.97
875.923	407.6
876.304	388.68
876.685	383.59
877.066	404.21
877.447	398.85
877.828	372.58
878.208	372.01
878.589	380.49
878.97	378.51
879.35	364.67
879.731	385.85
880.111	369.75
880.491	382.18
880.872	383.03
881.252	383.03
881.632	365.8
882.012	382.18
882.392	382.18
882.772	365.23
883.152	397.43
883.532	376.25
883.912	378.23
884.291	396.02
884.671	355.34
885.051	369.47
885.43	399.69
885.81	399.13
886.189	379.07
886.568	405.91
886.948	377.38
887.327	394.89
887.706	396.3
888.085	405.62
888.464	380.77
888.843	363.54
889.222	389.53
889.601	379.07
889.979	386.14
890.358	393.76
890.737	388.68
891.115	379.92
891.494	377.66
891.872	397.15
892.25	381.05
892.629	354.21
893.007	383.88
893.385	363.82
893.763	377.38
894.141	370.6
894.519	372.58
894.897	383.88
895.275	371.73
895.653	387.27
896.03	367.49
896.408	363.54
896.786	386.7
897.163	368.62
897.541	374.56
897.918	388.4
898.295	371.45
898.673	356.47
899.05	368.06
899.427	396.87
899.804	396.02
900.181	367.49
900.558	378.23
900.935	376.25
901.312	385.85
901.688	358.17
902.065	359.58
902.442	384.16
902.818	414.09
903.195	359.86
903.571	392.35
903.947	390.66
904.324	366.36
904.7	363.82
905.076	378.23
905.452	376.53
905.828	376.81
906.204	390.66
906.58	382.75
906.956	369.75
907.331	389.53
907.707	385.57
908.083	376.53
908.458	381.05
908.834	385.01
909.209	396.3
909.585	389.24
909.96	385.85
910.335	366.08
910.71	355.63
911.086	360.71
911.461	389.24
911.836	368.91
912.21	372.3
912.585	360.43
912.96	383.59
913.335	366.36
913.709	375.4
914.084	368.06
914.459	367.49
914.833	383.31
915.207	379.64
915.582	350.54
915.956	388.96
916.33	361.28
916.704	364.1
917.078	370.88
917.452	375.4
917.826	373.99
918.2	385.29
918.574	378.51
918.948	363.82
919.321	372.3
919.695	386.14
920.068	375.12
920.442	355.91
920.815	353.37
921.189	364.67
921.562	394.89
921.935	386.98
922.308	364.95
922.681	394.61
923.054	395.17
923.427	363.25
923.8	396.3
924.173	371.45
924.546	381.33
924.919	356.76
925.291	366.36
925.664	377.66
926.036	385.85
926.409	360.99
926.781	383.03
927.153	391.22
927.526	370.88
927.898	390.94
928.27	373.14
928.642	382.18
929.014	357.32
929.386	377.94
929.758	375.4
930.129	388.11
930.501	388.68
930.873	405.06
931.244	371.73
931.616	381.05
931.987	360.15
932.359	376.53
932.73	374.84
933.101	359.02
933.472	368.62
933.843	379.07
934.214	387.55
934.585	406.19
934.956	396.59
935.327	386.42
935.698	394.89
936.069	365.23
936.439	394.61
936.81	379.36
937.18	363.82
937.551	389.24
937.921	355.06
938.292	383.59
938.662	370.88
939.032	375.69
939.402	374.27
939.772	368.91
940.142	377.38
940.512	364.38
940.882	368.06
941.252	343.19
941.621	369.19
941.991	364.38
942.361	366.08
942.73	381.9
943.1	360.15
943.469	373.14
943.838	365.23
944.208	388.68
944.577	368.34
944.946	355.34
945.315	381.9
945.684	389.81
946.053	382.18
946.422	366.93
946.791	357.6
947.159	367.21
947.528	359.86
947.897	381.9
948.265	388.96
948.634	367.21
949.002	379.07
949.371	365.51
949.739	360.43
950.107	381.9
950.475	377.38
950.843	410.71
951.211	358.17
951.579	376.25
951.947	346.87
952.315	372.86
952.683	383.59
953.05	372.3
953.418	381.62
953.785	370.88
954.153	351.95
954.52	371.17
954.888	365.8
955.255	375.12
955.622	398.85
955.989	349.41
956.356	360.99
956.723	365.23
957.09	389.53
957.457	395.46
957.824	376.53
958.191	358.45
958.557	378.79
958.924	374.84
959.291	362.41
959.657	339.24
960.023	355.63
960.39	386.7
960.756	359.02
961.122	351.1
961.488	362.12
961.855	354.21
962.221	368.06
962.586	372.86
962.952	351.67
963.318	368.62
963.684	362.97
964.05	352.23
964.415	427.93
964.781	368.34
965.146	368.62
965.512	358.45
965.877	374.27
966.242	373.14
966.608	372.3
966.973	347.71
967.338	369.19
967.703	372.01
968.068	378.23
968.433	367.49
968.797	377.66
969.162	358.45
969.527	355.91
969.891	379.64
970.256	365.8
970.62	381.05
970.985	390.37
971.349	369.19
971.714	382.46
972.078	372.01
972.442	352.23
972.806	370.6
973.17	374.27
973.534	377.66
973.898	389.24
974.262	369.19
974.625	358.17
974.989	381.62
975.353	383.88
975.716	382.46
976.08	355.63
976.443	373.71
976.806	370.88
977.17	373.71
977.533	375.69
977.896	370.04
978.259	372.58
978.622	380.2
978.985	378.79
979.348	365.23
979.711	374.56
980.073	359.3
980.436	348.84
980.799	361.84
981.161	388.4
981.524	369.19
981.886	388.4
982.248	366.93
982.611	347.43
982.973	383.03
983.335	379.36
983.697	376.53
984.059	386.14
984.421	379.36
984.783	350.82
985.145	374.84
985.506	389.81
985.868	354.78
986.23	380.49
986.591	382.75
986.953	369.47
987.314	378.23
987.675	381.05
988.037	463.2
988.398	364.1
988.759	335.56
989.12	359.86
989.481	366.36
989.842	355.63
990.203	372.01
990.564	354.78
990.924	357.6
991.285	483.24
991.646	378.51
992.006	371.17
992.367	354.5
992.727	372.3
993.087	369.19
993.448	355.34
993.808	382.75
994.168	395.17
994.528	383.03
994.888	375.97
995.248	357.89
995.608	360.71
995.967	364.67
996.327	370.88
996.687	379.07
997.046	382.75
997.406	369.19
997.765	357.04
998.125	333.3
998.484	371.17
998.843	381.33
999.202	367.49
999.561	381.05
999.92	375.4
1000.279	349.97
1000.638	353.37
1000.997	357.6
1001.356	337.82
1001.715	380.77
1002.073	369.75
1002.432	359.02
1002.79	386.14
1003.149	365.8
1003.507	362.69
1003.865	378.23
1004.224	381.62
1004.582	369.47
1004.94	362.97
1005.298	357.89
1005.656	349.41
1006.014	353.08
1006.371	362.12
1006.729	349.97
1007.087	366.08
1007.445	371.17
1007.802	371.17
1008.16	347.71
1008.517	359.58
1008.874	354.21
1009.232	359.3
1009.589	385.29
1009.946	366.64
1010.303	362.69
1010.66	355.34
1011.017	365.23
1011.374	384.16
1011.731	368.06
1012.087	405.34
1012.444	381.62
1012.801	339.24
1013.157	333.02
1013.513	378.51
1013.87	381.9
1014.226	386.98
1014.582	389.53
1014.939	359.58
1015.295	363.54
1015.651	378.51
1016.007	372.3
1016.363	364.38
1016.719	378.23
1017.074	362.12
1017.43	387.55
1017.786	364.67
1018.141	347.15
1018.497	373.71
1018.852	370.6
1019.208	386.14
1019.563	362.69
1019.918	379.92
1020.273	365.51
1020.628	355.63
1020.983	381.05
1021.338	360.43
1021.693	383.03
1022.048	355.91
1022.403	397.15
1022.757	400.54
1023.112	359.3
1023.467	367.77
1023.821	357.04
1024.175	383.03
1024.53	375.69
1024.884	376.53
1025.238	363.54
1025.592	364.67
1025.946	365.51
1026.3	411.27
1026.654	373.99
1027.008	347.15
1027.362	375.12
1027.716	396.02
1028.069	366.64
1028.423	412.96
1028.777	398
1029.13	361.84
1029.483	362.69
1029.837	358.17
1030.19	366.93
1030.543	394.04
1030.896	371.45
1031.249	372.58
1031.602	373.71
1031.955	348.84
1032.308	366.93
1032.661	358.73
1033.013	351.39
1033.366	357.04
1033.719	363.25
1034.071	370.6
1034.424	361.56
1034.776	357.6
1035.128	374.27
1035.48	356.19
1035.833	366.64
1036.185	375.4
1036.537	375.4
1036.889	375.4
