Data from SCSF78-405_irradiation_FLMS019251_18-01-27-925.txt Node
Date: Fri Feb 22 18:01:27 PST 2019
User: mu3e
Spectrometer: FLMS01925
Trigger mode: 0
Integration Time (sec): 1.206000E-2
Scans to average: 10
Electric dark correction enabled: true
Nonlinearity correction enabled: true
Boxcar width: 0
XAxis mode: Wavelengths
Number of Pixels in Spectrum: 2048
>>>>>Begin Spectral Data<<<<<
187.103	-80.94
187.574	-80.94
188.045	-80.94
188.516	-125.87
188.987	-138.95
189.458	-151.75
189.929	-120.18
190.4	-101.7
190.871	-97.72
191.342	-95.16
191.813	-47.7
192.284	-41.16
192.754	-44
193.225	13.64
193.696	27.84
194.166	55.08
194.637	61.89
195.107	93.65
195.578	125.97
196.048	154.59
196.518	165.64
196.989	216.05
197.459	210.1
197.929	244.35
198.399	250.3
198.869	284.24
199.339	320.44
199.809	300.65
200.279	312.52
200.749	365.94
201.219	345.31
201.689	375.26
202.159	369.05
202.628	356.9
203.098	374.13
203.568	386.56
204.037	396.44
204.507	422.42
204.976	391.08
205.445	420.45
205.915	406.33
206.384	399.27
206.853	396.73
207.323	390.51
207.792	388.25
208.261	371.87
208.73	398.7
209.199	382.04
209.668	409.43
210.137	374.7
210.606	387.69
211.075	386.28
211.543	380.35
212.012	373
212.481	366.5
212.95	380.63
213.418	369.05
213.887	380.91
214.355	361.14
214.824	364.81
215.292	371.31
215.76	375.54
216.229	371.59
216.697	369.33
217.165	348.14
217.633	375.26
218.101	350.12
218.569	351.53
219.037	373.28
219.505	343.62
219.973	374.41
220.441	346.72
220.909	362.27
221.377	334.01
221.844	335.14
222.312	353.22
222.78	353.79
223.247	363.11
223.715	343.62
224.182	369.33
224.65	363.68
225.117	358.59
225.584	361.14
226.052	370.46
226.519	349.27
226.986	365.37
227.453	341.64
227.92	340.51
228.387	381.48
228.854	351.53
229.321	388.54
229.788	341.64
230.255	352.94
230.722	375.26
231.189	367.35
231.655	376.67
232.122	359.16
232.589	347.57
233.055	361.7
233.522	369.89
233.988	386
234.454	377.24
234.921	357.18
235.387	365.94
235.853	352.38
236.32	354.92
236.786	367.07
237.252	361.98
237.718	345.88
238.184	356.9
238.65	364.24
239.116	405.48
239.582	384.87
240.047	359.16
240.513	392.49
240.979	374.41
241.445	371.59
241.91	388.25
242.376	389.67
242.841	370.18
243.307	365.37
243.772	371.87
244.238	358.88
244.703	390.23
245.168	360.85
245.633	386.28
246.099	388.82
246.564	363.96
247.029	378.09
247.494	379.22
247.959	404.07
248.424	378.65
248.889	358.88
249.353	394.75
249.818	363.11
250.283	377.52
250.748	388.25
251.212	373.28
251.677	401.25
252.141	367.07
252.606	380.35
253.07	393.62
253.535	378.37
253.999	354.07
254.463	370.74
254.927	387.69
255.392	372.72
255.856	360.85
256.32	406.05
256.784	391.36
257.248	385.71
257.712	391.08
258.176	400.68
258.64	380.35
259.103	376.39
259.567	398.14
260.031	384.02
260.495	384.87
260.958	394.19
261.422	418.75
261.885	362.27
262.349	377.8
262.812	376.11
263.275	374.41
263.739	383.74
264.202	372.15
264.665	360.85
265.128	376.11
265.591	373.57
266.054	378.37
266.517	381.19
266.98	386
267.443	383.74
267.906	402.09
268.369	394.19
268.832	382.32
269.294	393.9
269.757	403.22
270.22	389.67
270.682	387.69
271.145	411.41
271.607	378.37
272.07	383.17
272.532	400.12
272.994	404.35
273.456	372.15
273.919	367.63
274.381	375.26
274.843	359.44
275.305	393.06
275.767	389.67
276.229	406.89
276.691	368.48
277.153	389.95
277.614	399.83
278.076	398.42
278.538	394.19
279	402.66
279.461	380.06
279.923	387.12
280.384	384.87
280.846	413.67
281.307	400.96
281.769	413.11
282.23	382.61
282.691	363.96
283.152	397.86
283.613	394.19
284.075	406.05
284.536	377.8
284.997	383.45
285.458	400.68
285.918	390.8
286.379	395.6
286.84	410.56
287.301	389.67
287.762	390.8
288.222	404.07
288.683	385.15
289.143	383.17
289.604	383.45
290.064	378.93
290.525	375.54
290.985	415.08
291.445	382.89
291.906	413.67
292.366	389.95
292.826	397.57
293.286	408.59
293.746	380.63
294.206	371.02
294.666	369.33
295.126	410.85
295.586	390.8
296.046	410.28
296.506	405.48
296.965	391.93
297.425	397.86
297.884	381.76
298.344	407.18
298.804	389.38
299.263	387.41
299.722	384.58
300.182	409.72
300.641	413.39
301.1	409.15
301.559	389.38
302.019	403.22
302.478	406.61
302.937	398.99
303.396	428.35
303.855	399.27
304.314	424.4
304.772	365.37
305.231	396.44
305.69	382.61
306.149	412.26
306.607	407.18
307.066	413.67
307.524	410.28
307.983	411.98
308.441	392.77
308.9	428.91
309.358	392.21
309.816	398.42
310.275	411.98
310.733	394.47
311.191	399.27
311.649	426.66
312.107	391.08
312.565	394.19
313.023	382.61
313.481	406.61
313.939	422.7
314.397	417.06
314.854	393.06
315.312	436.82
315.77	415.36
316.227	409.72
316.685	405.76
317.142	401.25
317.6	410
318.057	426.94
318.514	415.93
318.972	402.38
319.429	390.51
319.886	408.59
320.343	393.34
320.8	421.58
321.257	410
321.714	400.12
322.171	439.64
322.628	383.74
323.085	434.56
323.542	386.28
323.998	432.58
324.455	398.42
324.912	418.75
325.368	392.77
325.825	419.32
326.281	411.69
326.738	410.85
327.194	406.89
327.65	400.4
328.107	403.22
328.563	412.54
329.019	419.6
329.475	406.61
329.931	434.56
330.387	404.07
330.843	403.5
331.299	411.13
331.755	406.89
332.211	382.61
332.666	398.14
333.122	392.21
333.578	398.7
334.033	409.43
334.489	404.63
334.944	410
335.4	402.66
335.855	413.67
336.31	407.18
336.766	402.94
337.221	427.79
337.676	417.06
338.131	425.81
338.586	392.21
339.041	396.16
339.496	404.07
339.951	386.56
340.406	390.23
340.861	393.06
341.316	408.31
341.771	391.64
342.225	420.45
342.68	428.35
343.134	418.19
343.589	403.79
344.043	431.17
344.498	413.11
344.952	401.25
345.406	398.42
345.861	391.08
346.315	411.98
346.769	387.97
347.223	393.34
347.677	420.73
348.131	443.87
348.585	405.76
349.039	389.38
349.493	398.7
349.947	412.54
350.401	417.34
350.854	419.03
351.308	432.58
351.762	408.31
352.215	441.62
352.669	395.32
353.122	417.06
353.575	420.73
354.029	428.35
354.482	407.46
354.935	416.21
355.388	431.74
355.842	421.58
356.295	386
356.748	408.87
357.201	412.54
357.654	437.1
358.106	440.77
358.559	418.19
359.012	420.73
359.465	390.51
359.917	421.01
360.37	395.32
360.823	408.59
361.275	430.89
361.728	415.93
362.18	424.96
362.632	397.86
363.085	407.74
363.537	379.22
363.989	409.43
364.441	428.35
364.893	421.01
365.345	431.74
365.797	439.64
366.249	392.49
366.701	385.15
367.153	412.54
367.605	410
368.057	408.31
368.508	418.75
368.96	419.32
369.411	418.75
369.863	415.93
370.314	408.59
370.766	409.72
371.217	399.83
371.669	408.87
372.12	435.69
372.571	426.37
373.022	437.67
373.473	422.7
373.924	447.83
374.375	412.82
374.826	421.58
375.277	402.66
375.728	414.8
376.179	402.09
376.63	434.84
377.08	436.25
377.531	413.11
377.981	422.14
378.432	412.54
378.883	426.37
379.333	412.82
379.783	399.55
380.234	413.11
380.684	413.11
381.134	430.89
381.584	407.74
382.034	416.49
382.485	435.69
382.935	429.48
383.385	437.95
383.834	408.02
384.284	404.07
384.734	427.22
385.184	413.11
385.634	394.75
386.083	429.76
386.533	419.88
386.982	396.73
387.432	459.68
387.881	424.12
388.331	427.22
388.78	426.94
389.229	398.14
389.679	413.67
390.128	429.76
390.577	436.54
391.026	420.16
391.475	433.15
391.924	450.93
392.373	432.02
392.822	447.83
393.27	457.14
393.719	422.7
394.168	457.7
394.617	410.85
395.065	443.03
395.514	432.58
395.962	451.78
396.411	432.87
396.859	435.41
397.307	432.87
397.756	443.87
398.204	441.33
398.652	439.64
399.1	435.69
399.548	457.14
399.996	427.79
400.444	432.87
400.892	443.87
401.34	446.98
401.788	460.81
402.236	458.83
402.683	458.83
403.131	445.85
403.579	446.7
404.026	455.73
404.474	458.27
404.921	441.33
405.369	464.76
405.816	452.91
406.263	471.25
406.71	480.27
407.158	472.09
407.605	486.2
408.052	486.2
408.499	481.97
408.946	509.89
409.393	509.04
409.84	519.76
410.286	547.38
410.733	551.61
411.18	555.84
411.626	583.17
412.073	610.2
412.52	657.78
412.966	777.85
413.413	906.43
413.859	1072.87
414.305	1257.09
414.752	1543.87
415.198	1877.82
415.644	2295.84
416.09	2746.81
416.536	3288.54
416.982	3932.43
417.428	4631.93
417.874	5495.52
418.32	6257.54
418.766	7145.95
419.211	8222.88
419.657	9147.52
420.103	10297.67
420.548	11140.42
420.994	12435.11
421.439	13574.07
421.885	14585.75
422.33	16028.14
422.776	17042.45
423.221	18016.49
423.666	19203.58
424.111	20651.1
424.556	21495.87
425.001	22948.25
425.446	24259.87
425.891	25553.22
426.336	26355.66
426.781	27683.29
427.226	29770.69
427.671	30420.05
428.115	31168.62
428.56	32940.68
429.005	34497.9
429.449	34853.95
429.894	36159.69
430.338	37448.48
430.782	37440.15
431.227	39032.59
431.671	39454.88
432.115	40883.32
432.559	41851.35
433.003	41674.63
433.447	42657.36
433.891	43058.1
434.335	43427.33
434.779	44155.65
435.223	44361.56
435.667	44391.88
436.111	44887.09
436.554	44831.81
436.998	44424.72
437.442	44562.91
437.885	46659.75
438.328	45020.84
438.772	45521.56
439.215	45769.45
439.659	45608.35
440.102	45877.61
440.545	45101.6
440.988	45004.5
441.431	45873.31
441.874	45452.46
442.317	45570.76
442.76	45086.5
443.203	44605.07
443.646	45290.16
444.089	44832.31
444.531	45553.6
444.974	44260.08
445.417	45474.9
445.859	44424.72
446.302	45533.67
446.744	44798.39
447.186	45903.65
447.629	45038.45
448.071	44939.88
448.513	44983.88
448.956	46441.36
449.398	45626.53
449.84	44406.67
450.282	45111.66
450.724	45716.66
451.166	45371.55
451.607	45107.13
452.049	45273.04
452.491	46398.74
452.933	45917.81
453.374	46493.39
453.816	46908.26
454.257	46589.12
454.699	47547.85
455.14	47258.54
455.582	46990.26
456.023	47061.61
456.464	47264.92
456.905	47761.45
457.347	47733
457.788	46918.95
458.229	46854.55
458.67	47952.58
459.111	46037.45
459.552	46137.95
459.992	46052.89
460.433	45869.26
460.874	44920.52
461.315	45993.43
461.755	45038.7
462.196	44679.36
462.636	43832.42
463.077	43446.55
463.517	43662.75
463.957	43966.2
464.398	43530.16
464.838	43709.97
465.278	42497.25
465.718	42691.44
466.158	41751.2
466.598	42048.53
467.038	41733.85
467.478	42139.1
467.918	42298
468.358	41516.1
468.798	41293.56
469.237	41066.49
469.677	41077.86
470.117	41831.02
470.556	39405.92
470.996	40015.89
471.435	40179.82
471.874	40907.04
472.314	40422.54
472.753	39642.69
473.192	39770.74
473.631	39509.03
474.07	39717.3
474.509	39610.44
474.948	39956.49
475.387	39300.13
475.826	38410.41
476.265	40143.08
476.704	39551.36
477.143	39820.99
477.581	39667.07
478.02	40212.13
478.458	38951.97
478.897	39384.76
479.335	40530.89
479.774	40064.44
480.212	40295.98
480.65	40297.71
481.089	39996.66
481.527	39499.43
481.965	38863.75
482.403	40976.25
482.841	40634.33
483.279	40612.35
483.717	40801.54
484.155	40309.3
484.592	40654.33
485.03	40884.56
485.468	39824.93
485.905	40027.22
486.343	40501.27
486.781	39866.07
487.218	39273.07
487.655	39215.03
488.093	38566.79
488.53	39828.13
488.967	39007.03
489.405	38833.53
489.842	37973.71
490.279	38019.81
490.716	37653.56
491.153	38109.58
491.59	37514.87
492.027	36762.76
492.463	36394.64
492.9	35797.27
493.337	35695.39
493.773	35736.92
494.21	34918.14
494.647	34560.37
495.083	34182.45
495.519	33609.03
495.956	33554.9
496.392	32990.42
496.828	32766.11
497.265	32036.17
497.701	32166.85
498.137	31648.99
498.573	31208.37
499.009	31521.47
499.445	30679.12
499.881	30356.86
500.316	30552.03
500.752	29584.92
501.188	29547.33
501.624	29348.09
502.059	28193.54
502.495	28046.32
502.93	28102.81
503.366	28149.52
503.801	27631.65
504.236	27370
504.672	26938.26
505.107	26619.21
505.542	26059.61
505.977	26091.5
506.412	25498.7
506.847	25825.74
507.282	25188.42
507.717	24924.42
508.152	25015.14
508.587	24819.42
509.021	24034.29
509.456	23667.63
509.891	23842.13
510.325	23870.46
510.76	23373.7
511.194	23051.93
511.628	23318.93
512.063	22579.73
512.497	22699.06
512.931	22194.34
513.366	21978.88
513.8	21994.22
514.234	21328.14
514.668	21335.82
515.102	21504.04
515.536	20757.07
515.969	20847.13
516.403	20441.57
516.837	20034.87
517.271	20057.99
517.704	19738.47
518.138	19649.66
518.571	19476.47
519.005	19191.37
519.438	19099.2
519.871	18883.64
520.305	18449.43
520.738	18427.47
521.171	17930.79
521.604	18063.95
522.037	17770.84
522.47	17501.77
522.903	17168.66
523.336	17076.76
523.769	17014.64
524.202	16503.8
524.634	16608.38
525.067	16332.68
525.5	16092.18
525.932	15978.9
526.365	15697.42
526.797	15499.75
527.23	15578.98
527.662	15033.75
528.094	14887.85
528.527	14703.29
528.959	14577.42
529.391	14355.56
529.823	13834.97
530.255	13881.01
530.687	13588
531.119	13339.78
531.551	13294.42
531.982	12981.75
532.414	12889.37
532.846	12534.26
533.277	12403.07
533.709	12084.18
534.14	12014.39
534.572	11864.81
535.003	11741.9
535.435	11515.3
535.866	11318.87
536.297	11117.91
536.728	11117.4
537.159	11037.06
537.59	10737.7
538.022	10655.93
538.452	10528.46
538.883	10238.33
539.314	10191.56
539.745	9990.71
540.176	9866.91
540.606	9583.44
541.037	9609.49
541.468	9407.97
541.898	9334.63
542.328	9260.49
542.759	9002.65
543.189	8981.16
543.619	8813.33
544.05	8647.13
544.48	8469.32
544.91	8497.37
545.34	8320.67
545.77	8165.11
546.2	8143.77
546.63	7968.46
547.06	7860.77
547.489	7760.83
547.919	7529.09
548.349	7565.95
548.778	7474.16
549.208	7374.71
549.637	7193.68
550.067	7128.64
550.496	7163.26
550.926	7023.15
551.355	6792.95
551.784	6867.63
552.213	6717.18
552.642	6602.63
553.071	6658.73
553.5	6528.58
553.929	6267.84
554.358	6310.11
554.787	6206.79
555.216	6188.55
555.645	6031.92
556.073	6036.95
556.502	5908.47
556.93	5803.73
557.359	5687.46
557.787	5741.63
558.216	5579.57
558.644	5542.61
559.072	5544.74
559.5	5426.32
559.929	5450.81
560.357	5428.19
560.785	5336.56
561.213	5290.71
561.641	5219.24
562.068	5137.3
562.496	5160.53
562.924	5071.33
563.352	5034.19
563.779	5041.4
564.207	5043.81
564.634	4959.59
565.062	4944.08
565.489	4819.87
565.917	4867
566.344	4776.74
566.771	4764.68
567.198	4733.86
567.625	4641.32
568.053	4605.63
568.48	4619.05
568.907	4535
569.333	4484.22
569.76	4253.6
570.187	4306.66
570.614	4226.38
571.04	4293.47
571.467	4103.95
571.894	4081.55
572.32	3961.08
572.747	3932.43
573.173	3831.79
573.599	3753.54
574.026	3667.89
574.452	3625.31
574.878	3646.74
575.304	3569.95
575.73	3515.37
576.156	3476.52
576.582	3439.83
577.008	3347.35
577.434	3289.63
577.86	3180.36
578.285	3180.36
578.711	3131.81
579.137	3066.58
579.562	2953.47
579.988	2975.07
580.413	2907.8
580.838	2948.28
581.264	2887.29
581.689	2820.22
582.114	2761.88
582.539	2757.22
582.964	2720.22
583.39	2691.15
583.814	2620.64
584.239	2641.5
584.664	2578.09
585.089	2542.38
585.514	2478.06
585.939	2492.36
586.363	2433.78
586.788	2370.21
587.212	2366.35
587.637	2311.82
588.061	2305.76
588.485	2241.26
588.91	2220.3
589.334	2197.95
589.758	2151.31
590.182	2165.67
590.606	2123.7
591.03	2060.44
591.454	2012.06
591.878	2012.61
592.302	1981.63
592.726	1994.08
593.15	1953.68
593.573	1901.36
593.997	1899.98
594.42	1878.1
594.844	1859.26
595.267	1847.34
595.691	1833.76
596.114	1815.75
596.537	1753.07
596.96	1760
597.384	1733.64
597.807	1730.31
598.23	1729.76
598.653	1732.26
599.076	1709.22
599.499	1679.23
599.921	1666.18
600.344	1614.5
600.767	1627.56
601.189	1608.11
601.612	1610.61
602.034	1578.92
602.457	1590.59
602.879	1556.39
603.302	1560.28
603.724	1521.06
604.146	1551.38
604.568	1531.91
604.991	1525.79
605.413	1536.08
605.835	1538.03
606.257	1509.09
606.678	1490.72
607.1	1503.53
607.522	1475.41
607.944	1463.16
608.365	1469.01
608.787	1415.52
609.209	1411.62
609.63	1429.18
610.051	1389.88
610.473	1371.76
610.894	1360.89
611.315	1354.48
611.737	1372.88
612.158	1307.61
612.579	1278.59
613	1298.4
613.421	1263.23
613.842	1264.91
614.263	1261.84
614.683	1264.07
615.104	1246.48
615.525	1196.76
615.945	1202.63
616.366	1176.08
616.787	1178.59
617.207	1134.98
617.627	1147.56
618.048	1113.16
618.468	1098.61
618.888	1106.45
619.308	1093.3
619.728	1068.39
620.148	1071.19
620.568	1073.43
620.988	1022.19
621.408	1010.15
621.828	1045.71
622.248	1019.67
622.668	979.89
623.087	986.61
623.507	976.52
623.926	1010.15
624.346	974
624.765	952.42
625.185	959.43
625.604	952.14
626.023	897.46
626.442	897.74
626.861	908.96
627.28	891
627.699	945.41
628.118	918.77
628.537	873.33
628.956	874.17
629.375	852.84
629.794	821.67
630.212	858.73
630.631	824.2
631.049	841.33
631.468	816.06
631.886	814.65
632.305	828.41
632.723	821.39
633.141	799.49
633.559	812.12
633.978	787.69
634.396	798.08
634.814	801.73
635.232	761.27
635.65	773.08
636.067	767.46
636.485	771.67
636.903	769.14
637.321	749.19
637.738	764.93
638.156	729.23
638.573	728.95
638.991	719.11
639.408	718.83
639.825	743.29
640.243	695.48
640.66	705.61
641.077	702.23
641.494	696.61
641.911	694.08
642.328	718.54
642.745	679.17
643.162	653.84
643.579	687.32
643.995	683.39
644.412	659.47
644.829	642.86
645.245	650.46
645.662	644.55
646.078	643.71
646.495	667.63
646.911	657.22
647.327	623.44
647.743	639.2
648.159	646.8
648.576	647.37
648.992	618.65
649.408	614.99
649.824	619.22
650.239	633.57
650.655	634.7
651.071	615.27
651.487	614.99
651.902	611.61
652.318	603.45
652.733	610.2
653.149	604.57
653.564	594.72
653.979	594.15
654.395	559.5
654.81	586.55
655.225	583.73
655.64	592.18
656.055	564.57
656.47	589.08
656.885	581.48
657.3	585.42
657.715	573.59
658.13	559.5
658.544	561.19
658.959	563.16
659.374	549.35
659.788	542.87
660.202	575.56
660.617	563.73
661.031	547.94
661.445	543.44
661.86	547.66
662.274	558.94
662.688	534.7
663.102	518.35
663.516	533.85
663.93	545.97
664.344	519.47
664.758	531.03
665.171	540.62
665.585	552.74
665.999	521.45
666.412	532.16
666.826	507.63
667.239	555.84
667.653	533.85
668.066	536.39
668.479	535.54
668.892	524.55
669.306	518.06
669.719	512.14
670.132	524.27
670.545	533.29
670.958	521.17
671.37	521.73
671.783	499.17
672.196	503.97
672.609	511.58
673.021	511.3
673.434	525.96
673.846	506.22
674.259	492.4
674.671	512.42
675.084	492.12
675.496	501.71
675.908	479.14
676.32	489.3
676.732	484.79
677.144	472.94
677.556	490.43
677.968	486.2
678.38	471.53
678.792	488.45
679.204	490.15
679.615	489.3
680.027	494.38
680.439	490.15
680.85	495.79
681.262	481.68
681.673	493.81
682.084	479.43
682.496	471.81
682.907	450.65
683.318	468.71
683.729	499.45
684.14	509.61
684.551	474.35
684.962	474.63
685.373	478.02
685.784	461.09
686.194	460.52
686.605	471.81
687.016	468.14
687.426	458.55
687.837	461.94
688.247	457.7
688.657	438.23
689.068	463.63
689.478	479.71
689.888	461.37
690.298	461.94
690.708	457.42
691.118	457.14
691.528	439.92
691.938	445.57
692.348	457.14
692.758	444.72
693.168	464.76
693.577	437.95
693.987	429.48
694.396	450.37
694.806	468.71
695.215	462.78
695.625	444.16
696.034	433.71
696.443	433.15
696.852	459.68
697.262	451.78
697.671	423.27
698.08	432.3
698.489	439.08
698.897	448.11
699.306	426.66
699.715	455.16
700.124	429.2
700.532	433.43
700.941	441.9
701.35	453.19
701.758	447.83
702.166	447.54
702.575	422.14
702.983	453.19
703.391	444.44
703.799	432.02
704.208	417.62
704.616	434.56
705.024	461.09
705.432	449.52
705.839	425.81
706.247	432.87
706.655	464.76
707.063	429.76
707.47	430.33
707.878	415.36
708.285	430.61
708.693	441.62
709.1	427.5
709.508	421.58
709.915	427.5
710.322	417.34
710.729	424.68
711.136	462.22
711.543	426.09
711.95	421.29
712.357	437.67
712.764	443.87
713.171	422.14
713.578	443.87
713.984	426.94
714.391	403.22
714.797	392.49
715.204	435.69
715.61	410.28
716.017	413.11
716.423	406.05
716.829	430.89
717.236	416.21
717.642	431.17
718.048	404.92
718.454	434.56
718.86	421.01
719.266	408.02
719.671	399.83
720.077	411.69
720.483	374.98
720.889	384.87
721.294	422.99
721.7	429.76
722.105	433.15
722.511	443.03
722.916	446.98
723.321	398.14
723.726	419.88
724.132	406.05
724.537	450.08
724.942	425.25
725.347	402.66
725.752	415.65
726.156	426.94
726.561	391.36
726.966	401.81
727.371	415.08
727.775	431.74
728.18	400.4
728.584	412.26
728.989	393.62
729.393	432.02
729.798	417.34
730.202	398.99
730.606	393.9
731.01	376.67
731.414	425.25
731.818	408.87
732.222	391.08
732.626	400.68
733.03	417.34
733.434	426.66
733.837	398.7
734.241	430.61
734.645	403.5
735.048	415.93
735.452	405.76
735.855	405.48
736.258	399.55
736.662	400.96
737.065	403.22
737.468	416.49
737.871	437.1
738.274	399.55
738.677	411.98
739.08	407.18
739.483	407.18
739.886	403.5
740.289	416.78
740.691	407.18
741.094	386.84
741.497	417.9
741.899	409.72
742.302	413.11
742.704	402.66
743.106	387.97
743.508	409.15
743.911	417.34
744.313	414.23
744.715	412.82
745.117	406.33
745.519	413.39
745.921	415.93
746.323	386
746.724	388.25
747.126	407.74
747.528	432.3
747.929	390.51
748.331	404.35
748.732	383.17
749.134	404.07
749.535	396.73
749.936	420.16
750.338	418.19
750.739	422.42
751.14	421.29
751.541	404.07
751.942	403.79
752.343	409.72
752.744	408.02
753.144	401.53
753.545	413.39
753.946	413.95
754.346	413.39
754.747	425.25
755.148	393.34
755.548	389.67
755.948	424.68
756.349	384.3
756.749	403.5
757.149	402.38
757.549	426.66
757.949	383.17
758.349	392.49
758.749	392.49
759.149	361.7
759.549	394.19
759.949	409.72
760.348	386
760.748	400.68
761.148	393.06
761.547	405.76
761.947	421.58
762.346	427.5
762.745	398.7
763.145	389.95
763.544	396.16
763.943	399.27
764.342	396.73
764.741	416.49
765.14	444.16
765.539	399.27
765.938	380.63
766.336	374.13
766.735	404.63
767.134	400.96
767.532	410
767.931	388.82
768.329	374.7
768.728	410.56
769.126	390.51
769.525	400.4
769.923	380.63
770.321	408.59
770.719	419.88
771.117	391.64
771.515	417.9
771.913	366.22
772.311	399.27
772.709	382.61
773.106	400.68
773.504	398.99
773.902	404.35
774.299	406.05
774.697	406.61
775.094	391.08
775.491	360.29
775.889	390.51
776.286	378.37
776.683	394.47
777.08	369.89
777.477	391.08
777.874	409.72
778.271	387.97
778.668	380.35
779.065	396.16
779.462	389.67
779.858	398.14
780.255	402.66
780.652	408.02
781.048	401.53
781.444	372.15
781.841	376.96
782.237	402.66
782.633	385.71
783.03	372.15
783.426	387.97
783.822	391.93
784.218	402.94
784.614	377.24
785.01	403.79
785.405	376.11
785.801	395.32
786.197	380.06
786.593	375.26
786.988	386
787.384	402.94
787.779	383.74
788.174	386
788.57	393.06
788.965	407.18
789.36	404.92
789.755	404.07
790.15	354.35
790.545	389.38
790.94	369.61
791.335	390.51
791.73	398.14
792.125	431.17
792.52	386
792.914	406.61
793.309	418.19
793.703	383.74
794.098	409.43
794.492	393.34
794.887	398.99
795.281	410
795.675	389.67
796.069	361.42
796.463	413.11
796.857	406.89
797.251	407.74
797.645	373.28
798.039	384.02
798.433	364.24
798.826	374.98
799.22	388.54
799.614	394.47
800.007	438.51
800.401	402.09
800.794	389.38
801.187	406.33
801.581	386.56
801.974	395.6
802.367	392.77
802.76	376.39
803.153	380.91
803.546	397.86
803.939	387.69
804.332	391.36
804.725	400.96
805.117	404.92
805.51	393.62
805.903	381.48
806.295	387.97
806.688	391.36
807.08	350.96
807.472	387.12
807.865	408.59
808.257	398.7
808.649	374.98
809.041	362.83
809.433	401.25
809.825	402.94
810.217	401.53
810.609	378.09
811.001	376.39
811.392	398.99
811.784	393.34
812.175	393.9
812.567	374.7
812.958	398.7
813.35	406.05
813.741	397.01
814.132	405.76
814.524	384.02
814.915	389.38
815.306	379.78
815.697	391.64
816.088	376.11
816.479	387.97
816.87	369.33
817.26	387.97
817.651	403.5
818.042	376.67
818.432	388.54
818.823	391.93
819.213	380.91
819.604	398.99
819.994	410
820.384	395.6
820.775	416.49
821.165	387.12
821.555	403.79
821.945	395.32
822.335	399.83
822.725	365.94
823.114	398.42
823.504	385.71
823.894	378.65
824.284	420.16
824.673	399.83
825.063	364.81
825.452	384.58
825.842	365.09
826.231	393.06
826.62	399.55
827.009	382.04
827.399	379.5
827.788	383.45
828.177	397.57
828.566	380.91
828.954	378.65
829.343	402.94
829.732	376.11
830.121	395.88
830.509	411.69
830.898	385.71
831.286	402.38
831.675	383.45
832.063	374.13
832.452	405.48
832.84	385.15
833.228	384.87
833.616	385.71
834.004	402.94
834.392	383.45
834.78	402.38
835.168	362.55
835.556	390.51
835.944	400.12
836.331	403.79
836.719	374.41
837.107	381.19
837.494	399.83
837.881	382.32
838.269	396.44
838.656	378.37
839.043	402.66
839.431	406.33
839.818	353.51
840.205	392.21
840.592	384.58
840.979	404.92
841.366	390.51
841.752	397.29
842.139	398.99
842.526	385.15
842.912	429.2
843.299	387.97
843.685	398.7
844.072	396.44
844.458	389.95
844.844	386.56
845.231	392.49
845.617	406.05
846.003	411.98
846.389	389.95
846.775	357.74
847.161	400.12
847.547	395.6
847.933	391.93
848.318	384.87
848.704	371.02
849.09	394.19
849.475	367.35
849.861	379.22
850.246	406.05
850.631	391.36
851.017	368.2
851.402	396.44
851.787	402.09
852.172	388.25
852.557	388.25
852.942	384.02
853.327	356.9
853.712	376.96
854.097	382.32
854.481	371.31
854.866	392.49
855.25	374.41
855.635	388.25
856.019	387.69
856.404	378.37
856.788	395.03
857.172	386.84
857.557	380.91
857.941	386
858.325	398.7
858.709	378.65
859.093	377.8
859.477	372.15
859.86	379.78
860.244	389.95
860.628	391.36
861.012	364.81
861.395	375.83
861.779	396.44
862.162	392.21
862.545	405.76
862.929	407.18
863.312	383.45
863.695	389.95
864.078	361.7
864.461	388.54
864.844	369.61
865.227	382.04
865.61	396.44
865.993	387.41
866.376	363.96
866.758	347.01
867.141	401.25
867.523	392.49
867.906	369.61
868.288	367.92
868.671	386.28
869.053	382.04
869.435	378.93
869.817	401.25
870.199	377.52
870.581	384.58
870.963	406.89
871.345	403.5
871.727	365.37
872.109	380.91
872.491	406.61
872.872	401.25
873.254	417.06
873.635	369.61
874.017	377.52
874.398	385.71
874.779	372.44
875.161	360.85
875.542	363.68
875.923	372.15
876.304	394.47
876.685	397.29
877.066	414.23
877.447	368.48
877.828	373.85
878.208	389.67
878.589	395.6
878.97	354.35
879.35	388.25
879.731	401.25
880.111	384.87
880.491	347.01
880.872	361.42
881.252	386.28
881.632	378.09
882.012	386.28
882.392	366.79
882.772	360.85
883.152	406.33
883.532	361.98
883.912	396.16
884.291	390.8
884.671	367.63
885.051	395.32
885.43	381.19
885.81	360.57
886.189	382.89
886.568	357.46
886.948	395.03
887.327	389.67
887.706	384.02
888.085	392.21
888.464	375.83
888.843	396.73
889.222	377.8
889.601	395.32
889.979	367.35
890.358	392.21
890.737	390.8
891.115	379.5
891.494	380.06
891.872	383.45
892.25	375.54
892.629	396.44
893.007	377.52
893.385	394.19
893.763	400.12
894.141	374.98
894.519	361.7
894.897	387.12
895.275	421.01
895.653	386.56
896.03	387.69
896.408	402.38
896.786	371.02
897.163	390.8
897.541	378.93
897.918	365.94
898.295	384.3
898.673	387.41
899.05	402.38
899.427	399.83
899.804	395.32
900.181	370.74
900.558	359.44
900.935	396.16
901.312	370.46
901.688	383.74
902.065	376.67
902.442	382.32
902.818	347.29
903.195	373
903.571	371.02
903.947	400.68
904.324	391.64
904.7	415.36
905.076	384.58
905.452	395.32
905.828	383.45
906.204	399.55
906.58	387.41
906.956	376.39
907.331	378.37
907.707	370.46
908.083	387.69
908.458	403.5
908.834	383.45
909.209	390.23
909.585	407.18
909.96	385.43
910.335	378.93
910.71	406.33
911.086	401.53
911.461	360.85
911.836	387.12
912.21	393.06
912.585	368.48
912.96	390.23
913.335	367.07
913.709	389.1
914.084	376.67
914.459	369.89
914.833	370.18
915.207	381.19
915.582	392.49
915.956	350.96
916.33	390.51
916.704	383.45
917.078	383.17
917.452	383.45
917.826	406.61
918.2	388.54
918.574	384.3
918.948	355.77
919.321	387.97
919.695	373.57
920.068	395.03
920.442	392.21
920.815	385.71
921.189	355.77
921.562	375.26
921.935	353.51
922.308	379.78
922.681	391.08
923.054	410.56
923.427	363.96
923.8	361.14
924.173	393.34
924.546	383.45
924.919	372.44
925.291	367.92
925.664	374.98
926.036	368.48
926.409	363.68
926.781	385.71
927.153	374.13
927.526	383.74
927.898	356.05
928.27	377.24
928.642	361.98
929.014	387.41
929.386	376.67
929.758	357.74
930.129	380.91
930.501	378.93
930.873	356.61
931.244	352.09
931.616	375.83
931.987	385.43
932.359	389.1
932.73	400.4
933.101	403.5
933.472	400.12
933.843	408.59
934.214	382.04
934.585	360.29
934.956	382.61
935.327	362.83
935.698	376.11
936.069	373.28
936.439	382.89
936.81	363.68
937.18	388.54
937.551	366.79
937.921	405.48
938.292	404.35
938.662	376.96
939.032	382.61
939.402	375.26
939.772	371.59
940.142	344.18
940.512	366.5
940.882	379.5
941.252	360.57
941.621	399.27
941.991	386.28
942.361	392.21
942.73	368.2
943.1	393.34
943.469	381.48
943.838	363.96
944.208	380.63
944.577	356.33
944.946	393.34
945.315	386
945.684	375.54
946.053	356.05
946.422	388.25
946.791	376.96
947.159	380.06
947.528	384.02
947.897	359.72
948.265	384.3
948.634	369.89
949.002	342.49
949.371	394.47
949.739	370.74
950.107	387.12
950.475	387.69
950.843	383.74
951.211	383.45
951.579	366.79
951.947	377.8
952.315	386.84
952.683	356.33
953.05	381.48
953.418	373.28
953.785	379.22
954.153	363.96
954.52	360.01
954.888	385.15
955.255	357.46
955.622	377.8
955.989	381.19
956.356	362.55
956.723	363.4
957.09	367.63
957.457	380.91
957.824	356.33
958.191	366.22
958.557	380.35
958.924	365.09
959.291	375.54
959.657	352.09
960.023	360.85
960.39	356.61
960.756	365.37
961.122	385.15
961.488	377.52
961.855	382.32
962.221	389.38
962.586	368.76
962.952	384.02
963.318	376.67
963.684	394.19
964.05	376.39
964.415	384.87
964.781	361.42
965.146	364.53
965.512	373.28
965.877	364.24
966.242	387.97
966.608	391.64
966.973	365.37
967.338	381.19
967.703	354.92
968.068	392.49
968.433	387.97
968.797	374.41
969.162	353.79
969.527	377.52
969.891	371.31
970.256	383.45
970.62	374.41
970.985	401.25
971.349	386.84
971.714	391.08
972.078	364.24
972.442	373.28
972.806	368.48
973.17	373
973.534	398.7
973.898	369.05
974.262	348.99
974.625	385.15
974.989	371.87
975.353	374.13
975.716	380.35
976.08	360.01
976.443	371.87
976.806	382.89
977.17	381.76
977.533	385.71
977.896	385.71
978.259	394.75
978.622	381.19
978.985	364.53
979.348	399.55
979.711	373.85
980.073	377.24
980.436	398.99
980.799	374.7
981.161	402.09
981.524	362.27
981.886	369.05
982.248	355.77
982.611	386
982.973	371.31
983.335	346.16
983.697	376.67
984.059	368.48
984.421	376.96
984.783	381.76
985.145	387.97
985.506	391.36
985.868	374.13
986.23	380.91
986.591	387.69
986.953	382.89
987.314	372.15
987.675	373.57
988.037	473.78
988.398	375.83
988.759	380.06
989.12	376.39
989.481	363.96
989.842	358.88
990.203	373
990.564	350.4
990.924	379.22
991.285	491.56
991.646	394.19
992.006	380.35
992.367	373.85
992.727	345.88
993.087	359.72
993.448	350.68
993.808	381.76
994.168	363.68
994.528	344.46
994.888	371.59
995.248	376.67
995.608	380.35
995.967	370.18
996.327	341.64
996.687	366.5
997.046	381.19
997.406	370.74
997.765	343.33
998.125	375.26
998.484	366.22
998.843	378.65
999.202	371.87
999.561	351.25
999.92	359.44
1000.279	393.62
1000.638	373.28
1000.997	367.63
1001.356	370.18
1001.715	395.88
1002.073	376.39
1002.432	378.65
1002.79	371.31
1003.149	353.22
1003.507	360.29
1003.865	376.11
1004.224	363.96
1004.582	371.59
1004.94	389.1
1005.298	360.29
1005.656	378.09
1006.014	388.54
1006.371	397.29
1006.729	365.94
1007.087	393.9
1007.445	360.29
1007.802	383.17
1008.16	375.54
1008.517	371.87
1008.874	359.16
1009.232	374.41
1009.589	379.22
1009.946	349.55
1010.303	355.48
1010.66	398.14
1011.017	370.74
1011.374	403.22
1011.731	343.9
1012.087	382.04
1012.444	347.57
1012.801	369.05
1013.157	368.76
1013.513	356.33
1013.87	354.35
1014.226	386.84
1014.582	358.59
1014.939	363.11
1015.295	367.07
1015.651	368.2
1016.007	357.46
1016.363	378.37
1016.719	367.63
1017.074	378.09
1017.43	378.09
1017.786	369.05
1018.141	356.33
1018.497	381.76
1018.852	384.58
1019.208	385.71
1019.563	367.92
1019.918	360.01
1020.273	391.93
1020.628	378.93
1020.983	387.41
1021.338	348.99
1021.693	366.79
1022.048	379.22
1022.403	366.22
1022.757	371.59
1023.112	364.53
1023.467	375.26
1023.821	360.01
1024.175	350.96
1024.53	381.48
1024.884	372.15
1025.238	358.59
1025.592	349.55
1025.946	351.81
1026.3	378.37
1026.654	382.32
1027.008	364.53
1027.362	385.71
1027.716	369.33
1028.069	344.75
1028.423	387.41
1028.777	349.55
1029.13	358.88
1029.483	379.5
1029.837	352.38
1030.19	357.46
1030.543	393.62
1030.896	371.87
1031.249	367.35
1031.602	383.45
1031.955	383.74
1032.308	360.01
1032.661	380.63
1033.013	374.41
1033.366	358.03
1033.719	362.27
1034.071	369.61
1034.424	380.35
1034.776	385.15
1035.128	340.22
1035.48	350.96
1035.833	352.66
1036.185	382.61
1036.537	382.61
1036.889	382.61
