Data from SCSF78-405_irradiation_FLMS019251_11-39-27-918.txt Node
Date: Fri Feb 22 11:39:27 PST 2019
User: mu3e
Spectrometer: FLMS01925
Trigger mode: 0
Integration Time (sec): 1.206000E-2
Scans to average: 10
Electric dark correction enabled: true
Nonlinearity correction enabled: true
Boxcar width: 0
XAxis mode: Wavelengths
Number of Pixels in Spectrum: 2048
>>>>>Begin Spectral Data<<<<<
187.103	-73.87
187.574	-73.87
188.045	-73.87
188.516	-111.11
188.987	-113.39
189.458	-123.34
189.929	-144.39
190.4	-108.84
190.871	-110.55
191.342	-94.62
191.813	-78.42
192.284	-55.69
192.754	-9.1
193.225	32.91
193.696	32.63
194.166	36.6
194.637	89.93
195.107	108.36
195.578	113.75
196.048	142.66
196.518	167.02
196.989	182.6
197.459	183.73
197.929	240.36
198.399	264.69
198.869	293.26
199.339	329.17
199.809	335.95
200.279	361.67
200.749	369.86
201.219	357.71
201.689	344.15
202.159	384.27
202.628	392.74
203.098	389.91
203.568	393.59
204.037	397.82
204.507	376.36
204.976	398.95
205.445	387.65
205.915	419
206.384	382.29
206.853	411.38
207.323	390.48
207.792	407.42
208.261	393.87
208.73	391.33
209.199	373.53
209.668	391.89
210.137	377.77
210.606	385.11
211.075	379.46
211.543	401.78
212.012	356.3
212.481	365.06
212.95	357.43
213.418	402.06
213.887	379.75
214.355	385.68
214.824	367.03
215.292	374.66
215.76	367.03
216.229	351.49
216.697	380.88
217.165	357.99
217.633	359.97
218.101	353.75
218.569	347.82
219.037	383.14
219.505	363.08
219.973	357.14
220.441	365.9
220.909	375.79
221.377	370.42
221.844	367.32
222.312	357.99
222.78	365.06
223.247	397.82
223.715	355.73
224.182	375.51
224.65	377.77
225.117	351.21
225.584	376.07
226.052	377.2
226.519	361.67
226.986	365.34
227.453	348.95
227.92	373.81
228.387	358.56
228.854	380.59
229.321	369.86
229.788	364.49
230.255	379.18
230.722	383.14
231.189	344.71
231.655	377.49
232.122	376.92
232.589	392.74
233.055	367.32
233.522	377.2
233.988	361.38
234.454	363.93
234.921	383.14
235.387	393.02
235.853	395.28
236.32	340.47
236.786	370.14
237.252	390.2
237.718	374.94
238.184	375.79
238.65	383.42
239.116	392.46
239.582	369.86
240.047	383.14
240.513	376.92
240.979	378.05
241.445	387.37
241.91	363.08
242.376	360.82
242.841	372.12
243.307	390.76
243.772	382.57
244.238	378.62
244.703	392.46
245.168	382.57
245.633	384.55
246.099	399.52
246.564	390.48
247.029	363.93
247.494	379.46
247.959	364.77
248.424	372.68
248.889	408.83
249.353	383.98
249.818	396.69
250.283	370.71
250.748	389.91
251.212	358.27
251.677	362.8
252.141	365.06
252.606	378.62
253.07	355.17
253.535	372.68
253.999	368.45
254.463	378.62
254.927	394.15
255.392	396.97
255.856	383.14
256.32	399.52
256.784	374.94
257.248	365.06
257.712	383.7
258.176	395.56
258.64	406.29
259.103	390.2
259.567	400.93
260.031	378.62
260.495	391.04
260.958	411.94
261.422	385.68
261.885	405.45
262.349	400.36
262.812	383.42
263.275	377.49
263.739	389.91
264.202	411.66
264.665	374.1
265.128	408.83
265.591	401.78
266.054	408.83
266.517	367.88
266.98	377.2
267.443	405.45
267.906	403.75
268.369	409.68
268.832	386.24
269.294	399.52
269.757	368.45
270.22	374.94
270.682	389.91
271.145	367.88
271.607	371.84
272.07	411.94
272.532	399.52
272.994	389.07
273.456	398.39
273.919	424.93
274.381	383.98
274.843	412.22
275.305	409.12
275.767	392.74
276.229	378.05
276.691	375.23
277.153	380.31
277.614	394.15
278.076	400.08
278.538	384.83
279	400.36
279.461	392.74
279.923	390.2
280.384	402.06
280.846	429.73
281.307	391.89
281.769	407.42
282.23	394.15
282.691	395.84
283.152	387.65
283.613	407.14
284.075	407.71
284.536	395.84
284.997	387.65
285.458	383.42
285.918	408.55
286.379	412.51
286.84	395.84
287.301	413.92
287.762	397.82
288.222	405.45
288.683	416.18
289.143	364.21
289.604	386.24
290.064	382.57
290.525	391.33
290.985	363.93
291.445	404.88
291.906	388.22
292.366	398.67
292.826	404.88
293.286	406.58
293.746	395.84
294.206	400.93
294.666	393.3
295.126	408.55
295.586	371.55
296.046	415.89
296.506	385.68
296.965	381.72
297.425	416.46
297.884	425.77
298.344	394.15
298.804	413.35
299.263	417.02
299.722	386.24
300.182	395.56
300.641	393.59
301.1	407.99
301.559	405.16
302.019	401.78
302.478	404.6
302.937	395.84
303.396	392.17
303.855	411.66
304.314	371.55
304.772	427.19
305.231	406.86
305.69	410.53
306.149	412.22
306.607	382.57
307.066	381.16
307.524	388.5
307.983	389.63
308.441	411.66
308.9	404.6
309.358	407.42
309.816	424.08
310.275	402.34
310.733	405.16
311.191	424.93
311.649	413.92
312.107	398.95
312.565	380.59
313.023	400.65
313.481	393.02
313.939	408.55
314.397	395.84
314.854	415.05
315.312	426.62
315.77	402.06
316.227	430.01
316.685	377.77
317.142	421.26
317.6	398.67
318.057	382.01
318.514	438.19
318.972	407.99
319.429	409.12
319.886	412.79
320.343	421.82
320.8	389.07
321.257	425.49
321.714	428.88
322.171	428.6
322.628	410.25
323.085	405.16
323.542	428.32
323.998	407.42
324.455	375.23
324.912	419.56
325.368	428.6
325.825	386.81
326.281	404.6
326.738	411.94
327.194	406.58
327.65	406.29
328.107	404.03
328.563	412.79
329.019	380.31
329.475	416.74
329.931	415.05
330.387	402.9
330.843	424.93
331.299	446.94
331.755	403.47
332.211	422.39
332.666	415.05
333.122	401.49
333.578	397.82
334.033	430.86
334.489	435.94
334.944	400.08
335.4	435.09
335.855	413.63
336.31	391.04
336.766	428.32
337.221	442.15
337.676	434.24
338.131	391.89
338.586	408.27
339.041	429.16
339.496	422.67
339.951	393.59
340.406	412.79
340.861	426.06
341.316	408.55
341.771	409.4
342.225	424.93
342.68	416.46
343.134	420.98
343.589	430.57
344.043	413.92
344.498	415.61
344.952	409.4
345.406	451.46
345.861	385.96
346.315	425.21
346.769	412.22
347.223	410.25
347.677	417.02
348.131	419.28
348.585	384.55
349.039	398.67
349.493	401.21
349.947	398.1
350.401	431.98
350.854	425.77
351.308	421.54
351.762	425.77
352.215	421.26
352.669	433.11
353.122	431.14
353.575	430.29
354.029	407.42
354.482	404.6
354.935	397.82
355.388	435.65
355.842	431.14
356.295	413.35
356.748	423.23
357.201	436.5
357.654	422.1
358.106	411.94
358.559	396.13
359.012	412.51
359.465	417.3
359.917	460.21
360.37	418.43
360.823	418.15
361.275	420.98
361.728	416.74
362.18	426.34
362.632	430.57
363.085	414.76
363.537	430.29
363.989	405.73
364.441	411.09
364.893	414.76
365.345	438.19
365.797	437.07
366.249	398.39
366.701	431.98
367.153	415.89
367.605	406.86
368.057	403.75
368.508	420.41
368.96	414.48
369.411	434.53
369.863	431.14
370.314	421.54
370.766	414.76
371.217	408.55
371.669	442.15
372.12	438.48
372.571	424.08
373.022	418.72
373.473	430.86
373.924	439.89
374.375	409.12
374.826	440.73
375.277	409.12
375.728	447.79
376.179	422.39
376.63	429.16
377.08	426.62
377.531	417.3
377.981	435.94
378.432	412.79
378.883	417.02
379.333	424.36
379.783	427.47
380.234	420.98
380.684	410.53
381.134	426.9
381.584	407.42
382.034	430.29
382.485	420.41
382.935	454.28
383.385	435.65
383.834	424.08
384.284	436.5
384.734	445.81
385.184	445.81
385.634	439.61
386.083	435.09
386.533	437.91
386.982	449.2
387.432	426.9
387.881	413.92
388.331	396.13
388.78	424.36
389.229	453.72
389.679	433.68
390.128	421.82
390.577	423.8
391.026	434.24
391.475	428.6
391.924	429.73
392.373	410.25
392.822	438.19
393.27	461.05
393.719	443.56
394.168	430.01
394.617	446.66
395.065	430.57
395.514	409.68
395.962	440.45
396.411	459.64
396.859	419
397.307	459.92
397.756	454.85
398.204	438.19
398.652	442.43
399.1	463.87
399.548	420.41
399.996	483.62
400.444	437.07
400.892	434.24
401.34	441.02
401.788	446.94
402.236	444.12
402.683	453.43
403.131	476.29
403.579	446.1
404.026	469.52
404.474	459.92
404.921	507.03
405.369	492.93
405.816	448.35
406.263	452.02
406.71	484.75
407.158	500.55
407.605	468.95
408.052	501.39
408.499	506.47
408.946	490.11
409.393	507.88
409.84	528.46
410.286	522.54
410.733	537.76
411.18	563.13
411.626	590.17
412.073	652.68
412.52	685.6
412.966	812.65
413.413	936.4
413.859	1088.22
414.305	1309.81
414.752	1608.91
415.198	1945.9
415.644	2375.4
416.09	2891.35
416.536	3433.54
416.982	4091.77
417.428	4870.99
417.874	5716.37
418.32	6575.46
418.766	7523.56
419.211	8652.8
419.657	9662.57
420.103	10952.82
420.548	11816.59
420.994	13240.4
421.439	14470.39
421.885	15543.23
422.33	17055.44
422.776	18151.34
423.221	19295.69
423.666	20556.5
424.111	22127.78
424.556	22985.99
425.001	24427.23
425.446	26022.28
425.891	27223.31
426.336	28289.84
426.781	29700.85
427.226	31799.88
427.671	32565.19
428.115	33433.18
428.56	35234.99
429.005	36972.2
429.449	37248.11
429.894	38840.13
430.338	40128.51
430.782	40162.04
431.227	41827.27
431.671	42229.93
432.115	43905.65
432.559	44959.96
433.003	44835.54
433.447	45769.67
433.891	46253.18
434.335	46701.4
434.779	47649.45
435.223	47805.77
435.667	47817.82
436.111	48236.64
436.554	48418.28
436.998	47904.54
437.442	48038.6
437.885	50062.52
438.328	48552.72
438.772	48904.51
439.215	49352.07
439.659	49025.09
440.102	49610.76
440.545	48677.78
440.988	48554.53
441.431	49498.01
441.874	49118.54
442.317	49316.4
442.76	48766.75
443.203	48233.04
443.646	49010.82
444.089	48304.88
444.531	49145.03
444.974	47820.9
445.417	49001.74
445.859	47969.49
446.302	49157.77
446.744	48483.55
447.186	49664.32
447.629	48655.29
448.071	48619.37
448.513	48810.23
448.956	50247.36
449.398	49408.33
449.84	48043.99
450.282	48687.86
450.724	49320.57
451.166	49041.95
451.607	49035.98
452.049	49066.61
452.491	50094.83
452.933	49819.96
453.374	50244.47
453.816	50809.18
454.257	50447.18
454.699	51483.55
455.14	51267.33
455.582	51008.71
456.023	51017.23
456.464	51237.68
456.905	51724.48
457.347	51705.1
457.788	50855.09
458.229	50885.9
458.67	51903.73
459.111	49904.32
459.552	50044.4
459.992	49930.27
460.433	49804.26
460.874	48558.15
461.315	49888.85
461.755	48917.73
462.196	48388.89
462.636	47675.83
463.077	47172.51
463.517	47311.62
463.957	47712.21
464.398	47285.06
464.838	47434.52
465.278	46253.18
465.718	46455.8
466.158	45290.13
466.598	45760.83
467.038	45186.89
467.478	45755.77
467.918	45904.88
468.358	45245.3
468.798	44742.86
469.237	44630.38
469.677	44766.71
470.117	45482.44
470.556	43017.22
470.996	43581.31
471.435	43781.65
471.874	44443
472.314	43999.69
472.753	43141.79
473.192	43344.98
473.631	42873.8
474.07	43243.23
474.509	43314.05
474.948	43556.59
475.387	42758.32
475.826	41725.89
476.265	43546.35
476.704	43113.13
477.143	43393.12
477.581	43187.64
478.02	43796.15
478.458	42417.7
478.897	43070.03
479.335	44264.3
479.774	43676.46
480.212	44011.95
480.65	43931.65
481.089	43538.36
481.527	43017.72
481.965	42590.19
482.403	44598.01
482.841	44392.6
483.279	44385.34
483.717	44465.31
484.155	43885.14
484.592	44426.7
485.03	44585.21
485.468	43532.62
485.905	43643.49
486.343	44246.27
486.781	43573.82
487.218	42968.9
487.655	42925.33
488.093	41885.04
488.53	43559.33
488.967	42502.93
489.405	42487.53
489.842	41636.44
490.279	41496.75
490.716	41120.11
491.153	41663.2
491.59	40948.29
492.027	40349.23
492.463	39815.05
492.9	39062.8
493.337	38922.45
493.773	39045.34
494.21	38274.66
494.647	37912.38
495.083	37214.31
495.519	36889.48
495.956	36730.43
496.392	36061.15
496.828	35680.46
497.265	35109.74
497.701	35245
498.137	34897.37
498.573	34003.37
499.009	34421.26
499.445	33643.15
499.881	33119.61
500.316	33452.2
500.752	32552.02
501.188	32268.97
501.624	32168.03
502.059	31008.61
502.495	30929.1
502.93	30751.29
503.366	30904.22
503.801	30183.35
504.236	30023.76
504.672	29470.39
505.107	29154.64
505.542	28605.17
505.977	28571.45
506.412	28054.85
506.847	28303.05
507.282	27889.5
507.717	27452.96
508.152	27467.89
508.587	27129.77
509.021	26317.13
509.456	26047.55
509.891	26228.84
510.325	26122.87
510.76	25656.08
511.194	25440.46
511.628	25473.13
512.063	24746.34
512.497	24873
512.931	24241.62
513.366	24088.7
513.8	24169.23
514.234	23470.84
514.668	23508.33
515.102	23663.41
515.536	22747.2
515.969	22993.15
516.403	22499.63
516.837	22088.45
517.271	22212.36
517.704	21761.05
518.138	21644.69
518.571	21378.16
519.005	20989.97
519.438	20920.03
519.871	20753.31
520.305	20293.26
520.738	20190.66
521.171	19710.58
521.604	19854.09
522.037	19559.81
522.47	19263.82
522.903	18863.17
523.336	18820.79
523.769	18683.15
524.202	18180.3
524.634	18161.32
525.067	18008.71
525.5	17717.81
525.932	17578.52
526.365	17230.72
526.797	17063.2
527.23	17190.41
527.662	16518.57
528.094	16353.23
528.527	16167.98
528.959	15955
529.391	15773.57
529.823	15195.17
530.255	15302.17
530.687	14881.26
531.119	14766.81
531.551	14635.16
531.982	14292.4
532.414	14131.49
532.846	13868.33
533.277	13698.07
533.709	13316.44
534.14	13308.83
534.572	13053.51
535.003	13023.32
535.435	12737.76
535.866	12472.71
536.297	12187.01
536.728	12249.37
537.159	12136.1
537.59	11885.42
538.022	11656.41
538.452	11485.65
538.883	11324.97
539.314	11214.29
539.745	11019.63
540.176	10871.91
540.606	10557.42
541.037	10504.31
541.468	10365.96
541.898	10279.4
542.328	10156.82
542.759	9936.9
543.189	9820.52
543.619	9712.06
544.05	9440.21
544.48	9340.54
544.91	9324.27
545.34	9109.21
545.77	8957.05
546.2	9005.72
546.63	8734.76
547.06	8744.87
547.489	8605.58
547.919	8278.26
548.349	8362.24
548.778	8319.86
549.208	8139.31
549.637	8055.98
550.067	7903.77
550.496	7894.91
550.926	7758.19
551.355	7572.72
551.784	7576.38
552.213	7397.98
552.642	7293.5
553.071	7275.68
553.5	7188.93
553.929	6929.62
554.358	7005.26
554.787	6828.69
555.216	6803.97
555.645	6717.93
556.073	6633.16
556.502	6532.24
556.93	6367.37
557.359	6296.07
557.787	6317.2
558.216	6209.93
558.644	6160.22
559.072	6135.63
559.5	5976.01
559.929	5939.45
560.357	5942.1
560.785	5816.96
561.213	5822.79
561.641	5668.3
562.068	5711.59
562.496	5624.99
562.924	5601.87
563.352	5573.95
563.779	5500.01
564.207	5583.26
564.634	5451.85
565.062	5476.6
565.489	5353.04
565.917	5371.96
566.344	5313.34
566.771	5283.48
567.198	5187.19
567.625	5126.59
568.053	5052.86
568.48	5034.96
568.907	4948.59
569.333	4823.86
569.76	4707.82
570.187	4820.64
570.614	4630.29
571.04	4842.6
571.467	4548.4
571.894	4471.02
572.32	4346.47
572.747	4306.09
573.173	4240.36
573.599	4174.59
574.026	4065.86
574.452	4035.88
574.878	4032.37
575.304	3895.34
575.73	3813.35
576.156	3760.28
576.582	3745.11
577.008	3668.4
577.434	3611.98
577.86	3489.26
578.285	3532.72
578.711	3437.07
579.137	3435.99
579.562	3288.51
579.988	3288.51
580.413	3248.47
580.838	3183.05
581.264	3177.05
581.689	3127.69
582.114	3033.51
582.539	3024.76
582.964	2943.05
583.39	2944.96
583.814	2882.33
584.239	2786.23
584.664	2786.23
585.089	2781.3
585.514	2722.93
585.939	2660.12
586.363	2657.93
586.788	2609.63
587.212	2578.87
587.637	2525.31
588.061	2497.27
588.485	2416.96
588.91	2459.88
589.334	2414.76
589.758	2386.97
590.182	2355.03
590.606	2308.2
591.03	2265.76
591.454	2230.19
591.878	2205.92
592.302	2234.6
592.726	2167.84
593.15	2138.85
593.573	2130.57
593.997	2084.99
594.42	2047.13
594.844	2059.85
595.267	2021.42
595.691	1991
596.114	1953.65
596.537	1952.82
596.96	1917.11
597.384	1911.57
597.807	1891.63
598.23	1891.36
598.653	1864.21
599.076	1834.01
599.499	1805.18
599.921	1833.45
600.344	1766.07
600.767	1763.02
601.189	1745.82
601.612	1748.59
602.034	1711.68
602.457	1711.96
602.879	1691.97
603.302	1729.45
603.724	1685.59
604.146	1680.03
604.568	1647.81
604.991	1640.31
605.413	1661.15
605.835	1660.59
606.257	1613.08
606.678	1622.25
607.1	1619.75
607.522	1618.64
607.944	1591.95
608.365	1580.55
608.787	1568.59
609.209	1532.99
609.63	1553.02
610.051	1544.95
610.473	1483.17
610.894	1482.34
611.315	1500.71
611.737	1421.34
612.158	1425.8
612.579	1417.44
613	1402.11
613.421	1393.75
613.842	1395.7
614.263	1345.8
614.683	1337.15
615.104	1349.42
615.525	1285.81
615.945	1286.37
616.366	1262.64
616.787	1295.3
617.207	1273.81
617.627	1221.31
618.048	1227.73
618.468	1206.5
618.888	1201.19
619.308	1202.31
619.728	1162.62
620.148	1153.96
620.568	1130.75
620.988	1095.78
621.408	1135.22
621.828	1134.66
622.248	1090.46
622.668	1087.66
623.087	1100.26
623.507	1046.52
623.926	1056.88
624.346	1017.95
624.765	1042.32
625.185	1052.68
625.604	1026.64
626.023	1000.03
626.442	959.95
626.861	989.94
627.28	959.67
627.699	980.13
628.118	958.55
628.537	974.53
628.956	942.01
629.375	956.59
629.794	942.85
630.212	898.26
630.631	907.24
631.049	897.42
631.468	906.68
631.886	873.85
632.305	873.57
632.723	834.27
633.141	845.78
633.559	872.73
633.978	841.01
634.396	861.78
634.814	837.08
635.232	826.41
635.65	822.48
636.067	791.59
636.485	805.91
636.903	821.08
637.321	786.81
637.738	770.79
638.156	792.99
638.573	769.11
638.991	774.73
639.408	734.54
639.825	755.34
640.243	760.4
640.66	727.23
641.077	748.87
641.494	746.06
641.911	719.35
642.328	743.53
642.745	710.63
643.162	719.35
643.579	726.94
643.995	698.26
644.412	719.91
644.829	714.85
645.245	697.98
645.662	712.32
646.078	680.82
646.495	683.63
646.911	659.43
647.327	658.59
647.743	639.17
648.159	687.85
648.576	671.53
648.992	672.94
649.408	641.98
649.824	661.97
650.239	653.24
650.655	677.44
651.071	635.51
651.487	641.42
651.902	643.95
652.318	618.05
652.733	631.29
653.149	641.14
653.564	648.46
653.979	608.2
654.395	614.96
654.81	618.9
655.225	604.82
655.64	625.66
656.055	592.14
656.47	634.67
656.885	576.93
657.3	588.48
657.715	610.17
658.13	612.42
658.544	602.57
658.959	601.72
659.374	583.69
659.788	547.63
660.202	583.13
660.617	580.88
661.031	582.29
661.445	602.28
661.86	599.47
662.274	571.86
662.688	589.33
663.102	563.41
663.516	552.98
663.93	564.25
664.344	577.5
664.758	543.12
665.171	530.43
665.585	562.28
665.999	544.53
666.412	559.18
666.826	545.09
667.239	559.46
667.653	534.1
668.066	523.39
668.479	539.74
668.892	524.8
669.306	540.86
669.719	547.06
670.132	537.76
670.545	548.19
670.958	527.33
671.37	518.03
671.783	525.64
672.196	525.64
672.609	532.12
673.021	506.75
673.434	530.15
673.846	537.76
674.259	533.53
674.671	539.74
675.084	517.46
675.496	513.24
675.908	512.39
676.32	533.25
676.732	509.57
677.144	514.08
677.556	540.86
677.968	520.28
678.38	502.52
678.792	523.95
679.204	494.06
679.615	488.98
680.027	513.24
680.439	510.42
680.85	470.93
681.262	471.49
681.673	503.65
682.084	499.98
682.496	507.03
682.907	492.37
683.318	478.55
683.729	492.37
684.14	477.7
684.551	496.88
684.962	483.62
685.373	453.43
685.784	457.1
686.194	484.47
686.605	475.72
687.016	470.36
687.426	457.1
687.837	471.49
688.247	473.47
688.657	476.57
689.068	471.49
689.478	465.29
689.888	487.85
690.298	469.24
690.708	472.06
691.118	447.51
691.528	463.59
691.938	465.85
692.348	469.24
692.758	485.6
693.168	473.19
693.577	476.85
693.987	461.05
694.396	446.1
694.806	434.53
695.215	484.19
695.625	457.67
696.034	477.42
696.443	450.33
696.852	462.18
697.262	463.87
697.671	450.33
698.08	462.46
698.489	446.38
698.897	429.73
699.306	438.76
699.715	450.61
700.124	445.81
700.532	450.05
700.941	444.97
701.35	459.36
701.758	430.29
702.166	443.84
702.575	432.83
702.983	422.67
703.391	455.13
703.799	432.55
704.208	439.32
704.616	455.97
705.024	459.08
705.432	468.67
705.839	443.84
706.247	441.02
706.655	452.87
707.063	444.69
707.47	426.34
707.878	472.9
708.285	426.9
708.693	450.33
709.1	432.27
709.508	433.11
709.915	406.01
710.322	438.19
710.729	433.68
711.136	437.63
711.543	442.15
711.95	431.14
712.357	449.48
712.764	420.98
713.171	407.99
713.578	406.29
713.984	442.15
714.391	406.01
714.797	431.14
715.204	463.59
715.61	431.42
716.017	410.25
716.423	421.82
716.829	442.99
717.236	422.1
717.642	440.17
718.048	428.03
718.454	407.71
718.86	423.23
719.266	434.53
719.671	452.31
720.077	432.55
720.483	446.66
720.889	441.3
721.294	450.05
721.7	449.77
722.105	429.73
722.511	420.41
722.916	418.15
723.321	417.59
723.726	428.6
724.132	403.75
724.537	417.87
724.942	414.48
725.347	412.22
725.752	419.85
726.156	429.73
726.561	429.44
726.966	439.61
727.371	406.86
727.775	434.24
728.18	418.15
728.584	419
728.989	418.15
729.393	407.42
729.798	423.8
730.202	437.07
730.606	417.02
731.01	414.76
731.414	408.55
731.818	446.66
732.222	404.03
732.626	418.72
733.03	391.61
733.434	404.6
733.837	383.42
734.241	428.6
734.645	414.2
735.048	404.32
735.452	430.57
735.855	413.92
736.258	428.32
736.662	426.62
737.065	438.19
737.468	422.1
737.871	406.86
738.274	436.5
738.677	414.76
739.08	410.81
739.483	396.41
739.886	406.58
740.289	428.32
740.691	407.42
741.094	422.95
741.497	406.01
741.899	407.99
742.302	413.92
742.704	392.17
743.106	428.88
743.508	401.49
743.911	434.24
744.313	385.39
744.715	435.09
745.117	423.8
745.519	413.35
745.921	417.3
746.323	394.72
746.724	399.23
747.126	434.81
747.528	408.27
747.929	416.74
748.331	425.21
748.732	409.68
749.134	392.46
749.535	432.27
749.936	424.08
750.338	400.65
750.739	396.41
751.14	404.88
751.541	421.54
751.942	443.84
752.343	393.59
752.744	399.52
753.144	432.55
753.545	419.28
753.946	417.02
754.346	403.47
754.747	418.72
755.148	413.07
755.548	391.89
755.948	417.87
756.349	406.58
756.749	375.51
757.149	412.79
757.549	407.42
757.949	428.03
758.349	380.88
758.749	402.34
759.149	389.91
759.549	399.52
759.949	422.95
760.348	397.54
760.748	412.79
761.148	409.4
761.547	406.58
761.947	384.55
762.346	397.26
762.745	389.63
763.145	383.14
763.544	405.45
763.943	420.13
764.342	425.49
764.741	399.52
765.14	393.87
765.539	388.5
765.938	397.54
766.336	386.52
766.735	387.37
767.134	379.75
767.532	391.89
767.931	404.6
768.329	393.02
768.728	428.32
769.126	411.94
769.525	427.75
769.923	418.43
770.321	416.74
770.719	394.72
771.117	417.02
771.515	411.09
771.913	384.27
772.311	412.51
772.709	391.89
773.106	386.81
773.504	400.08
773.902	395
774.299	397.26
774.697	395.56
775.094	383.42
775.491	377.77
775.889	393.3
776.286	396.69
776.683	388.22
777.08	398.39
777.477	396.69
777.874	420.13
778.271	405.73
778.668	415.33
779.065	397.26
779.462	397.82
779.858	405.16
780.255	425.77
780.652	409.12
781.048	411.66
781.444	395.84
781.841	401.21
782.237	386.81
782.633	386.52
783.03	395
783.426	407.71
783.822	405.73
784.218	400.08
784.614	399.8
785.01	410.25
785.405	378.05
785.801	389.07
786.197	385.68
786.593	402.34
786.988	406.58
787.384	406.01
787.779	391.61
788.174	413.92
788.57	394.72
788.965	400.65
789.36	390.76
789.755	376.36
790.15	406.58
790.545	388.5
790.94	397.54
791.335	378.62
791.73	411.09
792.125	399.23
792.52	398.67
792.914	391.89
793.309	383.98
793.703	406.01
794.098	411.66
794.492	381.16
794.887	401.21
795.281	403.75
795.675	394.72
796.069	400.93
796.463	389.07
796.857	403.19
797.251	402.62
797.645	397.54
798.039	391.33
798.433	400.08
798.826	402.34
799.22	410.53
799.614	431.14
800.007	405.16
800.401	388.5
800.794	393.59
801.187	408.55
801.581	383.98
801.974	381.72
802.367	377.77
802.76	371.55
803.153	423.52
803.546	446.94
803.939	372.68
804.332	398.67
804.725	396.13
805.117	420.13
805.51	400.93
805.903	391.89
806.295	375.51
806.688	394.15
807.08	365.62
807.472	396.69
807.865	404.32
808.257	400.36
808.649	424.08
809.041	390.76
809.433	384.27
809.825	385.11
810.217	390.2
810.609	389.07
811.001	369.58
811.392	392.46
811.784	395.28
812.175	383.14
812.567	378.33
812.958	404.32
813.35	397.54
813.741	426.9
814.132	355.73
814.524	407.99
814.915	393.59
815.306	415.61
815.697	414.2
816.088	388.78
816.479	407.71
816.87	401.78
817.26	414.76
817.651	417.3
818.042	362.8
818.432	395.28
818.823	393.59
819.213	404.03
819.604	414.76
819.994	386.81
820.384	403.75
820.775	380.59
821.165	425.21
821.555	389.07
821.945	402.34
822.335	401.49
822.725	402.62
823.114	378.62
823.504	398.1
823.894	413.35
824.284	404.32
824.673	415.89
825.063	385.68
825.452	403.75
825.842	394.72
826.231	405.45
826.62	409.96
827.009	401.78
827.399	377.2
827.788	387.37
828.177	422.67
828.566	391.89
828.954	385.39
829.343	420.41
829.732	402.62
830.121	413.35
830.509	406.86
830.898	408.83
831.286	370.99
831.675	393.02
832.063	398.67
832.452	389.63
832.84	383.7
833.228	362.23
833.616	395.28
834.004	386.24
834.392	406.29
834.78	383.42
835.168	393.59
835.556	396.13
835.944	391.89
836.331	378.9
836.719	401.49
837.107	385.68
837.494	427.19
837.881	370.42
838.269	395.84
838.656	384.27
839.043	383.98
839.431	371.55
839.818	389.07
840.205	373.53
840.592	385.11
840.979	376.07
841.366	385.96
841.752	395.56
842.139	386.81
842.526	406.29
842.912	399.23
843.299	380.59
843.685	407.71
844.072	380.59
844.458	389.63
844.844	377.2
845.231	370.71
845.617	390.76
846.003	382.01
846.389	378.33
846.775	386.81
847.161	404.32
847.547	403.19
847.933	390.76
848.318	371.27
848.704	408.55
849.09	411.66
849.475	381.16
849.861	399.8
850.246	382.01
850.631	422.39
851.017	382.29
851.402	380.88
851.787	400.93
852.172	396.13
852.557	388.5
852.942	393.02
853.327	365.34
853.712	387.65
854.097	394.72
854.481	387.09
854.866	401.21
855.25	391.33
855.635	378.62
856.019	405.45
856.404	386.81
856.788	402.34
857.172	374.66
857.557	383.98
857.941	391.04
858.325	364.49
858.709	407.42
859.093	381.72
859.477	396.41
859.86	408.27
860.244	376.64
860.628	401.78
861.012	384.83
861.395	415.05
861.779	410.81
862.162	369.01
862.545	400.93
862.929	383.7
863.312	391.33
863.695	378.9
864.078	365.34
864.461	385.96
864.844	369.86
865.227	383.98
865.61	367.88
865.993	392.46
866.376	373.25
866.758	378.33
867.141	393.87
867.523	370.71
867.906	401.21
868.288	389.91
868.671	379.46
869.053	397.26
869.435	379.18
869.817	368.73
870.199	377.2
870.581	372.68
870.963	383.98
871.345	372.12
871.727	380.88
872.109	355.17
872.491	372.4
872.872	378.62
873.254	399.23
873.635	397.54
874.017	382.85
874.398	391.33
874.779	389.63
875.161	356.58
875.542	372.4
875.923	371.27
876.304	379.75
876.685	364.21
877.066	385.96
877.447	396.41
877.828	363.08
878.208	392.46
878.589	350.36
878.97	419.85
879.35	372.68
879.731	419.56
880.111	374.1
880.491	382.29
880.872	376.92
881.252	380.59
881.632	403.19
882.012	388.22
882.392	375.23
882.772	392.46
883.152	383.42
883.532	394.43
883.912	401.21
884.291	387.65
884.671	381.16
885.051	391.61
885.43	385.11
885.81	384.27
886.189	394.72
886.568	372.97
886.948	397.26
887.327	383.14
887.706	376.07
888.085	387.65
888.464	413.35
888.843	390.2
889.222	411.38
889.601	388.22
889.979	358.56
890.358	375.51
890.737	390.48
891.115	377.2
891.494	409.68
891.872	402.06
892.25	353.19
892.629	420.98
893.007	361.1
893.385	398.1
893.763	387.09
894.141	391.04
894.519	387.65
894.897	366.19
895.275	396.97
895.653	364.49
896.03	394.43
896.408	364.77
896.786	376.92
897.163	395.84
897.541	377.2
897.918	384.83
898.295	367.03
898.673	383.7
899.05	398.67
899.427	376.64
899.804	357.14
900.181	340.19
900.558	356.58
900.935	377.2
901.312	389.91
901.688	387.09
902.065	395.84
902.442	365.34
902.818	363.93
903.195	382.85
903.571	383.7
903.947	394.72
904.324	361.95
904.7	375.51
905.076	394.72
905.452	388.22
905.828	363.08
906.204	387.94
906.58	396.97
906.956	390.48
907.331	402.9
907.707	361.95
908.083	407.71
908.458	382.01
908.834	380.31
909.209	372.4
909.585	373.81
909.96	384.55
910.335	395.28
910.71	382.57
911.086	396.41
911.461	395.84
911.836	382.01
912.21	378.05
912.585	347.25
912.96	371.84
913.335	399.23
913.709	395.56
914.084	357.99
914.459	396.41
914.833	364.49
915.207	383.7
915.582	371.27
915.956	383.98
916.33	385.96
916.704	379.46
917.078	366.19
917.452	374.1
917.826	372.97
918.2	388.78
918.574	389.35
918.948	363.36
919.321	375.51
919.695	382.29
920.068	390.2
920.442	396.13
920.815	424.08
921.189	408.83
921.562	378.62
921.935	371.27
922.308	379.75
922.681	372.68
923.054	376.64
923.427	369.58
923.8	385.96
924.173	394.43
924.546	363.64
924.919	363.93
925.291	371.84
925.664	387.37
926.036	366.75
926.409	389.63
926.781	389.07
927.153	387.94
927.526	398.95
927.898	384.27
928.27	370.14
928.642	379.18
929.014	386.81
929.386	380.03
929.758	376.07
930.129	355.45
930.501	401.21
930.873	391.04
931.244	370.71
931.616	365.9
931.987	375.79
932.359	353.19
932.73	365.62
933.101	376.07
933.472	381.16
933.843	392.46
934.214	363.64
934.585	379.75
934.956	378.9
935.327	406.86
935.698	392.17
936.069	391.61
936.439	367.32
936.81	368.16
937.18	403.47
937.551	378.62
937.921	382.01
938.292	385.39
938.662	374.66
939.032	367.88
939.402	384.55
939.772	372.4
940.142	385.11
940.512	378.33
940.882	352.06
941.252	392.17
941.621	369.01
941.991	367.32
942.361	388.5
942.73	379.75
943.1	366.47
943.469	375.79
943.838	376.07
944.208	380.31
944.577	395.84
944.946	372.4
945.315	364.77
945.684	384.55
946.053	361.67
946.422	383.42
946.791	364.77
947.159	369.29
947.528	351.49
947.897	395.28
948.265	362.8
948.634	391.89
949.002	378.9
949.371	381.44
949.739	374.1
950.107	383.42
950.475	389.91
950.843	387.94
951.211	396.13
951.579	398.39
951.947	365.62
952.315	372.97
952.683	391.04
953.05	374.66
953.418	366.19
953.785	380.59
954.153	385.68
954.52	363.08
954.888	405.45
955.255	372.97
955.622	369.58
955.989	376.64
956.356	383.7
956.723	364.49
957.09	359.69
957.457	400.36
957.824	387.09
958.191	359.12
958.557	397.54
958.924	372.4
959.291	394.43
959.657	396.41
960.023	370.14
960.39	377.2
960.756	397.54
961.122	380.03
961.488	380.03
961.855	400.65
962.221	374.1
962.586	392.74
962.952	386.24
963.318	371.27
963.684	375.23
964.05	376.07
964.415	395.84
964.781	387.37
965.146	347.25
965.512	400.08
965.877	381.72
966.242	349.52
966.608	390.76
966.973	354.04
967.338	406.86
967.703	375.51
968.068	364.21
968.433	367.32
968.797	390.2
969.162	364.49
969.527	391.89
969.891	387.09
970.256	365.06
970.62	351.49
970.985	410.25
971.349	370.99
971.714	369.29
972.078	360.82
972.442	363.36
972.806	375.79
973.17	376.07
973.534	389.35
973.898	379.46
974.262	380.03
974.625	361.67
974.989	381.16
975.353	361.1
975.716	367.6
976.08	380.59
976.443	390.76
976.806	362.51
977.17	359.4
977.533	380.88
977.896	382.01
978.259	370.42
978.622	372.4
978.985	384.55
979.348	347.54
979.711	374.1
980.073	388.22
980.436	371.27
980.799	349.23
981.161	369.86
981.524	362.51
981.886	381.44
982.248	347.82
982.611	360.82
982.973	385.68
983.335	382.01
983.697	390.48
984.059	359.69
984.421	379.18
984.783	358.56
985.145	381.44
985.506	371.84
985.868	392.17
986.23	372.4
986.591	384.55
986.953	371.84
987.314	381.44
987.675	371.55
988.037	467.82
988.398	366.47
988.759	368.73
989.12	381.44
989.481	380.88
989.842	367.03
990.203	389.63
990.564	372.12
990.924	354.88
991.285	514.08
991.646	372.4
992.006	383.98
992.367	382.29
992.727	362.8
993.087	376.92
993.448	355.17
993.808	384.83
994.168	331.43
994.528	363.93
994.888	377.77
995.248	388.5
995.608	385.11
995.967	376.07
996.327	365.62
996.687	394.72
997.046	372.12
997.406	369.58
997.765	377.2
998.125	372.4
998.484	366.75
998.843	365.06
999.202	400.08
999.561	385.96
999.92	380.31
1000.279	369.58
1000.638	377.77
1000.997	382.01
1001.356	374.94
1001.715	359.12
1002.073	375.79
1002.432	387.65
1002.79	360.54
1003.149	387.94
1003.507	358.27
1003.865	358.56
1004.224	398.39
1004.582	380.59
1004.94	364.77
1005.298	364.21
1005.656	391.33
1006.014	370.71
1006.371	383.42
1006.729	373.53
1007.087	391.33
1007.445	381.16
1007.802	344.43
1008.16	382.29
1008.517	378.05
1008.874	370.42
1009.232	383.14
1009.589	385.68
1009.946	370.99
1010.303	354.88
1010.66	376.36
1011.017	418.72
1011.374	377.77
1011.731	382.57
1012.087	368.45
1012.444	366.75
1012.801	367.6
1013.157	376.36
1013.513	374.38
1013.87	372.4
1014.226	366.47
1014.582	383.14
1014.939	372.4
1015.295	356.86
1015.651	350.93
1016.007	348.38
1016.363	385.39
1016.719	364.77
1017.074	403.47
1017.43	366.75
1017.786	384.55
1018.141	368.16
1018.497	372.4
1018.852	364.49
1019.208	357.14
1019.563	371.55
1019.918	382.85
1020.273	379.18
1020.628	362.8
1020.983	369.29
1021.338	365.62
1021.693	379.75
1022.048	345.84
1022.403	376.92
1022.757	356.86
1023.112	394.72
1023.467	386.81
1023.821	383.7
1024.175	369.58
1024.53	383.14
1024.884	371.27
1025.238	368.73
1025.592	380.03
1025.946	357.14
1026.3	400.36
1026.654	364.49
1027.008	374.66
1027.362	359.4
1027.716	366.19
1028.069	377.2
1028.423	389.91
1028.777	385.11
1029.13	390.2
1029.483	341.6
1029.837	355.45
1030.19	382.85
1030.543	398.95
1030.896	367.88
1031.249	382.01
1031.602	378.62
1031.955	374.1
1032.308	368.45
1032.661	369.86
1033.013	382.01
1033.366	379.18
1033.719	373.81
1034.071	350.65
1034.424	369.01
1034.776	387.94
1035.128	384.83
1035.48	370.42
1035.833	383.7
1036.185	406.01
1036.537	406.01
1036.889	406.01
