Data from SCSF78-405_irradiation_FLMS019251_17-14-27-973.txt Node
Date: Fri Feb 22 17:14:27 PST 2019
User: mu3e
Spectrometer: FLMS01925
Trigger mode: 0
Integration Time (sec): 1.206000E-2
Scans to average: 10
Electric dark correction enabled: true
Nonlinearity correction enabled: true
Boxcar width: 0
XAxis mode: Wavelengths
Number of Pixels in Spectrum: 2048
>>>>>Begin Spectral Data<<<<<
187.103	-81.76
187.574	-81.76
188.045	-81.76
188.516	-113.03
188.987	-138.35
189.458	-128.96
189.929	-124.69
190.4	-109.05
190.871	-95.97
191.342	-78.35
191.813	-69.26
192.284	-49.65
192.754	-44.25
193.225	3.74
193.696	24.75
194.166	60.5
194.637	86.88
195.107	120.05
195.578	111.27
196.048	115.52
196.518	176.44
196.989	208.16
197.459	186.07
197.929	194.28
198.399	260.8
198.869	310.3
199.339	297.01
199.809	324.71
200.279	313.41
200.749	324.15
201.219	344.22
201.689	347.32
202.159	376.99
202.628	367.67
203.098	356.08
203.568	402.69
204.037	382.64
204.507	378.97
204.976	400.43
205.445	396.2
205.915	389.7
206.384	381.23
206.853	403.26
207.323	388.29
207.792	390.27
208.261	401
208.73	400.15
209.199	386.88
209.668	396.48
210.137	399.02
210.606	388.01
211.075	381.51
211.543	358.63
212.012	372.47
212.481	361.45
212.95	375.01
213.418	354.11
213.887	364.28
214.355	339.41
214.824	383.49
215.292	366.82
215.76	373.6
216.229	378.12
216.697	377.56
217.165	350.72
217.633	344.5
218.101	348.74
218.569	372.47
219.037	354.95
219.505	353.82
219.973	345.35
220.441	361.74
220.909	360.61
221.377	354.67
221.844	348.46
222.312	369.93
222.78	359.76
223.247	358.91
223.715	360.89
224.182	379.25
224.65	340.83
225.117	357.78
225.584	339.98
226.052	339.98
226.519	364.84
226.986	335.74
227.453	367.1
227.92	358.06
228.387	370.78
228.854	359.76
229.321	364.84
229.788	341.39
230.255	377.56
230.722	367.95
231.189	371.91
231.655	361.45
232.122	381.23
232.589	369.93
233.055	368.52
233.522	364.28
233.988	383.77
234.454	364.28
234.921	357.22
235.387	349.59
235.853	382.92
236.32	328.67
236.786	363.71
237.252	371.62
237.718	380.95
238.184	366.82
238.65	347.04
239.116	380.95
239.582	367.39
240.047	382.64
240.513	358.63
240.979	357.5
241.445	375.3
241.91	373.32
242.376	388.01
242.841	373.32
243.307	377.84
243.772	358.91
244.238	375.58
244.703	364.28
245.168	362.02
245.633	364.84
246.099	366.26
246.564	380.1
247.029	377.56
247.494	365.13
247.959	374.45
248.424	380.66
248.889	379.53
249.353	403.54
249.818	357.22
250.283	364.56
250.748	371.06
251.212	378.4
251.677	364
252.141	377.56
252.606	382.64
253.07	396.48
253.535	382.08
253.999	375.58
254.463	374.73
254.927	365.69
255.392	388.01
255.856	393.94
256.32	374.45
256.784	372.47
257.248	374.45
257.712	354.39
258.176	384.34
258.64	386.31
259.103	402.13
259.567	392.53
260.031	395.92
260.495	371.06
260.958	387.44
261.422	388.57
261.885	386.6
262.349	403.26
262.812	378.4
263.275	393.66
263.739	382.08
264.202	372.19
264.665	381.79
265.128	365.69
265.591	375.86
266.054	380.38
266.517	384.62
266.98	371.62
267.443	390.83
267.906	390.83
268.369	379.25
268.832	399.59
269.294	375.58
269.757	382.92
270.22	379.25
270.682	389.98
271.145	368.52
271.607	376.99
272.07	366.54
272.532	388.29
272.994	367.95
273.456	386.31
273.919	388.57
274.381	383.77
274.843	383.77
275.305	375.3
275.767	349.02
276.229	394.79
276.691	384.62
277.153	354.67
277.614	386.88
278.076	371.34
278.538	356.37
279	355.8
279.461	388.85
279.923	375.58
280.384	367.39
280.846	401.56
281.307	381.23
281.769	389.42
282.23	376.71
282.691	408.06
283.152	410.88
283.613	391.11
284.075	389.7
284.536	400.72
284.997	374.45
285.458	360.32
285.918	410.03
286.379	403.82
286.84	379.53
287.301	396.76
287.762	365.69
288.222	383.49
288.683	372.47
289.143	399.02
289.604	379.25
290.064	392.24
290.525	375.58
290.985	386.31
291.445	412.01
291.906	384.34
292.366	402.98
292.826	404.39
293.286	392.24
293.746	395.92
294.206	391.4
294.666	416.53
295.126	403.82
295.586	396.76
296.046	402.13
296.506	399.59
296.965	389.42
297.425	371.06
297.884	403.26
298.344	386.03
298.804	367.39
299.263	389.42
299.722	392.53
300.182	396.2
300.641	405.52
301.1	387.44
301.559	400.72
302.019	415.68
302.478	391.96
302.937	350.72
303.396	363.43
303.855	405.52
304.314	392.24
304.772	410.32
305.231	402.41
305.69	385.75
306.149	398.17
306.607	396.48
307.066	369.08
307.524	395.63
307.983	393.09
308.441	379.82
308.9	381.23
309.358	382.92
309.816	412.29
310.275	410.32
310.733	407.21
311.191	408.06
311.649	391.68
312.107	392.24
312.565	401.85
313.023	401
313.481	378.4
313.939	387.73
314.397	385.75
314.854	418.22
315.312	377.84
315.77	414.55
316.227	410.03
316.685	391.4
317.142	413.42
317.6	389.7
318.057	387.16
318.514	406.36
318.972	384.62
319.429	414.27
319.886	397.61
320.343	414.55
320.8	399.59
321.257	395.35
321.714	425
322.171	380.66
322.628	398.46
323.085	379.53
323.542	406.08
323.998	382.64
324.455	405.23
324.912	412.29
325.368	405.52
325.825	375.3
326.281	395.35
326.738	406.36
327.194	413.14
327.65	395.07
328.107	397.61
328.563	415.12
329.019	393.37
329.475	414.27
329.931	404.95
330.387	423.3
330.843	395.63
331.299	399.02
331.755	400.43
332.211	401.56
332.666	399.3
333.122	415.68
333.578	376.43
334.033	401.85
334.489	406.08
334.944	421.05
335.4	416.25
335.855	432.34
336.31	415.96
336.766	416.25
337.221	431.77
337.676	399.87
338.131	397.61
338.586	432.62
339.041	419.92
339.496	385.75
339.951	384.9
340.406	417.09
340.861	383.77
341.316	426.41
341.771	392.53
342.225	390.27
342.68	403.26
343.134	389.42
343.589	415.68
344.043	412.86
344.498	386.03
344.952	400.72
345.406	432.62
345.861	420.76
346.315	423.87
346.769	380.95
347.223	399.59
347.677	414.55
348.131	425.56
348.585	424.72
349.039	418.5
349.493	392.24
349.947	395.92
350.401	401.28
350.854	423.02
351.308	400.43
351.762	386.88
352.215	406.65
352.669	414.27
353.122	415.68
353.575	422.17
354.029	398.46
354.482	384.34
354.935	416.81
355.388	405.23
355.842	410.6
356.295	400.15
356.748	415.68
357.201	405.52
357.654	398.74
358.106	395.63
358.559	419.07
359.012	417.09
359.465	414.83
359.917	428.95
360.37	433.75
360.823	406.65
361.275	414.27
361.728	384.62
362.18	421.61
362.632	407.21
363.085	432.34
363.537	408.91
363.989	391.11
364.441	418.5
364.893	439.39
365.345	402.41
365.797	417.38
366.249	429.8
366.701	412.86
367.153	415.4
367.605	416.25
368.057	412.29
368.508	404.1
368.96	414.55
369.411	415.96
369.863	419.07
370.314	414.55
370.766	402.13
371.217	422.17
371.669	424.43
372.12	439.96
372.571	422.46
373.022	425.28
373.473	419.63
373.924	403.82
374.375	415.12
374.826	396.76
375.277	408.06
375.728	430.64
376.179	409.75
376.63	433.18
377.08	432.06
377.531	404.1
377.981	410.88
378.432	422.74
378.883	425.56
379.333	443.91
379.783	421.33
380.234	428.39
380.684	414.55
381.134	415.68
381.584	410.6
382.034	393.37
382.485	425.84
382.935	423.59
383.385	419.35
383.834	409.75
384.284	425
384.734	398.74
385.184	429.23
385.634	434.88
386.083	422.74
386.533	411.16
386.982	439.39
387.432	417.09
387.881	426.97
388.331	434.88
388.78	436.29
389.229	413.42
389.679	436.01
390.128	439.11
390.577	397.33
391.026	441.37
391.475	417.38
391.924	430.36
392.373	414.27
392.822	412.01
393.27	447.01
393.719	419.07
394.168	433.18
394.617	427.54
395.065	415.12
395.514	436.57
395.962	410.6
396.411	415.96
396.859	412.58
397.307	427.82
397.756	450.4
398.204	416.53
398.652	423.87
399.1	449.27
399.548	453.22
399.996	454.92
400.444	438.83
400.892	419.63
401.34	440.52
401.788	440.52
402.236	446.45
402.683	454.07
403.131	483.98
403.579	436.01
404.026	456.89
404.474	433.75
404.921	447.01
405.369	447.58
405.816	461.69
406.263	452.94
406.71	433.75
407.158	481.72
407.605	478.05
408.052	496.1
408.499	489.9
408.946	454.92
409.393	492.72
409.84	508.51
410.286	502.59
410.733	509.92
411.18	516.13
411.626	594.19
412.073	597.85
412.52	688.77
412.966	782.67
413.413	889.07
413.859	1074.3
414.305	1291.18
414.752	1568.38
415.198	1900.29
415.644	2290.91
416.09	2758.63
416.536	3318.53
416.982	3951.65
417.428	4668.99
417.874	5498.75
418.32	6324.14
418.766	7147.03
419.211	8214.33
419.657	9112.9
420.103	10321.85
420.548	11219.22
420.994	12608.25
421.439	13705.22
421.885	14619.58
422.33	16032.44
422.776	17220.27
423.221	18185.36
423.666	19445.88
424.111	20759.08
424.556	21655.4
425.001	23064.3
425.446	24470.61
425.891	25758.76
426.336	26605.03
426.781	27971.26
427.226	30066.77
427.671	30633.29
428.115	31507.84
428.56	33200.62
429.005	34641.17
429.449	35202.09
429.894	36471.7
430.338	37659.96
430.782	37733.48
431.227	39213.09
431.671	39778.41
432.115	41090.01
432.559	42046.32
433.003	42184.56
433.447	42983.41
433.891	43405.91
434.335	43841.45
434.779	44447.07
435.223	44804.45
435.667	44796.67
436.111	45467.37
436.554	45384.18
436.998	44747.94
437.442	44928.34
437.885	46975.78
438.328	45420.98
438.772	45750.03
439.215	46170.4
439.659	45934.78
440.102	46156.47
440.545	45485.27
440.988	45414.42
441.431	46258.31
441.874	45702.04
442.317	46171.92
442.76	45521.34
443.203	44947.7
443.646	45809.65
444.089	45254.43
444.531	45928.21
444.974	44600.58
445.417	45637.66
445.859	44892.65
446.302	46054.7
446.744	45083.76
447.186	46380.26
447.629	45411.9
448.071	45393.25
448.513	45510.75
448.956	46798.86
449.398	45948.18
449.84	44714.04
450.282	45346.88
450.724	46191.67
451.166	45632.11
451.607	45517.3
452.049	45791.71
452.491	46730.19
452.933	46484.03
453.374	46848.98
453.816	47295.34
454.257	46982.14
454.699	48001.92
455.14	47716.63
455.582	47442.76
456.023	47231.51
456.464	47572.71
456.905	48155.39
457.347	48067.45
457.788	47203.44
458.229	47419.25
458.67	48313.19
459.111	46466.27
459.552	46412.47
459.992	46379.5
460.433	46196.49
460.874	45220.43
461.315	46382.03
461.755	45490.57
462.196	45048.29
462.636	44173.45
463.077	43883.95
463.517	43973.49
463.957	44389.41
464.398	43937.47
464.838	43903.21
465.278	42852.95
465.718	43144.34
466.158	42019.78
466.598	42465.97
467.038	41980.58
467.478	42505.73
467.918	42648.44
468.358	41878.65
468.798	41471.31
469.237	41493.34
469.677	41490.87
470.117	42160.23
470.556	39768.55
470.996	40499.57
471.435	40484.02
471.874	41241.38
472.314	40956.26
472.753	40051.9
473.192	40176.65
473.631	39762.4
474.07	40019.61
474.509	40115.99
474.948	40393.46
475.387	39703.05
475.826	38600.46
476.265	40414.68
476.704	39878.91
477.143	40287.62
477.581	40005.81
478.02	40552.64
478.458	39172.76
478.897	39875.95
479.335	40939.45
479.774	40364.1
480.212	40690.42
480.65	40700.05
481.089	40363.6
481.527	39891.23
481.965	39362.89
482.403	41333.43
482.841	40984.44
483.279	40979
483.717	41156.04
484.155	40696.1
484.592	41048.47
485.03	41183.25
485.468	40253.83
485.905	40392.96
486.343	40947.11
486.781	40261.73
487.218	39711.67
487.655	39646.66
488.093	38746.35
488.53	40077.04
488.967	39302.62
489.405	39248.75
489.842	38437.68
490.279	38345.64
490.716	37961.72
491.153	38422.96
491.59	37818.79
492.027	37253.8
492.463	36691.1
492.9	36129.65
493.337	36034.09
493.773	35929
494.21	35176.7
494.647	35018.74
495.083	34370.57
495.519	33912.46
495.956	33865.38
496.392	33279.38
496.828	32986.3
497.265	32321.2
497.701	32575.49
498.137	32136.65
498.573	31367.88
499.009	31892.59
499.445	31029.15
499.881	30579.87
500.316	30755.01
500.752	30030.16
501.188	29707.99
501.624	29646.72
502.059	28495.98
502.495	28360.8
502.93	28201.15
503.366	28482.05
503.801	27848.71
504.236	27613.82
504.672	27137.91
505.107	26942.94
505.542	26236.01
505.977	26345.64
506.412	25728.32
506.847	26145.75
507.282	25575.35
507.717	25112.02
508.152	25145.19
508.587	24960.59
509.021	24308.89
509.456	23979.64
509.891	24221.49
510.325	24033.83
510.76	23614.41
511.194	23387.29
511.628	23361.64
512.063	22789.25
512.497	22810.98
512.931	22459.66
513.366	22324.44
513.8	22148.61
514.234	21514.73
514.668	21524.14
515.102	21829.68
515.536	20840.71
515.969	21058.48
516.403	20581.88
516.837	20292.08
517.271	20464.94
517.704	19968.03
518.138	19784.27
518.571	19677.56
519.005	19241.96
519.438	19261.14
519.871	19105.46
520.305	18652.04
520.738	18547.02
521.171	18107.19
521.604	18229.81
522.037	18000.28
522.47	17642.36
522.903	17334.15
523.336	17319.39
523.769	17173.45
524.202	16677.62
524.634	16636.75
525.067	16432.58
525.5	16386.42
525.932	16180.85
526.365	15847.77
526.797	15636.1
527.23	15814.85
527.662	15137.56
528.094	14989.19
528.527	14995.24
528.959	14686.68
529.391	14529.26
529.823	14050.18
530.255	14091.63
530.687	13743.93
531.119	13534.35
531.551	13426.97
531.982	13147.16
532.414	12991.67
532.846	12710.9
533.277	12681.17
533.709	12221.19
534.14	12135.65
534.572	12063.07
535.003	11880.39
535.435	11670.76
535.866	11491.59
536.297	11204.9
536.728	11205.41
537.159	11142.5
537.59	10879.15
538.022	10732.86
538.452	10494.88
538.883	10358.58
539.314	10290.51
539.745	10025.22
540.176	9871.06
540.606	9670.88
541.037	9726.55
541.468	9471.5
541.898	9395.87
542.328	9287.91
542.759	9102.04
543.189	9061.16
543.619	8884.61
544.05	8726.52
544.48	8617.58
544.91	8537.13
545.34	8395.57
545.77	8254.91
546.2	8233.58
546.63	7988.3
547.06	7961.98
547.489	7890.28
547.919	7568.08
548.349	7624.01
548.778	7643.34
549.208	7462.94
549.637	7354.06
550.067	7216.78
550.496	7198.95
550.926	7045.23
551.355	6922.85
551.784	6972.76
552.213	6780.89
552.642	6744.84
553.071	6603.19
553.5	6542.32
553.929	6347.64
554.358	6415.73
554.787	6308.82
555.216	6197.57
555.645	6133.05
556.073	6062.4
556.502	6043.34
556.93	5827.9
557.359	5766.34
557.787	5810.13
558.216	5732.9
558.644	5609.11
559.072	5566.04
559.5	5471.87
559.929	5428.22
560.357	5495.29
560.785	5394.67
561.213	5334.46
561.641	5235.81
562.068	5212.6
562.496	5179.51
562.924	5132.26
563.352	5080.72
563.779	5067.36
564.207	5081.78
564.634	5046.78
565.062	4995.46
565.489	4887.38
565.917	4887.65
566.344	4843.47
566.771	4836.78
567.198	4737.37
567.625	4633.84
568.053	4639.75
568.48	4595.46
568.907	4554.38
569.333	4468.39
569.76	4384.49
570.187	4409.24
570.614	4281.65
571.04	4358.11
571.467	4191.38
571.894	4108.3
572.32	3970.3
572.747	3936.24
573.173	3856.18
573.599	3813.69
574.026	3745.99
574.452	3662.5
574.878	3664.67
575.304	3562.65
575.73	3485.79
576.156	3473.56
576.582	3465.41
577.008	3355.27
577.434	3324.52
577.86	3179.58
578.285	3238.18
578.711	3162.4
579.137	3111.93
579.562	3023.74
579.988	3019.92
580.413	2983.3
580.838	2916.32
581.264	2918.5
581.689	2867.89
582.114	2769.59
582.539	2765.2
582.964	2747.12
583.39	2674.73
583.814	2619.3
584.239	2608.6
584.664	2587.73
585.089	2571.53
585.514	2502.56
585.939	2472.87
586.363	2410.15
586.788	2413.46
587.212	2396.39
587.637	2358.95
588.061	2301.94
588.485	2244.88
588.91	2288.43
589.334	2209.02
589.758	2180.6
590.182	2162.94
590.606	2096.67
591.03	2075.39
591.454	2048.86
591.878	2076.5
592.302	2001.58
592.726	2004.07
593.15	1984.15
593.573	1934.62
593.997	1917.46
594.42	1886.72
594.844	1818
595.267	1849.59
595.691	1832.69
596.114	1836.85
596.537	1762.54
596.96	1778.62
597.384	1766.7
597.807	1725.91
598.23	1750.33
598.653	1683.99
599.076	1652.33
599.499	1642.88
599.921	1637.88
600.344	1632.88
600.767	1637.88
601.189	1610.64
601.612	1600.64
602.034	1595.91
602.457	1551.98
602.879	1540.29
603.302	1618.98
603.724	1568.11
604.146	1573.39
604.568	1542.24
604.991	1508.29
605.413	1539.74
605.835	1511.35
606.257	1524.43
606.678	1492.71
607.1	1471.82
607.522	1477.95
607.944	1438.96
608.365	1494.93
608.787	1468.21
609.209	1411.66
609.63	1430.6
610.051	1404.97
610.473	1393.26
610.894	1389.92
611.315	1369.57
611.737	1333.87
612.158	1335.55
612.579	1302.07
613	1306.25
613.421	1281.41
613.842	1248.19
614.263	1256.29
614.683	1251.26
615.104	1216.07
615.525	1207.41
615.945	1185.33
616.366	1170.52
616.787	1189.25
617.207	1184.78
617.627	1155.7
618.048	1124.94
618.468	1119.07
618.888	1103.12
619.308	1075.14
619.728	1056.39
620.148	1083.26
620.568	1071.78
620.988	1035.95
621.408	1043.79
621.828	1022.79
622.248	1001.78
622.668	1017.18
623.087	1034.83
623.507	1004.02
623.926	959.46
624.346	972.08
624.765	983.85
625.185	948.81
625.604	946.29
626.023	923.3
626.442	914.6
626.861	936.75
627.28	893.84
627.699	916
628.118	879.25
628.537	893.28
628.956	853.43
629.375	858.77
629.794	865.78
630.212	846.98
630.631	829.01
631.049	820.02
631.468	828.17
631.886	835.19
632.305	830.13
632.723	839.96
633.141	828.73
633.559	792.78
633.978	798.96
634.396	802.89
634.814	798.96
635.232	782.67
635.65	766.37
636.067	768.62
636.485	748.66
636.903	791.37
637.321	742.48
637.738	727.01
638.156	724.48
638.573	723.92
638.991	742.76
639.408	725.05
639.825	712.96
640.243	701.99
640.66	707.61
641.077	712.39
641.494	665.7
641.911	703.96
642.328	696.36
642.745	700.86
643.162	669.07
643.579	676.95
643.995	678.08
644.412	667.38
644.829	655.56
645.245	664.01
645.662	662.6
646.078	658.1
646.495	648.53
646.911	649.65
647.327	642.62
647.743	648.81
648.159	656.69
648.576	646
648.992	638.96
649.408	627.7
649.824	624.04
650.239	608.27
650.655	642.9
651.071	623.76
651.487	592.78
651.902	601.23
652.318	617.84
652.733	606.3
653.149	607.42
653.564	608.27
653.979	589.68
654.395	590.81
654.81	595.03
655.225	601.23
655.64	588.27
656.055	582.92
656.47	567.99
656.885	598.41
657.3	564.04
657.715	575.03
658.13	556.72
658.544	553.33
658.959	559.25
659.374	534.73
659.788	547.98
660.202	544.32
660.617	536.99
661.031	535.01
661.445	557.28
661.86	532.76
662.274	569.4
662.688	547.98
663.102	527.97
663.516	523.46
663.93	554.46
664.344	556.15
664.758	531.91
665.171	510.49
665.585	561.51
665.999	522.61
666.412	540.37
666.826	539.81
667.239	550.8
667.653	508.51
668.066	504
668.479	549.11
668.892	531.35
669.306	521.2
669.719	515.84
670.132	523.74
670.545	483.13
670.958	507.1
671.37	520.92
671.783	514.43
672.196	491.31
672.609	495.82
673.021	499.21
673.434	528.81
673.846	480.31
674.259	502.31
674.671	488.49
675.084	483.98
675.496	477.49
675.908	486.8
676.32	496.67
676.732	493
677.144	479.46
677.556	470.15
677.968	480.59
678.38	520.07
678.792	489.33
679.204	508.79
679.615	487.36
680.027	486.8
680.439	496.1
680.85	493.57
681.262	472.97
681.673	473.82
682.084	470.72
682.496	507.67
682.907	487.92
683.318	471
683.729	480.59
684.14	469.31
684.551	488.77
684.962	474.67
685.373	480.03
685.784	461.41
686.194	470.15
686.605	445.32
687.016	426.69
687.426	481.44
687.837	447.58
688.247	444.19
688.657	460
689.068	458.02
689.478	466.48
689.888	458.87
690.298	439.96
690.708	457.46
691.118	445.6
691.528	439.39
691.938	454.92
692.348	455.2
692.758	428.95
693.168	441.93
693.577	465.92
693.987	428.67
694.396	457.17
694.806	437.14
695.215	457.17
695.625	442.22
696.034	460.84
696.443	449.84
696.852	444.19
697.262	458.3
697.671	445.89
698.08	426.97
698.489	443.35
698.897	457.17
699.306	414.83
699.715	435.16
700.124	449.55
700.532	419.35
700.941	424.15
701.35	419.92
701.758	440.52
702.166	431.21
702.575	450.97
702.983	420.76
703.391	426.13
703.799	428.95
704.208	411.16
704.616	436.01
705.024	431.77
705.432	408.62
705.839	438.27
706.247	438.27
706.655	424.43
707.063	434.31
707.47	411.16
707.878	428.39
708.285	410.6
708.693	425.84
709.1	407.21
709.508	422.74
709.915	416.25
710.322	442.78
710.729	445.04
711.136	398.74
711.543	385.47
711.95	406.36
712.357	417.09
712.764	420.48
713.171	428.39
713.578	427.54
713.984	412.01
714.391	409.47
714.797	411.45
715.204	429.8
715.61	397.33
716.017	382.08
716.423	412.01
716.829	431.21
717.236	404.1
717.642	442.5
718.048	384.05
718.454	436.01
718.86	415.4
719.266	423.87
719.671	407.78
720.077	413.14
720.483	426.97
720.889	399.3
721.294	415.68
721.7	418.79
722.105	425
722.511	404.95
722.916	406.93
723.321	393.09
723.726	430.36
724.132	405.52
724.537	425.28
724.942	383.21
725.347	420.2
725.752	425
726.156	414.27
726.561	423.3
726.966	407.21
727.371	425.28
727.775	409.75
728.18	385.75
728.584	405.8
728.989	385.47
729.393	435.44
729.798	411.45
730.202	409.47
730.606	433.18
731.01	389.7
731.414	396.2
731.818	404.67
732.222	423.02
732.626	383.77
733.03	434.88
733.434	389.42
733.837	423.02
734.241	409.19
734.645	438.83
735.048	420.48
735.452	397.05
735.855	419.63
736.258	413.99
736.662	423.87
737.065	409.19
737.468	417.38
737.871	387.73
738.274	386.6
738.677	413.71
739.08	404.95
739.483	423.87
739.886	403.82
740.289	411.16
740.691	388.01
741.094	389.42
741.497	405.23
741.899	413.42
742.302	387.44
742.704	398.74
743.106	410.6
743.508	391.96
743.911	380.1
744.313	403.26
744.715	397.89
745.117	430.36
745.519	426.97
745.921	420.2
746.323	392.81
746.724	380.38
747.126	401.85
747.528	391.96
747.929	400.43
748.331	400.15
748.732	394.79
749.134	410.88
749.535	400.43
749.936	415.68
750.338	367.1
750.739	392.81
751.14	385.75
751.541	386.31
751.942	410.88
752.343	414.27
752.744	404.67
753.144	433.47
753.545	406.08
753.946	405.8
754.346	399.59
754.747	398.74
755.148	384.05
755.548	403.26
755.948	402.13
756.349	395.35
756.749	382.92
757.149	413.14
757.549	388.85
757.949	412.29
758.349	387.44
758.749	393.94
759.149	389.14
759.549	381.23
759.949	421.05
760.348	395.07
760.748	399.02
761.148	377.27
761.547	419.63
761.947	391.68
762.346	397.61
762.745	420.48
763.145	374.73
763.544	385.47
763.943	389.7
764.342	403.26
764.741	392.81
765.14	407.49
765.539	395.63
765.938	399.3
766.336	391.96
766.735	370.78
767.134	373.88
767.532	370.78
767.931	397.33
768.329	387.16
768.728	374.17
769.126	400.43
769.525	403.82
769.923	393.09
770.321	398.74
770.719	376.99
771.117	389.98
771.515	387.44
771.913	384.34
772.311	408.91
772.709	372.75
773.106	389.7
773.504	387.16
773.902	396.48
774.299	388.01
774.697	406.08
775.094	412.29
775.491	405.8
775.889	410.88
776.286	373.32
776.683	382.08
777.08	396.48
777.477	374.17
777.874	388.57
778.271	386.31
778.668	406.65
779.065	371.91
779.462	388.01
779.858	390.83
780.255	373.04
780.652	393.94
781.048	386.31
781.444	388.29
781.841	377.27
782.237	410.03
782.633	395.63
783.03	409.75
783.426	385.18
783.822	390.55
784.218	379.53
784.614	385.75
785.01	400.15
785.405	404.1
785.801	403.26
786.197	375.01
786.593	402.69
786.988	376.99
787.384	393.66
787.779	388.01
788.174	399.59
788.57	362.87
788.965	384.9
789.36	388.01
789.755	376.43
790.15	383.77
790.545	385.18
790.94	393.37
791.335	390.55
791.73	391.4
792.125	375.86
792.52	387.73
792.914	403.82
793.309	400.72
793.703	402.98
794.098	382.36
794.492	382.08
794.887	410.03
795.281	403.82
795.675	410.6
796.069	422.17
796.463	394.5
796.857	384.9
797.251	398.74
797.645	375.58
798.039	381.23
798.433	383.21
798.826	384.9
799.22	393.37
799.614	395.07
800.007	380.38
800.401	383.77
800.794	364.56
801.187	386.6
801.581	389.98
801.974	387.73
802.367	378.12
802.76	395.63
803.153	395.63
803.546	406.08
803.939	378.12
804.332	376.71
804.725	394.79
805.117	385.75
805.51	374.45
805.903	388.01
806.295	380.66
806.688	371.62
807.08	422.46
807.472	394.22
807.865	386.31
808.257	378.12
808.649	382.64
809.041	395.07
809.433	380.38
809.825	397.33
810.217	402.41
810.609	388.85
811.001	374.73
811.392	383.77
811.784	395.07
812.175	391.96
812.567	382.64
812.958	386.31
813.35	425
813.741	375.01
814.132	397.89
814.524	395.63
814.915	371.34
815.306	384.34
815.697	366.26
816.088	372.47
816.479	384.9
816.87	374.45
817.26	392.53
817.651	404.95
818.042	380.38
818.432	426.13
818.823	391.68
819.213	375.3
819.604	380.95
819.994	384.34
820.384	399.02
820.775	386.88
821.165	408.62
821.555	377.27
821.945	398.17
822.335	382.92
822.725	389.7
823.114	386.6
823.504	376.71
823.894	379.82
824.284	380.38
824.673	375.3
825.063	378.69
825.452	391.96
825.842	394.22
826.231	369.36
826.62	384.62
827.009	378.4
827.399	403.82
827.788	397.89
828.177	382.64
828.566	410.88
828.954	395.07
829.343	405.52
829.732	381.51
830.121	403.26
830.509	386.6
830.898	385.18
831.286	386.6
831.675	380.1
832.063	400.72
832.452	405.52
832.84	397.89
833.228	394.79
833.616	376.99
834.004	380.1
834.392	390.83
834.78	395.35
835.168	385.47
835.556	405.8
835.944	382.64
836.331	396.48
836.719	402.69
837.107	388.01
837.494	380.95
837.881	363.15
838.269	393.37
838.656	385.75
839.043	354.11
839.431	398.17
839.818	369.36
840.205	393.66
840.592	394.79
840.979	401
841.366	389.7
841.752	392.53
842.139	389.7
842.526	372.75
842.912	384.34
843.299	389.14
843.685	408.91
844.072	394.79
844.458	364.28
844.844	378.4
845.231	363.15
845.617	372.75
846.003	374.45
846.389	396.76
846.775	382.36
847.161	336.59
847.547	365.13
847.933	379.53
848.318	375.86
848.704	383.77
849.09	378.69
849.475	395.63
849.861	354.39
850.246	374.17
850.631	372.47
851.017	368.52
851.402	369.93
851.787	387.73
852.172	397.33
852.557	370.49
852.942	402.98
853.327	385.47
853.712	375.86
854.097	377.56
854.481	388.85
854.866	381.79
855.25	367.95
855.635	402.98
856.019	383.77
856.404	382.08
856.788	375.01
857.172	382.64
857.557	383.49
857.941	378.69
858.325	343.65
858.709	364
859.093	373.6
859.477	391.68
859.86	398.17
860.244	380.38
860.628	399.59
861.012	369.08
861.395	391.11
861.779	385.47
862.162	384.05
862.545	392.24
862.929	397.33
863.312	384.62
863.695	396.76
864.078	371.34
864.461	370.49
864.844	372.47
865.227	405.52
865.61	379.25
865.993	389.14
866.376	395.35
866.758	384.34
867.141	363.71
867.523	385.47
867.906	365.13
868.288	373.88
868.671	380.95
869.053	377.56
869.435	386.31
869.817	405.8
870.199	378.12
870.581	398.74
870.963	361.17
871.345	388.29
871.727	363.43
872.109	382.08
872.491	370.78
872.872	358.35
873.254	382.64
873.635	382.36
874.017	376.14
874.398	367.1
874.779	366.26
875.161	397.89
875.542	399.02
875.923	401
876.304	370.21
876.685	368.52
877.066	366.82
877.447	368.52
877.828	374.17
878.208	373.04
878.589	361.74
878.97	362.3
879.35	365.13
879.731	361.74
880.111	353.54
880.491	347.61
880.872	397.89
881.252	396.2
881.632	377.56
882.012	364.84
882.392	395.92
882.772	369.93
883.152	381.79
883.532	403.26
883.912	380.66
884.291	352.41
884.671	397.89
885.051	391.11
885.43	381.79
885.81	369.08
886.189	361.74
886.568	376.99
886.948	380.38
887.327	365.69
887.706	360.04
888.085	372.47
888.464	381.23
888.843	369.08
889.222	387.73
889.601	372.19
889.979	375.3
890.358	393.66
890.737	382.92
891.115	379.53
891.494	371.34
891.872	378.69
892.25	388.85
892.629	395.63
893.007	377.27
893.385	377.84
893.763	387.16
894.141	395.07
894.519	361.74
894.897	362.02
895.275	390.55
895.653	367.95
896.03	391.68
896.408	400.15
896.786	367.67
897.163	366.26
897.541	387.73
897.918	380.95
898.295	361.74
898.673	360.32
899.05	387.73
899.427	398.74
899.804	403.26
900.181	376.71
900.558	364.84
900.935	370.78
901.312	386.31
901.688	379.53
902.065	371.91
902.442	355.8
902.818	373.88
903.195	375.58
903.571	400.72
903.947	375.3
904.324	394.22
904.7	379.82
905.076	381.23
905.452	388.85
905.828	381.51
906.204	355.24
906.58	379.25
906.956	384.62
907.331	364.56
907.707	384.62
908.083	370.21
908.458	386.31
908.834	383.77
909.209	374.45
909.585	394.5
909.96	391.11
910.335	387.73
910.71	385.47
911.086	378.69
911.461	376.71
911.836	368.23
912.21	401
912.585	375.86
912.96	368.52
913.335	377.27
913.709	397.05
914.084	384.34
914.459	388.29
914.833	399.02
915.207	371.62
915.582	384.62
915.956	372.19
916.33	358.63
916.704	407.21
917.078	372.75
917.452	391.96
917.826	386.31
918.2	376.43
918.574	381.23
918.948	377.56
919.321	371.34
919.695	375.58
920.068	377.27
920.442	362.58
920.815	377.84
921.189	378.97
921.562	369.08
921.935	386.31
922.308	368.52
922.681	402.13
923.054	383.49
923.427	367.1
923.8	356.93
924.173	369.93
924.546	371.91
924.919	371.34
925.291	383.21
925.664	340.83
926.036	370.78
926.409	376.14
926.781	399.59
927.153	380.1
927.526	365.13
927.898	376.43
928.27	365.41
928.642	359.76
929.014	366.82
929.386	392.24
929.758	367.1
930.129	387.16
930.501	376.71
930.873	337.15
931.244	371.34
931.616	372.75
931.987	366.82
932.359	387.73
932.73	389.7
933.101	358.63
933.472	385.75
933.843	378.12
934.214	388.29
934.585	375.01
934.956	380.95
935.327	378.4
935.698	412.29
936.069	360.04
936.439	392.81
936.81	362.02
937.18	397.89
937.551	378.97
937.921	360.61
938.292	366.82
938.662	364.84
939.032	399.02
939.402	379.25
939.772	389.98
940.142	373.32
940.512	368.52
940.882	376.43
941.252	389.14
941.621	403.26
941.991	386.31
942.361	391.4
942.73	393.94
943.1	389.98
943.469	372.75
943.838	376.99
944.208	378.69
944.577	371.62
944.946	352.13
945.315	373.04
945.684	380.66
946.053	355.8
946.422	369.65
946.791	351.56
947.159	358.35
947.528	364
947.897	370.49
948.265	371.62
948.634	348.17
949.002	366.82
949.371	383.77
949.739	342.8
950.107	362.58
950.475	389.98
950.843	391.96
951.211	367.67
951.579	376.43
951.947	393.37
952.315	344.78
952.683	366.26
953.05	379.25
953.418	382.08
953.785	375.86
954.153	360.89
954.52	385.47
954.888	382.36
955.255	367.1
955.622	324.43
955.989	389.14
956.356	352.98
956.723	375.86
957.09	374.45
957.457	375.58
957.824	338.85
958.191	376.71
958.557	362.3
958.924	370.21
959.291	374.73
959.657	356.65
960.023	377.84
960.39	338.85
960.756	364.56
961.122	368.52
961.488	349.3
961.855	375.3
962.221	378.4
962.586	365.13
962.952	387.44
963.318	380.38
963.684	370.78
964.05	390.55
964.415	352.13
964.781	363.43
965.146	354.95
965.512	379.82
965.877	369.36
966.242	367.95
966.608	367.67
966.973	376.71
967.338	387.44
967.703	382.08
968.068	365.41
968.433	360.32
968.797	382.08
969.162	372.19
969.527	373.32
969.891	344.22
970.256	359.76
970.62	376.43
970.985	346.19
971.349	374.45
971.714	363.43
972.078	379.53
972.442	357.78
972.806	376.99
973.17	366.82
973.534	382.64
973.898	341.67
974.262	380.38
974.625	377.84
974.989	346.48
975.353	360.32
975.716	364.28
976.08	380.95
976.443	364
976.806	361.17
977.17	384.9
977.533	367.95
977.896	397.89
978.259	374.73
978.622	394.22
978.985	373.32
979.348	358.91
979.711	393.94
980.073	368.52
980.436	354.11
980.799	339.13
981.161	368.23
981.524	364
981.886	365.97
982.248	351.56
982.611	386.31
982.973	351.28
983.335	370.49
983.697	354.95
984.059	373.6
984.421	349.59
984.783	349.02
985.145	377.56
985.506	375.86
985.868	376.99
986.23	385.47
986.591	365.41
986.953	387.44
987.314	357.78
987.675	358.63
988.037	518.38
988.398	374.45
988.759	370.78
989.12	379.53
989.481	376.71
989.842	372.19
990.203	372.19
990.564	350.15
990.924	379.25
991.285	495.82
991.646	369.93
992.006	380.66
992.367	370.78
992.727	359.19
993.087	379.82
993.448	358.06
993.808	369.93
994.168	351.56
994.528	408.34
994.888	377.84
995.248	365.13
995.608	388.29
995.967	366.26
996.327	382.36
996.687	377.27
997.046	384.34
997.406	358.35
997.765	359.76
998.125	396.2
998.484	371.34
998.843	352.41
999.202	349.3
999.561	377.56
999.92	365.41
1000.279	343.93
1000.638	379.82
1000.997	381.79
1001.356	377.27
1001.715	376.99
1002.073	378.12
1002.432	364.56
1002.79	392.81
1003.149	386.03
1003.507	374.45
1003.865	359.19
1004.224	363.15
1004.582	390.83
1004.94	372.47
1005.298	355.24
1005.656	374.73
1006.014	374.73
1006.371	365.69
1006.729	380.38
1007.087	376.99
1007.445	388.29
1007.802	332.35
1008.16	393.09
1008.517	352.13
1008.874	365.69
1009.232	370.21
1009.589	386.03
1009.946	364.28
1010.303	365.97
1010.66	365.13
1011.017	387.16
1011.374	368.23
1011.731	358.63
1012.087	389.14
1012.444	392.81
1012.801	375.58
1013.157	377.56
1013.513	350.72
1013.87	340.83
1014.226	334.89
1014.582	379.25
1014.939	362.87
1015.295	405.8
1015.651	376.43
1016.007	375.01
1016.363	362.87
1016.719	374.17
1017.074	378.97
1017.43	363.43
1017.786	371.06
1018.141	369.36
1018.497	380.95
1018.852	385.75
1019.208	387.73
1019.563	339.41
1019.918	334.89
1020.273	366.54
1020.628	392.24
1020.983	361.45
1021.338	353.54
1021.693	356.93
1022.048	368.23
1022.403	350.72
1022.757	360.04
1023.112	385.75
1023.467	375.3
1023.821	354.11
1024.175	383.21
1024.53	336.3
1024.884	378.69
1025.238	364.56
1025.592	360.32
1025.946	377.56
1026.3	371.34
1026.654	359.48
1027.008	351.85
1027.362	334.32
1027.716	331.78
1028.069	353.54
1028.423	356.93
1028.777	378.12
1029.13	360.61
1029.483	362.02
1029.837	362.87
1030.19	371.91
1030.543	369.36
1030.896	382.64
1031.249	364.28
1031.602	361.45
1031.955	367.67
1032.308	366.26
1032.661	385.18
1033.013	363.43
1033.366	392.53
1033.719	362.87
1034.071	380.38
1034.424	364.84
1034.776	396.48
1035.128	393.66
1035.48	374.73
1035.833	366.82
1036.185	375.3
1036.537	375.3
1036.889	375.3
