Data from SCSF78-405_irradiation_FLMS019251_12-33-27-890.txt Node
Date: Fri Feb 22 12:33:27 PST 2019
User: mu3e
Spectrometer: FLMS01925
Trigger mode: 0
Integration Time (sec): 1.206000E-2
Scans to average: 10
Electric dark correction enabled: true
Nonlinearity correction enabled: true
Boxcar width: 0
XAxis mode: Wavelengths
Number of Pixels in Spectrum: 2048
>>>>>Begin Spectral Data<<<<<
187.103	-80.02
187.574	-80.02
188.045	-80.02
188.516	-145.14
188.987	-133.76
189.458	-122.38
189.929	-115.84
190.4	-142.29
190.871	-110.72
191.342	-91.96
191.813	-36.83
192.284	-38.25
192.754	-9.28
193.225	17.12
193.696	19.39
194.166	55.15
194.637	65.08
195.107	103.65
195.578	133.69
196.048	107.05
196.518	165.43
196.989	177.89
197.459	219.52
197.929	239.9
198.399	278.66
198.869	284.88
199.339	292.23
199.809	325.88
200.279	359.51
200.749	347.93
201.219	373.64
201.689	338.32
202.159	388.89
202.628	390.02
203.098	395.67
203.568	385.78
204.037	384.94
204.507	396.8
204.976	390.02
205.445	409.22
205.915	395.67
206.384	397.65
206.853	413.46
207.323	431.53
207.792	409.79
208.261	419.95
208.73	386.91
209.199	397.36
209.668	388.89
210.137	398.49
210.606	375.61
211.075	396.8
211.543	388.33
212.012	382.68
212.481	376.46
212.95	390.87
213.418	387.2
213.887	371.94
214.355	335.49
214.824	372.22
215.292	361.21
215.76	358.66
216.229	366.01
216.697	358.95
217.165	356.12
217.633	370.81
218.101	347.08
218.569	356.12
219.037	366.01
219.505	346.8
219.973	353.58
220.441	370.25
220.909	352.16
221.377	375.05
221.844	331.53
222.312	357.25
222.78	358.66
223.247	357.82
223.715	389.17
224.182	371.66
224.65	378.44
225.117	351.6
225.584	344.53
226.052	379.57
226.519	379.57
226.986	360.92
227.453	381.55
227.92	367.99
228.387	347.93
228.854	395.95
229.321	384.37
229.788	365.16
230.255	349.34
230.722	369.12
231.189	361.21
231.655	391.43
232.122	375.9
232.589	372.79
233.055	360.36
233.522	357.25
233.988	384.37
234.454	364.31
234.921	385.5
235.387	362.9
235.853	375.61
236.32	379
236.786	362.9
237.252	368.27
237.718	378.16
238.184	386.63
238.65	390.3
239.116	384.94
239.582	369.96
240.047	351.6
240.513	344.82
240.979	396.52
241.445	371.09
241.91	388.33
242.376	389.74
242.841	383.24
243.307	369.96
243.772	402.16
244.238	382.11
244.703	380.7
245.168	362.05
245.633	377.87
246.099	362.05
246.564	380.98
247.029	389.74
247.494	393.13
247.959	406.96
248.424	377.87
248.889	376.74
249.353	374.48
249.818	368.55
250.283	379.85
250.748	377.87
251.212	410.07
251.677	406.4
252.141	392
252.606	384.09
253.07	386.63
253.535	385.5
253.999	389.74
254.463	399.34
254.927	355.27
255.392	399.34
255.856	382.68
256.32	407.81
256.784	383.81
257.248	381.83
257.712	380.7
258.176	391.43
258.64	386.35
259.103	392.56
259.567	366.86
260.031	391.71
260.495	388.89
260.958	388.04
261.422	379.85
261.885	382.39
262.349	373.35
262.812	363.75
263.275	389.17
263.739	378.72
264.202	371.09
264.665	412.61
265.128	383.24
265.591	399.9
266.054	390.58
266.517	393.13
266.98	394.54
267.443	399.06
267.906	380.13
268.369	388.33
268.832	402.16
269.294	352.45
269.757	396.23
270.22	362.9
270.682	405.83
271.145	402.45
271.607	396.52
272.07	400.19
272.532	397.65
272.994	396.23
273.456	430.4
273.919	393.97
274.381	406.12
274.843	399.62
275.305	427.01
275.767	388.04
276.229	401.6
276.691	391.71
277.153	395.67
277.614	394.26
278.076	386.91
278.538	386.35
279	387.2
279.461	408.38
279.923	392
280.384	358.38
280.846	382.68
281.307	410.07
281.769	380.98
282.23	393.69
282.691	408.09
283.152	396.23
283.613	383.81
284.075	417.13
284.536	399.62
284.997	402.45
285.458	391.15
285.918	384.09
286.379	370.25
286.84	418.82
287.301	401.32
287.762	378.44
288.222	400.19
288.683	415.43
289.143	375.33
289.604	384.09
290.064	421.36
290.525	393.69
290.985	408.66
291.445	419.67
291.906	402.73
292.366	387.76
292.826	430.68
293.286	422.49
293.746	381.55
294.206	407.81
294.666	417.98
295.126	388.61
295.586	412.89
296.046	425.6
296.506	392.56
296.965	390.87
297.425	375.9
297.884	407.53
298.344	386.91
298.804	409.51
299.263	387.2
299.722	390.02
300.182	407.53
300.641	401.88
301.1	411.48
301.559	398.77
302.019	398.77
302.478	405.55
302.937	396.8
303.396	393.69
303.855	404.99
304.314	406.4
304.772	426.44
305.231	406.96
305.69	433.22
306.149	419.39
306.607	403.86
307.066	404.42
307.524	410.07
307.983	407.53
308.441	407.81
308.9	406.4
309.358	432.66
309.816	400.19
310.275	408.09
310.733	422.49
311.191	394.26
311.649	400.75
312.107	412.61
312.565	398.49
313.023	383.24
313.481	395.95
313.939	409.51
314.397	383.52
314.854	390.87
315.312	400.19
315.77	393.97
316.227	387.2
316.685	419.95
317.142	424.19
317.6	433.5
318.057	416.56
318.514	400.47
318.972	428.99
319.429	439.71
319.886	419.95
320.343	430.4
320.8	414.02
321.257	417.13
321.714	427.01
322.171	431.24
322.628	403.58
323.085	414.59
323.542	391.15
323.998	409.22
324.455	403.58
324.912	397.65
325.368	379.29
325.825	400.19
326.281	413.18
326.738	414.59
327.194	391.15
327.65	423.06
328.107	387.48
328.563	421.93
329.019	430.96
329.475	447.9
329.931	427.86
330.387	430.11
330.843	410.92
331.299	423.06
331.755	424.75
332.211	419.39
332.666	422.49
333.122	407.81
333.578	437.74
334.033	390.87
334.489	399.06
334.944	387.2
335.4	433.78
335.855	412.89
336.31	416
336.766	416.56
337.221	401.6
337.676	417.13
338.131	428.7
338.586	405.83
339.041	389.17
339.496	423.62
339.951	416
340.406	398.49
340.861	400.75
341.316	408.66
341.771	419.39
342.225	409.51
342.68	410.63
343.134	424.75
343.589	406.96
344.043	418.54
344.498	412.61
344.952	399.06
345.406	442.25
345.861	399.62
346.315	400.47
346.769	406.96
347.223	445.64
347.677	423.06
348.131	440.84
348.585	436.89
349.039	406.96
349.493	397.08
349.947	430.4
350.401	441.97
350.854	397.36
351.308	428.14
351.762	430.4
352.215	441.97
352.669	403.58
353.122	417.69
353.575	419.39
354.029	402.73
354.482	448.74
354.935	410.63
355.388	415.72
355.842	417.98
356.295	416
356.748	442.53
357.201	431.24
357.654	420.8
358.106	410.63
358.559	424.47
359.012	401.88
359.465	428.99
359.917	422.77
360.37	412.89
360.823	410.92
361.275	446.2
361.728	392.84
362.18	405.55
362.632	431.81
363.085	406.4
363.537	409.51
363.989	419.39
364.441	420.23
364.893	405.83
365.345	452.41
365.797	396.23
366.249	413.18
366.701	422.77
367.153	419.39
367.605	424.47
368.057	423.9
368.508	399.9
368.96	408.09
369.411	406.4
369.863	424.75
370.314	431.81
370.766	420.23
371.217	398.49
371.669	427.86
372.12	438.02
372.571	460.59
373.022	397.08
373.473	414.02
373.924	415.15
374.375	422.77
374.826	447.05
375.277	409.79
375.728	431.24
376.179	414.02
376.63	414.31
377.08	413.46
377.531	436.04
377.981	439.43
378.432	423.34
378.883	429.83
379.333	430.4
379.783	403.86
380.234	429.83
380.684	423.9
381.134	400.19
381.584	416.28
382.034	416
382.485	437.17
382.935	445.36
383.385	432.37
383.834	433.5
384.284	426.73
384.734	455.52
385.184	450.44
385.634	439.43
386.083	420.52
386.533	447.33
386.982	403.01
387.432	411.76
387.881	454.95
388.331	438.02
388.78	432.09
389.229	433.78
389.679	460.59
390.128	408.94
390.577	424.47
391.026	427.29
391.475	414.02
391.924	419.1
392.373	452.69
392.822	433.5
393.27	430.4
393.719	452.69
394.168	441.12
394.617	429.27
395.065	436.61
395.514	443.66
395.962	419.1
396.411	440.28
396.859	412.61
397.307	427.29
397.756	469.62
398.204	440.56
398.652	432.09
399.1	448.74
399.548	441.12
399.996	454.67
400.444	453.26
400.892	435.48
401.34	468.21
401.788	454.39
402.236	445.64
402.683	460.59
403.131	449.03
403.579	473.86
404.026	464.54
404.474	468.21
404.921	502.34
405.369	459.47
405.816	508.83
406.263	463.98
406.71	473.29
407.158	474.7
407.605	497.55
408.052	474.14
408.499	485.42
408.946	498.68
409.393	502.63
409.84	521.24
410.286	537.02
410.733	538.15
411.18	573.66
411.626	602.39
412.073	638.43
412.52	703.99
412.966	763.03
413.413	942.96
413.859	1098.68
414.305	1287.59
414.752	1601.51
415.198	1947.94
415.644	2355.41
416.09	2872.58
416.536	3458.65
416.982	4132.35
417.428	4881.53
417.874	5636.78
418.32	6568.97
418.766	7459.58
419.211	8573.5
419.657	9587.63
420.103	10785.68
420.548	11704.47
420.994	13070.86
421.439	14293.25
421.885	15355.63
422.33	16883.18
422.776	17952.59
423.221	19075.6
423.666	20359.43
424.111	21741.09
424.556	22704.06
425.001	24321.97
425.446	25708.47
425.891	27000.05
426.336	27938.03
426.781	29364.26
427.226	31475.2
427.671	32202.99
428.115	33211.14
428.56	34809.84
429.005	36503.52
429.449	37056.74
429.894	38388.38
430.338	39679.19
430.782	39731.4
431.227	41319.85
431.671	41762.17
432.115	43344.57
432.559	44455.88
433.003	44390.44
433.447	45231.04
433.891	45744
434.335	46207.16
434.779	47087.93
435.223	47228.74
435.667	47174.39
436.111	47905.92
436.554	47741.77
436.998	47256.56
437.442	47473.48
437.885	49548.99
438.328	47903.1
438.772	48240.34
439.215	48977.71
439.659	48498.87
440.102	48698.82
440.545	48151.82
440.988	48017.11
441.431	49009.62
441.874	48387.18
442.317	48690.54
442.76	48124.55
443.203	47679.77
443.646	48392.08
444.089	47734.6
444.531	48635.22
444.974	47233.84
445.417	48388.47
445.859	47300.48
446.302	48589.49
446.744	47833.82
447.186	48998.98
447.629	48064.65
448.071	47919.01
448.513	48136.64
448.956	49739.72
449.398	48702.44
449.84	47494.96
450.282	48160.05
450.724	48827.68
451.166	48555.92
451.607	48272.78
452.049	48265.31
452.491	49567.52
452.933	49071.38
453.374	49751.23
453.816	50223.25
454.257	49644.56
454.699	50975.83
455.14	50564.3
455.582	50367.07
456.023	50287.49
456.464	50504.84
456.905	51025.31
457.347	50994.18
457.788	50128.83
458.229	50079.69
458.67	51356.45
459.111	49296.98
459.552	49541.68
459.992	49243.13
460.433	48956.45
460.874	48030.73
461.315	49295.16
461.755	48274.33
462.196	47787.4
462.636	47006.38
463.077	46614.08
463.517	46723.61
463.957	47113.94
464.398	46602.64
464.838	46861.23
465.278	45517.59
465.718	45941.89
466.158	44676.16
466.598	45237.84
467.038	44528.86
467.478	45113.49
467.918	45371.36
468.358	44457.13
468.798	44172.73
469.237	44123.66
469.677	43990.53
470.117	44746.47
470.556	42374.31
470.996	42980.95
471.435	42995.39
471.874	43787.74
472.314	43531.72
472.753	42515.95
473.192	42668.12
473.631	42413.32
474.07	42569.65
474.509	42623.35
474.948	42820.13
475.387	42137.92
475.826	41133.31
476.265	43041.22
476.704	42406.61
477.143	42940.11
477.581	42514.21
478.02	43263.52
478.458	41620.43
478.897	42377.54
479.335	43603.12
479.774	43207.68
480.212	43317.88
480.65	43184
481.089	42942.85
481.527	42340.53
481.965	41969.7
482.403	43969.02
482.841	43699.04
483.279	43803.49
483.717	43728.27
484.155	43158.83
484.592	43689.79
485.03	43993.28
485.468	42778.57
485.905	43120.45
486.343	43573.41
486.781	42922.68
487.218	42195.26
487.655	42312.21
488.093	41378.26
488.53	42719.61
488.967	42004.43
489.405	41768.61
489.842	40964.69
490.279	40947.89
490.716	40420.63
491.153	41047.01
491.59	40316.76
492.027	39729.67
492.463	39164.19
492.9	38430.6
493.337	38412.19
493.773	38438.7
494.21	37595.54
494.647	37230.32
495.083	36661.78
495.519	36281
495.956	36294.21
496.392	35540.34
496.828	35363.28
497.265	34502.84
497.701	34626.56
498.137	34428.43
498.573	33644.94
499.009	34033.22
499.445	33159.69
499.881	32660.12
500.316	32877.1
500.752	31997.46
501.188	31826.55
501.624	31753.16
502.059	30423.53
502.495	30419.38
502.93	30238.1
503.366	30352.77
503.801	29622.58
504.236	29569.85
504.672	29049.46
505.107	28693.97
505.542	28130.02
505.977	28129.04
506.412	27565.88
506.847	27904.76
507.282	27297.84
507.717	26970.9
508.152	27092.63
508.587	26664.62
509.021	25932.32
509.456	25667.96
509.891	25778.43
510.325	25739.15
510.76	25284.31
511.194	25033.39
511.628	25153.83
512.063	24344.62
512.497	24560.7
512.931	23849.58
513.366	23768.5
513.8	23779.59
514.234	23056.19
514.668	23198.59
515.102	23313.81
515.536	22492.8
515.969	22649.71
516.403	22232.48
516.837	21763.37
517.271	21748.77
517.704	21468.93
518.138	21221.88
518.571	21060.99
519.005	20626.34
519.438	20591.84
519.871	20458.77
520.305	19894.97
520.738	19916.1
521.171	19477.27
521.604	19456.37
522.037	19173.25
522.47	18931.07
522.903	18708.93
523.336	18486.18
523.769	18385.11
524.202	17881.12
524.634	17820.64
525.067	17687.65
525.5	17414.51
525.932	17245.08
526.365	17002.93
526.797	16722.78
527.23	16895.21
527.662	16224.32
528.094	16094.25
528.527	16020.41
528.959	15774.16
529.391	15581.31
529.823	15056.49
530.255	15047.92
530.687	14676.87
531.119	14583.29
531.551	14468.22
531.982	14109.6
532.414	13914.7
532.846	13648.05
533.277	13456.89
533.709	13102.31
534.14	13034.58
534.572	12905.93
535.003	12834.85
535.435	12445.34
535.866	12294.51
536.297	11997.64
536.728	12052.41
537.159	11912.28
537.59	11655.23
538.022	11583.78
538.452	11273.95
538.883	11101.35
539.314	11041.73
539.745	10809.25
540.176	10644.45
540.606	10340.63
541.037	10400.72
541.468	10209.1
541.898	10077.47
542.328	9924.64
542.759	9747.71
543.189	9673.49
543.619	9582.99
544.05	9377.05
544.48	9163.88
544.91	9129.74
545.34	8979.67
545.77	8873.5
546.2	8797.84
546.63	8605.16
547.06	8598.41
547.489	8451.72
547.919	8193.54
548.349	8265.61
548.778	8217.48
549.208	8054.25
549.637	7855.1
550.067	7747.32
550.496	7819.88
550.926	7630.57
551.355	7460.62
551.784	7441.26
552.213	7301.71
552.642	7179.59
553.071	7165.16
553.5	6963.34
553.929	6805.91
554.358	6885.57
554.787	6740.4
555.216	6744.87
555.645	6604.28
556.073	6456.4
556.502	6431.6
556.93	6250.2
557.359	6233.29
557.787	6157.94
558.216	6091.81
558.644	6018.22
559.072	6042.31
559.5	5902.97
559.929	5887.86
560.357	5834.03
560.785	5727.09
561.213	5732.4
561.641	5621.37
562.068	5600.64
562.496	5544.54
562.924	5451.41
563.352	5487.87
563.779	5435.17
564.207	5425.86
564.634	5389.64
565.062	5326.5
565.489	5259.05
565.917	5189.42
566.344	5164.06
566.771	5161.66
567.198	5097.31
567.625	5016.35
568.053	4985.33
568.48	4876.17
568.907	4835.47
569.333	4780.02
569.76	4669.56
570.187	4682.17
570.614	4562.2
571.04	4717.03
571.467	4439.12
571.894	4424.33
572.32	4313.46
572.747	4202.19
573.173	4143.14
573.599	4128.3
574.026	4015.19
574.452	3964.12
574.878	3953.85
575.304	3854.59
575.73	3783.13
576.156	3721.36
576.582	3713.23
577.008	3598.25
577.434	3550.2
577.86	3427.66
578.285	3474.69
578.711	3398.83
579.137	3351.5
579.562	3245.57
579.988	3277.72
580.413	3165.7
580.838	3130.24
581.264	3134.61
581.689	3039.34
582.114	3016.4
582.539	2958.46
582.964	2949.99
583.39	2870.66
583.814	2843.29
584.239	2775.1
584.664	2769.62
585.089	2722.21
585.514	2681.07
585.939	2679.15
586.363	2560.03
586.788	2553.16
587.212	2549.59
587.637	2511.94
588.061	2469.06
588.485	2386.24
588.91	2401.66
589.334	2398.63
589.758	2331.17
590.182	2297.29
590.606	2278.54
591.03	2228.36
591.454	2214.02
591.878	2182.02
592.302	2161.04
592.726	2113
593.15	2117.42
593.573	2052.21
593.997	2027.89
594.42	2015.44
594.844	2017.93
595.267	1966.76
595.691	1941.58
596.114	1911.95
596.537	1915.28
596.96	1900.05
597.384	1860.44
597.807	1824.41
598.23	1803.62
598.653	1791.69
599.076	1811.1
599.499	1799.18
599.921	1769.5
600.344	1768.67
600.767	1711.79
601.189	1746.76
601.612	1705.12
602.034	1666.8
602.457	1696.24
602.879	1694.57
603.302	1701.79
603.724	1673.19
604.146	1657.36
604.568	1636.52
604.991	1612.07
605.413	1640.41
605.835	1616.79
606.257	1578.43
606.678	1600.12
607.1	1594.56
607.522	1600.67
607.944	1573.98
608.365	1558.41
608.787	1547.84
609.209	1478.82
609.63	1479.66
610.051	1522.52
610.473	1477.71
610.894	1481.88
611.315	1489.96
611.737	1428.13
612.158	1440.39
612.579	1369.6
613	1363.75
613.421	1363.47
613.842	1362.08
614.263	1320.52
614.683	1309.64
615.104	1326.93
615.525	1281.17
615.945	1299.03
616.366	1256.32
616.787	1263.02
617.207	1222.81
617.627	1173.07
618.048	1225.6
618.468	1225.6
618.888	1178.94
619.308	1166.64
619.728	1144.55
620.148	1141.76
620.568	1111.83
620.988	1114.35
621.408	1112.95
621.828	1099.24
622.248	1122.46
622.668	1066.22
623.087	1068.74
623.507	1081.61
623.926	1013.86
624.346	1042.7
624.765	1023.38
625.185	1011.34
625.604	1020.58
626.023	968.47
626.442	950.53
626.861	988.36
627.28	970.43
627.699	964.82
628.118	923.05
628.537	944.36
628.956	905.38
629.375	914.64
629.794	922.77
630.212	897.53
630.631	902.29
631.049	883.22
631.468	879.29
631.886	865.82
632.305	869.19
632.723	842.52
633.141	841.12
633.559	873.68
633.978	831.29
634.396	822.02
634.814	781.58
635.232	798.71
635.65	806.86
636.067	801.24
636.485	804.61
636.903	809.67
637.321	804.61
637.738	752.35
638.156	763.31
638.573	782.98
638.991	786.63
639.408	750.38
639.825	749.26
640.243	746.17
640.66	733.24
641.077	760.5
641.494	752.63
641.911	715.8
642.328	732.95
642.745	694.71
643.162	722.27
643.579	745.89
643.995	707.65
644.412	733.52
644.829	687.96
645.245	702.02
645.662	701.18
646.078	700.33
646.495	720.58
646.911	677.83
647.327	693.86
647.743	651.66
648.159	673.33
648.576	680.08
648.992	659.26
649.408	649.69
649.824	635.33
650.239	641.25
650.655	647.72
651.071	625.48
651.487	646.87
651.902	640.12
652.318	630.83
652.733	604.64
653.149	608.59
653.564	619.29
653.979	636.74
654.395	624.35
654.81	603.23
655.225	618.72
655.64	606.9
656.055	615.06
656.47	582.39
656.885	585.77
657.3	580.98
657.715	596.48
658.13	587.46
658.544	616.47
658.959	606.61
659.374	601.26
659.788	604.92
660.202	569.43
660.617	597.88
661.031	564.92
661.445	535.61
661.86	549.99
662.274	520.67
662.688	571.12
663.102	597.88
663.516	587.18
663.93	563.8
664.344	567.46
664.758	549.42
665.171	557.32
665.585	553.09
665.999	551.4
666.412	560.41
666.826	568.59
667.239	562.39
667.653	538.15
668.066	552.24
668.479	546.89
668.892	540.69
669.306	522.93
669.719	538.15
670.132	530.26
670.545	552.24
670.958	538.15
671.37	521.52
671.783	532.51
672.196	524.62
672.609	513.34
673.021	526.31
673.434	499.81
673.846	517.29
674.259	513.06
674.671	504.04
675.084	518.7
675.496	509.11
675.908	527.16
676.32	516.44
676.732	505.16
677.144	508.27
677.556	501.22
677.968	514.19
678.38	512.78
678.792	506.29
679.204	493.32
679.615	493.6
680.027	496.99
680.439	482.04
680.85	509.96
681.262	493.04
681.673	492.19
682.084	475.55
682.496	533.64
682.907	499.24
683.318	483.16
683.729	474.14
684.14	474.7
684.551	462.57
684.962	463.13
685.373	480.06
685.784	479.5
686.194	451
686.605	469.34
687.016	458.06
687.426	466.52
687.837	444.51
688.247	491.34
688.657	463.7
689.068	479.22
689.478	465.39
689.888	459.75
690.298	452.41
690.708	462.57
691.118	452.41
691.528	460.88
691.938	478.65
692.348	457.77
692.758	456.64
693.168	492.19
693.577	458.34
693.987	474.14
694.396	456.64
694.806	445.64
695.215	437.45
695.625	456.93
696.034	478.93
696.443	478.65
696.852	463.13
697.262	466.52
697.671	460.31
698.08	452.69
698.489	469.34
698.897	456.93
699.306	444.79
699.715	449.59
700.124	445.07
700.532	447.9
700.941	458.9
701.35	443.66
701.758	463.98
702.166	455.23
702.575	451.28
702.983	441.12
703.391	433.78
703.799	444.79
704.208	451.85
704.616	448.74
705.024	442.82
705.432	433.78
705.839	418.54
706.247	437.17
706.655	430.68
707.063	475.27
707.47	442.25
707.878	420.23
708.285	439.99
708.693	443.38
709.1	433.78
709.508	441.97
709.915	400.75
710.322	412.05
710.729	426.16
711.136	436.89
711.543	446.49
711.95	446.49
712.357	440.56
712.764	430.68
713.171	430.96
713.578	426.16
713.984	404.14
714.391	430.4
714.797	393.97
715.204	429.83
715.61	433.5
716.017	414.87
716.423	416.85
716.829	408.66
717.236	430.68
717.642	425.88
718.048	437.74
718.454	432.37
718.86	432.37
719.266	416
719.671	428.14
720.077	439.43
720.483	427.01
720.889	429.27
721.294	431.24
721.7	414.02
722.105	420.52
722.511	440.84
722.916	420.23
723.321	432.66
723.726	411.76
724.132	448.74
724.537	440.84
724.942	436.04
725.347	451.85
725.752	443.38
726.156	429.83
726.561	416.85
726.966	443.1
727.371	430.4
727.775	432.37
728.18	406.4
728.584	424.47
728.989	408.66
729.393	438.58
729.798	410.07
730.202	431.81
730.606	412.33
731.01	404.14
731.414	406.68
731.818	431.53
732.222	427.86
732.626	443.1
733.03	432.37
733.434	442.53
733.837	420.8
734.241	415.43
734.645	429.55
735.048	432.09
735.452	405.55
735.855	418.82
736.258	427.57
736.662	396.8
737.065	396.52
737.468	410.92
737.871	443.95
738.274	425.32
738.677	404.14
739.08	407.25
739.483	425.6
739.886	404.7
740.289	408.66
740.691	421.36
741.094	393.69
741.497	421.08
741.899	418.82
742.302	417.98
742.704	394.54
743.106	403.86
743.508	402.16
743.911	415.15
744.313	413.74
744.715	393.69
745.117	407.25
745.519	399.62
745.921	386.63
746.323	409.22
746.724	428.99
747.126	404.99
747.528	418.54
747.929	415.72
748.331	417.13
748.732	411.76
749.134	405.83
749.535	397.36
749.936	419.39
750.338	402.16
750.739	417.13
751.14	408.94
751.541	405.55
751.942	419.39
752.343	443.95
752.744	415.43
753.144	399.62
753.545	408.94
753.946	415.15
754.346	408.38
754.747	413.74
755.148	410.92
755.548	397.08
755.948	395.1
756.349	404.7
756.749	428.42
757.149	418.26
757.549	404.99
757.949	404.7
758.349	412.33
758.749	400.19
759.149	419.95
759.549	409.51
759.949	410.35
760.348	437.74
760.748	383.52
761.148	430.4
761.547	398.49
761.947	423.62
762.346	408.94
762.745	390.58
763.145	401.32
763.544	399.62
763.943	388.89
764.342	407.81
764.741	398.77
765.14	416.28
765.539	422.21
765.938	397.08
766.336	404.7
766.735	406.12
767.134	389.46
767.532	415.43
767.931	398.77
768.329	432.09
768.728	402.73
769.126	411.48
769.525	407.25
769.923	414.87
770.321	391.15
770.719	411.76
771.117	377.87
771.515	418.54
771.913	412.61
772.311	399.06
772.709	419.1
773.106	374.77
773.504	392.84
773.902	392.84
774.299	425.03
774.697	388.04
775.094	416.56
775.491	405.83
775.889	401.32
776.286	401.6
776.683	371.09
777.08	399.62
777.477	397.36
777.874	386.07
778.271	400.47
778.668	397.93
779.065	417.98
779.462	407.81
779.858	391.71
780.255	383.81
780.652	399.06
781.048	403.01
781.444	377.31
781.841	366.57
782.237	424.75
782.633	412.61
783.03	401.03
783.426	397.36
783.822	399.34
784.218	377.31
784.614	407.53
785.01	399.06
785.405	407.53
785.801	400.47
786.197	372.51
786.593	408.09
786.988	391.71
787.384	404.99
787.779	405.27
788.174	401.03
788.57	415.72
788.965	411.48
789.36	419.95
789.755	391.43
790.15	415.43
790.545	393.97
790.94	382.68
791.335	382.68
791.73	396.52
792.125	387.76
792.52	408.66
792.914	385.78
793.309	388.04
793.703	395.1
794.098	393.97
794.492	390.58
794.887	412.89
795.281	395.39
795.675	391.15
796.069	387.76
796.463	382.39
796.857	418.82
797.251	388.04
797.645	367.7
798.039	413.74
798.433	404.99
798.826	393.69
799.22	398.21
799.614	402.45
800.007	396.52
800.401	385.5
800.794	403.29
801.187	382.39
801.581	401.03
801.974	403.01
802.367	396.52
802.76	397.36
803.153	396.8
803.546	410.92
803.939	393.41
804.332	429.83
804.725	412.05
805.117	391.43
805.51	399.9
805.903	395.67
806.295	377.31
806.688	402.73
807.08	396.52
807.472	369.96
807.865	378.16
808.257	408.66
808.649	370.53
809.041	422.21
809.433	385.5
809.825	400.47
810.217	388.33
810.609	345.38
811.001	391.43
811.392	419.95
811.784	392.56
812.175	393.41
812.567	381.83
812.958	387.76
813.35	382.96
813.741	378.72
814.132	414.02
814.524	395.39
814.915	394.82
815.306	369.4
815.697	382.11
816.088	388.61
816.479	426.73
816.87	412.61
817.26	385.22
817.651	396.52
818.042	379.57
818.432	433.78
818.823	414.02
819.213	411.76
819.604	398.77
819.994	429.27
820.384	385.5
820.775	385.5
821.165	405.83
821.555	408.66
821.945	407.53
822.335	382.11
822.725	409.22
823.114	393.13
823.504	386.63
823.894	403.29
824.284	407.53
824.673	389.74
825.063	399.62
825.452	399.34
825.842	414.02
826.231	388.89
826.62	396.23
827.009	409.51
827.399	375.61
827.788	398.77
828.177	385.22
828.566	415.72
828.954	401.88
829.343	396.23
829.732	397.93
830.121	422.49
830.509	403.29
830.898	374.48
831.286	376.18
831.675	395.1
832.063	384.09
832.452	386.63
832.84	394.54
833.228	388.89
833.616	422.77
834.004	396.8
834.392	397.65
834.78	371.66
835.168	408.09
835.556	389.17
835.944	380.42
836.331	393.41
836.719	381.26
837.107	405.55
837.494	385.5
837.881	399.62
838.269	400.75
838.656	372.51
839.043	387.2
839.431	384.37
839.818	393.13
840.205	377.03
840.592	397.08
840.979	380.42
841.366	377.31
841.752	399.06
842.139	395.95
842.526	411.2
842.912	391.71
843.299	389.46
843.685	395.95
844.072	365.44
844.458	351.6
844.844	372.22
845.231	370.53
845.617	375.9
846.003	418.54
846.389	362.9
846.775	350.47
847.161	401.6
847.547	408.38
847.933	401.6
848.318	406.96
848.704	376.18
849.09	379.85
849.475	395.1
849.861	387.2
850.246	393.97
850.631	372.51
851.017	360.36
851.402	387.48
851.787	389.46
852.172	408.94
852.557	386.07
852.942	409.51
853.327	371.66
853.712	402.16
854.097	401.6
854.481	404.42
854.866	405.27
855.25	393.69
855.635	399.34
856.019	409.79
856.404	408.09
856.788	411.48
857.172	404.42
857.557	390.58
857.941	406.12
858.325	367.99
858.709	407.81
859.093	378.44
859.477	390.02
859.86	385.5
860.244	369.96
860.628	370.53
861.012	383.24
861.395	342.56
861.779	394.26
862.162	404.14
862.545	385.22
862.929	397.08
863.312	397.93
863.695	409.51
864.078	390.3
864.461	353.01
864.844	362.9
865.227	395.67
865.61	372.51
865.993	388.61
866.376	384.37
866.758	389.46
867.141	388.89
867.523	392
867.906	372.22
868.288	384.94
868.671	394.82
869.053	382.68
869.435	393.13
869.817	375.33
870.199	386.35
870.581	394.26
870.963	394.54
871.345	393.69
871.727	379
872.109	385.22
872.491	381.26
872.872	377.03
873.254	403.01
873.635	382.11
874.017	384.94
874.398	389.46
874.779	404.99
875.161	359.23
875.542	405.27
875.923	389.46
876.304	384.37
876.685	390.3
877.066	368.83
877.447	370.81
877.828	354.42
878.208	370.25
878.589	406.4
878.97	406.12
879.35	384.09
879.731	393.69
880.111	376.18
880.491	370.25
880.872	410.63
881.252	391.71
881.632	397.36
882.012	405.27
882.392	368.83
882.772	381.26
883.152	378.72
883.532	388.89
883.912	360.36
884.291	387.76
884.671	374.2
885.051	395.1
885.43	391.71
885.81	360.92
886.189	374.77
886.568	374.77
886.948	392
887.327	412.61
887.706	383.24
888.085	371.38
888.464	382.96
888.843	388.33
889.222	403.86
889.601	395.1
889.979	389.17
890.358	400.75
890.737	387.76
891.115	399.62
891.494	392
891.872	373.64
892.25	403.29
892.629	379.57
893.007	388.61
893.385	399.62
893.763	408.94
894.141	406.4
894.519	379
894.897	366.01
895.275	396.52
895.653	378.44
896.03	383.52
896.408	396.8
896.786	376.46
897.163	380.7
897.541	407.53
897.918	387.2
898.295	382.68
898.673	371.94
899.05	376.18
899.427	385.5
899.804	363.47
900.181	403.86
900.558	371.38
900.935	402.73
901.312	373.07
901.688	388.89
902.065	407.25
902.442	388.33
902.818	399.62
903.195	374.48
903.571	379.85
903.947	394.26
904.324	387.48
904.7	404.14
905.076	373.64
905.452	380.13
905.828	378.44
906.204	392
906.58	395.1
906.956	391.43
907.331	391.71
907.707	388.04
908.083	395.39
908.458	379.57
908.834	375.61
909.209	400.75
909.585	388.33
909.96	367.14
910.335	390.3
910.71	373.35
911.086	394.82
911.461	374.48
911.836	386.35
912.21	360.64
912.585	389.17
912.96	377.31
913.335	384.94
913.709	389.74
914.084	376.46
914.459	383.24
914.833	402.45
915.207	368.83
915.582	373.07
915.956	366.29
916.33	393.13
916.704	367.42
917.078	389.74
917.452	393.97
917.826	382.68
918.2	377.31
918.574	390.58
918.948	381.55
919.321	364.88
919.695	375.05
920.068	380.7
920.442	361.21
920.815	394.26
921.189	389.17
921.562	393.13
921.935	385.78
922.308	373.64
922.681	394.26
923.054	387.76
923.427	361.21
923.8	364.88
924.173	353.58
924.546	358.1
924.919	364.88
925.291	375.9
925.664	373.64
926.036	384.09
926.409	379
926.781	387.48
927.153	394.82
927.526	388.04
927.898	353.29
928.27	401.88
928.642	383.24
929.014	414.02
929.386	377.87
929.758	395.1
930.129	388.04
930.501	388.89
930.873	411.76
931.244	392.28
931.616	363.75
931.987	377.87
932.359	360.64
932.73	387.76
933.101	393.13
933.472	374.77
933.843	377.59
934.214	371.66
934.585	370.81
934.956	375.9
935.327	380.13
935.698	381.26
936.069	377.03
936.439	369.68
936.81	365.73
937.18	379.29
937.551	386.63
937.921	395.95
938.292	377.31
938.662	387.2
939.032	382.11
939.402	347.64
939.772	367.42
940.142	385.22
940.512	371.66
940.882	390.02
941.252	391.43
941.621	386.35
941.991	375.61
942.361	375.05
942.73	395.39
943.1	370.53
943.469	391.43
943.838	387.76
944.208	391.43
944.577	402.45
944.946	386.07
945.315	379
945.684	382.96
946.053	383.24
946.422	366.29
946.791	374.48
947.159	371.38
947.528	364.6
947.897	384.65
948.265	376.46
948.634	370.25
949.002	374.48
949.371	362.05
949.739	381.83
950.107	366.86
950.475	355.84
950.843	360.92
951.211	376.74
951.579	388.04
951.947	383.24
952.315	393.13
952.683	403.01
953.05	399.9
953.418	392.56
953.785	376.46
954.153	372.79
954.52	379.29
954.888	372.79
955.255	405.55
955.622	389.17
955.989	380.13
956.356	395.95
956.723	387.48
957.09	363.75
957.457	386.63
957.824	384.37
958.191	386.07
958.557	381.26
958.924	350.19
959.291	383.24
959.657	373.35
960.023	377.03
960.39	371.66
960.756	401.32
961.122	373.07
961.488	355.27
961.855	380.13
962.221	354.14
962.586	368.55
962.952	383.24
963.318	369.4
963.684	413.18
964.05	389.74
964.415	356.97
964.781	379.57
965.146	397.65
965.512	372.51
965.877	388.33
966.242	370.25
966.608	348.77
966.973	373.07
967.338	377.31
967.703	375.61
968.068	371.94
968.433	382.11
968.797	406.4
969.162	388.04
969.527	366.57
969.891	383.81
970.256	364.03
970.62	392.28
970.985	385.5
971.349	388.04
971.714	386.91
972.078	362.9
972.442	370.53
972.806	370.25
973.17	372.22
973.534	365.16
973.898	366.86
974.262	389.46
974.625	362.62
974.989	390.3
975.353	387.76
975.716	380.98
976.08	371.09
976.443	364.03
976.806	382.11
977.17	387.2
977.533	361.21
977.896	391.43
978.259	381.55
978.622	387.2
978.985	379.57
979.348	366.86
979.711	370.81
980.073	381.26
980.436	374.48
980.799	366.86
981.161	400.75
981.524	384.37
981.886	362.05
982.248	390.02
982.611	355.56
982.973	385.5
983.335	371.09
983.697	369.68
984.059	381.83
984.421	364.31
984.783	387.48
985.145	383.24
985.506	367.7
985.868	367.42
986.23	367.14
986.591	408.94
986.953	376.74
987.314	386.91
987.675	366.57
988.037	547.73
988.398	373.07
988.759	404.99
989.12	390.58
989.481	381.55
989.842	366.86
990.203	360.92
990.564	402.73
990.924	381.55
991.285	506.29
991.646	386.91
992.006	386.63
992.367	399.34
992.727	393.41
993.087	369.12
993.448	369.96
993.808	396.8
994.168	391.15
994.528	366.57
994.888	373.07
995.248	373.35
995.608	357.53
995.967	384.65
996.327	381.55
996.687	386.91
997.046	375.9
997.406	385.78
997.765	369.68
998.125	384.94
998.484	377.03
998.843	381.83
999.202	362.9
999.561	369.4
999.92	367.7
1000.279	383.24
1000.638	377.59
1000.997	380.7
1001.356	390.3
1001.715	389.74
1002.073	348.49
1002.432	364.31
1002.79	380.7
1003.149	386.07
1003.507	362.62
1003.865	365.73
1004.224	384.94
1004.582	393.13
1004.94	373.07
1005.298	366.29
1005.656	360.64
1006.014	388.04
1006.371	387.2
1006.729	389.46
1007.087	384.09
1007.445	386.63
1007.802	398.21
1008.16	386.35
1008.517	364.6
1008.874	376.74
1009.232	387.76
1009.589	401.32
1009.946	368.83
1010.303	373.92
1010.66	379.57
1011.017	396.23
1011.374	357.53
1011.731	376.46
1012.087	370.53
1012.444	381.26
1012.801	402.16
1013.157	385.78
1013.513	365.16
1013.87	366.29
1014.226	362.05
1014.582	390.87
1014.939	369.96
1015.295	400.47
1015.651	392.84
1016.007	377.31
1016.363	420.8
1016.719	388.61
1017.074	371.94
1017.43	359.23
1017.786	369.96
1018.141	375.9
1018.497	417.13
1018.852	383.81
1019.208	392
1019.563	371.94
1019.918	368.55
1020.273	363.18
1020.628	369.12
1020.983	387.48
1021.338	384.94
1021.693	374.77
1022.048	377.31
1022.403	371.94
1022.757	374.77
1023.112	375.05
1023.467	361.77
1023.821	386.91
1024.175	370.53
1024.53	369.68
1024.884	366.29
1025.238	372.22
1025.592	364.31
1025.946	369.96
1026.3	361.21
1026.654	383.81
1027.008	371.94
1027.362	395.95
1027.716	385.78
1028.069	363.18
1028.423	376.74
1028.777	369.68
1029.13	382.68
1029.483	367.7
1029.837	381.83
1030.19	358.66
1030.543	366.57
1030.896	371.09
1031.249	364.88
1031.602	370.81
1031.955	379
1032.308	384.09
1032.661	384.37
1033.013	382.96
1033.366	369.68
1033.719	377.59
1034.071	374.2
1034.424	377.59
1034.776	356.69
1035.128	383.24
1035.48	370.81
1035.833	383.24
1036.185	369.4
1036.537	369.4
1036.889	369.4
