Data from SCSF78-405_irradiation_FLMS019251_23-42-27-927.txt Node
Date: Fri Feb 22 23:42:27 PST 2019
User: mu3e
Spectrometer: FLMS01925
Trigger mode: 0
Integration Time (sec): 1.206000E-2
Scans to average: 10
Electric dark correction enabled: true
Nonlinearity correction enabled: true
Boxcar width: 0
XAxis mode: Wavelengths
Number of Pixels in Spectrum: 2048
>>>>>Begin Spectral Data<<<<<
187.103	-78.65
187.574	-78.65
188.045	-78.65
188.516	-125
188.987	-127.84
189.458	-109.07
189.929	-91.44
190.4	-99.69
190.871	-106.23
191.342	-88.6
191.813	-62.45
192.284	-23.82
192.754	-23.82
193.225	-13.88
193.696	31.54
194.166	46.3
194.637	53.11
195.107	108.7
195.578	99.06
196.048	114.37
196.518	165.09
196.989	177.27
197.459	213.8
197.929	229.37
198.399	276.06
198.869	276.91
199.339	289.35
199.809	308.3
200.279	327.52
200.749	338.55
201.219	340.52
201.689	365.39
202.159	367.37
202.628	379.52
203.098	372.17
203.568	365.67
204.037	386.01
204.507	404.09
204.976	389.68
205.445	364.26
205.915	405.5
206.384	381.21
206.853	415.95
207.323	392.51
207.792	396.18
208.261	385.45
208.73	389.4
209.199	382.62
209.668	365.96
210.137	422.44
210.606	369.06
211.075	371.61
211.543	394.2
212.012	376.13
212.481	389.68
212.95	363.7
213.418	378.39
213.887	368.22
214.355	382.06
214.824	367.93
215.292	359.46
215.76	354.94
216.229	344.76
216.697	364.26
217.165	355.5
217.633	355.22
218.101	345.33
218.569	364.26
219.037	335.72
219.505	354.09
219.973	360.59
220.441	348.72
220.909	349
221.377	350.7
221.844	355.78
222.312	344.2
222.78	343.92
223.247	350.7
223.715	352.39
224.182	368.78
224.65	350.42
225.117	366.24
225.584	366.8
226.052	329.78
226.519	365.39
226.986	345.33
227.453	353.52
227.92	363.41
228.387	358.89
228.854	372.45
229.321	360.59
229.788	371.89
230.255	374.15
230.722	380.08
231.189	363.13
231.655	363.41
232.122	365.11
232.589	386.58
233.055	377.26
233.522	360.87
233.988	376.97
234.454	346.74
234.921	370.19
235.387	384.32
235.853	370.76
236.32	356.63
236.786	370.19
237.252	384.04
237.718	360.31
238.184	382.06
238.65	363.13
239.116	382.06
239.582	371.61
240.047	356.35
240.513	343.35
240.979	367.37
241.445	357.2
241.91	373.3
242.376	390.53
242.841	366.8
243.307	368.5
243.772	374.71
244.238	353.52
244.703	368.78
245.168	358.89
245.633	369.91
246.099	370.76
246.564	377.26
247.029	375
247.494	373.02
247.959	378.1
248.424	356.91
248.889	376.69
249.353	369.06
249.818	368.5
250.283	355.78
250.748	379.8
251.212	379.8
251.677	394.49
252.141	389.68
252.606	382.34
253.07	386.3
253.535	379.8
253.999	362.57
254.463	352.11
254.927	394.49
255.392	379.52
255.856	365.39
256.32	365.67
256.784	386.58
257.248	368.78
257.712	380.08
258.176	374.71
258.64	385.73
259.103	393.36
259.567	377.82
260.031	382.62
260.495	386.3
260.958	367.09
261.422	364.26
261.885	379.23
262.349	379.23
262.812	369.06
263.275	379.8
263.739	351.55
264.202	391.94
264.665	395.05
265.128	372.17
265.591	387.99
266.054	362.85
266.517	380.08
266.98	392.79
267.443	367.09
267.906	411.43
268.369	370.48
268.832	405.5
269.294	381.49
269.757	361.72
270.22	382.62
270.682	343.07
271.145	381.21
271.607	352.68
272.07	380.93
272.532	383.19
272.994	384.88
273.456	371.61
273.919	396.46
274.381	406.91
274.843	378.95
275.305	370.19
275.767	384.6
276.229	378.39
276.691	405.5
277.153	400.7
277.614	384.32
278.076	396.75
278.538	387.14
279	372.74
279.461	386.86
279.923	371.32
280.384	399.57
280.846	389.68
281.307	399.57
281.769	384.04
282.23	389.68
282.691	411.43
283.152	371.04
283.613	380.36
284.075	383.19
284.536	373.3
284.997	390.25
285.458	378.67
285.918	408.61
286.379	393.07
286.84	402.96
287.301	400.13
287.762	395.05
288.222	404.09
288.683	397.59
289.143	392.23
289.604	396.18
290.064	364.26
290.525	379.8
290.985	427.52
291.445	398.72
291.906	383.75
292.366	418.49
292.826	395.33
293.286	401.55
293.746	393.92
294.206	367.09
294.666	376.13
295.126	378.1
295.586	350.7
296.046	406.91
296.506	413.41
296.965	378.39
297.425	399.85
297.884	406.35
298.344	405.5
298.804	387.71
299.263	373.3
299.722	382.34
300.182	392.51
300.641	375.56
301.1	397.31
301.559	396.46
302.019	409.45
302.478	402.68
302.937	393.07
303.396	394.49
303.855	421.03
304.314	411.15
304.772	425.26
305.231	377.26
305.69	391.38
306.149	395.05
306.607	413.69
307.066	409.45
307.524	377.54
307.983	408.61
308.441	401.55
308.9	395.62
309.358	381.49
309.816	398.72
310.275	370.76
310.733	396.46
311.191	401.83
311.649	397.03
312.107	382.91
312.565	413.12
313.023	422.44
313.481	396.75
313.939	372.45
314.397	413.97
314.854	408.04
315.312	423.29
315.77	413.41
316.227	402.39
316.685	389.97
317.142	400.42
317.6	381.78
318.057	393.64
318.514	401.55
318.972	411.15
319.429	396.46
319.886	381.78
320.343	414.53
320.8	395.05
321.257	406.91
321.714	402.96
322.171	396.46
322.628	401.55
323.085	424.7
323.542	418.2
323.998	397.59
324.455	399.85
324.912	406.06
325.368	385.73
325.825	420.18
326.281	411.71
326.738	393.07
327.194	404.37
327.65	402.39
328.107	415.95
328.563	425.83
329.019	380.65
329.475	407.19
329.931	387.99
330.387	380.08
330.843	413.69
331.299	413.69
331.755	396.75
332.211	413.69
332.666	402.39
333.122	413.69
333.578	401.26
334.033	408.32
334.489	375
334.944	415.95
335.4	396.46
335.855	408.89
336.31	404.93
336.766	372.74
337.221	417.36
337.676	416.51
338.131	417.64
338.586	425.83
339.041	406.35
339.496	412.56
339.951	415.66
340.406	394.2
340.861	409.17
341.316	410.3
341.771	399
342.225	403.8
342.68	382.34
343.134	414.53
343.589	404.37
344.043	397.87
344.498	401.26
344.952	407.76
345.406	394.77
345.861	413.97
346.315	402.39
346.769	437.68
347.223	384.04
347.677	409.17
348.131	406.35
348.585	419.62
349.039	403.8
349.493	406.06
349.947	405.5
350.401	413.69
350.854	408.32
351.308	414.25
351.762	426.11
352.215	392.23
352.669	378.67
353.122	420.46
353.575	418.49
354.029	422.72
354.482	427.24
354.935	425.83
355.388	413.12
355.842	407.48
356.295	401.26
356.748	428.09
357.201	441.07
357.654	404.93
358.106	418.77
358.559	411.71
359.012	393.36
359.465	405.78
359.917	407.19
360.37	421.03
360.823	425.83
361.275	418.77
361.728	410.58
362.18	424.42
362.632	407.76
363.085	414.53
363.537	397.87
363.989	383.47
364.441	398.16
364.893	432.04
365.345	398.16
365.797	416.23
366.249	395.62
366.701	419.33
367.153	419.33
367.605	428.93
368.057	404.09
368.508	437.68
368.96	406.91
369.411	404.93
369.863	371.61
370.314	420.18
370.766	427.8
371.217	423.85
371.669	435.14
372.12	435.14
372.571	424.98
373.022	413.97
373.473	404.37
373.924	420.75
374.375	407.76
374.826	428.93
375.277	412.84
375.728	424.7
376.179	444.17
376.63	419.33
377.08	419.33
377.531	410.02
377.981	427.52
378.432	409.17
378.883	421.31
379.333	405.22
379.783	425.26
380.234	399
380.684	408.04
381.134	422.16
381.584	428.37
382.034	421.31
382.485	425.26
382.935	405.78
383.385	431.19
383.834	405.78
384.284	442.2
384.734	411.99
385.184	417.36
385.634	403.8
386.083	416.23
386.533	437.97
386.982	421.03
387.432	427.8
387.881	450.95
388.331	423
388.78	431.47
389.229	412.56
389.679	424.42
390.128	441.92
390.577	434.3
391.026	413.69
391.475	421.88
391.924	453.77
392.373	424.42
392.822	426.96
393.27	454.33
393.719	429.5
394.168	439.09
394.617	442.2
395.065	429.5
395.514	446.15
395.962	437.4
396.411	466.18
396.859	453.77
397.307	445.87
397.756	415.66
398.204	430.63
398.652	419.9
399.1	432.04
399.548	436.27
399.996	464.49
400.444	456.59
400.892	443.89
401.34	424.42
401.788	454.33
402.236	445.59
402.683	456.87
403.131	459.7
403.579	455.18
404.026	454.33
404.474	457.72
404.921	450.67
405.369	465.62
405.816	467.31
406.263	453.49
406.71	464.49
407.158	477.19
407.605	466.18
408.052	470.42
408.499	456.87
408.946	474.93
409.393	508.78
409.84	482.27
410.286	524.28
410.733	514.7
411.18	529.08
411.626	573.04
412.073	620.36
412.52	682
412.966	754.55
413.413	860.43
413.859	1070.37
414.305	1264.93
414.752	1501.04
415.198	1830.45
415.644	2205.42
416.09	2656.06
416.536	3165.93
416.982	3818.82
417.428	4472.14
417.874	5218.19
418.32	6039.09
418.766	6881.31
419.211	7826.35
419.657	8742.84
420.103	9823.66
420.548	10683.89
420.994	11897.19
421.439	12907.66
421.885	13961.43
422.33	15341.23
422.776	16275.73
423.221	17161.41
423.666	18417.26
424.111	19599.42
424.556	20498.2
425.001	21867.29
425.446	23129.2
425.891	24262.35
426.336	25169.51
426.781	26335.81
427.226	28238.3
427.671	28742.31
428.115	29617.65
428.56	31137.91
429.005	32587.91
429.449	33055.78
429.894	34497.19
430.338	35421.11
430.782	35543.96
431.227	37145.56
431.671	37411.51
432.115	38701.38
432.559	39700.08
433.003	39488.12
433.447	40369.26
433.891	40845.78
434.335	41278.23
434.779	41885.83
435.223	42108.09
435.667	42176.85
436.111	42629.27
436.554	42566.37
436.998	41972.13
437.442	42239.16
437.885	44224.52
438.328	42492.54
438.772	42951.02
439.215	43368.97
439.659	43100.47
440.102	43566.37
440.545	42752.4
440.988	42736.97
441.431	43437.33
441.874	42893.01
442.317	43277.94
442.76	42759.61
443.203	42243.38
443.646	42895.5
444.089	42361.85
444.531	42958.49
444.974	41925.26
445.417	42987.38
445.859	42048.29
446.302	43109.69
446.744	42265.48
447.186	43490.48
447.629	42500.74
448.071	42527.09
448.513	42604.41
448.956	44024.51
449.398	43004.56
449.84	42085.02
450.282	42500.99
450.724	43099.47
451.166	42821.33
451.607	42621.81
452.049	42796.19
452.491	43641.79
452.933	43456.29
453.374	43940.46
453.816	44441.54
454.257	43922.7
454.699	45117.47
455.14	44746.42
455.582	44467.62
456.023	44244.31
456.464	44548.13
456.905	45027.65
457.347	45228.22
457.788	44306.94
458.229	44244.31
458.67	45389.46
459.111	43575.11
459.552	43546.65
459.992	43482.5
460.433	43231.81
460.874	42232.7
461.315	43456.54
461.755	42356.63
462.196	42022.74
462.636	41193.62
463.077	41012.36
463.517	41081.34
463.957	41394.79
464.398	40981.95
464.838	41222.56
465.278	40137.18
465.718	40313.76
466.158	39365.34
466.598	39792.18
467.038	39374.19
467.478	39673.48
467.918	39689.49
468.358	39197.09
468.798	38925.69
469.237	38685.42
469.677	38678.79
470.117	39394.37
470.556	37165.63
470.996	37651.61
471.435	37865.59
471.874	38471.3
472.314	38274.46
472.753	37419.59
473.192	37496.51
473.631	37215.34
474.07	37336.8
474.509	37366.19
474.948	37617.55
475.387	37100.51
475.826	36141.37
476.265	37724.15
476.704	37271.9
477.143	37591.33
477.581	37351.5
478.02	37848.68
478.458	36659.53
478.897	37206.03
479.335	38166.26
479.774	37734.45
480.212	38003.15
480.65	37845
481.089	37622.94
481.527	37144.58
481.965	36692.8
482.403	38615.18
482.841	38219.75
483.279	38194.72
483.717	38385.39
484.155	37839.85
484.592	38328.45
485.03	38302.68
485.468	37541.84
485.905	37545.51
486.343	38230.79
486.781	37556.29
487.218	37013.12
487.655	36905.19
488.093	36072.69
488.53	37349.29
488.967	36629.44
489.405	36469.24
489.842	35680.99
490.279	35705.67
490.716	35313.17
491.153	35731.56
491.59	35215.5
492.027	34621.88
492.463	34179.29
492.9	33577.84
493.337	33493.22
493.773	33570.03
494.21	32840
494.647	32526.47
495.083	31904.04
495.519	31541.96
495.956	31640.47
496.392	31025.48
496.828	30786.22
497.265	30057.72
497.701	30323.94
498.137	29964.26
498.573	29277.28
499.009	29595.44
499.445	28848.84
499.881	28341.47
500.316	28764.79
500.752	27847.47
501.188	27736.89
501.624	27576.12
502.059	26471.16
502.495	26374.31
502.93	26399.08
503.366	26542.99
503.801	25875.83
504.236	25664.47
504.672	25172.21
505.107	24975.33
505.542	24375.59
505.977	24480.19
506.412	23987.75
506.847	24223.2
507.282	23817.99
507.717	23498.26
508.152	23415.4
508.587	23258.01
509.021	22604.45
509.456	22189.16
509.891	22258.65
510.325	22380.54
510.76	21939.3
511.194	21653.4
511.628	21877.43
512.063	21121.69
512.497	21232.25
512.931	20772.47
513.366	20629.27
513.8	20662.53
514.234	20080.12
514.668	20016.74
515.102	20270.46
515.536	19387.86
515.969	19575.78
516.403	19129.61
516.837	18829.57
517.271	18911.08
517.704	18484.63
518.138	18400.04
518.571	18261.75
519.005	17996.52
519.438	17836.84
519.871	17639.84
520.305	17371.18
520.738	17139.88
521.171	16810.71
521.604	16966.81
522.037	16691.39
522.47	16384.14
522.903	16136.65
523.336	16036.19
523.769	15978.67
524.202	15556.86
524.634	15579.75
525.067	15254.14
525.5	15123.7
525.932	14971.28
526.365	14717.43
526.797	14596.86
527.23	14612
527.662	14048.65
528.094	14003.9
528.527	13880.01
528.959	13610.8
529.391	13461.4
529.823	12987.34
530.255	13076.9
530.687	12732.22
531.119	12491.57
531.551	12499.45
531.982	12234.66
532.414	12049.05
532.846	11768.95
533.277	11690.39
533.709	11377.4
534.14	11325.02
534.572	11150.92
535.003	11054.23
535.435	10897.06
535.866	10645.17
536.297	10419.92
536.728	10431.47
537.159	10279.97
537.59	10099.28
538.022	9938.23
538.452	9792.75
538.883	9652.31
539.314	9501.17
539.745	9339.82
540.176	9239.05
540.606	8962.54
541.037	8995.16
541.468	8832.78
541.898	8696.43
542.328	8678.27
542.759	8483.88
543.189	8355.79
543.619	8364.1
544.05	8074.52
544.48	8027.63
544.91	7821.92
545.34	7757.19
545.77	7637.58
546.2	7560.48
546.63	7440.95
547.06	7427.6
547.489	7244.55
547.919	7060.7
548.349	7137.84
548.778	7031.83
549.208	6933.61
549.637	6792.97
550.067	6716.4
550.496	6703.51
550.926	6546.26
551.355	6424.16
551.784	6428.38
552.213	6314.35
552.642	6214.74
553.071	6218.97
553.5	6078.79
553.929	5905.31
554.358	5902.92
554.787	5790.74
555.216	5803.48
555.645	5689.87
556.073	5633.28
556.502	5575.6
556.93	5403.17
557.359	5399.44
557.787	5380.53
558.216	5287
558.644	5213.65
559.072	5229.39
559.5	5078.56
559.929	5110.35
560.357	5047.3
560.785	5012.55
561.213	4968.97
561.641	4892.18
562.068	4809.71
562.496	4822.57
562.924	4755.05
563.352	4746.47
563.779	4701.7
564.207	4704.65
564.634	4640.54
565.062	4609.14
565.489	4557.58
565.917	4500.36
566.344	4491.22
566.771	4424.82
567.198	4407.07
567.625	4368.59
568.053	4303.18
568.48	4234.22
568.907	4172.21
569.333	4116.65
569.76	3985.15
570.187	4059.43
570.614	3926.49
571.04	4060.24
571.467	3846.15
571.894	3809.07
572.32	3743.8
572.747	3660.86
573.173	3598.19
573.599	3565.35
574.026	3443.38
574.452	3418.36
574.878	3437.67
575.304	3343.55
575.73	3286.11
576.156	3188.29
576.582	3212.55
577.008	3116.28
577.434	3071.51
577.86	3008.7
578.285	3023.18
578.711	2943.65
579.137	2899.61
579.562	2837.49
579.988	2856.65
580.413	2759.7
580.838	2734.76
581.264	2671.97
581.689	2649.47
582.114	2620.93
582.539	2589.09
582.964	2545.69
583.39	2519.59
583.814	2487.98
584.239	2408.76
584.664	2412.89
585.089	2353.15
585.514	2334.98
585.939	2285.11
586.363	2269.67
586.788	2271.05
587.212	2260.85
587.637	2199.07
588.061	2174.51
588.485	2096.37
588.91	2088.64
589.334	2073.44
589.758	2034.47
590.182	2029.49
590.606	1924.08
591.03	1984.97
591.454	1924.36
591.878	1891.41
592.302	1904.7
592.726	1871.74
593.15	1845.97
593.573	1838.21
593.997	1777.22
594.42	1750.03
594.844	1789.42
595.267	1766.68
595.691	1724.78
596.114	1670.09
596.537	1683.97
596.96	1676.75
597.384	1676.2
597.807	1621.74
598.23	1637.86
598.653	1583.38
599.076	1558.91
599.499	1594.5
599.921	1575.6
600.344	1549.18
600.767	1528.31
601.189	1516.07
601.612	1517.74
602.034	1513.28
602.457	1481
602.879	1484.34
603.302	1484.61
603.724	1449.25
604.146	1458.72
604.568	1449.25
604.991	1453.43
605.413	1444.24
605.835	1436.44
606.257	1436.16
606.678	1406.35
607.1	1419.16
607.522	1424.74
607.944	1375.13
608.365	1379.59
608.787	1345.01
609.209	1357.84
609.63	1317.4
610.051	1367.32
610.473	1293.12
610.894	1280.56
611.315	1278.05
611.737	1269.11
612.158	1245.1
612.579	1230.3
613	1224.99
613.421	1230.02
613.842	1211.3
614.263	1174.42
614.683	1178.61
615.104	1175.81
615.525	1146.74
615.945	1126.6
616.366	1112.62
616.787	1116.81
617.207	1102.55
617.627	1090.24
618.048	1048.81
618.468	1088
618.888	1051.33
619.308	1056.09
619.728	1028.65
620.148	1065.61
620.568	995.6
620.988	983.83
621.408	1023.89
621.828	980.19
622.248	1011.28
622.668	966.45
623.087	961.97
623.507	959.45
623.926	957.48
624.346	918.51
624.765	929.17
625.185	921.59
625.604	888.5
626.023	898.31
626.442	892.42
626.861	853.7
627.28	852.29
627.699	837.98
628.118	854.54
628.537	849.21
628.956	868.85
629.375	847.24
629.794	819.44
630.212	839.66
630.631	805.12
631.049	796.13
631.468	814.95
631.886	814.67
632.305	787.7
632.723	766.35
633.141	786.3
633.559	749.49
633.978	763.26
634.396	769.44
634.814	731.5
635.232	745.83
635.65	748.64
636.067	740.21
636.485	741.34
636.903	712.09
637.321	700.56
637.738	701.13
638.156	728.97
638.573	708.72
638.991	669.9
639.408	700.84
639.825	690.72
640.243	686.5
640.66	682.84
641.077	676.09
641.494	672.15
641.911	675.81
642.328	678.06
642.745	657.52
643.162	678.62
643.579	655.27
643.995	639.5
644.412	647.38
644.829	633.87
645.245	638.66
645.662	628.24
646.078	643.44
646.495	622.33
646.911	619.51
647.327	643.44
647.743	635.84
648.159	648.79
648.576	613.04
648.992	619.23
649.408	604.31
649.824	619.23
650.239	594.45
650.655	619.51
651.071	575.58
651.487	583.47
651.902	583.75
652.318	579.8
652.733	578.39
653.149	589.94
653.564	564.31
653.979	600.08
654.395	572.2
654.81	599.52
655.225	595.58
655.64	587.13
656.055	570.51
656.47	589.38
656.885	578.68
657.3	530.77
657.715	568.53
658.13	562.05
658.544	561.77
658.959	566.28
659.374	540.35
659.788	551.63
660.202	523.16
660.617	550.78
661.031	542.89
661.445	557.54
661.86	524
662.274	534.15
662.688	546.83
663.102	558.11
663.516	516.95
663.93	518.08
664.344	529.08
664.758	505.11
665.171	522.03
665.585	520.06
665.999	530.2
666.412	549.09
666.826	533.02
667.239	522.59
667.653	514.98
668.066	533.02
668.479	492.14
668.892	556.14
669.306	497.78
669.719	513.57
670.132	503.98
670.545	500.88
670.958	500.03
671.37	506.24
671.783	502.01
672.196	523.16
672.609	482.55
673.021	491.29
673.434	498.34
673.846	498.06
674.259	496.37
674.671	495.8
675.084	481.98
675.496	492.98
675.908	491.29
676.32	488.19
676.732	494.96
677.144	493.55
677.556	464.77
677.968	504.83
678.38	513.57
678.792	486.21
679.204	474.65
679.615	474.65
680.027	452.92
680.439	455.18
680.85	474.93
681.262	489.6
681.673	472.11
682.084	462.52
682.496	480.01
682.907	455.46
683.318	448.41
683.729	463.93
684.14	489.32
684.551	472.11
684.962	463.08
685.373	454.05
685.784	460.54
686.194	477.75
686.605	474.08
687.016	490.45
687.426	483.68
687.837	479.44
688.247	466.18
688.657	456.87
689.068	459.13
689.478	461.11
689.888	418.77
690.298	435.42
690.708	464.21
691.118	458.57
691.528	443.89
691.938	465.06
692.348	469.85
692.758	439.09
693.168	446.71
693.577	449.54
693.987	423.85
694.396	443.05
694.806	428.93
695.215	441.63
695.625	427.8
696.034	438.81
696.443	451.51
696.852	454.9
697.262	434.86
697.671	440.22
698.08	434.3
698.489	432.04
698.897	422.16
699.306	461.39
699.715	449.82
700.124	441.92
700.532	443.89
700.941	446.43
701.35	433.17
701.758	433.45
702.166	450.95
702.575	423.57
702.983	418.49
703.391	430.63
703.799	410.3
704.208	414.82
704.616	455.74
705.024	416.51
705.432	491.01
705.839	423
706.247	417.92
706.655	408.32
707.063	423.85
707.47	425.83
707.878	416.23
708.285	413.97
708.693	437.4
709.1	445.59
709.508	418.49
709.915	435.99
710.322	409.73
710.729	425.55
711.136	402.68
711.543	437.68
711.95	426.11
712.357	426.39
712.764	430.06
713.171	436.27
713.578	437.97
713.984	394.77
714.391	426.96
714.797	426.96
715.204	443.61
715.61	428.37
716.017	414.25
716.423	415.1
716.829	410.58
717.236	432.32
717.642	432.32
718.048	391.38
718.454	439.94
718.86	427.24
719.266	400.13
719.671	397.87
720.077	413.97
720.483	378.1
720.889	421.88
721.294	416.79
721.7	404.09
722.105	407.76
722.511	415.38
722.916	410.86
723.321	415.95
723.726	410.86
724.132	389.4
724.537	412.56
724.942	413.69
725.347	419.33
725.752	406.91
726.156	406.63
726.561	405.22
726.966	404.37
727.371	390.53
727.775	395.33
728.18	416.51
728.584	415.38
728.989	416.51
729.393	398.72
729.798	406.91
730.202	436.55
730.606	405.5
731.01	413.41
731.414	409.17
731.818	413.97
732.222	436.27
732.626	425.26
733.03	427.52
733.434	391.94
733.837	404.37
734.241	390.81
734.645	400.98
735.048	409.17
735.452	410.02
735.855	428.37
736.258	389.97
736.662	408.04
737.065	391.66
737.468	394.77
737.871	418.77
738.274	415.95
738.677	385.73
739.08	410.3
739.483	402.68
739.886	392.23
740.289	384.32
740.691	419.62
741.094	414.25
741.497	402.39
741.899	416.79
742.302	404.65
742.704	395.33
743.106	398.72
743.508	395.9
743.911	425.55
744.313	403.8
744.715	411.99
745.117	399.29
745.519	397.87
745.921	385.73
746.323	400.7
746.724	407.76
747.126	399.85
747.528	405.5
747.929	395.9
748.331	379.8
748.732	392.79
749.134	413.41
749.535	432.04
749.936	412.84
750.338	398.16
750.739	431.47
751.14	394.77
751.541	400.7
751.942	400.98
752.343	402.96
752.744	396.18
753.144	410.02
753.545	396.75
753.946	419.9
754.346	415.38
754.747	405.78
755.148	408.04
755.548	395.62
755.948	408.89
756.349	382.62
756.749	393.07
757.149	393.36
757.549	408.04
757.949	396.46
758.349	412.56
758.749	404.65
759.149	392.51
759.549	381.21
759.949	373.87
760.348	397.31
760.748	390.25
761.148	410.3
761.547	382.34
761.947	393.64
762.346	374.43
762.745	394.77
763.145	430.06
763.544	402.11
763.943	415.1
764.342	402.11
764.741	423.29
765.14	399.29
765.539	385.45
765.938	379.8
766.336	403.8
766.735	402.68
767.134	403.24
767.532	409.45
767.931	399.85
768.329	414.82
768.728	397.87
769.126	389.4
769.525	398.16
769.923	398.44
770.321	370.76
770.719	388.55
771.117	400.7
771.515	413.41
771.913	402.39
772.311	382.91
772.709	418.49
773.106	396.18
773.504	410.86
773.902	399.85
774.299	394.49
774.697	416.23
775.094	403.8
775.491	371.32
775.889	399
776.286	389.12
776.683	420.75
777.08	383.75
777.477	388.84
777.874	374.71
778.271	386.01
778.668	398.16
779.065	376.13
779.462	368.22
779.858	368.78
780.255	390.53
780.652	412.56
781.048	404.09
781.444	420.75
781.841	389.12
782.237	369.06
782.633	363.13
783.03	379.52
783.426	386.58
783.822	400.42
784.218	387.42
784.614	393.36
785.01	378.39
785.405	402.96
785.801	378.95
786.197	375.84
786.593	388.27
786.988	380.65
787.384	397.31
787.779	383.19
788.174	388.84
788.57	403.24
788.965	365.11
789.36	402.96
789.755	399.57
790.15	397.87
790.545	377.54
790.94	389.68
791.335	394.2
791.73	404.37
792.125	399.29
792.52	404.93
792.914	407.76
793.309	407.19
793.703	406.06
794.098	398.44
794.492	411.99
794.887	405.78
795.281	399.29
795.675	376.69
796.069	403.24
796.463	393.64
796.857	387.71
797.251	395.05
797.645	409.45
798.039	400.98
798.433	386.58
798.826	409.45
799.22	373.3
799.614	399
800.007	408.61
800.401	375.28
800.794	382.91
801.187	395.9
801.581	403.8
801.974	410.02
802.367	373.3
802.76	402.39
803.153	393.36
803.546	369.06
803.939	380.93
804.332	417.08
804.725	357.76
805.117	382.34
805.51	382.62
805.903	375.84
806.295	400.42
806.688	362.28
807.08	355.22
807.472	412.28
807.865	371.61
808.257	406.06
808.649	431.19
809.041	402.96
809.433	378.67
809.825	396.75
810.217	388.27
810.609	404.37
811.001	390.81
811.392	357.2
811.784	404.65
812.175	384.88
812.567	395.33
812.958	380.65
813.35	385.17
813.741	397.31
814.132	386.86
814.524	385.17
814.915	378.39
815.306	377.82
815.697	392.79
816.088	406.63
816.479	401.26
816.87	383.47
817.26	402.39
817.651	387.14
818.042	383.19
818.432	387.42
818.823	386.86
819.213	388.27
819.604	389.4
819.994	387.42
820.384	375.84
820.775	391.66
821.165	365.11
821.555	346.46
821.945	383.75
822.335	384.88
822.725	394.77
823.114	390.81
823.504	407.48
823.894	391.94
824.284	399
824.673	383.47
825.063	368.5
825.452	409.17
825.842	402.39
826.231	408.32
826.62	421.03
827.009	371.89
827.399	411.43
827.788	389.68
828.177	384.88
828.566	392.51
828.954	401.55
829.343	376.69
829.732	395.05
830.121	382.34
830.509	400.98
830.898	373.87
831.286	404.65
831.675	393.36
832.063	399.29
832.452	386.86
832.84	406.91
833.228	364.54
833.616	379.8
834.004	377.82
834.392	383.19
834.78	400.13
835.168	391.94
835.556	383.47
835.944	408.61
836.331	388.84
836.719	381.78
837.107	399.57
837.494	368.78
837.881	410.86
838.269	382.06
838.656	406.06
839.043	368.22
839.431	402.39
839.818	368.5
840.205	386.01
840.592	372.17
840.979	380.93
841.366	400.98
841.752	369.63
842.139	401.83
842.526	399.57
842.912	382.34
843.299	380.08
843.685	385.73
844.072	375.28
844.458	396.46
844.844	378.67
845.231	393.64
845.617	376.13
846.003	381.49
846.389	379.8
846.775	392.51
847.161	375
847.547	411.99
847.933	403.24
848.318	382.62
848.704	371.89
849.09	396.75
849.475	397.03
849.861	374.71
850.246	395.62
850.631	403.8
851.017	373.02
851.402	383.75
851.787	389.97
852.172	393.92
852.557	363.41
852.942	391.38
853.327	393.36
853.712	405.78
854.097	390.81
854.481	371.61
854.866	375.28
855.25	379.52
855.635	380.93
856.019	389.68
856.404	385.73
856.788	366.8
857.172	383.47
857.557	371.32
857.941	384.88
858.325	399.29
858.709	384.6
859.093	372.17
859.477	381.78
859.86	363.7
860.244	388.27
860.628	372.17
861.012	377.82
861.395	361.72
861.779	373.3
862.162	385.17
862.545	372.17
862.929	392.79
863.312	386.86
863.695	390.25
864.078	384.32
864.461	392.23
864.844	380.08
865.227	376.69
865.61	376.69
865.993	357.76
866.376	393.64
866.758	374.43
867.141	371.89
867.523	358.33
867.906	354.65
868.288	382.91
868.671	394.49
869.053	371.61
869.435	372.17
869.817	375
870.199	386.3
870.581	360.87
870.963	378.67
871.345	378.1
871.727	398.72
872.109	401.55
872.491	383.47
872.872	378.67
873.254	382.34
873.635	358.89
874.017	410.3
874.398	381.49
874.779	369.91
875.161	374.43
875.542	378.95
875.923	369.63
876.304	372.17
876.685	376.97
877.066	355.78
877.447	387.42
877.828	375
878.208	388.27
878.589	365.39
878.97	376.69
879.35	375.84
879.731	411.43
880.111	371.04
880.491	388.27
880.872	385.45
881.252	372.45
881.632	387.42
882.012	389.4
882.392	365.39
882.772	382.62
883.152	391.66
883.532	352.11
883.912	378.1
884.291	384.32
884.671	395.9
885.051	389.4
885.43	400.7
885.81	358.05
886.189	371.32
886.568	360.02
886.948	376.13
887.327	369.35
887.706	383.47
888.085	405.22
888.464	381.78
888.843	360.87
889.222	393.64
889.601	387.71
889.979	388.27
890.358	375.56
890.737	379.23
891.115	385.45
891.494	393.64
891.872	372.45
892.25	389.68
892.629	398.16
893.007	389.4
893.385	367.65
893.763	390.81
894.141	402.68
894.519	403.8
894.897	390.81
895.275	363.7
895.653	380.93
896.03	368.5
896.408	372.45
896.786	391.94
897.163	390.81
897.541	376.41
897.918	387.71
898.295	362.85
898.673	370.48
899.05	376.13
899.427	385.17
899.804	364.26
900.181	392.51
900.558	379.23
900.935	378.39
901.312	352.96
901.688	378.39
902.065	396.46
902.442	404.09
902.818	360.87
903.195	373.3
903.571	386.86
903.947	384.88
904.324	366.8
904.7	357.76
905.076	369.63
905.452	392.23
905.828	381.78
906.204	353.24
906.58	384.88
906.956	391.66
907.331	370.19
907.707	386.58
908.083	365.96
908.458	382.91
908.834	374.15
909.209	367.09
909.585	372.74
909.96	363.98
910.335	391.38
910.71	383.19
911.086	387.99
911.461	376.13
911.836	346.46
912.21	397.87
912.585	395.62
912.96	369.63
913.335	362
913.709	379.52
914.084	386.58
914.459	369.91
914.833	387.99
915.207	386.01
915.582	359.74
915.956	390.25
916.33	374.71
916.704	383.75
917.078	356.35
917.452	360.31
917.826	388.55
918.2	384.6
918.574	384.6
918.948	374.15
919.321	371.89
919.695	357.48
920.068	375
920.442	392.23
920.815	365.67
921.189	360.87
921.562	397.87
921.935	400.13
922.308	384.6
922.681	390.81
923.054	377.26
923.427	398.16
923.8	360.31
924.173	358.05
924.546	380.08
924.919	395.05
925.291	368.22
925.664	380.93
926.036	367.37
926.409	356.35
926.781	386.3
927.153	377.54
927.526	377.54
927.898	398.72
928.27	374.71
928.642	378.95
929.014	376.97
929.386	378.39
929.758	398.72
930.129	388.55
930.501	385.17
930.873	349.29
931.244	382.06
931.616	379.52
931.987	367.09
932.359	371.61
932.73	368.78
933.101	379.8
933.472	377.26
933.843	362.85
934.214	390.25
934.585	368.22
934.956	393.36
935.327	392.51
935.698	373.58
936.069	375.56
936.439	383.47
936.81	371.32
937.18	394.49
937.551	400.13
937.921	386.86
938.292	371.89
938.662	363.7
939.032	396.18
939.402	386.58
939.772	372.74
940.142	361.72
940.512	361.15
940.882	378.95
941.252	363.98
941.621	363.13
941.991	385.45
942.361	373.58
942.73	377.82
943.1	355.78
943.469	390.25
943.838	361.15
944.208	386.58
944.577	354.09
944.946	384.6
945.315	390.53
945.684	382.62
946.053	373.02
946.422	365.96
946.791	376.41
947.159	361.72
947.528	398.72
947.897	371.61
948.265	370.48
948.634	377.82
949.002	370.48
949.371	386.3
949.739	395.62
950.107	402.39
950.475	373.3
950.843	378.95
951.211	382.06
951.579	369.06
951.947	360.02
952.315	371.32
952.683	365.96
953.05	366.24
953.418	381.21
953.785	379.23
954.153	406.35
954.52	389.97
954.888	399.29
955.255	374.43
955.622	360.31
955.989	369.63
956.356	393.36
956.723	373.3
957.09	359.74
957.457	361.44
957.824	373.02
958.191	388.84
958.557	385.17
958.924	397.87
959.291	382.34
959.657	381.49
960.023	353.24
960.39	363.7
960.756	374.71
961.122	369.91
961.488	383.75
961.855	378.67
962.221	358.61
962.586	356.07
962.952	363.98
963.318	369.63
963.684	385.45
964.05	370.76
964.415	378.1
964.781	359.18
965.146	387.14
965.512	396.18
965.877	361.72
966.242	343.63
966.608	366.52
966.973	382.34
967.338	356.63
967.703	387.14
968.068	381.78
968.433	390.25
968.797	359.74
969.162	354.94
969.527	359.46
969.891	361.44
970.256	364.83
970.62	365.39
970.985	376.69
971.349	368.5
971.714	364.83
972.078	372.17
972.442	357.48
972.806	374.15
973.17	362.57
973.534	405.5
973.898	353.24
974.262	389.68
974.625	397.87
974.989	370.76
975.353	368.78
975.716	376.41
976.08	364.26
976.443	363.41
976.806	355.5
977.17	367.93
977.533	378.67
977.896	360.87
978.259	384.32
978.622	380.36
978.985	386.3
979.348	387.14
979.711	391.94
980.073	375
980.436	399
980.799	363.41
981.161	365.96
981.524	348.44
981.886	350.13
982.248	369.35
982.611	382.06
982.973	373.3
983.335	357.48
983.697	340.52
984.059	362.28
984.421	351.55
984.783	371.04
985.145	389.97
985.506	361.44
985.868	364.54
986.23	383.47
986.591	381.21
986.953	382.34
987.314	377.26
987.675	400.13
988.037	501.44
988.398	357.48
988.759	383.75
989.12	376.69
989.481	386.01
989.842	384.88
990.203	378.39
990.564	378.1
990.924	376.13
991.285	491.29
991.646	401.83
992.006	357.2
992.367	394.49
992.727	368.22
993.087	377.26
993.448	354.37
993.808	363.98
994.168	376.41
994.528	363.13
994.888	374.15
995.248	376.13
995.608	379.8
995.967	385.17
996.327	376.13
996.687	371.04
997.046	369.35
997.406	369.63
997.765	362
998.125	372.74
998.484	370.48
998.843	370.19
999.202	380.08
999.561	375
999.92	366.8
1000.279	379.23
1000.638	385.45
1000.997	381.49
1001.356	368.22
1001.715	349.85
1002.073	396.18
1002.432	369.06
1002.79	365.96
1003.149	386.01
1003.507	369.63
1003.865	373.58
1004.224	371.04
1004.582	364.54
1004.94	387.99
1005.298	388.84
1005.656	364.83
1006.014	362
1006.371	375.84
1006.729	394.49
1007.087	335.44
1007.445	352.39
1007.802	376.13
1008.16	384.88
1008.517	389.97
1008.874	376.69
1009.232	389.4
1009.589	367.09
1009.946	383.47
1010.303	380.93
1010.66	353.81
1011.017	351.83
1011.374	382.91
1011.731	380.93
1012.087	390.53
1012.444	362.57
1012.801	373.02
1013.157	365.11
1013.513	350.42
1013.87	367.09
1014.226	363.13
1014.582	374.71
1014.939	381.21
1015.295	366.8
1015.651	391.1
1016.007	374.15
1016.363	367.37
1016.719	372.17
1017.074	367.09
1017.43	373.02
1017.786	356.35
1018.141	386.86
1018.497	383.19
1018.852	360.31
1019.208	385.45
1019.563	349
1019.918	373.58
1020.273	372.74
1020.628	337.7
1020.983	367.65
1021.338	365.11
1021.693	369.63
1022.048	364.54
1022.403	368.78
1022.757	383.47
1023.112	364.54
1023.467	366.52
1023.821	356.07
1024.175	390.81
1024.53	382.06
1024.884	392.79
1025.238	375.56
1025.592	396.46
1025.946	405.5
1026.3	380.08
1026.654	367.65
1027.008	353.24
1027.362	378.1
1027.716	366.8
1028.069	370.76
1028.423	355.78
1028.777	365.11
1029.13	358.89
1029.483	400.13
1029.837	381.49
1030.19	396.75
1030.543	380.93
1030.896	365.39
1031.249	385.73
1031.602	371.32
1031.955	370.76
1032.308	366.8
1032.661	377.82
1033.013	356.91
1033.366	399.57
1033.719	374.15
1034.071	379.52
1034.424	372.74
1034.776	361.72
1035.128	356.63
1035.48	363.41
1035.833	387.99
1036.185	389.97
1036.537	389.97
1036.889	389.97
