Data from SCSF78-405_irradiation_FLMS019251_14-31-27-869.txt Node
Date: Fri Feb 22 14:31:27 PST 2019
User: mu3e
Spectrometer: FLMS01925
Trigger mode: 0
Integration Time (sec): 1.206000E-2
Scans to average: 10
Electric dark correction enabled: true
Nonlinearity correction enabled: true
Boxcar width: 0
XAxis mode: Wavelengths
Number of Pixels in Spectrum: 2048
>>>>>Begin Spectral Data<<<<<
187.103	-81.39
187.574	-81.39
188.045	-81.39
188.516	-113.23
188.987	-125.46
189.458	-124.32
189.929	-115.79
190.4	-102.14
190.871	-90.48
191.342	-77.69
191.813	-51.27
192.284	-17.46
192.754	-35.64
193.225	5.82
193.696	49.24
194.166	21.72
194.637	84.42
195.107	71.37
195.578	117.31
196.048	125.81
196.518	138.28
196.989	184.74
197.459	220.42
197.929	241.36
198.399	271.92
198.869	294.83
199.339	289.74
199.809	306.14
200.279	323.95
200.749	338.37
201.219	353.91
201.689	364.93
202.159	368.6
202.628	390.07
203.098	372.28
203.568	396.85
204.037	386.12
204.507	401.09
204.976	378.77
205.445	389.79
205.915	393.46
206.384	401.65
206.853	425.93
207.323	396.57
207.792	413.51
208.261	432.14
208.73	404.48
209.199	401.37
209.668	388.38
210.137	408.71
210.606	356.74
211.075	411.25
211.543	378.21
212.012	390.07
212.481	368.6
212.95	355.89
213.418	383.01
213.887	381.88
214.355	356.46
214.824	367.19
215.292	350.24
215.76	344.87
216.229	370.86
216.697	338.65
217.165	382.45
217.633	351.65
218.101	368.89
218.569	334.98
219.037	392.61
219.505	366.34
219.973	367.47
220.441	345.44
220.909	365.5
221.377	350.52
221.844	368.32
222.312	384.14
222.78	356.17
223.247	326.78
223.715	362.39
224.182	349.96
224.65	357.02
225.117	385.27
225.584	358.15
226.052	387.81
226.519	364.08
226.986	369.73
227.453	381.6
227.92	392.61
228.387	376.51
228.854	364.93
229.321	366.34
229.788	385.55
230.255	370.3
230.722	349.96
231.189	371.43
231.655	365.5
232.122	383.86
232.589	353.06
233.055	375.67
233.522	367.47
233.988	375.38
234.454	376.23
234.921	380.47
235.387	391.2
235.853	393.46
236.32	397.42
236.786	357.87
237.252	386.12
237.718	366.63
238.184	366.34
238.65	357.59
239.116	382.73
239.582	386.12
240.047	385.27
240.513	381.03
240.979	356.46
241.445	375.1
241.91	371.43
242.376	366.63
242.841	386.12
243.307	382.45
243.772	379.62
244.238	387.81
244.703	373.41
245.168	397.7
245.633	391.48
246.099	368.6
246.564	376.23
247.029	383.01
247.494	391.48
247.959	382.73
248.424	361.54
248.889	377.64
249.353	381.6
249.818	372.84
250.283	393.18
250.748	368.89
251.212	391.2
251.677	394.31
252.141	353.06
252.606	386.4
253.07	384.99
253.535	375.95
253.999	367.76
254.463	352.5
254.927	384.14
255.392	408.43
255.856	389.51
256.32	344.87
256.784	421.98
257.248	399.96
257.712	365.78
258.176	371.43
258.64	366.06
259.103	401.93
259.567	376.23
260.031	374.54
260.495	379.34
260.958	390.64
261.422	400.24
261.885	385.84
262.349	373.41
262.812	381.6
263.275	360.13
263.739	412.1
264.202	386.4
264.665	381.03
265.128	382.16
265.591	388.66
266.054	394.59
266.517	386.12
266.98	382.45
267.443	357.3
267.906	394.31
268.369	377.08
268.832	389.79
269.294	415.77
269.757	389.51
270.22	367.19
270.682	389.23
271.145	388.38
271.607	432.43
272.07	390.07
272.532	384.42
272.994	386.97
273.456	428.47
273.919	404.19
274.381	385.55
274.843	405.61
275.305	349.11
275.767	408.43
276.229	410.12
276.691	406.73
277.153	386.4
277.614	371.15
278.076	403.06
278.538	396.29
279	379.34
279.461	406.73
279.923	390.92
280.384	394.31
280.846	407.86
281.307	375.67
281.769	395.16
282.23	382.16
282.691	405.61
283.152	397.98
283.613	370.02
284.075	378.49
284.536	374.25
284.997	414.92
285.458	399.11
285.918	414.92
286.379	386.97
286.84	386.4
287.301	377.93
287.762	381.32
288.222	405.89
288.683	397.42
289.143	373.69
289.604	399.67
290.064	391.77
290.525	389.51
290.985	392.05
291.445	379.62
291.906	416.62
292.366	406.45
292.826	386.97
293.286	401.09
293.746	400.8
294.206	395.44
294.666	373.41
295.126	405.89
295.586	395.16
296.046	398.26
296.506	425.09
296.965	390.64
297.425	391.77
297.884	394.87
298.344	359
298.804	382.73
299.263	405.32
299.722	392.61
300.182	410.12
300.641	421.98
301.1	426.78
301.559	409.28
302.019	396.57
302.478	426.22
302.937	392.05
303.396	399.11
303.855	407.86
304.314	391.48
304.772	425.37
305.231	421.98
305.69	405.89
306.149	428.19
306.607	417.46
307.066	410.69
307.524	410.97
307.983	422.26
308.441	403.35
308.9	411.25
309.358	438.64
309.816	422.26
310.275	386.68
310.733	397.98
311.191	389.51
311.649	396.85
312.107	379.06
312.565	418.59
313.023	422.26
313.481	410.41
313.939	406.45
314.397	394.87
314.854	402.5
315.312	414.08
315.77	412.66
316.227	401.65
316.685	407.86
317.142	421.13
317.6	420.57
318.057	400.8
318.514	402.78
318.972	395.16
319.429	416.33
319.886	402.5
320.343	410.41
320.8	387.53
321.257	397.7
321.714	402.78
322.171	392.9
322.628	379.34
323.085	396.57
323.542	416.05
323.998	407.02
324.455	421.13
324.912	412.95
325.368	382.73
325.825	421.7
326.281	392.33
326.738	402.78
327.194	409.56
327.65	417.18
328.107	427.34
328.563	409.28
329.019	391.48
329.475	412.66
329.931	407.58
330.387	397.13
330.843	400.52
331.299	414.36
331.755	357.3
332.211	410.97
332.666	429.04
333.122	398.83
333.578	398.26
334.033	397.7
334.489	397.42
334.944	388.38
335.4	426.5
335.855	398.83
336.31	411.53
336.766	404.19
337.221	412.66
337.676	393.18
338.131	402.5
338.586	415.49
339.041	390.07
339.496	419.16
339.951	417.46
340.406	418.59
340.861	414.92
341.316	413.51
341.771	412.1
342.225	433.55
342.68	411.82
343.134	434.12
343.589	431.86
344.043	401.37
344.498	406.45
344.952	430.73
345.406	430.45
345.861	404.19
346.315	432.14
346.769	421.7
347.223	418.31
347.677	409.84
348.131	414.08
348.585	418.59
349.039	421.7
349.493	412.66
349.947	423.39
350.401	430.17
350.854	420.57
351.308	430.45
351.762	399.67
352.215	431.01
352.669	402.78
353.122	421.42
353.575	388.1
354.029	428.47
354.482	436.1
354.935	434.97
355.388	414.92
355.842	412.38
356.295	407.02
356.748	414.36
357.201	421.98
357.654	416.62
358.106	407.58
358.559	408.15
359.012	409.56
359.465	423.96
359.917	427.34
360.37	425.93
360.823	424.8
361.275	431.86
361.728	396.57
362.18	436.94
362.632	416.33
363.085	412.1
363.537	409.56
363.989	446.54
364.441	415.21
364.893	408.99
365.345	410.69
365.797	416.9
366.249	411.53
366.701	392.61
367.153	410.12
367.605	424.24
368.057	395.44
368.508	430.73
368.96	435.25
369.411	442.87
369.863	415.77
370.314	449.64
370.766	422.26
371.217	418.03
371.669	389.79
372.12	417.75
372.571	438.64
373.022	415.49
373.473	444.28
373.924	442.59
374.375	421.13
374.826	431.58
375.277	403.63
375.728	418.59
376.179	408.71
376.63	432.71
377.08	436.1
377.531	434.12
377.981	405.04
378.432	410.41
378.883	435.81
379.333	410.12
379.783	438.07
380.234	414.36
380.684	436.38
381.134	446.82
381.584	440.05
382.034	434.97
382.485	425.65
382.935	448.23
383.385	430.45
383.834	434.97
384.284	397.7
384.734	436.38
385.184	433.27
385.634	425.65
386.083	433.55
386.533	423.39
386.982	418.59
387.432	432.71
387.881	418.59
388.331	422.83
388.78	429.89
389.229	412.95
389.679	454.72
390.128	433.27
390.577	442.59
391.026	423.39
391.475	436.94
391.924	414.36
392.373	422.83
392.822	458.95
393.27	438.35
393.719	445.97
394.168	443.72
394.617	445.97
395.065	434.4
395.514	439.2
395.962	445.69
396.411	439.2
396.859	439.2
397.307	470.24
397.756	443.72
398.204	453.31
398.652	434.97
399.1	462.62
399.548	456.7
399.996	445.69
400.444	452.75
400.892	465.16
401.34	464.6
401.788	440.61
402.236	429.89
402.683	463.75
403.131	459.52
403.579	482.37
404.026	474.47
404.474	461.78
404.921	469.11
405.369	469.39
405.816	470.8
406.263	472.5
406.71	458.11
407.158	451.62
407.605	484.63
408.052	493.65
408.499	493.94
408.946	498.45
409.393	498.17
409.84	511.7
410.286	523.83
410.733	537.08
411.18	540.18
411.626	598.22
412.073	650.59
412.52	712.48
412.966	805.79
413.413	920.58
413.859	1084.18
414.305	1317.22
414.752	1607.67
415.198	1925.85
415.644	2342.79
416.09	2841.97
416.536	3375.22
416.982	4082.47
417.428	4808.74
417.874	5608.4
418.32	6446.68
418.766	7374.04
419.211	8447.61
419.657	9343.01
420.103	10592.96
420.548	11470.22
420.994	12821.44
421.439	14011.33
421.885	15067.87
422.33	16529.99
422.776	17625.43
423.221	18624.18
423.666	19992.22
424.111	21276.95
424.556	22225.61
425.001	23721.47
425.446	25177.96
425.891	26368.77
426.336	27390.18
426.781	28615.09
427.226	30827.04
427.671	31365.27
428.115	32307.87
428.56	34004.97
429.005	35646.64
429.449	36186.93
429.894	37631.36
430.338	38677.65
430.782	38898.75
431.227	40478.67
431.671	40807.82
432.115	42386.78
432.559	43379.29
433.003	43221.19
433.447	44388.73
433.891	44611.45
434.335	45147
434.779	45801.39
435.223	46074.52
435.667	46022.64
436.111	46739.93
436.554	46695.7
436.998	46311.36
437.442	46250.03
437.885	48378.47
438.328	46673.58
438.772	47140.26
439.215	47533.38
439.659	47173.67
440.102	47471.22
440.545	46915.25
440.988	46881.64
441.431	47770.53
441.874	47198.16
442.317	47352.63
442.76	46899.97
443.203	46562.56
443.646	47067.59
444.089	46630.13
444.531	47278.56
444.974	46102.61
445.417	47274.99
445.859	46195.55
446.302	47453.07
446.744	46598.12
447.186	47872.35
447.629	46804.54
448.071	46703.58
448.513	46929.76
448.956	48456.6
449.398	47509.08
449.84	46204.93
450.282	46903.28
450.724	47461
451.166	47191.53
451.607	47015.34
452.049	47196.63
452.491	48220.82
452.933	47725.93
453.374	48378.72
453.816	48840.16
454.257	48561.13
454.699	49510.16
455.14	49110.63
455.582	49093.76
456.023	48895.07
456.464	49221.33
456.905	49711.26
457.347	49706.55
457.788	48673.01
458.229	48841.97
458.67	49926.48
459.111	47895.19
459.552	48185.82
459.992	47994.81
460.433	47648.82
460.874	46704.09
461.315	48128.72
461.755	46862.81
462.196	46508.99
462.636	45736.22
463.077	45435.18
463.517	45433.41
463.957	45835.25
464.398	45348.98
464.838	45356.28
465.278	44370.19
465.718	44506.83
466.158	43522.03
466.598	43916.79
467.038	43360.33
467.478	43779.54
467.918	44104.69
468.358	43379.29
468.798	43094.08
469.237	42814.2
469.677	42824.65
470.117	43503.81
470.556	41218.7
470.996	41600.91
471.435	42031.76
471.874	42668.91
472.314	42279.48
472.753	41346.37
473.192	41468.41
473.631	41016.65
474.07	41353.06
474.509	41581.83
474.948	41652.68
475.387	40999.35
475.826	40110.89
476.265	41850.22
476.704	41357.02
477.143	41747.59
477.581	41360.23
478.02	41952.63
478.458	40511.99
478.897	41156.36
479.335	42410.88
479.774	41998.52
480.212	42211.45
480.65	42098.26
481.089	41763.7
481.527	41325.59
481.965	40886.64
482.403	42777.87
482.841	42494.38
483.279	42395.23
483.717	42536.88
484.155	41992.81
484.592	42449.64
485.03	42760.45
485.468	41583.57
485.905	41832.86
486.343	42312.01
486.781	41727.02
487.218	41006.27
487.655	41081.92
488.093	40221.6
488.53	41539.73
488.967	40835.74
489.405	40626.29
489.842	39680.96
490.279	39687.12
490.716	39397.66
491.153	39846.47
491.59	39245.63
492.027	38494.96
492.463	38078.05
492.9	37423.11
493.337	37266.85
493.773	37303.34
494.21	36505.77
494.647	36258.31
495.083	35595.59
495.519	35225.36
495.956	35125.01
496.392	34511.67
496.828	34390.65
497.265	33565.98
497.701	33735.71
498.137	33376.75
498.573	32486.33
499.009	33043.19
499.445	32249.36
499.881	31685.43
500.316	32085.77
500.752	31046.79
501.188	30856.55
501.624	30759.72
502.059	29462.96
502.495	29429.5
502.93	29382.38
503.366	29578.68
503.801	28843.32
504.236	28608.24
504.672	28184.11
505.107	27878.14
505.542	27257.73
505.977	27263.85
506.412	26683.78
506.847	27090.47
507.282	26555.59
507.717	26097.5
508.152	26145.33
508.587	25891.14
509.021	25235.95
509.456	24863.54
509.891	24991.4
510.325	24937.06
510.76	24515.22
511.194	24277.21
511.628	24373.46
512.063	23617.94
512.497	23811.18
512.931	23148.79
513.366	23045.62
513.8	23120.9
514.234	22344.05
514.668	22522.51
515.102	22637.41
515.536	21768.87
515.969	21922.07
516.403	21397.38
516.837	21015.16
517.271	21163.92
517.704	20712.76
518.138	20584.94
518.571	20411.13
519.005	20053.37
519.438	19981.78
519.871	19740.32
520.305	19405.38
520.738	19241.29
521.171	18822.68
521.604	18854.09
522.037	18619.44
522.47	18390.15
522.903	18013.85
523.336	17918.66
523.769	17834.94
524.202	17333.73
524.634	17342.24
525.067	17174.28
525.5	16823.33
525.932	16831.85
526.365	16432.16
526.797	16300.42
527.23	16291.89
527.662	15760.64
528.094	15518.22
528.527	15498.35
528.959	15301.31
529.391	15041.17
529.823	14568.19
530.255	14669.35
530.687	14306.69
531.119	14043.94
531.551	14024.73
531.982	13636.96
532.414	13526.83
532.846	13171.59
533.277	13091.45
533.709	12714.02
534.14	12690.91
534.572	12443.36
535.003	12376.98
535.435	12160.17
535.866	11882.76
536.297	11648.65
536.728	11669.57
537.159	11556.51
537.59	11305.95
538.022	11126.21
538.452	10997.25
538.883	10734.73
539.314	10719.61
539.745	10437.47
540.176	10344.02
540.606	10047.94
541.037	10036.36
541.468	9872.68
541.898	9792.59
542.328	9693.13
542.759	9511.84
543.189	9327
543.619	9381.49
544.05	9077.54
544.48	8914.47
544.91	8887.28
545.34	8718.05
545.77	8621.82
546.2	8509.68
546.63	8397.99
547.06	8355.62
547.489	8129.56
547.919	7890.62
548.349	7981.87
548.778	7934.43
549.208	7784.18
549.637	7658.58
550.067	7492.59
550.496	7499.13
550.926	7466.17
551.355	7171.51
551.784	7192.22
552.213	7063.95
552.642	6919.26
553.071	6938.96
553.5	6790.44
553.929	6658.32
554.358	6617.76
554.787	6470.95
555.216	6485.46
555.645	6411.86
556.073	6357.22
556.502	6236.78
556.93	6076.24
557.359	6068.04
557.787	5996.29
558.216	5956.29
558.644	5865.91
559.072	5821.62
559.5	5736.43
559.929	5672.43
560.357	5701.38
560.785	5574.37
561.213	5519.05
561.641	5444.28
562.068	5448
562.496	5384.63
562.924	5288.7
563.352	5352.39
563.779	5270.56
564.207	5268.96
564.634	5196.68
565.062	5199.61
565.489	5096.56
565.917	5064.23
566.344	5036.44
566.771	4966.93
567.198	4905.66
567.625	4884.79
568.053	4822.13
568.48	4749.79
568.907	4734.24
569.333	4660.76
569.76	4489.98
570.187	4591.25
570.614	4423.84
571.04	4604.4
571.467	4300.59
571.894	4293.05
572.32	4146.15
572.747	4120.53
573.173	4051.16
573.599	4011.19
574.026	3877.64
574.452	3855.46
574.878	3833.27
575.304	3719.52
575.73	3687.8
576.156	3586.9
576.582	3576.04
577.008	3454.9
577.434	3441.3
577.86	3321.88
578.285	3350.73
578.711	3269.05
579.137	3260.34
579.562	3158.12
579.988	3143.66
580.413	3075.44
580.838	3027.65
581.264	2978.74
581.689	2925.97
582.114	2941.01
582.539	2886.04
582.964	2838.69
583.39	2828.01
583.814	2757.61
584.239	2678.66
584.664	2683.59
585.089	2652.59
585.514	2607.58
585.939	2586.72
586.363	2535.35
586.788	2519.42
587.212	2441.05
587.637	2423.45
588.061	2434.45
588.485	2347.2
588.91	2345.27
589.334	2296.51
589.758	2287.69
590.182	2243.58
590.606	2153.64
591.03	2180.97
591.454	2157.23
591.878	2121.34
592.302	2173.24
592.726	2062.21
593.15	2068.29
593.573	2002.77
593.997	1993.09
594.42	1955.47
594.844	1958.23
595.267	1908.96
595.691	1939.97
596.114	1881.26
596.537	1864.92
596.96	1877.39
597.384	1831.39
597.807	1794.24
598.23	1782.87
598.653	1763.18
599.076	1775.1
599.499	1753.74
599.921	1713.5
600.344	1713.23
600.767	1706.56
601.189	1739.32
601.612	1700.18
602.034	1630.19
602.457	1614.62
602.879	1646.02
603.302	1642.97
603.724	1650.19
604.146	1636.02
604.568	1565.69
604.991	1579.04
605.413	1569.03
605.835	1602.67
606.257	1569.03
606.678	1587.94
607.1	1560.96
607.522	1532.59
607.944	1538.43
608.365	1540.38
608.787	1489.17
609.209	1468.57
609.63	1491.96
610.051	1465.51
610.473	1441.83
610.894	1414.53
611.315	1437.38
611.737	1398.37
612.158	1365.47
612.579	1388.06
613	1362.96
613.421	1361.29
613.842	1328.38
614.263	1270.34
614.683	1282.34
615.104	1280.11
615.525	1251.91
615.945	1229.57
616.366	1207.78
616.787	1182.91
617.207	1194.36
617.627	1187.66
618.048	1181.51
618.468	1172.84
618.888	1165.86
619.308	1140.41
619.728	1146.28
620.148	1087.54
620.568	1095.1
620.988	1062.91
621.408	1069.63
621.828	1093.98
622.248	1043.04
622.668	1036.32
623.087	1055.63
623.507	1055.63
623.926	995.98
624.346	979.73
624.765	1011.95
625.185	992.06
625.604	974.13
626.023	979.17
626.442	953.1
626.861	942.45
627.28	947.22
627.699	915.25
628.118	971.6
628.537	964.6
628.956	888.88
629.375	898.7
629.794	870.08
630.212	899.26
630.631	894.21
631.049	888.6
631.468	852.4
631.886	859.14
632.305	846.22
632.723	851.28
633.141	842.57
633.559	834.99
633.978	861.66
634.396	809.44
634.814	808.32
635.232	798.48
635.65	808.6
636.067	789.5
636.485	793.15
636.903	800.17
637.321	756.06
637.738	757.18
638.156	736.94
638.573	751
638.991	747.34
639.408	738.91
639.825	753.81
640.243	748.19
640.66	736.1
641.077	747.91
641.494	727.1
641.911	728.51
642.328	708.54
642.745	702.07
643.162	710.79
643.579	695.89
643.995	699.54
644.412	680.41
644.829	700.67
645.245	679.85
645.662	694.48
646.078	684.07
646.495	662.97
646.911	673.94
647.327	650.02
647.743	646.93
648.159	650.59
648.576	660.72
648.992	638.48
649.408	668.6
649.824	628.35
650.239	656.78
650.655	646.65
651.071	645.52
651.487	673.38
651.902	671.41
652.318	606.1
652.733	633.13
653.149	626.38
653.564	639.61
653.979	590.89
654.395	626.1
654.81	627.22
655.225	584.7
655.64	621.59
656.055	578.5
656.47	620.75
656.885	586.95
657.3	602.16
657.715	603.01
658.13	606.95
658.544	600.75
658.959	562.16
659.374	581.88
659.788	571.46
660.202	584.7
660.617	571.18
661.031	586.11
661.445	557.93
661.86	551.45
662.274	559.62
662.688	576.25
663.102	546.1
663.516	582.44
663.93	568.64
664.344	565.26
664.758	562.44
665.171	544.12
665.585	553.42
665.999	547.5
666.412	551.73
666.826	509.16
667.239	548.63
667.653	540.74
668.066	554.27
668.479	535.1
668.892	544.4
669.306	532.57
669.719	543.28
670.132	521.85
670.545	544.69
670.958	516.21
671.37	516.78
671.783	513.11
672.196	514.8
672.609	522.7
673.021	521.01
673.434	512.83
673.846	537.92
674.259	506.34
674.671	512.27
675.084	510.29
675.496	498.45
675.908	496.76
676.32	525.8
676.732	515.37
677.144	503.24
677.556	493.09
677.968	509.16
678.38	509.73
678.792	485.47
679.204	493.09
679.615	503.52
680.027	460.37
680.439	498.17
680.85	507.75
681.262	489.99
681.673	502.4
682.084	485.76
682.496	507.47
682.907	513.96
683.318	497.04
683.729	502.11
684.14	485.76
684.551	476.17
684.962	488.29
685.373	489.99
685.784	501.55
686.194	482.65
686.605	482.94
687.016	480.11
687.426	458.95
687.837	455.57
688.247	461.78
688.657	469.96
689.068	451.62
689.478	472.22
689.888	483.22
690.298	465.16
690.708	448.8
691.118	472.22
691.528	446.26
691.938	465.16
692.348	460.37
692.758	463.47
693.168	466.01
693.577	472.22
693.987	453.88
694.396	478.7
694.806	454.72
695.215	453.03
695.625	475.32
696.034	444
696.443	445.69
696.852	451.62
697.262	443.72
697.671	439.76
698.08	469.39
698.489	454.44
698.897	448.8
699.306	455.29
699.715	435.25
700.124	477.01
700.532	429.6
700.941	444
701.35	464.32
701.758	443.15
702.166	424.52
702.575	438.35
702.983	466.01
703.391	456.7
703.799	431.01
704.208	451.05
704.616	424.24
705.024	428.19
705.432	425.93
705.839	419.16
706.247	435.25
706.655	455.57
707.063	455.57
707.47	440.05
707.878	424.8
708.285	421.98
708.693	445.13
709.1	445.13
709.508	409.28
709.915	418.31
710.322	403.63
710.729	444
711.136	421.7
711.543	425.37
711.95	400.8
712.357	427.63
712.764	415.21
713.171	427.34
713.578	439.76
713.984	428.19
714.391	414.92
714.797	411.82
715.204	422.83
715.61	423.96
716.017	414.92
716.423	420.57
716.829	430.73
717.236	445.41
717.642	431.58
718.048	385.84
718.454	419.44
718.86	407.02
719.266	418.31
719.671	434.68
720.077	423.11
720.483	412.66
720.889	413.23
721.294	440.89
721.7	417.46
722.105	429.89
722.511	434.12
722.916	400.52
723.321	456.42
723.726	411.53
724.132	414.92
724.537	429.32
724.942	411.53
725.347	414.64
725.752	418.59
726.156	428.76
726.561	426.78
726.966	444.28
727.371	419.72
727.775	440.89
728.18	432.99
728.584	416.33
728.989	412.66
729.393	425.93
729.798	425.37
730.202	425.65
730.606	415.49
731.01	406.45
731.414	403.35
731.818	417.46
732.222	451.34
732.626	389.79
733.03	410.97
733.434	393.74
733.837	398.26
734.241	394.03
734.645	421.42
735.048	396.29
735.452	435.25
735.855	399.67
736.258	423.11
736.662	415.21
737.065	420.85
737.468	423.67
737.871	419.16
738.274	425.09
738.677	415.77
739.08	425.37
739.483	414.92
739.886	430.17
740.289	436.38
740.691	441.46
741.094	388.38
741.497	421.42
741.899	410.97
742.302	412.95
742.704	416.33
743.106	429.32
743.508	403.35
743.911	407.58
744.313	402.78
744.715	420
745.117	426.22
745.519	404.76
745.921	427.34
746.323	412.38
746.724	408.99
747.126	396.85
747.528	415.77
747.929	412.38
748.331	409.56
748.732	422.26
749.134	416.05
749.535	395.44
749.936	409.56
750.338	419.44
750.739	415.21
751.14	413.23
751.541	395.44
751.942	422.26
752.343	401.65
752.744	407.02
753.144	412.95
753.545	405.89
753.946	393.18
754.346	410.41
754.747	412.38
755.148	399.67
755.548	412.1
755.948	378.49
756.349	396
756.749	402.22
757.149	371.43
757.549	389.51
757.949	408.71
758.349	403.91
758.749	408.71
759.149	401.09
759.549	411.25
759.949	416.62
760.348	391.2
760.748	408.71
761.148	410.97
761.547	407.02
761.947	389.51
762.346	405.32
762.745	378.77
763.145	416.62
763.544	413.79
763.943	396.85
764.342	410.69
764.741	399.96
765.14	397.98
765.539	392.9
765.938	414.36
766.336	413.79
766.735	400.8
767.134	408.15
767.532	419.16
767.931	396.29
768.329	415.21
768.728	391.48
769.126	414.92
769.525	401.93
769.923	383.01
770.321	393.18
770.719	398.83
771.117	404.48
771.515	375.1
771.913	405.04
772.311	418.59
772.709	405.61
773.106	395.72
773.504	402.5
773.902	392.05
774.299	388.38
774.697	420.57
775.094	436.1
775.491	407.86
775.889	404.48
776.286	401.93
776.683	406.17
777.08	413.23
777.477	388.1
777.874	420.29
778.271	382.73
778.668	399.39
779.065	392.9
779.462	405.32
779.858	412.38
780.255	405.04
780.652	388.1
781.048	394.87
781.444	391.48
781.841	402.5
782.237	403.06
782.633	412.38
783.03	406.17
783.426	386.97
783.822	409.56
784.218	392.9
784.614	405.32
785.01	413.79
785.405	406.17
785.801	410.97
786.197	389.51
786.593	412.95
786.988	387.53
787.384	398.83
787.779	410.97
788.174	388.1
788.57	394.31
788.965	394.59
789.36	410.41
789.755	407.86
790.15	394.87
790.545	400.8
790.94	388.94
791.335	411.25
791.73	391.77
792.125	399.67
792.52	379.62
792.914	412.66
793.309	388.94
793.703	380.47
794.098	387.25
794.492	371.15
794.887	402.22
795.281	406.17
795.675	399.67
796.069	388.38
796.463	379.9
796.857	405.61
797.251	404.48
797.645	350.8
798.039	384.42
798.433	389.79
798.826	393.46
799.22	404.48
799.614	416.62
800.007	389.79
800.401	393.18
800.794	396.57
801.187	392.61
801.581	379.06
801.974	390.36
802.367	419.44
802.76	393.74
803.153	402.5
803.546	369.73
803.939	401.93
804.332	388.38
804.725	407.02
805.117	392.33
805.51	378.21
805.903	381.6
806.295	390.07
806.688	379.34
807.08	388.66
807.472	383.86
807.865	418.88
808.257	388.38
808.649	419.44
809.041	404.48
809.433	408.71
809.825	393.74
810.217	395.44
810.609	376.8
811.001	363.52
811.392	406.17
811.784	394.59
812.175	384.14
812.567	381.6
812.958	361.54
813.35	396
813.741	372.84
814.132	406.73
814.524	385.27
814.915	385.27
815.306	403.35
815.697	384.42
816.088	363.8
816.479	386.97
816.87	391.77
817.26	404.48
817.651	426.78
818.042	388.66
818.432	386.12
818.823	394.87
819.213	413.23
819.604	396.85
819.994	380.75
820.384	353.35
820.775	377.64
821.165	390.64
821.555	383.86
821.945	412.95
822.335	368.6
822.725	400.52
823.114	413.51
823.504	395.44
823.894	384.14
824.284	381.6
824.673	390.92
825.063	396.57
825.452	425.93
825.842	375.1
826.231	390.64
826.62	385.55
827.009	400.24
827.399	396.29
827.788	375.38
828.177	427.63
828.566	366.63
828.954	385.27
829.343	394.31
829.732	414.92
830.121	402.78
830.509	393.46
830.898	376.23
831.286	394.59
831.675	392.05
832.063	391.77
832.452	416.33
832.84	408.71
833.228	392.61
833.616	396
834.004	370.86
834.392	389.79
834.78	358.43
835.168	390.64
835.556	413.23
835.944	380.19
836.331	372.84
836.719	392.9
837.107	401.93
837.494	373.12
837.881	399.96
838.269	404.19
838.656	385.84
839.043	395.72
839.431	380.47
839.818	408.15
840.205	374.82
840.592	355.04
840.979	385.55
841.366	368.6
841.752	379.9
842.139	379.62
842.526	407.3
842.912	395.44
843.299	364.65
843.685	395.44
844.072	386.12
844.458	385.55
844.844	396.29
845.231	398.26
845.617	398.55
846.003	377.64
846.389	412.1
846.775	376.8
847.161	391.77
847.547	408.15
847.933	393.18
848.318	366.91
848.704	388.66
849.09	396.57
849.475	381.32
849.861	401.09
850.246	381.32
850.631	396.29
851.017	403.06
851.402	379.34
851.787	379.9
852.172	379.06
852.557	382.16
852.942	384.71
853.327	370.3
853.712	366.91
854.097	379.06
854.481	356.46
854.866	399.11
855.25	382.73
855.635	387.53
856.019	400.52
856.404	395.44
856.788	384.14
857.172	392.33
857.557	358.15
857.941	381.03
858.325	379.06
858.709	393.18
859.093	426.22
859.477	395.72
859.86	383.29
860.244	379.62
860.628	398.55
861.012	383.01
861.395	387.81
861.779	394.03
862.162	410.12
862.545	376.23
862.929	361.26
863.312	381.32
863.695	364.65
864.078	412.38
864.461	394.59
864.844	396.29
865.227	381.32
865.61	409.84
865.993	390.36
866.376	382.73
866.758	385.55
867.141	401.65
867.523	362.67
867.906	387.81
868.288	407.58
868.671	402.5
869.053	371.15
869.435	396.85
869.817	389.51
870.199	353.63
870.581	386.97
870.963	371.99
871.345	401.09
871.727	386.4
872.109	392.9
872.491	395.72
872.872	367.47
873.254	354.76
873.635	407.86
874.017	391.48
874.398	399.67
874.779	412.1
875.161	399.39
875.542	402.78
875.923	390.64
876.304	395.44
876.685	379.9
877.066	395.16
877.447	384.42
877.828	402.78
878.208	390.36
878.589	388.66
878.97	395.72
879.35	393.18
879.731	382.45
880.111	379.62
880.491	386.97
880.872	383.29
881.252	398.55
881.632	390.07
882.012	382.16
882.392	390.64
882.772	414.92
883.152	386.12
883.532	393.18
883.912	397.98
884.291	380.75
884.671	384.71
885.051	340.91
885.43	384.14
885.81	357.3
886.189	380.47
886.568	400.8
886.948	356.17
887.327	379.34
887.706	397.13
888.085	389.23
888.464	390.07
888.843	381.88
889.222	382.16
889.601	391.2
889.979	391.2
890.358	368.32
890.737	383.58
891.115	369.45
891.494	370.02
891.872	382.16
892.25	386.97
892.629	357.87
893.007	385.84
893.385	403.35
893.763	383.01
894.141	364.08
894.519	393.18
894.897	380.47
895.275	380.19
895.653	355.89
896.03	392.33
896.408	400.24
896.786	371.71
897.163	361.54
897.541	378.77
897.918	392.61
898.295	378.77
898.673	394.59
899.05	379.34
899.427	366.91
899.804	372.28
900.181	378.21
900.558	373.41
900.935	381.6
901.312	396.85
901.688	391.48
902.065	384.99
902.442	380.47
902.818	393.74
903.195	366.91
903.571	392.9
903.947	391.48
904.324	381.32
904.7	364.65
905.076	416.33
905.452	391.77
905.828	406.17
906.204	389.79
906.58	372.56
906.956	384.14
907.331	373.69
907.707	410.69
908.083	409.84
908.458	355.33
908.834	384.42
909.209	386.68
909.585	375.1
909.96	376.23
910.335	374.54
910.71	399.96
911.086	406.17
911.461	375.1
911.836	411.25
912.21	406.73
912.585	380.47
912.96	384.14
913.335	373.41
913.709	408.15
914.084	400.24
914.459	354.2
914.833	374.54
915.207	373.41
915.582	401.37
915.956	386.68
916.33	365.78
916.704	371.99
917.078	359
917.452	383.01
917.826	392.61
918.2	394.03
918.574	372.56
918.948	363.24
919.321	377.36
919.695	381.32
920.068	390.36
920.442	392.05
920.815	377.08
921.189	377.36
921.562	377.36
921.935	393.74
922.308	396.85
922.681	380.19
923.054	390.07
923.427	366.91
923.8	375.38
924.173	407.02
924.546	379.9
924.919	384.71
925.291	373.41
925.664	391.77
926.036	378.77
926.409	343.46
926.781	391.77
927.153	383.01
927.526	378.77
927.898	386.68
928.27	371.15
928.642	380.19
929.014	393.46
929.386	403.91
929.758	379.06
930.129	403.06
930.501	406.45
930.873	396
931.244	380.47
931.616	380.75
931.987	379.34
932.359	397.13
932.73	363.8
933.101	373.69
933.472	384.99
933.843	372.84
934.214	377.08
934.585	393.18
934.956	374.54
935.327	379.34
935.698	365.78
936.069	381.88
936.439	360.98
936.81	384.42
937.18	385.27
937.551	353.63
937.921	385.27
938.292	390.92
938.662	376.51
939.032	388.66
939.402	373.41
939.772	388.38
940.142	360.69
940.512	387.25
940.882	365.5
941.252	364.93
941.621	368.6
941.991	385.84
942.361	380.75
942.73	382.16
943.1	359.85
943.469	372.84
943.838	363.52
944.208	389.79
944.577	413.23
944.946	373.97
945.315	368.89
945.684	392.61
946.053	389.51
946.422	397.13
946.791	366.34
947.159	392.61
947.528	379.06
947.897	358.15
948.265	383.29
948.634	406.45
949.002	408.71
949.371	367.47
949.739	396
950.107	408.43
950.475	353.63
950.843	393.74
951.211	363.8
951.579	390.36
951.947	386.4
952.315	390.92
952.683	363.52
953.05	378.77
953.418	384.71
953.785	386.12
954.153	390.64
954.52	391.48
954.888	379.9
955.255	387.81
955.622	380.19
955.989	385.55
956.356	356.74
956.723	368.6
957.09	397.98
957.457	375.67
957.824	375.38
958.191	378.21
958.557	369.17
958.924	364.93
959.291	399.39
959.657	368.32
960.023	367.76
960.39	405.04
960.756	360.69
961.122	360.69
961.488	390.92
961.855	377.93
962.221	379.06
962.586	381.32
962.952	342.89
963.318	389.79
963.684	383.01
964.05	382.45
964.415	362.11
964.781	370.86
965.146	384.71
965.512	382.16
965.877	349.67
966.242	394.31
966.608	372.56
966.973	377.64
967.338	379.9
967.703	378.77
968.068	410.69
968.433	363.8
968.797	377.64
969.162	360.69
969.527	375.67
969.891	365.78
970.256	348.83
970.62	387.53
970.985	376.23
971.349	349.11
971.714	344.02
972.078	388.1
972.442	364.93
972.806	400.8
973.17	386.4
973.534	386.68
973.898	401.93
974.262	372.84
974.625	384.71
974.989	380.47
975.353	365.21
975.716	385.27
976.08	379.9
976.443	384.42
976.806	379.62
977.17	378.77
977.533	393.18
977.896	377.36
978.259	371.71
978.622	384.14
978.985	373.69
979.348	368.04
979.711	396.57
980.073	384.14
980.436	381.32
980.799	352.22
981.161	379.62
981.524	362.95
981.886	344.02
982.248	359.85
982.611	365.21
982.973	375.67
983.335	374.82
983.697	385.84
984.059	366.63
984.421	387.53
984.783	375.1
985.145	397.7
985.506	386.68
985.868	356.46
986.23	374.82
986.591	347.98
986.953	357.87
987.314	382.16
987.675	397.13
988.037	502.96
988.398	375.38
988.759	372.56
989.12	347.41
989.481	365.78
989.842	378.77
990.203	383.01
990.564	403.91
990.924	383.58
991.285	532.85
991.646	378.77
992.006	399.39
992.367	378.21
992.727	381.32
993.087	358.15
993.448	372.56
993.808	375.1
994.168	367.47
994.528	374.82
994.888	378.21
995.248	377.93
995.608	366.06
995.967	353.63
996.327	371.15
996.687	357.3
997.046	387.25
997.406	376.8
997.765	382.45
998.125	384.71
998.484	373.12
998.843	387.81
999.202	370.3
999.561	385.55
999.92	390.36
1000.279	358.72
1000.638	378.21
1000.997	372.28
1001.356	367.76
1001.715	362.67
1002.073	375.38
1002.432	380.75
1002.79	397.42
1003.149	390.64
1003.507	361.26
1003.865	399.67
1004.224	398.26
1004.582	370.86
1004.94	375.95
1005.298	376.8
1005.656	383.29
1006.014	372.56
1006.371	372.56
1006.729	395.72
1007.087	384.42
1007.445	360.41
1007.802	364.08
1008.16	345.44
1008.517	369.45
1008.874	353.06
1009.232	364.37
1009.589	372.56
1009.946	370.86
1010.303	378.49
1010.66	351.65
1011.017	392.05
1011.374	380.47
1011.731	393.18
1012.087	396.85
1012.444	362.11
1012.801	368.32
1013.157	364.37
1013.513	377.36
1013.87	386.4
1014.226	386.12
1014.582	388.1
1014.939	366.63
1015.295	364.08
1015.651	365.5
1016.007	359.28
1016.363	390.36
1016.719	379.34
1017.074	372.56
1017.43	393.46
1017.786	378.77
1018.141	380.19
1018.497	370.58
1018.852	380.47
1019.208	385.55
1019.563	385.55
1019.918	374.82
1020.273	377.08
1020.628	371.15
1020.983	361.82
1021.338	402.22
1021.693	371.15
1022.048	357.3
1022.403	391.48
1022.757	383.58
1023.112	351.93
1023.467	360.98
1023.821	391.48
1024.175	359
1024.53	362.95
1024.884	387.25
1025.238	374.25
1025.592	392.61
1025.946	357.87
1026.3	369.73
1026.654	371.71
1027.008	353.91
1027.362	360.69
1027.716	373.41
1028.069	359.85
1028.423	365.78
1028.777	389.23
1029.13	406.45
1029.483	377.36
1029.837	337.8
1030.19	347.98
1030.543	381.32
1030.896	375.38
1031.249	378.49
1031.602	389.23
1031.955	406.45
1032.308	377.08
1032.661	370.86
1033.013	357.02
1033.366	375.38
1033.719	360.98
1034.071	363.8
1034.424	378.49
1034.776	383.01
1035.128	379.06
1035.48	390.36
1035.833	359.56
1036.185	367.19
1036.537	367.19
1036.889	367.19
