Data from SCSF78-405_irradiation_FLMS019251_08-07-27-881.txt Node
Date: Fri Feb 22 08:07:27 PST 2019
User: mu3e
Spectrometer: FLMS01925
Trigger mode: 0
Integration Time (sec): 1.206000E-2
Scans to average: 10
Electric dark correction enabled: true
Nonlinearity correction enabled: true
Boxcar width: 0
XAxis mode: Wavelengths
Number of Pixels in Spectrum: 2048
>>>>>Begin Spectral Data<<<<<
187.103	-90.13
187.574	-90.13
188.045	-90.13
188.516	-141.32
188.987	-114.01
189.458	-140.46
189.929	-120.27
190.4	-108.32
190.871	-110.88
191.342	-72.51
191.813	-74.21
192.284	-48.64
192.754	2.2
193.225	8.45
193.696	35.41
194.166	44.78
194.637	56.69
195.107	96.12
195.578	118.51
196.048	157.62
196.518	154.5
196.989	153.65
197.459	218.23
197.929	220.77
198.399	277.37
198.869	279.91
199.339	293.21
199.809	314.98
200.279	335.9
200.749	352.29
201.219	370.94
201.689	382.8
202.159	383.93
202.628	400.03
203.098	393.25
203.568	409.06
204.037	412.17
204.507	423.46
204.976	408.22
205.445	395.23
205.915	409.35
206.384	439.27
206.853	426.85
207.323	407.65
207.792	387.88
208.261	396.36
208.73	434.47
209.199	394.66
209.668	413.3
210.137	387.6
210.606	403.7
211.075	411.32
211.543	391.27
212.012	400.31
212.481	387.88
212.95	379.69
213.418	373.48
213.887	352.57
214.355	375.17
214.824	372.35
215.292	390.43
215.76	383.93
216.229	367.55
216.697	380.54
217.165	384.49
217.633	372.63
218.101	373.76
218.569	361.89
219.037	345.22
219.505	361.33
219.973	368.68
220.441	372.07
220.909	381.67
221.377	327.13
221.844	358.79
222.312	339.29
222.78	342.4
223.247	358.79
223.715	348.61
224.182	356.53
224.65	380.54
225.117	383.93
225.584	383.36
226.052	374.61
226.519	367.26
226.986	362.18
227.453	337.03
227.92	362.46
228.387	357.94
228.854	375.46
229.321	374.04
229.788	355.68
230.255	393.53
230.722	343.53
231.189	395.23
231.655	368.39
232.122	360.48
232.589	359.07
233.055	351.72
233.522	373.76
233.988	391.56
234.454	365.29
234.921	367.26
235.387	413.58
235.853	353.14
236.32	385.91
236.786	374.04
237.252	375.74
237.718	399.46
238.184	341.83
238.65	377.43
239.116	372.07
239.582	389.3
240.047	357.37
240.513	383.36
240.979	411.61
241.445	351.72
241.91	384.78
242.376	356.81
242.841	373.2
243.307	375.17
243.772	380.82
244.238	367.83
244.703	383.93
245.168	366.7
245.633	382.8
246.099	378
246.564	402.57
247.029	369.81
247.494	379.98
247.959	390.71
248.424	385.06
248.889	400.88
249.353	411.89
249.818	380.54
250.283	383.65
250.748	372.63
251.212	395.51
251.677	385.62
252.141	399.46
252.606	391.84
253.07	376.02
253.535	395.23
253.999	387.04
254.463	368.96
254.927	411.32
255.392	394.1
255.856	384.78
256.32	387.04
256.784	381.39
257.248	403.7
257.712	383.65
258.176	394.1
258.64	390.71
259.103	382.23
259.567	393.25
260.031	366.98
260.495	383.65
260.958	357.66
261.422	407.37
261.885	383.08
262.349	398.9
262.812	387.04
263.275	389.01
263.739	392.12
264.202	422.05
264.665	375.74
265.128	420.92
265.591	384.21
266.054	379.98
266.517	376.02
266.98	372.91
267.443	394.38
267.906	385.62
268.369	410.76
268.832	398.62
269.294	403.42
269.757	392.12
270.22	391.84
270.682	409.63
271.145	420.64
271.607	390.99
272.07	413.3
272.532	405.39
272.994	402
273.456	424.87
273.919	396.92
274.381	400.88
274.843	397.2
275.305	397.49
275.767	384.49
276.229	402.85
276.691	396.07
277.153	392.97
277.614	377.43
278.076	383.93
278.538	406.52
279	403.98
279.461	422.62
279.923	405.96
280.384	391.27
280.846	408.78
281.307	406.81
281.769	389.86
282.23	389.86
282.691	409.35
283.152	400.03
283.613	420.36
284.075	377.15
284.536	395.79
284.997	400.88
285.458	390.14
285.918	406.52
286.379	391.84
286.84	409.63
287.301	381.67
287.762	403.13
288.222	380.82
288.683	414.43
289.143	409.91
289.604	390.99
290.064	385.62
290.525	392.12
290.985	396.64
291.445	394.38
291.906	399.46
292.366	409.63
292.826	405.11
293.286	410.48
293.746	402
294.206	405.96
294.666	415.28
295.126	400.59
295.586	379.41
296.046	378.85
296.506	392.4
296.965	433.91
297.425	403.13
297.884	420.08
298.344	413.86
298.804	379.98
299.263	412.73
299.722	386.19
300.182	416.69
300.641	424.31
301.1	392.4
301.559	405.68
302.019	399.18
302.478	408.78
302.937	410.48
303.396	410.76
303.855	403.42
304.314	438.42
304.772	416.41
305.231	409.63
305.69	407.09
306.149	420.36
306.607	407.37
307.066	429.39
307.524	442.66
307.983	417.25
308.441	390.99
308.9	427.98
309.358	425.72
309.816	424.03
310.275	417.82
310.733	390.43
311.191	395.79
311.649	420.92
312.107	399.46
312.565	409.91
313.023	410.19
313.481	419.79
313.939	401.72
314.397	403.42
314.854	402.57
315.312	395.79
315.77	411.89
316.227	408.22
316.685	414.99
317.142	407.93
317.6	437.86
318.057	388.17
318.514	419.51
318.972	401.44
319.429	435.32
319.886	410.19
320.343	402.57
320.8	414.15
321.257	404.83
321.714	411.89
322.171	411.61
322.628	413.86
323.085	386.75
323.542	427.42
323.998	389.86
324.455	417.82
324.912	393.81
325.368	385.34
325.825	398.62
326.281	407.65
326.738	429.11
327.194	418.38
327.65	415.28
328.107	427.7
328.563	426.57
329.019	414.15
329.475	406.81
329.931	453.1
330.387	405.96
330.843	429.96
331.299	410.19
331.755	416.97
332.211	399.46
332.666	399.18
333.122	376.87
333.578	434.19
334.033	413.58
334.489	409.91
334.944	418.66
335.4	435.88
335.855	412.17
336.31	389.3
336.766	409.63
337.221	396.36
337.676	417.53
338.131	446.89
338.586	413.02
339.041	430.24
339.496	400.88
339.951	437.01
340.406	384.78
340.861	394.66
341.316	394.1
341.771	419.23
342.225	415.56
342.68	411.89
343.134	428.54
343.589	414.71
344.043	436.73
344.498	422.62
344.952	401.72
345.406	428.26
345.861	392.97
346.315	419.51
346.769	433.91
347.223	413.3
347.677	419.51
348.131	407.65
348.585	417.53
349.039	424.31
349.493	414.71
349.947	424.87
350.401	411.89
350.854	406.52
351.308	437.01
351.762	412.17
352.215	401.44
352.669	406.81
353.122	417.53
353.575	414.15
354.029	418.95
354.482	439.55
354.935	411.04
355.388	437.58
355.842	430.52
356.295	418.66
356.748	435.32
357.201	444.92
357.654	440.4
358.106	406.81
358.559	438.99
359.012	440.12
359.465	436.73
359.917	414.43
360.37	424.59
360.823	432.21
361.275	423.18
361.728	431.08
362.18	421.77
362.632	426.57
363.085	435.6
363.537	431.08
363.989	426
364.441	421.77
364.893	416.97
365.345	409.35
365.797	424.59
366.249	426.57
366.701	409.35
367.153	441.25
367.605	428.26
368.057	416.41
368.508	449.71
368.96	415.28
369.411	423.46
369.863	420.36
370.314	420.36
370.766	435.88
371.217	424.87
371.669	415.28
372.12	406.24
372.571	424.03
373.022	433.06
373.473	420.36
373.924	409.35
374.375	442.38
374.826	424.59
375.277	422.62
375.728	442.09
376.179	438.14
376.63	438.71
377.08	424.31
377.531	428.54
377.981	398.9
378.432	439.27
378.883	460.72
379.333	436.17
379.783	411.04
380.234	420.64
380.684	450.56
381.134	448.3
381.584	446.61
382.034	433.34
382.485	445.76
382.935	450.28
383.385	438.71
383.834	443.79
384.284	432.21
384.734	445.2
385.184	406.81
385.634	421.49
386.083	437.01
386.533	432.21
386.982	449.15
387.432	430.24
387.881	446.33
388.331	461
388.78	414.99
389.229	439.84
389.679	437.58
390.128	442.09
390.577	452.53
391.026	456.77
391.475	417.82
391.924	464.95
392.373	436.73
392.822	438.42
393.27	430.52
393.719	459.87
394.168	434.19
394.617	447.46
395.065	438.42
395.514	443.22
395.962	430.52
396.411	478.21
396.859	437.01
397.307	446.61
397.756	455.64
398.204	467.49
398.652	446.61
399.1	467.77
399.548	440.12
399.996	464.1
400.444	459.31
400.892	473.7
401.34	438.71
401.788	468.05
402.236	466.64
402.683	471.16
403.131	470.88
403.579	482.16
404.026	460.44
404.474	462.98
404.921	450
405.369	474.83
405.816	494.57
406.263	489.21
406.71	475.39
407.158	483.57
407.605	491.19
408.052	497.95
408.499	489.49
408.946	510.08
409.393	497.11
409.84	514.87
410.286	553.77
410.733	542.78
411.18	561.1
411.626	596.88
412.073	635.18
412.52	700.46
412.966	819.34
413.413	948.69
413.859	1106.92
414.305	1329.85
414.752	1646.65
415.198	1967.43
415.644	2400.4
416.09	2890.21
416.536	3485.4
416.982	4149.46
417.428	4900.11
417.874	5785.07
418.32	6723.41
418.766	7663.08
419.211	8871.03
419.657	9881.5
420.103	11097.11
420.548	12158.45
420.994	13593.74
421.439	14840.89
421.885	15952.45
422.33	17575.98
422.776	18717.27
423.221	19775.96
423.666	21284.69
424.111	22718.99
424.556	23677.66
425.001	25196.7
425.446	26849.74
425.891	28273.42
426.336	29203.44
426.781	30617.57
427.226	32931.34
427.671	33519.95
428.115	34428.78
428.56	36343.95
429.005	38144.58
429.449	38636.94
429.894	40233.75
430.338	41513.05
430.782	41661.91
431.227	43168.65
431.671	43750.11
432.115	45361.13
432.559	46551.2
433.003	46442.05
433.447	47456.71
433.891	47830.34
434.335	48273.93
434.779	49334.58
435.223	49462.76
435.667	49664.27
436.111	50049.34
436.554	50308.41
436.998	49693.81
437.442	49851.34
437.885	52052.08
438.328	50377.21
438.772	50868.58
439.215	51352.55
439.659	50791.89
440.102	51451.87
440.545	50722.69
440.988	50492.28
441.431	51448.92
441.874	50999.88
442.317	51325.54
442.76	50599.59
443.203	50252.05
443.646	50982.86
444.089	50247.84
444.531	51046.99
444.974	49828.29
445.417	51208.26
445.859	49973.75
446.302	51139.97
446.744	50464.02
447.186	51680.3
447.629	50623.93
448.071	50564.42
448.513	50873.63
448.956	52344.91
449.398	51455.09
449.84	50147.87
450.282	50975.15
450.724	51607.47
451.166	51331.15
451.607	51092.8
452.049	51132.24
452.491	52439.42
452.933	51830.29
453.374	52536.56
453.816	52945.7
454.257	52480.88
454.699	53760.4
455.14	53351.93
455.582	53121.98
456.023	53129.16
456.464	53293.08
456.905	53903.32
457.347	54022.18
457.788	52939.37
458.229	53129.44
458.67	54303.24
459.111	52382.75
459.552	52472.69
459.992	52096.76
460.433	51976.07
460.874	50985.78
461.315	52328.59
461.755	51258.19
462.196	50610.7
462.636	49907.15
463.077	49352.54
463.517	49661.66
463.957	50056.43
464.398	49506.31
464.838	49557.97
465.278	48538.48
465.718	48636.37
466.158	47457.74
466.598	47934.01
467.038	47407.89
467.478	48069.9
467.918	48257.7
468.358	47334.3
468.798	47167.87
469.237	47020.76
469.677	46999.36
470.117	47751.37
470.556	45053.97
470.996	45803.48
471.435	46077.62
471.874	46664.5
472.314	46333.99
472.753	45348.53
473.192	45678.7
473.631	45170.73
474.07	45465.24
474.509	45388.35
474.948	45773.66
475.387	45085.16
475.826	43913.35
476.265	45936.95
476.704	45445.83
477.143	45813.08
477.581	45439.27
478.02	46163.7
478.458	44529.97
478.897	45447.09
479.335	46726.27
479.774	46037.12
480.212	46231.85
480.65	46128.76
481.089	45970.08
481.527	45474.07
481.965	44796.81
482.403	47088.3
482.841	46679.75
483.279	46837.68
483.717	46766.95
484.155	46377.86
484.592	46847.86
485.03	46980.76
485.468	45910.65
485.905	46160.66
486.343	46692.96
486.781	46036.87
487.218	45256.33
487.655	45287.06
488.093	44316.37
488.53	46054.58
488.967	44894.55
489.405	44878.47
489.842	43991.39
490.279	43787.85
490.716	43405.3
491.153	43967.12
491.59	43297.29
492.027	42520.54
492.463	42099.56
492.9	41499.18
493.337	41280.61
493.773	41233.85
494.21	40291.96
494.647	40173.58
495.083	39267.58
495.519	39040.87
495.956	38971.56
496.392	38202.48
496.828	38014.59
497.265	37077.16
497.701	37183.17
498.137	37014.25
498.573	36041.31
499.009	36668.74
499.445	35626.91
499.881	35104.32
500.316	35322.11
500.752	34492.95
501.188	34233.36
501.624	34179.69
502.059	32803.34
502.495	32712.15
502.93	32678.27
503.366	32700.21
503.801	32037.31
504.236	31837.14
504.672	31275.35
505.107	30953.2
505.542	30371.67
505.977	30293.84
506.412	29734.49
506.847	30069.35
507.282	29508.19
507.717	29094.51
508.152	29172.66
508.587	28753.22
509.021	28047.22
509.456	27682.23
509.891	27864.26
510.325	27817.05
510.76	27271.26
511.194	27020.49
511.628	27136.33
512.063	26296.24
512.497	26432.33
512.931	25894.63
513.366	25758.41
513.8	25684.27
514.234	24937.37
514.668	24982.61
515.102	25104.29
515.536	24228.77
515.969	24382.63
516.403	23908.33
516.837	23489.29
517.271	23619.97
517.704	23154.77
518.138	22940.52
518.571	22835.33
519.005	22377.23
519.438	22359.68
519.871	22155.18
520.305	21635.48
520.738	21514.62
521.171	21034.32
521.604	21161.26
522.037	20937.84
522.47	20514.24
522.903	20102.64
523.336	20027.83
523.769	19977.12
524.202	19332.99
524.634	19268
525.067	19145.71
525.5	18988.99
525.932	18843.68
526.365	18387.96
526.797	18214.47
527.23	18298.35
527.662	17604.74
528.094	17404.11
528.527	17361.57
528.959	17042.37
529.391	16765.5
529.823	16235.72
530.255	16334.86
530.687	15949.93
531.119	15742.85
531.551	15719.47
531.982	15284
532.414	15198.15
532.846	14835.34
533.277	14593.49
533.709	14273.92
534.14	14182.98
534.572	13992.18
535.003	13779.24
535.435	13589.44
535.866	13372.14
536.297	13048.65
536.728	13025.56
537.159	12882.18
537.59	12713.83
538.022	12531.9
538.452	12288
538.883	12075.95
539.314	11919.53
539.745	11763.5
540.176	11553.26
540.606	11273.3
541.037	11269.72
541.468	11074.85
541.898	10972.23
542.328	10905.92
542.759	10688.15
543.189	10542.23
543.619	10411.35
544.05	10186.85
544.48	9974.94
544.91	9901.33
545.34	9738.29
545.77	9672.32
546.2	9526.61
546.63	9370.97
547.06	9292.7
547.489	9143.56
547.919	8872.84
548.349	8914.28
548.778	8928.26
549.208	8694.77
549.637	8616.69
550.067	8444.82
550.496	8391.82
550.926	8278.99
551.355	8106.98
551.784	8156.18
552.213	7939.45
552.642	7824.69
553.071	7779.02
553.5	7627.03
553.929	7406.04
554.358	7465.18
554.787	7288.47
555.216	7305.23
555.645	7120.43
556.073	7084.75
556.502	7014.14
556.93	6812.33
557.359	6850.99
557.787	6730.78
558.216	6664.71
558.644	6564.34
559.072	6473.92
559.5	6432.24
559.929	6405.59
560.357	6383.69
560.785	6265.12
561.213	6259.04
561.641	6131.61
562.068	6078.96
562.496	6041.37
562.924	5974.64
563.352	5913.43
563.779	5917.4
564.207	5888.51
564.634	5830.44
565.062	5793.03
565.489	5701.45
565.917	5683.13
566.344	5660.02
566.771	5587.46
567.198	5552.9
567.625	5466.44
568.053	5419.05
568.48	5390.82
568.907	5291.96
569.333	5255.7
569.76	5060.29
570.187	5113.45
570.614	4928.48
571.04	5057.62
571.467	4844.16
571.894	4734.04
572.32	4700.26
572.747	4604.74
573.173	4549.69
573.599	4480.64
574.026	4324.62
574.452	4284.77
574.878	4283.15
575.304	4163.48
575.73	4124.64
576.156	4039.34
576.582	4027.19
577.008	3921.26
577.434	3878.79
577.86	3752.64
578.285	3751.01
578.711	3659.94
579.137	3655.06
579.562	3513.93
579.988	3613.29
580.413	3443.55
580.838	3405.75
581.264	3363.59
581.689	3283.83
582.114	3270.75
582.539	3282.74
582.964	3200.18
583.39	3147.82
583.814	3067.32
584.239	3019.52
584.664	2999.3
585.089	2963.78
585.514	2923.31
585.939	2837.11
586.363	2808.64
586.788	2767.27
587.212	2749.46
587.637	2722.6
588.061	2680.64
588.485	2611.5
588.91	2585.69
589.334	2558.77
589.758	2568.94
590.182	2501.62
590.606	2419.39
591.03	2418.29
591.454	2382.79
591.878	2383.06
592.302	2376.45
592.726	2294.93
593.15	2296.85
593.573	2243.38
593.997	2220.76
594.42	2155.92
594.844	2176.62
595.267	2149.29
595.691	2090.19
596.114	2117.54
596.537	2069.47
596.96	2065.05
597.384	2032.98
597.807	2014.46
598.23	1988.46
598.653	1973.24
599.076	1914.29
599.499	1917.89
599.921	1915.4
600.344	1897.4
600.767	1870.81
601.189	1852.52
601.612	1863.6
602.034	1846.15
602.457	1837.83
602.879	1815.1
603.302	1814
603.724	1815.1
604.146	1793.76
604.568	1778.5
604.991	1788.21
605.413	1770.46
605.835	1751.87
606.257	1711.91
606.678	1733.84
607.1	1719.68
607.522	1691.36
607.944	1681.09
608.365	1711.08
608.787	1671.37
609.209	1620.25
609.63	1620.25
610.051	1618.86
610.473	1597.46
610.894	1553.8
611.315	1548.52
611.737	1544.06
612.158	1539.06
612.579	1492.03
613	1534.88
613.421	1504
613.842	1500.38
614.263	1434.94
614.683	1460.84
615.104	1448.59
615.525	1375.86
615.945	1366.1
616.366	1333.19
616.787	1318.13
617.207	1328.17
617.627	1320.64
618.048	1274.03
618.468	1286.04
618.888	1275.43
619.308	1247.51
619.728	1229.36
620.148	1214.55
620.568	1228.52
620.988	1170.12
621.408	1170.4
621.828	1152.51
622.248	1170.96
622.668	1138.25
623.087	1119.23
623.507	1115.03
623.926	1134.05
624.346	1085.09
624.765	1058.78
625.185	1033.03
625.604	1044.23
626.023	1064.66
626.442	1022.38
626.861	1034.43
627.28	1011.74
627.699	1018.74
628.118	1011.74
628.537	986.24
628.956	999.13
629.375	980.36
629.794	964.11
630.212	962.98
630.631	970.27
631.049	950.65
631.468	958.22
631.886	911.67
632.305	956.54
632.723	908.59
633.141	886.43
633.559	924.29
633.978	909.99
634.396	838.15
634.814	883.34
635.232	879.69
635.65	862.01
636.067	843.77
636.485	847.7
636.903	837.59
637.321	837.59
637.738	836.47
638.156	791.81
638.573	799.68
638.991	792.66
639.408	805.58
639.825	796.87
640.243	809.23
640.66	779.73
641.077	744.88
641.494	787.04
641.911	771.86
642.328	770.46
642.745	743.76
643.162	778.05
643.579	785.07
643.995	748.54
644.412	742.92
644.829	728.58
645.245	712.27
645.662	709.18
646.078	699.89
646.495	698.49
646.911	727.74
647.327	734.76
647.743	680.2
648.159	704.11
648.576	716.77
648.992	682.74
649.408	691.46
649.824	652.35
650.239	667.26
650.655	673.45
651.071	678.23
651.487	654.32
651.902	670.36
652.318	682.17
652.733	632.08
653.149	647.56
653.564	648.69
653.979	630.11
654.395	648.12
654.81	603.92
655.225	638.83
655.64	631.8
656.055	646.15
656.47	654.6
656.885	617.16
657.3	611.81
657.715	623.63
658.13	594.06
658.544	605.89
658.959	607.58
659.374	608.71
659.788	600.54
660.202	601.1
660.617	621.38
661.031	611.52
661.445	613.5
661.86	567.02
662.274	563.07
662.688	594.63
663.102	585.05
663.516	592.66
663.93	595.75
664.344	593.5
664.758	572.37
665.171	585.33
665.585	588.71
665.999	559.41
666.412	571.25
666.826	555.47
667.239	566.74
667.653	567.02
668.066	571.53
668.479	572.37
668.892	565.89
669.306	542.78
669.719	533.76
670.132	552.37
670.545	533.48
670.958	545.04
671.37	563.36
671.783	544.47
672.196	523.33
672.609	554.06
673.021	545.32
673.434	508.67
673.846	522.77
674.259	533.76
674.671	528.69
675.084	534.05
675.496	521.64
675.908	541.37
676.32	520.51
676.732	524.18
677.144	499.36
677.556	533.48
677.968	518.26
678.38	519.95
678.792	532.64
679.204	508.67
679.615	527
680.027	523.33
680.439	494.85
680.85	490.9
681.262	520.23
681.673	499.36
682.084	486.95
682.496	493.44
682.907	514.59
683.318	507.83
683.729	465.51
684.14	510.93
684.551	496.54
684.962	457.61
685.373	504.72
685.784	496.54
686.194	506.13
686.605	490.62
687.016	472.85
687.426	481.88
687.837	506.7
688.247	491.19
688.657	484.13
689.068	506.13
689.478	475.11
689.888	483.85
690.298	514.59
690.708	489.49
691.118	479.34
691.528	473.41
691.938	509.23
692.348	470.31
692.758	481.88
693.168	495.98
693.577	456.77
693.987	442.66
694.396	457.9
694.806	460.15
695.215	471.44
695.625	470.88
696.034	490.62
696.443	462.41
696.852	466.64
697.262	453.66
697.671	441.53
698.08	462.98
698.489	444.07
698.897	439.55
699.306	470.31
699.715	463.26
700.124	440.4
700.532	452.82
700.941	496.26
701.35	461.85
701.758	450
702.166	446.89
702.575	456.2
702.983	444.63
703.391	463.26
703.799	451.12
704.208	438.71
704.616	450
705.024	432.5
705.432	429.67
705.839	434.47
706.247	430.52
706.655	431.93
707.063	460.44
707.47	464.67
707.878	437.29
708.285	422.9
708.693	435.88
709.1	427.13
709.508	418.38
709.915	453.66
710.322	428.54
710.729	428.54
711.136	458.18
711.543	422.9
711.95	450.28
712.357	429.67
712.764	413.86
713.171	437.86
713.578	444.63
713.984	424.59
714.391	438.71
714.797	445.2
715.204	435.04
715.61	441.53
716.017	435.32
716.423	438.42
716.829	431.65
717.236	444.07
717.642	454.51
718.048	441.53
718.454	435.88
718.86	405.68
719.266	445.2
719.671	433.63
720.077	433.06
720.483	461.28
720.889	441.81
721.294	403.42
721.7	414.99
722.105	436.45
722.511	420.36
722.916	413.86
723.321	428.26
723.726	440.4
724.132	453.1
724.537	443.22
724.942	426.57
725.347	440.96
725.752	437.86
726.156	416.97
726.561	422.62
726.966	428.26
727.371	429.96
727.775	433.91
728.18	431.65
728.584	407.09
728.989	401.16
729.393	428.26
729.798	437.86
730.202	396.64
730.606	427.98
731.01	422.62
731.414	390.14
731.818	412.73
732.222	449.71
732.626	428.83
733.03	401.16
733.434	421.49
733.837	422.62
734.241	449.71
734.645	456.49
735.048	392.4
735.452	415.84
735.855	409.35
736.258	412.73
736.662	385.62
737.065	400.88
737.468	426
737.871	429.11
738.274	391.84
738.677	401.72
739.08	380.54
739.483	392.69
739.886	412.17
740.289	400.59
740.691	396.92
741.094	398.62
741.497	433.34
741.899	446.89
742.302	407.09
742.704	417.82
743.106	421.2
743.508	414.99
743.911	408.5
744.313	432.5
744.715	402.29
745.117	413.3
745.519	421.49
745.921	424.59
746.323	410.19
746.724	426.29
747.126	429.67
747.528	412.17
747.929	412.17
748.331	424.31
748.732	385.34
749.134	412.45
749.535	405.68
749.936	401.44
750.338	407.65
750.739	412.45
751.14	391.27
751.541	379.69
751.942	398.9
752.343	426.85
752.744	408.5
753.144	413.86
753.545	397.77
753.946	401.72
754.346	425.44
754.747	398.9
755.148	438.42
755.548	406.81
755.948	379.41
756.349	406.81
756.749	393.53
757.149	373.48
757.549	413.58
757.949	422.62
758.349	423.46
758.749	418.1
759.149	419.23
759.549	391.84
759.949	406.52
760.348	413.02
760.748	410.48
761.148	422.33
761.547	424.59
761.947	405.68
762.346	403.98
762.745	410.48
763.145	410.19
763.544	398.05
763.943	395.23
764.342	398.62
764.741	393.81
765.14	398.62
765.539	405.11
765.938	398.33
766.336	412.73
766.735	378
767.134	423.75
767.532	413.3
767.931	411.61
768.329	386.19
768.728	409.06
769.126	421.77
769.525	405.96
769.923	391.84
770.321	395.51
770.719	417.53
771.117	384.78
771.515	404.26
771.913	385.06
772.311	371.78
772.709	414.99
773.106	382.52
773.504	409.63
773.902	414.43
774.299	389.3
774.697	395.23
775.094	386.19
775.491	396.92
775.889	361.33
776.286	394.1
776.683	394.38
777.08	365
777.477	397.2
777.874	409.91
778.271	390.71
778.668	394.94
779.065	409.06
779.462	385.91
779.858	401.16
780.255	396.64
780.652	396.64
781.048	394.66
781.444	398.62
781.841	360.48
782.237	393.53
782.633	405.96
783.03	427.42
783.426	413.58
783.822	396.92
784.218	414.15
784.614	403.13
785.01	402
785.405	395.51
785.801	403.42
786.197	386.47
786.593	380.82
786.988	398.9
787.384	412.17
787.779	405.68
788.174	390.99
788.57	402
788.965	394.66
789.36	369.81
789.755	398.9
790.15	414.15
790.545	409.35
790.94	396.36
791.335	420.64
791.73	377.43
792.125	384.78
792.52	381.11
792.914	397.2
793.309	406.24
793.703	386.75
794.098	399.18
794.492	406.24
794.887	410.19
795.281	401.44
795.675	404.83
796.069	407.93
796.463	391.27
796.857	396.36
797.251	392.97
797.645	358.79
798.039	385.91
798.433	388.17
798.826	400.59
799.22	405.39
799.614	418.66
800.007	426.57
800.401	400.59
800.794	422.62
801.187	373.76
801.581	417.82
801.974	399.75
802.367	379.98
802.76	410.76
803.153	350.59
803.546	411.32
803.939	389.58
804.332	407.37
804.725	379.98
805.117	424.59
805.51	408.78
805.903	390.43
806.295	411.89
806.688	399.46
807.08	384.78
807.472	409.35
807.865	401.72
808.257	386.75
808.649	418.95
809.041	390.99
809.433	413.3
809.825	387.6
810.217	402.85
810.609	412.45
811.001	410.48
811.392	402.29
811.784	366.42
812.175	375.74
812.567	400.59
812.958	389.3
813.35	409.63
813.741	418.38
814.132	376.87
814.524	385.34
814.915	381.39
815.306	396.64
815.697	417.25
816.088	400.03
816.479	391.84
816.87	397.77
817.26	394.1
817.651	394.66
818.042	411.04
818.432	382.52
818.823	400.88
819.213	390.99
819.604	401.16
819.994	382.23
820.384	386.47
820.775	389.86
821.165	376.02
821.555	399.46
821.945	391.27
822.335	383.08
822.725	382.8
823.114	415.56
823.504	403.98
823.894	392.97
824.284	392.12
824.673	395.79
825.063	369.52
825.452	387.6
825.842	420.92
826.231	400.88
826.62	393.25
827.009	410.76
827.399	376.02
827.788	384.78
828.177	394.66
828.566	409.91
828.954	376.59
829.343	398.62
829.732	391.84
830.121	403.13
830.509	392.69
830.898	390.99
831.286	402.29
831.675	408.78
832.063	391.84
832.452	395.23
832.84	397.77
833.228	390.99
833.616	389.3
834.004	397.49
834.392	396.07
834.78	394.38
835.168	396.36
835.556	398.05
835.944	409.91
836.331	387.32
836.719	415.28
837.107	410.48
837.494	370.65
837.881	395.79
838.269	412.17
838.656	382.8
839.043	367.83
839.431	383.65
839.818	379.69
840.205	397.77
840.592	381.39
840.979	386.47
841.366	391.56
841.752	401.72
842.139	402.85
842.526	391.56
842.912	412.17
843.299	394.1
843.685	411.61
844.072	394.38
844.458	383.65
844.844	404.83
845.231	392.69
845.617	419.51
846.003	401.16
846.389	398.33
846.775	386.19
847.161	350.31
847.547	397.2
847.933	388.73
848.318	374.61
848.704	403.13
849.09	391.84
849.475	396.92
849.861	418.38
850.246	392.4
850.631	381.11
851.017	370.37
851.402	407.93
851.787	378.56
852.172	375.17
852.557	385.91
852.942	392.69
853.327	396.36
853.712	385.62
854.097	398.33
854.481	392.69
854.866	400.31
855.25	365.29
855.635	387.88
856.019	381.67
856.404	392.69
856.788	373.76
857.172	383.08
857.557	393.81
857.941	393.81
858.325	397.49
858.709	375.46
859.093	387.32
859.477	390.14
859.86	401.16
860.244	395.51
860.628	389.86
861.012	394.1
861.395	383.93
861.779	400.59
862.162	356.53
862.545	386.75
862.929	376.3
863.312	383.36
863.695	402.29
864.078	379.13
864.461	407.09
864.844	376.87
865.227	383.36
865.61	368.96
865.993	363.59
866.376	403.42
866.758	375.74
867.141	411.89
867.523	376.87
867.906	360.76
868.288	390.43
868.671	407.37
869.053	393.81
869.435	355.4
869.817	368.96
870.199	396.36
870.581	387.6
870.963	395.23
871.345	358.5
871.727	379.13
872.109	381.39
872.491	389.58
872.872	391.27
873.254	402
873.635	400.03
874.017	376.3
874.398	380.26
874.779	369.52
875.161	379.98
875.542	384.21
875.923	378.85
876.304	391.56
876.685	385.06
877.066	365.85
877.447	392.69
877.828	383.93
878.208	398.62
878.589	393.25
878.97	405.39
879.35	413.58
879.731	376.59
880.111	374.33
880.491	414.71
880.872	395.23
881.252	354.27
881.632	392.12
882.012	394.38
882.392	393.25
882.772	370.65
883.152	402
883.532	391.56
883.912	382.8
884.291	362.74
884.671	383.65
885.051	400.03
885.43	358.5
885.81	374.89
886.189	410.48
886.568	367.55
886.948	383.93
887.327	372.07
887.706	372.35
888.085	376.3
888.464	388.45
888.843	385.62
889.222	388.45
889.601	394.38
889.979	364.72
890.358	397.2
890.737	379.41
891.115	389.58
891.494	396.64
891.872	387.32
892.25	397.77
892.629	422.05
893.007	379.98
893.385	367.83
893.763	389.3
894.141	383.65
894.519	393.81
894.897	375.46
895.275	377.15
895.653	388.45
896.03	396.07
896.408	387.6
896.786	413.86
897.163	371.22
897.541	404.55
897.918	398.33
898.295	377.72
898.673	390.99
899.05	379.69
899.427	429.11
899.804	427.42
900.181	396.92
900.558	382.52
900.935	386.19
901.312	394.1
901.688	353.42
902.065	379.41
902.442	380.82
902.818	378.28
903.195	378.56
903.571	373.48
903.947	407.93
904.324	386.47
904.7	400.59
905.076	389.58
905.452	406.52
905.828	394.1
906.204	390.43
906.58	369.52
906.956	403.13
907.331	382.8
907.707	404.83
908.083	391.56
908.458	402.29
908.834	379.69
909.209	399.18
909.585	403.7
909.96	364.44
910.335	392.4
910.71	402.85
911.086	396.36
911.461	392.69
911.836	377.72
912.21	364.44
912.585	396.36
912.96	360.2
913.335	389.86
913.709	381.95
914.084	379.13
914.459	384.21
914.833	379.69
915.207	394.1
915.582	375.74
915.956	402.29
916.33	384.78
916.704	406.24
917.078	397.2
917.452	385.91
917.826	386.47
918.2	382.23
918.574	382.8
918.948	381.39
919.321	383.08
919.695	371.22
920.068	388.17
920.442	380.26
920.815	392.69
921.189	394.1
921.562	355.68
921.935	364.44
922.308	376.3
922.681	374.89
923.054	385.62
923.427	370.09
923.8	351.72
924.173	374.33
924.546	381.39
924.919	388.45
925.291	386.19
925.664	400.88
926.036	350.03
926.409	378
926.781	384.21
927.153	377.72
927.526	374.61
927.898	424.31
928.27	391.27
928.642	394.66
929.014	394.1
929.386	392.12
929.758	375.74
930.129	396.36
930.501	397.2
930.873	382.23
931.244	372.91
931.616	381.11
931.987	387.88
932.359	370.94
932.73	407.09
933.101	387.32
933.472	361.89
933.843	371.78
934.214	389.01
934.585	384.78
934.956	399.46
935.327	357.37
935.698	398.62
936.069	384.49
936.439	391.84
936.81	387.6
937.18	363.31
937.551	389.3
937.921	396.64
938.292	390.14
938.662	370.37
939.032	376.3
939.402	386.47
939.772	375.74
940.142	382.8
940.512	381.95
940.882	389.58
941.252	391.84
941.621	376.59
941.991	403.42
942.361	381.67
942.73	403.98
943.1	372.07
943.469	366.42
943.838	403.42
944.208	392.12
944.577	397.49
944.946	387.6
945.315	376.3
945.684	391.56
946.053	404.83
946.422	385.91
946.791	385.34
947.159	356.81
947.528	401.16
947.897	355.4
948.265	410.19
948.634	391.84
949.002	381.95
949.371	404.26
949.739	390.99
950.107	381.95
950.475	370.37
950.843	367.83
951.211	369.52
951.579	386.75
951.947	387.88
952.315	387.04
952.683	359.63
953.05	373.76
953.418	380.54
953.785	388.73
954.153	372.91
954.52	390.71
954.888	386.19
955.255	371.5
955.622	382.8
955.989	350.59
956.356	395.51
956.723	375.74
957.09	396.36
957.457	388.73
957.824	380.82
958.191	351.16
958.557	362.46
958.924	358.5
959.291	357.94
959.657	355.11
960.023	398.33
960.39	382.23
960.756	377.15
961.122	388.45
961.488	383.65
961.855	374.61
962.221	384.21
962.586	390.14
962.952	406.81
963.318	369.52
963.684	389.58
964.05	362.46
964.415	386.47
964.781	389.3
965.146	369.81
965.512	411.61
965.877	378.28
966.242	369.24
966.608	383.65
966.973	395.51
967.338	366.42
967.703	378.28
968.068	384.21
968.433	397.49
968.797	344.94
969.162	363.31
969.527	387.04
969.891	386.47
970.256	403.42
970.62	392.69
970.985	369.81
971.349	385.06
971.714	371.5
972.078	384.78
972.442	370.94
972.806	394.38
973.17	386.19
973.534	377.43
973.898	377.43
974.262	361.89
974.625	366.13
974.989	390.43
975.353	382.23
975.716	355.4
976.08	376.02
976.443	377.72
976.806	357.94
977.17	391.84
977.533	362.18
977.896	381.95
978.259	384.49
978.622	397.49
978.985	383.65
979.348	400.59
979.711	390.43
980.073	372.91
980.436	375.46
980.799	371.22
981.161	386.47
981.524	394.38
981.886	361.89
982.248	353.42
982.611	376.02
982.973	374.33
983.335	361.89
983.697	377.72
984.059	368.96
984.421	357.37
984.783	361.05
985.145	345.51
985.506	368.39
985.868	390.43
986.23	367.55
986.591	409.06
986.953	403.13
987.314	387.6
987.675	362.74
988.037	497.95
988.398	394.94
988.759	379.41
989.12	360.2
989.481	375.74
989.842	375.74
990.203	358.79
990.564	375.17
990.924	381.67
991.285	545.88
991.646	378.85
992.006	368.39
992.367	385.62
992.727	355.96
993.087	363.87
993.448	361.61
993.808	363.59
994.168	342.11
994.528	382.8
994.888	372.91
995.248	379.13
995.608	392.4
995.967	376.59
996.327	348.9
996.687	353.14
997.046	385.62
997.406	399.75
997.765	370.09
998.125	369.52
998.484	359.07
998.843	381.39
999.202	381.39
999.561	379.69
999.92	368.39
1000.279	363.59
1000.638	363.87
1000.997	381.11
1001.356	383.65
1001.715	381.39
1002.073	357.66
1002.432	389.3
1002.79	384.21
1003.149	360.48
1003.507	364.72
1003.865	360.48
1004.224	370.09
1004.582	388.73
1004.94	361.89
1005.298	392.4
1005.656	376.02
1006.014	380.82
1006.371	337.59
1006.729	375.46
1007.087	395.23
1007.445	362.74
1007.802	353.42
1008.16	407.37
1008.517	359.07
1008.874	381.95
1009.232	368.39
1009.589	379.41
1009.946	344.09
1010.303	350.59
1010.66	383.36
1011.017	363.59
1011.374	355.96
1011.731	381.67
1012.087	369.81
1012.444	376.3
1012.801	387.04
1013.157	388.73
1013.513	400.59
1013.87	360.48
1014.226	368.68
1014.582	374.89
1014.939	380.26
1015.295	347.48
1015.651	379.98
1016.007	386.47
1016.363	377.43
1016.719	372.91
1017.074	351.16
1017.43	349.46
1017.786	361.89
1018.141	394.38
1018.497	378.85
1018.852	368.96
1019.208	375.74
1019.563	389.58
1019.918	367.55
1020.273	367.55
1020.628	361.61
1020.983	370.09
1021.338	354.55
1021.693	370.94
1022.048	379.69
1022.403	374.04
1022.757	401.44
1023.112	393.25
1023.467	369.24
1023.821	390.14
1024.175	370.37
1024.53	384.78
1024.884	368.96
1025.238	372.91
1025.592	355.96
1025.946	362.74
1026.3	387.88
1026.654	397.2
1027.008	372.63
1027.362	361.33
1027.716	398.9
1028.069	365
1028.423	370.09
1028.777	392.69
1029.13	369.81
1029.483	383.08
1029.837	383.93
1030.19	385.91
1030.543	376.02
1030.896	364.72
1031.249	355.96
1031.602	386.19
1031.955	371.78
1032.308	362.18
1032.661	368.96
1033.013	374.04
1033.366	366.42
1033.719	352.29
1034.071	366.13
1034.424	397.49
1034.776	362.74
1035.128	378.85
1035.48	369.24
1035.833	382.52
1036.185	361.05
1036.537	361.05
1036.889	361.05
