Data from SCSF78-405_irradiation_FLMS019251_23-15-27-873.txt Node
Date: Fri Feb 22 23:15:27 PST 2019
User: mu3e
Spectrometer: FLMS01925
Trigger mode: 0
Integration Time (sec): 1.206000E-2
Scans to average: 10
Electric dark correction enabled: true
Nonlinearity correction enabled: true
Boxcar width: 0
XAxis mode: Wavelengths
Number of Pixels in Spectrum: 2048
>>>>>Begin Spectral Data<<<<<
187.103	-111.01
187.574	-111.01
188.045	-111.01
188.516	-139.16
188.987	-126.08
189.458	-117.83
189.929	-104.75
190.4	-104.18
190.871	-100.49
191.342	-95.37
191.813	-63.25
192.284	-42.8
192.754	-22.91
193.225	29.04
193.696	33.58
194.166	78.13
194.637	58.27
195.107	78.41
195.578	91.17
196.048	129.16
196.518	152.96
196.989	181.29
197.459	216.12
197.929	225.46
198.399	253.48
198.869	296.76
199.339	303.26
199.809	288.84
200.279	319.94
200.749	347.08
201.219	358.95
201.689	363.47
202.159	359.79
202.628	360.64
203.098	399.06
203.568	396.8
204.037	375.9
204.507	390.3
204.976	388.33
205.445	411.76
205.915	403.86
206.384	393.13
206.853	396.8
207.323	393.13
207.792	400.19
208.261	381.83
208.73	382.68
209.199	394.54
209.668	406.4
210.137	391.15
210.606	372.22
211.075	387.76
211.543	363.18
212.012	396.52
212.481	403.58
212.95	388.61
213.418	385.78
213.887	378.72
214.355	386.91
214.824	366.86
215.292	360.36
215.76	377.03
216.229	376.74
216.697	362.34
217.165	341.43
217.633	342.27
218.101	347.08
218.569	345.95
219.037	356.12
219.505	388.04
219.973	348.77
220.441	360.36
220.909	332.95
221.377	353.58
221.844	350.47
222.312	364.88
222.78	350.19
223.247	359.23
223.715	362.62
224.182	354.14
224.65	341.14
225.117	363.47
225.584	341.43
226.052	355.56
226.519	339.73
226.986	334.64
227.453	336.62
227.92	377.31
228.387	353.58
228.854	347.93
229.321	369.12
229.788	357.82
230.255	378.44
230.722	373.07
231.189	395.67
231.655	377.59
232.122	371.94
232.589	370.81
233.055	366.01
233.522	374.2
233.988	362.62
234.454	376.74
234.921	385.22
235.387	386.63
235.853	382.68
236.32	374.2
236.786	372.79
237.252	367.14
237.718	343.69
238.184	357.82
238.65	356.69
239.116	361.49
239.582	364.03
240.047	395.1
240.513	356.97
240.979	367.7
241.445	392.56
241.91	363.47
242.376	397.65
242.841	376.74
243.307	366.86
243.772	363.75
244.238	373.07
244.703	341.71
245.168	365.16
245.633	361.21
246.099	364.03
246.564	398.49
247.029	375.33
247.494	357.82
247.959	378.44
248.424	374.2
248.889	380.98
249.353	380.98
249.818	366.01
250.283	391.43
250.748	366.57
251.212	359.51
251.677	392.28
252.141	382.68
252.606	372.79
253.07	366.01
253.535	377.31
253.999	402.16
254.463	373.07
254.927	380.98
255.392	388.33
255.856	389.74
256.32	386.07
256.784	372.79
257.248	401.03
257.712	361.49
258.176	392.28
258.64	389.17
259.103	396.52
259.567	352.73
260.031	373.07
260.495	339.16
260.958	365.73
261.422	375.9
261.885	378.16
262.349	360.08
262.812	380.98
263.275	348.21
263.739	390.58
264.202	393.13
264.665	397.93
265.128	398.49
265.591	402.45
266.054	392.84
266.517	385.22
266.98	394.54
267.443	377.31
267.906	379.85
268.369	371.94
268.832	390.87
269.294	381.26
269.757	381.83
270.22	400.19
270.682	374.2
271.145	397.08
271.607	386.35
272.07	383.52
272.532	401.6
272.994	404.42
273.456	373.35
273.919	368.27
274.381	373.07
274.843	406.12
275.305	376.18
275.767	385.5
276.229	393.69
276.691	389.46
277.153	389.74
277.614	385.5
278.076	392.84
278.538	395.95
279	397.08
279.461	349.34
279.923	411.48
280.384	369.68
280.846	382.11
281.307	398.21
281.769	416.56
282.23	392.84
282.691	367.7
283.152	382.39
283.613	406.68
284.075	380.13
284.536	401.88
284.997	388.61
285.458	397.08
285.918	410.07
286.379	392.56
286.84	386.07
287.301	387.76
287.762	380.42
288.222	389.74
288.683	385.22
289.143	408.09
289.604	389.17
290.064	387.76
290.525	399.62
290.985	417.41
291.445	395.1
291.906	399.34
292.366	380.13
292.826	430.96
293.286	391.71
293.746	400.19
294.206	389.17
294.666	402.45
295.126	382.39
295.586	399.34
296.046	381.55
296.506	383.52
296.965	396.23
297.425	377.03
297.884	376.46
298.344	378.72
298.804	391.71
299.263	400.47
299.722	422.49
300.182	421.08
300.641	390.3
301.1	402.73
301.559	394.82
302.019	416.56
302.478	427.01
302.937	395.67
303.396	412.05
303.855	392.84
304.314	392
304.772	433.78
305.231	405.27
305.69	412.33
306.149	425.32
306.607	392.56
307.066	390.02
307.524	424.19
307.983	423.9
308.441	390.3
308.9	395.95
309.358	387.76
309.816	411.48
310.275	412.33
310.733	419.67
311.191	392.56
311.649	390.02
312.107	402.45
312.565	374.48
313.023	379.85
313.481	414.02
313.939	400.75
314.397	398.49
314.854	409.22
315.312	379.57
315.77	393.69
316.227	385.22
316.685	379.29
317.142	389.46
317.6	403.29
318.057	417.13
318.514	391.71
318.972	402.16
319.429	421.93
319.886	400.19
320.343	390.87
320.8	434.07
321.257	409.79
321.714	402.45
322.171	422.77
322.628	409.51
323.085	404.99
323.542	412.05
323.998	416
324.455	385.78
324.912	387.2
325.368	430.68
325.825	431.24
326.281	403.01
326.738	406.96
327.194	401.88
327.65	429.27
328.107	411.2
328.563	403.29
329.019	419.1
329.475	417.13
329.931	399.34
330.387	417.98
330.843	400.19
331.299	414.02
331.755	397.93
332.211	398.77
332.666	421.08
333.122	415.43
333.578	372.79
334.033	413.74
334.489	398.77
334.944	394.26
335.4	388.04
335.855	400.19
336.31	422.49
336.766	425.88
337.221	407.25
337.676	415.43
338.131	401.32
338.586	410.92
339.041	408.38
339.496	409.22
339.951	419.67
340.406	412.33
340.861	396.52
341.316	399.34
341.771	413.18
342.225	388.33
342.68	425.6
343.134	408.38
343.589	402.16
344.043	389.17
344.498	428.99
344.952	402.73
345.406	424.47
345.861	384.94
346.315	384.65
346.769	401.03
347.223	369.12
347.677	399.62
348.131	395.1
348.585	419.39
349.039	386.63
349.493	408.38
349.947	387.2
350.401	397.65
350.854	414.31
351.308	417.41
351.762	412.61
352.215	392.28
352.669	406.96
353.122	412.05
353.575	417.13
354.029	412.05
354.482	397.93
354.935	392.56
355.388	412.05
355.842	417.98
356.295	414.02
356.748	406.96
357.201	419.1
357.654	419.39
358.106	408.66
358.559	384.65
359.012	393.13
359.465	387.2
359.917	395.95
360.37	433.5
360.823	426.16
361.275	417.13
361.728	419.95
362.18	414.02
362.632	411.48
363.085	421.93
363.537	417.41
363.989	412.33
364.441	417.98
364.893	402.45
365.345	395.95
365.797	446.49
366.249	421.93
366.701	410.63
367.153	395.95
367.605	416
368.057	443.38
368.508	417.41
368.96	411.48
369.411	444.51
369.863	436.04
370.314	421.08
370.766	408.94
371.217	376.46
371.669	408.94
372.12	425.6
372.571	419.1
373.022	406.4
373.473	428.14
373.924	425.03
374.375	424.75
374.826	401.88
375.277	425.32
375.728	393.41
376.179	415.43
376.63	413.46
377.08	414.87
377.531	425.03
377.981	426.44
378.432	439.99
378.883	410.63
379.333	458.62
379.783	413.46
380.234	432.09
380.684	427.01
381.134	417.13
381.584	400.19
382.034	407.53
382.485	417.13
382.935	434.07
383.385	447.61
383.834	427.86
384.284	437.45
384.734	431.81
385.184	438.58
385.634	409.22
386.083	439.99
386.533	415.15
386.982	410.63
387.432	406.68
387.881	409.51
388.331	434.07
388.78	416
389.229	427.57
389.679	426.44
390.128	439.43
390.577	406.68
391.026	423.34
391.475	440.28
391.924	405.83
392.373	438.86
392.822	446.2
393.27	422.49
393.719	416.85
394.168	438.86
394.617	430.96
395.065	412.33
395.514	454.1
395.962	440.28
396.411	439.71
396.859	433.5
397.307	447.9
397.756	430.96
398.204	466.24
398.652	450.44
399.1	433.22
399.548	449.31
399.996	441.97
400.444	451.85
400.892	452.13
401.34	425.03
401.788	457.21
402.236	441.4
402.683	443.1
403.131	456.08
403.579	450.72
404.026	463.13
404.474	448.46
404.921	462.01
405.369	495.29
405.816	445.36
406.263	459.47
406.71	496.14
407.158	460.59
407.605	476.96
408.052	458.62
408.499	493.32
408.946	481.75
409.393	477.24
409.84	489.65
410.286	506.57
410.733	525.75
411.18	547.73
411.626	584.08
412.073	615.34
412.52	698.08
412.966	743.64
413.413	879.85
413.859	1049.7
414.305	1240.41
414.752	1531.7
415.198	1835.5
415.644	2233.88
416.09	2653.64
416.536	3220.77
416.982	3850.54
417.428	4478.91
417.874	5228.37
418.32	6029.08
418.766	6900.81
419.211	7883.27
419.657	8804.32
420.103	9905.33
420.548	10694.45
420.994	11986.43
421.439	13036.1
421.885	13969.82
422.33	15309.31
422.776	16261.72
423.221	17321.92
423.666	18489.92
424.111	19764.41
424.556	20441.88
425.001	21843.57
425.446	23198.59
425.891	24473.84
426.336	25384.55
426.781	26411.38
427.226	28351.79
427.671	29024.05
428.115	29817.62
428.56	31446.43
429.005	32834.19
429.449	33327.69
429.894	34609.72
430.338	35806.86
430.782	35735.27
431.227	37152.7
431.671	37553.15
432.115	39045.19
432.559	39849.38
433.003	39766.86
433.447	40588.47
433.891	40929.1
434.335	41372.32
434.779	42028.49
435.223	42363.88
435.667	42245.41
436.111	42812.66
436.554	42777.08
436.998	42312.46
437.442	42412.08
437.885	44161.22
438.328	42801.71
438.772	43290.2
439.215	43713.53
439.659	43279.48
440.102	43649.58
440.545	42914.22
440.988	42878.87
441.431	43641.83
441.874	43280.73
442.317	43423.9
442.76	42986.68
443.203	42399.65
443.646	43158.83
444.089	42627.83
444.531	43388.47
444.974	42059.5
445.417	43055.67
445.859	42224.56
446.302	43263.52
446.744	42695.23
447.186	43643.08
447.629	42783.8
448.071	42704.18
448.513	42819.63
448.956	44109.9
449.398	43348.31
449.84	42132.21
450.282	42706.42
450.724	43429.64
451.166	43020.55
451.607	42903.51
452.049	43077.34
452.491	44009.04
452.933	43683.8
453.374	44173.74
453.816	44501.27
454.257	44109.39
454.699	45174.39
455.14	44755.51
455.582	44586.31
456.023	44542.66
456.464	44864.79
456.905	45238.34
457.347	45149.98
457.788	44355.85
458.229	44469.92
458.67	45477.49
459.111	43501.51
459.552	43825.23
459.992	43598.63
460.433	43367.77
460.874	42490.1
461.315	43644.33
461.755	42656.18
462.196	42182.85
462.636	41537.95
463.077	41268.87
463.517	41319.6
463.957	41542.66
464.398	41316.88
464.838	41431.97
465.278	40253.37
465.718	40533.91
466.158	39499.98
466.598	39879.93
467.038	39520.65
467.478	39838.54
467.918	39996.23
468.358	39245.34
468.798	39026.51
469.237	38912.71
469.677	38926.48
470.117	39706.53
470.556	37371.63
470.996	37851.42
471.435	38125.1
471.874	38786.42
472.314	38409.24
472.753	37633.28
473.192	37644.55
473.631	37369.67
474.07	37583.53
474.509	37535.51
474.948	37784.25
475.387	37180.37
475.826	36371.96
476.265	37889.67
476.704	37458.34
477.143	37858.29
477.581	37524.73
478.02	37996.09
478.458	36809.8
478.897	37335.87
479.335	38563.41
479.774	37879.13
480.212	38073.34
480.65	37957.59
481.089	37744.54
481.527	37384.12
481.965	36828.39
482.403	38749.33
482.841	38369.73
483.279	38433.54
483.717	38445.08
484.155	37974.02
484.592	38497.37
485.03	38638.31
485.468	37746.26
485.905	37886.97
486.343	38222.25
486.781	37562.71
487.218	37091.5
487.655	37017.33
488.093	36339.93
488.53	37696.01
488.967	36852.37
489.405	36703.12
489.842	35849.13
490.279	35813.94
490.716	35615.57
491.153	35976.44
491.59	35532.28
492.027	34816.18
492.463	34355.72
492.9	33730.3
493.337	33585.68
493.773	33735.91
494.21	32984.14
494.647	32657.68
495.083	32130.58
495.519	31770.47
495.956	31838.01
496.392	31237.69
496.828	31018.7
497.265	30279.58
497.701	30352.04
498.137	29999.2
498.573	29326.9
499.009	29792.97
499.445	29126.64
499.881	28580.58
500.316	28872.83
500.752	27975.21
501.188	27783.42
501.624	27781.22
502.059	26666.09
502.495	26503.33
502.93	26443.5
503.366	26597.21
503.801	26064.82
504.236	25823.84
504.672	25427.04
505.107	25063.87
505.542	24543.97
505.977	24556.76
506.412	24094.21
506.847	24283.57
507.282	23814.34
507.717	23490.42
508.152	23553.05
508.587	23386.34
509.021	22672.69
509.456	22428.3
509.891	22436.95
510.325	22336.83
510.76	22104.62
511.194	21889.11
511.628	21916.34
512.063	21240.72
512.497	21327.71
512.931	20827.59
513.366	20632.3
513.8	20680.95
514.234	20056.31
514.668	20119.68
515.102	20209.64
515.536	19597.48
515.969	19617.13
516.403	19219.58
516.837	18883.96
517.271	19043.21
517.704	18708.43
518.138	18494.66
518.571	18392.6
519.005	17993.32
519.438	17924.61
519.871	17802.15
520.305	17343.45
520.738	17257.85
521.171	16916.5
521.604	17005.44
522.037	16831.56
522.47	16460.21
522.903	16176.87
523.336	16217.29
523.769	15995.29
524.202	15642.92
524.634	15613.75
525.067	15433.39
525.5	15217.42
525.932	15126.01
526.365	14799.68
526.797	14521.21
527.23	14678.14
527.662	14168.73
528.094	13895.23
528.527	13951.87
528.959	13644.76
529.391	13424.21
529.823	13060.96
530.255	13078.97
530.687	12771.12
531.119	12610.83
531.551	12595.07
531.982	12268.04
532.414	12127.03
532.846	11886.28
533.277	11759.57
533.709	11447.44
534.14	11340.91
534.572	11125.39
535.003	11032.78
535.435	10875.34
535.866	10738.02
536.297	10444.1
536.728	10509.54
537.159	10366.57
537.59	10188.28
538.022	10048.4
538.452	9843.02
538.883	9669.63
539.314	9577.57
539.745	9344.51
540.176	9290.27
540.606	9015.65
541.037	9024.19
541.468	8807.95
541.898	8765.19
542.328	8717.22
542.759	8460.03
543.189	8436.39
543.619	8339.2
544.05	8124.83
544.48	7984.43
544.91	7914.56
545.34	7810.48
545.77	7674.72
546.2	7658.53
546.63	7518.69
547.06	7487.83
547.489	7295.43
547.919	7134.22
548.349	7116.12
548.778	7091.19
549.208	6969.12
549.637	6837.99
550.067	6754.08
550.496	6705.66
550.926	6571.61
551.355	6479.08
551.784	6513.88
552.213	6342.39
552.642	6257.87
553.071	6242.28
553.5	6138.9
553.929	5921.26
554.358	5955.18
554.787	5822.89
555.216	5774.34
555.645	5705.32
556.073	5618.71
556.502	5545.87
556.93	5493.46
557.359	5390.7
557.787	5414.94
558.216	5312.1
558.644	5260.38
559.072	5193.16
559.5	5135.5
559.929	5140.57
560.357	5108.53
560.785	4967.95
561.213	4956.18
561.641	4921.67
562.068	4879.12
562.496	4816.73
562.924	4763.41
563.352	4768.77
563.779	4724
564.207	4707.38
564.634	4690.48
565.062	4687.8
565.489	4568.38
565.917	4558.98
566.344	4494.23
566.771	4526.48
567.198	4437.51
567.625	4352.77
568.053	4336.08
568.48	4315.89
568.907	4257.71
569.333	4145.83
569.76	4003.84
570.187	4049.22
570.614	3985.74
571.04	4115.62
571.467	3892.2
571.894	3887.06
572.32	3745.75
572.747	3667.96
573.173	3639.76
573.599	3573.82
574.026	3507.83
574.452	3445.06
574.878	3403.46
575.304	3344.69
575.73	3307.4
576.156	3248.84
576.582	3201.42
577.008	3149.07
577.434	3061.19
577.86	2957.37
578.285	3006.84
578.711	2971.58
579.137	2858.07
579.562	2840.55
579.988	2829.6
580.413	2769.07
580.838	2731.53
581.264	2703.56
581.689	2640.74
582.114	2636.9
582.539	2613.57
582.964	2575.41
583.39	2556.18
583.814	2474.56
584.239	2403.58
584.664	2415.97
585.089	2368.63
585.514	2312.44
585.939	2309.68
586.363	2274.69
586.788	2251.25
587.212	2227.54
587.637	2175.95
588.061	2163.53
588.485	2108.03
588.91	2123.77
589.334	2090.9
589.758	2052.77
590.182	2009.91
590.606	2013.23
591.03	1986.13
591.454	1955.41
591.878	1941.3
592.302	1909.74
592.726	1853.79
593.15	1838.27
593.573	1813.04
593.997	1813.87
594.42	1749.25
594.844	1732.6
595.267	1732.33
595.691	1740.93
596.114	1672.91
596.537	1703.46
596.96	1704.01
597.384	1666.8
597.807	1631.52
598.23	1634.86
598.653	1573.15
599.076	1619.02
599.499	1572.31
599.921	1577.6
600.344	1559.24
600.767	1534.76
601.189	1560.08
601.612	1514.45
602.034	1514.73
602.457	1499.98
602.879	1482.44
603.302	1536.71
603.724	1446.8
604.146	1447.63
604.568	1429.25
604.991	1466.57
605.413	1455.71
605.835	1438.72
606.257	1417.82
606.678	1444.29
607.1	1392.74
607.522	1397.76
607.944	1339.77
608.365	1403.33
608.787	1383.26
609.209	1354.55
609.63	1343.67
610.051	1345.34
610.473	1301.82
610.894	1281.73
611.315	1341.16
611.737	1270.84
612.158	1279.5
612.579	1261.63
613	1221.97
613.421	1246.55
613.842	1217.22
614.263	1170
614.683	1178.94
615.104	1146.23
615.525	1160.49
615.945	1159.37
616.366	1137.56
616.787	1130.01
617.207	1111.83
617.627	1110.43
618.048	1090.85
618.468	1084.41
618.888	1090.29
619.308	1051.1
619.728	1029.54
620.148	1035.98
620.568	1035.7
620.988	989.2
621.408	982.76
621.828	974.63
622.248	958.94
622.668	953.61
623.087	979.12
623.507	940.72
623.926	928.38
624.346	923.89
624.765	898.65
625.185	907.06
625.604	923.05
626.023	901.73
626.442	876.2
626.861	884.9
627.28	839.71
627.699	866.66
628.118	839.15
628.537	853.75
628.956	790.85
629.375	809.95
629.794	837.19
630.212	812.2
630.631	826.8
631.049	811.63
631.468	834.1
631.886	777.92
632.305	784.11
632.723	796.19
633.141	782.42
633.559	789.44
633.978	775.68
634.396	771.74
634.814	745.6
635.232	779.33
635.65	729.58
636.067	723.39
636.485	729.3
636.903	727.89
637.321	708.49
637.738	715.52
638.156	716.08
638.573	745.32
638.991	713.55
639.408	694.15
639.825	673.89
640.243	682.05
640.66	693.58
641.077	669.95
641.494	663.76
641.911	669.67
642.328	681.77
642.745	651.1
643.162	647.16
643.579	667.7
643.995	669.39
644.412	632.52
644.829	625.48
645.245	630.27
645.662	664.89
646.078	676.14
646.495	653.35
646.911	622.38
647.327	657.57
647.743	642.09
648.159	630.83
648.576	626.61
648.992	611.96
649.408	597.88
649.824	619.85
650.239	580.42
650.655	597.6
651.071	622.38
651.487	599.57
651.902	596.48
652.318	569.71
652.733	606.9
653.149	622.38
653.564	596.76
653.979	566.33
654.395	576.76
654.81	577.88
655.225	553.93
655.64	560.13
656.055	562.11
656.47	579.86
656.885	544.35
657.3	551.68
657.715	555.06
658.13	534.49
658.544	578.45
658.959	547.73
659.374	569.15
659.788	543.51
660.202	544.63
660.617	525.75
661.031	561.82
661.445	573.38
661.86	544.35
662.274	549.99
662.688	530.26
663.102	529.69
663.516	537.02
663.93	528.85
664.344	536.46
664.758	518.7
665.171	518.98
665.585	537.02
665.999	515.03
666.412	537.87
666.826	489.09
667.239	527.16
667.653	518.7
668.066	530.82
668.479	504.6
668.892	496.99
669.306	527.16
669.719	485.7
670.132	505.16
670.545	520.67
670.958	522.36
671.37	491.91
671.783	508.55
672.196	506.57
672.609	490.78
673.021	492.75
673.434	497.55
673.846	507.42
674.259	512.5
674.671	514.47
675.084	483.73
675.496	493.88
675.908	499.81
676.32	489.37
676.732	467.65
677.144	473.86
677.556	490.22
677.968	486.55
678.38	482.6
678.792	498.96
679.204	466.24
679.615	480.91
680.027	471.6
680.439	489.37
680.85	492.19
681.262	467.65
681.673	469.34
682.084	504.32
682.496	474.42
682.907	495.01
683.318	462.01
683.729	454.1
684.14	453.54
684.551	490.78
684.962	471.03
685.373	462.01
685.784	438.02
686.194	430.96
686.605	473.01
687.016	470.75
687.426	457.21
687.837	457.77
688.247	482.32
688.657	445.64
689.068	474.14
689.478	438.86
689.888	473.29
690.298	462.57
690.708	437.45
691.118	452.69
691.528	441.69
691.938	442.53
692.348	445.07
692.758	438.3
693.168	414.31
693.577	465.96
693.987	448.46
694.396	450.15
694.806	434.63
695.215	447.9
695.625	436.89
696.034	445.07
696.443	439.71
696.852	427.01
697.262	428.42
697.671	432.94
698.08	440.56
698.489	432.09
698.897	428.7
699.306	428.99
699.715	466.8
700.124	443.66
700.532	449.03
700.941	442.25
701.35	421.65
701.758	414.59
702.166	426.44
702.575	442.82
702.983	436.61
703.391	414.31
703.799	456.08
704.208	411.2
704.616	422.21
705.024	435.76
705.432	430.68
705.839	420.52
706.247	442.53
706.655	437.74
707.063	398.21
707.47	438.02
707.878	452.13
708.285	437.45
708.693	431.81
709.1	423.34
709.508	417.69
709.915	431.81
710.322	421.93
710.729	407.81
711.136	428.14
711.543	423.9
711.95	416.85
712.357	408.09
712.764	424.47
713.171	430.96
713.578	403.29
713.984	429.27
714.391	413.18
714.797	421.36
715.204	430.96
715.61	413.18
716.017	411.48
716.423	396.52
716.829	408.09
717.236	419.39
717.642	406.12
718.048	382.39
718.454	421.93
718.86	407.81
719.266	400.19
719.671	413.74
720.077	396.23
720.483	413.74
720.889	428.7
721.294	393.41
721.7	414.02
722.105	401.6
722.511	422.77
722.916	422.21
723.321	430.68
723.726	405.55
724.132	411.2
724.537	434.35
724.942	405.27
725.347	407.25
725.752	424.19
726.156	417.98
726.561	409.51
726.966	435.76
727.371	420.52
727.775	410.07
728.18	426.16
728.584	401.32
728.989	431.24
729.393	408.38
729.798	432.94
730.202	430.4
730.606	399.62
731.01	393.69
731.414	406.68
731.818	419.95
732.222	393.41
732.626	410.35
733.03	415.43
733.434	430.68
733.837	417.69
734.241	402.73
734.645	419.1
735.048	411.48
735.452	414.02
735.855	404.14
736.258	395.67
736.662	423.06
737.065	405.55
737.468	399.34
737.871	416
738.274	375.33
738.677	389.17
739.08	417.13
739.483	382.11
739.886	405.27
740.289	389.74
740.691	414.59
741.094	405.27
741.497	389.46
741.899	399.34
742.302	410.07
742.704	384.65
743.106	392.28
743.508	408.66
743.911	399.9
744.313	406.12
744.715	391.71
745.117	407.81
745.519	401.03
745.921	382.11
746.323	410.92
746.724	402.45
747.126	417.69
747.528	427.01
747.929	394.82
748.331	422.49
748.732	400.75
749.134	390.58
749.535	405.83
749.936	408.38
750.338	417.69
750.739	406.12
751.14	404.7
751.541	400.75
751.942	423.34
752.343	395.67
752.744	404.42
753.144	404.14
753.545	405.55
753.946	390.87
754.346	406.68
754.747	399.9
755.148	397.93
755.548	397.36
755.948	389.17
756.349	375.9
756.749	399.06
757.149	379.29
757.549	397.36
757.949	386.07
758.349	408.66
758.749	366.29
759.149	430.96
759.549	388.89
759.949	383.81
760.348	417.41
760.748	388.89
761.148	408.94
761.547	405.27
761.947	401.6
762.346	369.68
762.745	402.16
763.145	409.79
763.544	411.2
763.943	388.89
764.342	387.76
764.741	395.95
765.14	408.38
765.539	397.65
765.938	391.15
766.336	389.17
766.735	364.31
767.134	381.83
767.532	410.07
767.931	358.38
768.329	414.02
768.728	406.68
769.126	381.83
769.525	400.47
769.923	397.93
770.321	395.67
770.719	392.84
771.117	416
771.515	410.35
771.913	406.96
772.311	411.48
772.709	384.94
773.106	386.35
773.504	414.02
773.902	383.81
774.299	406.4
774.697	403.58
775.094	426.44
775.491	380.7
775.889	377.03
776.286	376.74
776.683	369.68
777.08	384.09
777.477	377.87
777.874	394.54
778.271	408.38
778.668	388.33
779.065	367.99
779.462	383.81
779.858	382.96
780.255	388.61
780.652	384.65
781.048	376.18
781.444	397.65
781.841	406.4
782.237	378.72
782.633	375.05
783.03	370.81
783.426	374.77
783.822	390.02
784.218	382.11
784.614	398.21
785.01	376.74
785.405	394.54
785.801	422.21
786.197	396.52
786.593	392
786.988	388.61
787.384	392.28
787.779	398.21
788.174	380.98
788.57	399.06
788.965	397.93
789.36	381.55
789.755	385.22
790.15	393.13
790.545	393.97
790.94	395.1
791.335	363.18
791.73	403.86
792.125	388.61
792.52	389.46
792.914	389.74
793.309	393.41
793.703	405.83
794.098	382.39
794.492	388.33
794.887	405.55
795.281	406.4
795.675	417.69
796.069	397.36
796.463	388.61
796.857	388.89
797.251	397.08
797.645	412.61
798.039	390.3
798.433	384.37
798.826	366.86
799.22	392
799.614	397.36
800.007	403.29
800.401	395.1
800.794	397.36
801.187	385.5
801.581	373.92
801.974	398.49
802.367	378.44
802.76	386.35
803.153	353.58
803.546	386.63
803.939	374.77
804.332	374.48
804.725	404.7
805.117	384.94
805.51	402.16
805.903	397.93
806.295	397.93
806.688	381.55
807.08	409.79
807.472	381.26
807.865	401.6
808.257	412.33
808.649	399.06
809.041	383.81
809.433	381.26
809.825	403.01
810.217	393.97
810.609	412.33
811.001	425.6
811.392	388.04
811.784	397.93
812.175	396.23
812.567	379.29
812.958	390.87
813.35	387.48
813.741	373.92
814.132	386.91
814.524	372.79
814.915	377.31
815.306	376.46
815.697	416.28
816.088	390.58
816.479	386.63
816.87	402.45
817.26	369.68
817.651	393.97
818.042	390.87
818.432	388.04
818.823	397.08
819.213	376.18
819.604	432.66
819.994	398.49
820.384	399.06
820.775	384.65
821.165	391.15
821.555	388.89
821.945	402.45
822.335	368.55
822.725	393.69
823.114	386.35
823.504	381.26
823.894	387.76
824.284	399.9
824.673	390.02
825.063	397.65
825.452	379.29
825.842	408.94
826.231	408.38
826.62	408.09
827.009	390.02
827.399	355.56
827.788	383.52
828.177	381.83
828.566	398.49
828.954	376.46
829.343	399.9
829.732	360.36
830.121	392.56
830.509	369.68
830.898	348.49
831.286	405.27
831.675	392.28
832.063	386.07
832.452	375.33
832.84	382.39
833.228	353.86
833.616	398.49
834.004	414.31
834.392	386.63
834.78	364.31
835.168	393.13
835.556	402.45
835.944	397.36
836.331	383.81
836.719	405.27
837.107	374.48
837.494	370.25
837.881	386.35
838.269	376.46
838.656	390.02
839.043	383.81
839.431	343.4
839.818	401.32
840.205	371.66
840.592	417.13
840.979	388.04
841.366	404.7
841.752	382.39
842.139	355.27
842.526	388.33
842.912	404.42
843.299	391.71
843.685	383.24
844.072	386.91
844.458	398.49
844.844	390.58
845.231	372.79
845.617	378.72
846.003	394.26
846.389	391.71
846.775	373.64
847.161	370.53
847.547	383.24
847.933	400.19
848.318	376.18
848.704	400.19
849.09	389.46
849.475	399.62
849.861	384.37
850.246	361.21
850.631	387.48
851.017	363.75
851.402	395.39
851.787	376.46
852.172	394.82
852.557	366.57
852.942	410.07
853.327	392.56
853.712	388.61
854.097	389.17
854.481	392.28
854.866	393.41
855.25	390.87
855.635	388.04
856.019	390.87
856.404	375.05
856.788	393.69
857.172	363.75
857.557	401.6
857.941	398.49
858.325	397.08
858.709	381.83
859.093	373.07
859.477	408.66
859.86	408.09
860.244	374.2
860.628	369.96
861.012	390.87
861.395	359.51
861.779	384.09
862.162	389.17
862.545	408.38
862.929	371.94
863.312	392.84
863.695	395.39
864.078	397.36
864.461	384.37
864.844	397.65
865.227	406.68
865.61	373.92
865.993	402.73
866.376	395.67
866.758	393.13
867.141	429.27
867.523	372.22
867.906	374.77
868.288	396.23
868.671	388.04
869.053	374.77
869.435	413.18
869.817	367.7
870.199	360.92
870.581	385.22
870.963	366.29
871.345	381.55
871.727	347.08
872.109	360.92
872.491	375.61
872.872	389.74
873.254	387.48
873.635	371.38
874.017	384.37
874.398	408.38
874.779	361.77
875.161	406.12
875.542	376.74
875.923	378.72
876.304	375.9
876.685	378.72
877.066	371.09
877.447	375.61
877.828	360.92
878.208	379.57
878.589	383.81
878.97	416
879.35	408.09
879.731	390.02
880.111	369.12
880.491	377.03
880.872	362.9
881.252	408.09
881.632	382.39
882.012	363.47
882.392	374.77
882.772	379
883.152	396.52
883.532	391.15
883.912	412.89
884.291	364.88
884.671	400.19
885.051	349.9
885.43	382.11
885.81	366.29
886.189	409.79
886.568	377.87
886.948	384.94
887.327	392.28
887.706	366.86
888.085	401.6
888.464	367.14
888.843	376.18
889.222	385.78
889.601	375.61
889.979	377.59
890.358	358.1
890.737	353.58
891.115	404.42
891.494	365.73
891.872	368.27
892.25	367.7
892.629	394.26
893.007	384.09
893.385	385.5
893.763	392.28
894.141	380.13
894.519	403.29
894.897	390.58
895.275	394.82
895.653	368.27
896.03	371.38
896.408	359.51
896.786	364.03
897.163	387.2
897.541	397.08
897.918	414.59
898.295	380.42
898.673	386.35
899.05	358.66
899.427	391.71
899.804	386.63
900.181	392.56
900.558	369.4
900.935	375.33
901.312	364.31
901.688	388.33
902.065	403.01
902.442	388.61
902.818	400.75
903.195	360.92
903.571	400.47
903.947	373.92
904.324	416.28
904.7	382.11
905.076	390.58
905.452	379
905.828	387.76
906.204	410.92
906.58	406.68
906.956	362.05
907.331	406.68
907.707	364.88
908.083	383.81
908.458	374.48
908.834	366.29
909.209	386.35
909.585	364.31
909.96	356.12
910.335	379.57
910.71	380.13
911.086	395.39
911.461	393.97
911.836	388.61
912.21	361.21
912.585	378.44
912.96	391.71
913.335	400.75
913.709	362.05
914.084	371.66
914.459	384.65
914.833	386.35
915.207	367.42
915.582	375.9
915.956	372.22
916.33	400.75
916.704	395.95
917.078	380.98
917.452	369.68
917.826	385.22
918.2	401.03
918.574	415.15
918.948	364.31
919.321	402.45
919.695	372.51
920.068	380.13
920.442	359.51
920.815	368.55
921.189	383.24
921.562	410.63
921.935	379
922.308	373.07
922.681	404.7
923.054	363.18
923.427	390.02
923.8	361.21
924.173	364.88
924.546	379.57
924.919	361.77
925.291	388.33
925.664	379.57
926.036	401.6
926.409	363.47
926.781	383.24
927.153	373.92
927.526	390.02
927.898	378.72
928.27	383.52
928.642	376.18
929.014	372.22
929.386	366.29
929.758	374.77
930.129	359.51
930.501	416.28
930.873	384.94
931.244	397.08
931.616	357.53
931.987	368.27
932.359	367.7
932.73	376.46
933.101	370.53
933.472	362.34
933.843	373.35
934.214	406.4
934.585	381.83
934.956	387.76
935.327	382.39
935.698	390.87
936.069	371.09
936.439	352.45
936.81	364.03
937.18	383.24
937.551	394.54
937.921	392.28
938.292	374.2
938.662	363.47
939.032	388.61
939.402	374.77
939.772	377.87
940.142	364.03
940.512	380.7
940.882	397.93
941.252	367.7
941.621	384.94
941.991	379.85
942.361	399.06
942.73	377.03
943.1	369.12
943.469	374.77
943.838	380.7
944.208	388.33
944.577	400.47
944.946	369.12
945.315	409.79
945.684	399.62
946.053	386.91
946.422	390.3
946.791	379
947.159	353.29
947.528	385.22
947.897	373.64
948.265	346.51
948.634	367.99
949.002	372.51
949.371	358.38
949.739	367.99
950.107	385.22
950.475	393.97
950.843	381.83
951.211	391.43
951.579	324.75
951.947	373.07
952.315	396.52
952.683	375.33
953.05	369.68
953.418	372.79
953.785	380.42
954.153	390.02
954.52	366.86
954.888	360.64
955.255	378.16
955.622	405.55
955.989	367.99
956.356	371.09
956.723	375.33
957.09	377.31
957.457	403.29
957.824	346.23
958.191	361.77
958.557	339.45
958.924	381.55
959.291	376.18
959.657	375.9
960.023	377.59
960.39	375.05
960.756	384.37
961.122	366.57
961.488	385.78
961.855	366.57
962.221	392.56
962.586	372.51
962.952	359.79
963.318	371.66
963.684	382.11
964.05	389.17
964.415	353.29
964.781	365.16
965.146	373.64
965.512	388.04
965.877	410.92
966.242	374.77
966.608	394.26
966.973	367.99
967.338	384.94
967.703	384.94
968.068	345.1
968.433	359.79
968.797	375.61
969.162	375.9
969.527	377.87
969.891	386.63
970.256	394.26
970.62	377.59
970.985	361.49
971.349	375.05
971.714	377.87
972.078	384.09
972.442	373.64
972.806	355.27
973.17	388.89
973.534	386.07
973.898	401.03
974.262	357.53
974.625	401.03
974.989	360.36
975.353	366.57
975.716	370.25
976.08	369.68
976.443	397.93
976.806	380.98
977.17	366.86
977.533	377.87
977.896	377.59
978.259	356.12
978.622	365.16
978.985	367.99
979.348	397.08
979.711	379.29
980.073	381.83
980.436	376.46
980.799	363.75
981.161	388.33
981.524	369.4
981.886	346.8
982.248	387.2
982.611	371.38
982.973	369.4
983.335	379
983.697	362.34
984.059	396.23
984.421	362.34
984.783	365.44
985.145	366.57
985.506	371.94
985.868	368.83
986.23	377.31
986.591	345.95
986.953	362.05
987.314	377.59
987.675	370.53
988.037	518.13
988.398	381.55
988.759	367.42
989.12	353.86
989.481	360.64
989.842	353.58
990.203	376.74
990.564	383.24
990.924	348.49
991.285	529.41
991.646	366.57
992.006	380.42
992.367	380.42
992.727	367.99
993.087	397.93
993.448	345.66
993.808	369.4
994.168	377.87
994.528	391.43
994.888	382.39
995.248	365.16
995.608	369.12
995.967	407.53
996.327	375.05
996.687	359.51
997.046	377.87
997.406	388.61
997.765	390.58
998.125	362.9
998.484	368.83
998.843	372.79
999.202	352.73
999.561	374.77
999.92	345.95
1000.279	383.52
1000.638	360.64
1000.997	347.93
1001.356	340.86
1001.715	365.73
1002.073	380.42
1002.432	373.92
1002.79	358.1
1003.149	358.95
1003.507	379.29
1003.865	388.33
1004.224	373.64
1004.582	403.29
1004.94	366.29
1005.298	375.61
1005.656	368.83
1006.014	364.03
1006.371	382.39
1006.729	352.16
1007.087	381.83
1007.445	384.94
1007.802	371.38
1008.16	348.77
1008.517	382.39
1008.874	400.19
1009.232	361.21
1009.589	395.95
1009.946	355.56
1010.303	366.86
1010.66	367.42
1011.017	351.32
1011.374	387.76
1011.731	396.8
1012.087	380.7
1012.444	376.46
1012.801	371.09
1013.157	358.95
1013.513	375.05
1013.87	386.91
1014.226	366.57
1014.582	378.72
1014.939	374.77
1015.295	374.2
1015.651	379
1016.007	384.94
1016.363	407.53
1016.719	379.57
1017.074	374.48
1017.43	352.45
1017.786	357.53
1018.141	369.4
1018.497	376.46
1018.852	365.73
1019.208	366.57
1019.563	377.87
1019.918	372.22
1020.273	363.75
1020.628	385.5
1020.983	373.64
1021.338	363.47
1021.693	378.44
1022.048	375.9
1022.403	397.93
1022.757	363.47
1023.112	363.47
1023.467	367.42
1023.821	369.4
1024.175	382.39
1024.53	381.26
1024.884	369.68
1025.238	380.98
1025.592	368.27
1025.946	378.44
1026.3	365.73
1026.654	363.47
1027.008	351.32
1027.362	348.21
1027.716	352.16
1028.069	327.58
1028.423	381.55
1028.777	363.47
1029.13	379.29
1029.483	377.03
1029.837	372.22
1030.19	377.87
1030.543	371.94
1030.896	351.32
1031.249	372.79
1031.602	392.84
1031.955	356.12
1032.308	371.38
1032.661	393.97
1033.013	363.47
1033.366	366.57
1033.719	363.47
1034.071	369.4
1034.424	378.72
1034.776	377.87
1035.128	366.57
1035.48	357.53
1035.833	367.7
1036.185	360.36
1036.537	360.36
1036.889	360.36
