Data from SCSF78-405_irradiation_FLMS019251_16-46-27-927.txt Node
Date: Fri Feb 22 16:46:27 PST 2019
User: mu3e
Spectrometer: FLMS01925
Trigger mode: 0
Integration Time (sec): 1.206000E-2
Scans to average: 10
Electric dark correction enabled: true
Nonlinearity correction enabled: true
Boxcar width: 0
XAxis mode: Wavelengths
Number of Pixels in Spectrum: 2048
>>>>>Begin Spectral Data<<<<<
187.103	-94.75
187.574	-94.75
188.045	-94.75
188.516	-137.12
188.987	-123.47
189.458	-116.93
189.929	-99.58
190.4	-119.77
190.871	-93.04
191.342	-94.46
191.813	-54.96
192.284	-62.92
192.754	-8.94
193.225	-10.36
193.696	3.55
194.166	59.46
194.637	72.79
195.107	105.4
195.578	116.74
196.048	145.08
196.518	156.98
196.989	184.18
197.459	190.41
197.929	237.97
198.399	279.84
198.869	314.63
199.339	320.56
199.809	333.28
200.279	350.52
200.749	333.85
201.219	370.86
201.689	366.34
202.159	375.95
202.628	370.86
203.098	384.14
203.568	385.27
204.037	380.47
204.507	397.7
204.976	395.44
205.445	377.93
205.915	397.98
206.384	405.04
206.853	412.66
207.323	403.63
207.792	391.2
208.261	390.07
208.73	379.34
209.199	418.59
209.668	380.47
210.137	412.95
210.606	407.3
211.075	364.93
211.543	386.4
212.012	404.76
212.481	382.45
212.95	386.12
213.418	386.97
213.887	381.32
214.355	379.9
214.824	370.3
215.292	369.17
215.76	372.84
216.229	381.88
216.697	358.43
217.165	377.36
217.633	339.78
218.101	360.41
218.569	370.3
219.037	383.29
219.505	363.8
219.973	356.74
220.441	380.75
220.909	360.13
221.377	351.93
221.844	349.96
222.312	376.23
222.78	368.04
223.247	351.37
223.715	333.28
224.182	350.52
224.65	364.08
225.117	363.24
225.584	376.8
226.052	341.76
226.519	350.24
226.986	359.56
227.453	366.91
227.92	376.8
228.387	386.97
228.854	366.06
229.321	345.44
229.788	375.38
230.255	379.9
230.722	366.06
231.189	364.93
231.655	397.7
232.122	369.45
232.589	392.05
233.055	351.93
233.522	372.84
233.988	376.51
234.454	358.43
234.921	371.71
235.387	383.86
235.853	379.06
236.32	386.97
236.786	358.43
237.252	375.67
237.718	383.58
238.184	383.29
238.65	390.36
239.116	401.65
239.582	382.45
240.047	363.8
240.513	369.45
240.979	380.19
241.445	362.11
241.91	379.06
242.376	391.77
242.841	377.64
243.307	383.86
243.772	370.86
244.238	392.05
244.703	380.75
245.168	371.99
245.633	392.33
246.099	377.36
246.564	392.9
247.029	352.78
247.494	370.3
247.959	400.24
248.424	347.13
248.889	353.35
249.353	371.99
249.818	391.48
250.283	400.8
250.748	382.16
251.212	391.2
251.677	391.2
252.141	382.73
252.606	378.49
253.07	375.67
253.535	367.76
253.999	366.91
254.463	379.62
254.927	406.73
255.392	360.69
255.856	370.58
256.32	384.42
256.784	387.25
257.248	409.28
257.712	366.63
258.176	382.16
258.64	383.86
259.103	405.89
259.567	384.99
260.031	406.73
260.495	394.59
260.958	383.86
261.422	385.27
261.885	362.95
262.349	375.95
262.812	373.41
263.275	399.39
263.739	366.63
264.202	380.75
264.665	385.55
265.128	393.46
265.591	367.47
266.054	384.42
266.517	381.88
266.98	383.86
267.443	358.15
267.906	389.23
268.369	375.38
268.832	381.03
269.294	394.31
269.757	389.51
270.22	397.7
270.682	378.77
271.145	386.68
271.607	387.25
272.07	386.68
272.532	370.3
272.994	400.24
273.456	390.36
273.919	418.59
274.381	379.9
274.843	383.58
275.305	400.52
275.767	368.89
276.229	404.19
276.691	370.58
277.153	356.17
277.614	395.44
278.076	400.8
278.538	400.24
279	395.44
279.461	383.29
279.923	410.97
280.384	390.36
280.846	375.67
281.307	388.94
281.769	384.71
282.23	396.85
282.691	416.62
283.152	403.06
283.613	397.7
284.075	414.08
284.536	371.43
284.997	401.93
285.458	365.78
285.918	386.97
286.379	372.84
286.84	367.47
287.301	384.71
287.762	394.87
288.222	413.51
288.683	395.72
289.143	391.2
289.604	404.76
290.064	371.99
290.525	418.88
290.985	408.99
291.445	395.72
291.906	403.63
292.366	389.79
292.826	392.33
293.286	397.13
293.746	376.8
294.206	380.19
294.666	404.19
295.126	398.83
295.586	395.44
296.046	409.56
296.506	410.69
296.965	408.15
297.425	391.2
297.884	392.9
298.344	398.26
298.804	394.87
299.263	392.61
299.722	370.58
300.182	402.5
300.641	370.86
301.1	392.05
301.559	404.19
302.019	399.11
302.478	378.21
302.937	396.85
303.396	428.19
303.855	421.13
304.314	414.08
304.772	414.64
305.231	408.71
305.69	371.43
306.149	398.83
306.607	390.64
307.066	398.83
307.524	424.8
307.983	407.86
308.441	389.23
308.9	429.32
309.358	410.12
309.816	388.38
310.275	406.73
310.733	386.97
311.191	402.5
311.649	400.8
312.107	420
312.565	427.06
313.023	396.85
313.481	404.48
313.939	401.93
314.397	398.83
314.854	404.19
315.312	397.98
315.77	416.33
316.227	398.55
316.685	401.93
317.142	410.69
317.6	413.23
318.057	406.17
318.514	384.42
318.972	430.17
319.429	394.59
319.886	411.25
320.343	403.63
320.8	399.11
321.257	405.89
321.714	415.21
322.171	405.61
322.628	392.61
323.085	396.29
323.542	381.32
323.998	415.21
324.455	426.5
324.912	403.91
325.368	408.71
325.825	412.1
326.281	424.52
326.738	401.93
327.194	413.23
327.65	395.72
328.107	407.3
328.563	399.96
329.019	432.43
329.475	399.96
329.931	389.79
330.387	404.76
330.843	440.33
331.299	407.86
331.755	408.99
332.211	405.04
332.666	397.13
333.122	412.95
333.578	413.23
334.033	416.62
334.489	407.3
334.944	382.73
335.4	419.72
335.855	424.24
336.31	391.48
336.766	417.18
337.221	413.23
337.676	401.93
338.131	393.18
338.586	411.82
339.041	423.96
339.496	399.67
339.951	394.03
340.406	408.15
340.861	416.9
341.316	417.75
341.771	409.56
342.225	418.59
342.68	396.29
343.134	420
343.589	410.12
344.043	398.83
344.498	408.71
344.952	430.73
345.406	407.3
345.861	407.58
346.315	406.73
346.769	404.48
347.223	436.1
347.677	407.3
348.131	418.59
348.585	412.95
349.039	431.3
349.493	431.01
349.947	418.59
350.401	417.18
350.854	414.08
351.308	438.07
351.762	437.22
352.215	401.93
352.669	434.12
353.122	430.45
353.575	407.58
354.029	391.48
354.482	440.89
354.935	442.3
355.388	417.75
355.842	447.1
356.295	424.8
356.748	423.96
357.201	421.42
357.654	426.78
358.106	428.47
358.559	404.76
359.012	410.69
359.465	410.41
359.917	421.13
360.37	424.52
360.823	409.28
361.275	427.06
361.728	421.42
362.18	403.91
362.632	398.55
363.085	385.55
363.537	411.53
363.989	430.45
364.441	406.73
364.893	427.06
365.345	436.66
365.797	427.91
366.249	400.24
366.701	418.88
367.153	401.09
367.605	441.74
368.057	405.32
368.508	414.64
368.96	435.53
369.411	414.92
369.863	414.92
370.314	421.98
370.766	415.49
371.217	414.08
371.669	420.85
372.12	432.14
372.571	417.46
373.022	441.74
373.473	425.93
373.924	437.79
374.375	422.55
374.826	411.82
375.277	430.17
375.728	429.32
376.179	432.14
376.63	424.24
377.08	422.55
377.531	424.24
377.981	417.18
378.432	421.7
378.883	439.2
379.333	448.23
379.783	433.27
380.234	431.86
380.684	414.36
381.134	392.61
381.584	445.41
382.034	439.48
382.485	438.07
382.935	442.59
383.385	445.41
383.834	418.31
384.284	436.94
384.734	428.47
385.184	432.71
385.634	413.79
386.083	427.34
386.533	428.76
386.982	430.73
387.432	434.68
387.881	414.64
388.331	451.34
388.78	402.22
389.229	434.68
389.679	427.06
390.128	426.78
390.577	451.05
391.026	413.23
391.475	439.76
391.924	433.27
392.373	419.16
392.822	457.83
393.27	437.79
393.719	427.34
394.168	421.7
394.617	453.31
395.065	404.48
395.514	439.76
395.962	452.75
396.411	445.41
396.859	444.84
397.307	442.59
397.756	431.86
398.204	413.51
398.652	432.14
399.1	445.69
399.548	430.73
399.996	446.82
400.444	432.43
400.892	478.99
401.34	445.97
401.788	463.19
402.236	487.45
402.683	442.59
403.131	477.01
403.579	486.88
404.026	469.11
404.474	453.59
404.921	494.78
405.369	474.19
405.816	461.78
406.263	481.81
406.71	463.47
407.158	504.65
407.605	469.11
408.052	482.37
408.499	497.6
408.946	476.17
409.393	494.22
409.84	532.28
410.286	520.72
410.733	515.09
411.18	552.3
411.626	551.73
412.073	601.03
412.52	708.54
412.966	800.45
413.413	904.59
413.859	1051.44
414.305	1295.46
414.752	1560.96
415.198	1903.42
415.644	2331.22
416.09	2782.55
416.536	3337.94
416.982	3993.09
417.428	4677.66
417.874	5493.51
418.32	6320.52
418.766	7207.69
419.211	8331.45
419.657	9218.22
420.103	10380.22
420.548	11222.62
420.994	12623.58
421.439	13712.13
421.885	14784.35
422.33	16195.74
422.776	17131.71
423.221	18223.89
423.666	19600.26
424.111	20847.98
424.556	21681.22
425.001	23228
425.446	24552.63
425.891	25850.15
426.336	26849.67
426.781	28022.95
427.226	30176.9
427.671	30590.68
428.115	31488.17
428.56	33360.41
429.005	34762.29
429.449	35385.54
429.894	36691.91
430.338	37795.08
430.782	37994.17
431.227	39448.35
431.671	39786.37
432.115	41310.24
432.559	42440.95
433.003	42183.39
433.447	43215.7
433.891	43665.11
434.335	43893.53
434.779	44716.88
435.223	45004.35
435.667	44941.49
436.111	45549.42
436.554	45473
436.998	45141.97
437.442	44974.93
437.885	47173.16
438.328	45636.48
438.772	45815.04
439.215	46429.55
439.659	45981.65
440.102	46441.22
440.545	45696.82
440.988	45608.21
441.431	46437.16
441.874	46069.45
442.317	46329.37
442.76	45674.6
443.203	45227.56
443.646	45891.87
444.089	45485.1
444.531	46240.4
444.974	44874.63
445.417	46042.12
445.859	44916.36
446.302	46195.3
446.744	45483.08
447.186	46767.91
447.629	45678.39
448.071	45561.53
448.513	45591.56
448.956	47064.27
449.398	46298.94
449.84	44950.29
450.282	45584.49
450.724	46323.28
451.166	46080.08
451.607	45830.2
452.049	45866.85
452.491	46884.44
452.933	46556.47
453.374	47065.04
453.816	47673.41
454.257	47353.91
454.699	48225.72
455.14	47999.69
455.582	47649.85
456.023	47642.68
456.464	47949.35
456.905	48354.24
457.347	48301.93
457.788	47419.07
458.229	47593.78
458.67	48587.73
459.111	46807.84
459.552	46830.74
459.992	46603.45
460.433	46361.32
460.874	45589.03
461.315	46754.68
461.755	45696.06
462.196	45204.4
462.636	44523.39
463.077	44243.15
463.517	44235.39
463.957	44607.69
464.398	44217.36
464.838	44162.26
465.278	43069.67
465.718	43429.19
466.158	42246.7
466.598	42736.82
467.038	42165.52
467.478	42840.83
467.918	42763.44
468.358	42072.45
468.798	41716.12
469.237	41762.96
469.677	41788.74
470.117	42406.16
470.556	40038.67
470.996	40553.71
471.435	40694.94
471.874	41512.74
472.314	41428.06
472.753	40303.24
473.192	40356.77
473.631	40026.59
474.07	40208.29
474.509	40315.08
474.948	40515.94
475.387	39875.54
475.826	38933.4
476.265	40535.44
476.704	40194.23
477.143	40536.67
477.581	40127.91
478.02	40926.68
478.458	39456.96
478.897	40101.28
479.335	41192.47
479.774	40694.44
480.212	40904.93
480.65	40945.95
481.089	40636.66
481.527	40252.19
481.965	39695.74
482.403	41487.23
482.841	41303.07
483.279	41333.51
483.717	41333.75
484.155	41005.77
484.592	41343.9
485.03	41410.73
485.468	40530.75
485.905	40567.53
486.343	41325.83
486.781	40470.03
487.218	39911.26
487.655	39881.94
488.093	39067.85
488.53	40409.82
488.967	39690.32
489.405	39450.32
489.842	38468.2
490.279	38566.65
490.716	38150.16
491.153	38604.22
491.59	38184.51
492.027	37400.09
492.463	37009.3
492.9	36390.59
493.337	36385.94
493.773	36192.31
494.21	35521.82
494.647	35286.16
495.083	34636.85
495.519	34214.76
495.956	34038.64
496.392	33449.66
496.828	33283.11
497.265	32653.34
497.701	32612.13
498.137	32343.22
498.573	31601.55
499.009	32034.81
499.445	31296.75
499.881	30808.02
500.316	31111.9
500.752	30249.37
501.188	29938.23
501.624	29876.49
502.059	28828.9
502.495	28567.67
502.93	28560.59
503.366	28654.92
503.801	28083.6
504.236	27751.42
504.672	27314.29
505.107	27033.16
505.542	26422.22
505.977	26470.03
506.412	25892.36
506.847	26259.64
507.282	25748.28
507.717	25492.42
508.152	25306.47
508.587	25176.24
509.021	24380.36
509.456	24136.61
509.891	24184.63
510.325	24156.81
510.76	23792.95
511.194	23608.32
511.628	23596.98
512.063	22926.38
512.497	23115.97
512.931	22643.83
513.366	22317.1
513.8	22356.41
514.234	21701.28
514.668	21712.92
515.102	21868.12
515.536	21096.99
515.969	21222.67
516.403	20862.62
516.837	20401.2
517.271	20492.33
517.704	20097.36
518.138	20041.19
518.571	19655.74
519.005	19493.75
519.438	19348.62
519.871	19190.49
520.305	18703.74
520.738	18673.82
521.171	18241.87
521.604	18351.96
522.037	18036.08
522.47	17784.2
522.903	17465.6
523.336	17363.26
523.769	17260.15
524.202	16739.87
524.634	16783.48
525.067	16640.84
525.5	16436.68
525.932	16281.85
526.365	15959.42
526.797	15751.34
527.23	15788.54
527.662	15283.68
528.094	15084.5
528.527	15014.72
528.959	14821.92
529.391	14576.52
529.823	14075.53
530.255	14215.26
530.687	13832.56
531.119	13597.73
531.551	13454.15
531.982	13192.38
532.414	13060.76
532.846	12805.96
533.277	12682.02
533.709	12309.57
534.14	12309.31
534.572	12148.71
535.003	12014.5
535.435	11682.32
535.866	11637.67
536.297	11351.18
536.728	11273.75
537.159	11229.52
537.59	10898.18
538.022	10856.94
538.452	10671.42
538.883	10366.1
539.314	10376.12
539.745	10073.4
540.176	10011.41
540.606	9764.77
541.037	9753.43
541.468	9587.17
541.898	9506.94
542.328	9393.63
542.759	9217.7
543.189	9042.87
543.619	8949.95
544.05	8789.08
544.48	8677.07
544.91	8561.35
545.34	8409.68
545.77	8378.24
546.2	8240.43
546.63	8083.21
547.06	8096.49
547.489	7892.71
547.919	7696.71
548.349	7712.12
548.778	7644.73
549.208	7480.03
549.637	7368.28
550.067	7260.11
550.496	7318.79
550.926	7168.36
551.355	6953.93
551.784	6977.84
552.213	6865.38
552.642	6712.03
553.071	6708.34
553.5	6653.58
553.929	6444.31
554.358	6448.79
554.787	6307.05
555.216	6318.41
555.645	6115.41
556.073	6101.65
556.502	6026.48
556.93	5854.24
557.359	5824.27
557.787	5853.44
558.216	5699.53
558.644	5723.16
559.072	5623.28
559.5	5507.61
559.929	5531.56
560.357	5513.73
560.785	5379.03
561.213	5359.05
561.641	5229.49
562.068	5254.03
562.496	5177.46
562.924	5153.44
563.352	5102.44
563.779	5124.07
564.207	5104.57
564.634	5048.2
565.062	5062.36
565.489	4924.13
565.917	4920.11
566.344	4876.76
566.771	4828.83
567.198	4782.22
567.625	4696.97
568.053	4691.07
568.48	4650.3
568.907	4606.01
569.333	4520.88
569.76	4395.87
570.187	4421.96
570.614	4281.2
571.04	4521.96
571.467	4234.59
571.894	4167.19
572.32	4065.74
572.747	4015.24
573.173	3889.82
573.599	3858.7
574.026	3764.49
574.452	3755.82
574.878	3672.89
575.304	3633.3
575.73	3583.64
576.156	3485.33
576.582	3424.72
577.008	3389.91
577.434	3339.03
577.86	3257.88
578.285	3229.82
578.711	3104.1
579.137	3167.12
579.562	3033.93
579.988	3077.08
580.413	3015.36
580.838	2924.33
581.264	2898.9
581.689	2863.05
582.114	2770.22
582.539	2789.94
582.964	2755.7
583.39	2673.17
583.814	2662.75
584.239	2644.36
584.664	2593.31
585.089	2562.28
585.514	2503.47
585.939	2474.61
586.363	2468.28
586.788	2407.49
587.212	2394.55
587.637	2319.93
588.061	2324.89
588.485	2271.71
588.91	2247.17
589.334	2241.38
589.758	2190.35
590.182	2204.42
590.606	2142.32
591.03	2100.07
591.454	2043.7
591.878	2054.48
592.302	2078.79
592.726	1980.37
593.15	1995.31
593.573	1943.29
593.997	1914.77
594.42	1892.9
594.844	1871.02
595.267	1862.43
595.691	1866.86
596.114	1797.29
596.537	1773.99
596.96	1812.26
597.384	1788.14
597.807	1738.76
598.23	1732.66
598.653	1713.5
599.076	1727.94
599.499	1701.29
599.921	1665.19
600.344	1660.75
600.767	1664.91
601.189	1666.02
601.612	1621.29
602.034	1616.85
602.457	1643.24
602.879	1592.66
603.302	1598.5
603.724	1577.09
604.146	1559.57
604.568	1541.77
604.991	1547.61
605.413	1539.82
605.835	1565.13
606.257	1505.04
606.678	1531.2
607.1	1476.09
607.522	1515.62
607.944	1475.53
608.365	1499.47
608.787	1433.76
609.209	1436.26
609.63	1403.94
610.051	1458.27
610.473	1407.57
610.894	1416.76
611.315	1379.69
611.737	1362.69
612.158	1344.56
612.579	1332.57
613	1335.35
613.421	1296.57
613.842	1299.64
614.263	1253.3
614.683	1270.89
615.104	1260.01
615.525	1196.6
615.945	1216.16
616.366	1189.05
616.787	1186.82
617.207	1189.61
617.627	1140.97
618.048	1161.1
618.468	1155.79
618.888	1126.71
619.308	1130.34
619.728	1096.5
620.148	1063.19
620.568	1085.02
620.988	1051.16
621.408	1060.67
621.828	1051.16
622.248	1031.27
622.668	1012.79
623.087	998.22
623.507	987.02
623.926	989.82
624.346	980.85
624.765	976.09
625.185	967.4
625.604	976.93
626.023	950.86
626.442	934.04
626.861	955.07
627.28	928.15
627.699	917.77
628.118	897.02
628.537	911.88
628.956	874.29
629.375	860.54
629.794	858.01
630.212	872.05
630.631	822.92
631.049	847.07
631.468	849.87
631.886	836.4
632.305	849.31
632.723	802.98
633.141	787.25
633.559	827.69
633.978	795.4
634.396	819.83
634.814	754.65
635.232	778.82
635.65	772.36
636.067	800.17
636.485	774.04
636.903	753.53
637.321	770.11
637.738	771.51
638.156	729.07
638.573	738.35
638.991	734.97
639.408	744.53
639.825	734.97
640.243	722.32
640.66	688.57
641.077	731.6
641.494	711.36
641.911	720.07
642.328	705.45
642.745	717.82
643.162	713.89
643.579	691.67
643.995	700.67
644.412	678.45
644.829	667.19
645.245	719.79
645.662	672.82
646.078	682.38
646.495	691.95
646.911	666.06
647.327	642.99
647.743	641.3
648.159	629.19
648.576	655.93
648.992	635.39
649.408	613.14
649.824	607.51
650.239	621.87
650.655	629.47
651.071	638.76
651.487	585.54
651.902	633.98
652.318	617.37
652.733	599.06
653.149	599.06
653.564	612.3
653.979	575.96
654.395	575.68
654.81	601.6
655.225	602.72
655.64	569.2
656.055	579.06
656.47	601.6
656.885	577.94
657.3	558.5
657.715	593.15
658.13	589.49
658.544	582.73
658.959	562.16
659.374	577.94
659.788	546.94
660.202	558.5
660.617	575.4
661.031	554.27
661.445	581.32
661.86	541.3
662.274	536.23
662.688	553.14
663.102	561.59
663.516	513.39
663.93	523.83
664.344	558.5
664.758	542.71
665.171	536.79
665.585	521.01
665.999	537.08
666.412	543.84
666.826	524.95
667.239	534.82
667.653	528.34
668.066	531.16
668.479	529.18
668.892	535.38
669.306	508.32
669.719	516.21
670.132	505.22
670.545	529.75
670.958	511.14
671.37	510.29
671.783	554.27
672.196	494.5
672.609	525.8
673.021	486.6
673.434	508.88
673.846	524.39
674.259	510.29
674.671	509.45
675.084	488.86
675.496	497.6
675.908	515.37
676.32	487.73
676.732	499.29
677.144	495.63
677.556	512.55
677.968	489.14
678.38	519.6
678.792	469.11
679.204	511.14
679.615	499.58
680.027	495.06
680.439	464.6
680.85	512.83
681.262	488.01
681.673	478.42
682.084	493.37
682.496	482.94
682.907	496.47
683.318	451.62
683.729	455.57
684.14	474.19
684.551	472.78
684.962	498.17
685.373	464.03
685.784	474.19
686.194	456.7
686.605	469.68
687.016	484.91
687.426	455.85
687.837	450.49
688.247	484.91
688.657	477.86
689.068	466.86
689.478	478.42
689.888	460.37
690.298	473.34
690.708	458.67
691.118	458.11
691.528	438.07
691.938	483.78
692.348	478.7
692.758	461.49
693.168	468.83
693.577	442.87
693.987	467.7
694.396	446.54
694.806	463.19
695.215	445.69
695.625	448.23
696.034	480.96
696.443	457.54
696.852	466.29
697.262	445.97
697.671	440.33
698.08	449.36
698.489	457.54
698.897	448.23
699.306	427.06
699.715	437.51
700.124	459.52
700.532	438.35
700.941	432.71
701.35	447.95
701.758	448.51
702.166	429.32
702.575	442.3
702.983	451.62
703.391	428.76
703.799	429.6
704.208	439.76
704.616	416.62
705.024	418.59
705.432	419.44
705.839	440.33
706.247	431.86
706.655	425.93
707.063	457.83
707.47	427.06
707.878	434.68
708.285	423.11
708.693	425.93
709.1	432.43
709.508	437.51
709.915	437.22
710.322	442.87
710.729	469.68
711.136	455
711.543	409.84
711.95	436.66
712.357	418.88
712.764	420.85
713.171	410.97
713.578	414.08
713.984	429.32
714.391	407.58
714.797	432.99
715.204	412.38
715.61	440.61
716.017	429.04
716.423	426.5
716.829	378.49
717.236	394.31
717.642	412.1
718.048	431.3
718.454	415.21
718.86	427.91
719.266	441.18
719.671	406.45
720.077	421.98
720.483	386.4
720.889	449.64
721.294	432.43
721.7	407.3
722.105	421.98
722.511	402.22
722.916	414.36
723.321	408.15
723.726	414.64
724.132	441.46
724.537	427.63
724.942	411.53
725.347	403.63
725.752	414.92
726.156	425.37
726.561	436.1
726.966	421.42
727.371	443.15
727.775	424.52
728.18	416.9
728.584	430.45
728.989	408.99
729.393	422.83
729.798	420.29
730.202	410.69
730.606	408.71
731.01	409.28
731.414	419.72
731.818	417.46
732.222	398.83
732.626	445.41
733.03	403.63
733.434	408.43
733.837	419.72
734.241	410.97
734.645	405.61
735.048	434.4
735.452	435.53
735.855	405.04
736.258	405.04
736.662	423.11
737.065	418.31
737.468	405.61
737.871	407.3
738.274	416.9
738.677	414.92
739.08	393.46
739.483	404.19
739.886	406.73
740.289	404.76
740.691	404.48
741.094	422.55
741.497	399.39
741.899	411.25
742.302	396.85
742.704	411.82
743.106	401.93
743.508	394.03
743.911	408.15
744.313	433.27
744.715	409.28
745.117	391.77
745.519	411.53
745.921	411.82
746.323	414.36
746.724	423.96
747.126	389.79
747.528	389.79
747.929	410.69
748.331	403.35
748.732	396.57
749.134	417.18
749.535	421.42
749.936	391.2
750.338	439.48
750.739	415.49
751.14	394.31
751.541	416.05
751.942	390.92
752.343	392.33
752.744	420.85
753.144	432.71
753.545	412.1
753.946	401.37
754.346	411.25
754.747	416.9
755.148	403.06
755.548	421.7
755.948	405.89
756.349	413.51
756.749	422.55
757.149	410.97
757.549	405.32
757.949	396
758.349	409.28
758.749	423.67
759.149	403.91
759.549	403.35
759.949	397.7
760.348	395.44
760.748	388.1
761.148	381.88
761.547	429.89
761.947	400.24
762.346	377.08
762.745	407.3
763.145	412.66
763.544	390.92
763.943	399.11
764.342	393.18
764.741	410.12
765.14	398.83
765.539	404.48
765.938	414.92
766.336	384.71
766.735	383.86
767.134	426.22
767.532	389.79
767.931	394.59
768.329	399.39
768.728	392.33
769.126	403.63
769.525	392.9
769.923	381.6
770.321	406.45
770.719	416.33
771.117	414.64
771.515	404.76
771.913	406.45
772.311	389.79
772.709	405.61
773.106	420.29
773.504	407.58
773.902	435.53
774.299	390.07
774.697	391.48
775.094	393.46
775.491	436.66
775.889	393.46
776.286	403.06
776.683	388.94
777.08	405.04
777.477	402.22
777.874	381.03
778.271	399.39
778.668	394.59
779.065	404.19
779.462	393.18
779.858	421.98
780.255	404.76
780.652	424.24
781.048	383.86
781.444	398.26
781.841	380.19
782.237	397.13
782.633	413.23
783.03	414.08
783.426	397.13
783.822	386.97
784.218	392.61
784.614	411.82
785.01	402.5
785.405	396.57
785.801	392.61
786.197	390.92
786.593	398.55
786.988	402.5
787.384	404.48
787.779	381.6
788.174	404.19
788.57	399.39
788.965	373.69
789.36	417.75
789.755	414.64
790.15	386.4
790.545	367.47
790.94	423.67
791.335	427.06
791.73	423.39
792.125	400.24
792.52	388.66
792.914	404.76
793.309	423.96
793.703	377.93
794.098	385.55
794.492	408.71
794.887	418.03
795.281	379.62
795.675	387.53
796.069	379.34
796.463	396.85
796.857	394.59
797.251	412.66
797.645	392.9
798.039	414.36
798.433	391.2
798.826	381.88
799.22	370.3
799.614	400.24
800.007	407.02
800.401	387.25
800.794	379.62
801.187	365.78
801.581	399.11
801.974	375.95
802.367	389.51
802.76	381.6
803.153	365.21
803.546	410.41
803.939	403.35
804.332	389.23
804.725	390.92
805.117	394.87
805.51	372.28
805.903	392.33
806.295	396.85
806.688	412.1
807.08	409.28
807.472	388.66
807.865	391.77
808.257	404.19
808.649	384.71
809.041	408.71
809.433	381.32
809.825	408.15
810.217	398.55
810.609	403.35
811.001	390.07
811.392	392.9
811.784	403.63
812.175	401.93
812.567	362.67
812.958	414.08
813.35	397.7
813.741	413.79
814.132	428.47
814.524	389.79
814.915	412.95
815.306	388.66
815.697	414.92
816.088	381.88
816.479	398.55
816.87	387.25
817.26	408.71
817.651	388.94
818.042	402.22
818.432	392.05
818.823	403.06
819.213	398.55
819.604	380.47
819.994	386.12
820.384	351.93
820.775	401.37
821.165	393.74
821.555	397.13
821.945	388.1
822.335	391.48
822.725	429.32
823.114	381.6
823.504	384.14
823.894	414.08
824.284	376.23
824.673	384.99
825.063	379.06
825.452	380.47
825.842	393.74
826.231	405.32
826.62	392.61
827.009	388.1
827.399	373.69
827.788	392.61
828.177	383.58
828.566	393.46
828.954	411.25
829.343	395.72
829.732	387.53
830.121	419.44
830.509	383.01
830.898	381.03
831.286	391.77
831.675	387.53
832.063	391.77
832.452	373.69
832.84	395.44
833.228	390.36
833.616	407.02
834.004	376.23
834.392	402.78
834.78	372.84
835.168	393.74
835.556	384.42
835.944	385.55
836.331	396.85
836.719	401.93
837.107	385.55
837.494	378.21
837.881	379.62
838.269	390.36
838.656	388.1
839.043	403.91
839.431	411.25
839.818	375.95
840.205	394.03
840.592	386.12
840.979	384.99
841.366	407.58
841.752	381.88
842.139	372.56
842.526	381.6
842.912	384.99
843.299	393.18
843.685	386.68
844.072	411.82
844.458	379.06
844.844	386.4
845.231	365.21
845.617	392.9
846.003	396.85
846.389	381.32
846.775	384.71
847.161	384.71
847.547	383.86
847.933	400.24
848.318	404.48
848.704	394.31
849.09	415.21
849.475	377.08
849.861	399.11
850.246	406.17
850.631	404.19
851.017	399.67
851.402	392.61
851.787	360.41
852.172	396.29
852.557	389.23
852.942	390.64
853.327	396
853.712	392.61
854.097	402.78
854.481	421.42
854.866	366.06
855.25	399.39
855.635	407.3
856.019	416.9
856.404	381.32
856.788	351.65
857.172	392.05
857.557	386.97
857.941	388.66
858.325	392.05
858.709	392.33
859.093	370.3
859.477	423.96
859.86	395.72
860.244	402.22
860.628	394.03
861.012	392.9
861.395	388.66
861.779	376.23
862.162	401.93
862.545	406.73
862.929	374.25
863.312	378.21
863.695	369.73
864.078	369.17
864.461	388.38
864.844	416.05
865.227	388.66
865.61	388.94
865.993	372.56
866.376	367.76
866.758	396.85
867.141	415.21
867.523	372.84
867.906	394.31
868.288	392.9
868.671	384.14
869.053	392.33
869.435	390.64
869.817	403.63
870.199	368.32
870.581	355.61
870.963	396.29
871.345	394.31
871.727	396.85
872.109	368.32
872.491	374.82
872.872	395.16
873.254	385.55
873.635	367.19
874.017	392.9
874.398	382.73
874.779	381.6
875.161	386.68
875.542	384.71
875.923	383.29
876.304	360.98
876.685	380.75
877.066	394.03
877.447	378.49
877.828	374.25
878.208	386.4
878.589	403.91
878.97	378.21
879.35	378.77
879.731	378.21
880.111	405.32
880.491	368.89
880.872	386.4
881.252	395.72
881.632	385.84
882.012	376.8
882.392	371.43
882.772	382.16
883.152	379.62
883.532	401.93
883.912	377.93
884.291	377.08
884.671	380.75
885.051	375.95
885.43	357.87
885.81	399.11
886.189	352.5
886.568	358.15
886.948	378.77
887.327	382.16
887.706	370.58
888.085	383.01
888.464	415.49
888.843	376.8
889.222	381.88
889.601	396.85
889.979	379.34
890.358	369.17
890.737	406.45
891.115	405.04
891.494	370.3
891.872	404.76
892.25	385.84
892.629	409.56
893.007	379.62
893.385	373.97
893.763	373.12
894.141	388.66
894.519	388.1
894.897	398.26
895.275	381.03
895.653	376.23
896.03	362.95
896.408	411.82
896.786	396.29
897.163	386.68
897.541	374.82
897.918	389.51
898.295	385.27
898.673	409.56
899.05	359.56
899.427	376.8
899.804	390.64
900.181	378.21
900.558	393.46
900.935	375.1
901.312	367.76
901.688	377.08
902.065	384.71
902.442	390.07
902.818	396.29
903.195	358.15
903.571	396.57
903.947	369.17
904.324	385.84
904.7	411.82
905.076	386.4
905.452	383.86
905.828	385.27
906.204	386.68
906.58	389.23
906.956	381.32
907.331	378.77
907.707	409.84
908.083	372.84
908.458	390.07
908.834	363.8
909.209	397.13
909.585	398.26
909.96	392.9
910.335	394.03
910.71	352.5
911.086	390.07
911.461	366.91
911.836	383.01
912.21	386.68
912.585	375.38
912.96	384.99
913.335	392.61
913.709	384.71
914.084	366.34
914.459	377.36
914.833	361.54
915.207	369.73
915.582	389.51
915.956	399.96
916.33	394.59
916.704	369.17
917.078	404.48
917.452	373.69
917.826	381.88
918.2	386.97
918.574	364.93
918.948	370.3
919.321	372.56
919.695	394.59
920.068	388.94
920.442	370.86
920.815	375.95
921.189	383.58
921.562	372.28
921.935	419.16
922.308	366.91
922.681	374.82
923.054	367.47
923.427	371.43
923.8	359.28
924.173	370.3
924.546	386.68
924.919	391.77
925.291	376.51
925.664	378.21
926.036	368.32
926.409	384.42
926.781	379.06
927.153	396.57
927.526	373.97
927.898	384.14
928.27	395.72
928.642	355.61
929.014	370.86
929.386	400.52
929.758	375.1
930.129	372.28
930.501	398.83
930.873	380.75
931.244	393.74
931.616	382.16
931.987	368.89
932.359	365.21
932.73	384.99
933.101	384.14
933.472	365.21
933.843	382.16
934.214	397.13
934.585	378.21
934.956	359.28
935.327	384.42
935.698	390.92
936.069	396.29
936.439	372.28
936.81	407.3
937.18	375.67
937.551	382.45
937.921	358.15
938.292	393.74
938.662	400.24
939.032	387.81
939.402	364.65
939.772	374.54
940.142	367.47
940.512	380.19
940.882	380.47
941.252	408.71
941.621	393.46
941.991	355.04
942.361	374.25
942.73	384.99
943.1	392.61
943.469	353.63
943.838	388.66
944.208	390.92
944.577	362.11
944.946	374.82
945.315	360.41
945.684	373.12
946.053	401.37
946.422	378.77
946.791	367.76
947.159	384.14
947.528	410.12
947.897	396
948.265	381.03
948.634	383.58
949.002	386.4
949.371	377.08
949.739	359.28
950.107	376.51
950.475	390.07
950.843	366.34
951.211	380.75
951.579	381.32
951.947	377.36
952.315	370.3
952.683	369.73
953.05	368.32
953.418	391.77
953.785	381.32
954.153	382.16
954.52	384.71
954.888	372.84
955.255	383.01
955.622	377.36
955.989	392.33
956.356	393.18
956.723	392.33
957.09	370.86
957.457	395.16
957.824	365.21
958.191	358.15
958.557	373.12
958.924	371.15
959.291	385.27
959.657	397.7
960.023	365.5
960.39	353.63
960.756	366.63
961.122	340.91
961.488	408.71
961.855	397.7
962.221	386.97
962.586	377.36
962.952	393.46
963.318	371.71
963.684	388.38
964.05	380.19
964.415	371.43
964.781	383.58
965.146	390.07
965.512	370.02
965.877	387.25
966.242	362.11
966.608	401.37
966.973	376.8
967.338	381.03
967.703	377.93
968.068	416.62
968.433	379.9
968.797	373.69
969.162	376.23
969.527	369.45
969.891	378.21
970.256	384.71
970.62	379.62
970.985	367.19
971.349	379.9
971.714	391.48
972.078	363.8
972.442	367.19
972.806	358.72
973.17	366.06
973.534	373.41
973.898	370.02
974.262	414.64
974.625	377.36
974.989	362.11
975.353	384.71
975.716	396.57
976.08	369.45
976.443	359
976.806	355.89
977.17	373.97
977.533	393.74
977.896	360.69
978.259	362.39
978.622	405.89
978.985	349.11
979.348	369.45
979.711	397.42
980.073	373.69
980.436	369.45
980.799	380.47
981.161	368.6
981.524	383.86
981.886	342.61
982.248	371.43
982.611	389.51
982.973	359
983.335	382.16
983.697	352.78
984.059	360.13
984.421	373.41
984.783	400.24
985.145	386.68
985.506	384.71
985.868	401.65
986.23	374.54
986.591	387.53
986.953	344.59
987.314	367.76
987.675	394.59
988.037	520.16
988.398	371.43
988.759	403.63
989.12	381.6
989.481	388.66
989.842	371.43
990.203	385.55
990.564	395.16
990.924	379.34
991.285	478.7
991.646	381.6
992.006	383.29
992.367	359.85
992.727	383.86
993.087	405.89
993.448	382.16
993.808	403.91
994.168	362.67
994.528	366.34
994.888	368.6
995.248	414.92
995.608	382.45
995.967	374.82
996.327	374.54
996.687	359
997.046	381.88
997.406	399.39
997.765	369.73
998.125	382.16
998.484	390.92
998.843	386.12
999.202	378.77
999.561	369.17
999.92	349.96
1000.279	393.74
1000.638	367.47
1000.997	362.95
1001.356	348.54
1001.715	375.67
1002.073	394.31
1002.432	399.11
1002.79	382.45
1003.149	399.39
1003.507	395.44
1003.865	416.05
1004.224	377.93
1004.582	372.84
1004.94	385.84
1005.298	383.86
1005.656	382.16
1006.014	401.09
1006.371	383.29
1006.729	371.99
1007.087	382.16
1007.445	389.23
1007.802	375.95
1008.16	394.87
1008.517	400.8
1008.874	365.78
1009.232	391.77
1009.589	387.53
1009.946	396.57
1010.303	388.1
1010.66	401.37
1011.017	379.34
1011.374	402.78
1011.731	374.54
1012.087	368.04
1012.444	378.77
1012.801	382.45
1013.157	394.31
1013.513	392.05
1013.87	361.26
1014.226	383.29
1014.582	364.65
1014.939	347.98
1015.295	362.67
1015.651	370.3
1016.007	384.14
1016.363	389.23
1016.719	380.47
1017.074	408.43
1017.43	376.23
1017.786	384.71
1018.141	371.15
1018.497	392.05
1018.852	366.06
1019.208	352.78
1019.563	380.75
1019.918	395.72
1020.273	373.41
1020.628	371.43
1020.983	358.15
1021.338	375.67
1021.693	371.71
1022.048	368.89
1022.403	371.71
1022.757	347.98
1023.112	351.93
1023.467	379.9
1023.821	344.87
1024.175	375.95
1024.53	381.6
1024.884	374.25
1025.238	399.11
1025.592	370.02
1025.946	360.13
1026.3	375.38
1026.654	399.67
1027.008	380.19
1027.362	371.99
1027.716	367.76
1028.069	387.53
1028.423	364.93
1028.777	377.36
1029.13	364.08
1029.483	371.71
1029.837	379.9
1030.19	365.78
1030.543	387.25
1030.896	377.64
1031.249	350.8
1031.602	361.54
1031.955	383.58
1032.308	404.19
1032.661	390.07
1033.013	400.24
1033.366	383.58
1033.719	386.12
1034.071	386.12
1034.424	399.39
1034.776	365.5
1035.128	367.47
1035.48	362.11
1035.833	388.94
1036.185	372.28
1036.537	372.28
1036.889	372.28
