Data from SCSF78-405_irradiation_FLMS019251_22-29-27-974.txt Node
Date: Fri Feb 22 22:29:27 PST 2019
User: mu3e
Spectrometer: FLMS01925
Trigger mode: 0
Integration Time (sec): 1.206000E-2
Scans to average: 10
Electric dark correction enabled: true
Nonlinearity correction enabled: true
Boxcar width: 0
XAxis mode: Wavelengths
Number of Pixels in Spectrum: 2048
>>>>>Begin Spectral Data<<<<<
187.103	-85.46
187.574	-85.46
188.045	-85.46
188.516	-153.14
188.987	-131.24
189.458	-122.99
189.929	-141.76
190.4	-108.77
190.871	-109.91
191.342	-51.92
191.813	-69.26
192.284	-34.88
192.754	-22.95
193.225	3.46
193.696	16.52
194.166	44.05
194.637	101.34
195.107	101.06
195.578	116.37
196.048	134.51
196.518	144.14
196.989	199.38
197.459	211.84
197.929	231.09
198.399	274.66
198.869	280.32
199.339	298.42
199.809	325.28
200.279	336.87
200.749	323.58
201.219	315.38
201.689	360.61
202.159	359.76
202.628	369.08
203.098	376.43
203.568	378.12
204.037	395.92
204.507	396.2
204.976	393.66
205.445	392.81
205.915	388.01
206.384	396.48
206.853	378.69
207.323	406.65
207.792	415.12
208.261	388.01
208.73	402.41
209.199	410.88
209.668	375.3
210.137	378.97
210.606	383.21
211.075	360.32
211.543	378.97
212.012	371.91
212.481	376.43
212.95	343.65
213.418	381.51
213.887	358.63
214.355	377.27
214.824	354.39
215.292	384.62
215.76	356.93
216.229	369.36
216.697	346.48
217.165	341.96
217.633	353.26
218.101	365.13
218.569	343.37
219.037	353.54
219.505	355.8
219.973	366.54
220.441	368.8
220.909	360.04
221.377	377.84
221.844	362.87
222.312	362.3
222.78	346.76
223.247	358.06
223.715	352.13
224.182	371.62
224.65	359.76
225.117	337.43
225.584	350.43
226.052	349.87
226.519	337.72
226.986	352.98
227.453	364.28
227.92	343.93
228.387	374.17
228.854	352.98
229.321	336.02
229.788	358.63
230.255	357.78
230.722	376.99
231.189	356.37
231.655	374.17
232.122	363.71
232.589	354.95
233.055	379.25
233.522	388.01
233.988	365.13
234.454	367.95
234.921	350.43
235.387	339.13
235.853	375.01
236.32	358.06
236.786	376.71
237.252	392.53
237.718	391.4
238.184	324.43
238.65	349.02
239.116	393.94
239.582	384.34
240.047	369.36
240.513	379.53
240.979	378.4
241.445	365.13
241.91	345.35
242.376	393.66
242.841	340.54
243.307	372.47
243.772	377.56
244.238	387.16
244.703	367.95
245.168	369.93
245.633	360.04
246.099	352.41
246.564	348.46
247.029	359.19
247.494	391.68
247.959	356.08
248.424	363.15
248.889	370.78
249.353	380.1
249.818	357.78
250.283	356.08
250.748	371.62
251.212	367.67
251.677	362.58
252.141	373.88
252.606	382.08
253.07	387.44
253.535	405.23
253.999	378.4
254.463	387.44
254.927	367.39
255.392	378.97
255.856	395.63
256.32	414.55
256.784	400.72
257.248	368.23
257.712	377.84
258.176	378.97
258.64	376.43
259.103	388.85
259.567	388.57
260.031	374.45
260.495	354.95
260.958	396.76
261.422	357.5
261.885	364.28
262.349	367.95
262.812	374.45
263.275	378.69
263.739	381.23
264.202	392.53
264.665	344.78
265.128	372.47
265.591	380.38
266.054	386.88
266.517	393.09
266.98	368.8
267.443	382.36
267.906	387.16
268.369	372.75
268.832	386.31
269.294	367.1
269.757	376.43
270.22	381.79
270.682	371.91
271.145	373.32
271.607	409.19
272.07	368.23
272.532	388.85
272.994	361.74
273.456	396.48
273.919	392.53
274.381	392.81
274.843	394.5
275.305	379.53
275.767	373.88
276.229	367.1
276.691	388.01
277.153	382.36
277.614	380.95
278.076	393.09
278.538	380.38
279	401.85
279.461	406.65
279.923	403.26
280.384	368.52
280.846	380.66
281.307	356.93
281.769	389.14
282.23	377.27
282.691	397.61
283.152	392.24
283.613	388.85
284.075	377.27
284.536	391.68
284.997	398.74
285.458	416.53
285.918	392.53
286.379	384.62
286.84	364.56
287.301	393.94
287.762	386.31
288.222	397.89
288.683	397.05
289.143	397.33
289.604	410.88
290.064	389.14
290.525	392.24
290.985	385.47
291.445	400.15
291.906	400.43
292.366	397.33
292.826	407.49
293.286	397.61
293.746	394.22
294.206	358.35
294.666	375.86
295.126	368.23
295.586	399.87
296.046	382.92
296.506	375.86
296.965	387.73
297.425	385.75
297.884	406.93
298.344	398.46
298.804	422.46
299.263	404.39
299.722	417.66
300.182	406.93
300.641	407.49
301.1	389.98
301.559	381.23
302.019	412.86
302.478	395.63
302.937	392.24
303.396	371.91
303.855	393.09
304.314	383.77
304.772	408.34
305.231	391.11
305.69	399.3
306.149	409.47
306.607	405.52
307.066	389.14
307.524	402.41
307.983	415.96
308.441	432.9
308.9	406.93
309.358	382.92
309.816	399.02
310.275	401.56
310.733	397.05
311.191	382.64
311.649	399.3
312.107	390.83
312.565	423.87
313.023	419.63
313.481	404.39
313.939	412.86
314.397	417.09
314.854	394.22
315.312	407.21
315.77	408.34
316.227	413.71
316.685	405.52
317.142	396.76
317.6	408.34
318.057	420.2
318.514	388.01
318.972	412.58
319.429	395.92
319.886	378.69
320.343	405.52
320.8	425.56
321.257	429.51
321.714	425.56
322.171	418.22
322.628	381.51
323.085	396.76
323.542	369.08
323.998	399.87
324.455	397.61
324.912	381.51
325.368	412.58
325.825	411.73
326.281	384.05
326.738	388.85
327.194	399.3
327.65	394.22
328.107	380.38
328.563	388.01
329.019	394.22
329.475	390.55
329.931	390.27
330.387	418.5
330.843	371.06
331.299	374.17
331.755	438.83
332.211	398.46
332.666	411.45
333.122	405.23
333.578	399.59
334.033	429.8
334.489	392.53
334.944	409.75
335.4	430.36
335.855	395.07
336.31	398.74
336.766	402.98
337.221	382.64
337.676	391.68
338.131	419.92
338.586	399.59
339.041	400.72
339.496	388.29
339.951	446.45
340.406	391.11
340.861	401.56
341.316	399.87
341.771	405.23
342.225	399.3
342.68	401.28
343.134	407.21
343.589	408.06
344.043	389.7
344.498	398.74
344.952	405.23
345.406	417.09
345.861	406.65
346.315	412.86
346.769	421.33
347.223	409.75
347.677	420.2
348.131	406.36
348.585	419.35
349.039	410.32
349.493	409.19
349.947	404.67
350.401	430.08
350.854	404.39
351.308	385.18
351.762	411.45
352.215	396.76
352.669	416.81
353.122	391.96
353.575	401.56
354.029	415.12
354.482	422.17
354.935	413.14
355.388	441.09
355.842	409.75
356.295	413.99
356.748	408.34
357.201	404.39
357.654	437.98
358.106	407.21
358.559	417.66
359.012	407.78
359.465	425.56
359.917	395.63
360.37	427.82
360.823	415.68
361.275	415.12
361.728	418.79
362.18	402.13
362.632	421.05
363.085	420.76
363.537	408.91
363.989	405.8
364.441	412.86
364.893	389.7
365.345	400.15
365.797	417.09
366.249	412.86
366.701	401.85
367.153	416.25
367.605	399.87
368.057	463.38
368.508	410.6
368.96	413.99
369.411	408.91
369.863	412.01
370.314	429.23
370.766	413.42
371.217	424.15
371.669	408.62
372.12	409.19
372.571	413.99
373.022	419.07
373.473	434.6
373.924	422.17
374.375	402.98
374.826	397.33
375.277	435.16
375.728	406.65
376.179	401.85
376.63	425.56
377.08	403.26
377.531	421.61
377.981	403.54
378.432	422.74
378.883	423.87
379.333	421.33
379.783	408.91
380.234	410.32
380.684	441.93
381.134	402.13
381.584	428.67
382.034	407.21
382.485	426.13
382.935	438.27
383.385	396.2
383.834	423.02
384.284	429.23
384.734	454.35
385.184	432.34
385.634	417.38
386.083	396.76
386.533	454.35
386.982	402.41
387.432	437.42
387.881	405.8
388.331	408.91
388.78	421.05
389.229	430.36
389.679	402.69
390.128	413.14
390.577	412.86
391.026	450.4
391.475	397.05
391.924	426.97
392.373	420.2
392.822	422.17
393.27	422.46
393.719	433.75
394.168	441.93
394.617	414.27
395.065	433.75
395.514	430.64
395.962	437.42
396.411	432.9
396.859	430.93
397.307	455.48
397.756	456.61
398.204	428.67
398.652	429.51
399.1	460.28
399.548	437.98
399.996	460.56
400.444	447.01
400.892	464.79
401.34	432.06
401.788	443.06
402.236	459.71
402.683	474.95
403.131	450.4
403.579	467.9
404.026	474.67
404.474	458.58
404.921	466.2
405.369	464.51
405.816	423.3
406.263	449.55
406.71	467.61
407.158	491.59
407.605	459.43
408.052	461.12
408.499	478.05
408.946	468.18
409.393	474.95
409.84	482
410.286	494.69
410.733	506.54
411.18	504.85
411.626	551.93
412.073	633.05
412.52	649.37
412.966	770.86
413.413	881.22
413.859	1010.18
414.305	1236.18
414.752	1528.61
415.198	1787.5
415.644	2224.19
416.09	2741.63
416.536	3223.74
416.982	3842.11
417.428	4530.47
417.874	5232.88
418.32	6113.47
418.766	6948.86
419.211	7990.13
419.657	8816.73
420.103	9962.18
420.548	10777.19
420.994	12049.57
421.439	13017.05
421.885	14077.98
422.33	15373.21
422.776	16405.74
423.221	17383.2
423.666	18586.94
424.111	19881.01
424.556	20680.91
425.001	22024.43
425.446	23400.61
425.891	24578.39
426.336	25448.63
426.781	26661.64
427.226	28440.74
427.671	29143.95
428.115	29991.61
428.56	31620.98
429.005	33051.65
429.449	33426.17
429.894	34860.82
430.338	35845.43
430.782	35809.76
431.227	37493.83
431.671	37935.49
432.115	39157.52
432.559	40137.2
433.003	39893.45
433.447	40860.12
433.891	41213.92
434.335	41663.76
434.779	42445.34
435.223	42473.42
435.667	42638.74
436.111	43003.08
436.554	43119.92
436.998	42649.93
437.442	42678.78
437.885	44740.66
438.328	43024
438.772	43486.76
439.215	43923.96
439.659	43507.97
440.102	43929.72
440.545	43319.85
440.988	43119.67
441.431	44051.55
441.874	43368.24
442.317	43844.45
442.76	43364.74
443.203	42717.34
443.646	43353.02
444.089	42997.6
444.531	43473.28
444.974	42459.75
445.417	43348.03
445.859	42463.73
446.302	43437.84
446.744	42979.42
447.186	43851.2
447.629	43087.78
448.071	43057.13
448.513	43099.49
448.956	44367.35
449.398	43707.25
449.84	42483.86
450.282	43042.19
450.724	43692.76
451.166	43407.65
451.607	43321.59
452.049	43204.9
452.491	44273.64
452.933	43884.7
453.374	44592.8
453.816	44905.97
454.257	44596.32
454.699	45428.29
455.14	45268.53
455.582	44953.48
456.023	44975.61
456.464	45070.43
456.905	45662.15
457.347	45647.26
457.788	44778.08
458.229	44759.49
458.67	45787.42
459.111	44077.58
459.552	44069.57
459.992	43970.49
460.433	43699.5
460.874	42799.94
461.315	43967.23
461.755	42945.56
462.196	42488.08
462.636	41810.22
463.077	41475.02
463.517	41557.24
463.957	41821.13
464.398	41602.81
464.838	41708.61
465.278	40569.18
465.718	40805.27
466.158	39802.05
466.598	40150.51
467.038	39815.11
467.478	40165.3
467.918	40412.46
468.358	39572.56
468.798	39437.94
469.237	39216.54
469.677	39033.36
470.117	39844.67
470.556	37672.46
470.996	38221.48
471.435	38455.6
471.874	38830.61
472.314	38772.14
472.753	37833.98
473.192	37947.01
473.631	37668.54
474.07	37785.2
474.509	37726.62
474.948	38043.39
475.387	37422.05
475.826	36589.83
476.265	38260.74
476.704	37647.46
477.143	37990.66
477.581	37762.16
478.02	38219.52
478.458	37003.59
478.897	37700.15
479.335	38737.26
479.774	38041.67
480.212	38500.04
480.65	38249.2
481.089	38026.22
481.527	37612.17
481.965	37232.25
482.403	39027.22
482.841	38652.28
483.279	38780
483.717	38787.13
484.155	38409.95
484.592	38730.14
485.03	38891.06
485.468	37834.47
485.905	38220.25
486.343	38549.63
486.781	38025.98
487.218	37359.6
487.655	37402.7
488.093	36585.67
488.53	37919.79
488.967	37109.34
489.405	36931.14
489.842	36173.41
490.279	36140.9
490.716	35826.86
491.153	36108.63
491.59	35743.79
492.027	35182.07
492.463	34743.42
492.9	33954.65
493.337	33861.97
493.773	33883.92
494.21	33292.79
494.647	33015.32
495.083	32379.72
495.519	32029.86
495.956	31988.17
496.392	31313.01
496.828	31174.01
497.265	30471.56
497.701	30720.86
498.137	30376.16
498.573	29613.27
499.009	29976.47
499.445	29226.99
499.881	28912.62
500.316	29040.88
500.752	28260.56
501.188	28014.07
501.624	27946.8
502.059	26897.13
502.495	26792.26
502.93	26513.84
503.366	26818.97
503.801	26225.96
504.236	25989.46
504.672	25540.97
505.107	25247.92
505.542	24783.54
505.977	24824.86
506.412	24278.37
506.847	24602
507.282	24039.5
507.717	23568.06
508.152	23734.71
508.587	23435.39
509.021	22727.25
509.456	22611.39
509.891	22654.13
510.325	22592.12
510.76	22186.46
511.194	21954.41
511.628	22143.67
512.063	21317.76
512.497	21478.56
512.931	21028.22
513.366	20895.04
513.8	20809.2
514.234	20237.68
514.668	20201.9
515.102	20382.99
515.536	19595.21
515.969	19877.28
516.403	19431.94
516.837	19045.17
517.271	19121.91
517.704	18825.59
518.138	18657.28
518.571	18553.51
519.005	18161.89
519.438	18071.73
519.871	17972.3
520.305	17481.28
520.738	17411.48
521.171	17048.49
521.604	17182.96
522.037	16929.25
522.47	16627.47
522.903	16365.84
523.336	16273.23
523.769	16050.02
524.202	15692.93
524.634	15648.42
525.067	15506.32
525.5	15445.43
525.932	15265.98
526.365	14906.28
526.797	14797.89
527.23	14762.33
527.662	14304.08
528.094	14203.56
528.527	14000.38
528.959	13849.68
529.391	13581.95
529.823	13170.75
530.255	13208.78
530.687	12939.91
531.119	12692.35
531.551	12677.62
531.982	12388.86
532.414	12237.73
532.846	11947.41
533.277	11875.29
533.709	11529.88
534.14	11407.31
534.572	11320.95
535.003	11190.32
535.435	10967.22
535.866	10788.21
536.297	10524.64
536.728	10551.84
537.159	10440.47
537.59	10221.66
538.022	10166.4
538.452	9910.71
538.883	9769.58
539.314	9698.2
539.745	9501.18
540.176	9399.49
540.606	9142.64
541.037	9097.12
541.468	8955.31
541.898	8849.38
542.328	8794.44
542.759	8532.71
543.189	8451.17
543.619	8350.86
544.05	8181.54
544.48	8033.38
544.91	8008.89
545.34	7851.15
545.77	7717.78
546.2	7708.38
546.63	7519.44
547.06	7515.26
547.489	7366.37
547.919	7143.63
548.349	7191.35
548.778	7105.33
549.208	7025.54
549.637	6932.57
550.067	6811.4
550.496	6795.62
550.926	6693.52
551.355	6498.29
551.784	6504.62
552.213	6405.18
552.642	6275.01
553.071	6307.76
553.5	6206.82
553.929	5944.55
554.358	5978.99
554.787	5910.1
555.216	5854.42
555.645	5722.81
556.073	5702.63
556.502	5644.46
556.93	5478.79
557.359	5457.77
557.787	5425.29
558.216	5369.1
558.644	5291.81
559.072	5270.48
559.5	5194.99
559.929	5168.3
560.357	5184.32
560.785	5042.77
561.213	5048.12
561.641	4916.28
562.068	4931.8
562.496	4875.6
562.924	4806.25
563.352	4820.71
563.779	4760.69
564.207	4754.26
564.634	4698.76
565.062	4743.27
565.489	4596.27
565.917	4620.16
566.344	4540.41
566.771	4540.14
567.198	4444.2
567.625	4384.49
568.053	4347.08
568.48	4304
568.907	4303.47
569.333	4201.62
569.76	4114.24
570.187	4130.15
570.614	4002.19
571.04	4157.4
571.467	3914.34
571.894	3865.11
572.32	3753.57
572.747	3704.25
573.173	3661.96
573.599	3659.52
574.026	3525.73
574.452	3515.4
574.878	3427.9
575.304	3325.06
575.73	3292.66
576.156	3274.96
576.582	3209.02
577.008	3171.12
577.434	3090.37
577.86	3063.89
578.285	3018.55
578.711	2952.14
579.137	2963.62
579.562	2849.55
579.988	2865.43
580.413	2792.32
580.838	2804.65
581.264	2729.57
581.689	2679.94
582.114	2644.28
582.539	2625.07
582.964	2555.05
583.39	2525.65
583.814	2509.16
584.239	2502.84
584.664	2445.92
585.089	2362.53
585.514	2355.1
585.939	2334.72
586.363	2282.37
586.788	2239.64
587.212	2263.62
587.637	2189.99
588.061	2184.19
588.485	2175.64
588.91	2131.74
589.334	2097.22
589.758	2078.71
590.182	2032.27
590.606	1994.11
591.03	1957.04
591.454	1949.01
591.878	1954.55
592.302	1960.64
592.726	1875.08
593.15	1908.32
593.573	1845.16
593.997	1758.65
594.42	1779.46
594.844	1745.06
595.267	1772.52
595.691	1720.63
596.114	1688.43
596.537	1650.38
596.96	1687.88
597.384	1700.09
597.807	1640.66
598.23	1598.97
598.653	1612.87
599.076	1623.98
599.499	1615.93
599.921	1555.59
600.344	1556.43
600.767	1532.22
601.189	1534.45
601.612	1516.64
602.034	1511.63
602.457	1519.98
602.879	1508.85
603.302	1503
603.724	1455.95
604.146	1482.13
604.568	1431.16
604.991	1474.61
605.413	1494.65
605.835	1427.26
606.257	1424.48
606.678	1426.15
607.1	1435.34
607.522	1402.18
607.944	1387.13
608.365	1411.66
608.787	1357.86
609.209	1368.17
609.63	1331.64
610.051	1345.03
610.473	1330.8
610.894	1335.55
611.315	1329.69
611.737	1272.2
612.158	1298.44
612.579	1254.61
613	1245.96
613.421	1232.55
613.842	1220.82
614.263	1225.57
614.683	1174.15
615.104	1197.35
615.525	1144.24
615.945	1172.76
616.366	1102.56
616.787	1130.82
617.207	1076.54
617.627	1074.58
618.048	1087.45
618.468	1087.17
618.888	1038.75
619.308	1038.47
619.728	1031.75
620.148	1019.98
620.568	1043.23
620.988	1009.34
621.408	977.12
621.828	999.54
622.248	968.99
622.668	971.23
623.087	976.56
623.507	955.26
623.926	955.26
624.346	926.38
624.765	958.06
625.185	937.32
625.604	917.13
626.023	902.82
626.442	911.8
626.861	889.92
627.28	852.59
627.699	887.11
628.118	837.71
628.537	859.33
628.956	848.94
629.375	836.87
629.794	826.76
630.212	816.37
630.631	821.71
631.049	798.96
631.468	813
631.886	792.5
632.305	792.78
632.723	762.15
633.141	779.01
633.559	784.63
633.978	762.43
634.396	787.72
634.814	768.33
635.232	752.03
635.65	740.23
636.067	719.99
636.485	714.36
636.903	720.83
637.321	733.2
637.738	712.96
638.156	721.95
638.573	727.3
638.991	706.21
639.408	702.83
639.825	676.95
640.243	689.61
640.66	684.27
641.077	683.7
641.494	671.89
641.911	683.42
642.328	703.96
642.745	667.1
643.162	684.55
643.579	646.84
643.995	684.27
644.412	652.47
644.829	660.91
645.245	618.41
645.662	635.3
646.078	635.58
646.495	685.67
646.911	611.93
647.327	625.16
647.743	620.38
648.159	622.35
648.576	598.69
648.992	615.31
649.408	610.24
649.824	598.13
650.239	612.21
650.655	630.51
651.071	597.29
651.487	589.12
651.902	622.07
652.318	617.28
652.733	593.91
653.149	586.02
653.564	577.85
653.979	596.44
654.395	560.38
654.81	604.04
655.225	562.63
655.64	589.4
656.055	555.03
656.47	573.06
656.885	561.51
657.3	571.37
657.715	555.87
658.13	529.38
658.544	564.04
658.959	554.74
659.374	528.53
659.788	532.76
660.202	520.07
660.617	552.49
661.031	564.32
661.445	529.66
661.86	570.81
662.274	528.25
662.688	516.97
663.102	522.89
663.516	532.48
663.93	535.86
664.344	518.66
664.758	525.71
665.171	522.61
665.585	526.84
665.999	542.06
666.412	497.8
666.826	516.69
667.239	506.26
667.653	520.35
668.066	524.87
668.479	506.54
668.892	501.46
669.306	505.41
669.719	528.53
670.132	514.72
670.545	480.87
670.958	512.18
671.37	515.84
671.783	504.28
672.196	517.54
672.609	503.72
673.021	492.44
673.434	523.46
673.846	488.21
674.259	509.92
674.671	506.54
675.084	482
675.496	509.08
675.908	471.85
676.32	511.05
676.732	470.15
677.144	495.82
677.556	493
677.968	473.26
678.38	482.85
678.792	470.72
679.204	483.41
679.615	485.1
680.027	516.97
680.439	515.28
680.85	491.31
681.262	484.54
681.673	474.95
682.084	446.45
682.496	473.82
682.907	494.13
683.318	461.12
683.729	475.79
684.14	463.38
684.551	459.15
684.962	485.67
685.373	463.66
685.784	462.25
686.194	474.38
686.605	454.92
687.016	454.07
687.426	442.5
687.837	465.92
688.247	437.98
688.657	454.92
689.068	471.28
689.478	453.5
689.888	425
690.298	451.81
690.708	424.15
691.118	466.48
691.528	456.04
691.938	470.15
692.348	405.23
692.758	473.26
693.168	445.04
693.577	459.71
693.987	452.94
694.396	452.94
694.806	420.76
695.215	420.48
695.625	413.99
696.034	435.44
696.443	433.75
696.852	437.14
697.262	437.7
697.671	420.48
698.08	441.09
698.489	429.8
698.897	458.3
699.306	442.22
699.715	435.16
700.124	452.38
700.532	431.49
700.941	433.18
701.35	421.33
701.758	457.46
702.166	432.62
702.575	434.88
702.983	419.35
703.391	423.3
703.799	422.74
704.208	441.09
704.616	413.71
705.024	430.64
705.432	438.27
705.839	434.03
706.247	436.29
706.655	417.94
707.063	445.32
707.47	400.72
707.878	410.88
708.285	430.64
708.693	432.62
709.1	426.97
709.508	440.24
709.915	419.63
710.322	418.79
710.729	428.39
711.136	437.42
711.543	435.72
711.95	415.68
712.357	403.26
712.764	424.72
713.171	448.43
713.578	417.09
713.984	411.45
714.391	420.48
714.797	426.13
715.204	430.64
715.61	425.56
716.017	393.37
716.423	408.62
716.829	422.46
717.236	414.83
717.642	403.26
718.048	426.97
718.454	410.32
718.86	412.58
719.266	418.5
719.671	409.19
720.077	420.76
720.483	434.03
720.889	396.48
721.294	422.46
721.7	390.27
722.105	412.01
722.511	425.84
722.916	402.13
723.321	416.81
723.726	444.19
724.132	419.92
724.537	418.22
724.942	387.16
725.347	413.14
725.752	419.63
726.156	386.03
726.561	422.46
726.966	391.68
727.371	395.07
727.775	430.36
728.18	426.13
728.584	425.56
728.989	389.14
729.393	411.73
729.798	402.69
730.202	426.69
730.606	415.68
731.01	423.02
731.414	399.02
731.818	426.69
732.222	418.5
732.626	412.29
733.03	400.43
733.434	410.03
733.837	411.45
734.241	434.6
734.645	405.52
735.048	396.76
735.452	415.68
735.855	438.27
736.258	405.23
736.662	399.59
737.065	432.9
737.468	433.47
737.871	413.14
738.274	395.92
738.677	413.42
739.08	390.27
739.483	393.94
739.886	397.33
740.289	393.37
740.691	380.1
741.094	408.06
741.497	399.3
741.899	416.81
742.302	392.81
742.704	416.81
743.106	403.26
743.508	393.37
743.911	415.4
744.313	394.22
744.715	405.23
745.117	409.75
745.519	416.25
745.921	425.84
746.323	418.22
746.724	386.6
747.126	406.08
747.528	410.6
747.929	390.27
748.331	410.6
748.732	429.8
749.134	386.31
749.535	394.79
749.936	403.54
750.338	408.91
750.739	413.71
751.14	393.94
751.541	396.76
751.942	422.17
752.343	419.35
752.744	410.6
753.144	400.15
753.545	413.71
753.946	395.63
754.346	406.93
754.747	386.31
755.148	422.74
755.548	393.66
755.948	376.99
756.349	400.43
756.749	424.15
757.149	417.09
757.549	417.66
757.949	398.46
758.349	409.75
758.749	429.8
759.149	403.54
759.549	384.05
759.949	386.03
760.348	407.21
760.748	393.94
761.148	401.28
761.547	386.88
761.947	390.55
762.346	405.23
762.745	416.25
763.145	380.95
763.544	410.03
763.943	363.43
764.342	393.66
764.741	406.08
765.14	397.61
765.539	405.23
765.938	400.15
766.336	374.45
766.735	405.52
767.134	407.49
767.532	366.54
767.931	384.9
768.329	395.92
768.728	406.65
769.126	408.91
769.525	408.34
769.923	384.9
770.321	389.98
770.719	395.63
771.117	378.12
771.515	397.89
771.913	392.24
772.311	390.27
772.709	370.49
773.106	400.43
773.504	390.55
773.902	367.67
774.299	417.94
774.697	396.48
775.094	409.19
775.491	377.27
775.889	396.76
776.286	414.27
776.683	419.63
777.08	390.27
777.477	379.82
777.874	397.61
778.271	390.55
778.668	398.74
779.065	396.48
779.462	411.16
779.858	397.33
780.255	409.75
780.652	396.2
781.048	388.57
781.444	396.48
781.841	401.56
782.237	403.26
782.633	393.94
783.03	387.16
783.426	397.61
783.822	386.31
784.218	391.68
784.614	399.87
785.01	402.98
785.405	398.46
785.801	403.26
786.197	393.37
786.593	395.07
786.988	366.54
787.384	390.83
787.779	390.55
788.174	403.82
788.57	398.17
788.965	395.92
789.36	403.82
789.755	380.66
790.15	368.23
790.545	389.7
790.94	418.79
791.335	386.31
791.73	399.3
792.125	384.34
792.52	415.12
792.914	408.06
793.309	396.76
793.703	390.27
794.098	360.61
794.492	386.6
794.887	384.9
795.281	378.12
795.675	370.78
796.069	387.44
796.463	388.85
796.857	378.12
797.251	380.95
797.645	401.56
798.039	401.28
798.433	413.14
798.826	396.76
799.22	404.1
799.614	403.26
800.007	400.15
800.401	391.68
800.794	397.89
801.187	387.73
801.581	390.27
801.974	389.98
802.367	405.23
802.76	390.55
803.153	421.61
803.546	392.53
803.939	402.41
804.332	370.21
804.725	393.66
805.117	405.23
805.51	378.69
805.903	395.35
806.295	378.97
806.688	397.89
807.08	389.98
807.472	389.7
807.865	393.37
808.257	389.14
808.649	378.69
809.041	392.24
809.433	391.96
809.825	386.03
810.217	403.26
810.609	405.8
811.001	392.81
811.392	373.88
811.784	352.69
812.175	410.03
812.567	361.17
812.958	394.5
813.35	391.68
813.741	373.04
814.132	387.16
814.524	404.1
814.915	395.92
815.306	380.95
815.697	377.27
816.088	383.77
816.479	389.42
816.87	393.66
817.26	396.48
817.651	382.64
818.042	404.1
818.432	358.35
818.823	390.27
819.213	396.48
819.604	347.61
819.994	384.34
820.384	383.77
820.775	393.66
821.165	367.67
821.555	396.2
821.945	369.36
822.335	371.34
822.725	418.22
823.114	401.28
823.504	383.49
823.894	375.86
824.284	389.7
824.673	406.65
825.063	393.94
825.452	371.91
825.842	397.61
826.231	388.29
826.62	367.67
827.009	398.17
827.399	377.84
827.788	376.71
828.177	405.23
828.566	388.57
828.954	409.47
829.343	390.83
829.732	375.01
830.121	373.04
830.509	413.14
830.898	388.01
831.286	412.58
831.675	391.4
832.063	388.57
832.452	388.85
832.84	381.79
833.228	379.25
833.616	412.01
834.004	378.4
834.392	382.64
834.78	365.69
835.168	411.73
835.556	395.07
835.944	390.83
836.331	396.76
836.719	380.66
837.107	366.82
837.494	384.9
837.881	399.87
838.269	416.53
838.656	362.02
839.043	385.75
839.431	401.85
839.818	402.41
840.205	407.21
840.592	389.42
840.979	395.63
841.366	404.67
841.752	388.57
842.139	378.69
842.526	383.77
842.912	379.82
843.299	386.03
843.685	376.43
844.072	365.69
844.458	357.5
844.844	392.53
845.231	388.57
845.617	380.1
846.003	391.11
846.389	375.3
846.775	374.73
847.161	391.96
847.547	375.3
847.933	380.38
848.318	387.44
848.704	382.08
849.09	410.32
849.475	391.11
849.861	383.49
850.246	360.32
850.631	369.08
851.017	408.06
851.402	389.7
851.787	377.56
852.172	405.23
852.557	386.6
852.942	375.58
853.327	391.4
853.712	377.27
854.097	397.33
854.481	387.44
854.866	389.7
855.25	389.14
855.635	416.25
856.019	387.16
856.404	399.02
856.788	384.9
857.172	375.86
857.557	415.96
857.941	418.5
858.325	373.32
858.709	397.05
859.093	361.17
859.477	378.4
859.86	390.55
860.244	429.51
860.628	403.54
861.012	382.92
861.395	354.11
861.779	363.71
862.162	407.78
862.545	407.21
862.929	372.47
863.312	382.08
863.695	368.23
864.078	387.73
864.461	368.8
864.844	372.75
865.227	362.02
865.61	377.56
865.993	366.82
866.376	390.83
866.758	386.31
867.141	381.79
867.523	389.7
867.906	383.21
868.288	381.79
868.671	380.38
869.053	404.39
869.435	377.84
869.817	392.53
870.199	376.71
870.581	367.95
870.963	395.63
871.345	360.89
871.727	385.18
872.109	405.8
872.491	393.94
872.872	370.49
873.254	357.78
873.635	392.53
874.017	407.78
874.398	375.01
874.779	380.95
875.161	393.66
875.542	365.97
875.923	385.47
876.304	385.18
876.685	391.68
877.066	383.49
877.447	384.05
877.828	379.82
878.208	398.17
878.589	383.77
878.97	384.05
879.35	405.52
879.731	392.81
880.111	393.66
880.491	400.72
880.872	375.01
881.252	382.08
881.632	369.65
882.012	383.49
882.392	398.46
882.772	379.53
883.152	399.3
883.532	381.51
883.912	374.17
884.291	363.43
884.671	375.3
885.051	377.84
885.43	363.71
885.81	409.75
886.189	375.3
886.568	406.36
886.948	383.49
887.327	375.58
887.706	370.78
888.085	395.63
888.464	388.85
888.843	389.14
889.222	368.8
889.601	382.36
889.979	386.03
890.358	349.87
890.737	382.08
891.115	391.96
891.494	375.3
891.872	351
892.25	382.36
892.629	369.36
893.007	374.73
893.385	348.46
893.763	369.93
894.141	377.56
894.519	385.75
894.897	381.23
895.275	366.54
895.653	397.61
896.03	392.81
896.408	364.84
896.786	354.11
897.163	379.53
897.541	391.4
897.918	385.75
898.295	397.05
898.673	367.1
899.05	369.93
899.427	369.36
899.804	401.28
900.181	381.51
900.558	386.03
900.935	385.75
901.312	406.36
901.688	374.73
902.065	367.39
902.442	385.47
902.818	400.72
903.195	364
903.571	380.66
903.947	369.08
904.324	374.45
904.7	352.69
905.076	385.47
905.452	375.01
905.828	383.21
906.204	384.9
906.58	359.48
906.956	376.99
907.331	376.99
907.707	370.21
908.083	379.53
908.458	376.71
908.834	379.53
909.209	366.54
909.585	374.73
909.96	385.47
910.335	379.53
910.71	351
911.086	351
911.461	401.85
911.836	385.75
912.21	379.25
912.585	363.15
912.96	400.43
913.335	372.47
913.709	376.43
914.084	370.78
914.459	374.17
914.833	363.71
915.207	374.17
915.582	366.26
915.956	371.91
916.33	389.7
916.704	383.49
917.078	377.27
917.452	383.21
917.826	377.84
918.2	367.67
918.574	374.73
918.948	378.12
919.321	388.85
919.695	360.89
920.068	355.8
920.442	391.68
920.815	382.36
921.189	389.42
921.562	388.85
921.935	400.43
922.308	360.89
922.681	397.33
923.054	378.4
923.427	370.78
923.8	347.04
924.173	381.23
924.546	390.27
924.919	364.84
925.291	388.01
925.664	360.89
926.036	391.11
926.409	359.48
926.781	378.12
927.153	380.66
927.526	386.88
927.898	385.75
928.27	375.58
928.642	389.98
929.014	353.82
929.386	380.1
929.758	375.86
930.129	389.98
930.501	365.97
930.873	379.82
931.244	388.85
931.616	369.36
931.987	386.6
932.359	364
932.73	359.76
933.101	366.54
933.472	365.13
933.843	380.95
934.214	374.45
934.585	398.74
934.956	373.88
935.327	394.22
935.698	408.34
936.069	381.23
936.439	374.73
936.81	368.8
937.18	366.54
937.551	380.38
937.921	351.56
938.292	380.95
938.662	395.07
939.032	388.85
939.402	366.82
939.772	371.34
940.142	369.65
940.512	391.11
940.882	364
941.252	409.47
941.621	367.39
941.991	364.84
942.361	388.85
942.73	369.93
943.1	381.79
943.469	386.03
943.838	384.9
944.208	375.86
944.577	354.11
944.946	396.2
945.315	379.25
945.684	370.78
946.053	394.79
946.422	394.22
946.791	386.6
947.159	376.43
947.528	353.26
947.897	369.08
948.265	401.28
948.634	394.5
949.002	396.76
949.371	378.97
949.739	370.78
950.107	360.89
950.475	400.43
950.843	378.97
951.211	394.5
951.579	408.06
951.947	375.01
952.315	351.28
952.683	401
953.05	361.74
953.418	357.22
953.785	372.19
954.153	369.93
954.52	399.3
954.888	347.04
955.255	379.53
955.622	381.23
955.989	366.82
956.356	395.63
956.723	379.25
957.09	393.94
957.457	363.15
957.824	389.98
958.191	376.71
958.557	373.04
958.924	388.57
959.291	397.05
959.657	362.58
960.023	364
960.39	369.36
960.756	354.11
961.122	363.71
961.488	386.88
961.855	386.6
962.221	394.22
962.586	371.06
962.952	371.06
963.318	387.73
963.684	369.08
964.05	363.43
964.415	371.06
964.781	380.1
965.146	366.26
965.512	397.61
965.877	402.98
966.242	377.27
966.608	376.14
966.973	359.19
967.338	382.08
967.703	373.88
968.068	363.71
968.433	384.9
968.797	358.91
969.162	381.79
969.527	359.48
969.891	362.58
970.256	358.35
970.62	368.52
970.985	402.13
971.349	359.76
971.714	366.54
972.078	360.89
972.442	378.97
972.806	375.58
973.17	361.17
973.534	373.04
973.898	397.05
974.262	363.71
974.625	400.15
974.989	383.49
975.353	373.32
975.716	375.3
976.08	386.6
976.443	380.38
976.806	375.58
977.17	390.55
977.533	395.07
977.896	389.7
978.259	358.06
978.622	384.9
978.985	376.99
979.348	363.15
979.711	367.1
980.073	375.86
980.436	388.85
980.799	368.52
981.161	370.49
981.524	392.53
981.886	373.6
982.248	369.93
982.611	368.52
982.973	376.43
983.335	393.37
983.697	391.68
984.059	353.54
984.421	388.01
984.783	363.71
985.145	349.87
985.506	377.56
985.868	359.48
986.23	363.15
986.591	356.65
986.953	385.75
987.314	355.52
987.675	364.28
988.037	464.51
988.398	362.58
988.759	375.01
989.12	376.71
989.481	362.02
989.842	371.91
990.203	366.26
990.564	375.01
990.924	369.08
991.285	511.61
991.646	356.65
992.006	339.41
992.367	362.02
992.727	369.36
993.087	365.97
993.448	361.45
993.808	373.32
994.168	359.76
994.528	342.52
994.888	366.54
995.248	364.84
995.608	387.44
995.967	359.19
996.327	382.92
996.687	387.16
997.046	370.49
997.406	369.65
997.765	363.15
998.125	374.45
998.484	365.13
998.843	365.69
999.202	375.01
999.561	373.88
999.92	378.4
1000.279	351
1000.638	359.19
1000.997	373.6
1001.356	363.43
1001.715	388.29
1002.073	370.21
1002.432	341.11
1002.79	390.55
1003.149	385.47
1003.507	388.01
1003.865	382.64
1004.224	371.34
1004.582	401
1004.94	379.82
1005.298	348.46
1005.656	359.76
1006.014	354.39
1006.371	361.17
1006.729	354.11
1007.087	370.21
1007.445	385.18
1007.802	388.01
1008.16	389.7
1008.517	354.39
1008.874	390.27
1009.232	351.56
1009.589	356.93
1009.946	357.22
1010.303	378.97
1010.66	369.08
1011.017	395.07
1011.374	388.85
1011.731	337.43
1012.087	362.3
1012.444	370.21
1012.801	400.15
1013.157	379.53
1013.513	348.17
1013.87	392.81
1014.226	382.36
1014.582	379.82
1014.939	361.74
1015.295	384.62
1015.651	383.21
1016.007	375.58
1016.363	386.88
1016.719	387.16
1017.074	382.36
1017.43	352.98
1017.786	347.32
1018.141	395.35
1018.497	365.97
1018.852	369.65
1019.208	364.28
1019.563	374.73
1019.918	349.3
1020.273	366.82
1020.628	345.91
1020.983	386.31
1021.338	360.04
1021.693	375.3
1022.048	354.39
1022.403	417.66
1022.757	386.6
1023.112	376.99
1023.467	355.52
1023.821	357.5
1024.175	366.26
1024.53	378.12
1024.884	336.87
1025.238	387.73
1025.592	366.54
1025.946	381.51
1026.3	351
1026.654	360.32
1027.008	357.78
1027.362	361.45
1027.716	393.37
1028.069	376.14
1028.423	342.52
1028.777	352.41
1029.13	399.59
1029.483	370.21
1029.837	358.06
1030.19	381.51
1030.543	360.61
1030.896	380.95
1031.249	395.63
1031.602	363.15
1031.955	374.73
1032.308	339.13
1032.661	384.05
1033.013	363.43
1033.366	350.72
1033.719	364
1034.071	373.6
1034.424	365.69
1034.776	357.78
1035.128	345.06
1035.48	384.62
1035.833	364.84
1036.185	369.36
1036.537	369.36
1036.889	369.36
