Data from SCSF78-405_irradiation_FLMS019251_09-27-27-897.txt Node
Date: Fri Feb 22 09:27:27 PST 2019
User: mu3e
Spectrometer: FLMS01925
Trigger mode: 0
Integration Time (sec): 1.206000E-2
Scans to average: 10
Electric dark correction enabled: true
Nonlinearity correction enabled: true
Boxcar width: 0
XAxis mode: Wavelengths
Number of Pixels in Spectrum: 2048
>>>>>Begin Spectral Data<<<<<
187.103	-82.19
187.574	-82.19
188.045	-82.19
188.516	-130.52
188.987	-137.63
189.458	-114.88
189.929	-151.57
190.4	-118.29
190.871	-112.04
191.342	-90.72
191.813	-77.36
192.284	-38.71
192.754	-17.69
193.225	2.18
193.696	38.23
194.166	48.45
194.637	76.81
195.107	117.93
195.578	131.82
196.048	145.42
196.518	159.3
196.989	180.55
197.459	216.51
197.929	241.7
198.399	277.63
198.869	291.77
199.339	291.77
199.809	329.1
200.279	352.84
200.749	352.27
201.219	353.97
201.689	388.43
202.159	381.65
202.628	369.22
203.098	366.68
203.568	395.77
204.037	400.58
204.507	402.27
204.976	393.8
205.445	387.58
205.915	377.13
206.384	389
206.853	402.55
207.323	413.85
207.792	422.03
208.261	409.05
208.73	393.8
209.199	383.35
209.668	438.41
210.137	407.07
210.606	405.38
211.075	389.56
211.543	418.36
212.012	385.04
212.481	395.77
212.95	369.22
213.418	369.51
213.887	403.12
214.355	355.38
214.824	355.66
215.292	375.16
215.76	372.05
216.229	354.81
216.697	358.2
217.165	360.46
217.633	383.91
218.101	356.51
218.569	353.68
219.037	337.29
219.505	374.59
219.973	373.74
220.441	361.59
220.909	363.57
221.377	366.68
221.844	332.49
222.312	362.44
222.78	366.96
223.247	361.31
223.715	328.25
224.182	355.1
224.65	374.59
225.117	376.85
225.584	372.33
226.052	384.76
226.519	346.34
226.986	373.18
227.453	359.33
227.92	348.03
228.387	352.27
228.854	356.79
229.321	370.64
229.788	381.65
230.255	397.75
230.722	365.83
231.189	359.33
231.655	360.46
232.122	393.8
232.589	388.43
233.055	383.06
233.522	372.05
233.988	374.03
234.454	383.35
234.921	397.19
235.387	398.6
235.853	392.1
236.32	385.04
236.786	359.05
237.252	385.32
237.718	367.53
238.184	382.78
238.65	378.83
239.116	388.15
239.582	366.4
240.047	373.74
240.513	374.03
240.979	384.76
241.445	375.72
241.91	388.43
242.376	389.84
242.841	368.38
243.307	364.14
243.772	368.94
244.238	384.76
244.703	394.93
245.168	409.61
245.633	369.51
246.099	398.88
246.564	393.8
247.029	383.35
247.494	387.3
247.959	380.52
248.424	353.97
248.889	395.49
249.353	381.93
249.818	389.56
250.283	356.79
250.748	378.26
251.212	376.85
251.677	389.28
252.141	403.4
252.606	402.55
253.07	371.48
253.535	381.09
253.999	401.99
254.463	392.39
254.927	396.62
255.392	382.78
255.856	369.79
256.32	393.51
256.784	372.05
257.248	385.89
257.712	398.32
258.176	395.49
258.64	390.13
259.103	361.59
259.567	379.68
260.031	356.79
260.495	393.23
260.958	389.84
261.422	415.26
261.885	402.83
262.349	393.23
262.812	387.58
263.275	405.09
263.739	365.55
264.202	402.55
264.665	389
265.128	407.92
265.591	403.68
266.054	389.56
266.517	429.37
266.98	398.03
267.443	387.58
267.906	405.09
268.369	394.36
268.832	389.84
269.294	431.91
269.757	368.09
270.22	401.99
270.682	382.78
271.145	389
271.607	399.45
272.07	382.22
272.532	377.13
272.994	377.7
273.456	407.63
273.919	393.51
274.381	416.95
274.843	381.93
275.305	412.72
275.767	405.38
276.229	372.61
276.691	363.01
277.153	393.51
277.614	401.7
278.076	394.64
278.538	397.75
279	390.13
279.461	407.92
279.923	394.93
280.384	397.75
280.846	399.16
281.307	389
281.769	400.58
282.23	397.47
282.691	409.33
283.152	402.27
283.613	387.3
284.075	379.96
284.536	393.23
284.997	419.78
285.458	407.07
285.918	400.58
286.379	395.49
286.84	398.03
287.301	406.51
287.762	357.07
288.222	396.34
288.683	382.5
289.143	392.1
289.604	363.29
290.064	401.99
290.525	381.93
290.985	405.09
291.445	397.19
291.906	389.56
292.366	386.17
292.826	384.48
293.286	392.39
293.746	413.28
294.206	410.46
294.666	403.68
295.126	395.49
295.586	404.25
296.046	413.85
296.506	401.42
296.965	422.88
297.425	385.32
297.884	397.47
298.344	408.2
298.804	399.45
299.263	407.07
299.722	397.19
300.182	398.88
300.641	395.21
301.1	401.99
301.559	409.61
302.019	408.48
302.478	402.83
302.937	415.82
303.396	401.99
303.855	417.8
304.314	416.67
304.772	405.94
305.231	408.48
305.69	403.12
306.149	403.12
306.607	414.13
307.066	408.76
307.524	420.34
307.983	417.8
308.441	416.11
308.9	386.17
309.358	395.21
309.816	401.7
310.275	385.04
310.733	405.94
311.191	429.94
311.649	386.17
312.107	392.1
312.565	429.37
313.023	424.01
313.481	403.96
313.939	419.78
314.397	416.39
314.854	417.8
315.312	420.9
315.77	420.62
316.227	432.48
316.685	418.36
317.142	363.57
317.6	400.58
318.057	404.53
318.514	425.14
318.972	405.09
319.429	406.51
319.886	395.49
320.343	412.72
320.8	411.59
321.257	401.42
321.714	402.55
322.171	418.08
322.628	403.12
323.085	387.87
323.542	408.2
323.998	422.32
324.455	413.56
324.912	436.15
325.368	398.03
325.825	419.78
326.281	410.46
326.738	436.71
327.194	420.62
327.65	404.53
328.107	408.48
328.563	442.08
329.019	432.48
329.475	409.05
329.931	440.1
330.387	375.72
330.843	411.59
331.299	419.21
331.755	404.81
332.211	402.27
332.666	400.29
333.122	412.72
333.578	400.58
334.033	417.23
334.489	399.45
334.944	384.19
335.4	430.22
335.855	424.57
336.31	390.97
336.766	419.78
337.221	429.37
337.676	430.5
338.131	393.51
338.586	409.33
339.041	437.84
339.496	446.59
339.951	392.67
340.406	414.69
340.861	412.43
341.316	398.6
341.771	412.43
342.225	442.92
342.68	412.43
343.134	424.01
343.589	402.55
344.043	407.07
344.498	425.99
344.952	420.62
345.406	411.59
345.861	427.12
346.315	420.06
346.769	419.78
347.223	401.14
347.677	412.72
348.131	415.26
348.585	410.74
349.039	411.59
349.493	422.88
349.947	406.79
350.401	389
350.854	419.78
351.308	418.65
351.762	400.29
352.215	428.53
352.669	423.16
353.122	430.5
353.575	423.16
354.029	413
354.482	418.65
354.935	430.78
355.388	426.27
355.842	432.48
356.295	407.07
356.748	392.67
357.201	399.73
357.654	399.73
358.106	433.61
358.559	409.33
359.012	444.33
359.465	407.92
359.917	431.35
360.37	418.93
360.823	399.45
361.275	397.47
361.728	418.36
362.18	436.15
362.632	430.78
363.085	437.28
363.537	434.45
363.989	426.83
364.441	409.33
364.893	422.03
365.345	416.39
365.797	415.26
366.249	427.4
366.701	435.02
367.153	419.49
367.605	445.46
368.057	421.47
368.508	434.74
368.96	424.01
369.411	402.83
369.863	395.77
370.314	434.74
370.766	422.88
371.217	431.91
371.669	417.23
372.12	427.4
372.571	418.93
373.022	451.39
373.473	433.04
373.924	411.02
374.375	437.28
374.826	423.45
375.277	410.18
375.728	430.5
376.179	438.41
376.63	438.12
377.08	454.77
377.531	429.09
377.981	422.88
378.432	424.57
378.883	403.68
379.333	423.45
379.783	451.11
380.234	436.99
380.684	432.2
381.134	439.82
381.584	397.47
382.034	433.04
382.485	425.7
382.935	427.68
383.385	444.33
383.834	425.7
384.284	402.55
384.734	413.28
385.184	423.73
385.634	429.09
386.083	413.56
386.533	426.55
386.982	442.08
387.432	435.02
387.881	441.51
388.331	460.42
388.78	456.75
389.229	466.91
389.679	425.14
390.128	435.87
390.577	409.05
391.026	464.65
391.475	427.4
391.924	424.29
392.373	426.27
392.822	446.87
393.27	453.36
393.719	442.64
394.168	454.77
394.617	459.57
395.065	413
395.514	442.64
395.962	419.21
396.411	463.52
396.859	453.36
397.307	457.31
397.756	444.62
398.204	449.13
398.652	463.8
399.1	450.54
399.548	449.7
399.996	467.47
400.444	464.93
400.892	438.12
401.34	456.75
401.788	444.33
402.236	455.06
402.683	475.09
403.131	444.05
403.579	469.73
404.026	482.14
404.474	495.12
404.921	480.73
405.369	487.5
405.816	484.12
406.263	490.89
406.71	489.48
407.158	490.89
407.605	508.94
408.052	485.24
408.499	470.58
408.946	495.4
409.393	509.78
409.84	509.5
410.286	523.03
410.733	537.69
411.18	555.45
411.626	613.2
412.073	612.35
412.52	690.31
412.966	838.13
413.413	910.25
413.859	1071.92
414.305	1327.32
414.752	1640.24
415.198	1990.65
415.644	2401.21
416.09	2940.25
416.536	3496.52
416.982	4164.82
417.428	4971.53
417.874	5772.58
418.32	6715.24
418.766	7643.47
419.211	8799.5
419.657	9863.46
420.103	11121.91
420.548	12040.02
420.994	13503.84
421.439	14746.83
421.885	15941.63
422.33	17332.78
422.776	18558.87
423.221	19758.03
423.666	21078.68
424.111	22610.28
424.556	23598.76
425.001	25241.65
425.446	26629.66
425.891	27950.6
426.336	28961.36
426.781	30377.02
427.226	32686.54
427.671	33376.55
428.115	34328.73
428.56	36146.89
429.005	37874.07
429.449	38452.54
429.894	40033.54
430.338	41157.4
430.782	41315.98
431.227	43032.6
431.671	43501.36
432.115	45092.95
432.559	46167.23
433.003	46195.35
433.447	47194.89
433.891	47571.3
434.335	47950.43
434.779	48910.15
435.223	49109.38
435.667	49278.86
436.111	49842.16
436.554	49886.43
436.998	49311.39
437.442	49402.28
437.885	51468.2
438.328	50019.92
438.772	50380.89
439.215	50894.33
439.659	50570.48
440.102	50969.28
440.545	50178.36
440.988	49978.98
441.431	51034.73
441.874	50457.67
442.317	50825.83
442.76	50208.35
443.203	49728.31
443.646	50497.01
444.089	50128.14
444.531	50684
444.974	49378.83
445.417	50689.83
445.859	49549.87
446.302	50810.17
446.744	50010.21
447.186	51256.04
447.629	50102.91
448.071	50129.98
448.513	50357.68
448.956	51757.25
449.398	50861.93
449.84	49687.78
450.282	50214.66
450.724	50844.94
451.166	50757.4
451.607	50538.23
452.049	50632.38
452.491	51928.77
452.933	51221.33
453.374	51945.25
453.816	52411.06
454.257	52089.7
454.699	53098.2
455.14	52970.47
455.582	52698.49
456.023	52620.74
456.464	52610.07
456.905	53237.07
457.347	53465.65
457.788	52434.77
458.229	52526.44
458.67	53629.67
459.111	51581.4
459.552	51754.29
459.992	51673.03
460.433	51451.32
460.874	50330.8
461.315	51613.09
461.755	50612.27
462.196	50163.63
462.636	49301.24
463.077	48938.66
463.517	49055.9
463.957	49326.75
464.398	48883.72
464.838	48957.33
465.278	47762.12
465.718	48031.59
466.158	46899.76
466.598	47342.46
467.038	46876.6
467.478	47439.82
467.918	47677.3
468.358	46749.9
468.798	46544.33
469.237	46360.35
469.677	46321.05
470.117	47167.34
470.556	44398.81
470.996	45110.31
471.435	45294.35
471.874	46046.98
472.314	45701.66
472.753	44654.17
473.192	44914.64
473.631	44366.22
474.07	44686.3
474.509	44821.41
474.948	44999.12
475.387	44288.29
475.826	43347.91
476.265	45081.88
476.704	44596.19
477.143	44945.31
477.581	44866.39
478.02	45435.98
478.458	44068.44
478.897	44664.71
479.335	45972.09
479.774	45392.62
480.212	45691.82
480.65	45540.39
481.089	45133.46
481.527	44739.78
481.965	44221.41
482.403	46304.57
482.841	45955.64
483.279	46041.91
483.717	46040.14
484.155	45573.44
484.592	46069.25
485.03	46384.44
485.468	45248.26
485.905	45255.82
486.343	46016.36
486.781	45337.68
487.218	44535.48
487.655	44412.6
488.093	43680.14
488.53	45187.83
488.967	44307.33
489.405	43879.33
489.842	43232.95
490.279	43172.88
490.716	42672.94
491.153	43214.75
491.59	42551.84
492.027	41802.91
492.463	41313.51
492.9	40553.75
493.337	40609.3
493.773	40625.35
494.21	39630.04
494.647	39375.81
495.083	38672.05
495.519	38221.85
495.956	38255.46
496.392	37586.08
496.828	37291.39
497.265	36516.33
497.701	36443.7
498.137	36291.61
498.573	35504.28
499.009	35874.39
499.445	35120.18
499.881	34473.17
500.316	34794.8
500.752	33842.58
501.188	33641.13
501.624	33534.08
502.059	32127.26
502.495	31991.46
502.93	31897.84
503.366	32135.55
503.801	31414.09
504.236	31241.44
504.672	30598.04
505.107	30379.7
505.542	29735.45
505.977	29736.18
506.412	29268.63
506.847	29476.19
507.282	28918.12
507.717	28578.23
508.152	28483.64
508.587	28239.66
509.021	27506.75
509.456	27144.16
509.891	27168.4
510.325	27155.42
510.76	26760.28
511.194	26520.33
511.628	26586.76
512.063	25725.01
512.497	25966.77
512.931	25401.83
513.366	25141.39
513.8	25184.15
514.234	24422
514.668	24403.79
515.102	24787.6
515.536	23798.66
515.969	23911.52
516.403	23424.41
516.837	23049.86
517.271	23189.06
517.704	22665.87
518.138	22630.54
518.571	22331.24
519.005	21964.68
519.438	21870.89
519.871	21664.19
520.305	21177.6
520.738	21140.91
521.171	20556.43
521.604	20733.15
522.037	20330.96
522.47	20037.76
522.903	19803.3
523.336	19540.33
523.769	19553.28
524.202	18971.03
524.634	18976.02
525.067	18788.57
525.5	18524.19
525.932	18348.01
526.365	17954.68
526.797	17747.75
527.23	17859.48
527.662	17209.37
528.094	17002.78
528.527	16961.94
528.959	16670.22
529.391	16513.24
529.823	16002.67
530.255	16017.49
530.687	15626.67
531.119	15353.46
531.551	15364.03
531.982	14968.15
532.414	14816.16
532.846	14461.24
533.277	14359.76
533.709	13930.98
534.14	13831.59
534.572	13623.09
535.003	13634.23
535.435	13298.89
535.866	13042.03
536.297	12750.64
536.728	12756.99
537.159	12699.59
537.59	12377.54
538.022	12236.58
538.452	12023.47
538.883	11737.73
539.314	11703.29
539.745	11488.14
540.176	11342.29
540.606	10947.38
541.037	11057.7
541.468	10841.37
541.898	10747.34
542.328	10594.29
542.759	10381.81
543.189	10314.02
543.619	10194.8
544.05	9963.34
544.48	9804.49
544.91	9713.02
545.34	9539.49
545.77	9461.57
546.2	9316.2
546.63	9146.39
547.06	9178.2
547.489	8993.75
547.919	8646.77
548.349	8779.02
548.778	8674.53
549.208	8471.04
549.637	8393.1
550.067	8225.91
550.496	8233.19
550.926	8069.72
551.355	7908.92
551.784	7896.41
552.213	7719.74
552.642	7596.7
553.071	7548.86
553.5	7471.97
553.929	7277.45
554.358	7364.14
554.787	7141.13
555.216	7137.72
555.645	7026.99
556.073	6916.15
556.502	6822.84
556.93	6674.96
557.359	6613.33
557.787	6634.67
558.216	6518.2
558.644	6465.2
559.072	6348.03
559.5	6261.4
559.929	6260.87
560.357	6174.17
560.785	6109.64
561.213	6101.7
561.641	5961.11
562.068	6003.49
562.496	5895.12
562.924	5831.22
563.352	5805.22
563.779	5794.08
564.207	5783.73
564.634	5735.42
565.062	5661.33
565.489	5580.8
565.917	5493.03
566.344	5451.51
566.771	5448.32
567.198	5482.92
567.625	5310.34
568.053	5291.41
568.48	5226.61
568.907	5128.92
569.333	5062.95
569.76	4935.15
570.187	4949.06
570.614	4862.35
571.04	5018.32
571.467	4743.14
571.894	4657.59
572.32	4528.19
572.747	4478.74
573.173	4408.03
573.599	4368.21
574.026	4242.18
574.452	4199.87
574.878	4185.85
575.304	4050.4
575.73	4058.23
576.156	3938
576.582	3952.6
577.008	3823.84
577.434	3791.62
577.86	3672.67
578.285	3681.35
578.711	3560.89
579.137	3483.48
579.562	3439.45
579.988	3457.12
580.413	3395.94
580.838	3330.64
581.264	3294.43
581.689	3233.69
582.114	3167.71
582.539	3179.17
582.964	3096.24
583.39	3018.14
583.814	2990.27
584.239	2913.17
584.664	2906.61
585.089	2883.08
585.514	2841.2
585.939	2786.98
586.363	2746.16
586.788	2728.07
587.212	2694.89
587.637	2657.04
588.061	2632.07
588.485	2548.59
588.91	2548.59
589.334	2549.97
589.758	2506
590.182	2449.91
590.606	2408.64
591.03	2348.63
591.454	2313.37
591.878	2331.83
592.302	2313.37
592.726	2291.88
593.15	2237.84
593.573	2195.92
593.997	2137.96
594.42	2150.1
594.844	2116.14
595.267	2064.2
595.691	2066.69
596.114	2022.18
596.537	1998.68
596.96	2018.86
597.384	1996.46
597.807	1972.4
598.23	1933.65
598.653	1894.33
599.076	1896
599.499	1879.93
599.921	1874.67
600.344	1860.82
600.767	1847.52
601.189	1859.43
601.612	1818.69
602.034	1817.03
602.457	1761.84
602.879	1767.67
603.302	1777.1
603.724	1778.76
604.146	1775.16
604.568	1718.55
604.991	1730.49
605.413	1747.14
605.835	1718.55
606.257	1684.68
606.678	1673.02
607.1	1681.91
607.522	1672.19
607.944	1641.91
608.365	1622.73
608.787	1638.85
609.209	1596.33
609.63	1556.84
610.051	1578.53
610.473	1595.22
610.894	1526.52
611.315	1524.29
611.737	1498.69
612.158	1479.76
612.579	1465.28
613	1492.84
613.421	1454.98
613.842	1426.56
614.263	1408.45
614.683	1448.29
615.104	1359.39
615.525	1336.24
615.945	1344.05
616.366	1282.95
616.787	1279.32
617.207	1272.34
617.627	1232.97
618.048	1274.02
618.468	1249.45
618.888	1242.47
619.308	1210.06
619.728	1195.81
620.148	1192.18
620.568	1193.3
620.988	1168.7
621.408	1109.14
621.828	1135.43
622.248	1108.86
622.668	1071.92
623.087	1114.45
623.507	1097.67
623.926	1071.64
624.346	1105.5
624.765	1048.41
625.185	1080.04
625.604	1039.17
626.023	1022.37
626.442	1028.25
626.861	1002.48
627.28	1004.16
627.699	998.28
628.118	1001.08
628.537	986.23
628.956	959.04
629.375	975.86
629.794	960.16
630.212	950.91
630.631	926.24
631.049	921.75
631.468	932.13
631.886	909.97
632.305	931.29
632.723	910.25
633.141	901
633.559	893.42
633.978	874.34
634.396	865.92
634.814	852.73
635.232	838.13
635.65	851.61
636.067	828.03
636.485	813.99
636.903	802.19
637.321	805
637.738	781.68
638.156	831.12
638.573	796.29
638.991	776.91
639.408	796.01
639.825	771.85
640.243	795.45
640.66	769.6
641.077	765.38
641.494	768.19
641.911	750.21
642.328	753.58
642.745	717.88
643.162	756.39
643.579	734.75
643.995	690.88
644.412	728.56
644.829	693.69
645.245	711.97
645.662	700.16
646.078	713.66
646.495	720.97
646.911	711.13
647.327	680.19
647.743	696.5
648.159	700.44
648.576	671.75
648.992	710
649.408	691.16
649.824	677.09
650.239	652.61
650.655	653.74
651.071	648.67
651.487	648.95
651.902	665.55
652.318	673.71
652.733	637.97
653.149	644.45
653.564	628.4
653.979	630.37
654.395	631.78
654.81	646.98
655.225	665.55
655.64	620.24
656.055	609.82
656.47	609.82
656.885	610.94
657.3	613.48
657.715	596.58
658.13	592.07
658.544	609.82
658.959	599.12
659.374	593.76
659.788	590.1
660.202	603.06
660.617	613.76
661.031	578.55
661.445	572.07
661.86	582.22
662.274	598.55
662.688	621.08
663.102	566.44
663.516	586.72
663.93	557.14
664.344	580.53
664.758	583.91
665.171	561.65
665.585	605.59
665.999	574.89
666.412	550.09
666.826	569.82
667.239	529.24
667.653	563.06
668.066	550.09
668.479	563.9
668.892	564.47
669.306	531.77
669.719	533.75
670.132	552.35
670.545	503.01
670.958	527.83
671.37	524.16
671.783	541.92
672.196	535.16
672.609	539.1
673.021	522.47
673.434	532.9
673.846	553.76
674.259	514.29
674.671	516.83
675.084	549.25
675.496	536
675.908	525.85
676.32	526.13
676.732	549.81
677.144	527.26
677.556	504.99
677.968	543.33
678.38	508.94
678.792	495.4
679.204	486.94
679.615	509.22
680.027	479.6
680.439	491.17
680.85	492.3
681.262	516.55
681.673	502.17
682.084	498.22
682.496	503.01
682.907	516.55
683.318	479.6
683.729	485.81
684.14	499.63
684.551	512.32
684.962	468.6
685.373	474.24
685.784	458.16
686.194	493.14
686.605	478.47
687.016	449.13
687.426	471.14
687.837	482.71
688.247	476.5
688.657	480.17
689.068	463.52
689.478	484.68
689.888	472.55
690.298	477.91
690.708	460.98
691.118	481.3
691.528	452.24
691.938	454.77
692.348	462.39
692.758	453.65
693.168	447.72
693.577	431.35
693.987	470.01
694.396	438.69
694.806	439.82
695.215	457.03
695.625	460.42
696.034	457.88
696.443	478.19
696.852	445.74
697.262	464.93
697.671	468.6
698.08	468.6
698.489	446.31
698.897	450.26
699.306	459.85
699.715	453.36
700.124	468.32
700.532	462.11
700.941	461.83
701.35	442.36
701.758	474.53
702.166	462.11
702.575	444.33
702.983	455.62
703.391	465.78
703.799	452.24
704.208	465.78
704.616	441.79
705.024	420.06
705.432	412.43
705.839	463.52
706.247	464.93
706.655	458.44
707.063	441.79
707.47	427.96
707.878	432.2
708.285	455.34
708.693	437.28
709.1	452.24
709.508	432.48
709.915	442.64
710.322	434.17
710.729	427.4
711.136	428.81
711.543	428.24
711.95	432.2
712.357	411.87
712.764	426.83
713.171	430.22
713.578	404.53
713.984	445.46
714.391	438.97
714.797	429.37
715.204	418.08
715.61	445.74
716.017	403.4
716.423	425.99
716.829	422.03
717.236	430.22
717.642	447.44
718.048	416.95
718.454	427.12
718.86	420.9
719.266	429.09
719.671	421.75
720.077	424.29
720.483	415.26
720.889	429.94
721.294	430.78
721.7	440.66
722.105	435.58
722.511	432.48
722.916	427.96
723.321	450.82
723.726	451.67
724.132	433.89
724.537	430.78
724.942	427.96
725.347	436.99
725.752	432.48
726.156	409.61
726.561	405.94
726.966	417.23
727.371	388.71
727.775	409.89
728.18	429.94
728.584	438.97
728.989	408.76
729.393	424.86
729.798	405.66
730.202	419.78
730.606	430.22
731.01	414.98
731.414	420.62
731.818	413
732.222	422.88
732.626	417.23
733.03	414.69
733.434	399.45
733.837	425.14
734.241	422.6
734.645	408.2
735.048	384.76
735.452	440.38
735.855	414.41
736.258	411.59
736.662	438.12
737.065	428.81
737.468	435.3
737.871	390.13
738.274	438.12
738.677	405.94
739.08	440.66
739.483	428.81
739.886	419.21
740.289	398.88
740.691	418.08
741.094	420.62
741.497	416.67
741.899	418.93
742.302	414.13
742.704	408.76
743.106	418.36
743.508	396.06
743.911	413.56
744.313	421.47
744.715	395.77
745.117	414.69
745.519	426.83
745.921	424.86
746.323	395.21
746.724	404.81
747.126	409.61
747.528	420.06
747.929	397.75
748.331	402.83
748.732	429.37
749.134	430.78
749.535	413.28
749.936	415.26
750.338	430.5
750.739	419.78
751.14	433.89
751.541	387.87
751.942	392.95
752.343	417.23
752.744	411.87
753.144	419.21
753.545	433.33
753.946	440.95
754.346	411.87
754.747	392.1
755.148	401.14
755.548	393.51
755.948	402.55
756.349	401.99
756.749	420.34
757.149	418.93
757.549	389.84
757.949	413.56
758.349	399.45
758.749	407.07
759.149	382.5
759.549	414.69
759.949	399.16
760.348	405.09
760.748	398.88
761.148	403.4
761.547	389.28
761.947	393.23
762.346	415.82
762.745	419.21
763.145	394.64
763.544	402.55
763.943	381.93
764.342	407.92
764.741	380.8
765.14	394.36
765.539	413
765.938	385.61
766.336	411.87
766.735	421.75
767.134	388.15
767.532	450.82
767.931	411.59
768.329	392.95
768.728	407.63
769.126	412.15
769.525	424.01
769.923	405.66
770.321	424.57
770.719	410.46
771.117	394.08
771.515	400.29
771.913	391.54
772.311	380.24
772.709	419.49
773.106	409.61
773.504	389.28
773.902	398.03
774.299	384.48
774.697	424.86
775.094	439.82
775.491	433.89
775.889	406.79
776.286	399.16
776.683	388.43
777.08	420.34
777.477	392.1
777.874	381.09
778.271	402.55
778.668	389.84
779.065	407.63
779.462	383.35
779.858	425.42
780.255	403.12
780.652	407.35
781.048	398.88
781.444	382.22
781.841	398.6
782.237	408.76
782.633	413.28
783.03	402.27
783.426	385.61
783.822	378.26
784.218	379.11
784.614	388.43
785.01	402.55
785.405	389.28
785.801	412.72
786.197	377.98
786.593	408.2
786.988	407.35
787.384	404.25
787.779	419.49
788.174	392.39
788.57	402.55
788.965	387.87
789.36	411.87
789.755	396.9
790.15	381.09
790.545	400.01
790.94	387.02
791.335	384.48
791.73	401.14
792.125	404.25
792.52	408.76
792.914	383.91
793.309	385.04
793.703	396.34
794.098	382.22
794.492	366.96
794.887	393.23
795.281	407.92
795.675	378.55
796.069	388.15
796.463	389.56
796.857	383.06
797.251	366.4
797.645	380.52
798.039	409.05
798.433	395.21
798.826	399.16
799.22	387.3
799.614	385.89
800.007	405.94
800.401	414.98
800.794	363.29
801.187	424.57
801.581	422.6
801.974	382.22
802.367	413.85
802.76	384.48
803.153	392.95
803.546	396.62
803.939	368.94
804.332	420.9
804.725	373.74
805.117	390.41
805.51	430.22
805.903	388.15
806.295	412.72
806.688	393.51
807.08	412.15
807.472	403.68
807.865	396.06
808.257	385.89
808.649	403.68
809.041	378.83
809.433	422.32
809.825	414.98
810.217	390.41
810.609	377.98
811.001	376.57
811.392	396.62
811.784	404.25
812.175	396.62
812.567	383.63
812.958	403.96
813.35	391.54
813.741	385.04
814.132	406.79
814.524	374.03
814.915	384.76
815.306	409.89
815.697	381.93
816.088	372.05
816.479	394.36
816.87	388.15
817.26	386.74
817.651	367.81
818.042	392.67
818.432	401.99
818.823	416.39
819.213	389.28
819.604	406.51
819.994	385.61
820.384	402.27
820.775	410.74
821.165	395.77
821.555	396.62
821.945	372.61
822.335	373.46
822.725	409.89
823.114	363.57
823.504	395.49
823.894	394.36
824.284	391.26
824.673	410.74
825.063	387.58
825.452	394.08
825.842	402.55
826.231	398.6
826.62	399.73
827.009	387.3
827.399	405.94
827.788	414.41
828.177	426.27
828.566	418.08
828.954	403.68
829.343	377.98
829.732	390.69
830.121	390.13
830.509	390.97
830.898	386.45
831.286	402.27
831.675	406.51
832.063	350.57
832.452	400.01
832.84	382.22
833.228	398.03
833.616	381.09
834.004	390.69
834.392	402.27
834.78	403.96
835.168	357.36
835.556	425.7
835.944	399.73
836.331	401.42
836.719	407.07
837.107	367.25
837.494	399.16
837.881	390.41
838.269	350.86
838.656	398.6
839.043	389.56
839.431	402.83
839.818	396.06
840.205	385.32
840.592	383.06
840.979	377.7
841.366	403.68
841.752	393.51
842.139	395.49
842.526	379.96
842.912	361.03
843.299	384.19
843.685	399.16
844.072	366.68
844.458	368.38
844.844	414.98
845.231	400.29
845.617	370.64
846.003	403.12
846.389	376.29
846.775	403.12
847.161	411.02
847.547	384.19
847.933	394.08
848.318	397.75
848.704	407.92
849.09	401.99
849.475	404.53
849.861	368.38
850.246	401.7
850.631	396.62
851.017	383.35
851.402	402.83
851.787	373.74
852.172	393.51
852.557	403.68
852.942	399.73
853.327	397.47
853.712	414.13
854.097	385.61
854.481	389.56
854.866	407.92
855.25	377.42
855.635	387.87
856.019	434.17
856.404	395.77
856.788	357.07
857.172	376
857.557	394.64
857.941	380.52
858.325	370.35
858.709	406.79
859.093	405.94
859.477	390.97
859.86	373.74
860.244	362.16
860.628	357.92
861.012	385.32
861.395	376.57
861.779	396.34
862.162	405.09
862.545	386.17
862.929	388.43
863.312	399.73
863.695	397.75
864.078	376.57
864.461	366.12
864.844	407.92
865.227	393.8
865.61	425.14
865.993	401.99
866.376	401.7
866.758	388.43
867.141	395.49
867.523	408.76
867.906	372.33
868.288	390.97
868.671	375.72
869.053	391.54
869.435	381.37
869.817	385.32
870.199	372.05
870.581	389
870.963	369.22
871.345	368.66
871.727	385.89
872.109	371.77
872.491	403.12
872.872	377.42
873.254	414.98
873.635	377.98
874.017	407.35
874.398	392.1
874.779	381.65
875.161	377.13
875.542	396.06
875.923	387.58
876.304	384.76
876.685	386.74
877.066	366.68
877.447	368.66
877.828	355.1
878.208	382.78
878.589	375.16
878.97	402.83
879.35	393.23
879.731	396.9
880.111	387.58
880.491	374.59
880.872	403.12
881.252	405.94
881.632	415.26
882.012	400.01
882.392	382.78
882.772	395.49
883.152	389.84
883.532	357.07
883.912	386.74
884.291	358.77
884.671	363.29
885.051	380.24
885.43	379.96
885.81	406.22
886.189	387.87
886.568	367.81
886.948	368.94
887.327	394.93
887.706	376.29
888.085	382.5
888.464	357.36
888.843	405.38
889.222	369.22
889.601	388.71
889.979	382.22
890.358	381.37
890.737	373.18
891.115	399.16
891.494	377.7
891.872	382.5
892.25	377.42
892.629	381.65
893.007	397.47
893.385	387.02
893.763	364.42
894.141	358.49
894.519	367.81
894.897	380.8
895.275	408.76
895.653	387.58
896.03	393.51
896.408	379.39
896.786	406.22
897.163	374.03
897.541	393.8
897.918	372.9
898.295	376.57
898.673	412.43
899.05	382.5
899.427	365.27
899.804	403.96
900.181	374.59
900.558	357.07
900.935	389.56
901.312	392.67
901.688	377.7
902.065	397.75
902.442	405.38
902.818	389
903.195	378.26
903.571	373.18
903.947	394.08
904.324	394.36
904.7	387.87
905.076	381.09
905.452	404.53
905.828	384.19
906.204	385.04
906.58	397.75
906.956	399.16
907.331	391.26
907.707	374.87
908.083	385.61
908.458	389.56
908.834	372.33
909.209	380.24
909.585	378.26
909.96	365.55
910.335	377.98
910.71	395.49
911.086	379.39
911.461	361.03
911.836	386.17
912.21	392.39
912.585	366.68
912.96	372.61
913.335	382.22
913.709	373.18
914.084	377.42
914.459	344.92
914.833	379.39
915.207	366.12
915.582	380.52
915.956	364.99
916.33	355.66
916.704	377.7
917.078	392.1
917.452	384.19
917.826	389.56
918.2	389.56
918.574	396.34
918.948	394.36
919.321	378.55
919.695	388.43
920.068	362.72
920.442	398.6
920.815	364.7
921.189	383.35
921.562	361.88
921.935	389.28
922.308	374.03
922.681	385.61
923.054	392.95
923.427	383.35
923.8	410.46
924.173	372.33
924.546	389.28
924.919	353.4
925.291	365.27
925.664	366.68
926.036	357.36
926.409	400.58
926.781	376.85
927.153	385.89
927.526	390.41
927.898	414.41
928.27	357.92
928.642	394.36
929.014	380.52
929.386	371.2
929.758	363.57
930.129	372.33
930.501	398.32
930.873	382.22
931.244	408.48
931.616	385.89
931.987	379.39
932.359	357.07
932.73	393.8
933.101	383.91
933.472	362.16
933.843	362.44
934.214	397.47
934.585	376.85
934.956	383.35
935.327	387.02
935.698	401.99
936.069	384.19
936.439	376.85
936.81	377.7
937.18	386.17
937.551	372.9
937.921	393.23
938.292	376.85
938.662	370.92
939.032	360.18
939.402	369.22
939.772	360.18
940.142	363.57
940.512	392.95
940.882	391.26
941.252	396.34
941.621	390.13
941.991	396.06
942.361	365.83
942.73	395.77
943.1	355.66
943.469	354.25
943.838	392.67
944.208	388.71
944.577	361.31
944.946	369.22
945.315	390.41
945.684	396.34
946.053	384.76
946.422	383.63
946.791	364.99
947.159	355.94
947.528	347.47
947.897	363.01
948.265	377.13
948.634	363.01
949.002	366.96
949.371	397.47
949.739	365.27
950.107	389.84
950.475	368.66
950.843	382.22
951.211	361.03
951.579	396.62
951.947	355.38
952.315	389.84
952.683	372.33
953.05	369.51
953.418	369.79
953.785	398.6
954.153	381.93
954.52	391.26
954.888	376.85
955.255	381.65
955.622	402.55
955.989	330.51
956.356	380.8
956.723	394.93
957.09	390.69
957.457	385.61
957.824	382.22
958.191	389.28
958.557	342.66
958.924	394.64
959.291	384.48
959.657	379.11
960.023	375.72
960.39	386.17
960.756	370.35
961.122	394.64
961.488	373.46
961.855	378.55
962.221	373.74
962.586	393.51
962.952	402.27
963.318	371.2
963.684	363.57
964.05	348.31
964.415	349.73
964.781	392.1
965.146	391.54
965.512	360.46
965.877	368.94
966.242	378.55
966.608	359.05
966.973	394.08
967.338	387.02
967.703	374.03
968.068	387.58
968.433	373.74
968.797	364.99
969.162	387.58
969.527	357.07
969.891	361.03
970.256	386.74
970.62	375.16
970.985	373.18
971.349	361.03
971.714	371.48
972.078	392.1
972.442	409.89
972.806	367.81
973.17	367.25
973.534	384.48
973.898	377.13
974.262	378.83
974.625	386.45
974.989	379.68
975.353	368.09
975.716	370.07
976.08	372.9
976.443	364.99
976.806	375.44
977.17	365.83
977.533	384.19
977.896	369.79
978.259	371.2
978.622	374.31
978.985	368.94
979.348	381.93
979.711	376.29
980.073	371.77
980.436	400.58
980.799	398.32
981.161	393.51
981.524	393.51
981.886	362.72
982.248	361.59
982.611	375.72
982.973	372.33
983.335	357.36
983.697	362.44
984.059	362.44
984.421	370.64
984.783	381.93
985.145	394.93
985.506	393.51
985.868	378.26
986.23	364.42
986.591	392.1
986.953	384.76
987.314	383.35
987.675	366.12
988.037	540.23
988.398	372.61
988.759	373.18
989.12	346.34
989.481	369.51
989.842	366.4
990.203	376.29
990.564	370.64
990.924	365.83
991.285	496.53
991.646	383.06
992.006	380.24
992.367	338.42
992.727	371.2
993.087	364.99
993.448	374.03
993.808	372.9
994.168	386.74
994.528	369.51
994.888	407.92
995.248	379.11
995.608	385.61
995.967	367.81
996.327	372.61
996.687	374.59
997.046	371.77
997.406	371.2
997.765	363.57
998.125	365.27
998.484	365.27
998.843	379.39
999.202	353.97
999.561	369.79
999.92	354.81
1000.279	374.87
1000.638	344.36
1000.997	369.22
1001.356	360.75
1001.715	368.09
1002.073	380.8
1002.432	360.18
1002.79	368.66
1003.149	376.85
1003.507	379.11
1003.865	372.61
1004.224	376.29
1004.582	378.55
1004.94	400.86
1005.298	376.29
1005.656	379.68
1006.014	355.38
1006.371	375.16
1006.729	395.77
1007.087	378.26
1007.445	381.09
1007.802	394.93
1008.16	364.14
1008.517	369.22
1008.874	349.16
1009.232	392.95
1009.589	368.66
1009.946	375.72
1010.303	382.22
1010.66	366.96
1011.017	408.76
1011.374	361.59
1011.731	383.35
1012.087	385.04
1012.444	375.44
1012.801	398.03
1013.157	387.3
1013.513	383.35
1013.87	366.12
1014.226	371.48
1014.582	372.33
1014.939	374.03
1015.295	373.46
1015.651	390.41
1016.007	378.83
1016.363	376
1016.719	381.09
1017.074	343.79
1017.43	383.35
1017.786	377.13
1018.141	389
1018.497	400.86
1018.852	352.55
1019.208	362.72
1019.563	368.09
1019.918	359.62
1020.273	344.08
1020.628	337.01
1020.983	353.97
1021.338	361.88
1021.693	358.2
1022.048	365.27
1022.403	383.63
1022.757	374.31
1023.112	368.94
1023.467	387.3
1023.821	357.64
1024.175	358.77
1024.53	384.19
1024.884	364.14
1025.238	369.79
1025.592	372.61
1025.946	373.74
1026.3	372.61
1026.654	369.51
1027.008	360.46
1027.362	358.49
1027.716	372.33
1028.069	387.87
1028.423	380.52
1028.777	366.4
1029.13	378.55
1029.483	357.07
1029.837	379.96
1030.19	362.72
1030.543	368.38
1030.896	361.03
1031.249	359.9
1031.602	361.59
1031.955	378.26
1032.308	367.81
1032.661	388.15
1033.013	361.59
1033.366	377.98
1033.719	357.92
1034.071	375.44
1034.424	361.59
1034.776	372.33
1035.128	361.88
1035.48	364.14
1035.833	392.1
1036.185	377.7
1036.537	377.7
1036.889	377.7
