Data from SCSF78-405_irradiation_FLMS019251_18-16-27-873.txt Node
Date: Fri Feb 22 18:16:27 PST 2019
User: mu3e
Spectrometer: FLMS01925
Trigger mode: 0
Integration Time (sec): 1.206000E-2
Scans to average: 10
Electric dark correction enabled: true
Nonlinearity correction enabled: true
Boxcar width: 0
XAxis mode: Wavelengths
Number of Pixels in Spectrum: 2048
>>>>>Begin Spectral Data<<<<<
187.103	-93.7
187.574	-93.7
188.045	-93.7
188.516	-118.15
188.987	-126.68
189.458	-124.41
189.929	-126.68
190.4	-94.84
190.871	-105.64
191.342	-106.49
191.813	-65.28
192.284	-52.21
192.754	-23.23
193.225	21.34
193.696	21.06
194.166	53.13
194.637	85.46
195.107	86.6
195.578	125.16
196.048	165.39
196.518	139.61
196.989	185.5
197.459	204.19
197.929	217.5
198.399	257.41
198.869	311.71
199.339	290.5
199.809	321.04
200.279	353.54
200.749	362.58
201.219	342.8
201.689	359.48
202.159	355.24
202.628	350.72
203.098	395.07
203.568	393.94
204.037	391.4
204.507	400.72
204.976	384.62
205.445	405.8
205.915	409.47
206.384	382.92
206.853	412.58
207.323	400.72
207.792	374.73
208.261	392.24
208.73	399.87
209.199	408.91
209.668	371.62
210.137	373.04
210.606	374.45
211.075	396.76
211.543	364
212.012	353.82
212.481	348.46
212.95	349.59
213.418	381.79
213.887	339.69
214.355	371.06
214.824	352.98
215.292	353.82
215.76	347.61
216.229	352.69
216.697	357.5
217.165	361.45
217.633	386.6
218.101	375.86
218.569	336.59
219.037	353.82
219.505	338
219.973	376.43
220.441	353.82
220.909	342.8
221.377	346.48
221.844	366.54
222.312	338.56
222.78	353.26
223.247	362.87
223.715	348.74
224.182	351.56
224.65	352.98
225.117	356.37
225.584	347.89
226.052	354.95
226.519	376.43
226.986	362.3
227.453	386.6
227.92	368.8
228.387	343.09
228.854	374.45
229.321	330.37
229.788	359.19
230.255	356.65
230.722	364.84
231.189	362.3
231.655	351.28
232.122	357.22
232.589	372.47
233.055	364.28
233.522	375.3
233.988	367.67
234.454	367.67
234.921	362.87
235.387	364.56
235.853	390.55
236.32	375.3
236.786	357.22
237.252	365.13
237.718	366.54
238.184	344.22
238.65	344.5
239.116	364
239.582	397.61
240.047	370.78
240.513	370.78
240.979	392.53
241.445	386.03
241.91	399.02
242.376	388.85
242.841	383.49
243.307	350.72
243.772	354.67
244.238	379.82
244.703	375.01
245.168	384.62
245.633	388.29
246.099	348.74
246.564	392.53
247.029	381.23
247.494	384.62
247.959	375.86
248.424	369.36
248.889	374.17
249.353	357.22
249.818	372.47
250.283	351.56
250.748	381.23
251.212	389.7
251.677	369.93
252.141	365.97
252.606	371.34
253.07	387.16
253.535	379.82
253.999	377.56
254.463	380.95
254.927	385.75
255.392	378.4
255.856	388.01
256.32	358.35
256.784	383.49
257.248	383.77
257.712	383.77
258.176	404.67
258.64	369.36
259.103	376.43
259.567	357.5
260.031	372.47
260.495	375.01
260.958	401.85
261.422	378.69
261.885	380.95
262.349	379.53
262.812	402.98
263.275	382.64
263.739	373.6
264.202	384.05
264.665	380.66
265.128	396.76
265.591	409.19
266.054	373.04
266.517	388.29
266.98	394.22
267.443	366.82
267.906	359.76
268.369	384.34
268.832	410.88
269.294	415.68
269.757	387.16
270.22	391.68
270.682	387.16
271.145	386.6
271.607	390.27
272.07	380.95
272.532	399.59
272.994	380.1
273.456	399.87
273.919	386.03
274.381	415.4
274.843	409.19
275.305	389.7
275.767	383.21
276.229	381.51
276.691	401
277.153	414.83
277.614	411.73
278.076	406.93
278.538	397.33
279	405.52
279.461	384.62
279.923	407.21
280.384	388.57
280.846	425
281.307	402.69
281.769	402.41
282.23	400.43
282.691	403.82
283.152	396.48
283.613	397.89
284.075	399.87
284.536	371.34
284.997	415.96
285.458	367.95
285.918	372.75
286.379	400.43
286.84	404.95
287.301	376.71
287.762	401.28
288.222	405.23
288.683	386.88
289.143	390.27
289.604	383.21
290.064	425
290.525	392.53
290.985	401.28
291.445	395.35
291.906	408.06
292.366	385.47
292.826	406.08
293.286	401.85
293.746	385.47
294.206	396.48
294.666	412.01
295.126	404.39
295.586	427.82
296.046	388.29
296.506	410.32
296.965	384.34
297.425	395.92
297.884	403.54
298.344	391.11
298.804	406.65
299.263	409.19
299.722	393.09
300.182	407.49
300.641	397.05
301.1	403.26
301.559	429.51
302.019	390.55
302.478	393.09
302.937	389.14
303.396	394.22
303.855	404.95
304.314	438.83
304.772	388.57
305.231	410.88
305.69	374.17
306.149	376.14
306.607	391.68
307.066	415.12
307.524	408.62
307.983	384.05
308.441	440.52
308.9	390.83
309.358	390.83
309.816	405.23
310.275	404.67
310.733	395.63
311.191	399.87
311.649	391.96
312.107	411.45
312.565	404.39
313.023	406.93
313.481	404.1
313.939	403.82
314.397	391.96
314.854	393.66
315.312	399.59
315.77	404.1
316.227	421.89
316.685	391.4
317.142	418.79
317.6	363.43
318.057	410.88
318.514	376.71
318.972	392.81
319.429	410.03
319.886	410.88
320.343	409.75
320.8	409.19
321.257	397.33
321.714	388.29
322.171	400.43
322.628	395.35
323.085	401.85
323.542	382.92
323.998	426.41
324.455	419.92
324.912	406.36
325.368	388.29
325.825	439.11
326.281	424.72
326.738	372.47
327.194	389.7
327.65	394.5
328.107	405.23
328.563	426.13
329.019	418.5
329.475	395.07
329.931	397.33
330.387	410.03
330.843	394.5
331.299	400.43
331.755	397.05
332.211	369.65
332.666	406.93
333.122	420.76
333.578	416.25
334.033	413.42
334.489	419.07
334.944	429.51
335.4	388.85
335.855	396.48
336.31	434.6
336.766	387.44
337.221	387.16
337.676	420.48
338.131	406.08
338.586	413.14
339.041	423.3
339.496	395.92
339.951	419.63
340.406	402.69
340.861	412.86
341.316	415.96
341.771	414.55
342.225	395.92
342.68	414.27
343.134	386.88
343.589	435.16
344.043	425
344.498	413.42
344.952	386.03
345.406	410.88
345.861	404.95
346.315	398.17
346.769	423.87
347.223	409.19
347.677	408.91
348.131	405.52
348.585	414.55
349.039	399.87
349.493	402.69
349.947	415.4
350.401	394.5
350.854	411.73
351.308	399.59
351.762	455.2
352.215	421.89
352.669	404.95
353.122	394.22
353.575	410.88
354.029	420.2
354.482	398.17
354.935	401.56
355.388	432.06
355.842	420.76
356.295	414.83
356.748	425.84
357.201	432.34
357.654	411.73
358.106	430.64
358.559	421.61
359.012	424.15
359.465	405.52
359.917	402.41
360.37	409.75
360.823	425.84
361.275	438.83
361.728	406.93
362.18	403.82
362.632	388.29
363.085	423.02
363.537	413.14
363.989	437.14
364.441	420.2
364.893	423.3
365.345	417.38
365.797	412.86
366.249	413.14
366.701	414.55
367.153	444.19
367.605	413.71
368.057	435.16
368.508	430.93
368.96	412.29
369.411	436.29
369.863	396.48
370.314	413.14
370.766	404.39
371.217	410.88
371.669	406.08
372.12	428.1
372.571	428.39
373.022	391.11
373.473	394.5
373.924	417.66
374.375	437.7
374.826	419.07
375.277	409.47
375.728	423.59
376.179	395.92
376.63	418.5
377.08	431.21
377.531	429.8
377.981	425.56
378.432	417.09
378.883	450.4
379.333	441.65
379.783	403.82
380.234	394.5
380.684	414.83
381.134	427.82
381.584	444.19
382.034	438.27
382.485	407.78
382.935	416.53
383.385	437.98
383.834	416.81
384.284	437.42
384.734	441.93
385.184	417.66
385.634	444.47
386.083	422.46
386.533	439.96
386.982	417.66
387.432	430.36
387.881	400.72
388.331	426.97
388.78	427.82
389.229	416.53
389.679	423.3
390.128	410.03
390.577	433.47
391.026	428.95
391.475	430.36
391.924	425
392.373	433.47
392.822	418.5
393.27	424.43
393.719	442.78
394.168	451.25
394.617	446.17
395.065	454.92
395.514	447.58
395.962	419.35
396.411	445.89
396.859	454.92
397.307	454.63
397.756	442.5
398.204	469.02
398.652	428.95
399.1	429.23
399.548	450.4
399.996	448.71
400.444	439.96
400.892	465.36
401.34	416.25
401.788	406.65
402.236	468.74
402.683	439.39
403.131	437.14
403.579	470.72
404.026	469.31
404.474	431.21
404.921	445.32
405.369	506.82
405.816	476.36
406.263	469.87
406.71	486.8
407.158	469.59
407.605	497.51
408.052	458.02
408.499	499.49
408.946	506.26
409.393	505.97
409.84	507.1
410.286	520.64
410.733	531.07
411.18	540.09
411.626	611.37
412.073	651.34
412.52	694.11
412.966	772.83
413.413	901.7
413.859	1058.35
414.305	1264.39
414.752	1530.55
415.198	1891.7
415.644	2270.52
416.09	2756.16
416.536	3306.82
416.982	3951.11
417.428	4614.25
417.874	5396
418.32	6268.14
418.766	7088.8
419.211	8156.81
419.657	9097.9
420.103	10308.75
420.548	11104.9
420.994	12420.39
421.439	13441.91
421.885	14560.55
422.33	15935.22
422.776	17052.75
423.221	18022.51
423.666	19248.94
424.111	20602.23
424.556	21496.89
425.001	22912.48
425.446	24207.95
425.891	25554.97
426.336	26454.75
426.781	27640.25
427.226	29565.91
427.671	30359.57
428.115	31213.03
428.56	32800.03
429.005	34368.86
429.449	34824.94
429.894	36139.67
430.338	37328
430.782	37501.67
431.227	38960.36
431.671	39293.03
432.115	40784.77
432.559	41688.78
433.003	41591.17
433.447	42488.08
433.891	42863.15
434.335	43259.5
434.779	44069.07
435.223	44288.17
435.667	44299.19
436.111	44829.83
436.554	44838.37
436.998	44284.16
437.442	44435.79
437.885	46473.12
438.328	44849.68
438.772	45307.83
439.215	45803.84
439.659	45308.84
440.102	45725.02
440.545	44910.24
440.988	45004.78
441.431	45721.49
441.874	45279.87
442.317	45585.17
442.76	45124.28
443.203	44599.33
443.646	45245.87
444.089	44818.02
444.531	45374.1
444.974	44085.08
445.417	45286.42
445.859	44314.72
446.302	45483.26
446.744	44734.13
447.186	45749.52
447.629	44891.65
448.071	44950.72
448.513	45095.09
448.956	46401.31
449.398	45388.46
449.84	44316.23
450.282	44957.76
450.724	45420.98
451.166	45238.56
451.607	45173.36
452.049	45098.11
452.491	46256.79
452.933	45839.22
453.374	46336.64
453.816	46840.08
454.257	46394.72
454.699	47494.16
455.14	47147.83
455.582	46991.83
456.023	46960.24
456.464	47131.5
456.905	47565.8
457.347	47554.03
457.788	46550.29
458.229	46712.4
458.67	47889.72
459.111	45954
459.552	45946.16
459.992	45730.07
460.433	45808.89
460.874	44612.13
461.315	46044.07
461.755	44960.77
462.196	44450.33
462.636	43715.74
463.077	43390.19
463.517	43623.57
463.957	43791.21
464.398	43443.58
464.838	43489
465.278	42257.55
465.718	42562.9
466.158	41590.18
466.598	41978.85
467.038	41470.81
467.478	41965.95
467.918	42248.36
468.358	41375.75
468.798	41024.73
469.237	40950.33
469.677	40972.82
470.117	41840.47
470.556	39409.64
470.996	39968.6
471.435	40057.57
471.874	40762.78
472.314	40485.26
472.753	39432.77
473.192	39774.96
473.631	39364.86
474.07	39552.87
474.509	39587.08
474.948	39873.24
475.387	39172.02
475.826	38117.46
476.265	39902.32
476.704	39402.26
477.143	39709.45
477.581	39356
478.02	40029.72
478.458	38779.51
478.897	39330.42
479.335	40522.77
479.774	40011.23
480.212	40196.37
480.65	40228.19
481.089	39729.89
481.527	39393.65
481.965	38961.34
482.403	40828.99
482.841	40550.91
483.279	40595.35
483.717	40691.4
484.155	40217.83
484.592	40554.37
485.03	40813.43
485.468	39809.69
485.905	39940.01
486.343	40342.39
486.781	39884.82
487.218	39158.5
487.655	39176.94
488.093	38345.89
488.53	39635.58
488.967	38868.94
489.405	38648.1
489.842	38075.76
490.279	38041.43
490.716	37502.65
491.153	37960.74
491.59	37465.9
492.027	36781.87
492.463	36385.62
492.9	35671.48
493.337	35553.5
493.773	35598.69
494.21	34783.69
494.647	34573.33
495.083	34013.68
495.519	33659.3
495.956	33552.73
496.392	32887.31
496.828	32574.27
497.265	31960.62
497.701	32122.26
498.137	31738.5
498.573	31018.67
499.009	31495.65
499.445	30711.11
499.881	30165.35
500.316	30430.08
500.752	29606.92
501.188	29435.29
501.624	29193.04
502.059	28185.99
502.495	27962.7
502.93	27934.57
503.366	28087.44
503.801	27427.81
504.236	27109.75
504.672	26762.61
505.107	26478.53
505.542	25977.44
505.977	25913.39
506.412	25514.45
506.847	25786.5
507.282	25300.25
507.717	24911.42
508.152	24845.76
508.587	24679.74
509.021	23916.82
509.456	23690.83
509.891	23781.78
510.325	23678.26
510.76	23316.74
511.194	23112.68
511.628	23218.3
512.063	22460.15
512.497	22569.63
512.931	22039.03
513.366	22007.12
513.8	21976.43
514.234	21217.64
514.668	21259.52
515.102	21480.54
515.536	20710.45
515.969	20850.39
516.403	20464.45
516.837	20041.36
517.271	20124.62
517.704	19728.06
518.138	19637.75
518.571	19448.37
519.005	19025.98
519.438	18957.7
519.871	18743.06
520.305	18429.5
520.738	18289.72
521.171	17809.11
521.604	17980.54
522.037	17728.62
522.47	17409.98
522.903	17207
523.336	17096.07
523.769	16990.38
524.202	16477.99
524.634	16445.38
525.067	16263.7
525.5	16143.94
525.932	15893.51
526.365	15582.03
526.797	15433.86
527.23	15476.13
527.662	15026.48
528.094	14819.82
528.527	14790.32
528.959	14494.94
529.391	14306.61
529.823	13878.26
530.255	13850.43
530.687	13550.56
531.119	13349.19
531.551	13378.58
531.982	13032.27
532.414	12826.95
532.846	12541.67
533.277	12477.6
533.709	12025.89
534.14	12029.71
534.572	11769.22
535.003	11746.53
535.435	11442.04
535.866	11371.28
536.297	11016.88
536.728	11096.97
537.159	10888.37
537.59	10675.96
538.022	10618.78
538.452	10409.67
538.883	10221.14
539.314	10181.05
539.745	9904.01
540.176	9756.44
540.606	9549.68
541.037	9525.95
541.468	9352.23
541.898	9250.44
542.328	9174.19
542.759	8961
543.189	8939.25
543.619	8791.07
544.05	8667.14
544.48	8477.66
544.91	8456.36
545.34	8285.08
545.77	8181.28
546.2	8120.89
546.63	7961.98
547.06	7917.4
547.489	7753.03
547.919	7559.71
548.349	7624.79
548.778	7520.49
549.208	7369.25
549.637	7256.88
550.067	7128.41
550.496	7172.73
550.926	7029.48
551.355	6812.45
551.784	6858.46
552.213	6721.42
552.642	6666.14
553.071	6609.52
553.5	6480.36
553.929	6294.55
554.358	6332.59
554.787	6199.69
555.216	6177.74
555.645	6095.74
556.073	5991.7
556.502	5924.94
556.93	5775.9
557.359	5730.24
557.787	5681.38
558.216	5660.93
558.644	5560.99
559.072	5502.48
559.5	5420.76
559.929	5439.13
560.357	5360.57
560.785	5298.21
561.213	5242.75
561.641	5136.27
562.068	5157.63
562.496	5103.69
562.924	5077.78
563.352	5041.97
563.779	4992.52
564.207	4970.86
564.634	4943.31
565.062	4899.43
565.489	4842.67
565.917	4827.94
566.344	4756.14
566.771	4751.05
567.198	4702.25
567.625	4620.43
568.053	4589.29
568.48	4543.1
568.907	4491.51
569.333	4415.42
569.76	4262.26
570.187	4335.24
570.614	4212.67
571.04	4383.41
571.467	4137.17
571.894	4009.21
572.32	3967.06
572.747	3922.18
573.173	3814.77
573.599	3757.91
574.026	3670.91
574.452	3672.26
574.878	3578.67
575.304	3538.49
575.73	3497.75
576.156	3430.07
576.582	3358.54
577.008	3332.14
577.434	3243.09
577.86	3185.3
578.285	3198.12
578.711	3112.2
579.137	3063.89
579.562	3009.53
579.988	3000.79
580.413	2965.54
580.838	2864.06
581.264	2899.36
581.689	2807.94
582.114	2757.53
582.539	2759.45
582.964	2690.91
583.39	2680.76
583.814	2601.73
584.239	2573.45
584.664	2549.55
585.089	2508.06
585.514	2446.47
585.939	2417.58
586.363	2386.48
586.788	2379.88
587.212	2336.1
587.637	2264.45
588.061	2253.42
588.485	2224.47
588.91	2248.19
589.334	2183.91
589.758	2169.01
590.182	2144.72
590.606	2089.21
591.03	2088.38
591.454	2026.75
591.878	2023.98
592.302	2020.66
592.726	1973.92
593.15	1942.09
593.573	1922.44
593.997	1908.04
594.42	1881.73
594.844	1868.71
595.267	1879.24
595.691	1823.82
596.114	1778.35
596.537	1753.93
596.96	1751.44
597.384	1753.1
597.807	1706.48
598.23	1657.05
598.653	1682.32
599.076	1679.27
599.499	1663.71
599.921	1613.15
600.344	1631.21
600.767	1628.15
601.189	1596.19
601.612	1627.6
602.034	1609.81
602.457	1576.73
602.879	1570.33
603.302	1550.03
603.724	1547.25
604.146	1551.14
604.568	1509.96
604.991	1526.38
605.413	1513.86
605.835	1526.1
606.257	1499.66
606.678	1482.96
607.1	1445.09
607.522	1456.51
607.944	1458.46
608.365	1457.07
608.787	1447.6
609.209	1409.43
609.63	1407.2
610.051	1415.84
610.473	1401.07
610.894	1407.2
611.315	1382.95
611.737	1327.18
612.158	1302.63
612.579	1289.51
613	1294.81
613.421	1291.74
613.842	1282.53
614.263	1244.84
614.683	1242.89
615.104	1213.84
615.525	1222.78
615.945	1188.41
616.366	1144.8
616.787	1158.22
617.207	1173.6
617.627	1113.48
618.048	1134.45
618.468	1126.62
618.888	1112.36
619.308	1103.68
619.728	1068.42
620.148	1034.83
620.568	1071.78
620.988	1051.91
621.408	991.97
621.828	1033.99
622.248	1016.34
622.668	994.21
623.087	1010.46
623.507	1021.67
623.926	974.6
624.346	951.89
624.765	954.98
625.185	962.83
625.604	934.23
626.023	908.43
626.442	919.65
626.861	926.1
627.28	929.18
627.699	908.15
628.118	864.38
628.537	899.17
628.956	893
629.375	854.56
629.794	855.4
630.212	855.68
630.631	837.71
631.049	847.26
631.468	808.51
631.886	844.17
632.305	866.06
632.723	810.76
633.141	789.13
633.559	788.28
633.978	827.89
634.396	804.86
634.814	766.37
635.232	765.52
635.65	772.27
636.067	747.26
636.485	768.33
636.903	728.7
637.321	759.9
637.738	734.32
638.156	752.6
638.573	736.57
638.991	712.67
639.408	736.57
639.825	721.67
640.243	710.14
640.66	711.55
641.077	730.39
641.494	719.14
641.911	682.86
642.328	702.55
642.745	676.39
643.162	674.7
643.579	692.42
643.995	683.98
644.412	692.42
644.829	659.79
645.245	653.59
645.662	632.2
646.078	649.94
646.495	648.25
646.911	634.17
647.327	625.16
647.743	626.29
648.159	630.23
648.576	617.84
648.992	627.98
649.408	651.06
649.824	609.4
650.239	640.93
650.655	627.13
651.071	629.95
651.487	622.91
651.902	617.56
652.318	622.91
652.733	595.03
653.149	578.98
653.564	627.42
653.979	607.99
654.395	582.07
654.81	610.24
655.225	569.4
655.64	567.14
656.055	584.05
656.47	574.75
656.885	587.15
657.3	582.64
657.715	582.07
658.13	574.19
658.544	565.73
658.959	540.37
659.374	546.57
659.788	538.4
660.202	554.18
660.617	549.95
661.031	540.93
661.445	549.67
661.86	516.41
662.274	545.16
662.688	515
663.102	569.11
663.516	536.14
663.93	553.62
664.344	551.36
664.758	519.23
665.171	525.43
665.585	545.16
665.999	535.58
666.412	562.07
666.826	517.25
667.239	515.56
667.653	511.61
668.066	539.81
668.479	515
668.892	503.44
669.306	525.99
669.719	535.86
670.132	531.63
670.545	504.28
670.958	520.35
671.37	522.05
671.783	522.05
672.196	514.72
672.609	498.64
673.021	490.46
673.434	468.46
673.846	513.87
674.259	516.13
674.671	499.77
675.084	499.21
675.496	495.82
675.908	488.21
676.32	491.59
676.732	485.95
677.144	487.36
677.556	489.05
677.968	494.41
678.38	487.08
678.792	502.59
679.204	473.26
679.615	462.25
680.027	480.87
680.439	492.44
680.85	464.51
681.262	465.92
681.673	489.33
682.084	484.54
682.496	461.97
682.907	453.5
683.318	500.62
683.729	449.84
684.14	475.51
684.551	459.71
684.962	482.57
685.373	488.77
685.784	456.61
686.194	447.01
686.605	485.95
687.016	450.68
687.426	441.37
687.837	486.23
688.247	472.97
688.657	456.33
689.068	457.74
689.478	460.84
689.888	482.28
690.298	466.2
690.708	465.07
691.118	432.34
691.528	478.9
691.938	441.93
692.348	457.74
692.758	434.03
693.168	435.44
693.577	450.4
693.987	463.66
694.396	439.11
694.806	436.85
695.215	424.15
695.625	439.96
696.034	434.6
696.443	425.84
696.852	457.74
697.262	454.92
697.671	454.92
698.08	451.53
698.489	427.82
698.897	434.88
699.306	442.22
699.715	458.87
700.124	457.74
700.532	447.01
700.941	448.43
701.35	433.18
701.758	423.3
702.166	438.55
702.575	452.94
702.983	431.21
703.391	453.22
703.799	432.06
704.208	433.18
704.616	427.26
705.024	437.7
705.432	449.55
705.839	418.79
706.247	417.38
706.655	417.66
707.063	423.02
707.47	430.93
707.878	402.41
708.285	445.32
708.693	450.12
709.1	425
709.508	441.93
709.915	402.98
710.322	402.41
710.729	456.89
711.136	418.79
711.543	413.42
711.95	425.84
712.357	432.62
712.764	391.96
713.171	425
713.578	411.16
713.984	430.93
714.391	421.89
714.797	428.1
715.204	409.47
715.61	445.32
716.017	414.27
716.423	401
716.829	425.84
717.236	440.24
717.642	425.28
718.048	406.65
718.454	404.95
718.86	441.37
719.266	412.29
719.671	409.19
720.077	410.6
720.483	432.34
720.889	408.91
721.294	439.11
721.7	408.34
722.105	410.32
722.511	405.52
722.916	407.78
723.321	402.98
723.726	425.84
724.132	402.13
724.537	410.32
724.942	379.25
725.347	409.47
725.752	410.88
726.156	444.47
726.561	407.78
726.966	404.39
727.371	386.6
727.775	433.47
728.18	398.74
728.584	426.13
728.989	448.71
729.393	409.19
729.798	414.83
730.202	413.71
730.606	402.98
731.01	420.48
731.414	404.67
731.818	426.97
732.222	408.34
732.626	428.67
733.03	411.16
733.434	428.67
733.837	390.55
734.241	421.89
734.645	424.72
735.048	425.56
735.452	406.08
735.855	384.9
736.258	392.81
736.662	400.72
737.065	423.59
737.468	409.47
737.871	450.12
738.274	388.29
738.677	395.35
739.08	405.52
739.483	408.91
739.886	399.87
740.289	389.7
740.691	412.01
741.094	388.85
741.497	413.71
741.899	398.74
742.302	385.75
742.704	399.59
743.106	380.66
743.508	403.26
743.911	402.69
744.313	393.09
744.715	404.67
745.117	413.99
745.519	394.5
745.921	408.62
746.323	430.64
746.724	417.09
747.126	391.11
747.528	373.88
747.929	415.12
748.331	417.66
748.732	425.84
749.134	400.43
749.535	424.43
749.936	414.27
750.338	418.79
750.739	399.59
751.14	414.27
751.541	386.31
751.942	404.39
752.343	414.55
752.744	387.16
753.144	410.6
753.545	401.28
753.946	426.41
754.346	425.56
754.747	415.68
755.148	382.64
755.548	381.79
755.948	417.38
756.349	384.34
756.749	396.2
757.149	401
757.549	386.88
757.949	406.65
758.349	391.96
758.749	405.23
759.149	383.21
759.549	384.05
759.949	381.23
760.348	396.2
760.748	393.37
761.148	399.02
761.547	405.8
761.947	402.13
762.346	400.72
762.745	393.94
763.145	393.94
763.544	389.42
763.943	399.59
764.342	389.98
764.741	401
765.14	398.17
765.539	421.05
765.938	401
766.336	397.89
766.735	403.54
767.134	382.92
767.532	388.85
767.931	397.33
768.329	399.3
768.728	418.22
769.126	390.27
769.525	410.88
769.923	384.34
770.321	410.03
770.719	406.93
771.117	410.6
771.515	391.4
771.913	388.29
772.311	406.65
772.709	413.42
773.106	399.3
773.504	387.16
773.902	396.2
774.299	382.92
774.697	388.57
775.094	381.51
775.491	406.08
775.889	416.25
776.286	373.88
776.683	415.68
777.08	399.3
777.477	393.66
777.874	415.96
778.271	391.68
778.668	386.31
779.065	400.43
779.462	401.56
779.858	409.19
780.255	366.54
780.652	393.09
781.048	416.25
781.444	413.99
781.841	376.43
782.237	408.06
782.633	389.42
783.03	393.66
783.426	401.28
783.822	420.76
784.218	387.44
784.614	412.86
785.01	392.81
785.405	405.52
785.801	429.8
786.197	403.26
786.593	389.42
786.988	374.73
787.384	397.05
787.779	367.95
788.174	405.23
788.57	367.95
788.965	394.79
789.36	381.23
789.755	404.67
790.15	379.53
790.545	396.2
790.94	388.85
791.335	393.37
791.73	384.34
792.125	381.79
792.52	396.76
792.914	382.36
793.309	371.91
793.703	404.1
794.098	372.19
794.492	370.49
794.887	411.45
795.281	403.54
795.675	400.72
796.069	406.08
796.463	402.69
796.857	389.7
797.251	380.95
797.645	396.76
798.039	396.76
798.433	405.52
798.826	369.36
799.22	383.77
799.614	403.82
800.007	394.5
800.401	377.84
800.794	411.45
801.187	364.28
801.581	400.15
801.974	400.72
802.367	409.47
802.76	395.35
803.153	398.46
803.546	394.79
803.939	379.82
804.332	404.1
804.725	397.89
805.117	383.77
805.51	386.03
805.903	400.15
806.295	401.28
806.688	375.86
807.08	366.82
807.472	392.81
807.865	390.83
808.257	397.05
808.649	400.72
809.041	366.26
809.433	412.58
809.825	400.72
810.217	406.93
810.609	384.05
811.001	413.99
811.392	396.2
811.784	411.73
812.175	393.09
812.567	399.02
812.958	406.08
813.35	391.68
813.741	377.84
814.132	412.86
814.524	405.52
814.915	371.62
815.306	397.61
815.697	412.86
816.088	392.53
816.479	375.3
816.87	395.63
817.26	378.97
817.651	398.46
818.042	389.42
818.432	373.32
818.823	407.21
819.213	378.12
819.604	387.16
819.994	389.14
820.384	383.49
820.775	411.73
821.165	399.3
821.555	374.45
821.945	383.77
822.335	384.9
822.725	390.27
823.114	381.51
823.504	374.45
823.894	389.14
824.284	377.84
824.673	379.53
825.063	392.81
825.452	404.67
825.842	392.53
826.231	390.83
826.62	370.49
827.009	386.88
827.399	381.51
827.788	384.62
828.177	393.94
828.566	403.82
828.954	396.76
829.343	385.47
829.732	386.88
830.121	365.97
830.509	379.25
830.898	380.38
831.286	373.32
831.675	369.36
832.063	386.03
832.452	377.27
832.84	410.88
833.228	373.88
833.616	404.1
834.004	392.81
834.392	387.44
834.78	369.65
835.168	397.89
835.556	408.91
835.944	404.1
836.331	395.92
836.719	398.46
837.107	405.8
837.494	382.64
837.881	395.35
838.269	386.88
838.656	389.98
839.043	355.24
839.431	367.95
839.818	404.39
840.205	371.91
840.592	368.23
840.979	403.26
841.366	377.56
841.752	392.81
842.139	373.6
842.526	384.05
842.912	381.79
843.299	369.36
843.685	400.43
844.072	381.79
844.458	382.36
844.844	383.21
845.231	364.56
845.617	380.66
846.003	395.07
846.389	375.3
846.775	389.42
847.161	378.97
847.547	352.98
847.933	392.24
848.318	374.17
848.704	360.04
849.09	367.95
849.475	397.05
849.861	380.1
850.246	392.81
850.631	386.6
851.017	403.54
851.402	403.54
851.787	410.88
852.172	375.58
852.557	365.97
852.942	398.74
853.327	399.59
853.712	361.17
854.097	396.48
854.481	389.7
854.866	387.44
855.25	382.08
855.635	400.15
856.019	372.47
856.404	369.93
856.788	394.5
857.172	392.81
857.557	402.69
857.941	395.63
858.325	398.46
858.709	382.92
859.093	397.89
859.477	365.13
859.86	394.22
860.244	398.74
860.628	370.21
861.012	381.51
861.395	379.25
861.779	365.13
862.162	375.3
862.545	382.36
862.929	402.41
863.312	409.19
863.695	378.69
864.078	379.25
864.461	366.26
864.844	393.37
865.227	380.66
865.61	358.06
865.993	397.05
866.376	407.78
866.758	383.49
867.141	389.14
867.523	376.71
867.906	428.67
868.288	382.36
868.671	401.28
869.053	406.08
869.435	376.99
869.817	386.6
870.199	384.05
870.581	380.1
870.963	378.12
871.345	380.66
871.727	393.09
872.109	391.68
872.491	390.83
872.872	383.49
873.254	388.01
873.635	392.24
874.017	379.25
874.398	384.9
874.779	385.75
875.161	385.75
875.542	367.67
875.923	367.67
876.304	366.54
876.685	395.35
877.066	379.25
877.447	381.79
877.828	376.99
878.208	376.71
878.589	384.05
878.97	379.25
879.35	383.49
879.731	361.45
880.111	376.14
880.491	359.19
880.872	381.79
881.252	384.62
881.632	378.12
882.012	410.32
882.392	389.42
882.772	360.61
883.152	418.22
883.532	387.73
883.912	366.26
884.291	382.92
884.671	370.49
885.051	383.49
885.43	373.6
885.81	357.5
886.189	374.17
886.568	405.23
886.948	369.93
887.327	399.3
887.706	400.43
888.085	367.67
888.464	414.83
888.843	391.4
889.222	395.92
889.601	359.19
889.979	378.12
890.358	410.32
890.737	368.52
891.115	385.75
891.494	373.88
891.872	382.92
892.25	367.1
892.629	397.89
893.007	371.34
893.385	379.25
893.763	361.17
894.141	399.3
894.519	382.64
894.897	370.49
895.275	382.92
895.653	370.78
896.03	370.78
896.408	398.74
896.786	380.38
897.163	386.31
897.541	362.58
897.918	362.3
898.295	378.69
898.673	381.51
899.05	354.39
899.427	372.47
899.804	389.98
900.181	389.98
900.558	390.27
900.935	352.69
901.312	358.91
901.688	380.95
902.065	359.76
902.442	373.04
902.818	362.02
903.195	380.38
903.571	366.54
903.947	389.7
904.324	383.77
904.7	362.58
905.076	383.49
905.452	353.82
905.828	398.17
906.204	381.79
906.58	368.52
906.956	370.21
907.331	374.45
907.707	378.97
908.083	391.96
908.458	381.79
908.834	366.26
909.209	385.18
909.585	366.54
909.96	375.86
910.335	377.56
910.71	381.23
911.086	405.8
911.461	383.77
911.836	373.04
912.21	370.49
912.585	386.88
912.96	374.45
913.335	381.23
913.709	362.02
914.084	362.58
914.459	365.97
914.833	364.84
915.207	392.81
915.582	377.84
915.956	370.78
916.33	357.22
916.704	364.84
917.078	363.43
917.452	365.41
917.826	385.18
918.2	373.32
918.574	382.64
918.948	382.36
919.321	373.32
919.695	368.8
920.068	391.68
920.442	388.85
920.815	397.89
921.189	374.17
921.562	389.7
921.935	367.67
922.308	391.96
922.681	384.62
923.054	362.58
923.427	352.13
923.8	386.31
924.173	426.69
924.546	397.61
924.919	380.1
925.291	381.79
925.664	377.56
926.036	374.45
926.409	392.81
926.781	356.65
927.153	376.71
927.526	376.71
927.898	379.25
928.27	366.26
928.642	397.33
929.014	373.04
929.386	360.32
929.758	357.78
930.129	374.73
930.501	391.68
930.873	380.66
931.244	382.36
931.616	369.65
931.987	391.4
932.359	393.94
932.73	372.47
933.101	392.53
933.472	378.69
933.843	395.07
934.214	381.23
934.585	371.91
934.956	376.14
935.327	365.41
935.698	345.35
936.069	370.49
936.439	364.56
936.81	383.77
937.18	366.54
937.551	373.04
937.921	377.84
938.292	384.62
938.662	380.38
939.032	388.29
939.402	372.47
939.772	389.14
940.142	397.05
940.512	375.86
940.882	378.4
941.252	382.92
941.621	371.06
941.991	363.71
942.361	372.75
942.73	361.45
943.1	385.47
943.469	378.97
943.838	363.71
944.208	362.58
944.577	382.64
944.946	385.18
945.315	391.4
945.684	396.48
946.053	382.08
946.422	376.14
946.791	381.79
947.159	367.95
947.528	356.65
947.897	380.38
948.265	377.56
948.634	371.06
949.002	368.23
949.371	366.54
949.739	378.69
950.107	373.32
950.475	367.67
950.843	372.19
951.211	371.91
951.579	371.62
951.947	393.66
952.315	387.73
952.683	349.3
953.05	361.45
953.418	376.14
953.785	343.65
954.153	353.26
954.52	375.58
954.888	380.1
955.255	390.83
955.622	382.64
955.989	375.86
956.356	380.66
956.723	375.86
957.09	377.56
957.457	369.08
957.824	383.77
958.191	362.02
958.557	362.02
958.924	378.12
959.291	383.77
959.657	376.71
960.023	406.65
960.39	373.88
960.756	369.65
961.122	392.53
961.488	391.68
961.855	375.58
962.221	392.24
962.586	367.1
962.952	364
963.318	367.39
963.684	365.13
964.05	370.21
964.415	390.27
964.781	391.96
965.146	385.75
965.512	382.08
965.877	370.49
966.242	367.39
966.608	356.08
966.973	372.19
967.338	377.56
967.703	368.23
968.068	366.82
968.433	406.36
968.797	378.69
969.162	367.1
969.527	379.82
969.891	357.78
970.256	386.03
970.62	367.39
970.985	365.69
971.349	402.69
971.714	359.48
972.078	374.45
972.442	376.99
972.806	373.04
973.17	356.08
973.534	374.73
973.898	379.53
974.262	398.46
974.625	395.35
974.989	391.4
975.353	377.27
975.716	396.76
976.08	358.91
976.443	362.58
976.806	397.33
977.17	391.11
977.533	374.45
977.896	367.67
978.259	365.69
978.622	362.58
978.985	380.66
979.348	356.08
979.711	361.45
980.073	356.65
980.436	356.65
980.799	393.09
981.161	382.08
981.524	395.92
981.886	363.43
982.248	353.54
982.611	380.95
982.973	367.1
983.335	379.82
983.697	379.25
984.059	353.26
984.421	378.4
984.783	378.97
985.145	363.15
985.506	385.18
985.868	410.32
986.23	362.58
986.591	373.32
986.953	373.32
987.314	364.28
987.675	364.84
988.037	523.17
988.398	372.19
988.759	381.23
989.12	389.14
989.481	364.56
989.842	371.34
990.203	361.17
990.564	391.11
990.924	374.73
991.285	491.03
991.646	382.36
992.006	364.56
992.367	384.9
992.727	374.73
993.087	374.73
993.448	365.41
993.808	395.63
994.168	380.66
994.528	377.27
994.888	363.43
995.248	364.84
995.608	365.41
995.967	365.13
996.327	360.89
996.687	373.32
997.046	353.82
997.406	350.43
997.765	370.21
998.125	383.21
998.484	368.8
998.843	386.31
999.202	367.67
999.561	362.3
999.92	372.75
1000.279	377.84
1000.638	373.6
1000.997	380.1
1001.356	352.13
1001.715	365.41
1002.073	361.17
1002.432	369.36
1002.79	355.24
1003.149	356.93
1003.507	370.49
1003.865	345.63
1004.224	350.72
1004.582	379.53
1004.94	383.49
1005.298	369.08
1005.656	384.34
1006.014	378.97
1006.371	381.51
1006.729	349.87
1007.087	369.08
1007.445	387.16
1007.802	369.93
1008.16	379.53
1008.517	372.19
1008.874	387.44
1009.232	356.65
1009.589	382.08
1009.946	353.26
1010.303	371.34
1010.66	356.37
1011.017	388.29
1011.374	337.15
1011.731	404.39
1012.087	368.8
1012.444	347.89
1012.801	375.01
1013.157	376.43
1013.513	358.91
1013.87	363.15
1014.226	381.79
1014.582	338.85
1014.939	359.48
1015.295	378.4
1015.651	348.74
1016.007	367.95
1016.363	379.25
1016.719	390.83
1017.074	362.87
1017.43	361.74
1017.786	362.87
1018.141	379.53
1018.497	375.86
1018.852	386.31
1019.208	384.9
1019.563	393.09
1019.918	371.34
1020.273	371.06
1020.628	368.23
1020.983	393.94
1021.338	370.21
1021.693	374.45
1022.048	375.86
1022.403	371.34
1022.757	389.42
1023.112	363.71
1023.467	361.17
1023.821	375.58
1024.175	370.21
1024.53	397.33
1024.884	367.67
1025.238	371.62
1025.592	358.35
1025.946	388.29
1026.3	367.67
1026.654	380.38
1027.008	384.9
1027.362	364
1027.716	405.8
1028.069	388.85
1028.423	376.71
1028.777	342.24
1029.13	362.3
1029.483	368.8
1029.837	359.76
1030.19	377.27
1030.543	369.08
1030.896	369.08
1031.249	364.84
1031.602	387.73
1031.955	371.91
1032.308	375.58
1032.661	369.36
1033.013	375.86
1033.366	367.67
1033.719	386.6
1034.071	380.1
1034.424	365.41
1034.776	379.53
1035.128	377.56
1035.48	385.18
1035.833	364.28
1036.185	374.17
1036.537	374.17
1036.889	374.17
