Data from SCSF78-405_irradiation_FLMS019251_21-19-27-973.txt Node
Date: Fri Feb 22 21:19:27 PST 2019
User: mu3e
Spectrometer: FLMS01925
Trigger mode: 0
Integration Time (sec): 1.206000E-2
Scans to average: 10
Electric dark correction enabled: true
Nonlinearity correction enabled: true
Boxcar width: 0
XAxis mode: Wavelengths
Number of Pixels in Spectrum: 2048
>>>>>Begin Spectral Data<<<<<
187.103	-80.73
187.574	-80.73
188.045	-80.73
188.516	-162.64
188.987	-128.78
189.458	-117.41
189.929	-140.16
190.4	-115.13
190.871	-84.71
191.342	-78.46
191.813	-53.73
192.284	-21.92
192.754	-22.2
193.225	-12.26
193.696	26.06
194.166	42.24
194.637	78.27
195.107	89.04
195.578	115.13
196.048	146.59
196.518	147.72
196.989	188.51
197.459	193.05
197.929	254.19
198.399	254.47
198.869	288.7
199.339	286.44
199.809	294.92
200.279	320.08
200.749	329.41
201.219	343.26
201.689	365.87
202.159	359.93
202.628	358.52
203.098	380.84
203.568	404.56
204.037	395.81
204.507	373.21
204.976	389.6
205.445	371.8
205.915	390.73
206.384	389.6
206.853	390.16
207.323	403.15
207.792	371.24
208.261	384.23
208.73	352.87
209.199	389.88
209.668	403.43
210.137	394.12
210.606	358.52
211.075	368.41
211.543	362.48
212.012	390.44
212.481	366.15
212.95	368.41
213.418	385.08
213.887	358.8
214.355	380.28
214.824	347.22
215.292	360.78
215.76	368.13
216.229	370.11
216.697	362.2
217.165	346.65
217.633	344.11
218.101	386.21
218.569	355.7
219.037	350.33
219.505	370.11
219.973	361.06
220.441	352.02
220.909	355.7
221.377	329.98
221.844	354.85
222.312	331.39
222.78	367.28
223.247	358.52
223.715	350.61
224.182	350.89
224.65	331.67
225.117	350.33
225.584	347.22
226.052	360.78
226.519	363.04
226.986	364.74
227.453	337.89
227.92	365.59
228.387	377.73
228.854	343.55
229.321	352.02
229.788	378.86
230.255	380.56
230.722	357.67
231.189	363.61
231.655	355.41
232.122	346.37
232.589	346.37
233.055	394.96
233.522	361.91
233.988	366.72
234.454	373.5
234.921	372.65
235.387	355.13
235.853	369.26
236.32	389.03
236.786	350.61
237.252	369.54
237.718	364.74
238.184	368.13
238.65	379.15
239.116	345.81
239.582	361.06
240.047	374.06
240.513	354
240.979	387.05
241.445	379.15
241.91	359.65
242.376	377.45
242.841	367
243.307	354.85
243.772	373.21
244.238	367.28
244.703	379.15
245.168	355.98
245.633	359.09
246.099	347.22
246.564	369.54
247.029	373.5
247.494	363.61
247.959	370.67
248.424	370.11
248.889	379.15
249.353	373.78
249.818	347.22
250.283	390.44
250.748	377.73
251.212	379.71
251.677	404
252.141	365.59
252.606	354.28
253.07	359.65
253.535	397.5
253.999	387.9
254.463	365.87
254.927	387.62
255.392	391.29
255.856	374.91
256.32	366.43
256.784	359.37
257.248	398.07
257.712	366.15
258.176	381.97
258.64	386.49
259.103	389.03
259.567	383.38
260.031	363.04
260.495	384.79
260.958	344.11
261.422	365.87
261.885	384.23
262.349	373.78
262.812	357.11
263.275	362.48
263.739	379.43
264.202	390.16
264.665	365.02
265.128	383.95
265.591	409.65
266.054	381.97
266.517	395.24
266.98	398.63
267.443	369.54
267.906	370.39
268.369	400.05
268.832	406.54
269.294	378.86
269.757	391.86
270.22	376.04
270.682	384.51
271.145	386.21
271.607	419.25
272.07	384.79
272.532	382.25
272.994	359.65
273.456	386.21
273.919	380.84
274.381	363.61
274.843	372.65
275.305	371.8
275.767	389.03
276.229	389.31
276.691	353.15
277.153	423.48
277.614	367.28
278.076	404
278.538	391.29
279	395.81
279.461	383.1
279.923	366.43
280.384	392.7
280.846	407.95
281.307	358.8
281.769	380.56
282.23	391.29
282.691	365.59
283.152	414.45
283.613	398.07
284.075	389.03
284.536	386.49
284.997	362.76
285.458	371.8
285.918	383.1
286.379	403.72
286.84	383.66
287.301	399.48
287.762	399.48
288.222	396.66
288.683	396.09
289.143	390.73
289.604	397.22
290.064	375.19
290.525	395.24
290.985	379.15
291.445	399.76
291.906	398.63
292.366	365.87
292.826	396.09
293.286	382.54
293.746	371.8
294.206	390.73
294.666	413.32
295.126	399.2
295.586	397.5
296.046	416.42
296.506	379.99
296.965	405.69
297.425	431.67
297.884	405.98
298.344	371.8
298.804	396.66
299.263	418.4
299.722	410.78
300.182	381.97
300.641	383.1
301.1	401.74
301.559	394.12
302.019	397.79
302.478	415.01
302.937	395.81
303.396	411.62
303.855	413.88
304.314	365.87
304.772	400.33
305.231	405.98
305.69	412.47
306.149	385.64
306.607	388.18
307.066	370.95
307.524	404
307.983	364.46
308.441	413.03
308.9	390.44
309.358	413.6
309.816	401.74
310.275	383.1
310.733	395.24
311.191	393.83
311.649	428.56
312.107	373.5
312.565	385.64
313.023	400.61
313.481	399.2
313.939	410.78
314.397	383.66
314.854	410.21
315.312	391.57
315.77	426.87
316.227	365.59
316.685	411.06
317.142	387.34
317.6	416.71
318.057	397.79
318.514	400.33
318.972	390.44
319.429	388.18
319.886	376.89
320.343	409.65
320.8	394.68
321.257	398.35
321.714	395.24
322.171	422.92
322.628	428.56
323.085	419.53
323.542	401.46
323.998	398.07
324.455	406.26
324.912	392.99
325.368	402.87
325.825	397.5
326.281	400.61
326.738	391.29
327.194	382.54
327.65	409.36
328.107	416.14
328.563	389.31
329.019	395.81
329.475	396.09
329.931	386.77
330.387	391.57
330.843	387.34
331.299	429.41
331.755	420.66
332.211	405.69
332.666	404.85
333.122	401.74
333.578	416.99
334.033	409.08
334.489	398.07
334.944	407.95
335.4	405.41
335.855	411.06
336.31	387.9
336.766	417.27
337.221	421.22
337.676	401.46
338.131	396.66
338.586	423.2
339.041	440.13
339.496	416.71
339.951	418.96
340.406	435.34
340.861	393.55
341.316	414.45
341.771	381.69
342.225	399.76
342.68	381.69
343.134	416.14
343.589	385.36
344.043	416.71
344.498	386.21
344.952	376.89
345.406	404.28
345.861	423.76
346.315	387.9
346.769	402.3
347.223	413.03
347.677	396.09
348.131	400.89
348.585	397.5
349.039	433.08
349.493	406.54
349.947	386.77
350.401	422.35
350.854	404.56
351.308	416.99
351.762	413.03
352.215	374.06
352.669	404
353.122	377.45
353.575	415.58
354.029	394.4
354.482	383.1
354.935	399.48
355.388	417.55
355.842	405.41
356.295	415.58
356.748	403.15
357.201	415.86
357.654	407.67
358.106	418.4
358.559	420.66
359.012	404.28
359.465	405.69
359.917	397.79
360.37	413.6
360.823	398.07
361.275	412.19
361.728	436.47
362.18	414.73
362.632	418.12
363.085	408.52
363.537	407.11
363.989	418.68
364.441	395.53
364.893	417.27
365.345	407.39
365.797	409.93
366.249	406.54
366.701	422.92
367.153	396.37
367.605	379.15
368.057	415.86
368.508	419.53
368.96	423.76
369.411	418.96
369.863	411.06
370.314	416.14
370.766	408.23
371.217	423.48
371.669	403.15
372.12	413.32
372.571	398.07
373.022	406.54
373.473	434.77
373.924	396.66
374.375	449.73
374.826	402.87
375.277	401.18
375.728	395.81
376.179	425.46
376.63	424.61
377.08	436.18
377.531	438.72
377.981	407.11
378.432	425.46
378.883	422.63
379.333	428
379.783	420.38
380.234	426.87
380.684	431.1
381.134	419.25
381.584	421.5
382.034	442.39
382.485	407.95
382.935	435.05
383.385	400.05
383.834	396.94
384.284	424.61
384.734	396.94
385.184	436.75
385.634	429.13
386.083	429.97
386.533	405.98
386.982	409.36
387.432	415.58
387.881	454.81
388.331	445.78
388.78	460.74
389.229	418.68
389.679	410.21
390.128	428.56
390.577	434.77
391.026	410.21
391.475	427.43
391.924	432.23
392.373	447.47
392.822	427.72
393.27	422.63
393.719	430.26
394.168	433.64
394.617	443.24
395.065	420.66
395.514	425.46
395.962	426.3
396.411	444.37
396.859	448.04
397.307	486.69
397.756	424.05
398.204	454.53
398.652	454.25
399.1	449.73
399.548	433.93
399.996	446.34
400.444	447.76
400.892	470.05
401.34	418.68
401.788	452.27
402.236	428.28
402.683	453.96
403.131	435.05
403.579	459.04
404.026	434.21
404.474	444.93
404.921	451.99
405.369	477.66
405.816	451.42
406.263	466.66
406.71	475.69
407.158	466.66
407.605	461.58
408.052	487.82
408.499	478.79
408.946	507.56
409.393	497.41
409.84	486.97
410.286	539.14
410.733	510.1
411.18	550.13
411.626	591.83
412.073	619.99
412.52	644.48
412.966	770.48
413.413	899.07
413.859	1039.48
414.305	1258.98
414.752	1539.91
415.198	1847.83
415.644	2229.61
416.09	2699.04
416.536	3232.9
416.982	3855
417.428	4566.09
417.874	5295.18
418.32	6080.83
418.766	7014.42
419.211	7960.06
419.657	8833.99
420.103	10086.6
420.548	10819.88
420.994	12043.11
421.439	13111.82
421.885	14136.26
422.33	15624.19
422.776	16583.99
423.221	17483.69
423.666	18663.17
424.111	20041.77
424.556	20903.38
425.001	22281.82
425.446	23517.91
425.891	24768.69
426.336	25623.39
426.781	26823.29
427.226	28933.79
427.671	29395.4
428.115	30237.73
428.56	31864.95
429.005	33351.71
429.449	33779.2
429.894	35247.9
430.338	36100.96
430.782	36425.63
431.227	37773.59
431.671	38181.64
432.115	39715.27
432.559	40474.3
433.003	40355.62
433.447	41471.46
433.891	41787.82
434.335	42215
434.779	42837.92
435.223	42958.66
435.667	43014.7
436.111	43608.74
436.554	43394.59
436.998	43038.11
437.442	43118.33
437.885	44971.99
438.328	43698.16
438.772	43954.63
439.215	44497.13
439.659	43986.4
440.102	44448.23
440.545	43896.11
440.988	43586.02
441.431	44276.3
441.874	43913.87
442.317	44288.57
442.76	43703.41
443.203	43203.57
443.646	43786.12
444.089	43558.55
444.531	44080.24
444.974	43108.86
445.417	43839.86
445.859	42936.25
446.302	44039.69
446.744	43482.67
447.186	44418.64
447.629	43603.25
448.071	43390.84
448.513	43565.54
448.956	44936.54
449.398	44066.72
449.84	42927.04
450.282	43571.04
450.724	44214.18
451.166	43822.36
451.607	43689.67
452.049	43766.62
452.491	44790.54
452.933	44280.56
453.374	44916.69
453.816	45287.58
454.257	44856.87
454.699	46186.77
455.14	45623.94
455.582	45508.13
456.023	45462.99
456.464	45767.87
456.905	46169.54
457.347	46066.75
457.788	45114.37
458.229	45329.91
458.67	46222.23
459.111	44520.71
459.552	44504.65
459.992	44391.82
460.433	44355.23
460.874	43286.34
461.315	44458.01
461.755	43565.79
462.196	42906.37
462.636	42244.05
463.077	41933.12
463.517	42057.89
463.957	42303.4
464.398	41994.38
464.838	42149.71
465.278	41038.73
465.718	41315.52
466.158	40354.38
466.598	40552.55
467.038	40204.91
467.478	40576.49
467.918	40881.28
468.358	40089.52
468.798	39739.89
469.237	39669.47
469.677	39565.58
470.117	40241.9
470.556	38140.67
470.996	38701.8
471.435	38705.24
471.874	39457.28
472.314	39201.93
472.753	38329.11
473.192	38489.14
473.631	38072.24
474.07	38200.78
474.509	38281.5
474.948	38475.89
475.387	37910.14
475.826	36913.68
476.265	38655.62
476.704	38054.33
477.143	38535.3
477.581	38284.69
478.02	38770.08
478.458	37553.52
478.897	38029.56
479.335	39326.88
479.774	38566.97
480.212	38914.31
480.65	38824.87
481.089	38473.43
481.527	38143.86
481.965	37700.06
482.403	39418.16
482.841	39276.21
483.279	39195.29
483.717	39180.79
484.155	38893.91
484.592	39328.36
485.03	39407.09
485.468	38427.28
485.905	38529.41
486.343	39019.26
486.781	38541.68
487.218	37898.62
487.655	37838.06
488.093	36989.3
488.53	38326.16
488.967	37547.64
489.405	37456.26
489.842	36645.51
490.279	36596.1
490.716	36307.29
491.153	36697.37
491.59	36126.63
492.027	35445.94
492.463	35065.52
492.9	34355.11
493.337	34330.71
493.773	34498.57
494.21	33569.71
494.647	33362.68
495.083	32752.15
495.519	32278.45
495.956	32277.96
496.392	31773.03
496.828	31521.65
497.265	30941.51
497.701	31095.4
498.137	30613.44
498.573	29987.36
499.009	30409.01
499.445	29750.37
499.881	29107.47
500.316	29452.78
500.752	28631.78
501.188	28450.92
501.624	28399.83
502.059	27188.02
502.495	26980.08
502.93	27021.24
503.366	27247.03
503.801	26487.27
504.236	26200.11
504.672	25775.12
505.107	25566.18
505.542	24940.83
505.977	25061.04
506.412	24656.28
506.847	24866.08
507.282	24390.28
507.717	24036.94
508.152	23994.33
508.587	23783.66
509.021	23176.26
509.456	22943.49
509.891	22936.58
510.325	22876.83
510.76	22558.91
511.194	22280.83
511.628	22386.15
512.063	21749.63
512.497	21784.54
512.931	21182.84
513.366	21140.2
513.8	21154.33
514.234	20521.21
514.668	20540.58
515.102	20715.81
515.536	19925.67
515.969	20124.28
516.403	19574.21
516.837	19324.05
517.271	19467.69
517.704	19000.97
518.138	18848.68
518.571	18712.05
519.005	18377.74
519.438	18279.15
519.871	18112.09
520.305	17768.78
520.738	17746.53
521.171	17246.71
521.604	17443.91
522.037	17168.1
522.47	16800.6
522.903	16568.19
523.336	16535.09
523.769	16407.4
524.202	15924.82
524.634	15932.61
525.067	15711.69
525.5	15538.42
525.932	15428.73
526.365	15176.5
526.797	14914
527.23	14922.57
527.662	14450.93
528.094	14266.36
528.527	14278.99
528.959	13986.38
529.391	13686.14
529.823	13278.39
530.255	13431.94
530.687	13133.63
531.119	12859.61
531.551	12824.32
531.982	12563.94
532.414	12429.45
532.846	12044.13
533.277	11970.76
533.709	11701.28
534.14	11555.57
534.572	11427.9
535.003	11295.81
535.435	11153.4
535.866	10932.06
536.297	10685.86
536.728	10671.5
537.159	10575.08
537.59	10381.85
538.022	10248.28
538.452	10046.22
538.883	9806.84
539.314	9851.13
539.745	9582.09
540.176	9445.86
540.606	9188.05
541.037	9276.18
541.468	9061.58
541.898	8979.03
542.328	8755.47
542.759	8661.85
543.189	8678.45
543.619	8594.65
544.05	8327.63
544.48	8146.04
544.91	8071.05
545.34	7967.61
545.77	7837.75
546.2	7816.1
546.63	7576.6
547.06	7642.46
547.489	7524.31
547.919	7263.07
548.349	7257.57
548.778	7195.19
549.208	7090.8
549.637	6987.37
550.067	6912.77
550.496	6883.6
550.926	6718.43
551.355	6624.96
551.784	6627.07
552.213	6479.21
552.642	6398.22
553.071	6329.05
553.5	6255.88
553.929	6046.95
554.358	6056.21
554.787	5953.72
555.216	5941.54
555.645	5858.04
556.073	5730.14
556.502	5724.83
556.93	5549.19
557.359	5536.69
557.787	5549.72
558.216	5480.02
558.644	5355.94
559.072	5316.24
559.5	5229.31
559.929	5228.51
560.357	5190.62
560.785	5131.63
561.213	5105.72
561.641	4962.73
562.068	4955.78
562.496	4932.77
562.924	4820.34
563.352	4844.18
563.779	4831.05
564.207	4796.23
564.634	4733.52
565.062	4730.3
565.489	4657.09
565.917	4597.51
566.344	4607.71
566.771	4627.84
567.198	4470.71
567.625	4428.5
568.053	4360.44
568.48	4370.66
568.907	4334.06
569.333	4291.25
569.76	4121.15
570.187	4153.79
570.614	4049.62
571.04	4188.58
571.467	3934.52
571.894	3918.57
572.32	3779.2
572.747	3788.14
573.173	3675.69
573.599	3644.77
574.026	3586.98
574.452	3566.62
574.878	3471.29
575.304	3377.75
575.73	3346.19
576.156	3287.93
576.582	3305.09
577.008	3177.84
577.434	3138.56
577.86	3065.69
578.285	3059.41
578.711	2949.58
579.137	3007.25
579.562	2865.33
579.988	2895.15
580.413	2836.58
580.838	2761.54
581.264	2764.55
581.689	2687.24
582.114	2645.55
582.539	2626.89
582.964	2595.32
583.39	2545.88
583.814	2522.8
584.239	2459.84
584.664	2459.57
585.089	2411.43
585.514	2377.02
585.939	2315.06
586.363	2342.33
586.788	2277.3
587.212	2271.79
587.637	2237.6
588.061	2217.75
588.485	2132.19
588.91	2143.79
589.334	2158.42
589.758	2111.2
590.182	2067.28
590.606	2042.4
591.03	1942.82
591.454	1967.73
591.878	1960.81
592.302	1945.59
592.726	1907.94
593.15	1870.82
593.573	1860.3
593.997	1852.26
594.42	1815.4
594.844	1749.95
595.267	1797.1
595.691	1736.63
596.114	1751.89
596.537	1721.64
596.96	1683.61
597.384	1686.94
597.807	1630.83
598.23	1640.83
598.653	1647.78
599.076	1610.26
599.499	1602.2
599.921	1570.78
600.344	1566.61
600.767	1546.86
601.189	1559.38
601.612	1591.36
602.034	1553.54
602.457	1535.46
602.879	1494.55
603.302	1521.55
603.724	1456.68
604.146	1494.55
604.568	1452.51
604.991	1470.05
605.413	1459.19
605.835	1463.92
606.257	1459.75
606.678	1462.81
607.1	1415.73
607.522	1435.51
607.944	1382.85
608.365	1406.54
608.787	1380.06
609.209	1379.5
609.63	1341.58
610.051	1373.93
610.473	1302.52
610.894	1324.28
611.315	1313.96
611.737	1282.71
612.158	1307.26
612.579	1261.21
613	1264
613.421	1249.76
613.842	1240.27
614.263	1187.74
614.683	1208.14
615.104	1207.03
615.525	1167.9
615.945	1188.58
616.366	1132.11
616.787	1179.64
617.207	1116.45
617.627	1103.58
618.048	1081.75
618.468	1085.95
618.888	1086.79
619.308	1046.76
619.728	1056.84
620.148	1016.52
620.568	1028.56
620.988	1003.91
621.408	998.31
621.828	1003.35
622.248	975.33
622.668	969.45
623.087	950.67
623.507	941.14
623.926	980.94
624.346	942.26
624.765	927.12
625.185	933
625.604	916.74
626.023	893.18
626.442	887
626.861	883.08
627.28	839.85
627.699	877.75
628.118	833.68
628.537	868.77
628.956	856.14
629.375	827.78
629.794	842.38
630.212	823.85
630.631	812.05
631.049	831.99
631.468	815.71
631.886	816.55
632.305	826.94
632.723	810.09
633.141	791.27
633.559	771.32
633.978	767.39
634.396	767.11
634.814	754.18
635.232	747.99
635.65	761.2
636.067	753.33
636.485	765.14
636.903	730
637.321	721.85
637.738	751.37
638.156	732.81
638.573	694.01
638.991	720.72
639.408	703.01
639.825	670.09
640.243	668.12
640.66	710.32
641.077	697.66
641.494	686.41
641.911	668.97
642.328	694.29
642.745	658.27
643.162	657.71
643.579	676.28
643.995	658.55
644.412	666.43
644.829	658.55
645.245	669.25
645.662	656.3
646.078	625.34
646.495	619.43
646.911	619.71
647.327	626.18
647.743	632.1
648.159	633.79
648.576	613.23
648.992	607.88
649.408	615.2
649.824	603.09
650.239	621.12
650.655	630.41
651.071	590.42
651.487	575.49
651.902	589.01
652.318	600.84
652.733	580.56
653.149	563.37
653.564	576.33
653.979	586.48
654.395	592.39
654.81	571.54
655.225	578.87
655.64	562.25
656.055	587.32
656.47	582.53
656.885	561.68
657.3	544.49
657.715	554.64
658.13	568.16
658.544	555.77
658.959	570.98
659.374	565.63
659.788	556.89
660.202	551.54
660.617	550.13
661.031	525.61
661.445	547.03
661.86	545.06
662.274	525.04
662.688	517.71
663.102	533.5
663.516	533.5
663.93	537.45
664.344	536.88
664.758	536.32
665.171	546.18
665.585	526.73
665.999	525.89
666.412	494.87
666.826	491.77
667.239	514.89
667.653	534.34
668.066	517.99
668.479	510.38
668.892	505.59
669.306	503.05
669.719	514.89
670.132	503.05
670.545	501.07
670.958	505.59
671.37	511.79
671.783	525.32
672.196	496.28
672.609	521.94
673.021	475.12
673.434	508.41
673.846	478.51
674.259	473.71
674.671	496
675.084	492.9
675.496	484.15
675.908	491.49
676.32	513.2
676.732	475.12
677.144	464.69
677.556	498.25
677.968	496
678.38	496.28
678.792	480.77
679.204	484.43
679.615	485
680.027	491.77
680.439	473.71
680.85	489.79
681.262	457.35
681.673	479.07
682.084	440.7
682.496	502.48
682.907	476.82
683.318	461.3
683.729	450.29
684.14	460.17
684.551	500.79
684.962	458.76
685.373	457.07
685.784	472.87
686.194	473.15
686.605	456.22
687.016	441.83
687.426	450.86
687.837	458.2
688.247	459.61
688.657	459.32
689.068	450.58
689.478	470.05
689.888	450.58
690.298	471.18
690.708	480.48
691.118	426.02
691.528	437.31
691.938	460.45
692.348	446.63
692.758	458.48
693.168	440.42
693.577	462.71
693.987	448.04
694.396	459.61
694.806	438.16
695.215	418.96
695.625	442.68
696.034	457.63
696.443	469.2
696.852	440.98
697.262	421.79
697.671	468.35
698.08	420.09
698.489	423.48
698.897	430.26
699.306	425.17
699.715	432.51
700.124	446.63
700.532	433.36
700.941	418.4
701.35	431.95
701.758	435.34
702.166	439.29
702.575	451.14
702.983	424.61
703.391	417.55
703.799	423.48
704.208	419.53
704.616	424.33
705.024	430.82
705.432	398.92
705.839	431.67
706.247	421.22
706.655	438.72
707.063	422.07
707.47	426.59
707.878	429.69
708.285	421.5
708.693	420.38
709.1	422.07
709.508	400.89
709.915	422.63
710.322	440.13
710.729	424.05
711.136	422.07
711.543	424.33
711.95	427.15
712.357	408.23
712.764	415.29
713.171	404
713.578	396.66
713.984	384.79
714.391	418.96
714.797	404.56
715.204	422.63
715.61	415.58
716.017	404.56
716.423	419.53
716.829	422.07
717.236	400.61
717.642	411.34
718.048	410.49
718.454	408.8
718.86	435.05
719.266	404
719.671	404
720.077	423.2
720.483	414.73
720.889	405.98
721.294	417.83
721.7	424.33
722.105	407.95
722.511	417.27
722.916	400.61
723.321	394.68
723.726	410.21
724.132	390.44
724.537	405.69
724.942	416.99
725.347	395.81
725.752	432.51
726.156	414.73
726.561	418.96
726.966	388.47
727.371	416.71
727.775	379.71
728.18	391.86
728.584	417.27
728.989	427.72
729.393	404.56
729.798	402.59
730.202	395.24
730.606	387.62
731.01	413.32
731.414	398.35
731.818	394.4
732.222	403.15
732.626	409.36
733.03	407.95
733.434	388.47
733.837	406.26
734.241	395.81
734.645	410.49
735.048	409.08
735.452	429.41
735.855	394.4
736.258	389.6
736.662	396.37
737.065	428.84
737.468	421.5
737.871	440.13
738.274	399.2
738.677	404.56
739.08	395.81
739.483	406.82
739.886	406.26
740.289	408.8
740.691	379.15
741.094	397.22
741.497	400.33
741.899	400.61
742.302	387.05
742.704	381.12
743.106	395.81
743.508	404
743.911	414.16
744.313	394.12
744.715	382.82
745.117	379.99
745.519	395.24
745.921	415.29
746.323	416.14
746.724	407.67
747.126	389.03
747.528	410.21
747.929	386.77
748.331	405.98
748.732	391.01
749.134	419.81
749.535	402.3
749.936	374.06
750.338	379.15
750.739	416.42
751.14	391.57
751.541	409.08
751.942	402.02
752.343	406.82
752.744	412.75
753.144	391.01
753.545	423.48
753.946	402.59
754.346	394.96
754.747	387.9
755.148	374.63
755.548	387.62
755.948	409.36
756.349	379.99
756.749	387.05
757.149	401.18
757.549	380.28
757.949	386.21
758.349	392.42
758.749	400.61
759.149	419.25
759.549	384.79
759.949	389.31
760.348	401.74
760.748	394.68
761.148	402.3
761.547	378.86
761.947	387.9
762.346	392.42
762.745	397.22
763.145	436.18
763.544	372.37
763.943	389.03
764.342	367.28
764.741	402.87
765.14	403.15
765.539	416.99
765.938	389.6
766.336	388.47
766.735	383.95
767.134	395.24
767.532	410.78
767.931	385.08
768.329	399.76
768.728	389.31
769.126	385.36
769.525	398.63
769.923	413.6
770.321	390.73
770.719	401.74
771.117	385.64
771.515	387.34
771.913	403.72
772.311	408.8
772.709	379.99
773.106	378.02
773.504	394.96
773.902	388.18
774.299	399.48
774.697	389.6
775.094	392.14
775.491	378.86
775.889	377.45
776.286	394.12
776.683	405.13
777.08	387.05
777.477	381.97
777.874	396.37
778.271	406.82
778.668	420.38
779.065	421.79
779.462	396.94
779.858	403.72
780.255	399.48
780.652	389.6
781.048	405.69
781.444	377.45
781.841	415.01
782.237	411.06
782.633	394.68
783.03	402.87
783.426	398.63
783.822	381.97
784.218	391.86
784.614	394.12
785.01	388.47
785.405	392.99
785.801	374.63
786.197	413.88
786.593	377.17
786.988	396.66
787.384	364.46
787.779	399.48
788.174	377.73
788.57	409.36
788.965	389.6
789.36	393.27
789.755	383.95
790.15	378.02
790.545	370.11
790.94	357.96
791.335	402.02
791.73	371.52
792.125	377.45
792.52	392.42
792.914	373.21
793.309	381.97
793.703	367.56
794.098	394.4
794.492	389.6
794.887	395.53
795.281	394.4
795.675	368.41
796.069	404.28
796.463	365.87
796.857	416.71
797.251	391.29
797.645	378.86
798.039	381.69
798.433	358.24
798.826	379.99
799.22	378.58
799.614	392.14
800.007	397.5
800.401	415.58
800.794	401.46
801.187	393.27
801.581	376.89
801.974	376.89
802.367	366.72
802.76	382.82
803.153	380.56
803.546	361.91
803.939	370.11
804.332	404.28
804.725	391.86
805.117	384.51
805.51	372.08
805.903	386.49
806.295	393.83
806.688	371.8
807.08	377.73
807.472	388.75
807.865	373.21
808.257	382.54
808.649	391.01
809.041	380.56
809.433	392.42
809.825	378.3
810.217	372.08
810.609	380.56
811.001	391.01
811.392	375.47
811.784	392.99
812.175	385.08
812.567	408.8
812.958	412.47
813.35	401.74
813.741	395.81
814.132	414.73
814.524	398.07
814.915	374.34
815.306	362.48
815.697	384.51
816.088	397.22
816.479	399.76
816.87	389.03
817.26	384.23
817.651	410.78
818.042	368.69
818.432	379.99
818.823	369.54
819.213	414.73
819.604	357.39
819.994	400.05
820.384	374.06
820.775	382.82
821.165	409.65
821.555	391.86
821.945	389.03
822.335	374.63
822.725	394.4
823.114	389.03
823.504	403.43
823.894	391.29
824.284	365.02
824.673	376.6
825.063	380.84
825.452	380.28
825.842	380.28
826.231	383.38
826.62	388.75
827.009	381.69
827.399	384.23
827.788	402.59
828.177	406.26
828.566	389.31
828.954	397.22
829.343	380.28
829.732	391.01
830.121	372.65
830.509	376.89
830.898	406.82
831.286	362.48
831.675	387.62
832.063	395.53
832.452	412.19
832.84	372.08
833.228	390.16
833.616	376.04
834.004	393.27
834.392	381.12
834.78	374.91
835.168	378.02
835.556	396.37
835.944	358.52
836.331	394.12
836.719	387.9
837.107	375.76
837.494	382.82
837.881	376.89
838.269	366.15
838.656	351.18
839.043	391.01
839.431	399.48
839.818	389.88
840.205	373.5
840.592	383.1
840.979	349.76
841.366	381.69
841.752	376.6
842.139	385.36
842.526	403.72
842.912	392.14
843.299	363.89
843.685	379.15
844.072	403.43
844.458	396.09
844.844	381.12
845.231	399.48
845.617	391.29
846.003	393.27
846.389	400.89
846.775	407.39
847.161	381.41
847.547	378.58
847.933	367.28
848.318	373.78
848.704	383.1
849.09	388.18
849.475	393.83
849.861	395.24
850.246	374.91
850.631	357.67
851.017	375.19
851.402	379.43
851.787	395.53
852.172	363.61
852.557	387.62
852.942	379.71
853.327	391.29
853.712	357.67
854.097	395.81
854.481	383.38
854.866	395.81
855.25	405.41
855.635	391.01
856.019	380.56
856.404	362.76
856.788	398.63
857.172	405.69
857.557	365.59
857.941	399.76
858.325	373.21
858.709	390.16
859.093	348.63
859.477	390.73
859.86	377.45
860.244	377.45
860.628	386.77
861.012	377.73
861.395	372.37
861.779	381.41
862.162	387.05
862.545	380.56
862.929	390.44
863.312	376.6
863.695	409.08
864.078	401.46
864.461	395.53
864.844	386.77
865.227	372.08
865.61	354.57
865.993	367.28
866.376	401.74
866.758	387.9
867.141	393.55
867.523	382.25
867.906	367.28
868.288	344.96
868.671	392.7
869.053	374.06
869.435	382.25
869.817	380.84
870.199	361.91
870.581	387.34
870.963	357.96
871.345	380.28
871.727	364.74
872.109	361.91
872.491	347.78
872.872	391.29
873.254	392.42
873.635	380.84
874.017	374.34
874.398	392.42
874.779	394.12
875.161	360.5
875.542	369.26
875.923	374.34
876.304	417.83
876.685	378.58
877.066	402.59
877.447	392.7
877.828	379.15
878.208	344.68
878.589	376.6
878.97	372.37
879.35	383.95
879.731	378.86
880.111	380.28
880.491	385.36
880.872	360.78
881.252	361.06
881.632	387.05
882.012	369.26
882.392	392.14
882.772	378.58
883.152	389.03
883.532	360.22
883.912	367.28
884.291	347.5
884.671	376.6
885.051	386.21
885.43	362.76
885.81	387.34
886.189	372.93
886.568	368.13
886.948	376.6
887.327	366.15
887.706	380.56
888.085	354.28
888.464	362.2
888.843	391.86
889.222	385.92
889.601	360.5
889.979	375.19
890.358	391.01
890.737	387.62
891.115	375.76
891.494	358.8
891.872	395.24
892.25	376.32
892.629	369.26
893.007	398.92
893.385	383.95
893.763	382.54
894.141	389.88
894.519	385.64
894.897	389.03
895.275	357.11
895.653	375.19
896.03	375.76
896.408	384.51
896.786	367.28
897.163	393.83
897.541	368.98
897.918	373.5
898.295	386.77
898.673	380.84
899.05	389.31
899.427	354.85
899.804	370.11
900.181	371.52
900.558	380.28
900.935	377.73
901.312	365.3
901.688	406.54
902.065	389.6
902.442	384.23
902.818	376.32
903.195	391.29
903.571	388.75
903.947	403.15
904.324	376.6
904.7	360.78
905.076	374.06
905.452	357.11
905.828	381.69
906.204	385.36
906.58	374.91
906.956	376.89
907.331	370.67
907.707	387.34
908.083	366.72
908.458	393.55
908.834	388.75
909.209	361.35
909.585	370.67
909.96	361.91
910.335	401.74
910.71	378.86
911.086	360.22
911.461	353.15
911.836	367.85
912.21	376.6
912.585	393.83
912.96	376.04
913.335	380.56
913.709	381.12
914.084	378.58
914.459	370.67
914.833	376.6
915.207	356.26
915.582	358.24
915.956	389.31
916.33	407.95
916.704	373.21
917.078	378.86
917.452	380.56
917.826	369.26
918.2	390.73
918.574	364.17
918.948	417.83
919.321	392.7
919.695	375.76
920.068	392.99
920.442	389.31
920.815	369.54
921.189	370.39
921.562	411.91
921.935	399.76
922.308	386.21
922.681	369.82
923.054	365.59
923.427	385.64
923.8	348.63
924.173	391.86
924.546	381.12
924.919	392.42
925.291	345.52
925.664	374.91
926.036	388.75
926.409	378.58
926.781	372.93
927.153	368.41
927.526	354
927.898	367
928.27	372.93
928.642	387.05
929.014	368.41
929.386	380.28
929.758	372.93
930.129	385.08
930.501	369.54
930.873	390.73
931.244	376.04
931.616	376.89
931.987	375.47
932.359	377.17
932.73	381.97
933.101	392.42
933.472	384.79
933.843	383.1
934.214	390.73
934.585	362.48
934.956	382.25
935.327	371.24
935.698	389.6
936.069	373.78
936.439	331.11
936.81	376.6
937.18	399.76
937.551	378.58
937.921	362.2
938.292	363.61
938.662	376.89
939.032	374.91
939.402	378.58
939.772	379.71
940.142	354.28
940.512	373.5
940.882	382.54
941.252	382.54
941.621	385.08
941.991	364.46
942.361	394.96
942.73	354.57
943.1	359.09
943.469	355.7
943.838	385.36
944.208	371.24
944.577	370.11
944.946	378.58
945.315	401.18
945.684	354.85
946.053	352.87
946.422	376.32
946.791	376.32
947.159	365.3
947.528	368.13
947.897	370.11
948.265	363.04
948.634	368.41
949.002	397.22
949.371	380.28
949.739	356.83
950.107	362.76
950.475	393.27
950.843	352.59
951.211	326.87
951.579	373.78
951.947	376.04
952.315	377.73
952.683	369.26
953.05	382.54
953.418	374.06
953.785	374.63
954.153	357.39
954.52	374.06
954.888	400.05
955.255	381.97
955.622	371.52
955.989	403.43
956.356	376.89
956.723	390.73
957.09	379.15
957.457	358.52
957.824	366.43
958.191	376.32
958.557	374.63
958.924	374.91
959.291	363.61
959.657	378.3
960.023	378.86
960.39	394.4
960.756	392.14
961.122	359.65
961.488	387.34
961.855	356.26
962.221	368.13
962.586	372.93
962.952	371.24
963.318	379.43
963.684	380.56
964.05	357.67
964.415	374.06
964.781	375.19
965.146	393.83
965.512	389.6
965.877	354.85
966.242	379.71
966.608	396.37
966.973	365.59
967.338	358.52
967.703	356.26
968.068	375.19
968.433	406.54
968.797	382.25
969.162	394.96
969.527	368.13
969.891	373.21
970.256	365.59
970.62	370.95
970.985	368.69
971.349	393.83
971.714	361.35
972.078	368.98
972.442	365.3
972.806	379.43
973.17	366.15
973.534	385.08
973.898	362.76
974.262	383.1
974.625	353.72
974.989	391.57
975.353	374.91
975.716	391.57
976.08	372.93
976.443	360.5
976.806	379.71
977.17	361.63
977.533	375.19
977.896	375.76
978.259	387.05
978.622	381.97
978.985	387.05
979.348	391.01
979.711	395.53
980.073	364.17
980.436	357.96
980.799	374.06
981.161	353.15
981.524	370.67
981.886	385.08
982.248	368.41
982.611	352.31
982.973	361.63
983.335	379.43
983.697	379.71
984.059	369.54
984.421	373.21
984.783	352.59
985.145	348.07
985.506	353.72
985.868	372.37
986.23	367.85
986.591	333.94
986.953	388.18
987.314	375.19
987.675	393.83
988.037	528.42
988.398	363.04
988.759	368.98
989.12	370.95
989.481	343.26
989.842	379.99
990.203	362.2
990.564	378.86
990.924	343.83
991.285	496.28
991.646	388.47
992.006	391.01
992.367	384.23
992.727	369.54
993.087	354.85
993.448	364.17
993.808	372.37
994.168	348.07
994.528	376.32
994.888	370.11
995.248	386.49
995.608	375.76
995.967	348.35
996.327	385.64
996.687	363.33
997.046	374.63
997.406	358.24
997.765	369.26
998.125	352.31
998.484	360.5
998.843	374.63
999.202	370.39
999.561	352.02
999.92	390.73
1000.279	394.12
1000.638	339.87
1000.997	375.19
1001.356	374.34
1001.715	383.66
1002.073	363.89
1002.432	364.17
1002.79	362.2
1003.149	358.8
1003.507	360.5
1003.865	381.12
1004.224	363.04
1004.582	380.84
1004.94	368.69
1005.298	355.13
1005.656	391.86
1006.014	380.56
1006.371	382.54
1006.729	357.39
1007.087	379.71
1007.445	365.02
1007.802	359.09
1008.16	374.06
1008.517	359.09
1008.874	386.21
1009.232	392.7
1009.589	376.04
1009.946	375.19
1010.303	349.76
1010.66	385.92
1011.017	367.28
1011.374	383.95
1011.731	382.82
1012.087	364.74
1012.444	335.07
1012.801	368.98
1013.157	375.76
1013.513	355.7
1013.87	405.69
1014.226	362.48
1014.582	355.41
1014.939	390.73
1015.295	359.37
1015.651	363.89
1016.007	354.28
1016.363	367
1016.719	353.72
1017.074	374.63
1017.43	337.33
1017.786	370.95
1018.141	329.41
1018.497	370.39
1018.852	361.63
1019.208	343.83
1019.563	376.6
1019.918	350.61
1020.273	370.95
1020.628	369.26
1020.983	378.86
1021.338	386.21
1021.693	362.2
1022.048	343.26
1022.403	376.04
1022.757	337.04
1023.112	353.44
1023.467	365.59
1023.821	360.78
1024.175	368.13
1024.53	348.63
1024.884	365.02
1025.238	342.13
1025.592	368.13
1025.946	371.8
1026.3	370.95
1026.654	375.47
1027.008	409.93
1027.362	367.85
1027.716	356.26
1028.069	368.41
1028.423	348.07
1028.777	371.8
1029.13	359.93
1029.483	375.47
1029.837	346.94
1030.19	342.41
1030.543	384.51
1030.896	362.2
1031.249	359.09
1031.602	354.85
1031.955	351.46
1032.308	379.15
1032.661	367.56
1033.013	354.85
1033.366	359.65
1033.719	367.28
1034.071	380.84
1034.424	369.54
1034.776	361.91
1035.128	352.87
1035.48	362.2
1035.833	371.52
1036.185	358.8
1036.537	358.8
1036.889	358.8
