Data from SCSF78-405_irradiation_FLMS019251_20-01-27-938.txt Node
Date: Fri Feb 22 20:01:27 PST 2019
User: mu3e
Spectrometer: FLMS01925
Trigger mode: 0
Integration Time (sec): 1.206000E-2
Scans to average: 10
Electric dark correction enabled: true
Nonlinearity correction enabled: true
Boxcar width: 0
XAxis mode: Wavelengths
Number of Pixels in Spectrum: 2048
>>>>>Begin Spectral Data<<<<<
187.103	-77.76
187.574	-77.76
188.045	-77.76
188.516	-140.32
188.987	-137.76
189.458	-135.2
189.929	-128.09
190.4	-93.97
190.871	-95.96
191.342	-88.57
191.813	-54.18
192.284	-48.21
192.754	-3.05
193.225	1.49
193.696	38.11
194.166	42.08
194.637	78.68
195.107	78.96
195.578	113.27
196.048	136.23
196.518	157.48
196.989	146.15
197.459	191.75
197.929	202.23
198.399	267.33
198.869	282.88
199.339	284.01
199.809	291.09
200.279	320.49
200.749	344.52
201.219	362.6
201.689	353.28
202.159	362.6
202.628	357.52
203.098	371.36
203.568	380.68
204.037	401.02
204.507	408.08
204.976	396.5
205.445	380.12
205.915	387.74
206.384	379.27
206.853	386.05
207.323	385.77
207.792	378.99
208.261	404.4
208.73	363.17
209.199	357.52
209.668	361.19
210.137	374.47
210.606	361.75
211.075	358.65
211.543	369.1
212.012	355.25
212.481	364.3
212.95	350.73
213.418	372.21
213.887	339.43
214.355	369.95
214.824	362.6
215.292	366.56
215.76	367.12
216.229	342.82
216.697	361.75
217.165	353.84
217.633	334.62
218.101	361.75
218.569	325.58
219.037	337.17
219.505	339.43
219.973	356.67
220.441	338.3
220.909	332.36
221.377	364.01
221.844	360.06
222.312	352.15
222.78	326.99
223.247	354.41
223.715	368.82
224.182	365.43
224.65	350.73
225.117	339.99
225.584	366.56
226.052	359.21
226.519	349.6
226.986	352.71
227.453	373.05
227.92	330.1
228.387	360.91
228.854	368.25
229.321	343.1
229.788	379.27
230.255	342.26
230.722	362.04
231.189	368.53
231.655	356.39
232.122	349.32
232.589	353.56
233.055	373.62
233.522	349.6
233.988	340.28
234.454	361.47
234.921	375.88
235.387	362.6
235.853	365.43
236.32	360.91
236.786	377.29
237.252	370.79
237.718	364.58
238.184	357.8
238.65	365.14
239.116	344.8
239.582	347.34
240.047	384.35
240.513	338.86
240.979	365.71
241.445	373.34
241.91	382.38
242.376	360.62
242.841	352.15
243.307	352.15
243.772	342.54
244.238	370.23
244.703	351.02
245.168	358.93
245.633	417.68
246.099	377.29
246.564	365.71
247.029	354.12
247.494	360.06
247.959	344.23
248.424	344.8
248.889	369.38
249.353	367.12
249.818	375.88
250.283	380.12
250.748	361.19
251.212	358.36
251.677	393.96
252.141	390.85
252.606	364.86
253.07	383.22
253.535	348.19
253.999	359.78
254.463	394.8
254.927	363.73
255.392	346.21
255.856	364.3
256.32	373.05
256.784	380.68
257.248	381.53
257.712	371.92
258.176	368.82
258.64	382.66
259.103	367.97
259.567	360.06
260.031	382.38
260.495	371.08
260.958	379.83
261.422	381.25
261.885	375.88
262.349	391.13
262.812	392.83
263.275	352.99
263.739	387.18
264.202	386.9
264.665	374.75
265.128	373.05
265.591	402.15
266.054	365.99
266.517	358.36
266.98	353.56
267.443	381.53
267.906	365.99
268.369	382.38
268.832	358.08
269.294	374.47
269.757	379.83
270.22	386.61
270.682	357.23
271.145	386.9
271.607	404.4
272.07	356.1
272.532	363.73
272.994	382.66
273.456	358.93
273.919	391.98
274.381	396.78
274.843	386.61
275.305	383.51
275.767	382.38
276.229	377.57
276.691	391.41
277.153	388.59
277.614	376.44
278.076	364.01
278.538	384.07
279	399.6
279.461	404.4
279.923	374.18
280.384	391.13
280.846	402.43
281.307	360.06
281.769	370.23
282.23	403.84
282.691	384.64
283.152	391.13
283.613	379.55
284.075	367.69
284.536	395.93
284.997	381.81
285.458	386.9
285.918	358.36
286.379	376.73
286.84	399.89
287.301	368.25
287.762	381.25
288.222	364.01
288.683	381.25
289.143	399.89
289.604	384.35
290.064	386.61
290.525	406.1
290.985	419.93
291.445	376.16
291.906	401.02
292.366	406.95
292.826	388.87
293.286	393.11
293.746	360.34
294.206	389.72
294.666	377.57
295.126	373.9
295.586	396.5
296.046	392.83
296.506	379.55
296.965	398.19
297.425	385.48
297.884	394.8
298.344	406.38
298.804	390.28
299.263	364.3
299.722	398.19
300.182	392.83
300.641	375.6
301.1	363.17
301.559	391.13
302.019	377.86
302.478	398.76
302.937	371.36
303.396	389.72
303.855	396.22
304.314	411.46
304.772	388.87
305.231	417.39
305.69	399.89
306.149	414.57
306.607	383.51
307.066	394.24
307.524	393.67
307.983	407.79
308.441	391.7
308.9	386.05
309.358	368.82
309.816	406.95
310.275	402.99
310.733	404.4
311.191	404.4
311.649	403.28
312.107	404.4
312.565	414.01
313.023	390.85
313.481	386.9
313.939	410.9
314.397	406.1
314.854	395.09
315.312	380.96
315.77	394.52
316.227	394.52
316.685	402.71
317.142	398.19
317.6	407.23
318.057	389.72
318.514	393.96
318.972	391.13
319.429	375.6
319.886	394.8
320.343	388.59
320.8	362.04
321.257	400.17
321.714	370.23
322.171	402.71
322.628	416.26
323.085	397.06
323.542	390.85
323.998	405.25
324.455	394.8
324.912	393.39
325.368	389.15
325.825	433.48
326.281	401.02
326.738	419.37
327.194	403.56
327.65	388.31
328.107	412.31
328.563	399.04
329.019	406.95
329.475	399.32
329.931	410.9
330.387	401.86
330.843	393.11
331.299	403.56
331.755	423.32
332.211	420.22
332.666	397.35
333.122	393.96
333.578	405.53
334.033	425.02
334.489	411.18
334.944	406.95
335.4	373.62
335.855	404.69
336.31	387.74
336.766	403.56
337.221	397.06
337.676	392.26
338.131	409.21
338.586	411.75
339.041	411.18
339.496	408.92
339.951	357.52
340.406	401.58
340.861	388.59
341.316	377.29
341.771	379.55
342.225	372.77
342.68	415.7
343.134	421.91
343.589	432.07
344.043	398.76
344.498	406.95
344.952	408.08
345.406	412.88
345.861	381.53
346.315	404.4
346.769	390.28
347.223	378.7
347.677	407.23
348.131	416.83
348.585	409.49
349.039	396.78
349.493	418.8
349.947	405.53
350.401	405.53
350.854	394.8
351.308	402.15
351.762	415.7
352.215	424.73
352.669	425.3
353.122	404.97
353.575	398.19
354.029	416.83
354.482	375.31
354.935	415.98
355.388	402.15
355.842	419.09
356.295	388.31
356.748	410.05
357.201	416.83
357.654	403.84
358.106	429.81
358.559	417.68
359.012	432.92
359.465	406.95
359.917	391.98
360.37	379.27
360.823	382.09
361.275	394.24
361.728	431.51
362.18	415.7
362.632	395.37
363.085	384.64
363.537	393.11
363.989	420.78
364.441	397.35
364.893	396.22
365.345	410.05
365.797	399.6
366.249	398.19
366.701	394.24
367.153	395.37
367.605	375.31
368.057	394.8
368.508	422.19
368.96	419.93
369.411	382.09
369.863	408.08
370.314	419.09
370.766	417.96
371.217	398.19
371.669	407.51
372.12	414.85
372.571	406.66
373.022	417.96
373.473	424.17
373.924	406.66
374.375	402.43
374.826	429.53
375.277	412.31
375.728	412.31
376.179	412.03
376.63	424.17
377.08	412.59
377.531	405.82
377.981	379.55
378.432	402.99
378.883	420.22
379.333	418.24
379.783	403.28
380.234	377.01
380.684	386.61
381.134	410.9
381.584	415.98
382.034	431.23
382.485	412.88
382.935	396.78
383.385	413.72
383.834	411.18
384.284	427.84
384.734	414.29
385.184	391.41
385.634	400.73
386.083	428.69
386.533	404.4
386.982	402.43
387.432	429.81
387.881	407.79
388.331	424.73
388.78	426.14
389.229	418.8
389.679	436.87
390.128	453.8
390.577	408.36
391.026	415.98
391.475	403.84
391.924	432.07
392.373	435.74
392.822	443.93
393.27	414.57
393.719	432.64
394.168	439.98
394.617	441.67
395.065	429.81
395.514	414.01
395.962	435.18
396.411	434.33
396.859	438.28
397.307	442.8
397.756	429.81
398.204	419.37
398.652	424.45
399.1	444.77
399.548	424.45
399.996	420.22
400.444	451.55
400.892	432.64
401.34	444.77
401.788	473.84
402.236	446.75
402.683	438.85
403.131	440.54
403.579	425.58
404.026	468.76
404.474	451.27
404.921	439.98
405.369	438.85
405.816	432.92
406.263	481.17
406.71	454.09
407.158	490.48
407.605	449.01
408.052	478.63
408.499	474.68
408.946	468.48
409.393	480.04
409.84	488.79
410.286	510.5
410.733	522.63
411.18	519.81
411.626	575.05
412.073	625.46
412.52	674.72
412.966	761.61
413.413	885.44
413.859	1042.13
414.305	1240.67
414.752	1538.64
415.198	1840.47
415.644	2199.11
416.09	2761.38
416.536	3211.22
416.982	3898.13
417.428	4565.41
417.874	5336.61
418.32	6168.77
418.766	7043.15
419.211	8040.95
419.657	8963.61
420.103	10103.17
420.548	10966.73
420.994	12185.06
421.439	13367.7
421.885	14331.88
422.33	15709.79
422.776	16766.88
423.221	17689.63
423.666	18930.3
424.111	20333.33
424.556	21214.18
425.001	22524.42
425.446	23958.22
425.891	25089.66
426.336	25851.8
426.781	27078.9
427.226	29173.52
427.671	29750.48
428.115	30690.14
428.56	32281.23
429.005	33718.09
429.449	34259.58
429.894	35650
430.338	36605.26
430.782	36768.68
431.227	38326.03
431.671	38651.06
432.115	40136.72
432.559	40955.28
433.003	40915.74
433.447	41779.25
433.891	42230.25
434.335	42545.77
434.779	43328.09
435.223	43539.19
435.667	43526.71
436.111	44116.39
436.554	44137.92
436.998	43715.01
437.442	43757.99
437.885	45662.92
438.328	44037.55
438.772	44449.34
439.215	44887.89
439.659	44567.23
440.102	45007.56
440.545	44265.13
440.988	44154.94
441.431	44950.73
441.874	44562.46
442.317	44790.4
442.76	44185.49
443.203	43752.49
443.646	44446.83
444.089	44062.58
444.531	44631.72
444.974	43381.22
445.417	44461.13
445.859	43503.74
446.302	44633.47
446.744	44089.35
447.186	44967.08
447.629	44011.53
448.071	44071.33
448.513	44296.2
448.956	45536.24
449.398	44620.17
449.84	43505.74
450.282	44100.37
450.724	44679.16
451.166	44286.18
451.607	44294.19
452.049	44423.52
452.491	45373.61
452.933	44930.37
453.374	45520.09
453.816	46010.17
454.257	45548.85
454.699	46557.16
455.14	46221.84
455.582	45962.11
456.023	46150.91
456.464	46237.29
456.905	46706.82
457.347	46658.53
457.788	45867.29
458.229	45843.78
458.67	46963.31
459.111	45043.28
459.552	45175.89
459.992	44920.32
460.433	44812.76
460.874	43775.48
461.315	45090.57
461.755	43954.99
462.196	43704.77
462.636	42947.81
463.077	42604.44
463.517	42582.56
463.957	42940.1
464.398	42667.85
464.838	42731.03
465.278	41595.15
465.718	41734.89
466.158	40644.25
466.598	41122.17
467.038	40605.24
467.478	41237.68
467.918	41234.47
468.358	40722.04
468.798	40260.51
469.237	40119.95
469.677	40080.26
470.117	40735.63
470.556	38708.54
470.996	39126.55
471.435	39387.02
471.874	39915.64
472.314	39757.98
472.753	38739.49
473.192	38943.66
473.631	38586.48
474.07	38794.76
474.509	38768.72
474.948	38921.3
475.387	38492.93
475.826	37544.07
476.265	39163.43
476.704	38669.48
477.143	39047.88
477.581	38684.47
478.02	39263.77
478.458	37975.23
478.897	38854.71
479.335	39660.46
479.774	39205.73
480.212	39493.81
480.65	39413.1
481.089	39077.38
481.527	38613.49
481.965	38217.57
482.403	40007.55
482.841	39836.06
483.279	39844.93
483.717	39792.46
484.155	39365.37
484.592	39725.96
485.03	39833.35
485.468	38967.5
485.905	39092.62
486.343	39606.79
486.781	39051.08
487.218	38391.06
487.655	38344.68
488.093	37460.77
488.53	38878.3
488.967	38136.12
489.405	37898.48
489.842	37035.18
490.279	37138.98
490.716	36747.14
491.153	37136.53
491.59	36564.16
492.027	35990.35
492.463	35631.19
492.9	34807.62
493.337	34802.5
493.773	34930.15
494.21	34188.11
494.647	33897.11
495.083	33246.97
495.519	32821.74
495.956	32857.83
496.392	32131.78
496.828	32044.99
497.265	31258.16
497.701	31442.02
498.137	31195.98
498.573	30348.12
499.009	30802.83
499.445	30099.24
499.881	29664.06
500.316	29853.48
500.752	29143.23
501.188	28749.67
501.624	28638.73
502.059	27546.29
502.495	27325.49
502.93	27322.55
503.366	27505.41
503.801	26796.69
504.236	26683.47
504.672	26191.88
505.107	25971.81
505.542	25460.43
505.977	25425.55
506.412	24967.98
506.847	25214.51
507.282	24697.72
507.717	24334.26
508.152	24349.77
508.587	24052.32
509.021	23459.57
509.456	23226.46
509.891	23267.42
510.325	23062.34
510.76	22851.99
511.194	22549.13
511.628	22647.48
512.063	21981.15
512.497	22138.98
512.931	21638.57
513.366	21506.82
513.8	21493.94
514.234	20814.18
514.668	20724.11
515.102	21050.31
515.536	20130.6
515.969	20379.78
516.403	19843.48
516.837	19457.35
517.271	19668.62
517.704	19178.22
518.138	19085.55
518.571	19000.83
519.005	18705.67
519.438	18487.66
519.871	18422.28
520.305	18059.5
520.738	17972.06
521.171	17486.3
521.604	17664.13
522.037	17379.47
522.47	17061.03
522.903	16763.62
523.336	16760.11
523.769	16645.29
524.202	16166.81
524.634	16128.89
525.067	15862.87
525.5	15813.61
525.932	15630.33
526.365	15245.1
526.797	15170.07
527.23	15178.13
527.662	14609
528.094	14464.92
528.527	14399.29
528.959	14200.79
529.391	13996.1
529.823	13497.4
530.255	13545.51
530.687	13246.82
531.119	13067.8
531.551	13051.06
531.982	12724.37
532.414	12551.09
532.846	12311.54
533.277	12200.58
533.709	11832.73
534.14	11713.64
534.572	11577.64
535.003	11590.65
535.435	11283.14
535.866	11071.4
536.297	10841
536.728	10784.38
537.159	10738
537.59	10487.97
538.022	10374.51
538.452	10158.19
538.883	9959.37
539.314	9951.39
539.745	9678.37
540.176	9655.95
540.606	9323.83
541.037	9351.73
541.468	9223.06
541.898	9120.68
542.328	8974.74
542.759	8844.47
543.189	8724.21
543.619	8612.93
544.05	8416.37
544.48	8310.06
544.91	8210.44
545.34	8119.6
545.77	7977.63
546.2	7868.91
546.63	7752.27
547.06	7725.37
547.489	7529.14
547.919	7373.98
548.349	7348.84
548.778	7323.44
549.208	7257.42
549.637	7116.36
550.067	6954.66
550.496	6985.12
550.926	6805.1
551.355	6676.42
551.784	6683.8
552.213	6516.5
552.642	6479.06
553.071	6421.29
553.5	6335.24
553.929	6130.95
554.358	6179.61
554.787	6058.97
555.216	6022.97
555.645	5894.74
556.073	5849.67
556.502	5819.43
556.93	5656.43
557.359	5638.36
557.787	5576.96
558.216	5496.64
558.644	5413.32
559.072	5408.53
559.5	5340.07
559.929	5302.76
560.357	5288.1
560.785	5219.55
561.213	5167.79
561.641	5098.36
562.068	5074.59
562.496	4990.4
562.924	4950.01
563.352	4935.83
563.779	4892.22
564.207	4840.28
564.634	4822.87
565.062	4814.83
565.489	4681.35
565.917	4709.24
566.344	4619.64
566.771	4639.5
567.198	4586.62
567.625	4553.32
568.053	4471.37
568.48	4462.5
568.907	4378.31
569.333	4300.52
569.76	4170.9
570.187	4172.52
570.614	4082.95
571.04	4306.44
571.467	3997.88
571.894	3945.18
572.32	3854.04
572.747	3829.14
573.173	3764.15
573.599	3683.13
574.026	3595.79
574.452	3596.06
574.878	3523.3
575.304	3456.19
575.73	3459.99
576.156	3302.75
576.582	3284.51
577.008	3240.38
577.434	3189.41
577.86	3106.49
578.285	3133.5
578.711	3007.91
579.137	3016.11
579.562	2957.35
579.988	2915.51
580.413	2849.84
580.838	2800.56
581.264	2778.92
581.689	2693.95
582.114	2690.66
582.539	2683.25
582.964	2649.78
583.39	2614.65
583.814	2518.25
584.239	2521.82
584.664	2485.81
585.089	2443.74
585.514	2408.52
585.939	2362.28
586.363	2357.32
586.788	2331.16
587.212	2295.61
587.637	2283.76
588.061	2251.51
588.485	2168.2
588.91	2172.06
589.334	2129.83
589.758	2111.05
590.182	2093.65
590.606	2038.93
591.03	2009.62
591.454	2007.96
591.878	1957.61
592.302	1942.67
592.726	1913.32
593.15	1929.93
593.573	1885.9
593.997	1849.61
594.42	1816.35
594.844	1805.54
595.267	1759.22
595.691	1773.93
596.114	1718.71
596.537	1748.4
596.96	1749.79
597.384	1728.15
597.807	1655.68
598.23	1628.17
598.653	1654.29
599.076	1620.95
599.499	1599.54
599.921	1577.58
600.344	1592.59
600.767	1539.47
601.189	1593.43
601.612	1537.25
602.034	1553.94
602.457	1536.14
602.879	1550.32
603.302	1532.8
603.724	1517.77
604.146	1513.32
604.568	1493.28
604.991	1462.93
605.413	1471.29
605.835	1432.85
606.257	1455.69
606.678	1449.29
607.1	1456.53
607.522	1453.18
607.944	1396.91
608.365	1446.22
608.787	1398.86
609.209	1350.07
609.63	1377.39
610.051	1377.95
610.473	1338.07
610.894	1338.07
611.315	1329.99
611.737	1303.76
612.158	1310.18
612.579	1293.15
613	1261.33
613.421	1245.42
613.842	1233.97
614.263	1206.87
614.683	1193.46
615.104	1190.66
615.525	1151.25
615.945	1138.66
616.366	1134.19
616.787	1149.85
617.207	1116.01
617.627	1115.17
618.048	1100.62
618.468	1086.35
618.888	1097.27
619.308	1053.04
619.728	1067.6
620.148	1011.04
620.568	1023.08
620.988	1031.76
621.408	990.59
621.828	1003.48
622.248	979.94
622.668	970.41
623.087	967.61
623.507	993.67
623.926	952.47
624.346	944.9
624.765	955
625.185	932.29
625.604	925
626.023	902.28
626.442	887.69
626.861	915.46
627.28	899.19
627.699	900.87
628.118	891.34
628.537	855.98
628.956	860.19
629.375	840.26
629.794	848.96
630.212	814.42
630.631	823.69
631.049	828.47
631.468	807.4
631.886	807.12
632.305	809.93
632.723	787.74
633.141	774.53
633.559	795.04
633.978	762.17
634.396	763.86
634.814	770.32
635.232	772.85
635.65	749.52
636.067	773.41
636.485	719.16
636.903	726.47
637.321	752.05
637.738	730.12
638.156	727.03
638.573	705.94
638.991	703.41
639.408	705.66
639.825	683.16
640.243	714.66
640.66	687.66
641.077	702.29
641.494	686.81
641.911	700.88
642.328	704.25
642.745	688.78
643.162	675.28
643.579	668.25
643.995	629.4
644.412	627.72
644.829	618.99
645.245	646.01
645.662	622.93
646.078	640.66
646.495	626.59
646.911	632.5
647.327	598.99
647.743	604.06
648.159	618.42
648.576	628.84
648.992	622.93
649.408	621.52
649.824	601.25
650.239	591.67
650.655	607.16
651.071	602.65
651.487	598.71
651.902	593.64
652.318	585.75
652.733	587.16
653.149	572.23
653.564	586.88
653.979	580.12
654.395	575.61
654.81	581.81
655.225	564.91
655.64	551.38
656.055	600.12
656.47	578.71
656.885	549.97
657.3	568.57
657.715	564.62
658.13	549.69
658.544	566.6
658.959	552.22
659.374	564.91
659.788	557.02
660.202	547.43
660.617	535.6
661.031	527.98
661.445	553.35
661.86	540.11
662.274	536.44
662.688	558.99
663.102	555.89
663.516	537.57
663.93	519.53
664.344	532.49
664.758	526.29
665.171	547.43
665.585	521.5
665.999	524.88
666.412	516.71
666.826	508.25
667.239	524.32
667.653	500.07
668.066	499.22
668.479	526.86
668.892	502.61
669.306	526.01
669.719	523.47
670.132	522.63
670.545	515.3
670.958	484.56
671.37	511.07
671.783	517.83
672.196	479.48
672.609	504.3
673.021	504.86
673.434	496.12
673.846	494.71
674.259	508.53
674.671	473.56
675.084	496.12
675.496	482.58
675.908	476.94
676.32	486.25
676.732	457.19
677.144	468.76
677.556	488.22
677.968	456.63
678.38	470.17
678.792	462.55
679.204	456.63
679.615	470.45
680.027	473.84
680.439	498.94
680.85	487.66
681.262	472.71
681.673	465.37
682.084	454.65
682.496	483.71
682.907	476.66
683.318	472.43
683.729	441.67
684.14	445.9
684.551	463.68
684.962	461.99
685.373	460.58
685.784	431.51
686.194	450.98
686.605	453.24
687.016	452.39
687.426	462.83
687.837	419.37
688.247	446.75
688.657	444.21
689.068	451.83
689.478	452.39
689.888	451.55
690.298	433.77
690.708	432.92
691.118	458.88
691.528	451.55
691.938	442.8
692.348	458.32
692.758	442.52
693.168	451.55
693.577	444.21
693.987	436.02
694.396	443.36
694.806	431.51
695.215	435.74
695.625	442.23
696.034	432.64
696.443	438.28
696.852	415.13
697.262	436.02
697.671	433.2
698.08	440.26
698.489	451.83
698.897	427.56
699.306	406.66
699.715	440.82
700.124	417.39
700.532	430.66
700.941	421.06
701.35	404.97
701.758	449.01
702.166	408.08
702.575	424.17
702.983	429.53
703.391	432.36
703.799	402.99
704.208	435.18
704.616	414.01
705.024	401.02
705.432	445.9
705.839	417.96
706.247	431.51
706.655	409.49
707.063	435.74
707.47	438.28
707.878	425.86
708.285	444.77
708.693	409.21
709.1	414.57
709.508	431.79
709.915	409.49
710.322	417.96
710.729	430.66
711.136	399.89
711.543	420.78
711.95	398.47
712.357	404.97
712.764	410.9
713.171	423.6
713.578	397.35
713.984	416.55
714.391	428.12
714.797	407.23
715.204	421.35
715.61	422.19
716.017	402.43
716.423	400.45
716.829	394.8
717.236	420.78
717.642	395.65
718.048	403.28
718.454	439.98
718.86	437.44
719.266	408.36
719.671	392.54
720.077	414.57
720.483	412.31
720.889	401.58
721.294	382.38
721.7	441.95
722.105	389.44
722.511	404.69
722.916	410.05
723.321	391.98
723.726	423.89
724.132	405.25
724.537	412.59
724.942	405.25
725.347	404.4
725.752	406.38
726.156	405.25
726.561	397.91
726.966	411.18
727.371	419.09
727.775	400.45
728.18	389.15
728.584	381.25
728.989	411.46
729.393	427.56
729.798	403.84
730.202	388.59
730.606	385.48
731.01	426.14
731.414	397.91
731.818	415.42
732.222	411.46
732.626	403.84
733.03	410.9
733.434	385.48
733.837	429.25
734.241	397.35
734.645	408.92
735.048	407.79
735.452	384.35
735.855	395.65
736.258	395.09
736.662	394.52
737.065	411.18
737.468	415.7
737.871	393.96
738.274	398.19
738.677	394.8
739.08	399.04
739.483	389.44
739.886	390.57
740.289	407.51
740.691	412.88
741.094	388.59
741.497	397.91
741.899	399.89
742.302	369.38
742.704	381.25
743.106	360.34
743.508	374.18
743.911	417.96
744.313	397.06
744.715	397.91
745.117	411.46
745.519	394.24
745.921	390
746.323	377.01
746.724	403.28
747.126	415.13
747.528	403.84
747.929	408.36
748.331	427.27
748.732	393.96
749.134	415.13
749.535	387.74
749.936	425.58
750.338	423.6
750.739	406.66
751.14	381.81
751.541	402.99
751.942	365.99
752.343	394.52
752.744	399.89
753.144	386.33
753.545	414.57
753.946	384.92
754.346	388.59
754.747	404.97
755.148	388.03
755.548	381.81
755.948	391.7
756.349	384.92
756.749	395.37
757.149	403.56
757.549	378.7
757.949	375.03
758.349	382.94
758.749	402.15
759.149	371.64
759.549	381.53
759.949	410.9
760.348	362.88
760.748	422.47
761.148	393.96
761.547	397.91
761.947	388.59
762.346	406.95
762.745	372.49
763.145	385.2
763.544	396.5
763.943	404.12
764.342	384.07
764.741	382.09
765.14	371.92
765.539	385.77
765.938	394.8
766.336	375.03
766.735	389.72
767.134	391.13
767.532	388.87
767.931	396.5
768.329	408.64
768.728	404.69
769.126	398.47
769.525	385.48
769.923	376.73
770.321	415.13
770.719	429.25
771.117	400.45
771.515	390.85
771.913	378.42
772.311	396.22
772.709	395.37
773.106	399.32
773.504	382.09
773.902	351.86
774.299	398.76
774.697	366.84
775.094	403.56
775.491	398.19
775.889	396.78
776.286	389.44
776.683	378.42
777.08	379.55
777.477	389.15
777.874	371.92
778.271	400.45
778.668	366.84
779.065	388.87
779.462	399.04
779.858	390.28
780.255	397.06
780.652	383.51
781.048	391.7
781.444	363.73
781.841	401.02
782.237	405.53
782.633	370.51
783.03	371.08
783.426	384.07
783.822	386.05
784.218	376.73
784.614	401.02
785.01	394.24
785.405	364.3
785.801	404.12
786.197	365.71
786.593	384.35
786.988	384.64
787.384	390.57
787.779	385.77
788.174	365.71
788.57	379.27
788.965	385.48
789.36	346.49
789.755	365.71
790.15	390.28
790.545	371.08
790.94	399.6
791.335	410.62
791.73	375.03
792.125	380.68
792.52	396.22
792.914	397.06
793.309	376.16
793.703	391.13
794.098	376.16
794.492	388.87
794.887	410.9
795.281	391.7
795.675	406.95
796.069	384.07
796.463	384.92
796.857	400.17
797.251	404.97
797.645	419.93
798.039	359.78
798.433	411.75
798.826	383.79
799.22	401.86
799.614	394.8
800.007	358.65
800.401	379.55
800.794	346.49
801.187	389.44
801.581	390.28
801.974	402.15
802.367	390.85
802.76	386.33
803.153	383.79
803.546	386.9
803.939	370.79
804.332	378.42
804.725	401.3
805.117	401.58
805.51	372.77
805.903	381.81
806.295	378.42
806.688	359.49
807.08	386.33
807.472	392.54
807.865	361.19
808.257	395.93
808.649	401.3
809.041	386.05
809.433	387.74
809.825	375.31
810.217	398.76
810.609	369.66
811.001	371.92
811.392	375.6
811.784	374.18
812.175	405.53
812.567	402.43
812.958	408.64
813.35	360.06
813.741	393.39
814.132	366.56
814.524	372.49
814.915	355.82
815.306	387.18
815.697	385.2
816.088	381.81
816.479	382.38
816.87	375.6
817.26	390
817.651	393.11
818.042	386.61
818.432	363.73
818.823	370.23
819.213	387.46
819.604	388.59
819.994	368.25
820.384	390.85
820.775	370.79
821.165	371.92
821.555	408.36
821.945	404.69
822.335	378.99
822.725	382.66
823.114	378.99
823.504	371.36
823.894	397.91
824.284	353.28
824.673	385.2
825.063	383.22
825.452	407.23
825.842	361.19
826.231	386.9
826.62	370.79
827.009	360.06
827.399	365.71
827.788	358.36
828.177	378.99
828.566	373.62
828.954	396.5
829.343	370.23
829.732	383.79
830.121	394.8
830.509	397.06
830.898	393.39
831.286	384.92
831.675	389.44
832.063	387.74
832.452	398.19
832.84	373.05
833.228	409.77
833.616	391.98
834.004	377.01
834.392	362.32
834.78	360.62
835.168	360.06
835.556	370.51
835.944	369.66
836.331	381.25
836.719	386.05
837.107	375.03
837.494	396.22
837.881	378.14
838.269	379.55
838.656	382.94
839.043	355.54
839.431	385.77
839.818	395.09
840.205	357.23
840.592	375.6
840.979	396.78
841.366	378.42
841.752	386.9
842.139	385.2
842.526	389.15
842.912	393.67
843.299	392.26
843.685	382.94
844.072	397.91
844.458	370.51
844.844	380.4
845.231	374.75
845.617	375.31
846.003	381.53
846.389	355.25
846.775	366.56
847.161	345.93
847.547	380.12
847.933	383.51
848.318	345.36
848.704	415.7
849.09	397.06
849.475	364.86
849.861	371.92
850.246	411.18
850.631	371.36
851.017	380.68
851.402	383.51
851.787	378.14
852.172	381.25
852.557	396.78
852.942	392.83
853.327	372.49
853.712	384.64
854.097	340.28
854.481	388.59
854.866	361.75
855.25	381.53
855.635	406.66
856.019	393.67
856.404	378.99
856.788	368.25
857.172	381.25
857.557	389.15
857.941	381.53
858.325	345.93
858.709	364.86
859.093	387.74
859.477	416.55
859.86	388.59
860.244	367.69
860.628	382.94
861.012	369.66
861.395	388.59
861.779	383.79
862.162	375.31
862.545	384.07
862.929	392.83
863.312	374.75
863.695	387.46
864.078	382.38
864.461	382.09
864.844	375.88
865.227	368.25
865.61	357.52
865.993	416.26
866.376	370.23
866.758	397.35
867.141	368.82
867.523	385.77
867.906	389.72
868.288	393.67
868.671	367.97
869.053	357.23
869.435	398.47
869.817	380.12
870.199	388.87
870.581	377.29
870.963	404.97
871.345	352.43
871.727	381.81
872.109	381.81
872.491	366.27
872.872	372.21
873.254	400.17
873.635	381.25
874.017	382.66
874.398	373.62
874.779	385.48
875.161	400.73
875.542	402.71
875.923	378.14
876.304	405.25
876.685	390.28
877.066	391.7
877.447	374.18
877.828	390.57
878.208	382.09
878.589	398.76
878.97	374.18
879.35	390.85
879.731	406.38
880.111	354.12
880.491	367.69
880.872	382.09
881.252	380.12
881.632	356.1
882.012	390
882.392	397.35
882.772	390.85
883.152	375.31
883.532	361.47
883.912	364.58
884.291	359.21
884.671	363.17
885.051	361.47
885.43	364.86
885.81	375.03
886.189	390
886.568	356.39
886.948	378.14
887.327	352.43
887.706	382.09
888.085	365.71
888.464	386.61
888.843	381.25
889.222	382.94
889.601	388.59
889.979	364.58
890.358	381.25
890.737	364.58
891.115	381.53
891.494	371.08
891.872	392.26
892.25	361.75
892.629	371.36
893.007	371.64
893.385	395.09
893.763	391.98
894.141	384.64
894.519	376.44
894.897	343.39
895.275	368.53
895.653	370.23
896.03	370.79
896.408	373.34
896.786	393.39
897.163	371.36
897.541	358.36
897.918	393.39
898.295	367.97
898.673	384.07
899.05	362.32
899.427	398.19
899.804	382.38
900.181	370.51
900.558	385.2
900.935	340.28
901.312	373.62
901.688	346.78
902.065	369.1
902.442	388.59
902.818	377.29
903.195	388.59
903.571	371.36
903.947	341.69
904.324	390
904.7	361.75
905.076	368.25
905.452	375.03
905.828	375.31
906.204	367.69
906.58	376.73
906.956	390.57
907.331	349.04
907.707	344.23
908.083	357.52
908.458	411.46
908.834	369.95
909.209	361.75
909.585	368.53
909.96	377.29
910.335	388.03
910.71	375.88
911.086	376.73
911.461	390.57
911.836	367.97
912.21	369.95
912.585	374.18
912.96	375.6
913.335	356.95
913.709	367.4
914.084	378.42
914.459	384.07
914.833	363.17
915.207	368.25
915.582	384.64
915.956	358.36
916.33	390.57
916.704	364.01
917.078	372.49
917.452	389.44
917.826	367.12
918.2	382.94
918.574	369.1
918.948	373.9
919.321	354.69
919.695	353.84
920.068	375.03
920.442	362.6
920.815	375.03
921.189	378.7
921.562	352.99
921.935	346.78
922.308	370.51
922.681	363.17
923.054	391.7
923.427	368.25
923.8	366.56
924.173	364.01
924.546	369.66
924.919	379.27
925.291	344.52
925.664	392.54
926.036	381.53
926.409	362.32
926.781	356.95
927.153	400.45
927.526	380.12
927.898	359.78
928.27	341.13
928.642	332.65
929.014	392.83
929.386	377.01
929.758	384.07
930.129	367.12
930.501	345.36
930.873	394.24
931.244	361.19
931.616	356.95
931.987	349.04
932.359	396.5
932.73	357.23
933.101	376.44
933.472	399.04
933.843	374.18
934.214	368.82
934.585	386.05
934.956	369.38
935.327	378.7
935.698	365.71
936.069	377.29
936.439	397.06
936.81	360.34
937.18	388.31
937.551	353.28
937.921	381.25
938.292	366.27
938.662	385.2
939.032	382.94
939.402	396.78
939.772	361.75
940.142	376.73
940.512	374.75
940.882	362.88
941.252	374.75
941.621	371.36
941.991	382.94
942.361	369.1
942.73	387.46
943.1	351.02
943.469	371.36
943.838	372.21
944.208	377.86
944.577	359.49
944.946	358.36
945.315	367.4
945.684	365.71
946.053	367.69
946.422	355.25
946.791	384.35
947.159	388.59
947.528	350.17
947.897	362.32
948.265	348.47
948.634	376.73
949.002	355.25
949.371	366.27
949.739	353.56
950.107	364.01
950.475	372.77
950.843	328.41
951.211	374.18
951.579	374.47
951.947	351.3
952.315	376.44
952.683	393.67
953.05	378.14
953.418	384.92
953.785	378.42
954.153	351.58
954.52	366.84
954.888	399.32
955.255	343.39
955.622	336.04
955.989	333.78
956.356	366.56
956.723	374.47
957.09	378.14
957.457	390.57
957.824	364.86
958.191	367.4
958.557	354.41
958.924	355.54
959.291	385.2
959.657	367.12
960.023	387.18
960.39	388.59
960.756	356.39
961.122	351.58
961.488	367.12
961.855	351.86
962.221	350.17
962.586	368.25
962.952	376.73
963.318	363.45
963.684	375.88
964.05	366.56
964.415	365.43
964.781	356.39
965.146	353.84
965.512	343.67
965.877	382.94
966.242	354.69
966.608	384.64
966.973	355.54
967.338	385.48
967.703	377.57
968.068	381.25
968.433	382.38
968.797	353.56
969.162	376.16
969.527	363.73
969.891	346.78
970.256	354.97
970.62	391.98
970.985	370.51
971.349	365.14
971.714	387.18
972.078	343.95
972.442	352.15
972.806	354.41
973.17	369.1
973.534	384.92
973.898	374.47
974.262	351.58
974.625	341.41
974.989	351.02
975.353	366.27
975.716	361.19
976.08	387.18
976.443	370.79
976.806	368.53
977.17	393.67
977.533	358.08
977.896	372.21
978.259	344.8
978.622	378.42
978.985	368.25
979.348	367.69
979.711	349.32
980.073	366.56
980.436	369.95
980.799	349.04
981.161	353.84
981.524	384.64
981.886	360.06
982.248	381.25
982.611	377.86
982.973	367.4
983.335	359.78
983.697	373.9
984.059	385.2
984.421	351.3
984.783	372.77
985.145	370.23
985.506	369.66
985.868	382.09
986.23	367.4
986.591	361.47
986.953	364.3
987.314	366.27
987.675	355.54
988.037	518.96
988.398	396.5
988.759	381.53
989.12	386.61
989.481	368.25
989.842	362.32
990.203	369.1
990.564	369.95
990.924	356.39
991.285	506.56
991.646	358.08
992.006	386.61
992.367	362.04
992.727	363.17
993.087	382.09
993.448	373.05
993.808	371.92
994.168	388.03
994.528	393.96
994.888	390
995.248	371.64
995.608	357.8
995.967	337.17
996.327	352.15
996.687	361.47
997.046	351.58
997.406	369.95
997.765	363.73
998.125	356.39
998.484	374.47
998.843	368.53
999.202	360.06
999.561	369.38
999.92	353.84
1000.279	357.52
1000.638	362.04
1000.997	377.29
1001.356	362.32
1001.715	385.48
1002.073	348.76
1002.432	372.77
1002.79	373.9
1003.149	363.73
1003.507	376.16
1003.865	354.41
1004.224	385.48
1004.582	375.31
1004.94	358.36
1005.298	363.45
1005.656	370.51
1006.014	372.49
1006.371	376.16
1006.729	345.93
1007.087	326.15
1007.445	348.47
1007.802	345.08
1008.16	352.71
1008.517	359.78
1008.874	364.01
1009.232	371.36
1009.589	335.76
1009.946	358.36
1010.303	356.1
1010.66	357.23
1011.017	383.79
1011.374	350.73
1011.731	371.36
1012.087	361.19
1012.444	350.45
1012.801	330.95
1013.157	386.33
1013.513	390
1013.87	368.82
1014.226	367.97
1014.582	339.15
1014.939	358.08
1015.295	367.69
1015.651	383.22
1016.007	359.78
1016.363	401.02
1016.719	374.18
1017.074	361.47
1017.43	368.53
1017.786	398.19
1018.141	371.64
1018.497	359.78
1018.852	358.08
1019.208	330.1
1019.563	355.82
1019.918	377.29
1020.273	349.32
1020.628	342.54
1020.983	358.93
1021.338	355.82
1021.693	356.39
1022.048	365.14
1022.403	367.12
1022.757	362.04
1023.112	354.41
1023.467	350.73
1023.821	364.86
1024.175	356.39
1024.53	346.21
1024.884	359.78
1025.238	335.19
1025.592	377.57
1025.946	363.73
1026.3	379.27
1026.654	339.43
1027.008	388.87
1027.362	381.25
1027.716	372.21
1028.069	351.86
1028.423	366.84
1028.777	345.93
1029.13	353.28
1029.483	387.74
1029.837	368.25
1030.19	346.78
1030.543	346.78
1030.896	356.39
1031.249	382.38
1031.602	378.99
1031.955	359.49
1032.308	372.77
1032.661	350.73
1033.013	345.93
1033.366	354.41
1033.719	372.77
1034.071	380.68
1034.424	354.97
1034.776	356.1
1035.128	381.53
1035.48	365.99
1035.833	370.79
1036.185	370.79
1036.537	370.79
1036.889	370.79
