Data from SCSF78-405_irradiation_FLMS019251_13-22-27-960.txt Node
Date: Fri Feb 22 13:22:27 PST 2019
User: mu3e
Spectrometer: FLMS01925
Trigger mode: 0
Integration Time (sec): 1.206000E-2
Scans to average: 10
Electric dark correction enabled: true
Nonlinearity correction enabled: true
Boxcar width: 0
XAxis mode: Wavelengths
Number of Pixels in Spectrum: 2048
>>>>>Begin Spectral Data<<<<<
187.103	-77.76
187.574	-77.76
188.045	-77.76
188.516	-145.16
188.987	-133.78
189.458	-118.99
189.929	-124.68
190.4	-107.33
190.871	-101.07
191.342	-79.19
191.813	-42.81
192.284	-80.32
192.754	-13.27
193.225	13.13
193.696	33.57
194.166	40.09
194.637	64.78
195.107	105.9
195.578	105.33
196.048	124.32
196.518	179.57
196.989	165.13
197.459	216.67
197.929	228.56
198.399	274.11
198.869	277.79
199.339	310.31
199.809	303.24
200.279	325.01
200.749	347.34
201.219	370.51
201.689	373.05
202.159	370.51
202.628	397.06
203.098	378.14
203.568	381.81
204.037	400.45
204.507	401.3
204.976	377.01
205.445	397.06
205.915	388.87
206.384	397.91
206.853	396.78
207.323	386.9
207.792	402.99
208.261	401.02
208.73	406.66
209.199	385.48
209.668	397.63
210.137	372.77
210.606	405.53
211.075	387.46
211.543	389.44
212.012	387.74
212.481	369.1
212.95	395.65
213.418	373.62
213.887	365.71
214.355	363.45
214.824	344.23
215.292	330.95
215.76	345.93
216.229	351.58
216.697	382.66
217.165	355.25
217.633	377.29
218.101	370.79
218.569	353.56
219.037	383.79
219.505	384.35
219.973	369.66
220.441	366.27
220.909	358.08
221.377	354.41
221.844	351.3
222.312	356.95
222.78	345.65
223.247	353.84
223.715	360.06
224.182	338.58
224.65	356.1
225.117	374.18
225.584	356.95
226.052	382.66
226.519	357.8
226.986	330.95
227.453	350.73
227.92	369.38
228.387	359.49
228.854	357.23
229.321	356.39
229.788	371.92
230.255	367.69
230.722	353.28
231.189	363.73
231.655	379.27
232.122	371.08
232.589	367.4
233.055	376.73
233.522	364.86
233.988	341.69
234.454	373.34
234.921	392.83
235.387	383.22
235.853	399.89
236.32	374.18
236.786	381.53
237.252	364.01
237.718	368.82
238.184	373.9
238.65	359.78
239.116	375.03
239.582	379.27
240.047	377.01
240.513	373.34
240.979	354.69
241.445	346.78
241.91	378.42
242.376	367.69
242.841	356.95
243.307	391.41
243.772	385.48
244.238	376.73
244.703	367.4
245.168	369.95
245.633	385.2
246.099	380.4
246.564	382.66
247.029	374.18
247.494	365.43
247.959	375.6
248.424	397.63
248.889	380.68
249.353	354.41
249.818	380.12
250.283	389.15
250.748	377.57
251.212	401.58
251.677	373.34
252.141	375.31
252.606	378.14
253.07	377.57
253.535	400.73
253.999	389.15
254.463	370.23
254.927	354.12
255.392	400.45
255.856	387.18
256.32	356.1
256.784	374.47
257.248	383.51
257.712	379.55
258.176	369.38
258.64	395.93
259.103	389.44
259.567	412.88
260.031	392.83
260.495	375.31
260.958	388.31
261.422	371.36
261.885	402.43
262.349	406.95
262.812	386.33
263.275	377.86
263.739	390.57
264.202	352.43
264.665	375.31
265.128	371.64
265.591	379.27
266.054	375.31
266.517	367.69
266.98	387.74
267.443	391.41
267.906	364.3
268.369	386.05
268.832	377.57
269.294	393.67
269.757	402.99
270.22	410.62
270.682	377.01
271.145	399.32
271.607	400.73
272.07	362.88
272.532	372.49
272.994	369.95
273.456	390.85
273.919	393.39
274.381	378.7
274.843	389.72
275.305	399.32
275.767	384.64
276.229	389.44
276.691	378.14
277.153	402.43
277.614	422.47
278.076	386.05
278.538	405.82
279	375.6
279.461	392.26
279.923	388.87
280.384	368.82
280.846	382.38
281.307	378.42
281.769	388.59
282.23	399.6
282.691	397.63
283.152	368.82
283.613	403.84
284.075	374.18
284.536	389.15
284.997	383.22
285.458	414.57
285.918	377.29
286.379	395.93
286.84	409.49
287.301	411.75
287.762	397.63
288.222	386.05
288.683	399.6
289.143	378.14
289.604	377.57
290.064	413.72
290.525	358.36
290.985	399.89
291.445	403.28
291.906	378.14
292.366	398.76
292.826	383.22
293.286	418.8
293.746	417.96
294.206	407.23
294.666	388.87
295.126	397.06
295.586	376.73
296.046	375.88
296.506	414.57
296.965	391.13
297.425	408.64
297.884	390
298.344	397.06
298.804	398.76
299.263	410.05
299.722	380.4
300.182	398.47
300.641	399.6
301.1	407.79
301.559	398.19
302.019	436.31
302.478	437.44
302.937	389.72
303.396	397.91
303.855	410.33
304.314	429.25
304.772	383.79
305.231	387.74
305.69	419.37
306.149	414.85
306.607	402.43
307.066	387.46
307.524	384.92
307.983	401.58
308.441	404.4
308.9	423.04
309.358	429.25
309.816	395.93
310.275	388.59
310.733	393.11
311.191	394.24
311.649	382.94
312.107	412.03
312.565	399.89
313.023	423.32
313.481	401.86
313.939	417.68
314.397	393.96
314.854	424.45
315.312	432.36
315.77	418.52
316.227	398.47
316.685	437.44
317.142	412.88
317.6	408.08
318.057	414.57
318.514	422.76
318.972	394.8
319.429	414.29
319.886	394.52
320.343	411.46
320.8	397.35
321.257	388.31
321.714	423.89
322.171	436.02
322.628	416.55
323.085	395.93
323.542	412.59
323.998	416.26
324.455	393.39
324.912	409.21
325.368	409.21
325.825	426.99
326.281	410.33
326.738	407.51
327.194	428.97
327.65	410.9
328.107	394.8
328.563	400.45
329.019	405.53
329.475	396.5
329.931	381.53
330.387	390.85
330.843	428.97
331.299	402.99
331.755	411.46
332.211	416.26
332.666	407.51
333.122	384.07
333.578	397.63
334.033	386.33
334.489	386.9
334.944	382.66
335.4	391.98
335.855	421.91
336.31	396.22
336.766	408.64
337.221	397.06
337.676	392.83
338.131	402.71
338.586	403.28
339.041	412.31
339.496	388.31
339.951	431.51
340.406	410.33
340.861	406.1
341.316	403.56
341.771	415.13
342.225	378.42
342.68	401.3
343.134	402.71
343.589	419.37
344.043	428.69
344.498	402.43
344.952	390.85
345.406	424.45
345.861	408.08
346.315	417.68
346.769	397.06
347.223	414.85
347.677	433.48
348.131	412.31
348.585	393.39
349.039	393.67
349.493	378.99
349.947	404.12
350.401	415.7
350.854	426.99
351.308	422.47
351.762	429.81
352.215	414.85
352.669	390.57
353.122	400.17
353.575	401.58
354.029	405.53
354.482	424.73
354.935	399.32
355.388	423.04
355.842	404.69
356.295	414.01
356.748	398.76
357.201	399.6
357.654	428.97
358.106	396.78
358.559	423.89
359.012	427.56
359.465	404.12
359.917	405.82
360.37	424.45
360.823	409.21
361.275	423.04
361.728	427.84
362.18	403.84
362.632	423.04
363.085	419.09
363.537	398.76
363.989	444.49
364.441	411.18
364.893	424.45
365.345	443.65
365.797	434.33
366.249	412.03
366.701	429.53
367.153	416.55
367.605	397.63
368.057	443.36
368.508	436.87
368.96	408.92
369.411	419.93
369.863	417.68
370.314	425.86
370.766	429.53
371.217	415.13
371.669	439.69
372.12	436.02
372.571	436.31
373.022	411.75
373.473	416.55
373.924	410.9
374.375	443.65
374.826	438.28
375.277	417.96
375.728	404.12
376.179	405.82
376.63	423.89
377.08	419.65
377.531	412.88
377.981	423.04
378.432	400.17
378.883	445.34
379.333	441.11
379.783	442.52
380.234	432.36
380.684	394.52
381.134	444.49
381.584	446.75
382.034	438.28
382.485	442.23
382.935	425.86
383.385	426.43
383.834	418.8
384.284	436.02
384.734	438.85
385.184	419.09
385.634	428.97
386.083	433.2
386.533	439.98
386.982	460.29
387.432	461.42
387.881	429.25
388.331	407.79
388.78	417.96
389.229	422.19
389.679	427.84
390.128	462.83
390.577	430.38
391.026	437.72
391.475	472.71
391.924	432.64
392.373	425.02
392.822	430.66
393.27	428.97
393.719	415.7
394.168	413.16
394.617	440.26
395.065	455.22
395.514	452.96
395.962	446.47
396.411	450.42
396.859	414.01
397.307	450.98
397.756	432.36
398.204	438.56
398.652	444.21
399.1	448.44
399.548	451.27
399.996	442.23
400.444	441.67
400.892	483.43
401.34	474.4
401.788	453.8
402.236	473.84
402.683	466.5
403.131	477.22
403.579	473.84
404.026	465.66
404.474	457.76
404.921	472.99
405.369	442.8
405.816	489.92
406.263	484.56
406.71	472.43
407.158	466.22
407.605	483.71
408.052	468.2
408.499	454.37
408.946	502.04
409.393	530.8
409.84	535.31
410.286	518.68
410.733	535.03
411.18	575.61
411.626	569.7
412.073	603.22
412.52	670.78
412.966	780.15
413.413	906.76
413.859	1092.51
414.305	1283.67
414.752	1567.85
415.198	1924.12
415.644	2340.8
416.09	2887.34
416.536	3364.81
416.982	4071.34
417.428	4803.05
417.874	5681.66
418.32	6531.27
418.766	7399.37
419.211	8569.33
419.657	9515.13
420.103	10686.74
420.548	11652.41
420.994	12986.11
421.439	14173
421.885	15187.7
422.33	16672.12
422.776	17841.62
423.221	18861.01
423.666	20218.56
424.111	21553.38
424.556	22472.52
425.001	23998.62
425.446	25409.34
425.891	26694.25
426.336	27730.56
426.781	29053.59
427.226	31120.62
427.671	31891.15
428.115	32788.83
428.56	34506.25
429.005	36145.56
429.449	36595.96
429.894	38103
430.338	39213.35
430.782	39241.14
431.227	40831.97
431.671	41296.08
432.115	42954.04
432.559	44086.85
433.003	43846.97
433.447	44808.49
433.891	45152.73
434.335	45806.13
434.779	46439.64
435.223	46693.6
435.667	46743.94
436.111	47260.88
436.554	47459.4
436.998	46909.07
437.442	46936.57
437.885	49062.54
438.328	47515.41
438.772	47746.63
439.215	48397.99
439.659	47853.56
440.102	48311.66
440.545	47749.7
440.988	47392.68
441.431	48516.4
441.874	47846.63
442.317	48296.46
442.76	47711.78
443.203	47302.76
443.646	47721
444.089	47382.71
444.531	47992.18
444.974	46767.84
445.417	47756.62
445.859	46786.16
446.302	48037.39
446.744	47276.97
447.186	48610.4
447.629	47429.23
448.071	47340.05
448.513	47670.79
448.956	49100.7
449.398	48210.21
449.84	47069.82
450.282	47679.24
450.724	48198.37
451.166	47793.03
451.607	47797.64
452.049	47773.29
452.491	49073.7
452.933	48523.37
453.374	48979.51
453.816	49670.41
454.257	49277.19
454.699	50293.27
455.14	49896.27
455.582	49795.7
456.023	49801.98
456.464	49819.26
456.905	50455.44
457.347	50417.44
457.788	49454.55
458.229	49601.18
458.67	50807.14
459.111	48747.94
459.552	48797.11
459.992	48560.04
460.433	48467.37
460.874	47332.64
461.315	48757.78
461.755	47697.43
462.196	47094.8
462.636	46582.31
463.077	46002.33
463.517	46109.13
463.957	46486.33
464.398	46021.81
464.838	46261.11
465.278	45100.64
465.718	45340.35
466.158	43975.5
466.598	44656.57
467.038	44114.64
467.478	44655.06
467.918	44821.8
468.358	43952.74
468.798	43598.86
469.237	43531.45
469.677	43634.32
470.117	44417.25
470.556	41881.64
470.996	42297.55
471.435	42594.25
471.874	43202.43
472.314	43040.21
472.753	42050.06
473.192	42181.59
473.631	41779.75
474.07	42074.13
474.509	42005.9
474.948	42425.48
475.387	41601.59
475.826	40646.48
476.265	42463
476.704	41841.97
477.143	42422.99
477.581	42095.22
478.02	42557.95
478.458	41225.31
478.897	41879.16
479.335	43105.73
479.774	42487.35
480.212	42908.97
480.65	42559.19
481.089	42389.95
481.527	41853.38
481.965	41563.2
482.403	43520.97
482.841	43204.92
483.279	43234.59
483.717	43241.07
484.155	42793.48
484.592	43177.5
485.03	43345.55
485.468	42481.89
485.905	42437.16
486.343	43138.62
486.781	42425.23
487.218	41814.7
487.655	41750.5
488.093	40800.1
488.53	42415.79
488.967	41390.12
489.405	41198.84
489.842	40553.64
490.279	40417.16
490.716	39954.08
491.153	40510.69
491.59	39877.2
492.027	39136.39
492.463	38775.35
492.9	38071.36
493.337	37811.69
493.773	37871.02
494.21	37122.09
494.647	36902.77
495.083	36219.87
495.519	35843
495.956	35815.39
496.392	35028.04
496.828	34968.96
497.265	34106.63
497.701	34287.15
498.137	33972.96
498.573	33089.94
499.009	33600.06
499.445	32748.85
499.881	32275.14
500.316	32465.06
500.752	31711.21
501.188	31411.79
501.624	31366.92
502.059	29995.53
502.495	29977.22
502.93	29863.73
503.366	29983.08
503.801	29413.08
504.236	29051.88
504.672	28725.97
505.107	28394.31
505.542	27696.55
505.977	27706.33
506.412	27247.63
506.847	27610.16
507.282	26963.29
507.717	26638.87
508.152	26656.27
508.587	26290.48
509.021	25691.02
509.456	25327.54
509.891	25383.3
510.325	25305.43
510.76	24947.33
511.194	24718.87
511.628	24754.29
512.063	24106.75
512.497	24180.88
512.931	23613.44
513.366	23392.98
513.8	23539.97
514.234	22761.85
514.668	22783.58
515.102	23049.76
515.536	22134.53
515.969	22285.14
516.403	21921.52
516.837	21355.44
517.271	21572.95
517.704	21126.43
518.138	20956.82
518.571	20726.84
519.005	20458.5
519.438	20386.24
519.871	20204.9
520.305	19686.53
520.738	19630.3
521.171	19120.18
521.604	19273.61
522.037	19014.54
522.47	18687.72
522.903	18313.21
523.336	18261.03
523.769	18098.22
524.202	17634.87
524.634	17725.89
525.067	17425.51
525.5	17334.17
525.932	17037.73
526.365	16731.53
526.797	16571.31
527.23	16687.66
527.662	16081.43
528.094	15885.23
528.527	15826.18
528.959	15610.22
529.391	15326.67
529.823	14808.74
530.255	14867.48
530.687	14459.62
531.119	14312.43
531.551	14285.66
531.982	13890.41
532.414	13757.11
532.846	13551.84
533.277	13313.98
533.709	12885.61
534.14	12968.09
534.572	12756.12
535.003	12526.18
535.435	12359.37
535.866	12183.53
536.297	11868.17
536.728	11777.91
537.159	11819.73
537.59	11497.22
538.022	11345.75
538.452	11175.76
538.883	10893.25
539.314	10912.45
539.745	10648.03
540.176	10471.03
540.606	10232.98
541.037	10319.04
541.468	10052.5
541.898	9953.19
542.328	9993.08
542.759	9657.49
543.189	9555.89
543.619	9448.03
544.05	9207.81
544.48	9044.88
544.91	9046.17
545.34	8843.18
545.77	8715.39
546.2	8638.1
546.63	8528.83
547.06	8477.94
547.489	8308.24
547.919	8035.22
548.349	8114.4
548.778	8042.51
549.208	7953.65
549.637	7787.76
550.067	7621.67
550.496	7652.77
550.926	7525.47
551.355	7432.08
551.784	7332.08
552.213	7176.42
552.642	7063.62
553.071	7070.71
553.5	6921.82
553.929	6785.64
554.358	6752.23
554.787	6589.51
555.216	6620.86
555.645	6512.02
556.073	6401.5
556.502	6368.51
556.93	6156.34
557.359	6150.52
557.787	6111.9
558.216	6078.29
558.644	5957.55
559.072	5890.76
559.5	5822.88
559.929	5793.16
560.357	5751.5
560.785	5645.54
561.213	5593.71
561.641	5531.75
562.068	5524.57
562.496	5456.19
562.924	5407.47
563.352	5378.7
563.779	5322.22
564.207	5358.72
564.634	5269.96
565.062	5292.36
565.489	5151.77
565.917	5152.84
566.344	5153.37
566.771	5117.32
567.198	5064.7
567.625	5002.16
568.053	4893.02
568.48	4816.98
568.907	4814.03
569.333	4743.29
569.76	4577.76
570.187	4657.47
570.614	4453.09
571.04	4667.4
571.467	4412.75
571.894	4350.33
572.32	4231.29
572.747	4153.37
573.173	4118.03
573.599	4037.05
574.026	3925.45
574.452	3944.37
574.878	3901.11
575.304	3794.21
575.73	3767.67
576.156	3628.35
576.582	3685.02
577.008	3535.79
577.434	3458.36
577.86	3404.8
578.285	3411.6
578.711	3384.95
579.137	3302.48
579.562	3210.4
579.988	3203.04
580.413	3129.68
580.838	3053.53
581.264	3084.92
581.689	3022.66
582.114	2977.03
582.539	2948.88
582.964	2908.4
583.39	2857.51
583.814	2816.17
584.239	2749.87
584.664	2721.91
585.089	2703.82
585.514	2625.36
585.939	2590.77
586.363	2619.87
586.788	2539.41
587.212	2506.98
587.637	2481.96
588.061	2454.19
588.485	2367.78
588.91	2344.38
589.334	2371.09
589.758	2305.53
590.182	2255.1
590.606	2226.42
591.03	2209.59
591.454	2185.31
591.878	2163.23
592.302	2120.71
592.726	2111.6
593.15	2088.4
593.573	2066.29
593.997	2039.2
594.42	2004.09
594.844	1996.9
595.267	1974.21
595.691	1925.5
596.114	1890.34
596.537	1855.43
596.96	1891.17
597.384	1856.82
597.807	1812.47
598.23	1851.83
598.653	1798.05
599.076	1757
599.499	1796.94
599.921	1714.55
600.344	1705.94
600.767	1705.11
601.189	1731.75
601.612	1700.94
602.034	1670.12
602.457	1687.34
602.879	1671.79
603.302	1671.51
603.724	1627.89
604.146	1655.68
604.568	1618.44
604.991	1613.16
605.413	1625.67
605.835	1588.98
606.257	1564.23
606.678	1622.89
607.1	1550.05
607.522	1587.59
607.944	1541.42
608.365	1543.65
608.787	1513.04
609.209	1462.65
609.63	1482.42
610.051	1496.06
610.473	1462.93
610.894	1439.54
611.315	1432.85
611.737	1414.46
612.158	1387.99
612.579	1356.2
613	1427.28
613.421	1339.75
613.842	1324.41
614.263	1314.36
614.683	1304.6
615.104	1268.31
615.525	1276.69
615.945	1226.98
616.366	1251
616.787	1241.51
617.207	1225.59
617.627	1184.23
618.048	1177.81
618.468	1201
618.888	1186.19
619.308	1151.25
619.728	1155.16
620.148	1129.72
620.568	1137.27
620.988	1058.64
621.408	1094.75
621.828	1085.23
622.248	1053.6
622.668	1062.28
623.087	1046.33
623.507	1035.97
623.926	1039.05
624.346	1016.36
624.765	992.83
625.185	987.51
625.604	982.46
626.023	971.25
626.442	983.3
626.861	979.38
627.28	925.28
627.699	924.71
628.118	949.67
628.537	915.46
628.956	907.89
629.375	896.67
629.794	895.54
630.212	898.07
630.631	863.84
631.049	843.35
631.468	876.46
631.886	850.64
632.305	818.36
632.723	850.92
633.141	839.7
633.559	837.45
633.978	834.36
634.396	814.14
634.814	813.3
635.232	797.01
635.65	823.97
636.067	788.02
636.485	793.36
636.903	781.28
637.321	789.43
637.738	749.8
638.156	772.57
638.573	777.91
638.991	750.93
639.408	752.05
639.825	742.49
640.243	760.2
640.66	740.25
641.077	722.81
641.494	762.73
641.911	718.88
642.328	729
642.745	712.41
643.162	711.57
643.579	680.63
643.995	703.41
644.412	651.36
644.829	646.29
645.245	665.71
645.662	677.25
646.078	686.53
646.495	673.87
646.911	686.81
647.327	671.62
647.743	660.37
648.159	674.72
648.576	676.12
648.992	634.75
649.408	633.35
649.824	623.49
650.239	642.64
650.655	636.72
651.071	633.06
651.487	655.58
651.902	619.83
652.318	631.94
652.733	635.32
653.149	619.55
653.564	608.29
653.979	634.75
654.395	616.73
654.81	607.16
655.225	587.73
655.64	591.11
656.055	606.6
656.47	591.67
656.885	603.22
657.3	583.78
657.715	605.47
658.13	600.12
658.544	597.3
658.959	593.36
659.374	573.92
659.788	596.46
660.202	564.34
660.617	583.5
661.031	551.94
661.445	580.12
661.86	548
662.274	548.28
662.688	567.16
663.102	556.45
663.516	577.3
663.93	554.2
664.344	551.66
664.758	544.33
665.171	527.7
665.585	552.51
665.999	539.82
666.412	543.21
666.826	562.37
667.239	521.22
667.653	531.65
668.066	521.22
668.479	550.53
668.892	526.29
669.306	498.66
669.719	530.52
670.132	537.29
670.545	531.65
670.958	535.03
671.37	505.99
671.783	541.8
672.196	494.43
672.609	502.61
673.021	501.76
673.434	512.2
673.846	514.45
674.259	482.58
674.671	539.82
675.084	533.9
675.496	522.91
675.908	514.45
676.32	505.71
676.732	488.51
677.144	499.51
677.556	473.56
677.968	485.12
678.38	492.17
678.792	486.81
679.204	466.5
679.615	508.25
680.027	469.04
680.439	478.92
680.85	466.22
681.262	491.61
681.673	479.76
682.084	528.27
682.496	456.34
682.907	505.15
683.318	471.3
683.729	495.56
684.14	481.74
684.551	471.58
684.962	455.5
685.373	475.81
685.784	486.53
686.194	455.22
686.605	461.71
687.016	477.51
687.426	463.96
687.837	467.07
688.247	469.04
688.657	485.69
689.068	450.14
689.478	458.88
689.888	464.25
690.298	491.04
690.708	475.53
691.118	454.93
691.528	455.22
691.938	494.43
692.348	457.76
692.758	432.07
693.168	442.8
693.577	460.29
693.987	469.04
694.396	456.91
694.806	455.78
695.215	461.42
695.625	456.06
696.034	453.8
696.443	435.46
696.852	443.36
697.262	468.48
697.671	473.84
698.08	437.44
698.489	436.87
698.897	435.74
699.306	426.43
699.715	423.6
700.124	442.23
700.532	460.29
700.941	417.96
701.35	435.74
701.758	424.45
702.166	429.81
702.575	438.85
702.983	442.23
703.391	442.52
703.799	458.32
704.208	456.34
704.616	432.64
705.024	423.04
705.432	425.58
705.839	443.36
706.247	433.48
706.655	426.14
707.063	451.83
707.47	421.63
707.878	417.96
708.285	428.69
708.693	409.49
709.1	425.3
709.508	441.39
709.915	444.77
710.322	433.2
710.729	447.31
711.136	427.27
711.543	417.39
711.95	438.85
712.357	421.91
712.764	435.46
713.171	418.8
713.578	429.25
713.984	406.66
714.391	441.11
714.797	408.64
715.204	423.04
715.61	423.89
716.017	423.89
716.423	453.24
716.829	416.83
717.236	443.08
717.642	407.79
718.048	421.63
718.454	403.28
718.86	402.71
719.266	427.84
719.671	426.43
720.077	440.26
720.483	422.76
720.889	428.4
721.294	426.43
721.7	418.24
722.105	397.63
722.511	390
722.916	432.36
723.321	416.26
723.726	437.15
724.132	427.27
724.537	402.15
724.942	449.29
725.347	417.96
725.752	429.81
726.156	419.37
726.561	386.9
726.966	399.32
727.371	436.02
727.775	405.82
728.18	400.17
728.584	402.99
728.989	432.64
729.393	426.14
729.798	414.01
730.202	401.02
730.606	429.53
731.01	424.17
731.414	431.51
731.818	406.95
732.222	393.96
732.626	398.19
733.03	410.33
733.434	410.33
733.837	411.75
734.241	416.83
734.645	411.46
735.048	421.06
735.452	425.58
735.855	415.42
736.258	388.03
736.662	406.1
737.065	434.9
737.468	424.73
737.871	406.1
738.274	422.19
738.677	407.79
739.08	420.5
739.483	415.42
739.886	399.6
740.289	428.4
740.691	391.13
741.094	399.32
741.497	398.47
741.899	402.43
742.302	418.24
742.704	405.25
743.106	407.79
743.508	410.9
743.911	394.8
744.313	418.52
744.715	395.65
745.117	399.32
745.519	401.58
745.921	403.28
746.323	401.86
746.724	404.12
747.126	393.67
747.528	389.44
747.929	423.6
748.331	425.58
748.732	367.12
749.134	399.6
749.535	411.46
749.936	421.35
750.338	411.46
750.739	392.26
751.14	401.58
751.541	404.69
751.942	410.05
752.343	393.96
752.744	401.02
753.144	395.09
753.545	401.3
753.946	393.96
754.346	403.56
754.747	382.94
755.148	393.11
755.548	380.12
755.948	396.22
756.349	401.3
756.749	398.76
757.149	404.4
757.549	391.41
757.949	423.6
758.349	416.55
758.749	404.69
759.149	408.64
759.549	387.74
759.949	406.38
760.348	397.35
760.748	393.11
761.148	414.01
761.547	397.63
761.947	388.03
762.346	391.7
762.745	400.45
763.145	398.47
763.544	381.25
763.943	378.42
764.342	377.29
764.741	395.93
765.14	370.51
765.539	372.49
765.938	424.17
766.336	390.28
766.735	392.26
767.134	395.93
767.532	387.46
767.931	385.77
768.329	404.12
768.728	378.7
769.126	391.13
769.525	403.28
769.923	402.15
770.321	386.9
770.719	399.6
771.117	381.81
771.515	409.77
771.913	396.5
772.311	380.68
772.709	402.99
773.106	411.75
773.504	401.86
773.902	396.22
774.299	372.21
774.697	375.88
775.094	393.39
775.491	414.29
775.889	399.6
776.286	407.51
776.683	407.79
777.08	396.5
777.477	402.15
777.874	381.25
778.271	386.33
778.668	386.33
779.065	393.67
779.462	380.68
779.858	384.92
780.255	415.13
780.652	396.5
781.048	376.44
781.444	409.77
781.841	370.23
782.237	391.41
782.633	387.74
783.03	382.66
783.426	360.06
783.822	371.36
784.218	408.92
784.614	397.91
785.01	384.92
785.405	392.54
785.801	424.17
786.197	394.8
786.593	392.26
786.988	382.09
787.384	417.11
787.779	386.05
788.174	406.38
788.57	407.79
788.965	397.91
789.36	379.83
789.755	400.73
790.15	408.36
790.545	386.9
790.94	410.62
791.335	414.29
791.73	401.86
792.125	410.05
792.52	373.05
792.914	414.01
793.309	395.65
793.703	394.52
794.098	379.27
794.492	392.54
794.887	381.81
795.281	391.41
795.675	407.79
796.069	399.32
796.463	383.79
796.857	374.75
797.251	380.68
797.645	400.17
798.039	391.13
798.433	391.98
798.826	361.47
799.22	404.97
799.614	386.9
800.007	361.47
800.401	384.07
800.794	389.44
801.187	406.95
801.581	391.98
801.974	390.28
802.367	382.66
802.76	414.01
803.153	395.37
803.546	383.51
803.939	397.63
804.332	397.35
804.725	378.7
805.117	397.63
805.51	407.23
805.903	385.48
806.295	399.04
806.688	383.79
807.08	373.05
807.472	381.25
807.865	377.29
808.257	393.96
808.649	393.39
809.041	379.83
809.433	391.41
809.825	390.85
810.217	399.04
810.609	381.25
811.001	382.09
811.392	413.72
811.784	400.73
812.175	385.77
812.567	392.83
812.958	393.67
813.35	378.42
813.741	367.97
814.132	360.34
814.524	416.55
814.915	395.37
815.306	370.51
815.697	392.26
816.088	393.11
816.479	433.2
816.87	386.05
817.26	380.68
817.651	421.35
818.042	395.37
818.432	378.42
818.823	390
819.213	383.79
819.604	389.72
819.994	369.66
820.384	387.46
820.775	382.38
821.165	356.67
821.555	388.59
821.945	393.39
822.335	413.16
822.725	424.45
823.114	390.85
823.504	386.9
823.894	382.66
824.284	400.17
824.673	377.57
825.063	378.14
825.452	400.17
825.842	377.01
826.231	377.01
826.62	381.81
827.009	371.36
827.399	382.94
827.788	376.16
828.177	370.79
828.566	388.31
828.954	397.06
829.343	405.25
829.732	402.99
830.121	382.66
830.509	388.03
830.898	386.05
831.286	368.82
831.675	383.51
832.063	384.64
832.452	383.22
832.84	379.55
833.228	390.85
833.616	367.97
834.004	389.44
834.392	375.88
834.78	364.58
835.168	397.63
835.556	369.66
835.944	402.15
836.331	404.12
836.719	383.79
837.107	432.64
837.494	396.78
837.881	404.69
838.269	412.59
838.656	370.51
839.043	377.29
839.431	370.79
839.818	359.78
840.205	371.36
840.592	368.82
840.979	391.41
841.366	369.66
841.752	376.44
842.139	369.1
842.526	394.24
842.912	402.71
843.299	390.57
843.685	384.07
844.072	388.87
844.458	378.99
844.844	405.53
845.231	366.27
845.617	388.31
846.003	366.84
846.389	392.26
846.775	407.23
847.161	395.93
847.547	399.32
847.933	374.18
848.318	400.73
848.704	388.59
849.09	371.64
849.475	383.79
849.861	393.39
850.246	383.51
850.631	378.42
851.017	393.67
851.402	385.77
851.787	388.31
852.172	388.87
852.557	348.47
852.942	384.64
853.327	373.05
853.712	375.31
854.097	416.26
854.481	384.64
854.866	379.27
855.25	401.02
855.635	369.38
856.019	355.25
856.404	404.97
856.788	378.99
857.172	380.96
857.557	380.68
857.941	402.43
858.325	369.95
858.709	377.01
859.093	362.04
859.477	365.43
859.86	369.66
860.244	362.04
860.628	401.58
861.012	412.59
861.395	410.62
861.779	383.79
862.162	377.29
862.545	366.84
862.929	375.6
863.312	397.35
863.695	392.26
864.078	394.52
864.461	384.07
864.844	393.39
865.227	404.12
865.61	390.28
865.993	388.87
866.376	368.82
866.758	386.9
867.141	390.85
867.523	400.45
867.906	386.61
868.288	409.77
868.671	373.62
869.053	370.23
869.435	363.45
869.817	390
870.199	406.1
870.581	375.6
870.963	385.77
871.345	394.24
871.727	377.29
872.109	394.52
872.491	399.32
872.872	385.2
873.254	377.01
873.635	389.44
874.017	369.66
874.398	373.05
874.779	383.51
875.161	399.6
875.542	387.46
875.923	388.31
876.304	369.95
876.685	379.55
877.066	376.73
877.447	375.31
877.828	385.48
878.208	391.7
878.589	382.38
878.97	388.03
879.35	391.41
879.731	354.41
880.111	390
880.491	384.07
880.872	369.1
881.252	386.05
881.632	388.87
882.012	380.12
882.392	368.25
882.772	375.88
883.152	389.72
883.532	377.01
883.912	365.99
884.291	391.41
884.671	368.82
885.051	387.74
885.43	397.63
885.81	368.82
886.189	378.42
886.568	357.52
886.948	383.51
887.327	383.51
887.706	370.51
888.085	369.38
888.464	383.51
888.843	374.18
889.222	371.36
889.601	376.44
889.979	375.03
890.358	408.36
890.737	388.59
891.115	397.91
891.494	374.75
891.872	380.68
892.25	361.47
892.629	359.49
893.007	369.95
893.385	365.99
893.763	380.96
894.141	377.57
894.519	369.38
894.897	380.96
895.275	371.36
895.653	402.43
896.03	398.47
896.408	401.3
896.786	386.05
897.163	372.21
897.541	378.42
897.918	383.51
898.295	384.07
898.673	382.94
899.05	385.2
899.427	392.54
899.804	381.25
900.181	391.13
900.558	382.38
900.935	390
901.312	386.61
901.688	380.96
902.065	366.84
902.442	399.89
902.818	388.87
903.195	399.04
903.571	390.57
903.947	361.47
904.324	376.44
904.7	383.79
905.076	381.53
905.452	391.98
905.828	374.47
906.204	416.83
906.58	362.32
906.956	370.23
907.331	361.75
907.707	385.48
908.083	371.92
908.458	384.07
908.834	369.1
909.209	412.88
909.585	344.8
909.96	382.94
910.335	370.79
910.71	377.29
911.086	371.92
911.461	360.62
911.836	392.54
912.21	382.38
912.585	392.83
912.96	358.36
913.335	390.28
913.709	378.99
914.084	381.81
914.459	368.82
914.833	386.9
915.207	381.81
915.582	368.25
915.956	398.47
916.33	386.05
916.704	381.81
917.078	382.09
917.452	372.77
917.826	391.98
918.2	364.3
918.574	382.38
918.948	379.55
919.321	381.81
919.695	375.88
920.068	378.14
920.442	359.21
920.815	385.48
921.189	370.51
921.562	352.71
921.935	368.25
922.308	398.19
922.681	398.47
923.054	374.75
923.427	360.62
923.8	386.05
924.173	360.34
924.546	385.77
924.919	404.69
925.291	400.73
925.664	350.17
926.036	379.27
926.409	371.64
926.781	384.35
927.153	379.83
927.526	366.27
927.898	377.29
928.27	377.29
928.642	375.88
929.014	384.92
929.386	397.06
929.758	403.28
930.129	376.73
930.501	380.96
930.873	346.49
931.244	376.73
931.616	357.52
931.987	405.82
932.359	372.21
932.73	382.94
933.101	367.97
933.472	355.82
933.843	360.06
934.214	381.53
934.585	348.47
934.956	367.69
935.327	358.36
935.698	373.34
936.069	356.95
936.439	360.34
936.81	392.26
937.18	384.64
937.551	381.53
937.921	386.33
938.292	356.39
938.662	376.16
939.032	392.54
939.402	360.62
939.772	373.34
940.142	378.7
940.512	379.27
940.882	372.49
941.252	365.71
941.621	370.23
941.991	388.59
942.361	371.36
942.73	359.49
943.1	396.5
943.469	372.49
943.838	393.96
944.208	391.7
944.577	349.6
944.946	375.03
945.315	327.84
945.684	390.28
946.053	369.95
946.422	388.87
946.791	371.64
947.159	396.78
947.528	374.47
947.897	369.1
948.265	379.55
948.634	387.18
949.002	351.86
949.371	368.53
949.739	378.14
950.107	378.99
950.475	364.01
950.843	367.97
951.211	379.27
951.579	397.35
951.947	391.13
952.315	369.38
952.683	366.56
953.05	404.97
953.418	372.49
953.785	382.66
954.153	346.49
954.52	386.05
954.888	380.96
955.255	381.81
955.622	386.9
955.989	373.9
956.356	375.03
956.723	360.91
957.09	369.95
957.457	369.95
957.824	366.27
958.191	373.62
958.557	380.4
958.924	380.96
959.291	381.81
959.657	401.3
960.023	394.52
960.39	388.59
960.756	389.15
961.122	384.64
961.488	359.78
961.855	394.24
962.221	379.55
962.586	351.02
962.952	379.83
963.318	383.51
963.684	362.6
964.05	406.66
964.415	367.4
964.781	365.14
965.146	358.93
965.512	395.09
965.877	372.21
966.242	356.39
966.608	362.04
966.973	375.31
967.338	393.67
967.703	388.87
968.068	372.49
968.433	352.15
968.797	371.08
969.162	384.64
969.527	372.49
969.891	377.01
970.256	357.8
970.62	360.34
970.985	376.73
971.349	375.88
971.714	352.99
972.078	400.45
972.442	375.03
972.806	389.72
973.17	381.81
973.534	361.75
973.898	369.38
974.262	359.21
974.625	371.08
974.989	371.64
975.353	358.36
975.716	381.81
976.08	370.79
976.443	389.15
976.806	381.25
977.17	380.12
977.533	400.73
977.896	397.63
978.259	389.15
978.622	387.46
978.985	376.16
979.348	384.92
979.711	374.75
980.073	379.27
980.436	364.3
980.799	377.01
981.161	379.27
981.524	385.2
981.886	361.75
982.248	374.75
982.611	381.25
982.973	361.19
983.335	384.07
983.697	382.09
984.059	367.69
984.421	387.46
984.783	362.32
985.145	362.6
985.506	372.21
985.868	366.27
986.23	373.05
986.591	366.56
986.953	369.1
987.314	376.16
987.675	389.72
988.037	512.76
988.398	390.85
988.759	364.01
989.12	382.66
989.481	369.66
989.842	341.41
990.203	389.44
990.564	387.74
990.924	376.44
991.285	502.61
991.646	389.72
992.006	363.73
992.367	382.09
992.727	356.67
993.087	371.36
993.448	362.32
993.808	382.66
994.168	392.54
994.528	361.19
994.888	364.01
995.248	387.46
995.608	375.88
995.967	378.42
996.327	362.32
996.687	374.47
997.046	368.82
997.406	365.99
997.765	367.97
998.125	374.75
998.484	374.75
998.843	360.62
999.202	376.73
999.561	359.21
999.92	375.03
1000.279	363.73
1000.638	373.9
1000.997	350.73
1001.356	360.62
1001.715	376.44
1002.073	362.6
1002.432	369.66
1002.79	380.4
1003.149	366.84
1003.507	375.31
1003.865	360.34
1004.224	362.04
1004.582	369.38
1004.94	387.18
1005.298	405.53
1005.656	388.59
1006.014	373.34
1006.371	364.3
1006.729	384.92
1007.087	357.52
1007.445	399.89
1007.802	393.67
1008.16	355.54
1008.517	387.74
1008.874	391.13
1009.232	382.94
1009.589	327.56
1009.946	377.01
1010.303	378.14
1010.66	382.09
1011.017	371.64
1011.374	374.18
1011.731	371.08
1012.087	380.12
1012.444	373.34
1012.801	355.82
1013.157	367.97
1013.513	373.05
1013.87	344.52
1014.226	401.3
1014.582	385.77
1014.939	352.71
1015.295	372.49
1015.651	376.73
1016.007	332.65
1016.363	385.2
1016.719	355.25
1017.074	367.12
1017.43	364.86
1017.786	353.28
1018.141	377.86
1018.497	377.86
1018.852	395.37
1019.208	386.05
1019.563	358.08
1019.918	388.87
1020.273	356.39
1020.628	354.41
1020.983	365.43
1021.338	383.51
1021.693	368.53
1022.048	401.3
1022.403	382.38
1022.757	390.85
1023.112	393.39
1023.467	363.45
1023.821	371.08
1024.175	378.99
1024.53	365.14
1024.884	356.1
1025.238	357.8
1025.592	365.99
1025.946	353.84
1026.3	357.8
1026.654	353.56
1027.008	355.25
1027.362	360.62
1027.716	372.77
1028.069	371.08
1028.423	394.8
1028.777	349.04
1029.13	370.23
1029.483	360.62
1029.837	355.25
1030.19	379.83
1030.543	365.43
1030.896	386.05
1031.249	369.38
1031.602	376.44
1031.955	381.25
1032.308	383.79
1032.661	383.51
1033.013	370.51
1033.366	351.3
1033.719	369.66
1034.071	365.71
1034.424	348.76
1034.776	395.37
1035.128	360.06
1035.48	354.97
1035.833	361.75
1036.185	375.03
1036.537	375.03
1036.889	375.03
