Data from SCSF78_irradiation_FLMS019251_03-33-13-158.txt Node
Date: Thu Feb 21 03:33:13 PST 2019
User: mu3e
Spectrometer: FLMS01925
Trigger mode: 0
Integration Time (sec): 6.500000E-2
Scans to average: 10
Electric dark correction enabled: true
Nonlinearity correction enabled: true
Boxcar width: 0
XAxis mode: Wavelengths
Number of Pixels in Spectrum: 2048
>>>>>Begin Spectral Data<<<<<
187.103	-111.13
187.574	-111.13
188.045	-111.13
188.516	-130.47
188.987	-140.14
189.458	-109.14
189.929	-119.38
190.4	-117.67
190.871	-93.79
191.342	-86.68
191.813	-72.76
192.284	-29
192.754	-16.5
193.225	5.36
193.696	37.72
194.166	50.77
194.637	80.55
195.107	85.09
195.578	93.6
196.048	129.6
196.518	161.34
196.989	155.11
197.459	178.9
197.929	190.23
198.399	271.46
198.869	283.63
199.339	296.92
199.809	302.29
200.279	333.67
200.749	329.71
201.219	368.99
201.689	380.01
202.159	365.04
202.628	357.69
203.098	389.61
203.568	385.66
204.037	381.14
204.507	379.45
204.976	357.97
205.445	376.06
205.915	393
206.384	407.69
206.853	378.88
207.323	387.92
207.792	398.93
208.261	392.16
208.73	396.96
209.199	390.46
209.668	396.39
210.137	386.22
210.606	404.86
211.075	399.5
211.543	358.82
212.012	358.26
212.481	372.67
212.95	357.69
213.418	370.12
213.887	369.28
214.355	351.19
214.824	351.48
215.292	340.74
215.76	348.08
216.229	338.48
216.697	341.87
217.165	331.69
217.633	343
218.101	366.45
218.569	363.63
219.037	350.35
219.505	339.61
219.973	335.93
220.441	330.56
220.909	346.11
221.377	360.23
221.844	343.28
222.312	339.32
222.78	367.02
223.247	357.13
223.715	335.65
224.182	374.08
224.65	353.45
225.117	370.12
225.584	345.54
226.052	357.97
226.519	356.56
226.986	365.6
227.453	376.9
227.92	344.13
228.387	382.84
228.854	346.11
229.321	339.61
229.788	322.93
230.255	361.08
230.722	367.3
231.189	355.71
231.655	350.91
232.122	347.24
232.589	361.08
233.055	343.56
233.522	341.02
233.988	384.53
234.454	359.1
234.921	344.41
235.387	372.38
235.853	371.54
236.32	377.47
236.786	353.74
237.252	365.32
237.718	356.84
238.184	385.94
238.65	345.54
239.116	380.01
239.582	362.78
240.047	349.21
240.513	352.89
240.979	383.12
241.445	368.99
241.91	358.82
242.376	384.53
242.841	386.22
243.307	368.43
243.772	361.65
244.238	368.15
244.703	361.93
245.168	355.43
245.633	383.96
246.099	384.25
246.564	373.8
247.029	364.47
247.494	348.65
247.959	357.41
248.424	349.21
248.889	378.03
249.353	383.12
249.818	397.8
250.283	363.63
250.748	376.9
251.212	349.21
251.677	363.34
252.141	363.63
252.606	357.41
253.07	387.35
253.535	365.04
253.999	344.98
254.463	367.86
254.927	343.28
255.392	362.78
255.856	379.73
256.32	352.89
256.784	367.02
257.248	386.79
257.712	380.29
258.176	364.47
258.64	393.85
259.103	337.91
259.567	369.28
260.031	359.95
260.495	380.01
260.958	383.12
261.422	373.51
261.885	381.14
262.349	348.93
262.812	398.09
263.275	372.1
263.739	354.02
264.202	361.08
264.665	381.14
265.128	359.1
265.591	373.8
266.054	388.2
266.517	384.81
266.98	405.43
267.443	386.79
267.906	372.67
268.369	380.58
268.832	365.32
269.294	347.52
269.757	397.52
270.22	384.81
270.682	369.84
271.145	355.71
271.607	352.61
272.07	394.98
272.532	392.44
272.994	373.23
273.456	383.12
273.919	389.33
274.381	357.41
274.843	374.08
275.305	388.77
275.767	386.22
276.229	394.7
276.691	376.62
277.153	384.25
277.614	400.35
278.076	386.79
278.538	382.55
279	379.73
279.461	380.01
279.923	400.06
280.384	397.52
280.846	346.11
281.307	342.43
281.769	382.55
282.23	399.78
282.691	383.12
283.152	381.71
283.613	371.82
284.075	380.58
284.536	361.08
284.997	371.82
285.458	376.9
285.918	378.03
286.379	398.09
286.84	422.37
287.301	363.06
287.762	364.47
288.222	409.1
288.683	371.25
289.143	402.6
289.604	409.1
290.064	397.24
290.525	381.14
290.985	403.45
291.445	384.25
291.906	350.63
292.366	417
292.826	407.41
293.286	366.45
293.746	385.09
294.206	378.32
294.666	401.48
295.126	387.64
295.586	385.66
296.046	372.38
296.506	394.7
296.965	402.04
297.425	409.38
297.884	401.48
298.344	382.27
298.804	387.92
299.263	383.96
299.722	405.71
300.182	376.9
300.641	368.99
301.1	385.38
301.559	376.9
302.019	381.99
302.478	383.68
302.937	379.16
303.396	397.24
303.855	401.48
304.314	396.96
304.772	383.12
305.231	381.14
305.69	385.94
306.149	387.92
306.607	393
307.066	401.76
307.524	394.13
307.983	396.67
308.441	385.94
308.9	418.13
309.358	374.08
309.816	391.31
310.275	392.44
310.733	392.44
311.191	374.08
311.649	415.31
312.107	370.69
312.565	381.42
313.023	377.47
313.481	394.42
313.939	387.35
314.397	387.92
314.854	392.16
315.312	384.81
315.77	401.48
316.227	403.73
316.685	378.03
317.142	395.54
317.6	407.41
318.057	370.97
318.514	384.25
318.972	413.33
319.429	393.29
319.886	404.3
320.343	416.72
320.8	389.61
321.257	409.38
321.714	398.65
322.171	396.39
322.628	406.28
323.085	400.06
323.542	379.73
323.998	409.95
324.455	400.35
324.912	402.32
325.368	393.57
325.825	404.02
326.281	402.6
326.738	389.33
327.194	396.96
327.65	410.51
328.107	426.32
328.563	406.28
329.019	391.31
329.475	408.25
329.931	402.04
330.387	397.8
330.843	418.42
331.299	385.38
331.755	414.18
332.211	392.16
332.666	394.13
333.122	390.18
333.578	426.32
334.033	392.44
334.489	380.01
334.944	395.54
335.4	410.79
335.855	420.68
336.31	400.91
336.766	399.22
337.221	396.39
337.676	402.32
338.131	393.57
338.586	408.82
339.041	394.42
339.496	393.29
339.951	413.9
340.406	416.16
340.861	371.82
341.316	405.99
341.771	383.68
342.225	401.48
342.68	407.12
343.134	412.21
343.589	416.72
344.043	392.16
344.498	406.84
344.952	398.09
345.406	435.92
345.861	426.6
346.315	389.05
346.769	408.25
347.223	371.82
347.677	382.27
348.131	420.96
348.585	378.6
349.039	396.11
349.493	368.15
349.947	416.44
350.401	394.7
350.854	379.16
351.308	405.71
351.762	386.22
352.215	415.59
352.669	414.18
353.122	383.96
353.575	415.31
354.029	378.32
354.482	423.5
354.935	405.15
355.388	420.11
355.842	391.59
356.295	393.29
356.748	400.06
357.201	419.83
357.654	415.88
358.106	401.48
358.559	394.98
359.012	391.87
359.465	422.93
359.917	391.59
360.37	418.42
360.823	388.48
361.275	410.79
361.728	392.16
362.18	420.11
362.632	420.39
363.085	386.51
363.537	403.17
363.989	431.4
364.441	427.73
364.893	406.28
365.345	383.12
365.797	405.99
366.249	403.45
366.701	412.77
367.153	409.66
367.605	412.49
368.057	418.42
368.508	419.26
368.96	418.42
369.411	441.85
369.863	390.46
370.314	423.78
370.766	405.15
371.217	416.44
371.669	426.32
372.12	427.73
372.571	401.19
373.022	393.29
373.473	427.17
373.924	403.73
374.375	397.24
374.826	430.84
375.277	413.9
375.728	403.17
376.179	437.33
376.63	391.31
377.08	420.11
377.531	400.63
377.981	409.66
378.432	432.25
378.883	426.89
379.333	434.79
379.783	441.85
380.234	411.64
380.684	391.03
381.134	436.77
381.584	391.87
382.034	419.26
382.485	410.23
382.935	434.79
383.385	421.52
383.834	418.42
384.284	405.71
384.734	402.04
385.184	406.84
385.634	406.56
386.083	438.18
386.533	422.09
386.982	431.12
387.432	412.49
387.881	396.96
388.331	408.82
388.78	452.85
389.229	435.92
389.679	428.3
390.128	387.07
390.577	424.63
391.026	403.45
391.475	415.88
391.924	415.31
392.373	396.67
392.822	429.99
393.27	429.99
393.719	412.21
394.168	446.08
394.617	427.45
395.065	412.77
395.514	418.42
395.962	437.89
396.411	439.59
396.859	438.18
397.307	431.97
397.756	406.56
398.204	432.53
398.652	466.96
399.1	433.38
399.548	422.37
399.996	425.19
400.444	432.25
400.892	443.54
401.34	411.92
401.788	412.21
402.236	457.09
402.683	456.52
403.131	451.44
403.579	452.85
404.026	450.59
404.474	442.13
404.921	437.89
405.369	453.13
405.816	456.24
406.263	453.98
406.71	470.06
407.158	448.34
407.605	479.37
408.052	472.89
408.499	461.6
408.946	490.09
409.393	504.48
409.84	489.81
410.286	484.17
410.733	520.55
411.18	526.75
411.626	575.79
412.073	606.49
412.52	645.34
412.966	734.52
413.413	905.82
413.859	1049.3
414.305	1263.46
414.752	1548.27
415.198	1860.87
415.644	2277.87
416.09	2794.16
416.536	3335.59
416.982	3977.79
417.428	4722.81
417.874	5478.71
418.32	6342.01
418.766	7194.68
419.211	8251.71
419.657	9214.69
420.103	10406.51
420.548	11197.15
420.994	12548.7
421.439	13574.02
421.885	14517.32
422.33	15850.96
422.776	16878.56
423.221	17830.28
423.666	18986.78
424.111	20207.79
424.556	20888.02
425.001	22225.45
425.446	23317.9
425.891	24463.39
426.336	25114.89
426.781	26225.88
427.226	27984.64
427.671	28557.99
428.115	29249.14
428.56	30735.67
429.005	31881.79
429.449	32335.51
429.894	33655.08
430.338	34462.48
430.782	34505.42
431.227	35861.24
431.671	36091.93
432.115	37494.98
432.559	38243.48
433.003	38023.45
433.447	39095.48
433.891	39262.7
434.335	39346.08
434.779	40138.11
435.223	40284.09
435.667	40318.38
436.111	40855.85
436.554	40865.73
436.998	40346.26
437.442	40379.32
437.885	42175.29
438.328	40704.17
438.772	41028.61
439.215	41390.28
439.659	40874.13
440.102	41532.64
440.545	40816.56
440.988	40700.22
441.431	41402.9
441.874	40778.76
442.317	41224.23
442.76	40613.54
443.203	40042.7
443.646	40691.33
444.089	40368.46
444.531	40781.23
444.974	39480.92
445.417	40495.79
445.859	39773.16
446.302	40736.03
446.744	40053.8
447.186	41076.58
447.629	40055.52
448.071	40052.07
448.513	40219.48
448.956	41217.8
449.398	40434.83
449.84	39359.37
450.282	39921.95
450.724	40374.63
451.166	40109.26
451.607	39966.06
452.049	40035.8
452.491	40695.28
452.933	40463.71
453.374	41084.49
453.816	41296.48
454.257	40920.1
454.699	41764.79
455.14	41507.13
455.582	41122.32
456.023	41064.96
456.464	41407.11
456.905	41694.4
457.347	41634.44
457.788	40757.03
458.229	40896.87
458.67	41847.33
459.111	40050.59
459.552	40157.09
459.992	39881.79
460.433	39889.92
460.874	38771.33
461.315	39809.36
461.755	38981.91
462.196	38514.45
462.636	37803.27
463.077	37606.22
463.517	37712.08
463.957	37983.72
464.398	37666.01
464.838	37753.01
465.278	36562.36
465.718	36871.84
466.158	35913.04
466.598	36277.47
467.038	35902.53
467.478	36150.84
467.918	36312.19
468.358	35709.51
468.798	35588.35
469.237	35333.38
469.677	35298.95
470.117	35950.18
470.556	33885.31
470.996	34333.41
471.435	34526.16
471.874	35011.34
472.314	34716.74
472.753	33965.55
473.192	34129.71
473.631	33842.63
474.07	33936.28
474.509	34014.58
474.948	34218.26
475.387	33719.95
475.826	32879.19
476.265	34334.14
476.704	33829.46
477.143	34170.69
477.581	34024.09
478.02	34468.58
478.458	33320.76
478.897	33799.21
479.335	34803.14
479.774	34258.52
480.212	34576.92
480.65	34457.35
481.089	34331.46
481.527	33926.77
481.965	33557.05
482.403	34983.52
482.841	34744.57
483.279	34893.45
483.717	34976.68
484.155	34557.39
484.592	34775.56
485.03	34973.51
485.468	34165.57
485.905	34335.12
486.343	34811.93
486.781	34140.69
487.218	33661.91
487.655	33670.93
488.093	32898.7
488.53	34208.02
488.967	33299.54
489.405	33203.96
489.842	32511.78
490.279	32553.47
490.716	32312.59
491.153	32539.82
491.59	32076.11
492.027	31459
492.463	31139.55
492.9	30539.54
493.337	30570.28
493.773	30607.12
494.21	29837.04
494.647	29715.48
495.083	29028.1
495.519	28747.38
495.956	28602.47
496.392	28149.72
496.828	28015.7
497.265	27377.3
497.701	27411.57
498.137	27188.77
498.573	26581.17
499.009	26834.82
499.445	26190.07
499.881	25878.96
500.316	26009.02
500.752	25304.1
501.188	25054.18
501.624	25002.8
502.059	23974.64
502.495	23953.94
502.93	23770.86
503.366	24009.12
503.801	23425.94
504.236	23277.93
504.672	22792.63
505.107	22681.23
505.542	22168.82
505.977	22097.34
506.412	21757.57
506.847	21999.12
507.282	21446.53
507.717	21245.32
508.152	21158.81
508.587	20987.97
509.021	20381.92
509.456	20170.76
509.891	20173.5
510.325	20132.99
510.76	19838.91
511.194	19732.71
511.628	19747.88
512.063	19113.86
512.497	19248.86
512.931	18774.65
513.366	18728.27
513.8	18614.3
514.234	18112.86
514.668	18152.57
515.102	18363.03
515.536	17557.25
515.969	17753.79
516.403	17365.86
516.837	17038.64
517.271	17193.15
517.704	16887.33
518.138	16732.69
518.571	16657.48
519.005	16347.19
519.438	16200.11
519.871	16122.02
520.305	15759.47
520.738	15677.51
521.171	15348.97
521.604	15324.81
522.037	15220.33
522.47	14993.65
522.903	14656.08
523.336	14568.04
523.769	14580.65
524.202	14156.23
524.634	14141.58
525.067	13935.33
525.5	13916.36
525.932	13672.49
526.365	13404.09
526.797	13296.91
527.23	13259.9
527.662	12774.31
528.094	12727.83
528.527	12627.74
528.959	12399.2
529.391	12206.6
529.823	11868.84
530.255	11958.04
530.687	11596.68
531.119	11506.57
531.551	11415.4
531.982	11203.79
532.414	11045.46
532.846	10838.6
533.277	10697.15
533.709	10369.28
534.14	10374.67
534.572	10198.45
535.003	10162.46
535.435	9935.59
535.866	9779.55
536.297	9479.94
536.728	9492.33
537.159	9417.48
537.59	9272.84
538.022	9117.22
538.452	8980.85
538.883	8738.89
539.314	8795.4
539.745	8552.36
540.176	8429.78
540.606	8213.21
541.037	8303.98
541.468	8132.52
541.898	8014.8
542.328	7974.93
542.759	7730.24
543.189	7696.55
543.619	7616.35
544.05	7477.77
544.48	7307.62
544.91	7325.7
545.34	7130.17
545.77	7046.2
546.2	6990.01
546.63	6851.28
547.06	6911.21
547.489	6722.92
547.919	6455.49
548.349	6567.8
548.778	6506.12
549.208	6359.96
549.637	6259.6
550.067	6167.35
550.496	6176.34
550.926	6069.73
551.355	5891.99
551.784	5946.06
552.213	5818.53
552.642	5743.43
553.071	5715.82
553.5	5646.23
553.929	5497.07
554.358	5512.5
554.787	5391.65
555.216	5360.75
555.645	5266.13
556.073	5198.38
556.502	5110.28
556.93	5018.9
557.359	5017.57
557.787	4968.37
558.216	4900.95
558.644	4855.71
559.072	4840.71
559.5	4722.01
559.929	4800.8
560.357	4713.7
560.785	4636.98
561.213	4593.5
561.641	4576.85
562.068	4551.07
562.496	4514
562.924	4391.13
563.352	4450.84
563.779	4380.9
564.207	4399.74
564.634	4325.19
565.062	4365.84
565.489	4252.2
565.917	4230.65
566.344	4158.66
566.771	4149.22
567.198	4144.37
567.625	4027.22
568.053	4017.5
568.48	3965.08
568.907	3933.46
569.333	3859.62
569.76	3773.26
570.187	3789.24
570.614	3753.49
571.04	4676.69
571.467	3624.72
571.894	3511.25
572.32	3509.89
572.747	3451.19
573.173	3397.9
573.599	3311.09
574.026	3267.25
574.452	3229.38
574.878	3217.38
575.304	3112.39
575.73	3131.49
576.156	3067.9
576.582	3037.86
577.008	2961.08
577.434	2939.48
577.86	2839.89
578.285	2847.82
578.711	2794.43
579.137	2742.64
579.562	2673.55
579.988	2692.47
580.413	2619.49
580.838	2552.22
581.264	2558.81
581.689	2534.08
582.114	2494.51
582.539	2537.93
582.964	2436.21
583.39	2395.76
583.814	2375.66
584.239	2313.7
584.664	2323.61
585.089	2304.6
585.514	2239.28
585.939	2180.52
586.363	2197.9
586.788	2123.37
587.212	2088.57
587.637	2102.93
588.061	2079.17
588.485	2040.76
588.91	2023.34
589.334	1985.17
589.758	1991.54
590.182	1933.15
590.606	1880.26
591.03	1881.37
591.454	1853.94
591.878	1839.53
592.302	1810.7
592.726	1792.68
593.15	1801.83
593.573	1739.97
593.997	1715.83
594.42	1678.07
594.844	1660.85
595.267	1667.24
595.691	1625.57
596.114	1639.74
596.537	1613.34
596.96	1610.84
597.384	1595.27
597.807	1541.04
598.23	1551.33
598.653	1536.87
599.076	1551.33
599.499	1542.43
599.921	1503.75
600.344	1472.85
600.767	1473.97
601.189	1460.32
601.612	1483.71
602.034	1448.62
602.457	1437.2
602.879	1501.53
603.302	1430.8
603.724	1449.46
604.146	1406.28
604.568	1404.05
604.991	1432.47
605.413	1424.39
605.835	1417.14
606.257	1390.67
606.678	1388.72
607.1	1383.7
607.522	1412.13
607.944	1338.53
608.365	1371.71
608.787	1313.98
609.209	1301.98
609.63	1306.17
610.051	1295.56
610.473	1262.07
610.894	1267.37
611.315	1274.63
611.737	1263.46
612.158	1241.96
612.579	1230.79
613	1220.73
613.421	1192.23
613.842	1170.99
614.263	1161.21
614.683	1162.33
615.104	1141.08
615.525	1128.49
615.945	1134.64
616.366	1082.05
616.787	1103.04
617.207	1121.78
617.627	1034.74
618.048	1066.94
618.468	1073.93
618.888	1037.54
619.308	1003.65
619.728	1015.7
620.148	1028.02
620.568	1022.98
620.988	969.75
621.408	964.14
621.828	963.58
622.248	979.83
622.668	958.25
623.087	937.51
623.507	947.32
623.926	922.09
624.346	901.33
624.765	886.74
625.185	890.67
625.604	903.01
626.023	862.05
626.442	851.1
626.861	873.83
627.28	884.5
627.699	846.33
628.118	887.02
628.537	812.35
628.956	848.29
629.375	831.45
629.794	813.2
630.212	823.59
630.631	817.97
631.049	821.9
631.468	798.31
631.886	784.54
632.305	803.08
632.723	773.59
633.141	760.94
633.559	764.87
633.978	758.97
634.396	766.84
634.814	757.85
635.232	744.36
635.65	721.02
636.067	740.98
636.485	743.23
636.903	683.33
637.321	686.15
637.738	743.51
638.156	685.58
638.573	684.18
638.991	715.96
639.408	719.05
639.825	712.87
640.243	679.96
640.66	685.87
641.077	716.52
641.494	709.77
641.911	660.54
642.328	665.61
642.745	672.36
643.162	632.96
643.579	652.94
643.995	655.2
644.412	638.03
644.829	651.25
645.245	645.34
645.662	631.27
646.078	618.32
646.495	629.86
646.911	624.23
647.327	639.71
647.743	609.03
648.159	645.34
648.576	605.08
648.992	605.36
649.408	641.97
649.824	594.66
650.239	612.4
650.655	625.08
651.071	594.66
651.487	596.63
651.902	578.04
652.318	617.75
652.733	588.18
653.149	597.76
653.564	570.44
653.979	574.38
654.395	557.19
654.81	567.62
655.225	543.66
655.64	574.66
656.055	589.87
656.47	573.82
656.885	547.33
657.3	577.48
657.715	556.63
658.13	547.61
658.544	567.62
658.959	539.15
659.374	545.92
659.788	528.72
660.202	543.95
660.617	556.91
661.031	548.74
661.445	537.18
661.86	516.88
662.274	536.05
662.688	545.64
663.102	553.81
663.516	536.62
663.93	527.03
664.344	517.17
664.758	511.24
665.171	525.06
665.585	532.39
665.999	507.58
666.412	515.76
666.826	507.58
667.239	546.48
667.653	508.14
668.066	521.39
668.479	528.72
668.892	523.09
669.306	491.79
669.719	507.58
670.132	491.22
670.545	514.63
670.958	493.76
671.37	501.94
671.783	506.17
672.196	502.5
672.609	499.96
673.021	508.99
673.434	497.14
673.846	515.19
674.259	467.53
674.671	501.09
675.084	478.81
675.496	481.07
675.908	493.2
676.32	501.09
676.732	470.91
677.144	498.55
677.556	473.17
677.968	488.4
678.38	496.3
678.792	474.3
679.204	477.12
679.615	469.22
680.027	505.32
680.439	490.37
680.85	512.94
681.262	482.76
681.673	493.48
682.084	465.55
682.496	468.09
682.907	494.89
683.318	478.25
683.729	464.42
684.14	450.59
684.551	449.18
684.962	439.02
685.373	469.78
685.784	456.52
686.194	457.93
686.605	461.88
687.016	458.21
687.426	431.12
687.837	468.37
688.247	457.65
688.657	490.94
689.068	424.35
689.478	441
689.888	483.32
690.298	467.81
690.708	455.11
691.118	448.05
691.528	464.42
691.938	452.29
692.348	428.58
692.758	441.56
693.168	456.24
693.577	437.61
693.987	437.89
694.396	455.39
694.806	449.75
695.215	441.56
695.625	429.43
696.034	440.72
696.443	438.74
696.852	464.7
697.262	441.85
697.671	423.22
698.08	449.75
698.489	452.29
698.897	446.64
699.306	442.97
699.715	447.49
700.124	434.23
700.532	427.17
700.941	436.77
701.35	431.97
701.758	426.89
702.166	441.85
702.575	405.15
702.983	438.74
703.391	435.92
703.799	435.92
704.208	441
704.616	406.84
705.024	428.3
705.432	419.26
705.839	428.58
706.247	410.79
706.655	440.43
707.063	427.45
707.47	435.35
707.878	425.76
708.285	397.8
708.693	425.76
709.1	411.92
709.508	404.02
709.915	398.37
710.322	436.77
710.729	421.24
711.136	418.7
711.543	432.53
711.95	419.83
712.357	386.79
712.764	425.19
713.171	413.62
713.578	412.77
713.984	440.43
714.391	407.12
714.797	413.9
715.204	401.19
715.61	429.71
716.017	397.24
716.423	442.13
716.829	450.88
717.236	434.79
717.642	435.64
718.048	430.84
718.454	419.26
718.86	409.38
719.266	429.99
719.671	395.83
720.077	428.86
720.483	416.72
720.889	420.11
721.294	392.44
721.7	415.88
722.105	404.58
722.511	388.2
722.916	400.06
723.321	411.08
723.726	419.83
724.132	405.99
724.537	407.41
724.942	409.38
725.347	431.97
725.752	437.05
726.156	402.04
726.561	416.16
726.966	418.42
727.371	399.78
727.775	430.84
728.18	398.09
728.584	405.99
728.989	417.85
729.393	450.59
729.798	418.13
730.202	420.11
730.606	383.96
731.01	394.13
731.414	400.35
731.818	395.54
732.222	422.37
732.626	417
733.03	432.53
733.434	434.23
733.837	414.46
734.241	416.44
734.645	383.4
735.048	386.51
735.452	407.41
735.855	415.88
736.258	394.42
736.662	410.79
737.065	415.31
737.468	406.28
737.871	403.45
738.274	419.26
738.677	390.74
739.08	414.75
739.483	397.24
739.886	404.86
740.289	394.98
740.691	386.79
741.094	403.45
741.497	407.69
741.899	402.6
742.302	394.98
742.704	439.31
743.106	404.3
743.508	409.66
743.911	405.43
744.313	404.02
744.715	392.44
745.117	411.36
745.519	401.76
745.921	404.58
746.323	417
746.724	411.92
747.126	397.8
747.528	396.39
747.929	414.18
748.331	437.33
748.732	389.33
749.134	419.83
749.535	395.26
749.936	412.21
750.338	411.08
750.739	396.11
751.14	380.86
751.541	369.56
751.942	386.51
752.343	398.93
752.744	401.76
753.144	409.38
753.545	386.79
753.946	421.8
754.346	405.15
754.747	387.35
755.148	415.31
755.548	380.29
755.948	406.84
756.349	388.48
756.749	374.64
757.149	392.72
757.549	391.87
757.949	405.15
758.349	387.92
758.749	399.22
759.149	369.84
759.549	402.6
759.949	421.24
760.348	389.05
760.748	364.47
761.148	407.41
761.547	380.86
761.947	413.33
762.346	411.08
762.745	402.04
763.145	396.39
763.544	407.41
763.943	390.18
764.342	418.13
764.741	405.43
765.14	393.57
765.539	389.9
765.938	406.84
766.336	397.24
766.735	370.12
767.134	383.4
767.532	394.42
767.931	391.31
768.329	390.46
768.728	411.92
769.126	382.55
769.525	416.72
769.923	377.19
770.321	369.84
770.719	398.09
771.117	422.93
771.515	396.39
771.913	431.12
772.311	388.48
772.709	407.97
773.106	367.58
773.504	393.57
773.902	391.59
774.299	397.24
774.697	420.11
775.094	380.58
775.491	387.07
775.889	385.66
776.286	391.59
776.683	389.61
777.08	395.26
777.477	417
777.874	409.95
778.271	395.26
778.668	383.96
779.065	408.82
779.462	394.98
779.858	385.38
780.255	416.44
780.652	404.3
781.048	401.19
781.444	404.3
781.841	365.89
782.237	360.52
782.633	404.02
783.03	380.01
783.426	387.07
783.822	383.96
784.218	397.8
784.614	361.65
785.01	376.06
785.405	364.76
785.801	391.59
786.197	422.09
786.593	379.16
786.988	383.12
787.384	392.44
787.779	384.81
788.174	398.09
788.57	412.21
788.965	399.78
789.36	379.45
789.755	392.72
790.15	382.84
790.545	391.03
790.94	405.15
791.335	403.73
791.73	388.2
792.125	400.06
792.52	393.57
792.914	402.04
793.309	389.33
793.703	393.85
794.098	365.32
794.492	378.6
794.887	400.91
795.281	389.05
795.675	372.95
796.069	392.44
796.463	390.46
796.857	350.06
797.251	379.16
797.645	383.96
798.039	400.06
798.433	404.3
798.826	389.9
799.22	377.75
799.614	388.77
800.007	378.03
800.401	414.18
800.794	374.64
801.187	385.94
801.581	376.62
801.974	389.33
802.367	391.87
802.76	390.46
803.153	395.54
803.546	395.26
803.939	368.99
804.332	389.9
804.725	389.9
805.117	381.71
805.51	408.82
805.903	368.71
806.295	394.13
806.688	372.67
807.08	386.79
807.472	413.9
807.865	412.77
808.257	389.61
808.649	393.29
809.041	394.7
809.433	400.06
809.825	372.95
810.217	403.73
810.609	414.18
811.001	382.27
811.392	403.17
811.784	397.24
812.175	367.86
812.567	362.78
812.958	408.53
813.35	392.44
813.741	381.14
814.132	370.97
814.524	394.13
814.915	393.29
815.306	385.38
815.697	382.55
816.088	376.9
816.479	384.25
816.87	398.93
817.26	402.6
817.651	410.23
818.042	383.96
818.432	376.9
818.823	383.68
819.213	384.81
819.604	396.39
819.994	409.1
820.384	383.68
820.775	408.25
821.165	382.84
821.555	384.25
821.945	398.65
822.335	361.93
822.725	385.09
823.114	383.68
823.504	381.14
823.894	382.27
824.284	394.13
824.673	387.07
825.063	393.85
825.452	397.24
825.842	392.44
826.231	396.11
826.62	391.31
827.009	393.57
827.399	385.94
827.788	387.92
828.177	414.46
828.566	387.07
828.954	410.79
829.343	392.16
829.732	391.87
830.121	378.03
830.509	403.45
830.898	380.86
831.286	391.31
831.675	371.54
832.063	383.12
832.452	370.12
832.84	371.54
833.228	391.31
833.616	388.48
834.004	394.7
834.392	377.75
834.78	395.54
835.168	365.32
835.556	374.64
835.944	397.8
836.331	390.46
836.719	414.75
837.107	385.94
837.494	416.72
837.881	392.44
838.269	381.14
838.656	358.82
839.043	361.08
839.431	429.14
839.818	364.76
840.205	360.23
840.592	378.03
840.979	377.19
841.366	381.42
841.752	411.64
842.139	390.74
842.526	368.43
842.912	384.81
843.299	381.14
843.685	367.86
844.072	372.1
844.458	392.16
844.844	400.91
845.231	354.3
845.617	383.68
846.003	360.23
846.389	369.28
846.775	381.14
847.161	392.44
847.547	386.22
847.933	377.47
848.318	373.8
848.704	379.45
849.09	380.58
849.475	357.13
849.861	369.28
850.246	381.71
850.631	368.43
851.017	392.72
851.402	394.13
851.787	391.59
852.172	394.98
852.557	384.53
852.942	386.79
853.327	379.45
853.712	366.45
854.097	388.77
854.481	378.6
854.866	393.57
855.25	369.28
855.635	367.3
856.019	418.13
856.404	377.75
856.788	388.77
857.172	377.47
857.557	365.89
857.941	386.79
858.325	381.99
858.709	380.29
859.093	394.98
859.477	371.54
859.86	405.15
860.244	354.87
860.628	387.07
861.012	381.99
861.395	359.67
861.779	379.45
862.162	385.38
862.545	402.04
862.929	350.63
863.312	396.11
863.695	347.8
864.078	383.12
864.461	374.93
864.844	374.64
865.227	394.42
865.61	399.5
865.993	368.43
866.376	409.38
866.758	371.25
867.141	402.6
867.523	386.79
867.906	398.09
868.288	362.21
868.671	394.98
869.053	384.53
869.435	368.99
869.817	378.88
870.199	382.84
870.581	392.16
870.963	387.07
871.345	405.71
871.727	380.86
872.109	361.65
872.491	350.63
872.872	390.74
873.254	384.53
873.635	393.85
874.017	378.32
874.398	371.82
874.779	389.61
875.161	387.07
875.542	356.84
875.923	374.64
876.304	386.79
876.685	375.49
877.066	390.74
877.447	368.99
877.828	361.65
878.208	387.92
878.589	380.86
878.97	414.18
879.35	373.23
879.731	394.13
880.111	378.03
880.491	389.33
880.872	394.13
881.252	382.84
881.632	386.79
882.012	374.36
882.392	390.46
882.772	380.01
883.152	372.67
883.532	376.62
883.912	400.35
884.291	381.71
884.671	351.19
885.051	368.43
885.43	386.79
885.81	381.14
886.189	353.45
886.568	370.69
886.948	384.25
887.327	394.98
887.706	369.56
888.085	363.06
888.464	380.29
888.843	385.09
889.222	387.64
889.601	397.52
889.979	385.66
890.358	372.38
890.737	385.66
891.115	391.03
891.494	398.93
891.872	377.19
892.25	380.29
892.629	388.2
893.007	391.03
893.385	364.76
893.763	368.99
894.141	385.38
894.519	400.35
894.897	374.36
895.275	365.89
895.653	378.88
896.03	381.99
896.408	395.26
896.786	383.12
897.163	362.5
897.541	382.27
897.918	380.01
898.295	339.61
898.673	376.34
899.05	385.94
899.427	395.83
899.804	356
900.181	391.03
900.558	370.69
900.935	383.68
901.312	374.36
901.688	382.27
902.065	375.77
902.442	371.82
902.818	395.54
903.195	360.23
903.571	339.89
903.947	366.17
904.324	383.4
904.7	377.47
905.076	381.71
905.452	381.14
905.828	382.55
906.204	366.45
906.58	374.36
906.956	379.45
907.331	378.88
907.707	386.22
908.083	376.34
908.458	383.68
908.834	381.14
909.209	367.86
909.585	362.5
909.96	381.71
910.335	373.51
910.71	361.37
911.086	380.58
911.461	371.54
911.836	384.53
912.21	400.63
912.585	346.95
912.96	377.19
913.335	385.09
913.709	351.48
914.084	390.46
914.459	378.03
914.833	376.34
915.207	385.09
915.582	378.03
915.956	381.99
916.33	361.37
916.704	369.84
917.078	369.56
917.452	371.82
917.826	372.67
918.2	375.21
918.574	365.6
918.948	356.56
919.321	380.29
919.695	375.49
920.068	388.2
920.442	386.79
920.815	365.89
921.189	368.43
921.562	376.06
921.935	397.24
922.308	375.49
922.681	351.19
923.054	366.73
923.427	348.37
923.8	372.38
924.173	388.77
924.546	349.78
924.919	370.97
925.291	376.9
925.664	359.67
926.036	365.6
926.409	361.08
926.781	389.9
927.153	382.27
927.526	394.98
927.898	399.78
928.27	394.42
928.642	374.36
929.014	368.99
929.386	368.43
929.758	354.3
930.129	367.02
930.501	358.54
930.873	374.64
931.244	380.29
931.616	393.85
931.987	361.37
932.359	369.56
932.73	378.32
933.101	369.84
933.472	366.17
933.843	385.66
934.214	389.61
934.585	367.3
934.956	372.1
935.327	382.84
935.698	366.73
936.069	364.76
936.439	386.22
936.81	380.01
937.18	377.19
937.551	379.73
937.921	373.8
938.292	378.32
938.662	366.45
939.032	361.08
939.402	359.1
939.772	369.28
940.142	350.63
940.512	379.16
940.882	373.8
941.252	371.25
941.621	394.98
941.991	374.64
942.361	377.47
942.73	382.55
943.1	374.64
943.469	385.38
943.838	375.21
944.208	390.46
944.577	369.56
944.946	386.22
945.315	364.47
945.684	382.27
946.053	379.16
946.422	377.47
946.791	360.8
947.159	364.19
947.528	381.99
947.897	387.64
948.265	368.71
948.634	360.23
949.002	371.25
949.371	382.84
949.739	368.99
950.107	366.45
950.475	363.34
950.843	376.34
951.211	387.64
951.579	366.73
951.947	371.82
952.315	362.21
952.683	380.29
953.05	372.67
953.418	392.72
953.785	394.7
954.153	347.24
954.52	372.95
954.888	377.47
955.255	370.97
955.622	368.99
955.989	373.23
956.356	387.64
956.723	370.41
957.09	379.73
957.457	392.16
957.824	384.53
958.191	372.1
958.557	383.96
958.924	375.77
959.291	383.96
959.657	404.02
960.023	388.77
960.39	366.17
960.756	361.08
961.122	386.22
961.488	367.3
961.855	381.71
962.221	357.13
962.586	365.04
962.952	365.32
963.318	367.86
963.684	381.42
964.05	361.37
964.415	350.63
964.781	380.01
965.146	352.89
965.512	374.08
965.877	376.34
966.242	385.66
966.608	385.09
966.973	385.09
967.338	378.6
967.703	365.32
968.068	376.34
968.433	360.8
968.797	372.38
969.162	354.02
969.527	379.73
969.891	347.24
970.256	372.1
970.62	371.25
970.985	379.16
971.349	365.04
971.714	394.98
972.078	385.38
972.442	379.45
972.806	383.96
973.17	361.65
973.534	355.71
973.898	369.28
974.262	376.34
974.625	339.89
974.989	355.15
975.353	357.97
975.716	386.51
976.08	335.93
976.443	378.32
976.806	382.27
977.17	408.82
977.533	370.97
977.896	376.06
978.259	379.73
978.622	362.78
978.985	390.74
979.348	398.09
979.711	386.51
980.073	381.99
980.436	364.19
980.799	368.71
981.161	376.9
981.524	349.21
981.886	373.51
982.248	378.6
982.611	347.52
982.973	353.17
983.335	355.15
983.697	380.58
984.059	379.16
984.421	355.43
984.783	368.15
985.145	387.07
985.506	365.6
985.868	375.77
986.23	356.28
986.591	374.93
986.953	378.6
987.314	392.44
987.675	359.95
988.037	1230.51
988.398	380.86
988.759	376.06
989.12	375.21
989.481	364.19
989.842	368.15
990.203	368.43
990.564	372.95
990.924	365.04
991.285	1127.65
991.646	383.4
992.006	363.91
992.367	357.97
992.727	362.78
993.087	349.78
993.448	394.98
993.808	373.8
994.168	367.58
994.528	376.62
994.888	383.12
995.248	359.39
995.608	346.11
995.967	355.71
996.327	351.76
996.687	365.89
997.046	368.71
997.406	364.76
997.765	381.99
998.125	377.47
998.484	362.5
998.843	374.36
999.202	395.83
999.561	383.4
999.92	375.21
1000.279	396.11
1000.638	349.5
1000.997	356.56
1001.356	389.61
1001.715	376.06
1002.073	387.35
1002.432	387.35
1002.79	373.8
1003.149	374.93
1003.507	379.16
1003.865	380.58
1004.224	384.53
1004.582	379.73
1004.94	378.03
1005.298	379.16
1005.656	370.41
1006.014	365.89
1006.371	368.99
1006.729	340.45
1007.087	377.19
1007.445	363.91
1007.802	369.84
1008.16	358.54
1008.517	368.99
1008.874	375.77
1009.232	384.53
1009.589	392.72
1009.946	400.35
1010.303	375.21
1010.66	361.65
1011.017	358.82
1011.374	391.87
1011.731	378.03
1012.087	353.17
1012.444	380.86
1012.801	380.58
1013.157	330.28
1013.513	367.02
1013.87	393.57
1014.226	361.65
1014.582	375.77
1014.939	383.12
1015.295	381.42
1015.651	367.86
1016.007	373.51
1016.363	376.34
1016.719	389.61
1017.074	358.26
1017.43	399.5
1017.786	359.1
1018.141	365.32
1018.497	378.6
1018.852	353.45
1019.208	351.19
1019.563	387.64
1019.918	356
1020.273	380.58
1020.628	375.49
1020.983	357.97
1021.338	373.23
1021.693	368.43
1022.048	373.23
1022.403	358.54
1022.757	381.14
1023.112	376.9
1023.467	348.65
1023.821	398.37
1024.175	379.73
1024.53	372.1
1024.884	342.43
1025.238	381.42
1025.592	367.86
1025.946	322.93
1026.3	369.56
1026.654	356
1027.008	365.6
1027.362	374.64
1027.716	386.79
1028.069	371.82
1028.423	382.84
1028.777	376.62
1029.13	382.55
1029.483	378.88
1029.837	371.82
1030.19	387.07
1030.543	365.89
1030.896	384.53
1031.249	374.93
1031.602	363.63
1031.955	377.47
1032.308	372.67
1032.661	378.6
1033.013	361.08
1033.366	370.41
1033.719	372.1
1034.071	356.56
1034.424	378.03
1034.776	381.71
1035.128	371.82
1035.48	363.06
1035.833	402.32
1036.185	366.45
1036.537	366.45
1036.889	366.45
