Data from SCSF78_irradiation_FLMS019251_03-12-12-935.txt Node
Date: Thu Feb 21 03:12:12 PST 2019
User: mu3e
Spectrometer: FLMS01925
Trigger mode: 0
Integration Time (sec): 6.500000E-2
Scans to average: 10
Electric dark correction enabled: true
Nonlinearity correction enabled: true
Boxcar width: 0
XAxis mode: Wavelengths
Number of Pixels in Spectrum: 2048
>>>>>Begin Spectral Data<<<<<
187.103	-74.42
187.574	-74.42
188.045	-74.42
188.516	-146.65
188.987	-124.18
189.458	-121.33
189.929	-118.49
190.4	-107.4
190.871	-80.39
191.342	-87.22
191.813	-73.57
192.284	-22.72
192.754	-49.7
193.225	-17.89
193.696	10.22
194.166	58.46
194.637	69.24
195.107	107.24
195.578	114.62
196.048	145.79
196.518	172.14
196.989	200.18
197.459	198.2
197.929	221.41
198.399	272.06
198.869	259.33
199.339	294.13
199.809	285.36
200.279	348.4
200.749	319.57
201.219	320.99
201.689	339.64
202.159	371.01
202.628	374.4
203.098	375.24
203.568	346.42
204.037	382.02
204.507	415.63
204.976	389.65
205.445	372.42
205.915	391.06
206.384	398.97
206.853	394.73
207.323	371.85
207.792	365.92
208.261	400.1
208.73	382.02
209.199	419.86
209.668	386.26
210.137	382.87
210.606	398.69
211.075	389.37
211.543	392.76
212.012	385.69
212.481	380.33
212.95	380.61
213.418	384.85
213.887	384
214.355	358.01
214.824	380.61
215.292	384
215.76	367.9
216.229	350.1
216.697	356.31
217.165	367.62
217.633	333.42
218.101	339.36
218.569	347.27
219.037	331.73
219.505	356.31
219.973	332.58
220.441	363.66
220.909	392.47
221.377	372.14
221.844	330.88
222.312	345.86
222.78	359.42
223.247	348.4
223.715	345.58
224.182	348.97
224.65	362.81
225.117	361.97
225.584	353.21
226.052	356.88
226.519	356.6
226.986	357.16
227.453	324.1
227.92	350.1
228.387	347.55
228.854	367.33
229.321	375.24
229.788	353.21
230.255	344.73
230.722	351.23
231.189	375.24
231.655	344.73
232.122	348.12
232.589	364.23
233.055	346.14
233.522	363.94
233.988	357.44
234.454	351.23
234.921	367.05
235.387	359.42
235.853	377.22
236.32	367.05
236.786	348.97
237.252	374.11
237.718	376.94
238.184	342.19
238.65	368.46
239.116	359.14
239.582	376.09
240.047	379.2
240.513	354.9
240.979	398.69
241.445	402.92
241.91	374.68
242.376	338.79
242.841	386.82
243.307	386.82
243.772	372.42
244.238	340.77
244.703	379.2
245.168	376.66
245.633	376.66
246.099	388.8
246.564	349.25
247.029	372.7
247.494	359.14
247.959	372.7
248.424	349.82
248.889	362.25
249.353	364.79
249.818	359.99
250.283	380.33
250.748	357.44
251.212	367.9
251.677	366.2
252.141	371.85
252.606	353.77
253.07	356.31
253.535	354.62
253.999	367.62
254.463	367.05
254.927	356.88
255.392	368.18
255.856	340.49
256.32	389.93
256.784	394.73
257.248	375.24
257.712	378.35
258.176	364.79
258.64	371.01
259.103	366.49
259.567	360.55
260.031	396.71
260.495	397.84
260.958	374.11
261.422	378.07
261.885	363.38
262.349	377.79
262.812	343.03
263.275	382.87
263.739	374.4
264.202	394.17
264.665	374.11
265.128	380.33
265.591	349.82
266.054	361.68
266.517	354.05
266.98	367.33
267.443	377.79
267.906	399.82
268.369	382.02
268.832	349.53
269.294	387.11
269.757	401.51
270.22	376.66
270.682	387.95
271.145	397.27
271.607	388.24
272.07	375.81
272.532	394.73
272.994	387.67
273.456	394.73
273.919	401.79
274.381	379.48
274.843	371.57
275.305	398.69
275.767	393.6
276.229	380.89
276.691	390.21
277.153	367.33
277.614	397.56
278.076	367.33
278.538	385.41
279	375.24
279.461	381.18
279.923	415.63
280.384	379.76
280.846	393.04
281.307	375.53
281.769	378.35
282.23	393.04
282.691	382.87
283.152	361.12
283.613	394.73
284.075	390.78
284.536	404.33
284.997	383.72
285.458	376.66
285.918	386.54
286.379	359.71
286.84	390.5
287.301	394.73
287.762	401.51
288.222	389.08
288.683	358.29
289.143	407.16
289.604	386.82
290.064	423.53
290.525	380.33
290.985	398.4
291.445	397.84
291.906	380.61
292.366	396.71
292.826	401.79
293.286	388.52
293.746	392.19
294.206	373.55
294.666	372.14
295.126	381.18
295.586	404.05
296.046	393.04
296.506	399.82
296.965	396.43
297.425	365.36
297.884	402.92
298.344	384
298.804	391.91
299.263	404.62
299.722	379.76
300.182	381.74
300.641	385.69
301.1	390.78
301.559	393.04
302.019	386.26
302.478	397.84
302.937	366.2
303.396	389.37
303.855	405.18
304.314	384.28
304.772	415.91
305.231	399.82
305.69	373.55
306.149	407.44
306.607	405.75
307.066	392.47
307.524	403.49
307.983	400.38
308.441	400.1
308.9	387.11
309.358	397.84
309.816	428.05
310.275	384.28
310.733	394.17
311.191	406.59
311.649	382.02
312.107	409.7
312.565	404.9
313.023	376.66
313.481	365.92
313.939	410.26
314.397	412.52
314.854	378.07
315.312	395.86
315.77	410.83
316.227	383.15
316.685	384
317.142	358.57
317.6	383.15
318.057	398.69
318.514	395.86
318.972	418.73
319.429	403.2
319.886	378.35
320.343	380.89
320.8	393.6
321.257	393.32
321.714	385.98
322.171	406.59
322.628	387.67
323.085	394.73
323.542	408.29
323.998	431.44
324.455	418.45
324.912	395.3
325.368	409.42
325.825	407.44
326.281	410.83
326.738	390.5
327.194	407.72
327.65	404.62
328.107	383.15
328.563	393.32
329.019	417.6
329.475	409.7
329.931	384.85
330.387	373.55
330.843	422.12
331.299	430.87
331.755	405.18
332.211	410.26
332.666	389.93
333.122	416.19
333.578	409.13
334.033	387.95
334.489	416.48
334.944	378.63
335.4	429.46
335.855	393.04
336.31	424.1
336.766	394.73
337.221	403.77
337.676	393.89
338.131	418.17
338.586	392.47
339.041	386.54
339.496	425.51
339.951	416.48
340.406	416.48
340.861	395.02
341.316	421.28
341.771	430.03
342.225	397.84
342.68	422.97
343.134	411.11
343.589	375.81
344.043	372.7
344.498	381.18
344.952	410.83
345.406	444.42
345.861	396.99
346.315	403.2
346.769	418.45
347.223	388.8
347.677	389.65
348.131	359.14
348.585	383.72
349.039	402.36
349.493	391.63
349.947	402.08
350.401	411.39
350.854	391.63
351.308	435.39
351.762	403.49
352.215	398.4
352.669	386.54
353.122	398.69
353.575	400.1
354.029	406.88
354.482	408.01
354.935	432.28
355.388	404.05
355.842	415.35
356.295	414.5
356.748	383.72
357.201	409.42
357.654	403.49
358.106	385.41
358.559	387.11
359.012	405.46
359.465	383.44
359.917	387.39
360.37	410.26
360.823	404.62
361.275	408.01
361.728	424.95
362.18	424.95
362.632	412.24
363.085	363.66
363.537	414.22
363.989	414.78
364.441	400.38
364.893	417.6
365.345	444.14
365.797	416.48
366.249	399.25
366.701	417.6
367.153	382.31
367.605	395.86
368.057	398.97
368.508	410.55
368.96	395.3
369.411	368.75
369.863	417.32
370.314	388.52
370.766	423.53
371.217	400.95
371.669	377.5
372.12	424.95
372.571	425.23
373.022	419.02
373.473	417.04
373.924	420.15
374.375	404.05
374.826	435.11
375.277	391.06
375.728	420.71
376.179	418.45
376.63	409.7
377.08	433.7
377.531	403.49
377.981	424.38
378.432	411.96
378.883	411.39
379.333	412.24
379.783	410.83
380.234	398.4
380.684	415.91
381.134	406.31
381.584	399.82
382.034	406.03
382.485	417.6
382.935	408.29
383.385	428.33
383.834	415.35
384.284	421.84
384.734	417.04
385.184	433.7
385.634	430.31
386.083	431.44
386.533	407.44
386.982	415.35
387.432	426.36
387.881	421.56
388.331	430.31
388.78	415.91
389.229	391.91
389.679	393.32
390.128	402.92
390.577	419.02
391.026	409.7
391.475	441.6
391.924	419.58
392.373	431.16
392.822	418.17
393.27	381.18
393.719	419.86
394.168	450.35
394.617	453.17
395.065	416.76
395.514	438.49
395.962	415.06
396.411	427.49
396.859	425.23
397.307	431.16
397.756	431.72
398.204	424.66
398.652	454.02
399.1	426.92
399.548	435.95
399.996	465.02
400.444	413.09
400.892	452.04
401.34	436.52
401.788	426.64
402.236	438.49
402.683	429.74
403.131	430.59
403.579	440.19
404.026	445.27
404.474	444.42
404.921	441.03
405.369	486.46
405.816	464.74
406.263	467.28
406.71	452.89
407.158	471.51
407.605	473.2
408.052	468.41
408.499	494.08
408.946	493.51
409.393	506.77
409.84	516.07
410.286	505.36
410.733	555.54
411.18	538.63
411.626	564.27
412.073	653.82
412.52	702.22
412.966	788.79
413.413	922.96
413.859	1098.59
414.305	1305.36
414.752	1601.14
415.198	1939.83
415.644	2323.65
416.09	2828.15
416.536	3368.55
416.982	4092.33
417.428	4776.72
417.874	5616.77
418.32	6505.89
418.766	7408.99
419.211	8489.3
419.657	9507.07
420.103	10646.42
420.548	11547.2
420.994	12910.17
421.439	13987.44
421.885	14950.59
422.33	16356.26
422.776	17360.89
423.221	18293.67
423.666	19514.28
424.111	20685.33
424.556	21348.94
425.001	22783.77
425.446	23909.63
425.891	25081.74
426.336	25908.19
426.781	26951.96
427.226	28808.74
427.671	29320.72
428.115	30020.36
428.56	31558.27
429.005	32868.98
429.449	33208.14
429.894	34498.86
430.338	35511.2
430.782	35391.77
431.227	36781.34
431.671	37150.18
432.115	38461.94
432.559	39376.62
433.003	39209.85
433.447	39967.81
433.891	40263.41
434.335	40555.56
434.779	41308.63
435.223	41419.02
435.667	41415.31
436.111	41791.59
436.554	41824.06
436.998	41284.88
437.442	41343.03
437.885	43155.01
438.328	41817.12
438.772	41952.01
439.215	42430.88
439.659	42054.22
440.102	42418.95
440.545	41906.63
440.988	41733.34
441.431	42260.73
441.874	41961.93
442.317	42099.13
442.76	41688.74
443.203	41145.11
443.646	41744.99
444.089	41291.31
444.531	41832.24
444.974	40532.35
445.417	41542.33
445.859	40774.59
446.302	41759.61
446.744	40900.85
447.186	42069.6
447.629	41085.26
448.071	41019
448.513	41025.67
448.956	42333
449.398	41578.49
449.84	40376.39
450.282	41008.37
450.724	41389.81
451.166	41085.26
451.607	40866.25
452.049	41084.27
452.491	41911.59
452.933	41433.88
453.374	41989.47
453.816	42346.16
454.257	41941.1
454.699	42802.13
455.14	42487.54
455.582	42024.69
456.023	42127.42
456.464	42274.64
456.905	42794.17
457.347	42730.23
457.788	41813.9
458.229	41995.67
458.67	42927.09
459.111	40985.38
459.552	41209.42
459.992	40863.04
460.433	40635.3
460.874	39897.34
461.315	40875.64
461.755	39919.27
462.196	39520.33
462.636	38867.18
463.077	38575.86
463.517	38602.87
463.957	38871.6
464.398	38385.36
464.838	38428.56
465.278	37443.32
465.718	37596.2
466.158	36804.34
466.598	37277.26
467.038	36709.16
467.478	37046.14
467.918	37201.11
468.358	36462.36
468.798	36209.05
469.237	36092.45
469.677	36124.96
470.117	36769.59
470.556	34684.07
470.996	35301.18
471.435	35392.02
471.874	35859.56
472.314	35439.64
472.753	34730.69
473.192	34849.3
473.631	34394.44
474.07	34817.57
474.509	34823.43
474.948	34982.57
475.387	34506.67
475.826	33602.68
476.265	35110.49
476.704	34629.9
477.143	35009.91
477.581	34685.54
478.02	35343.18
478.458	34057.78
478.897	34553.52
479.335	35601.81
479.774	35182.75
480.212	35271.39
480.65	35362.47
481.089	35168.11
481.527	34597.93
481.965	34126.82
482.403	35936.29
482.841	35531.71
483.279	35710.28
483.717	35718.09
484.155	35225.73
484.592	35551.5
485.03	35750.83
485.468	34906.41
485.905	35044.09
486.343	35443.79
486.781	34807.32
487.218	34513.26
487.655	34413.47
488.093	33679.25
488.53	34857.35
488.967	34255.13
489.405	33920.7
489.842	33261.53
490.279	33211.06
490.716	32861.91
491.153	33251.78
491.59	32712.95
492.027	32263.38
492.463	31780.15
492.9	31304.19
493.337	31107.15
493.773	31245.66
494.21	30515.67
494.647	30220.45
495.083	29631.29
495.519	29296.3
495.956	29429.87
496.392	28791.15
496.828	28540.18
497.265	27900.53
497.701	28094.97
498.137	27744.69
498.573	27073.21
499.009	27568.99
499.445	26746.15
499.881	26314.94
500.316	26600.08
500.752	25799.95
501.188	25548.79
501.624	25613.12
502.059	24489.51
502.495	24497.88
502.93	24399.92
503.366	24566.77
503.801	23929.34
504.236	23829.3
504.672	23287.83
505.107	23116.34
505.542	22721.53
505.977	22542.4
506.412	22177.75
506.847	22477.16
507.282	22001.38
507.717	21747.2
508.152	21686.55
508.587	21466.13
509.021	20793.77
509.456	20612.61
509.891	20726.78
510.325	20641.9
510.76	20337.49
511.194	20077.85
511.628	20070.65
512.063	19524.73
512.497	19698.91
512.931	19125.6
513.366	18982.83
513.8	19071.03
514.234	18511.55
514.668	18528.51
515.102	18784.66
515.536	18024.22
515.969	18117.14
516.403	17741.32
516.837	17441.46
517.271	17532.02
517.704	17189.67
518.138	17033.41
518.571	16906.9
519.005	16711.67
519.438	16578.27
519.871	16425.76
520.305	16021.09
520.738	16074.59
521.171	15637.06
521.604	15818.32
522.037	15543
522.47	15319.05
522.903	14997.71
523.336	14922.11
523.769	14812.97
524.202	14435.32
524.634	14459.3
525.067	14208.06
525.5	14096.38
525.932	13964.69
526.365	13758.31
526.797	13496.07
527.23	13541.65
527.662	13056.83
528.094	12922.1
528.527	12933.52
528.959	12682.14
529.391	12462.3
529.823	12092.57
530.255	12176.85
530.687	11845.42
531.119	11735
531.551	11672.76
531.982	11347.22
532.414	11265.18
532.846	10926.21
533.277	10930.57
533.709	10502.27
534.14	10556.92
534.572	10412.7
535.003	10300.48
535.435	10112.36
535.866	10005.62
536.297	9725.99
536.728	9675.22
537.159	9666.71
537.59	9406.41
538.022	9282.69
538.452	9147.51
538.883	8947.75
539.314	8901.14
539.745	8739.18
540.176	8703.92
540.606	8339.38
541.037	8412.41
541.468	8238.22
541.898	8218.44
542.328	8130.73
542.759	7907.7
543.189	7854.5
543.619	7740.19
544.05	7539.79
544.48	7421.55
544.91	7408.2
545.34	7230.89
545.77	7183.44
546.2	7153.28
546.63	6982.17
547.06	6992.41
547.489	6820.03
547.919	6646.34
548.349	6700.84
548.778	6650.55
549.208	6422.81
549.637	6380.58
550.067	6334.65
550.496	6314.58
550.926	6241.14
551.355	6089.34
551.784	6030.05
552.213	5926.75
552.642	5858.35
553.071	5845.36
553.5	5740.02
553.929	5600.29
554.358	5559.61
554.787	5488.86
555.216	5497.64
555.645	5361.85
556.073	5341.87
556.502	5238.96
556.93	5108.98
557.359	5111.12
557.787	5075.32
558.216	5030.16
558.644	4953.69
559.072	4889.2
559.5	4854.13
559.929	4788.78
560.357	4809.68
560.785	4710.51
561.213	4735.72
561.641	4627.89
562.068	4545.2
562.496	4557.82
562.924	4521.56
563.352	4513.49
563.779	4477.48
564.207	4469.69
564.634	4389.82
565.062	4328.72
565.489	4331.69
565.917	4349.18
566.344	4246.58
566.771	4216.66
567.198	4196.72
567.625	4115.8
568.053	4057.5
568.48	4064.79
568.907	4070.73
569.333	3986.47
569.76	3860.73
570.187	3879.4
570.614	3807.96
571.04	4720.7
571.467	3695.26
571.894	3627.19
572.32	3574.82
572.747	3511.28
573.173	3395.21
573.599	3413.71
574.026	3319.29
574.452	3313.58
574.878	3263.47
575.304	3175.71
575.73	3130.98
576.156	3068.2
576.582	3104.51
577.008	2993.91
577.434	2948.81
577.86	2864.83
578.285	2856.07
578.711	2764.05
579.137	2841.84
579.562	2704.57
579.988	2757.2
580.413	2647.24
580.838	2610.74
581.264	2616.51
581.689	2545.38
582.114	2509.11
582.539	2560.77
582.964	2467.05
583.39	2398.54
583.814	2374.32
584.239	2306.02
584.664	2367.44
585.089	2331.36
585.514	2245.93
585.939	2245.1
586.363	2169.24
586.788	2182.21
587.212	2131.97
587.637	2094.13
588.061	2063.46
588.485	2033.88
588.91	2052.4
589.334	2023.65
589.758	1947.58
590.182	1999.59
590.606	1902.45
591.03	1905.22
591.454	1889.99
591.878	1874.2
592.302	1839.29
592.726	1796.32
593.15	1754.16
593.573	1767.75
593.997	1754.44
594.42	1715.86
594.844	1694.77
595.267	1681.99
595.691	1660.33
596.114	1672.27
596.537	1648.66
596.96	1626.43
597.384	1600.86
597.807	1600.03
598.23	1601.7
598.653	1560.82
599.076	1578.62
599.499	1561.1
599.921	1539.13
600.344	1526.05
600.767	1487.36
601.189	1456.18
601.612	1492.93
602.034	1501.28
602.457	1475.95
602.879	1475.11
603.302	1454.23
603.724	1456.18
604.146	1455.9
604.568	1401.85
604.991	1447.27
605.413	1402.97
605.835	1421.64
606.257	1412.16
606.678	1381.78
607.1	1373.98
607.522	1373.98
607.944	1368.68
608.365	1373.98
608.787	1336.89
609.209	1314.01
609.63	1333.82
610.051	1332.7
610.473	1285.55
610.894	1294.2
611.315	1256.52
611.737	1287.5
612.158	1255.4
612.579	1228.31
613	1240.04
613.421	1201.49
613.842	1207.92
614.263	1156.49
614.683	1169.91
615.104	1143.35
615.525	1120.14
615.945	1096.64
616.366	1102.51
616.787	1093
617.207	1087.96
617.627	1090.48
618.048	1042.06
618.468	1024.41
618.888	1056.33
619.308	1015.17
619.728	1025.53
620.148	1005.37
620.568	1002.29
620.988	1011.25
621.408	999.48
621.828	1015.17
622.248	947.64
622.668	959.69
623.087	927.73
623.507	951.28
623.926	949.04
624.346	939.51
624.765	906.13
625.185	920.72
625.604	902.21
626.023	890.14
626.442	871.06
626.861	917.07
627.28	852.26
627.699	881.73
628.118	912.87
628.537	876.39
628.956	860.12
629.375	823.62
629.794	815.2
630.212	837.38
630.631	826.15
631.049	761.82
631.468	821.66
631.886	808.46
632.305	793.29
632.723	795.82
633.141	780.93
633.559	791.04
633.978	754.23
634.396	760.41
634.814	787.95
635.232	717.12
635.65	713.18
636.067	764.35
636.485	727.24
636.903	734.27
637.321	682.81
637.738	720.21
638.156	694.62
638.573	727.52
638.991	720.78
639.408	700.81
639.825	697.43
640.243	701.09
640.66	676.9
641.077	666.49
641.494	728.09
641.911	683.09
642.328	674.65
642.745	665.08
643.162	672.4
643.579	662.55
643.995	652.98
644.412	676.33
644.829	623.98
645.245	659.45
645.662	620.04
646.078	654.67
646.495	621.17
646.911	643.97
647.327	623.14
647.743	624.83
648.159	635.81
648.576	630.18
648.992	631.02
649.408	626.24
649.824	597.23
650.239	605.96
650.655	593.01
651.071	594.7
651.487	588.22
651.902	586.25
652.318	602.02
652.733	617.51
653.149	623.7
653.564	599.2
653.979	566.24
654.395	591.04
654.81	552.44
655.225	573.57
655.64	553
656.055	561.17
656.47	546.8
656.885	587.09
657.3	547.08
657.715	558.92
658.13	591.32
658.544	541.16
658.959	551.03
659.374	560.05
659.788	574.98
660.202	547.08
660.617	514.38
661.031	540.04
661.445	529.32
661.86	534.4
662.274	551.03
662.688	538.91
663.102	524.81
663.516	536.65
663.93	523.12
664.344	544.54
664.758	530.73
665.171	505.36
665.585	522.84
665.999	543.14
666.412	531.58
666.826	525.09
667.239	531.86
667.653	481.1
668.066	502.82
668.479	510.43
668.892	516.35
669.306	538.91
669.719	510.15
670.132	518.61
670.545	500.85
670.958	501.41
671.37	507.61
671.783	512.41
672.196	513.54
672.609	492.38
673.021	527.07
673.434	503.95
673.846	503.67
674.259	485.05
674.671	485.62
675.084	484.2
675.496	499.72
675.908	492.1
676.32	476.87
676.732	485.05
677.144	481.1
677.556	468.97
677.968	484.49
678.38	495.49
678.792	491.82
679.204	500.56
679.615	519.46
680.027	461.35
680.439	495.2
680.85	485.62
681.262	469.25
681.673	472.36
682.084	471.23
682.496	480.26
682.907	462.76
683.318	490.69
683.729	488.44
684.14	472.64
684.551	475.74
684.962	479.41
685.373	469.54
685.784	463.89
686.194	459.1
686.605	468.41
687.016	472.36
687.426	483.92
687.837	472.07
688.247	472.07
688.657	448.94
689.068	453.73
689.478	457.97
689.888	445.27
690.298	444.7
690.708	448.37
691.118	462.48
691.528	454.58
691.938	463.33
692.348	468.12
692.758	454.02
693.168	432
693.577	453.45
693.987	428.33
694.396	440.47
694.806	421.56
695.215	434.54
695.625	444.14
696.034	424.95
696.443	434.54
696.852	444.99
697.262	438.21
697.671	440.19
698.08	420.71
698.489	449.22
698.897	446.68
699.306	429.46
699.715	433.98
700.124	419.02
700.532	438.21
700.941	457.4
701.35	439.62
701.758	430.03
702.166	417.89
702.575	440.19
702.983	448.94
703.391	430.59
703.799	445.55
704.208	423.25
704.616	434.26
705.024	432.85
705.432	414.22
705.839	433.7
706.247	420.15
706.655	435.11
707.063	415.35
707.47	435.95
707.878	428.05
708.285	438.78
708.693	441.88
709.1	417.04
709.508	432
709.915	411.68
710.322	443.29
710.729	439.91
711.136	431.16
711.543	413.09
711.95	422.4
712.357	416.19
712.764	412.24
713.171	420.71
713.578	414.5
713.984	400.95
714.391	413.65
714.797	430.59
715.204	388.52
715.61	402.36
716.017	423.53
716.423	428.9
716.829	430.31
717.236	396.43
717.642	419.02
718.048	442.73
718.454	411.96
718.86	399.82
719.266	418.45
719.671	398.4
720.077	429.18
720.483	413.37
720.889	423.25
721.294	404.33
721.7	407.16
722.105	404.05
722.511	411.96
722.916	396.71
723.321	428.61
723.726	444.42
724.132	428.33
724.537	434.54
724.942	419.02
725.347	394.17
725.752	404.9
726.156	395.58
726.561	400.95
726.966	411.39
727.371	418.45
727.775	417.6
728.18	400.66
728.584	402.36
728.989	424.95
729.393	424.38
729.798	423.25
730.202	413.09
730.606	399.53
731.01	410.26
731.414	405.46
731.818	421.84
732.222	396.99
732.626	387.39
733.03	423.82
733.434	410.55
733.837	410.83
734.241	402.64
734.645	385.69
735.048	405.46
735.452	409.13
735.855	383.44
736.258	403.2
736.662	418.45
737.065	405.75
737.468	405.46
737.871	390.5
738.274	382.02
738.677	404.62
739.08	396.71
739.483	395.58
739.886	411.39
740.289	433.7
740.691	402.64
741.094	420.71
741.497	380.89
741.899	412.81
742.302	395.02
742.704	379.48
743.106	412.81
743.508	408.01
743.911	378.35
744.313	387.95
744.715	398.97
745.117	411.96
745.519	403.2
745.921	405.46
746.323	414.22
746.724	367.05
747.126	398.97
747.528	442.73
747.929	401.23
748.331	417.04
748.732	387.67
749.134	402.64
749.535	386.82
749.936	374.96
750.338	393.6
750.739	395.02
751.14	396.43
751.541	421.84
751.942	398.97
752.343	395.02
752.744	399.53
753.144	371.85
753.545	376.37
753.946	411.68
754.346	396.71
754.747	386.82
755.148	435.11
755.548	398.97
755.948	368.18
756.349	404.9
756.749	401.51
757.149	389.37
757.549	386.82
757.949	394.73
758.349	408.29
758.749	398.69
759.149	386.54
759.549	385.69
759.949	378.07
760.348	386.54
760.748	382.59
761.148	381.74
761.547	398.12
761.947	402.92
762.346	420.43
762.745	400.95
763.145	374.68
763.544	383.44
763.943	423.53
764.342	382.02
764.741	410.83
765.14	400.95
765.539	411.11
765.938	372.7
766.336	401.79
766.735	366.77
767.134	416.19
767.532	396.14
767.931	406.59
768.329	413.09
768.728	380.05
769.126	409.7
769.525	402.64
769.923	389.65
770.321	401.51
770.719	431.72
771.117	368.18
771.515	391.06
771.913	393.32
772.311	392.47
772.709	394.45
773.106	378.63
773.504	398.69
773.902	396.14
774.299	383.44
774.697	433.13
775.094	402.64
775.491	385.13
775.889	396.71
776.286	372.98
776.683	395.3
777.08	371.57
777.477	364.79
777.874	399.82
778.271	392.47
778.668	391.06
779.065	416.76
779.462	384.57
779.858	390.5
780.255	408.85
780.652	393.32
781.048	360.55
781.444	400.1
781.841	394.45
782.237	392.76
782.633	405.75
783.03	377.79
783.426	366.2
783.822	379.48
784.218	388.8
784.614	367.62
785.01	368.75
785.405	381.46
785.801	393.6
786.197	398.69
786.593	381.46
786.988	400.1
787.384	409.42
787.779	393.89
788.174	400.66
788.57	400.1
788.965	375.24
789.36	385.13
789.755	391.63
790.15	365.92
790.545	403.49
790.94	396.71
791.335	369.59
791.73	384.57
792.125	372.98
792.52	404.9
792.914	379.48
793.309	360.27
793.703	376.37
794.098	395.02
794.492	410.83
794.887	376.94
795.281	430.03
795.675	390.78
796.069	400.1
796.463	370.16
796.857	384.28
797.251	379.48
797.645	362.81
798.039	403.2
798.433	374.11
798.826	373.83
799.22	406.03
799.614	386.54
800.007	396.43
800.401	401.51
800.794	372.42
801.187	385.13
801.581	388.8
801.974	382.87
802.367	375.53
802.76	397.56
803.153	357.44
803.546	370.16
803.939	392.19
804.332	376.09
804.725	396.71
805.117	382.59
805.51	381.74
805.903	393.6
806.295	383.72
806.688	378.35
807.08	368.75
807.472	395.86
807.865	402.36
808.257	368.46
808.649	391.63
809.041	392.19
809.433	401.79
809.825	374.11
810.217	371.57
810.609	352.36
811.001	391.06
811.392	361.4
811.784	406.88
812.175	399.82
812.567	382.87
812.958	373.55
813.35	378.63
813.741	388.8
814.132	369.59
814.524	407.16
814.915	396.71
815.306	380.89
815.697	378.63
816.088	385.69
816.479	360.84
816.87	364.79
817.26	383.44
817.651	378.07
818.042	400.1
818.432	376.37
818.823	374.96
819.213	402.08
819.604	377.5
819.994	370.72
820.384	365.36
820.775	387.95
821.165	412.52
821.555	393.89
821.945	391.34
822.335	389.08
822.725	386.54
823.114	386.82
823.504	383.15
823.894	376.94
824.284	393.04
824.673	391.34
825.063	378.92
825.452	363.1
825.842	365.07
826.231	380.05
826.62	387.39
827.009	389.08
827.399	391.34
827.788	367.05
828.177	370.72
828.566	393.04
828.954	401.79
829.343	382.87
829.732	369.03
830.121	420.15
830.509	398.97
830.898	408.29
831.286	351.51
831.675	396.71
832.063	399.82
832.452	368.46
832.84	385.98
833.228	375.53
833.616	395.86
834.004	380.33
834.392	395.3
834.78	363.94
835.168	372.98
835.556	385.13
835.944	368.46
836.331	391.06
836.719	376.66
837.107	403.49
837.494	394.73
837.881	372.7
838.269	380.61
838.656	383.44
839.043	386.82
839.431	394.17
839.818	389.08
840.205	350.95
840.592	378.63
840.979	382.59
841.366	353.21
841.752	380.33
842.139	378.35
842.526	374.68
842.912	397.84
843.299	381.18
843.685	402.36
844.072	380.89
844.458	384.85
844.844	382.02
845.231	359.42
845.617	374.11
846.003	376.09
846.389	367.33
846.775	369.31
847.161	380.89
847.547	392.19
847.933	382.59
848.318	384.28
848.704	359.71
849.09	381.18
849.475	369.31
849.861	401.79
850.246	374.68
850.631	409.98
851.017	374.11
851.402	391.06
851.787	364.51
852.172	382.59
852.557	390.5
852.942	373.83
853.327	401.79
853.712	391.06
854.097	396.71
854.481	360.27
854.866	383.72
855.25	364.23
855.635	390.78
856.019	403.49
856.404	389.08
856.788	370.72
857.172	365.92
857.557	367.05
857.941	363.66
858.325	395.86
858.709	381.18
859.093	393.32
859.477	374.68
859.86	379.76
860.244	381.18
860.628	380.89
861.012	388.8
861.395	377.79
861.779	384.28
862.162	382.02
862.545	363.66
862.929	401.51
863.312	391.06
863.695	372.14
864.078	356.6
864.461	382.02
864.844	385.98
865.227	385.69
865.61	392.47
865.993	366.77
866.376	374.96
866.758	389.37
867.141	406.31
867.523	400.38
867.906	372.14
868.288	389.08
868.671	381.18
869.053	385.41
869.435	376.94
869.817	383.15
870.199	380.33
870.581	372.42
870.963	351.51
871.345	391.34
871.727	380.33
872.109	373.55
872.491	371.01
872.872	378.07
873.254	366.49
873.635	371.01
874.017	388.52
874.398	391.63
874.779	353.77
875.161	350.66
875.542	392.76
875.923	362.25
876.304	363.1
876.685	394.17
877.066	389.93
877.447	394.73
877.828	382.87
878.208	385.69
878.589	367.33
878.97	401.79
879.35	400.1
879.731	381.74
880.111	375.81
880.491	386.54
880.872	390.5
881.252	356.6
881.632	361.4
882.012	369.59
882.392	380.61
882.772	381.18
883.152	379.48
883.532	385.41
883.912	370.72
884.291	361.68
884.671	383.72
885.051	367.62
885.43	385.98
885.81	385.41
886.189	409.7
886.568	375.53
886.948	352.92
887.327	374.4
887.706	364.23
888.085	375.53
888.464	390.5
888.843	383.72
889.222	397.56
889.601	369.59
889.979	377.22
890.358	372.42
890.737	403.2
891.115	372.42
891.494	369.88
891.872	391.91
892.25	380.61
892.629	372.14
893.007	385.41
893.385	383.44
893.763	371.29
894.141	384.28
894.519	371.57
894.897	364.23
895.275	386.26
895.653	369.31
896.03	396.14
896.408	372.42
896.786	377.22
897.163	374.4
897.541	371.85
897.918	378.63
898.295	381.74
898.673	380.61
899.05	376.66
899.427	420.15
899.804	367.05
900.181	370.72
900.558	403.2
900.935	381.46
901.312	359.14
901.688	357.73
902.065	378.35
902.442	383.72
902.818	363.94
903.195	355.75
903.571	371.57
903.947	369.03
904.324	395.3
904.7	404.9
905.076	386.54
905.452	396.99
905.828	369.03
906.204	355.18
906.58	366.2
906.956	386.26
907.331	372.7
907.707	396.14
908.083	387.11
908.458	387.39
908.834	368.46
909.209	404.9
909.585	360.27
909.96	377.79
910.335	376.66
910.71	360.27
911.086	380.89
911.461	367.9
911.836	385.69
912.21	380.33
912.585	383.15
912.96	354.34
913.335	375.24
913.709	392.76
914.084	364.23
914.459	374.4
914.833	369.31
915.207	382.87
915.582	400.1
915.956	378.07
916.33	389.08
916.704	374.68
917.078	346.99
917.452	387.39
917.826	378.63
918.2	354.62
918.574	397.27
918.948	382.02
919.321	374.96
919.695	373.83
920.068	386.54
920.442	365.64
920.815	376.37
921.189	373.83
921.562	376.94
921.935	366.2
922.308	371.01
922.681	363.66
923.054	377.79
923.427	362.81
923.8	391.91
924.173	402.08
924.546	364.51
924.919	382.59
925.291	397.27
925.664	377.5
926.036	375.81
926.409	356.88
926.781	395.86
927.153	372.98
927.526	371.29
927.898	390.78
928.27	373.55
928.642	376.09
929.014	355.18
929.386	372.14
929.758	404.05
930.129	392.76
930.501	377.5
930.873	364.23
931.244	381.74
931.616	342.75
931.987	349.25
932.359	395.58
932.73	363.38
933.101	371.01
933.472	393.6
933.843	371.85
934.214	385.41
934.585	369.88
934.956	381.74
935.327	366.77
935.698	350.1
936.069	370.72
936.439	392.19
936.81	380.05
937.18	382.59
937.551	386.82
937.921	390.21
938.292	387.39
938.662	354.05
939.032	365.36
939.402	402.08
939.772	404.9
940.142	373.27
940.512	365.36
940.882	363.66
941.252	377.22
941.621	365.92
941.991	358.86
942.361	380.61
942.73	356.6
943.1	387.39
943.469	371.85
943.838	384.28
944.208	386.26
944.577	349.25
944.946	355.47
945.315	359.42
945.684	383.44
946.053	397.27
946.422	381.74
946.791	385.41
947.159	376.94
947.528	362.25
947.897	361.68
948.265	377.5
948.634	370.72
949.002	378.07
949.371	365.07
949.739	345.29
950.107	371.57
950.475	356.6
950.843	374.96
951.211	380.61
951.579	368.75
951.947	352.08
952.315	378.63
952.683	391.06
953.05	369.59
953.418	369.88
953.785	383.44
954.153	372.42
954.52	362.53
954.888	378.92
955.255	354.9
955.622	380.05
955.989	374.11
956.356	382.59
956.723	354.9
957.09	386.54
957.457	372.98
957.824	346.99
958.191	365.36
958.557	357.16
958.924	375.53
959.291	367.33
959.657	355.18
960.023	397.56
960.39	368.18
960.756	387.39
961.122	354.34
961.488	391.34
961.855	354.62
962.221	374.11
962.586	388.24
962.952	400.66
963.318	346.99
963.684	381.46
964.05	371.57
964.415	343.03
964.781	370.44
965.146	367.9
965.512	380.89
965.877	375.24
966.242	404.33
966.608	348.12
966.973	360.27
967.338	389.65
967.703	343.88
968.068	375.81
968.433	385.13
968.797	391.63
969.162	367.05
969.527	346.99
969.891	350.95
970.256	370.16
970.62	377.22
970.985	381.74
971.349	396.71
971.714	376.94
972.078	360.27
972.442	393.89
972.806	376.66
973.17	376.66
973.534	374.68
973.898	384
974.262	384.57
974.625	367.9
974.989	371.57
975.353	379.76
975.716	384
976.08	367.62
976.443	366.2
976.806	372.14
977.17	355.18
977.533	387.95
977.896	356.6
978.259	350.1
978.622	410.55
978.985	398.69
979.348	379.2
979.711	381.18
980.073	367.9
980.436	349.25
980.799	372.14
981.161	374.11
981.524	369.03
981.886	370.72
982.248	365.64
982.611	395.02
982.973	363.38
983.335	374.96
983.697	365.36
984.059	385.41
984.421	358.29
984.783	406.88
985.145	403.49
985.506	372.7
985.868	385.69
986.23	366.2
986.591	368.46
986.953	396.99
987.314	404.9
987.675	353.21
988.037	999.48
988.398	398.97
988.759	388.8
989.12	387.67
989.481	377.5
989.842	365.36
990.203	366.2
990.564	354.9
990.924	370.72
991.285	1106.99
991.646	390.78
992.006	370.16
992.367	358.57
992.727	384.57
993.087	378.07
993.448	373.83
993.808	387.39
994.168	366.77
994.528	358.57
994.888	357.73
995.248	373.27
995.608	365.64
995.967	366.2
996.327	345.58
996.687	392.19
997.046	384.57
997.406	367.33
997.765	358.57
998.125	347.55
998.484	373.55
998.843	384.57
999.202	363.1
999.561	372.7
999.92	360.55
1000.279	361.68
1000.638	372.98
1000.997	371.85
1001.356	361.12
1001.715	361.12
1002.073	351.51
1002.432	361.68
1002.79	395.86
1003.149	372.7
1003.507	374.4
1003.865	365.64
1004.224	380.33
1004.582	358.86
1004.94	382.87
1005.298	369.88
1005.656	360.27
1006.014	349.53
1006.371	365.64
1006.729	346.99
1007.087	358.57
1007.445	353.49
1007.802	393.04
1008.16	377.22
1008.517	369.88
1008.874	367.9
1009.232	366.77
1009.589	405.75
1009.946	375.24
1010.303	353.77
1010.66	384
1011.017	358.01
1011.374	396.43
1011.731	354.62
1012.087	347.27
1012.444	378.35
1012.801	369.88
1013.157	364.23
1013.513	364.79
1013.87	374.68
1014.226	354.05
1014.582	377.79
1014.939	376.94
1015.295	356.88
1015.651	332.01
1016.007	374.11
1016.363	372.98
1016.719	351.79
1017.074	345.01
1017.43	364.23
1017.786	369.59
1018.141	345.86
1018.497	347.27
1018.852	361.4
1019.208	358.01
1019.563	361.12
1019.918	343.6
1020.273	373.55
1020.628	382.02
1020.983	383.15
1021.338	339.08
1021.693	400.95
1022.048	375.24
1022.403	391.63
1022.757	383.15
1023.112	374.68
1023.467	357.73
1023.821	369.59
1024.175	367.05
1024.53	365.64
1024.884	371.57
1025.238	392.47
1025.592	345.01
1025.946	364.23
1026.3	362.81
1026.654	360.84
1027.008	365.92
1027.362	371.01
1027.716	356.31
1028.069	394.17
1028.423	366.77
1028.777	366.2
1029.13	358.86
1029.483	363.66
1029.837	348.12
1030.19	382.59
1030.543	351.23
1030.896	361.68
1031.249	393.32
1031.602	366.77
1031.955	368.18
1032.308	383.72
1032.661	386.26
1033.013	348.12
1033.366	359.71
1033.719	357.16
1034.071	386.26
1034.424	359.42
1034.776	376.37
1035.128	364.23
1035.48	357.16
1035.833	352.08
1036.185	374.96
1036.537	374.96
1036.889	374.96
