Data from SCSF78_irradiation_FLMS019251_02-23-13-280.txt Node
Date: Thu Feb 21 02:23:13 PST 2019
User: mu3e
Spectrometer: FLMS01925
Trigger mode: 0
Integration Time (sec): 6.500000E-2
Scans to average: 10
Electric dark correction enabled: true
Nonlinearity correction enabled: true
Boxcar width: 0
XAxis mode: Wavelengths
Number of Pixels in Spectrum: 2048
>>>>>Begin Spectral Data<<<<<
187.103	-72.51
187.574	-72.51
188.045	-72.51
188.516	-131.08
188.987	-128.8
189.458	-130.79
189.929	-103.78
190.4	-114.3
190.871	-98.66
191.342	-107.76
191.813	-63.98
192.284	-14.55
192.754	-9.72
193.225	2.77
193.696	26.05
194.166	54.71
194.637	45.91
195.107	98.67
195.578	111.43
196.048	143.74
196.518	159.32
196.989	169.52
197.459	200.11
197.929	209.45
198.399	269.45
198.869	269.73
199.339	297.73
199.809	327.7
200.279	327.98
200.749	345.22
201.219	362.18
201.689	370.94
202.159	335.61
202.628	337.03
203.098	349.74
203.568	363.87
204.037	391.56
204.507	395.51
204.976	407.09
205.445	409.91
205.915	391.27
206.384	396.07
206.853	392.97
207.323	392.12
207.792	406.24
208.261	417.53
208.73	401.16
209.199	408.22
209.668	402
210.137	400.31
210.606	415.56
211.075	382.23
211.543	385.62
212.012	383.36
212.481	379.41
212.95	362.18
213.418	382.52
213.887	356.24
214.355	388.73
214.824	333.64
215.292	355.4
215.76	374.61
216.229	371.78
216.697	357.66
217.165	365.29
217.633	350.87
218.101	346.64
218.569	357.09
219.037	346.07
219.505	365.57
219.973	348.05
220.441	320.92
220.909	369.81
221.377	357.37
221.844	365.29
222.312	378.85
222.78	361.33
223.247	353.14
223.715	335.05
224.182	372.63
224.65	337.03
225.117	356.53
225.584	335.05
226.052	366.98
226.519	367.26
226.986	361.33
227.453	356.53
227.92	360.2
228.387	371.22
228.854	367.83
229.321	313
229.788	376.3
230.255	357.37
230.722	384.21
231.189	372.91
231.655	365
232.122	339.57
232.589	369.24
233.055	371.5
233.522	359.35
233.988	369.52
234.454	361.33
234.921	349.18
235.387	379.41
235.853	367.83
236.32	360.2
236.786	350.59
237.252	393.25
237.718	381.39
238.184	389.86
238.65	376.87
239.116	366.42
239.582	373.48
240.047	375.46
240.513	385.34
240.979	366.98
241.445	386.19
241.91	387.04
242.376	334.77
242.841	366.7
243.307	370.09
243.772	390.71
244.238	363.31
244.703	347.2
245.168	376.02
245.633	399.46
246.099	357.09
246.564	382.52
247.029	368.11
247.494	369.81
247.959	376.87
248.424	370.65
248.889	350.59
249.353	379.13
249.818	373.76
250.283	340.14
250.748	378
251.212	379.69
251.677	399.75
252.141	376.02
252.606	362.46
253.07	360.48
253.535	363.59
253.999	355.68
254.463	391.84
254.927	384.78
255.392	355.68
255.856	372.07
256.32	389.3
256.784	387.04
257.248	399.46
257.712	380.26
258.176	367.55
258.64	342.4
259.103	352.29
259.567	379.98
260.031	376.3
260.495	386.47
260.958	405.96
261.422	387.6
261.885	385.34
262.349	374.04
262.812	367.83
263.275	388.17
263.739	373.76
264.202	382.23
264.665	383.65
265.128	402.85
265.591	388.45
266.054	359.63
266.517	399.75
266.98	380.82
267.443	397.77
267.906	387.32
268.369	380.82
268.832	370.94
269.294	401.72
269.757	405.39
270.22	387.88
270.682	376.3
271.145	386.75
271.607	401.44
272.07	383.93
272.532	378
272.994	383.93
273.456	367.55
273.919	390.99
274.381	405.68
274.843	410.48
275.305	383.65
275.767	398.62
276.229	400.59
276.691	400.03
277.153	386.47
277.614	402.29
278.076	374.89
278.538	370.37
279	379.69
279.461	380.26
279.923	398.33
280.384	398.62
280.846	385.06
281.307	373.2
281.769	385.06
282.23	397.2
282.691	376.87
283.152	403.13
283.613	382.23
284.075	365.29
284.536	366.13
284.997	380.54
285.458	393.53
285.918	372.91
286.379	380.26
286.84	413.86
287.301	390.99
287.762	394.66
288.222	407.37
288.683	374.04
289.143	377.15
289.604	414.15
290.064	393.25
290.525	404.55
290.985	425.44
291.445	387.04
291.906	378.28
292.366	380.26
292.826	390.43
293.286	363.59
293.746	382.52
294.206	381.39
294.666	380.26
295.126	402.57
295.586	383.36
296.046	362.46
296.506	389.86
296.965	370.37
297.425	398.62
297.884	394.38
298.344	383.65
298.804	411.61
299.263	418.95
299.722	404.26
300.182	413.86
300.641	385.34
301.1	405.39
301.559	417.25
302.019	394.94
302.478	417.25
302.937	405.39
303.396	408.22
303.855	407.09
304.314	395.79
304.772	411.32
305.231	394.38
305.69	396.64
306.149	407.93
306.607	386.47
307.066	378.28
307.524	412.73
307.983	417.25
308.441	391.56
308.9	383.93
309.358	406.81
309.816	397.77
310.275	387.88
310.733	397.77
311.191	429.11
311.649	408.78
312.107	402.57
312.565	412.17
313.023	395.79
313.481	365
313.939	390.71
314.397	406.52
314.854	408.5
315.312	398.9
315.77	424.31
316.227	390.14
316.685	408.22
317.142	387.04
317.6	402.85
318.057	413.58
318.514	394.38
318.972	395.23
319.429	403.98
319.886	417.82
320.343	382.23
320.8	383.93
321.257	421.49
321.714	424.03
322.171	406.81
322.628	413.3
323.085	397.49
323.542	394.38
323.998	396.92
324.455	403.13
324.912	400.88
325.368	406.24
325.825	405.11
326.281	406.81
326.738	397.2
327.194	378.28
327.65	375.17
328.107	397.77
328.563	410.48
329.019	429.39
329.475	406.52
329.931	421.49
330.387	408.78
330.843	390.43
331.299	419.23
331.755	391.84
332.211	402.29
332.666	402.85
333.122	395.79
333.578	408.22
334.033	396.92
334.489	389.01
334.944	428.26
335.4	415.84
335.855	424.31
336.31	423.18
336.766	431.93
337.221	373.48
337.676	411.04
338.131	411.04
338.586	423.46
339.041	414.99
339.496	407.93
339.951	398.33
340.406	400.03
340.861	402.85
341.316	403.13
341.771	398.62
342.225	402
342.68	416.12
343.134	404.26
343.589	407.93
344.043	402.29
344.498	409.91
344.952	390.43
345.406	429.39
345.861	407.93
346.315	404.26
346.769	410.19
347.223	417.82
347.677	376.3
348.131	373.76
348.585	387.04
349.039	406.52
349.493	418.1
349.947	409.63
350.401	381.95
350.854	409.91
351.308	431.65
351.762	423.18
352.215	419.79
352.669	424.03
353.122	425.72
353.575	427.7
354.029	416.41
354.482	415.56
354.935	408.78
355.388	398.62
355.842	400.03
356.295	416.41
356.748	412.73
357.201	406.81
357.654	413.58
358.106	416.97
358.559	440.12
359.012	416.41
359.465	424.31
359.917	407.09
360.37	398.9
360.823	416.41
361.275	418.95
361.728	424.03
362.18	425.44
362.632	407.37
363.085	416.97
363.537	407.09
363.989	406.81
364.441	426.85
364.893	396.07
365.345	381.39
365.797	402.85
366.249	406.24
366.701	404.26
367.153	402
367.605	402
368.057	422.62
368.508	429.11
368.96	409.91
369.411	439.27
369.863	427.7
370.314	409.35
370.766	449.43
371.217	430.8
371.669	426.57
372.12	386.19
372.571	427.13
373.022	405.68
373.473	402.85
373.924	421.2
374.375	424.31
374.826	441.81
375.277	437.01
375.728	428.83
376.179	421.77
376.63	427.7
377.08	427.13
377.531	430.52
377.981	409.06
378.432	424.59
378.883	416.69
379.333	411.32
379.783	403.98
380.234	414.99
380.684	433.06
381.134	440.12
381.584	415.84
382.034	412.17
382.485	451.41
382.935	429.11
383.385	407.37
383.834	400.03
384.284	439.27
384.734	414.43
385.184	407.65
385.634	452.25
386.083	422.05
386.533	413.58
386.982	382.8
387.432	428.26
387.881	425.16
388.331	409.63
388.78	419.79
389.229	405.39
389.679	417.53
390.128	452.82
390.577	440.12
391.026	438.71
391.475	440.68
391.924	411.04
392.373	404.83
392.822	420.36
393.27	429.39
393.719	417.82
394.168	427.98
394.617	419.79
395.065	403.42
395.514	438.14
395.962	426.57
396.411	433.91
396.859	444.92
397.307	444.92
397.756	434.47
398.204	426
398.652	440.4
399.1	455.64
399.548	424.59
399.996	481.31
400.444	454.23
400.892	437.86
401.34	440.68
401.788	457.61
402.236	427.98
402.683	444.35
403.131	450.84
403.579	459.03
404.026	467.77
404.474	486.67
404.921	470.03
405.369	446.61
405.816	459.59
406.263	454.51
406.71	474.26
407.158	508.95
407.605	479.34
408.052	477.36
408.499	485.54
408.946	496.54
409.393	485.26
409.84	536.58
410.286	514.03
410.733	538.84
411.18	540.81
411.626	570.68
412.073	636.86
412.52	692.02
412.966	835.06
413.413	957.94
413.859	1164.25
414.305	1396.49
414.752	1680.26
415.198	2074.72
415.644	2514.26
416.09	3038.37
416.536	3626.04
416.982	4395.67
417.428	5180.46
417.874	6101.18
418.32	7012.04
418.766	8013.73
419.211	9191.14
419.657	10224.89
420.103	11517.01
420.548	12484.61
420.994	13819.72
421.439	15098.92
421.885	16024.29
422.33	17492.93
422.776	18701.56
423.221	19680.19
423.666	21041.01
424.111	22240.26
424.556	23041.73
425.001	24490.19
425.446	25948.62
425.891	27070.7
426.336	27735.33
426.781	29005.1
427.226	30916.61
427.671	31578.94
428.115	32346.7
428.56	33944.06
429.005	35322.85
429.449	35761.28
429.894	36967.5
430.338	38146.3
430.782	37980.01
431.227	39654.92
431.671	39968
432.115	41320.7
432.559	42330.45
433.003	41985.93
433.447	42937.23
433.891	43262.14
434.335	43569.77
434.779	44344.18
435.223	44470.53
435.667	44503.89
436.111	44879.97
436.554	44841.53
436.998	44360.47
437.442	44514.17
437.885	46426.57
438.328	44840.52
438.772	45223.35
439.215	45587.33
439.659	45131.72
440.102	45404.48
440.545	44727.49
440.988	44577.39
441.431	45495.5
441.874	44868.16
442.317	45195.15
442.76	44544.02
443.203	43931.86
443.646	44746.07
444.089	44303.34
444.531	44718.2
444.974	43393.82
445.417	44476.8
445.859	43428.25
446.302	44609.51
446.744	43835.09
447.186	44886.01
447.629	43893.85
448.071	43782.35
448.513	43989.14
448.956	45182.81
449.398	44273.53
449.84	43300.54
450.282	43617.72
450.724	44303.09
451.166	43830.34
451.607	43675.16
452.049	43769.61
452.491	44812.63
452.933	44278.79
453.374	44698.87
453.816	45153.86
454.257	44725.98
454.699	45622.41
455.14	45231.91
455.582	44874.19
456.023	44843.29
456.464	45016.74
456.905	45636.29
457.347	45396.42
457.788	44725.73
458.229	44692.59
458.67	45556.55
459.111	43719.88
459.552	43876.34
459.992	43608.48
460.433	43367.13
460.874	42417.15
461.315	43429.5
461.755	42557.33
462.196	41879.04
462.636	41140.35
463.077	40981.86
463.517	41036.49
463.957	41294.72
464.398	40969.25
464.838	40973.95
465.278	39899
465.718	39936.46
466.158	39020.72
466.598	39530.61
467.038	38921.67
467.478	39341.13
467.918	39483.11
468.358	38897.83
468.798	38580.71
469.237	38534.55
469.677	38440.52
470.117	38996.14
470.556	36939.11
470.996	37344.06
471.435	37646.62
471.874	37997.17
472.314	37761.56
472.753	37102.87
473.192	37148.65
473.631	36768.06
474.07	36945.48
474.509	36921
474.948	37272.55
475.387	36603.42
475.826	35780.58
476.265	37205.21
476.704	36899.22
477.143	37093.81
477.581	36851.01
478.02	37574.33
478.458	36124.41
478.897	36760.97
479.335	37863.79
479.774	37299.98
480.212	37470.94
480.65	37392.8
481.089	37220.14
481.527	36801.1
481.965	36303.85
482.403	38108.03
482.841	37838.04
483.279	37929.25
483.717	37977.8
484.155	37438.85
484.592	37801.76
485.03	37952.05
485.468	37079.86
485.905	37123.19
486.343	37596.38
486.781	37091.61
487.218	36538.85
487.655	36439.07
488.093	35658.91
488.53	37035.79
488.967	36006.36
489.405	36058.17
489.842	35288.91
490.279	35255.7
490.716	34965.18
491.153	35391.47
491.59	34784.07
492.027	34291.91
492.463	33741.87
492.9	33155.41
493.337	33012.04
493.773	33035.45
494.21	32208.7
494.647	32108.99
495.083	31359.73
495.519	31012.46
495.956	31116.6
496.392	30574.4
496.828	30268.95
497.265	29604.13
497.701	29653.2
498.137	29459.35
498.573	28697.5
499.009	29111.36
499.445	28328.91
499.881	27916.37
500.316	28140.89
500.752	27282.77
501.188	27074.13
501.624	27043.02
502.059	25964.08
502.495	25835.73
502.93	25830.57
503.366	26054.13
503.801	25399.15
504.236	25085.85
504.672	24709.89
505.107	24480.34
505.542	23934.69
505.977	23870.14
506.412	23553.16
506.847	23685.55
507.282	23172.54
507.717	22904.47
508.152	22978.29
508.587	22695.03
509.021	22112.64
509.456	21800.86
509.891	22000.33
510.325	21850.61
510.76	21431.88
511.194	21273.54
511.628	21305.76
512.063	20725.23
512.497	20777.83
512.931	20175.95
513.366	20079.28
513.8	20133.46
514.234	19603.81
514.668	19666.75
515.102	19688.4
515.536	18988.49
515.969	19186.56
516.403	18789.08
516.837	18394.95
517.271	18544.17
517.704	18035.9
518.138	18002.67
518.571	17917.22
519.005	17594.48
519.438	17498.69
519.871	17286.74
520.305	17014.06
520.738	16802.34
521.171	16536.83
521.604	16668.73
522.037	16262.08
522.47	16065.23
522.903	15743.1
523.336	15769.75
523.769	15595.25
524.202	15173.97
524.634	15207.97
525.067	14926.58
525.5	14788.45
525.932	14684.05
526.365	14389.06
526.797	14269.12
527.23	14349.68
527.662	13771.65
528.094	13662.34
528.527	13591.21
528.959	13380.5
529.391	13207.9
529.823	12717.64
530.255	12809.07
530.687	12487.92
531.119	12324.39
531.551	12255.18
531.982	11986.03
532.414	11818.84
532.846	11549.17
533.277	11554.28
533.709	11099.93
534.14	11094.04
534.572	10957.64
535.003	10862.39
535.435	10621.23
535.866	10454.99
536.297	10202.53
536.728	10268.05
537.159	10148.29
537.59	9945.34
538.022	9769.21
538.452	9742.67
538.883	9435.51
539.314	9428.55
539.745	9139.17
540.176	9089.77
540.606	8817.14
541.037	8838.38
541.468	8646.27
541.898	8587.89
542.328	8555.96
542.759	8355.17
543.189	8292.77
543.619	8110.62
544.05	7984.28
544.48	7867.47
544.91	7808.51
545.34	7665.7
545.77	7626.77
546.2	7491.34
546.63	7346.35
547.06	7338.5
547.489	7190.97
547.919	6965.03
548.349	7041.18
548.778	6996.81
549.208	6853.09
549.637	6689.46
550.067	6609.93
550.496	6616.25
550.926	6536.14
551.355	6397.41
551.784	6366
552.213	6250.85
552.642	6091.92
553.071	6107.53
553.5	6059.37
553.929	5829.91
554.358	5926.41
554.787	5763.57
555.216	5812.13
555.645	5642.21
556.073	5582.41
556.502	5464.57
556.93	5399.34
557.359	5321.28
557.787	5307.96
558.216	5301.56
558.644	5174.06
559.072	5090.22
559.5	5030.09
559.929	5049.6
560.357	5027.69
560.785	4930.88
561.213	4874.95
561.641	4821.4
562.068	4793.27
562.496	4733.77
562.924	4698.92
563.352	4705.62
563.779	4725.73
564.207	4626.48
564.634	4641.24
565.062	4647.14
565.489	4500.26
565.917	4529.82
566.344	4483.87
566.771	4440.85
567.198	4407.24
567.625	4285.3
568.053	4232.77
568.48	4218.75
568.907	4199.62
569.333	4098.47
569.76	3978.56
570.187	4048.52
570.614	3953.97
571.04	4947.74
571.467	3877.44
571.894	3782.43
572.32	3726.09
572.747	3666.45
573.173	3569.59
573.599	3545.7
574.026	3466.92
574.452	3445.99
574.878	3382.09
575.304	3302.89
575.73	3272.12
576.156	3178.09
576.582	3225.8
577.008	3112.9
577.434	3073.87
577.86	2973.07
578.285	3003.68
578.711	2906.9
579.137	2962.14
579.562	2804.53
579.988	2872.7
580.413	2770.84
580.838	2722.6
581.264	2726.16
581.689	2707.52
582.114	2642.51
582.539	2696.28
582.964	2593.65
583.39	2510.14
583.814	2476.05
584.239	2413.61
584.664	2423.24
585.089	2337.9
585.514	2375.35
585.939	2304.85
586.363	2262.13
586.788	2285.28
587.212	2213.04
587.637	2179.38
588.061	2181.86
588.485	2103.73
588.91	2118.64
589.334	2104
589.758	2102.35
590.182	2036.58
590.606	1980.71
591.03	1945.29
591.454	1919
591.878	1955.81
592.302	1932.56
592.726	1908.48
593.15	1889.64
593.573	1834.51
593.997	1850.3
594.42	1767.68
594.844	1795.7
595.267	1738.28
595.691	1751.32
596.114	1692.47
596.537	1716.91
596.96	1670.54
597.384	1713.02
597.807	1644.98
598.23	1644.43
598.653	1623.86
599.076	1631.92
599.499	1581.89
599.921	1587.73
600.344	1562.7
600.767	1527.93
601.189	1546.57
601.612	1510.95
602.034	1528.76
602.457	1483.4
602.879	1535.44
603.302	1539.34
603.724	1469.2
604.146	1479.78
604.568	1479.78
604.991	1447.75
605.413	1461.96
605.835	1490.64
606.257	1426.58
606.678	1412.93
607.1	1447.75
607.522	1443.02
607.944	1414.32
608.365	1424.35
608.787	1380.32
609.209	1360.52
609.63	1351.32
610.051	1334.31
610.473	1319.24
610.894	1326.5
611.315	1319.52
611.737	1298.32
612.158	1296.36
612.579	1277.94
613	1245.83
613.421	1288.55
613.842	1251.7
614.263	1205.05
614.683	1206.45
615.104	1210.08
615.525	1143.84
615.945	1125.38
616.366	1162.85
616.787	1164.81
617.207	1149.15
617.627	1172.91
618.048	1087.61
618.468	1097.13
618.888	1045.91
619.308	1078.1
619.728	1075.02
620.148	1046.19
620.568	1046.19
620.988	1032.74
621.408	1031.34
621.828	1001.37
622.248	983.16
622.668	980.92
623.087	979.8
623.507	958.5
623.926	965.23
624.346	957.1
624.765	969.43
625.185	914.76
625.604	935.79
626.023	908.87
626.442	879.69
626.861	941.12
627.28	888.95
627.699	899.05
628.118	877.17
628.537	902.98
628.956	881.38
629.375	892.6
629.794	834.5
630.212	826.36
630.631	833.66
631.049	810.35
631.468	833.1
631.886	807.54
632.305	803.89
632.723	823.83
633.141	778.33
633.559	793.22
633.978	762.87
634.396	765.4
634.814	770.46
635.232	745.17
635.65	800.52
636.067	752.19
636.485	765.12
636.903	743.76
637.321	769.34
637.738	745.73
638.156	735.89
638.573	741.51
638.991	736.17
639.408	675.42
639.825	701.86
640.243	696.8
640.66	672.61
641.077	703.83
641.494	704.96
641.911	709.46
642.328	693.99
642.745	679.92
643.162	681.89
643.579	682.74
643.995	641.93
644.412	672.33
644.829	633.49
645.245	689.21
645.662	644.75
646.078	667.54
646.495	653.19
646.911	648.69
647.327	625.32
647.743	658.82
648.159	633.2
648.576	617.16
648.992	629.54
649.408	634.33
649.824	612.93
650.239	634.05
650.655	605.89
651.071	618.85
651.487	642.49
651.902	608.71
652.318	633.2
652.733	608.43
653.149	603.08
653.564	587.02
653.979	565.89
654.395	564.48
654.81	587.02
655.225	591.25
655.64	602.79
656.055	601.67
656.47	576.32
656.885	598.29
657.3	578.29
657.715	579.42
658.13	553.77
658.544	582.51
658.959	555.75
659.374	556.59
659.788	549.55
660.202	556.87
660.617	579.13
661.031	561.67
661.445	541.09
661.86	557.44
662.274	558.85
662.688	575.75
663.102	550.67
663.516	530.94
663.93	523.33
664.344	512.62
664.758	542.5
665.171	526.15
665.585	553.49
665.999	548.14
666.412	514.59
666.826	538.27
667.239	541.94
667.653	517.41
668.066	517.13
668.479	547.01
668.892	485.26
669.306	516
669.719	515.44
670.132	528.13
670.545	539.12
670.958	483.57
671.37	511.49
671.783	515.16
672.196	504.16
672.609	496.54
673.021	506.98
673.434	524.74
673.846	500.49
674.259	547.57
674.671	466.64
675.084	522.77
675.496	508.39
675.908	497.95
676.32	492.31
676.732	479.34
677.144	484.7
677.556	482.72
677.968	470.31
678.38	494.57
678.792	488.93
679.204	499.08
679.615	490.62
680.027	492.6
680.439	472.85
680.85	515.72
681.262	492.03
681.673	456.49
682.084	472.29
682.496	462.13
682.907	484.98
683.318	465.8
683.729	478.21
684.14	458.74
684.551	477.36
684.962	473.98
685.373	462.41
685.784	449.15
686.194	469.46
686.605	484.98
687.016	494.57
687.426	454.23
687.837	477.08
688.247	450.56
688.657	475.95
689.068	469.46
689.478	463.82
689.888	462.13
690.298	467.49
690.708	469.75
691.118	472.57
691.528	444.35
691.938	458.18
692.348	489.21
692.758	454.23
693.168	473.41
693.577	449.15
693.987	466.08
694.396	456.49
694.806	447.17
695.215	434.75
695.625	438.14
696.034	453.1
696.443	419.51
696.852	453.38
697.262	453.95
697.671	436.17
698.08	440.12
698.489	442.94
698.897	451.41
699.306	448.02
699.715	422.05
700.124	424.87
700.532	434.19
700.941	454.79
701.35	437.86
701.758	459.87
702.166	446.61
702.575	439.27
702.983	433.06
703.391	439.27
703.799	444.63
704.208	421.49
704.616	435.04
705.024	443.5
705.432	428.54
705.839	424.03
706.247	432.78
706.655	418.1
707.063	419.23
707.47	404.55
707.878	418.95
708.285	418.95
708.693	430.8
709.1	422.33
709.508	420.92
709.915	437.58
710.322	428.54
710.729	455.92
711.136	438.99
711.543	424.87
711.95	440.68
712.357	404.26
712.764	437.86
713.171	416.97
713.578	437.86
713.984	407.65
714.391	427.13
714.797	416.97
715.204	425.16
715.61	413.58
716.017	431.08
716.423	408.22
716.829	406.24
717.236	432.21
717.642	407.93
718.048	424.03
718.454	449.15
718.86	415.56
719.266	424.03
719.671	450
720.077	407.37
720.483	438.42
720.889	399.75
721.294	430.52
721.7	425.72
722.105	409.91
722.511	424.31
722.916	433.91
723.321	419.51
723.726	415.56
724.132	417.25
724.537	413.3
724.942	429.11
725.347	421.2
725.752	434.19
726.156	409.35
726.561	424.87
726.966	429.96
727.371	412.17
727.775	413.58
728.18	413.86
728.584	397.2
728.989	403.98
729.393	438.42
729.798	412.17
730.202	438.71
730.606	410.19
731.01	439.27
731.414	398.05
731.818	414.15
732.222	414.99
732.626	378.56
733.03	432.78
733.434	400.31
733.837	428.54
734.241	399.75
734.645	423.46
735.048	393.53
735.452	409.06
735.855	428.26
736.258	416.12
736.662	417.25
737.065	414.15
737.468	401.16
737.871	416.69
738.274	416.97
738.677	383.65
739.08	429.96
739.483	416.69
739.886	415.56
740.289	407.65
740.691	431.37
741.094	393.53
741.497	428.83
741.899	368.11
742.302	378.85
742.704	418.1
743.106	411.32
743.508	403.7
743.911	391.27
744.313	418.66
744.715	406.24
745.117	422.9
745.519	394.38
745.921	395.23
746.323	404.55
746.724	385.06
747.126	417.82
747.528	422.33
747.929	391.56
748.331	394.94
748.732	406.24
749.134	386.47
749.535	415.56
749.936	413.86
750.338	383.08
750.739	431.37
751.14	415.56
751.541	418.95
751.942	406.81
752.343	422.33
752.744	431.08
753.144	377.15
753.545	396.07
753.946	407.09
754.346	398.05
754.747	411.89
755.148	427.13
755.548	410.76
755.948	423.46
756.349	388.17
756.749	414.71
757.149	379.13
757.549	387.6
757.949	377.72
758.349	379.69
758.749	406.24
759.149	407.09
759.549	391.27
759.949	418.95
760.348	433.34
760.748	414.15
761.148	389.01
761.547	403.42
761.947	394.38
762.346	397.2
762.745	426
763.145	391.84
763.544	379.41
763.943	414.71
764.342	428.83
764.741	393.81
765.14	394.1
765.539	416.12
765.938	395.51
766.336	386.19
766.735	379.69
767.134	384.49
767.532	409.35
767.931	401.44
768.329	424.31
768.728	392.12
769.126	400.03
769.525	394.38
769.923	418.95
770.321	399.75
770.719	413.86
771.117	421.49
771.515	401.44
771.913	398.33
772.311	406.81
772.709	427.42
773.106	391.56
773.504	402.85
773.902	399.46
774.299	402.29
774.697	430.8
775.094	387.88
775.491	420.36
775.889	416.41
776.286	391.27
776.683	383.65
777.08	370.65
777.477	393.81
777.874	410.76
778.271	400.31
778.668	367.26
779.065	407.93
779.462	395.51
779.858	379.69
780.255	405.39
780.652	391.56
781.048	373.2
781.444	393.53
781.841	372.63
782.237	408.22
782.633	396.07
783.03	372.63
783.426	405.68
783.822	404.55
784.218	379.41
784.614	383.65
785.01	394.66
785.405	399.18
785.801	378.85
786.197	377.43
786.593	375.46
786.988	377.43
787.384	398.62
787.779	404.83
788.174	398.9
788.57	413.86
788.965	379.13
789.36	374.33
789.755	394.94
790.15	389.58
790.545	387.04
790.94	376.02
791.335	389.3
791.73	404.26
792.125	409.06
792.52	379.98
792.914	406.52
793.309	402.57
793.703	382.52
794.098	413.3
794.492	383.08
794.887	379.13
795.281	394.1
795.675	400.03
796.069	414.71
796.463	374.89
796.857	382.23
797.251	395.79
797.645	385.91
798.039	396.07
798.433	399.46
798.826	380.26
799.22	390.43
799.614	387.6
800.007	399.46
800.401	409.63
800.794	359.92
801.187	429.39
801.581	347.2
801.974	407.93
802.367	415.84
802.76	385.06
803.153	395.51
803.546	391.84
803.939	402.57
804.332	397.49
804.725	376.02
805.117	377.15
805.51	400.03
805.903	411.89
806.295	392.69
806.688	392.12
807.08	403.98
807.472	368.68
807.865	396.36
808.257	395.79
808.649	386.75
809.041	399.18
809.433	389.58
809.825	385.06
810.217	389.3
810.609	388.45
811.001	406.52
811.392	394.1
811.784	407.09
812.175	390.99
812.567	391.84
812.958	404.55
813.35	398.62
813.741	371.5
814.132	384.21
814.524	391.56
814.915	397.2
815.306	387.32
815.697	368.68
816.088	387.6
816.479	401.16
816.87	383.08
817.26	382.8
817.651	425.72
818.042	388.45
818.432	385.06
818.823	380.82
819.213	389.01
819.604	414.43
819.994	392.69
820.384	373.76
820.775	389.3
821.165	386.19
821.555	397.77
821.945	396.64
822.335	367.55
822.725	385.06
823.114	400.59
823.504	385.91
823.894	363.87
824.284	377.43
824.673	383.36
825.063	420.36
825.452	374.61
825.842	377.43
826.231	405.68
826.62	379.13
827.009	401.44
827.399	377.43
827.788	376.02
828.177	371.5
828.566	391.27
828.954	389.01
829.343	401.72
829.732	391.56
830.121	410.19
830.509	380.54
830.898	370.94
831.286	383.65
831.675	409.35
832.063	401.72
832.452	391.56
832.84	392.4
833.228	394.38
833.616	401.44
834.004	421.77
834.392	416.97
834.78	403.7
835.168	397.49
835.556	389.3
835.944	378.85
836.331	373.48
836.719	398.62
837.107	380.26
837.494	390.71
837.881	394.38
838.269	390.99
838.656	378
839.043	388.73
839.431	358.22
839.818	379.41
840.205	386.75
840.592	409.06
840.979	394.66
841.366	404.26
841.752	372.63
842.139	370.65
842.526	379.41
842.912	377.15
843.299	385.06
843.685	396.92
844.072	367.55
844.458	400.88
844.844	375.74
845.231	414.15
845.617	381.95
846.003	393.25
846.389	376.87
846.775	395.23
847.161	389.86
847.547	386.75
847.933	382.8
848.318	359.92
848.704	380.82
849.09	411.61
849.475	373.2
849.861	394.66
850.246	395.51
850.631	395.51
851.017	365.29
851.402	373.2
851.787	395.51
852.172	389.58
852.557	370.94
852.942	373.2
853.327	387.04
853.712	407.37
854.097	387.6
854.481	392.4
854.866	388.45
855.25	354.27
855.635	380.54
856.019	371.22
856.404	373.76
856.788	367.55
857.172	394.38
857.557	391.84
857.941	379.13
858.325	413.58
858.709	385.91
859.093	370.09
859.477	389.58
859.86	383.65
860.244	383.93
860.628	379.98
861.012	382.8
861.395	369.52
861.779	396.07
862.162	388.17
862.545	376.87
862.929	410.19
863.312	393.25
863.695	370.94
864.078	384.49
864.461	382.52
864.844	390.99
865.227	386.75
865.61	402
865.993	373.76
866.376	370.65
866.758	383.36
867.141	379.13
867.523	358.5
867.906	394.94
868.288	397.49
868.671	391.56
869.053	386.75
869.435	371.22
869.817	401.16
870.199	382.52
870.581	394.38
870.963	394.1
871.345	383.93
871.727	392.4
872.109	358.79
872.491	393.81
872.872	381.11
873.254	374.61
873.635	401.44
874.017	414.71
874.398	380.26
874.779	392.69
875.161	372.07
875.542	380.26
875.923	391.56
876.304	389.86
876.685	394.38
877.066	386.47
877.447	366.13
877.828	381.39
878.208	396.92
878.589	402.85
878.97	397.49
879.35	380.26
879.731	383.08
880.111	405.11
880.491	368.39
880.872	390.99
881.252	385.06
881.632	364.16
882.012	398.9
882.392	390.43
882.772	388.45
883.152	364.44
883.532	382.52
883.912	369.81
884.291	373.2
884.671	350.87
885.051	394.1
885.43	395.79
885.81	373.76
886.189	392.4
886.568	382.52
886.948	375.46
887.327	359.92
887.706	385.34
888.085	386.19
888.464	396.07
888.843	397.49
889.222	392.4
889.601	371.78
889.979	362.74
890.358	382.8
890.737	357.09
891.115	357.94
891.494	383.93
891.872	376.02
892.25	390.71
892.629	402.85
893.007	392.4
893.385	375.46
893.763	395.79
894.141	363.87
894.519	374.89
894.897	378.56
895.275	377.15
895.653	404.55
896.03	377.15
896.408	381.11
896.786	402.57
897.163	389.3
897.541	393.53
897.918	391.84
898.295	378
898.673	391.84
899.05	372.63
899.427	418.1
899.804	412.17
900.181	409.63
900.558	372.07
900.935	367.26
901.312	379.98
901.688	382.23
902.065	430.52
902.442	364.44
902.818	371.5
903.195	378
903.571	393.81
903.947	371.22
904.324	375.17
904.7	377.15
905.076	407.93
905.452	397.77
905.828	365.85
906.204	391.84
906.58	391.27
906.956	396.92
907.331	412.17
907.707	387.88
908.083	396.92
908.458	383.65
908.834	365
909.209	383.08
909.585	354.27
909.96	387.88
910.335	386.75
910.71	384.21
911.086	385.06
911.461	368.11
911.836	379.98
912.21	409.63
912.585	390.14
912.96	396.07
913.335	387.88
913.709	385.62
914.084	383.36
914.459	363.31
914.833	368.96
915.207	380.54
915.582	382.8
915.956	373.76
916.33	372.63
916.704	362.18
917.078	404.55
917.452	381.95
917.826	376.02
918.2	391.56
918.574	366.13
918.948	378.28
919.321	371.5
919.695	381.67
920.068	376.3
920.442	390.43
920.815	385.62
921.189	396.07
921.562	375.17
921.935	349.46
922.308	359.92
922.681	374.04
923.054	379.69
923.427	368.68
923.8	384.78
924.173	358.79
924.546	363.59
924.919	394.94
925.291	389.86
925.664	363.87
926.036	364.44
926.409	358.5
926.781	370.37
927.153	366.42
927.526	383.08
927.898	424.87
928.27	399.46
928.642	371.78
929.014	363.59
929.386	403.13
929.758	381.11
930.129	378.85
930.501	391.27
930.873	382.8
931.244	388.17
931.616	376.3
931.987	388.45
932.359	382.23
932.73	374.89
933.101	364.16
933.472	405.39
933.843	394.38
934.214	392.4
934.585	388.17
934.956	388.17
935.327	394.94
935.698	374.04
936.069	371.78
936.439	409.06
936.81	360.2
937.18	376.3
937.551	362.74
937.921	381.39
938.292	382.23
938.662	363.59
939.032	372.07
939.402	346.92
939.772	389.86
940.142	391.27
940.512	378.56
940.882	381.95
941.252	367.55
941.621	369.24
941.991	372.91
942.361	365.85
942.73	387.04
943.1	385.06
943.469	355.4
943.838	400.88
944.208	360.2
944.577	402
944.946	385.91
945.315	386.19
945.684	369.81
946.053	376.3
946.422	385.91
946.791	387.6
947.159	363.87
947.528	392.69
947.897	387.04
948.265	377.15
948.634	395.23
949.002	359.63
949.371	376.59
949.739	386.47
950.107	377.72
950.475	363.02
950.843	373.48
951.211	381.95
951.579	380.82
951.947	375.17
952.315	361.33
952.683	400.03
953.05	353.14
953.418	382.8
953.785	365.85
954.153	398.05
954.52	357.66
954.888	380.26
955.255	369.81
955.622	367.55
955.989	386.75
956.356	370.09
956.723	367.83
957.09	388.17
957.457	377.72
957.824	381.39
958.191	377.15
958.557	334.77
958.924	373.76
959.291	381.95
959.657	379.69
960.023	385.06
960.39	384.21
960.756	376.59
961.122	382.23
961.488	363.59
961.855	384.78
962.221	374.61
962.586	364.44
962.952	384.78
963.318	379.41
963.684	394.94
964.05	373.48
964.415	394.38
964.781	370.65
965.146	401.16
965.512	372.35
965.877	384.49
966.242	366.7
966.608	350.59
966.973	365
967.338	363.87
967.703	374.04
968.068	369.81
968.433	392.97
968.797	415.28
969.162	390.71
969.527	381.95
969.891	374.04
970.256	388.73
970.62	359.35
970.985	376.02
971.349	372.35
971.714	376.59
972.078	387.32
972.442	383.08
972.806	387.32
973.17	382.23
973.534	379.41
973.898	393.81
974.262	375.46
974.625	380.82
974.989	370.65
975.353	369.24
975.716	378
976.08	365
976.443	363.87
976.806	372.63
977.17	383.36
977.533	377.43
977.896	370.94
978.259	356.53
978.622	402
978.985	360.48
979.348	372.63
979.711	346.35
980.073	345.51
980.436	390.14
980.799	396.92
981.161	362.46
981.524	366.13
981.886	368.96
982.248	382.8
982.611	398.33
982.973	388.45
983.335	362.46
983.697	381.11
984.059	375.46
984.421	380.26
984.783	364.44
985.145	385.34
985.506	374.33
985.868	377.72
986.23	375.74
986.591	363.31
986.953	359.92
987.314	399.46
987.675	379.69
988.037	927.38
988.398	376.02
988.759	380.26
989.12	368.11
989.481	365
989.842	370.09
990.203	375.46
990.564	365.85
990.924	392.69
991.285	1122.58
991.646	388.73
992.006	380.54
992.367	385.91
992.727	350.87
993.087	357.66
993.448	364.44
993.808	378
994.168	362.46
994.528	361.61
994.888	378
995.248	392.97
995.608	369.81
995.967	377.72
996.327	367.83
996.687	368.11
997.046	381.95
997.406	398.33
997.765	403.13
998.125	393.53
998.484	380.26
998.843	381.11
999.202	379.41
999.561	366.13
999.92	366.7
1000.279	368.39
1000.638	377.15
1000.997	371.78
1001.356	356.81
1001.715	350.03
1002.073	374.04
1002.432	378.28
1002.79	363.02
1003.149	392.4
1003.507	371.22
1003.865	363.87
1004.224	350.31
1004.582	387.88
1004.94	358.22
1005.298	363.59
1005.656	392.97
1006.014	385.34
1006.371	353.42
1006.729	372.63
1007.087	385.06
1007.445	369.81
1007.802	397.77
1008.16	361.05
1008.517	392.69
1008.874	358.5
1009.232	375.17
1009.589	378.85
1009.946	358.5
1010.303	357.94
1010.66	364.72
1011.017	357.66
1011.374	368.39
1011.731	345.79
1012.087	381.39
1012.444	332.22
1012.801	375.46
1013.157	379.69
1013.513	386.75
1013.87	368.68
1014.226	381.67
1014.582	386.75
1014.939	375.74
1015.295	358.5
1015.651	342.4
1016.007	385.91
1016.363	372.91
1016.719	383.08
1017.074	402.57
1017.43	356.53
1017.786	383.36
1018.141	354.83
1018.497	359.07
1018.852	375.74
1019.208	375.74
1019.563	389.3
1019.918	356.24
1020.273	357.94
1020.628	355.96
1020.983	389.58
1021.338	369.52
1021.693	379.98
1022.048	368.96
1022.403	384.49
1022.757	381.95
1023.112	374.89
1023.467	379.13
1023.821	368.68
1024.175	364.44
1024.53	379.98
1024.884	338.44
1025.238	361.89
1025.592	354.27
1025.946	359.92
1026.3	385.34
1026.654	379.69
1027.008	352.29
1027.362	365.57
1027.716	389.3
1028.069	357.66
1028.423	405.39
1028.777	380.54
1029.13	340.14
1029.483	375.17
1029.837	358.79
1030.19	379.13
1030.543	385.34
1030.896	379.69
1031.249	346.92
1031.602	358.79
1031.955	341.27
1032.308	365.57
1032.661	378.56
1033.013	356.53
1033.366	379.69
1033.719	356.24
1034.071	381.95
1034.424	369.81
1034.776	366.7
1035.128	357.37
1035.48	352.29
1035.833	381.95
1036.185	365
1036.537	365
1036.889	365
