Data from SCSF78_irradiation_FLMS019251_04-50-12-894.txt Node
Date: Thu Feb 21 04:50:12 PST 2019
User: mu3e
Spectrometer: FLMS01925
Trigger mode: 0
Integration Time (sec): 6.500000E-2
Scans to average: 10
Electric dark correction enabled: true
Nonlinearity correction enabled: true
Boxcar width: 0
XAxis mode: Wavelengths
Number of Pixels in Spectrum: 2048
>>>>>Begin Spectral Data<<<<<
187.103	-91.67
187.574	-91.67
188.045	-91.67
188.516	-119.82
188.987	-88.83
189.458	-128.92
189.929	-99.35
190.4	-117.55
190.871	-96.79
191.342	-82.01
191.813	-63.25
192.284	-37.11
192.754	-38.53
193.225	33.87
193.696	20.24
194.166	48.34
194.637	83.8
195.107	95.42
195.578	109.03
196.048	122.92
196.518	149
196.989	173.64
197.459	225.46
197.929	233.1
198.399	263.95
198.869	295.34
199.339	277.81
199.809	328.42
200.279	358.38
200.749	329.27
201.219	366.01
201.689	364.88
202.159	406.68
202.628	350.47
203.098	361.49
203.568	372.51
204.037	399.62
204.507	403.58
204.976	412.61
205.445	389.74
205.915	413.18
206.384	404.7
206.853	392
207.323	383.81
207.792	406.4
208.261	386.91
208.73	376.74
209.199	385.78
209.668	388.33
210.137	391.15
210.606	385.78
211.075	379.85
211.543	382.96
212.012	372.79
212.481	358.38
212.95	358.1
213.418	389.46
213.887	394.82
214.355	373.64
214.824	365.44
215.292	338.6
215.76	354.71
216.229	335.77
216.697	355.56
217.165	388.89
217.633	344.82
218.101	332.38
218.569	371.94
219.037	354.14
219.505	375.05
219.973	338.32
220.441	353.58
220.909	367.99
221.377	359.51
221.844	374.48
222.312	353.86
222.78	380.98
223.247	362.9
223.715	351.32
224.182	346.23
224.65	356.97
225.117	368.27
225.584	314.57
226.052	381.83
226.519	359.23
226.986	373.64
227.453	354.14
227.92	363.47
228.387	349.9
228.854	370.25
229.321	376.18
229.788	358.1
230.255	392.56
230.722	356.69
231.189	372.22
231.655	376.18
232.122	361.77
232.589	348.21
233.055	343.69
233.522	370.53
233.988	379.57
234.454	365.44
234.921	376.18
235.387	387.2
235.853	365.16
236.32	386.63
236.786	347.64
237.252	356.4
237.718	370.81
238.184	377.87
238.65	392.84
239.116	382.96
239.582	355.84
240.047	376.18
240.513	384.65
240.979	364.88
241.445	365.16
241.91	378.16
242.376	360.08
242.841	369.4
243.307	383.52
243.772	381.83
244.238	362.05
244.703	358.1
245.168	381.55
245.633	373.35
246.099	367.14
246.564	353.01
247.029	348.77
247.494	363.18
247.959	361.21
248.424	376.18
248.889	385.22
249.353	376.74
249.818	408.66
250.283	360.36
250.748	374.2
251.212	414.31
251.677	366.01
252.141	366.57
252.606	379.57
253.07	391.43
253.535	397.65
253.999	376.74
254.463	389.46
254.927	376.46
255.392	391.43
255.856	370.25
256.32	390.02
256.784	382.39
257.248	374.48
257.712	374.77
258.176	368.27
258.64	386.91
259.103	389.46
259.567	380.7
260.031	340.01
260.495	377.03
260.958	371.09
261.422	373.64
261.885	391.71
262.349	356.97
262.812	342.27
263.275	379.85
263.739	352.16
264.202	382.68
264.665	362.05
265.128	382.96
265.591	387.76
266.054	391.71
266.517	403.01
266.98	387.76
267.443	392
267.906	378.16
268.369	383.81
268.832	393.41
269.294	381.55
269.757	373.64
270.22	388.33
270.682	379.29
271.145	391.15
271.607	373.92
272.07	376.46
272.532	372.51
272.994	381.26
273.456	397.36
273.919	432.09
274.381	397.65
274.843	394.82
275.305	370.53
275.767	399.62
276.229	366.01
276.691	400.47
277.153	410.92
277.614	393.13
278.076	369.68
278.538	396.8
279	373.92
279.461	391.71
279.923	403.01
280.384	379.85
280.846	391.71
281.307	389.46
281.769	361.49
282.23	386.07
282.691	366.29
283.152	401.88
283.613	369.12
284.075	391.43
284.536	366.86
284.997	421.36
285.458	387.2
285.918	392.56
286.379	384.94
286.84	398.49
287.301	389.46
287.762	386.63
288.222	394.82
288.683	386.63
289.143	396.23
289.604	406.4
290.064	366.86
290.525	380.13
290.985	420.52
291.445	403.01
291.906	402.16
292.366	405.83
292.826	379.29
293.286	398.21
293.746	409.79
294.206	413.46
294.666	397.36
295.126	402.16
295.586	396.52
296.046	414.02
296.506	381.26
296.965	386.07
297.425	404.42
297.884	397.36
298.344	376.18
298.804	387.76
299.263	420.52
299.722	395.39
300.182	395.67
300.641	362.62
301.1	377.03
301.559	416.56
302.019	409.22
302.478	409.79
302.937	391.15
303.396	392.84
303.855	404.14
304.314	395.95
304.772	404.99
305.231	376.74
305.69	413.18
306.149	415.72
306.607	411.48
307.066	414.59
307.524	413.18
307.983	396.52
308.441	408.94
308.9	393.13
309.358	391.71
309.816	430.11
310.275	398.49
310.733	374.48
311.191	390.87
311.649	413.74
312.107	401.6
312.565	407.53
313.023	396.23
313.481	411.48
313.939	405.27
314.397	390.87
314.854	392.56
315.312	405.55
315.77	390.3
316.227	416
316.685	395.95
317.142	388.61
317.6	410.07
318.057	393.69
318.514	389.46
318.972	389.17
319.429	397.65
319.886	407.25
320.343	404.42
320.8	395.95
321.257	398.77
321.714	385.5
322.171	412.05
322.628	398.77
323.085	382.68
323.542	394.26
323.998	403.01
324.455	403.29
324.912	390.3
325.368	385.78
325.825	431.81
326.281	390.87
326.738	404.7
327.194	374.77
327.65	408.94
328.107	383.81
328.563	430.96
329.019	422.21
329.475	433.5
329.931	393.69
330.387	412.05
330.843	408.09
331.299	425.03
331.755	412.33
332.211	404.42
332.666	393.41
333.122	417.69
333.578	385.78
334.033	420.23
334.489	389.74
334.944	404.14
335.4	392
335.855	415.72
336.31	400.75
336.766	406.68
337.221	391.71
337.676	403.58
338.131	419.39
338.586	426.44
339.041	416.28
339.496	386.63
339.951	399.62
340.406	414.87
340.861	404.7
341.316	412.33
341.771	412.33
342.225	406.12
342.68	434.07
343.134	397.65
343.589	387.2
344.043	404.99
344.498	419.67
344.952	425.88
345.406	431.24
345.861	398.49
346.315	403.01
346.769	408.66
347.223	412.33
347.677	401.32
348.131	399.34
348.585	415.15
349.039	390.87
349.493	404.14
349.947	413.46
350.401	446.2
350.854	408.66
351.308	384.65
351.762	424.19
352.215	407.81
352.669	421.36
353.122	404.7
353.575	418.54
354.029	402.73
354.482	413.18
354.935	421.93
355.388	402.73
355.842	412.33
356.295	401.03
356.748	396.23
357.201	425.32
357.654	407.53
358.106	404.99
358.559	409.79
359.012	411.2
359.465	407.25
359.917	431.81
360.37	429.55
360.823	416.56
361.275	421.08
361.728	418.82
362.18	423.06
362.632	419.95
363.085	381.83
363.537	386.07
363.989	388.89
364.441	406.4
364.893	420.52
365.345	412.05
365.797	419.67
366.249	406.96
366.701	400.47
367.153	395.1
367.605	425.32
368.057	407.81
368.508	419.1
368.96	412.33
369.411	421.65
369.863	439.71
370.314	416.28
370.766	434.35
371.217	405.27
371.669	412.61
372.12	412.89
372.571	397.36
373.022	429.83
373.473	417.98
373.924	404.7
374.375	404.99
374.826	427.29
375.277	404.7
375.728	425.32
376.179	395.1
376.63	395.95
377.08	408.38
377.531	429.27
377.981	411.48
378.432	406.12
378.883	423.34
379.333	414.02
379.783	433.22
380.234	414.87
380.684	410.07
381.134	434.07
381.584	422.49
382.034	407.53
382.485	424.47
382.935	398.77
383.385	426.73
383.834	438.02
384.284	425.6
384.734	416.85
385.184	407.53
385.634	405.83
386.083	440.28
386.533	423.06
386.982	445.36
387.432	412.33
387.881	428.14
388.331	432.37
388.78	425.88
389.229	434.35
389.679	433.5
390.128	427.29
390.577	439.71
391.026	414.59
391.475	433.22
391.924	434.35
392.373	425.6
392.822	428.42
393.27	434.63
393.719	426.73
394.168	425.88
394.617	413.46
395.065	412.61
395.514	418.82
395.962	437.74
396.411	434.91
396.859	431.81
397.307	414.02
397.756	435.76
398.204	438.02
398.652	439.71
399.1	434.07
399.548	443.1
399.996	438.86
400.444	441.12
400.892	440.56
401.34	433.22
401.788	432.09
402.236	449.59
402.683	439.43
403.131	434.35
403.579	444.79
404.026	443.95
404.474	456.36
404.921	453.26
405.369	442.25
405.816	453.82
406.263	471.03
406.71	462.29
407.158	459.47
407.605	441.69
408.052	471.32
408.499	493.04
408.946	479.78
409.393	491.06
409.84	507.14
410.286	495.29
410.733	523.49
411.18	540.12
411.626	549.14
412.073	619
412.52	636.46
412.966	729.3
413.413	868.34
413.859	1020.02
414.305	1192.36
414.752	1444.57
415.198	1764.23
415.644	2129.29
416.09	2590.24
416.536	3024.05
416.982	3670.4
417.428	4280.07
417.874	5023.3
418.32	5820.77
418.766	6573.19
419.211	7524.71
419.657	8461.85
420.103	9454.76
420.548	10206.78
420.994	11410.4
421.439	12535.09
421.885	13243.79
422.33	14572.18
422.776	15531.51
423.221	16312.17
423.666	17289.38
424.111	18422.04
424.556	19110.48
425.001	20236.22
425.446	21415.92
425.891	22279.22
426.336	22980.9
426.781	24005.29
427.226	25593.56
427.671	26069.73
428.115	26720
428.56	28126.11
429.005	29315.42
429.449	29553.98
429.894	30680.65
430.338	31614.43
430.782	31526.16
431.227	32807.38
431.671	33137.5
432.115	34350.84
432.559	34973.61
433.003	34889.4
433.447	35642.44
433.891	35887.73
434.335	36139.46
434.779	36873.17
435.223	36858.25
435.667	36860.45
436.111	37408.61
436.554	37349.58
436.998	36915.76
437.442	36957.85
437.885	38636.1
438.328	37329.5
438.772	37644.79
439.215	37964.7
439.659	37678.12
440.102	38090.51
440.545	37274.15
440.988	37299.13
441.431	37899.72
441.874	37529.88
442.317	37908.55
442.76	37295.21
443.203	36811.75
443.646	37392.45
444.089	37121.37
444.531	37477.45
444.974	36415
445.417	37179.64
445.859	36547.06
446.302	37354.24
446.744	36782.15
447.186	37820.29
447.629	36907.92
448.071	36869.75
448.513	36837.2
448.956	37917.62
449.398	37381.67
449.84	36384.43
450.282	36722.94
450.724	37163.23
451.166	37005.82
451.607	36809.06
452.049	36913.55
452.491	37745.77
452.933	37273.91
453.374	37826.91
453.816	38054.46
454.257	37728.61
454.699	38576.18
455.14	38301.26
455.582	38050.29
456.023	37993.63
456.464	38237.46
456.905	38559.48
457.347	38454.16
457.788	37641.61
458.229	37832.3
458.67	38622.84
459.111	36976.21
459.552	37086.36
459.992	36822.77
460.433	36618.73
460.874	35909.24
461.315	36855.56
461.755	35966.91
462.196	35465.85
462.636	34958.97
463.077	34739.3
463.517	34822.28
463.957	35013.4
464.398	34640.96
464.838	34678.54
465.278	33911.51
465.718	33930.54
466.158	33085.81
466.598	33592.27
467.038	33148.47
467.478	33419.86
467.918	33531.06
468.358	33019.74
468.798	32797.87
469.237	32689.62
469.677	32626.96
470.117	33283.56
470.556	31347.67
470.996	31828.75
471.435	31921.39
471.874	32518.96
472.314	32198.11
472.753	31477.39
473.192	31785.83
473.631	31315.48
474.07	31669.53
474.509	31598.34
474.948	31771.21
475.387	31267.44
475.826	30600.64
476.265	31694.4
476.704	31494.46
477.143	31856.54
477.581	31433.02
478.02	31937.49
478.458	30845.78
478.897	31433.02
479.335	32422.9
479.774	31926.76
480.212	32170.56
480.65	32017.94
481.089	31844.11
481.527	31387.42
481.965	31205.26
482.403	32537.48
482.841	32368.29
483.279	32398.76
483.717	32470.44
484.155	32005.51
484.592	32407.3
485.03	32531.63
485.468	31881.65
485.905	31912.86
486.343	32282.96
486.781	31809.24
487.218	31302.56
487.655	31411.56
488.093	30652.59
488.53	31622.47
488.967	31047.23
489.405	30934.56
489.842	30231.51
490.279	30313.49
490.716	30049.47
491.153	30377.17
491.59	29857.16
492.027	29339.84
492.463	28992.29
492.9	28486.97
493.337	28424.39
493.773	28368.9
494.21	27772.9
494.647	27698.52
495.083	27117.12
495.519	26805.03
495.956	26774.65
496.392	26238.01
496.828	26081.99
497.265	25440.55
497.701	25706.01
498.137	25413.04
498.573	24773
499.009	25084.76
499.445	24548.89
499.881	24068.1
500.316	24324.68
500.752	23591.27
501.188	23405.08
501.624	23533.08
502.059	22403.33
502.495	22359.08
502.93	22287.13
503.366	22508.62
503.801	21902.48
504.236	21697.02
504.672	21380.98
505.107	21107.1
505.542	20619.89
505.977	20652.65
506.412	20309.01
506.847	20558.57
507.282	20089.11
507.717	19823.35
508.152	19953.39
508.587	19631.32
509.021	19091.54
509.456	18913.37
509.891	18889.94
510.325	18758.31
510.76	18514.87
511.194	18418.3
511.628	18436.02
512.063	17963.59
512.497	17990.57
512.931	17691.65
513.366	17450.04
513.8	17422.77
514.234	17027.23
514.668	17081.83
515.102	17172.48
515.536	16555.53
515.969	16630.01
516.403	16348.81
516.837	16053.57
517.271	16130.16
517.704	15858.36
518.138	15671.09
518.571	15549.11
519.005	15358.9
519.438	15233.29
519.871	15152.2
520.305	14870.27
520.738	14788.84
521.171	14388.45
521.604	14554.52
522.037	14272.55
522.47	14088.37
522.903	13745.99
523.336	13761.42
523.769	13657.16
524.202	13245.31
524.634	13242.02
525.067	13060.96
525.5	12927.76
525.932	12932.58
526.365	12597.36
526.797	12574.49
527.23	12446.11
527.662	12056.99
528.094	11954.07
528.527	11875.58
528.959	11779.2
529.391	11490.09
529.823	11242
530.255	11181.15
530.687	10933.21
531.119	10794.14
531.551	10750.06
531.982	10500.3
532.414	10339.6
532.846	10101.64
533.277	10023.19
533.709	9778.63
534.14	9736.89
534.572	9599.24
535.003	9519.02
535.435	9308.35
535.866	9258.74
536.297	8988.47
536.728	8959.48
537.159	8905.36
537.59	8725.52
538.022	8556.63
538.452	8466.53
538.883	8311.38
539.314	8274.19
539.745	8089.41
540.176	7958.62
540.606	7754.63
541.037	7772.38
541.468	7593.46
541.898	7541.96
542.328	7455.13
542.759	7311.93
543.189	7247.48
543.619	7173.55
544.05	7014.29
544.48	6884.78
544.91	6813.27
545.34	6698.55
545.77	6691.18
546.2	6678.02
546.63	6486.99
547.06	6528.38
547.489	6358.76
547.919	6162.17
548.349	6184.65
548.778	6158.74
549.208	6020.87
549.637	5927.36
550.067	5905.36
550.496	5806.71
550.926	5750.19
551.355	5577.25
551.784	5599.58
552.213	5564.48
552.642	5430.65
553.071	5390.17
553.5	5290.51
553.929	5152.59
554.358	5172.87
554.787	5115.47
555.216	5084.76
555.645	5032.92
556.073	4918.73
556.502	4869.21
556.93	4770.38
557.359	4802.8
557.787	4803.33
558.216	4687.27
558.644	4593.08
559.072	4594.69
559.5	4510.62
559.929	4487.24
560.357	4488.32
560.785	4396.9
561.213	4391.51
561.641	4264.18
562.068	4325.58
562.496	4224.3
562.924	4216.21
563.352	4192.49
563.779	4158.51
564.207	4191.14
564.634	4119.94
565.062	4061.1
565.489	4010.87
565.917	4057.86
566.344	3980.88
566.771	3937.63
567.198	3888.14
567.625	3882.73
568.053	3801
568.48	3831.86
568.907	3720.82
569.333	3699.68
569.76	3557.53
570.187	3633.25
570.614	3539.61
571.04	4563.27
571.467	3455.66
571.894	3395.84
572.32	3317.2
572.747	3252.93
573.173	3236.04
573.599	3205.78
574.026	3110.87
574.452	3097.77
574.878	3058.19
575.304	2978.96
575.73	2977.05
576.156	2909.79
576.582	2864.64
577.008	2812.9
577.434	2749.89
577.86	2667.91
578.285	2703.01
578.711	2656.38
579.137	2629.49
579.562	2541.35
579.988	2566.89
580.413	2521.01
580.838	2471.26
581.264	2448.43
581.689	2373.03
582.114	2383.49
582.539	2426.42
582.964	2311.34
583.39	2307.48
583.814	2234.71
584.239	2203.81
584.664	2187.26
585.089	2153.31
585.514	2120.46
585.939	2133.43
586.363	2053.32
586.788	2052.21
587.212	2028.99
587.637	1992.21
588.061	1982.25
588.485	1975.89
588.91	1915.83
589.334	1938.25
589.758	1904.2
590.182	1826.07
590.606	1837.71
591.03	1783.65
591.454	1739.54
591.878	1737.6
592.302	1760.35
592.726	1722.61
593.15	1735.93
593.573	1688.19
593.997	1689.3
594.42	1650.14
594.844	1614.29
595.267	1611.24
595.691	1579.26
596.114	1586.22
596.537	1531.98
596.96	1565.08
597.384	1545.06
597.807	1520.85
598.23	1501.93
598.653	1491.07
599.076	1484.39
599.499	1454.04
599.921	1447.63
600.344	1442.62
600.767	1443.45
601.189	1443.73
601.612	1415.04
602.034	1427.02
602.457	1399.99
602.879	1399.43
603.302	1415.04
603.724	1356.22
604.146	1401.1
604.568	1379.64
604.991	1369.05
605.413	1364.59
605.835	1369.6
606.257	1354.55
606.678	1328.61
607.1	1338.65
607.522	1335.58
607.944	1313.54
608.365	1276.98
608.787	1297.36
609.209	1289.54
609.63	1229.23
610.051	1251.58
610.473	1259.4
610.894	1260.23
611.315	1202.14
611.737	1214.43
612.158	1191.24
612.579	1169.16
613	1168.04
613.421	1153.22
613.842	1151.27
614.263	1126.38
614.683	1126.1
615.104	1122.46
615.525	1074.34
615.945	1074.06
616.366	1057.26
616.787	1086.09
617.207	1070.98
617.627	1057.26
618.048	1004.05
618.468	1016.1
618.888	1001.25
619.308	1000.41
619.728	979.68
620.148	949.69
620.568	963.14
620.988	965.38
621.408	987.8
621.828	943.8
622.248	944.92
622.668	933.14
623.087	956.13
623.507	933.43
623.926	913.23
624.346	904.82
624.765	896.12
625.185	875.36
625.604	858.8
626.023	879.85
626.442	876.2
626.861	857.4
627.28	859.36
627.699	847.29
628.118	856.28
628.537	824.55
628.956	820.9
629.375	790.57
629.794	800.96
630.212	798.71
630.631	781.01
631.049	797.59
631.468	780.17
631.886	749.26
632.305	768.09
632.723	780.73
633.141	770.62
633.559	769.49
633.978	765
634.396	745.32
634.814	766.96
635.232	736.61
635.65	766.68
636.067	737.45
636.485	732.95
636.903	736.89
637.321	712.43
637.738	710.74
638.156	714.68
638.573	672.48
638.991	688.24
639.408	688.52
639.825	667.42
640.243	658.41
640.66	662.35
641.077	696.4
641.494	655.32
641.911	673.61
642.328	640.96
642.745	659.82
643.162	639.84
643.579	676.42
643.995	662.07
644.412	644.06
644.829	648.84
645.245	635.05
645.662	622.66
646.078	628.01
646.495	620.98
646.911	641.25
647.327	616.47
647.743	626.32
648.159	603.23
648.576	617.6
648.992	655.04
649.408	622.38
649.824	617.6
650.239	608.02
650.655	620.98
651.071	577.32
651.487	578.73
651.902	581.83
652.318	608.3
652.733	606.05
653.149	581.26
653.564	561.82
653.979	600.98
654.395	576.76
654.81	544.07
655.225	575.63
655.64	585.77
656.055	573.38
656.47	568.59
656.885	570.28
657.3	571.97
657.715	582.95
658.13	570
658.544	562.67
658.959	558.72
659.374	559.01
659.788	575.91
660.202	562.95
660.617	547.45
661.031	544.35
661.445	535.61
661.86	518.42
662.274	516.44
662.688	545.48
663.102	535.05
663.516	528.85
663.93	523.49
664.344	534.49
664.758	517.57
665.171	539.56
665.585	518.98
665.999	537.59
666.412	512.21
666.826	540.97
667.239	512.21
667.653	499.81
668.066	505.16
668.479	534.77
668.892	530.82
669.306	523.49
669.719	528.57
670.132	497.83
670.545	495.29
670.958	540.97
671.37	503.19
671.783	491.91
672.196	506.57
672.609	496.14
673.021	479.78
673.434	517.57
673.846	493.32
674.259	519.54
674.671	502.06
675.084	504.88
675.496	482.88
675.908	472.44
676.32	505.16
676.732	482.04
677.144	493.6
677.556	496.7
677.968	473.01
678.38	477.8
678.792	469.06
679.204	478.37
679.615	498.96
680.027	475.83
680.439	460.88
680.85	471.32
681.262	484.86
681.673	475.55
682.084	471.03
682.496	478.37
682.907	484.29
683.318	484.01
683.729	481.75
684.14	490.22
684.551	469.06
684.962	469.34
685.373	480.06
685.784	455.8
686.194	489.09
686.605	459.47
687.016	463.98
687.426	478.65
687.837	471.32
688.247	427.57
688.657	439.43
689.068	460.59
689.478	444.23
689.888	471.32
690.298	442.53
690.708	445.36
691.118	476.68
691.528	435.48
691.938	440.56
692.348	437.45
692.758	444.79
693.168	465.96
693.577	447.33
693.987	451
694.396	451
694.806	448.46
695.215	430.68
695.625	432.09
696.034	467.65
696.443	443.95
696.852	478.65
697.262	445.07
697.671	443.38
698.08	467.93
698.489	442.25
698.897	445.64
699.306	456.64
699.715	447.61
700.124	446.77
700.532	442.82
700.941	469.91
701.35	436.61
701.758	447.9
702.166	434.63
702.575	429.83
702.983	435.76
703.391	436.04
703.799	438.58
704.208	443.1
704.616	405.55
705.024	430.11
705.432	446.77
705.839	411.76
706.247	449.31
706.655	440.84
707.063	428.99
707.47	427.29
707.878	416
708.285	420.52
708.693	441.69
709.1	421.65
709.508	443.38
709.915	405.55
710.322	414.31
710.729	421.65
711.136	407.81
711.543	425.6
711.95	434.35
712.357	418.54
712.764	425.88
713.171	413.74
713.578	405.27
713.984	413.18
714.391	448.46
714.797	432.37
715.204	417.69
715.61	449.03
716.017	414.59
716.423	417.69
716.829	426.16
717.236	431.24
717.642	422.49
718.048	417.13
718.454	412.33
718.86	402.45
719.266	422.21
719.671	409.51
720.077	432.94
720.483	443.1
720.889	407.25
721.294	416.56
721.7	403.29
722.105	428.14
722.511	384.65
722.916	433.78
723.321	417.98
723.726	441.97
724.132	412.05
724.537	418.82
724.942	388.04
725.347	412.05
725.752	423.06
726.156	437.17
726.561	420.8
726.966	417.69
727.371	419.67
727.775	446.77
728.18	408.09
728.584	397.93
728.989	415.43
729.393	416.56
729.798	374.77
730.202	430.68
730.606	399.9
731.01	432.37
731.414	423.62
731.818	392.84
732.222	428.99
732.626	430.4
733.03	404.42
733.434	430.4
733.837	381.83
734.241	425.03
734.645	399.34
735.048	393.97
735.452	407.81
735.855	409.51
736.258	404.7
736.662	416.56
737.065	418.26
737.468	383.52
737.871	403.29
738.274	419.39
738.677	423.9
739.08	419.39
739.483	424.19
739.886	419.39
740.289	406.68
740.691	387.48
741.094	388.89
741.497	409.22
741.899	397.65
742.302	406.12
742.704	434.63
743.106	396.52
743.508	399.06
743.911	392
744.313	397.08
744.715	406.4
745.117	427.86
745.519	419.1
745.921	430.4
746.323	392
746.724	443.38
747.126	419.95
747.528	415.72
747.929	425.32
748.331	423.62
748.732	418.26
749.134	410.07
749.535	406.4
749.936	397.93
750.338	397.65
750.739	423.34
751.14	414.59
751.541	396.23
751.942	407.53
752.343	402.16
752.744	394.82
753.144	403.01
753.545	424.47
753.946	397.65
754.346	380.98
754.747	428.7
755.148	423.06
755.548	413.18
755.948	403.86
756.349	373.64
756.749	406.96
757.149	405.55
757.549	419.67
757.949	401.88
758.349	376.74
758.749	411.48
759.149	383.81
759.549	387.76
759.949	392
760.348	420.8
760.748	405.27
761.148	404.7
761.547	426.44
761.947	393.97
762.346	416.85
762.745	402.45
763.145	401.32
763.544	407.81
763.943	377.59
764.342	423.9
764.741	426.16
765.14	390.87
765.539	391.15
765.938	407.53
766.336	377.31
766.735	402.45
767.134	408.09
767.532	392.56
767.931	400.19
768.329	435.48
768.728	395.39
769.126	405.55
769.525	375.9
769.923	410.63
770.321	401.88
770.719	395.1
771.117	421.93
771.515	394.82
771.913	419.95
772.311	394.54
772.709	399.06
773.106	387.76
773.504	408.94
773.902	371.66
774.299	421.65
774.697	426.16
775.094	394.54
775.491	420.52
775.889	399.62
776.286	379.85
776.683	376.46
777.08	403.29
777.477	394.54
777.874	443.95
778.271	420.23
778.668	387.2
779.065	389.74
779.462	389.46
779.858	399.62
780.255	398.21
780.652	408.09
781.048	401.6
781.444	399.34
781.841	421.65
782.237	395.39
782.633	382.39
783.03	360.64
783.426	396.52
783.822	397.08
784.218	384.37
784.614	393.97
785.01	384.37
785.405	423.9
785.801	406.12
786.197	396.23
786.593	406.12
786.988	398.49
787.384	392.84
787.779	374.77
788.174	394.26
788.57	424.47
788.965	403.01
789.36	357.82
789.755	381.26
790.15	422.21
790.545	392.84
790.94	383.81
791.335	395.1
791.73	395.1
792.125	410.35
792.52	400.75
792.914	368.55
793.309	376.74
793.703	402.73
794.098	384.37
794.492	388.61
794.887	402.45
795.281	408.38
795.675	395.95
796.069	413.18
796.463	388.61
796.857	410.63
797.251	407.53
797.645	388.89
798.039	390.3
798.433	398.77
798.826	395.1
799.22	385.5
799.614	365.44
800.007	386.07
800.401	391.71
800.794	389.46
801.187	400.75
801.581	403.58
801.974	397.08
802.367	413.46
802.76	413.18
803.153	379.85
803.546	389.17
803.939	379.57
804.332	413.18
804.725	405.27
805.117	403.58
805.51	395.1
805.903	400.75
806.295	444.51
806.688	393.97
807.08	395.95
807.472	383.24
807.865	387.48
808.257	402.45
808.649	400.19
809.041	410.92
809.433	376.74
809.825	406.96
810.217	417.13
810.609	377.87
811.001	385.78
811.392	378.16
811.784	414.02
812.175	404.14
812.567	387.48
812.958	406.96
813.35	402.16
813.741	375.05
814.132	393.97
814.524	400.75
814.915	398.21
815.306	381.55
815.697	402.73
816.088	418.54
816.479	399.9
816.87	395.39
817.26	388.89
817.651	411.76
818.042	429.27
818.432	403.01
818.823	404.14
819.213	407.53
819.604	410.07
819.994	384.94
820.384	400.19
820.775	415.72
821.165	358.66
821.555	373.35
821.945	409.51
822.335	396.23
822.725	418.82
823.114	375.61
823.504	417.13
823.894	362.9
824.284	376.74
824.673	378.72
825.063	379
825.452	384.37
825.842	424.75
826.231	406.4
826.62	383.81
827.009	410.92
827.399	427.57
827.788	397.65
828.177	408.38
828.566	401.32
828.954	418.26
829.343	416
829.732	403.29
830.121	378.44
830.509	425.03
830.898	390.3
831.286	398.21
831.675	389.46
832.063	404.14
832.452	413.18
832.84	409.79
833.228	423.34
833.616	394.26
834.004	367.7
834.392	400.47
834.78	389.17
835.168	380.98
835.556	400.47
835.944	376.18
836.331	380.13
836.719	389.17
837.107	382.96
837.494	374.48
837.881	337.19
838.269	402.73
838.656	390.87
839.043	381.55
839.431	391.71
839.818	396.23
840.205	373.07
840.592	381.26
840.979	377.31
841.366	404.7
841.752	408.66
842.139	400.47
842.526	406.68
842.912	400.47
843.299	385.5
843.685	390.3
844.072	377.03
844.458	409.79
844.844	382.39
845.231	364.03
845.617	386.07
846.003	423.34
846.389	395.67
846.775	369.68
847.161	409.22
847.547	386.35
847.933	400.47
848.318	416.28
848.704	376.46
849.09	389.17
849.475	379
849.861	415.43
850.246	393.69
850.631	406.96
851.017	372.22
851.402	358.66
851.787	385.78
852.172	406.4
852.557	385.78
852.942	373.64
853.327	401.88
853.712	397.36
854.097	366.29
854.481	379
854.866	375.9
855.25	409.79
855.635	380.42
856.019	375.61
856.404	392.56
856.788	390.87
857.172	391.43
857.557	371.38
857.941	392.28
858.325	389.46
858.709	390.58
859.093	386.35
859.477	395.95
859.86	371.94
860.244	372.79
860.628	402.16
861.012	396.23
861.395	392.56
861.779	400.19
862.162	388.61
862.545	388.89
862.929	366.57
863.312	384.37
863.695	384.94
864.078	390.87
864.461	377.87
864.844	381.26
865.227	392
865.61	383.81
865.993	375.05
866.376	382.39
866.758	398.21
867.141	373.64
867.523	401.03
867.906	380.13
868.288	399.62
868.671	400.75
869.053	365.73
869.435	367.99
869.817	398.49
870.199	379.57
870.581	390.87
870.963	383.52
871.345	385.22
871.727	373.35
872.109	374.2
872.491	362.34
872.872	376.18
873.254	356.97
873.635	372.51
874.017	406.12
874.398	373.07
874.779	397.36
875.161	408.94
875.542	390.3
875.923	366.86
876.304	387.2
876.685	392.84
877.066	382.39
877.447	382.39
877.828	374.77
878.208	394.54
878.589	377.31
878.97	404.99
879.35	388.04
879.731	404.14
880.111	374.2
880.491	403.29
880.872	390.87
881.252	383.24
881.632	388.04
882.012	404.14
882.392	387.2
882.772	408.38
883.152	380.98
883.532	383.24
883.912	407.25
884.291	386.07
884.671	376.18
885.051	411.76
885.43	402.16
885.81	368.27
886.189	390.02
886.568	387.48
886.948	402.45
887.327	403.29
887.706	391.43
888.085	395.39
888.464	398.21
888.843	406.4
889.222	390.87
889.601	400.19
889.979	380.98
890.358	396.52
890.737	381.55
891.115	363.47
891.494	406.4
891.872	392.84
892.25	382.68
892.629	386.07
893.007	389.17
893.385	409.79
893.763	395.95
894.141	405.27
894.519	377.87
894.897	370.25
895.275	386.91
895.653	376.74
896.03	367.42
896.408	379.57
896.786	409.22
897.163	375.05
897.541	371.94
897.918	389.17
898.295	395.1
898.673	379.85
899.05	405.27
899.427	431.81
899.804	409.51
900.181	364.6
900.558	405.83
900.935	365.73
901.312	404.99
901.688	351.03
902.065	389.74
902.442	369.4
902.818	386.35
903.195	417.41
903.571	410.63
903.947	390.58
904.324	386.63
904.7	366.29
905.076	373.92
905.452	387.48
905.828	391.43
906.204	376.18
906.58	385.22
906.956	414.31
907.331	399.34
907.707	395.67
908.083	402.73
908.458	383.81
908.834	409.79
909.209	388.04
909.585	362.05
909.96	384.94
910.335	372.22
910.71	393.97
911.086	380.13
911.461	390.02
911.836	396.23
912.21	374.48
912.585	392.56
912.96	381.83
913.335	390.87
913.709	389.74
914.084	374.48
914.459	388.33
914.833	386.63
915.207	384.65
915.582	372.51
915.956	373.92
916.33	365.44
916.704	401.6
917.078	387.76
917.452	384.37
917.826	379
918.2	373.64
918.574	375.9
918.948	355.27
919.321	384.65
919.695	371.66
920.068	392.28
920.442	405.83
920.815	370.53
921.189	397.65
921.562	394.54
921.935	373.07
922.308	382.68
922.681	384.09
923.054	367.7
923.427	384.94
923.8	378.16
924.173	397.65
924.546	380.42
924.919	365.44
925.291	390.87
925.664	377.87
926.036	380.98
926.409	382.11
926.781	387.76
927.153	395.67
927.526	403.29
927.898	367.14
928.27	383.52
928.642	390.87
929.014	371.94
929.386	380.13
929.758	397.36
930.129	389.17
930.501	388.61
930.873	369.4
931.244	410.63
931.616	375.33
931.987	375.61
932.359	391.15
932.73	383.81
933.101	362.62
933.472	379.29
933.843	375.05
934.214	395.95
934.585	375.61
934.956	364.31
935.327	390.58
935.698	369.4
936.069	364.88
936.439	380.13
936.81	388.33
937.18	397.65
937.551	392.28
937.921	375.05
938.292	398.77
938.662	351.6
939.032	384.65
939.402	378.16
939.772	373.35
940.142	377.59
940.512	369.96
940.882	395.1
941.252	386.63
941.621	390.02
941.991	380.7
942.361	373.07
942.73	394.82
943.1	379.85
943.469	361.49
943.838	390.58
944.208	370.81
944.577	376.74
944.946	385.78
945.315	365.16
945.684	379
946.053	383.52
946.422	388.33
946.791	355.56
947.159	388.33
947.528	347.36
947.897	374.48
948.265	383.52
948.634	375.61
949.002	384.65
949.371	380.42
949.739	415.72
950.107	368.27
950.475	377.03
950.843	387.48
951.211	409.51
951.579	419.67
951.947	394.26
952.315	388.33
952.683	395.67
953.05	356.97
953.418	372.51
953.785	358.95
954.153	367.99
954.52	394.54
954.888	379
955.255	382.96
955.622	376.74
955.989	381.26
956.356	400.47
956.723	393.97
957.09	390.02
957.457	389.74
957.824	384.94
958.191	380.98
958.557	398.49
958.924	384.37
959.291	371.94
959.657	364.31
960.023	396.8
960.39	387.48
960.756	376.74
961.122	386.63
961.488	384.94
961.855	386.63
962.221	359.79
962.586	377.03
962.952	379.57
963.318	394.82
963.684	396.52
964.05	379.29
964.415	374.2
964.781	371.66
965.146	364.88
965.512	373.64
965.877	386.63
966.242	379.29
966.608	386.91
966.973	375.9
967.338	352.73
967.703	391.43
968.068	385.5
968.433	360.92
968.797	409.22
969.162	380.98
969.527	393.13
969.891	397.65
970.256	403.86
970.62	406.4
970.985	371.09
971.349	370.25
971.714	386.91
972.078	395.95
972.442	353.58
972.806	371.38
973.17	401.03
973.534	373.07
973.898	360.36
974.262	376.18
974.625	391.43
974.989	369.12
975.353	378.16
975.716	387.76
976.08	374.2
976.443	369.96
976.806	399.34
977.17	387.76
977.533	370.25
977.896	366.57
978.259	385.78
978.622	403.29
978.985	384.37
979.348	399.9
979.711	384.65
980.073	384.94
980.436	372.22
980.799	392
981.161	375.9
981.524	367.7
981.886	373.35
982.248	370.25
982.611	397.08
982.973	384.65
983.335	371.66
983.697	373.92
984.059	380.42
984.421	372.22
984.783	367.7
985.145	362.9
985.506	389.74
985.868	362.9
986.23	368.83
986.591	356.97
986.953	383.52
987.314	383.24
987.675	374.2
988.037	1224.21
988.398	413.74
988.759	390.58
989.12	401.88
989.481	391.15
989.842	388.89
990.203	360.64
990.564	378.72
990.924	399.06
991.285	1067.9
991.646	403.58
992.006	366.57
992.367	387.76
992.727	384.37
993.087	369.68
993.448	368.55
993.808	398.21
994.168	354.71
994.528	383.81
994.888	386.35
995.248	376.18
995.608	396.52
995.967	394.26
996.327	391.15
996.687	400.19
997.046	391.71
997.406	371.38
997.765	360.08
998.125	379.29
998.484	386.07
998.843	380.42
999.202	384.65
999.561	389.46
999.92	362.05
1000.279	381.26
1000.638	374.2
1000.997	375.05
1001.356	375.33
1001.715	366.57
1002.073	364.88
1002.432	377.59
1002.79	369.68
1003.149	382.11
1003.507	348.49
1003.865	410.35
1004.224	380.7
1004.582	377.31
1004.94	390.3
1005.298	383.81
1005.656	351.03
1006.014	379.85
1006.371	382.11
1006.729	356.12
1007.087	382.39
1007.445	375.33
1007.802	367.7
1008.16	360.64
1008.517	382.68
1008.874	382.11
1009.232	368.27
1009.589	410.07
1009.946	380.98
1010.303	369.68
1010.66	385.22
1011.017	399.34
1011.374	367.14
1011.731	408.66
1012.087	364.88
1012.444	348.21
1012.801	375.61
1013.157	371.09
1013.513	359.23
1013.87	373.92
1014.226	358.95
1014.582	373.64
1014.939	378.44
1015.295	390.58
1015.651	361.49
1016.007	364.31
1016.363	387.2
1016.719	376.74
1017.074	372.79
1017.43	384.65
1017.786	381.55
1018.141	391.43
1018.497	384.37
1018.852	376.74
1019.208	381.83
1019.563	359.23
1019.918	390.02
1020.273	375.61
1020.628	379.57
1020.983	370.25
1021.338	390.87
1021.693	383.81
1022.048	379.57
1022.403	366.57
1022.757	358.38
1023.112	352.16
1023.467	389.17
1023.821	386.63
1024.175	380.42
1024.53	387.76
1024.884	404.14
1025.238	372.79
1025.592	380.7
1025.946	366.86
1026.3	356.97
1026.654	356.97
1027.008	362.34
1027.362	402.73
1027.716	390.3
1028.069	369.68
1028.423	366.29
1028.777	349.9
1029.13	381.55
1029.483	395.95
1029.837	379
1030.19	413.74
1030.543	377.59
1030.896	380.13
1031.249	363.47
1031.602	372.51
1031.955	391.15
1032.308	394.26
1032.661	375.9
1033.013	400.47
1033.366	382.96
1033.719	377.59
1034.071	386.07
1034.424	349.34
1034.776	375.33
1035.128	382.11
1035.48	359.51
1035.833	401.32
1036.185	395.39
1036.537	395.39
1036.889	395.39
