Data from SCSF78_irradiation_FLMS019251_04-01-13-239.txt Node
Date: Thu Feb 21 04:01:13 PST 2019
User: mu3e
Spectrometer: FLMS01925
Trigger mode: 0
Integration Time (sec): 6.500000E-2
Scans to average: 10
Electric dark correction enabled: true
Nonlinearity correction enabled: true
Boxcar width: 0
XAxis mode: Wavelengths
Number of Pixels in Spectrum: 2048
>>>>>Begin Spectral Data<<<<<
187.103	-100.9
187.574	-100.9
188.045	-100.9
188.516	-121.94
188.987	-122.22
189.458	-117.96
189.929	-137.58
190.4	-106.3
190.871	-75.88
191.342	-88.96
191.813	-79.29
192.284	-40.36
192.754	-39.8
193.225	-9.12
193.696	27.78
194.166	51.05
194.637	92.18
195.107	111.18
195.578	130.74
196.048	140.37
196.518	140.94
196.989	168.14
197.459	191.08
197.929	215.71
198.399	274.57
198.869	310.77
199.339	300.31
199.809	316.71
200.279	325.76
200.749	345.82
201.219	318.12
201.689	348.37
202.159	352.32
202.628	377.75
203.098	359.67
203.568	386.79
204.037	383.68
204.507	399.5
204.976	413.9
205.445	399.5
205.915	370.97
206.384	378.6
206.853	392.44
207.323	411.36
207.792	395.26
208.261	361.65
208.73	353.74
209.199	403.73
209.668	402.04
210.137	388.48
210.606	367.02
211.075	405.99
211.543	372.67
212.012	395.54
212.481	368.15
212.95	352.89
213.418	345.82
213.887	339.04
214.355	359.1
214.824	363.63
215.292	329.43
215.76	371.82
216.229	348.93
216.697	352.32
217.165	360.23
217.633	348.37
218.101	329.71
218.569	371.54
219.037	352.04
219.505	376.34
219.973	344.41
220.441	352.89
220.909	344.69
221.377	348.65
221.844	339.04
222.312	337.63
222.78	360.52
223.247	358.82
223.715	338.48
224.182	375.49
224.65	374.64
225.117	361.93
225.584	347.52
226.052	344.98
226.519	363.91
226.986	359.1
227.453	334.24
227.92	358.26
228.387	370.69
228.854	349.21
229.321	358.54
229.788	364.76
230.255	369.56
230.722	364.76
231.189	375.77
231.655	342.15
232.122	351.19
232.589	390.18
233.055	380.29
233.522	377.47
233.988	368.15
234.454	357.41
234.921	378.03
235.387	360.23
235.853	379.45
236.32	370.41
236.786	354.58
237.252	350.63
237.718	381.99
238.184	367.86
238.65	367.58
239.116	390.74
239.582	365.32
240.047	348.37
240.513	367.86
240.979	390.46
241.445	379.45
241.91	364.76
242.376	354.3
242.841	389.61
243.307	371.54
243.772	369.28
244.238	359.39
244.703	356.28
245.168	368.43
245.633	380.86
246.099	369.56
246.564	369.84
247.029	380.29
247.494	405.71
247.959	393
248.424	361.37
248.889	379.16
249.353	384.53
249.818	364.76
250.283	379.16
250.748	378.88
251.212	382.27
251.677	375.77
252.141	388.48
252.606	375.21
253.07	359.95
253.535	384.25
253.999	361.37
254.463	405.43
254.927	389.33
255.392	381.14
255.856	358.82
256.32	376.62
256.784	363.06
257.248	371.25
257.712	378.6
258.176	359.39
258.64	375.49
259.103	349.78
259.567	387.64
260.031	355.43
260.495	369.56
260.958	418.7
261.422	387.07
261.885	375.77
262.349	375.21
262.812	390.74
263.275	361.08
263.739	385.66
264.202	394.13
264.665	385.66
265.128	372.38
265.591	402.32
266.054	386.22
266.517	380.58
266.98	363.91
267.443	374.64
267.906	370.97
268.369	385.66
268.832	380.01
269.294	374.64
269.757	358.82
270.22	357.41
270.682	423.78
271.145	387.07
271.607	376.34
272.07	419.83
272.532	388.77
272.994	372.67
273.456	373.51
273.919	417.29
274.381	407.97
274.843	377.19
275.305	399.22
275.767	354.58
276.229	402.32
276.691	382.27
277.153	377.47
277.614	385.09
278.076	376.34
278.538	389.05
279	362.5
279.461	391.31
279.923	400.35
280.384	360.52
280.846	390.46
281.307	388.2
281.769	378.88
282.23	390.46
282.691	410.79
283.152	363.63
283.613	396.11
284.075	381.14
284.536	406.56
284.997	389.05
285.458	349.78
285.918	361.37
286.379	411.08
286.84	401.76
287.301	374.93
287.762	395.83
288.222	387.35
288.683	404.3
289.143	394.98
289.604	402.6
290.064	394.98
290.525	385.66
290.985	385.09
291.445	383.96
291.906	391.31
292.366	358.26
292.826	392.16
293.286	404.58
293.746	400.63
294.206	396.96
294.666	361.65
295.126	393
295.586	376.06
296.046	384.25
296.506	395.54
296.965	415.31
297.425	407.41
297.884	385.94
298.344	394.13
298.804	426.6
299.263	409.38
299.722	368.43
300.182	390.74
300.641	401.48
301.1	400.63
301.559	380.58
302.019	398.37
302.478	385.66
302.937	404.3
303.396	388.48
303.855	413.05
304.314	389.05
304.772	418.7
305.231	377.19
305.69	401.19
306.149	383.12
306.607	402.04
307.066	381.14
307.524	416.44
307.983	408.53
308.441	399.78
308.9	391.59
309.358	390.18
309.816	421.8
310.275	390.74
310.733	375.77
311.191	393.85
311.649	398.93
312.107	405.43
312.565	408.82
313.023	389.33
313.481	378.32
313.939	376.62
314.397	376.9
314.854	363.63
315.312	382.84
315.77	384.53
316.227	412.49
316.685	389.9
317.142	395.83
317.6	393.85
318.057	404.3
318.514	398.93
318.972	412.49
319.429	405.43
319.886	410.23
320.343	411.08
320.8	413.9
321.257	399.22
321.714	404.3
322.171	391.87
322.628	400.35
323.085	388.2
323.542	404.02
323.998	397.8
324.455	383.12
324.912	392.16
325.368	387.64
325.825	409.38
326.281	400.91
326.738	412.77
327.194	404.02
327.65	400.06
328.107	374.36
328.563	382.27
329.019	414.75
329.475	414.75
329.931	384.25
330.387	394.13
330.843	406.28
331.299	408.25
331.755	400.06
332.211	416.44
332.666	396.67
333.122	432.53
333.578	413.33
334.033	424.63
334.489	418.7
334.944	393.85
335.4	415.31
335.855	413.9
336.31	393
336.766	391.31
337.221	406.56
337.676	406.56
338.131	384.81
338.586	407.69
339.041	399.5
339.496	399.22
339.951	426.89
340.406	406.56
340.861	396.11
341.316	392.44
341.771	404.3
342.225	401.19
342.68	395.83
343.134	402.6
343.589	400.91
344.043	412.21
344.498	395.26
344.952	407.12
345.406	470.91
345.861	396.96
346.315	403.17
346.769	416.72
347.223	402.89
347.677	394.42
348.131	408.82
348.585	424.35
349.039	428.02
349.493	424.06
349.947	420.96
350.401	406.56
350.854	389.61
351.308	424.35
351.762	419.83
352.215	401.19
352.669	377.47
353.122	431.68
353.575	385.66
354.029	368.43
354.482	397.24
354.935	422.65
355.388	379.16
355.842	405.15
356.295	412.49
356.748	423.78
357.201	380.01
357.654	416.16
358.106	399.5
358.559	417
359.012	388.48
359.465	413.62
359.917	400.63
360.37	401.19
360.823	409.1
361.275	411.92
361.728	403.73
362.18	406.56
362.632	428.86
363.085	402.89
363.537	412.77
363.989	431.12
364.441	406.84
364.893	413.9
365.345	397.8
365.797	431.12
366.249	421.52
366.701	359.39
367.153	425.19
367.605	435.35
368.057	394.98
368.508	424.63
368.96	416.44
369.411	390.46
369.863	413.05
370.314	404.86
370.766	404.02
371.217	431.12
371.669	413.9
372.12	422.37
372.571	384.25
373.022	405.43
373.473	418.13
373.924	405.71
374.375	419.83
374.826	427.17
375.277	404.58
375.728	420.39
376.179	414.46
376.63	401.19
377.08	425.19
377.531	400.35
377.981	393.85
378.432	420.39
378.883	414.46
379.333	428.3
379.783	412.77
380.234	405.99
380.684	417
381.134	432.81
381.584	457.09
382.034	427.45
382.485	423.78
382.935	401.76
383.385	443.26
383.834	431.12
384.284	412.77
384.734	411.36
385.184	424.35
385.634	415.31
386.083	426.89
386.533	425.47
386.982	392.44
387.432	422.09
387.881	418.13
388.331	423.5
388.78	426.6
389.229	423.22
389.679	424.63
390.128	418.7
390.577	416.44
391.026	417.85
391.475	402.6
391.924	444.39
392.373	442.41
392.822	422.09
393.27	444.67
393.719	445.8
394.168	426.89
394.617	422.37
395.065	427.73
395.514	439.31
395.962	444.39
396.411	404.58
396.859	435.35
397.307	415.03
397.756	427.73
398.204	417.57
398.652	417
399.1	415.31
399.548	410.23
399.996	452.01
400.444	445.23
400.892	440.15
401.34	444.95
401.788	429.14
402.236	434.79
402.683	435.35
403.131	435.35
403.579	450.31
404.026	465.83
404.474	463.58
404.921	451.44
405.369	442.41
405.816	429.99
406.263	437.89
406.71	455.96
407.158	457.65
407.605	481.91
408.052	476.55
408.499	458.5
408.946	472.89
409.393	462.73
409.84	472.89
410.286	488.12
410.733	540
411.18	543.1
411.626	597.76
412.073	612.97
412.52	667.3
412.966	748.85
413.413	888.43
413.859	1025.5
414.305	1235.82
414.752	1498.46
415.198	1812.64
415.644	2241.76
416.09	2693.02
416.536	3223.38
416.982	3836.61
417.428	4524.21
417.874	5296.79
418.32	6082.43
418.766	6960.6
419.211	7960.33
419.657	8931.92
420.103	10019.22
420.548	10822.72
420.994	12051.53
421.439	13164.07
421.885	14048.08
422.33	15392.26
422.776	16425.98
423.221	17192.65
423.666	18285.65
424.111	19430.37
424.556	20206.05
425.001	21433.15
425.446	22614.77
425.891	23581.05
426.336	24352.39
426.781	25236.78
427.226	27083.22
427.671	27589.76
428.115	28256.09
428.56	29614.66
429.005	31002.49
429.449	31264.9
429.894	32465.94
430.338	33433.66
430.782	33358.8
431.227	34708.94
431.671	34967.16
432.115	36195.58
432.559	36899.01
433.003	36879.67
433.447	37742.23
433.891	37993.77
434.335	38244.47
434.779	38851.91
435.223	38880.42
435.667	39091.79
436.111	39596.36
436.554	39571.25
436.998	38957.33
437.442	39184
437.885	40757.27
438.328	39519.07
438.772	39649.29
439.215	39951.77
439.659	39680.56
440.102	40124.3
440.545	39543.19
440.988	39233.43
441.431	40000.81
441.874	39694.35
442.317	39920.23
442.76	39229.74
443.203	38895.16
443.646	39418.42
444.089	39083.19
444.531	39463.94
444.974	38301.64
445.417	39189.41
445.859	38468.78
446.302	39277.21
446.744	38727.6
447.186	39707.65
447.629	38820.22
448.071	38847.24
448.513	39067.21
448.956	40023.23
449.398	39320.25
449.84	38449.39
450.282	38708.94
450.724	39137.03
451.166	38821.94
451.607	38823.66
452.049	38771.08
452.491	39668.74
452.933	39067.7
453.374	39644.61
453.816	40081.65
454.257	39683.27
454.699	40563.92
455.14	40335.16
455.582	39884.75
456.023	39950.29
456.464	40073.52
456.905	40458.77
457.347	40403.99
457.788	39564.61
458.229	39815.28
458.67	40665.64
459.111	38938.66
459.552	39003.79
459.992	38789.75
460.433	38581.72
460.874	37617.24
461.315	38705.01
461.755	37705.96
462.196	37396.26
462.636	36696.17
463.077	36583.88
463.517	36526.65
463.957	36795.74
464.398	36548.91
464.838	36532.52
465.278	35529.97
465.718	35686.3
466.158	34799.72
466.598	35344.37
467.038	34796.06
467.478	35125.59
467.918	35367.32
468.358	34651.1
468.798	34406.36
469.237	34332.44
469.677	34295.11
470.117	34912.48
470.556	32953.56
470.996	33368.79
471.435	33542.17
471.874	34093.85
472.314	33671.91
472.753	33125.94
473.192	33297.1
473.631	32842.13
474.07	33116.18
474.509	32946.73
474.948	33203.23
475.387	32856.27
475.826	31917.14
476.265	33318.81
476.704	32918.45
477.143	33256.63
477.581	32984.28
478.02	33426.1
478.458	32353.55
478.897	32943.8
479.335	33824.82
479.774	33279.3
480.212	33630.45
480.65	33499.25
481.089	33449.26
481.527	32806.29
481.965	32616.37
482.403	34181.43
482.841	33970.67
483.279	34010.19
483.717	34012.38
484.155	33620.45
484.592	33861.89
485.03	34114.34
485.468	33272.23
485.905	33418.78
486.343	33792.14
486.781	33274.91
487.218	32818.97
487.655	32687.8
488.093	32065.13
488.53	33252.97
488.967	32477.89
489.405	32367.21
489.842	31719.41
490.279	31663.57
490.716	31329.03
491.153	31733.06
491.59	31290.99
492.027	30685.91
492.463	30314.36
492.9	29796.28
493.337	29653.96
493.773	29777.73
494.21	29043.24
494.647	28825.33
495.083	28251.93
495.519	27918.11
495.956	28064.86
496.392	27431.16
496.828	27293.33
497.265	26706.66
497.701	26730.92
498.137	26557.88
498.573	25833.55
499.009	26235.45
499.445	25534.27
499.881	25039.43
500.316	25396.23
500.752	24515.07
501.188	24361.5
501.624	24471.51
502.059	23405.72
502.495	23297.67
502.93	23204.41
503.366	23449.12
503.801	22995.85
504.236	22686.42
504.672	22245.73
505.107	22113.41
505.542	21526.79
505.977	21572.85
506.412	21152.61
506.847	21366.01
507.282	20889.75
507.717	20751.07
508.152	20615.06
508.587	20514.03
509.021	19859.3
509.456	19690.92
509.891	19691.91
510.325	19715.54
510.76	19387.55
511.194	19120.83
511.628	19269.78
512.063	18598.83
512.497	18766.67
512.931	18348.56
513.366	18186.03
513.8	18164.31
514.234	17711.29
514.668	17651.28
515.102	17783.54
515.536	17237.96
515.969	17373.87
516.403	16993.05
516.837	16645.95
517.271	16750.99
517.704	16489.95
518.138	16357.48
518.571	16125.53
519.005	15995.18
519.438	15892.43
519.871	15698.38
520.305	15361.56
520.738	15278.24
521.171	14938.46
521.604	15118.34
522.037	14903.18
522.47	14656.59
522.903	14361.58
523.336	14263.6
523.769	14185.54
524.202	13790.91
524.634	13810.14
525.067	13597.57
525.5	13495.53
525.932	13381.54
526.365	13064.66
526.797	13055.02
527.23	12972.82
527.662	12508.29
528.094	12362.07
528.527	12381.91
528.959	12125.13
529.391	12041.09
529.823	11557.12
530.255	11679.1
530.687	11383.21
531.119	11209.68
531.551	11147.02
531.982	10860.63
532.414	10732.78
532.846	10507.12
533.277	10417.55
533.709	10138.55
534.14	10028.48
534.572	9933.02
535.003	9921.18
535.435	9699.15
535.866	9549.09
536.297	9368.68
536.728	9379.52
537.159	9225.29
537.59	9066.77
538.022	8928.04
538.452	8909.91
538.883	8672.76
539.314	8617.24
539.745	8438.36
540.176	8221.79
540.606	8049.71
541.037	8014.02
541.468	7909.23
541.898	7856.55
542.328	7800.98
542.759	7585.25
543.189	7514.92
543.619	7480.39
544.05	7259.94
544.48	7185.5
544.91	7126.76
545.34	6974.78
545.77	6876.25
546.2	6786.33
546.63	6714.5
547.06	6658.16
547.489	6565.43
547.919	6377.38
548.349	6405.89
548.778	6408
549.208	6220.22
549.637	6175.81
550.067	6087.72
550.496	6087.72
550.926	5920.62
551.355	5806.33
551.784	5808.45
552.213	5701.22
552.642	5669.61
553.071	5659.78
553.5	5533.78
553.929	5379.13
554.358	5387.13
554.787	5295.19
555.216	5306.66
555.645	5156.21
556.073	5136.45
556.502	5059.79
556.93	4905.23
557.359	4875.25
557.787	4855.44
558.216	4855.98
558.644	4749.89
559.072	4817.95
559.5	4607.46
559.929	4631.88
560.357	4619.27
560.785	4557.52
561.213	4511.31
561.641	4442.77
562.068	4396.51
562.496	4405.92
562.924	4375.79
563.352	4360.72
563.779	4283.99
564.207	4287.49
564.634	4239.54
565.062	4214.74
565.489	4147.6
565.917	4125.48
566.344	4095.8
566.771	4078.53
567.198	4029.11
567.625	3936.16
568.053	3941.57
568.48	3908.04
568.907	3868.82
569.333	3766.76
569.76	3689.53
570.187	3702.27
570.614	3614.14
571.04	4656.03
571.467	3569.09
571.894	3517.76
572.32	3457.17
572.747	3431.08
573.173	3338.04
573.599	3297.48
574.026	3220.66
574.452	3172.95
574.878	3145.13
575.304	3069.26
575.73	3059.98
576.156	2962.44
576.582	2958.34
577.008	2889.97
577.434	2846.18
577.86	2774.71
578.285	2783.2
578.711	2757.72
579.137	2743.74
579.562	2660.38
579.988	2634.59
580.413	2557.43
580.838	2503.85
581.264	2521.44
581.689	2475.54
582.114	2457.94
582.539	2498.9
582.964	2371.81
583.39	2333.81
583.814	2309.84
584.239	2249.48
584.664	2278.15
585.089	2240.93
585.514	2177.21
585.939	2179.14
586.363	2128.34
586.788	2135.25
587.212	2099.34
587.637	2076.41
588.061	2020.85
588.485	1990.98
588.91	1976.87
589.334	1962.21
589.758	1960.55
590.182	1904.36
590.606	1872.78
591.03	1858.37
591.454	1791.57
591.878	1826.23
592.302	1815.97
592.726	1763.84
593.15	1786.02
593.573	1693.06
593.997	1718.05
594.42	1680.29
594.844	1700.28
595.267	1622.79
595.691	1616.95
596.114	1586.37
596.537	1574.97
596.96	1605.83
597.384	1569.13
597.807	1551.33
598.23	1568.58
598.653	1499.02
599.076	1506.26
599.499	1498.46
599.921	1442.5
600.344	1466.45
600.767	1453.64
601.189	1447.23
601.612	1412.41
602.034	1409.9
602.457	1428.57
602.879	1456.42
603.302	1426.34
603.724	1396.8
604.146	1390.39
604.568	1407.95
604.991	1371.99
605.413	1401.54
605.835	1377.01
606.257	1371.99
606.678	1346.34
607.1	1357.21
607.522	1350.8
607.944	1334.62
608.365	1354.15
608.787	1332.95
609.209	1314.26
609.63	1297.52
610.051	1271.28
610.473	1269.04
610.894	1235.82
611.315	1202.57
611.737	1198.66
612.158	1234.7
612.579	1198.66
613	1174.91
613.421	1199.78
613.842	1199.5
614.263	1162.33
614.683	1148.07
615.104	1131.57
615.525	1118.98
615.945	1097.16
616.366	1098
616.787	1059.1
617.207	1092.12
617.627	1081.77
618.048	1037.82
618.468	1044.82
618.888	1022.42
619.308	995.53
619.728	996.37
620.148	983.76
620.568	1012.05
620.988	987.4
621.408	973.95
621.828	950.41
622.248	980.4
622.668	920.4
623.087	949
623.507	927.69
623.926	908.62
624.346	884.5
624.765	910.87
625.185	879.73
625.604	879.17
626.023	882.53
626.442	854.47
626.861	878.6
627.28	882.53
627.699	851.94
628.118	819.09
628.537	845.21
628.956	834.54
629.375	835.38
629.794	812.63
630.212	808.98
630.631	828.36
631.049	806.17
631.468	809.26
631.886	787.35
632.305	798.59
632.723	784.82
633.141	758.97
633.559	766.84
633.978	781.45
634.396	764.87
634.814	744.64
635.232	731.71
635.65	744.36
636.067	733.67
636.485	713.99
636.903	697.4
637.321	683.61
637.738	719.33
638.156	731.99
638.573	730.3
638.991	695.99
639.408	710.9
639.825	691.21
640.243	669.27
640.66	683.9
641.077	651.54
641.494	672.08
641.911	666.45
642.328	644.5
642.745	654.63
643.162	640.28
643.579	668.14
643.995	665.89
644.412	674.33
644.829	598.89
645.245	629.3
645.662	618.04
646.078	636.06
646.495	638.59
646.911	618.04
647.327	606.21
647.743	609.31
648.159	618.6
648.576	634.37
648.992	587.62
649.408	602.27
649.824	591.85
650.239	592.69
650.655	582.27
651.071	587.34
651.487	594.38
651.902	581.7
652.318	585.93
652.733	585.65
653.149	590.72
653.564	550.43
653.979	592.97
654.395	587.9
654.81	576.63
655.225	563.67
655.64	569.03
656.055	537.18
656.47	603.67
656.885	574.38
657.3	524.78
657.715	547.33
658.13	545.92
658.544	547.33
658.959	540.28
659.374	536.05
659.788	561.14
660.202	573.25
660.617	547.33
661.031	544.51
661.445	533.52
661.86	531.83
662.274	540.56
662.688	550.71
663.102	516.32
663.516	553.53
663.93	549.3
664.344	533.8
664.758	517.73
665.171	544.51
665.585	546.2
665.999	539.72
666.412	523.65
666.826	529.29
667.239	522.8
667.653	524.78
668.066	507.58
668.479	521.11
668.892	487.84
669.306	507.01
669.719	510.12
670.132	531.83
670.545	509.27
670.958	510.4
671.37	504.48
671.783	479.94
672.196	473.17
672.609	497.14
673.021	489.53
673.434	489.81
673.846	503.07
674.259	488.4
674.671	500.53
675.084	492.63
675.496	518.01
675.908	485.86
676.32	500.53
676.732	499.96
677.144	497.99
677.556	485.86
677.968	480.5
678.38	472.32
678.792	469.78
679.204	480.22
679.615	515.76
680.027	480.5
680.439	474.3
680.85	473.45
681.262	482.48
681.673	484.73
682.084	477.96
682.496	494.04
682.907	466.4
683.318	470.63
683.729	445.23
684.14	449.47
684.551	447.21
684.962	461.6
685.373	464.99
685.784	455.96
686.194	456.8
686.605	468.94
687.016	463.01
687.426	478.81
687.837	447.77
688.247	473.73
688.657	468.37
689.068	455.39
689.478	464.7
689.888	436.2
690.298	452.85
690.708	435.92
691.118	453.13
691.528	452.85
691.938	472.6
692.348	468.37
692.758	457.37
693.168	442.97
693.577	447.21
693.987	449.75
694.396	452.85
694.806	453.98
695.215	412.77
695.625	442.97
696.034	437.61
696.443	445.8
696.852	428.58
697.262	445.23
697.671	416.72
698.08	433.1
698.489	472.32
698.897	450.31
699.306	433.66
699.715	461.04
700.124	431.12
700.532	415.31
700.941	442.97
701.35	429.43
701.758	444.1
702.166	440.43
702.575	424.06
702.983	429.71
703.391	425.19
703.799	423.22
704.208	447.21
704.616	414.46
705.024	422.65
705.432	419.55
705.839	418.98
706.247	438.74
706.655	459.62
707.063	439.59
707.47	447.49
707.878	413.9
708.285	409.66
708.693	433.94
709.1	428.3
709.508	418.42
709.915	426.04
710.322	423.22
710.729	437.33
711.136	388.48
711.543	411.08
711.95	415.03
712.357	433.94
712.764	400.35
713.171	428.86
713.578	383.68
713.984	407.97
714.391	427.17
714.797	446.36
715.204	418.98
715.61	438.46
716.017	429.14
716.423	406.56
716.829	432.81
717.236	427.17
717.642	417
718.048	413.9
718.454	428.58
718.86	401.19
719.266	426.6
719.671	423.5
720.077	409.95
720.483	396.96
720.889	413.9
721.294	424.63
721.7	440.72
722.105	390.18
722.511	419.83
722.916	421.8
723.321	396.67
723.726	407.97
724.132	409.38
724.537	389.9
724.942	413.33
725.347	400.63
725.752	411.36
726.156	433.66
726.561	429.71
726.966	413.33
727.371	408.82
727.775	402.32
728.18	402.04
728.584	399.5
728.989	417.85
729.393	429.14
729.798	426.6
730.202	414.75
730.606	409.38
731.01	427.17
731.414	383.4
731.818	408.25
732.222	408.82
732.626	394.42
733.03	436.2
733.434	419.26
733.837	411.64
734.241	417.85
734.645	384.81
735.048	422.09
735.452	426.89
735.855	396.39
736.258	418.13
736.662	407.12
737.065	391.59
737.468	410.51
737.871	397.52
738.274	405.15
738.677	397.24
739.08	399.22
739.483	401.19
739.886	415.31
740.289	395.83
740.691	431.12
741.094	415.59
741.497	382.27
741.899	413.9
742.302	417.29
742.704	418.98
743.106	378.88
743.508	395.54
743.911	405.43
744.313	383.68
744.715	386.79
745.117	419.26
745.519	420.39
745.921	415.03
746.323	418.42
746.724	396.67
747.126	417
747.528	369.84
747.929	397.8
748.331	394.98
748.732	389.9
749.134	428.86
749.535	398.37
749.936	419.55
750.338	396.11
750.739	415.03
751.14	389.33
751.541	378.6
751.942	394.42
752.343	378.88
752.744	382.55
753.144	381.71
753.545	417.85
753.946	403.17
754.346	409.66
754.747	389.33
755.148	421.8
755.548	391.03
755.948	402.6
756.349	401.19
756.749	409.66
757.149	394.42
757.549	403.17
757.949	417
758.349	414.75
758.749	411.08
759.149	422.65
759.549	425.76
759.949	389.05
760.348	402.89
760.748	416.16
761.148	386.79
761.547	402.32
761.947	407.69
762.346	405.15
762.745	399.78
763.145	412.21
763.544	394.7
763.943	396.11
764.342	404.02
764.741	393
765.14	386.79
765.539	388.2
765.938	415.03
766.336	395.26
766.735	389.9
767.134	409.66
767.532	392.72
767.931	397.8
768.329	405.43
768.728	370.69
769.126	409.1
769.525	396.67
769.923	420.96
770.321	357.13
770.719	394.98
771.117	404.3
771.515	404.3
771.913	381.42
772.311	386.22
772.709	383.4
773.106	413.9
773.504	399.5
773.902	408.82
774.299	393.85
774.697	409.66
775.094	358.82
775.491	397.8
775.889	398.65
776.286	386.79
776.683	379.16
777.08	387.92
777.477	392.16
777.874	406.28
778.271	377.75
778.668	406.28
779.065	387.64
779.462	426.04
779.858	424.06
780.255	411.64
780.652	405.71
781.048	408.53
781.444	393.29
781.841	396.96
782.237	395.83
782.633	374.08
783.03	404.3
783.426	385.38
783.822	382.27
784.218	400.06
784.614	382.27
785.01	391.87
785.405	374.64
785.801	415.31
786.197	389.05
786.593	394.42
786.988	376.9
787.384	400.06
787.779	396.11
788.174	397.52
788.57	382.27
788.965	378.88
789.36	383.12
789.755	391.87
790.15	374.93
790.545	381.71
790.94	377.75
791.335	387.07
791.73	397.24
792.125	381.71
792.52	408.82
792.914	431.97
793.309	400.35
793.703	389.33
794.098	384.81
794.492	393
794.887	398.37
795.281	395.54
795.675	361.65
796.069	376.06
796.463	386.51
796.857	401.48
797.251	397.52
797.645	401.48
798.039	377.75
798.433	374.64
798.826	400.06
799.22	370.97
799.614	373.51
800.007	381.71
800.401	370.41
800.794	386.51
801.187	376.06
801.581	382.84
801.974	374.64
802.367	394.7
802.76	366.45
803.153	391.03
803.546	365.04
803.939	377.47
804.332	377.75
804.725	413.33
805.117	385.94
805.51	380.58
805.903	424.91
806.295	387.35
806.688	375.77
807.08	360.8
807.472	402.6
807.865	397.24
808.257	411.92
808.649	356.84
809.041	387.64
809.433	392.16
809.825	410.79
810.217	380.29
810.609	385.94
811.001	401.76
811.392	416.44
811.784	394.42
812.175	395.26
812.567	376.62
812.958	403.17
813.35	383.4
813.741	386.51
814.132	402.32
814.524	396.39
814.915	361.93
815.306	402.04
815.697	376.06
816.088	372.95
816.479	397.8
816.87	402.04
817.26	380.86
817.651	379.16
818.042	390.46
818.432	382.27
818.823	381.42
819.213	387.07
819.604	391.59
819.994	400.06
820.384	392.72
820.775	384.53
821.165	396.39
821.555	409.95
821.945	385.94
822.335	372.67
822.725	379.45
823.114	384.81
823.504	389.05
823.894	365.32
824.284	395.54
824.673	394.7
825.063	400.91
825.452	364.47
825.842	370.12
826.231	378.03
826.62	378.88
827.009	399.22
827.399	382.55
827.788	374.64
828.177	334.8
828.566	398.37
828.954	414.75
829.343	378.88
829.732	386.22
830.121	380.01
830.509	398.65
830.898	358.26
831.286	372.95
831.675	394.98
832.063	382.55
832.452	384.81
832.84	382.55
833.228	384.25
833.616	387.07
834.004	391.59
834.392	396.39
834.78	377.19
835.168	365.32
835.556	392.44
835.944	389.9
836.331	378.88
836.719	393.85
837.107	401.19
837.494	400.06
837.881	392.16
838.269	391.31
838.656	401.48
839.043	370.69
839.431	386.79
839.818	362.5
840.205	384.53
840.592	401.76
840.979	384.25
841.366	388.2
841.752	384.81
842.139	407.97
842.526	396.11
842.912	395.26
843.299	393.57
843.685	403.73
844.072	365.04
844.458	366.45
844.844	392.16
845.231	363.63
845.617	379.16
846.003	395.26
846.389	383.68
846.775	379.45
847.161	377.19
847.547	346.95
847.933	379.73
848.318	378.6
848.704	378.32
849.09	376.62
849.475	403.17
849.861	385.09
850.246	394.42
850.631	396.67
851.017	398.93
851.402	374.93
851.787	385.09
852.172	383.96
852.557	389.61
852.942	376.9
853.327	385.66
853.712	403.73
854.097	383.96
854.481	382.27
854.866	401.48
855.25	397.52
855.635	386.51
856.019	372.95
856.404	386.22
856.788	369.84
857.172	371.54
857.557	375.49
857.941	416.16
858.325	367.3
858.709	370.41
859.093	412.21
859.477	391.31
859.86	364.76
860.244	364.19
860.628	386.79
861.012	402.32
861.395	389.05
861.779	361.08
862.162	383.12
862.545	397.52
862.929	401.19
863.312	373.51
863.695	372.38
864.078	372.67
864.461	403.73
864.844	398.93
865.227	384.53
865.61	381.71
865.993	370.12
866.376	372.38
866.758	377.19
867.141	389.33
867.523	394.98
867.906	363.63
868.288	389.9
868.671	392.16
869.053	388.2
869.435	402.04
869.817	400.06
870.199	372.67
870.581	381.99
870.963	386.51
871.345	389.9
871.727	384.25
872.109	374.93
872.491	399.22
872.872	374.93
873.254	389.33
873.635	342.43
874.017	407.41
874.398	379.16
874.779	396.96
875.161	406.84
875.542	410.23
875.923	383.12
876.304	384.81
876.685	393.85
877.066	383.68
877.447	375.49
877.828	364.76
878.208	372.38
878.589	383.96
878.97	406.56
879.35	365.6
879.731	388.48
880.111	330
880.491	378.32
880.872	389.05
881.252	380.58
881.632	373.23
882.012	376.62
882.392	389.05
882.772	384.81
883.152	365.89
883.532	380.86
883.912	400.06
884.291	368.15
884.671	393.85
885.051	374.08
885.43	372.38
885.81	395.26
886.189	383.4
886.568	388.2
886.948	372.38
887.327	395.54
887.706	389.33
888.085	398.37
888.464	402.6
888.843	374.93
889.222	402.32
889.601	385.66
889.979	393.85
890.358	376.34
890.737	357.69
891.115	383.4
891.494	358.26
891.872	355.15
892.25	353.74
892.629	404.58
893.007	392.16
893.385	383.12
893.763	381.14
894.141	403.73
894.519	385.66
894.897	356.56
895.275	357.41
895.653	369.84
896.03	405.71
896.408	366.73
896.786	385.66
897.163	361.93
897.541	381.42
897.918	402.32
898.295	373.8
898.673	372.38
899.05	394.13
899.427	404.86
899.804	369.56
900.181	373.8
900.558	397.52
900.935	374.64
901.312	398.65
901.688	381.42
902.065	370.97
902.442	362.5
902.818	381.14
903.195	374.36
903.571	378.6
903.947	375.21
904.324	374.08
904.7	364.19
905.076	391.59
905.452	347.24
905.828	384.81
906.204	391.31
906.58	396.11
906.956	381.99
907.331	389.05
907.707	381.42
908.083	389.33
908.458	391.03
908.834	398.93
909.209	383.12
909.585	370.12
909.96	397.52
910.335	379.45
910.71	354.3
911.086	361.93
911.461	365.04
911.836	360.23
912.21	397.52
912.585	373.23
912.96	402.04
913.335	361.65
913.709	396.96
914.084	353.45
914.459	390.18
914.833	388.48
915.207	401.19
915.582	383.12
915.956	342.43
916.33	361.08
916.704	385.09
917.078	382.55
917.452	358.26
917.826	398.37
918.2	388.48
918.574	382.27
918.948	371.82
919.321	375.21
919.695	375.49
920.068	400.35
920.442	387.07
920.815	400.35
921.189	383.68
921.562	369.28
921.935	393.29
922.308	387.07
922.681	376.06
923.054	388.77
923.427	393
923.8	362.5
924.173	374.93
924.546	365.6
924.919	388.48
925.291	370.69
925.664	372.95
926.036	361.93
926.409	378.32
926.781	368.71
927.153	392.72
927.526	377.19
927.898	373.51
928.27	400.91
928.642	363.34
929.014	385.94
929.386	373.23
929.758	368.15
930.129	380.01
930.501	395.54
930.873	374.08
931.244	362.21
931.616	367.58
931.987	368.43
932.359	383.4
932.73	380.58
933.101	402.89
933.472	372.1
933.843	398.93
934.214	372.95
934.585	360.23
934.956	393
935.327	410.51
935.698	383.12
936.069	360.8
936.439	360.23
936.81	367.58
937.18	372.95
937.551	378.6
937.921	381.71
938.292	372.67
938.662	392.44
939.032	364.19
939.402	361.37
939.772	386.79
940.142	392.72
940.512	379.45
940.882	339.04
941.252	373.51
941.621	364.47
941.991	381.71
942.361	380.29
942.73	370.12
943.1	355.71
943.469	378.32
943.838	387.35
944.208	403.45
944.577	393.29
944.946	378.88
945.315	368.71
945.684	354.02
946.053	387.64
946.422	343.85
946.791	387.92
947.159	365.04
947.528	380.29
947.897	370.12
948.265	342.15
948.634	365.04
949.002	385.66
949.371	379.16
949.739	362.5
950.107	413.33
950.475	380.29
950.843	393.85
951.211	367.3
951.579	396.96
951.947	370.97
952.315	372.1
952.683	358.54
953.05	390.46
953.418	380.01
953.785	384.53
954.153	387.92
954.52	397.24
954.888	372.95
955.255	372.95
955.622	385.09
955.989	357.97
956.356	364.19
956.723	361.65
957.09	391.31
957.457	398.09
957.824	370.41
958.191	361.08
958.557	358.82
958.924	372.1
959.291	393
959.657	364.76
960.023	400.35
960.39	373.23
960.756	383.68
961.122	382.27
961.488	385.94
961.855	388.2
962.221	364.19
962.586	359.67
962.952	400.91
963.318	361.93
963.684	402.04
964.05	373.8
964.415	389.61
964.781	392.44
965.146	369.56
965.512	406.84
965.877	388.48
966.242	367.02
966.608	405.99
966.973	366.73
967.338	369.28
967.703	383.96
968.068	378.03
968.433	370.12
968.797	369.84
969.162	382.55
969.527	361.93
969.891	366.17
970.256	371.82
970.62	371.54
970.985	353.45
971.349	385.38
971.714	368.43
972.078	374.08
972.442	354.3
972.806	379.16
973.17	346.67
973.534	381.14
973.898	378.6
974.262	402.6
974.625	378.88
974.989	382.27
975.353	376.34
975.716	376.34
976.08	375.77
976.443	362.5
976.806	366.73
977.17	402.89
977.533	391.31
977.896	396.39
978.259	386.51
978.622	414.75
978.985	373.8
979.348	374.64
979.711	340.45
980.073	378.88
980.436	357.69
980.799	375.21
981.161	380.58
981.524	383.96
981.886	392.16
982.248	358.26
982.611	389.33
982.973	385.66
983.335	383.4
983.697	359.67
984.059	390.18
984.421	364.19
984.783	370.12
985.145	396.67
985.506	387.64
985.868	368.15
986.23	375.21
986.591	375.49
986.953	370.12
987.314	383.12
987.675	322.36
988.037	1131.29
988.398	396.11
988.759	377.19
989.12	352.04
989.481	364.19
989.842	388.2
990.203	392.44
990.564	359.1
990.924	363.63
991.285	1082.33
991.646	383.96
992.006	387.64
992.367	379.16
992.727	398.65
993.087	357.41
993.448	390.74
993.808	363.63
994.168	357.69
994.528	394.7
994.888	372.67
995.248	345.82
995.608	346.39
995.967	366.17
996.327	363.34
996.687	372.38
997.046	323.21
997.406	383.96
997.765	372.1
998.125	369.28
998.484	397.24
998.843	374.93
999.202	384.25
999.561	392.72
999.92	357.97
1000.279	382.84
1000.638	380.29
1000.997	395.26
1001.356	379.45
1001.715	379.73
1002.073	371.54
1002.432	352.04
1002.79	353.74
1003.149	365.04
1003.507	369.28
1003.865	376.62
1004.224	348.08
1004.582	375.21
1004.94	385.38
1005.298	378.32
1005.656	372.67
1006.014	360.8
1006.371	371.54
1006.729	343
1007.087	369.84
1007.445	375.77
1007.802	374.08
1008.16	414.46
1008.517	366.73
1008.874	369.56
1009.232	370.12
1009.589	384.25
1009.946	387.64
1010.303	388.48
1010.66	385.94
1011.017	364.76
1011.374	374.36
1011.731	365.32
1012.087	336.21
1012.444	343.28
1012.801	380.01
1013.157	367.58
1013.513	367.58
1013.87	350.63
1014.226	385.38
1014.582	369.84
1014.939	368.99
1015.295	381.71
1015.651	353.74
1016.007	344.13
1016.363	384.81
1016.719	350.91
1017.074	367.02
1017.43	406.84
1017.786	385.38
1018.141	356.28
1018.497	381.99
1018.852	358.54
1019.208	372.95
1019.563	374.93
1019.918	368.15
1020.273	390.46
1020.628	387.64
1020.983	390.74
1021.338	376.34
1021.693	364.47
1022.048	381.14
1022.403	362.78
1022.757	382.84
1023.112	379.45
1023.467	367.58
1023.821	368.99
1024.175	357.41
1024.53	367.3
1024.884	360.23
1025.238	353.17
1025.592	391.03
1025.946	383.12
1026.3	392.16
1026.654	380.01
1027.008	368.15
1027.362	349.5
1027.716	375.77
1028.069	367.3
1028.423	361.93
1028.777	358.26
1029.13	368.43
1029.483	398.37
1029.837	400.06
1030.19	366.17
1030.543	378.88
1030.896	379.16
1031.249	374.93
1031.602	394.13
1031.955	389.9
1032.308	382.84
1032.661	372.1
1033.013	370.97
1033.366	366.17
1033.719	353.45
1034.071	348.65
1034.424	340.45
1034.776	370.97
1035.128	383.96
1035.48	387.92
1035.833	393.57
1036.185	371.82
1036.537	371.82
1036.889	371.82
