Data from SCSF78_irradiation_FLMS019251_02-57-12-775.txt Node
Date: Thu Feb 21 02:57:12 PST 2019
User: mu3e
Spectrometer: FLMS01925
Trigger mode: 0
Integration Time (sec): 6.500000E-2
Scans to average: 10
Electric dark correction enabled: true
Nonlinearity correction enabled: true
Boxcar width: 0
XAxis mode: Wavelengths
Number of Pixels in Spectrum: 2048
>>>>>Begin Spectral Data<<<<<
187.103	-85.6
187.574	-85.6
188.045	-85.6
188.516	-108.91
188.987	-137.92
189.458	-96.97
189.929	-105.21
190.4	-144.46
190.871	-114.6
191.342	-106.92
191.813	-64.28
192.284	-41.55
192.754	-2.93
193.225	-3.5
193.696	22.91
194.166	39.65
194.637	92.7
195.107	92.7
195.578	112.54
196.048	142.59
196.518	176.3
196.989	166.39
197.459	213.4
197.929	232.64
198.399	312.7
198.869	279.9
199.339	310.72
199.809	330.79
200.279	338.42
200.749	330.51
201.219	350.57
201.689	341.53
202.159	390.13
202.628	375.72
203.098	368.09
203.568	404.25
204.037	397.75
204.507	399.73
204.976	397.75
205.445	386.17
205.915	363.29
206.384	396.9
206.853	400.58
207.323	401.99
207.792	388.43
208.261	390.97
208.73	411.87
209.199	393.23
209.668	371.48
210.137	387.3
210.606	378.55
211.075	385.61
211.543	394.64
212.012	384.76
212.481	354.25
212.95	384.76
213.418	394.08
213.887	385.04
214.355	370.92
214.824	353.4
215.292	356.51
215.76	385.32
216.229	345.21
216.697	348.6
217.165	331.64
217.633	348.6
218.101	383.91
218.569	392.95
219.037	377.42
219.505	366.68
219.973	332.2
220.441	327.68
220.909	366.96
221.377	351.14
221.844	381.65
222.312	332.49
222.78	339.55
223.247	350.29
223.715	374.59
224.182	350.29
224.65	366.12
225.117	352.84
225.584	356.51
226.052	361.59
226.519	333.34
226.986	368.09
227.453	374.31
227.92	339.27
228.387	372.9
228.854	361.03
229.321	352.27
229.788	383.63
230.255	343.51
230.722	374.87
231.189	363.29
231.655	372.9
232.122	380.24
232.589	367.53
233.055	354.25
233.522	354.25
233.988	365.55
234.454	361.88
234.921	365.27
235.387	377.42
235.853	376
236.32	373.18
236.786	374.03
237.252	383.06
237.718	365.55
238.184	363.85
238.65	387.58
239.116	366.68
239.582	385.61
240.047	384.48
240.513	373.18
240.979	388.43
241.445	359.62
241.91	380.52
242.376	331.07
242.841	381.37
243.307	382.78
243.772	358.49
244.238	383.63
244.703	373.46
245.168	354.81
245.633	369.22
246.099	367.53
246.564	396.9
247.029	401.99
247.494	361.03
247.959	366.12
248.424	372.05
248.889	401.42
249.353	398.03
249.818	350.86
250.283	349.73
250.748	376.85
251.212	392.39
251.677	385.04
252.141	382.22
252.606	368.94
253.07	395.49
253.535	377.13
253.999	353.68
254.463	386.74
254.927	370.64
255.392	405.66
255.856	384.19
256.32	372.9
256.784	363.85
257.248	372.61
257.712	377.42
258.176	382.5
258.64	366.96
259.103	347.47
259.567	378.55
260.031	369.51
260.495	368.94
260.958	370.07
261.422	357.07
261.885	360.46
262.349	365.55
262.812	382.5
263.275	379.68
263.739	388.43
264.202	392.39
264.665	390.41
265.128	387.58
265.591	398.6
266.054	386.45
266.517	382.22
266.98	404.25
267.443	387.02
267.906	357.92
268.369	371.48
268.832	379.96
269.294	372.61
269.757	377.13
270.22	375.16
270.682	379.39
271.145	391.82
271.607	387.3
272.07	389.56
272.532	380.52
272.994	364.7
273.456	404.25
273.919	399.45
274.381	355.94
274.843	398.6
275.305	393.23
275.767	366.4
276.229	374.87
276.691	364.42
277.153	370.35
277.614	385.61
278.076	359.62
278.538	376.57
279	389.84
279.461	373.74
279.923	419.49
280.384	396.06
280.846	378.26
281.307	379.96
281.769	381.37
282.23	371.48
282.691	400.29
283.152	407.07
283.613	386.17
284.075	382.5
284.536	372.9
284.997	383.91
285.458	377.7
285.918	394.93
286.379	396.34
286.84	382.78
287.301	387.87
287.762	411.02
288.222	388.71
288.683	391.82
289.143	386.45
289.604	379.39
290.064	380.52
290.525	423.45
290.985	407.63
291.445	429.66
291.906	395.77
292.366	398.03
292.826	400.29
293.286	378.55
293.746	425.14
294.206	393.23
294.666	392.1
295.126	376
295.586	372.33
296.046	377.13
296.506	401.42
296.965	373.18
297.425	407.92
297.884	416.67
298.344	393.23
298.804	398.6
299.263	397.75
299.722	397.19
300.182	436.43
300.641	418.08
301.1	388.43
301.559	393.51
302.019	390.69
302.478	395.21
302.937	395.21
303.396	408.48
303.855	411.59
304.314	387.58
304.772	404.81
305.231	430.78
305.69	395.77
306.149	374.59
306.607	375.44
307.066	422.6
307.524	420.9
307.983	418.36
308.441	387.02
308.9	397.19
309.358	415.26
309.816	414.41
310.275	404.81
310.733	393.51
311.191	416.39
311.649	399.73
312.107	401.7
312.565	383.91
313.023	402.55
313.481	414.13
313.939	395.77
314.397	387.02
314.854	393.23
315.312	408.2
315.77	380.24
316.227	382.5
316.685	398.03
317.142	404.53
317.6	389.56
318.057	408.2
318.514	384.48
318.972	414.98
319.429	411.31
319.886	392.1
320.343	396.06
320.8	379.68
321.257	424.86
321.714	409.33
322.171	393.23
322.628	415.26
323.085	399.73
323.542	402.55
323.998	416.11
324.455	401.7
324.912	418.36
325.368	395.21
325.825	387.87
326.281	410.46
326.738	406.51
327.194	422.32
327.65	403.4
328.107	413.28
328.563	427.12
329.019	420.06
329.475	402.83
329.931	399.45
330.387	394.36
330.843	393.51
331.299	416.67
331.755	388.15
332.211	433.04
332.666	406.51
333.122	392.95
333.578	393.8
334.033	407.92
334.489	402.27
334.944	389.56
335.4	413.85
335.855	387.02
336.31	402.55
336.766	404.81
337.221	411.59
337.676	397.75
338.131	435.3
338.586	392.67
339.041	422.03
339.496	437.84
339.951	422.32
340.406	414.13
340.861	400.01
341.316	402.83
341.771	433.61
342.225	404.25
342.68	411.02
343.134	423.16
343.589	422.6
344.043	409.61
344.498	389.28
344.952	424.86
345.406	439.54
345.861	398.6
346.315	390.13
346.769	422.32
347.223	409.05
347.677	396.62
348.131	390.13
348.585	415.26
349.039	401.99
349.493	395.49
349.947	406.79
350.401	411.02
350.854	385.04
351.308	428.81
351.762	402.83
352.215	440.66
352.669	400.58
353.122	402.83
353.575	409.61
354.029	390.41
354.482	440.95
354.935	394.08
355.388	414.41
355.842	436.71
356.295	397.19
356.748	406.22
357.201	436.15
357.654	395.49
358.106	424.01
358.559	408.2
359.012	405.09
359.465	389.28
359.917	428.53
360.37	416.67
360.823	418.65
361.275	421.75
361.728	431.63
362.18	390.41
362.632	423.45
363.085	418.93
363.537	406.51
363.989	412.72
364.441	412.43
364.893	426.55
365.345	425.99
365.797	419.21
366.249	397.75
366.701	395.49
367.153	394.08
367.605	431.35
368.057	414.13
368.508	396.06
368.96	394.08
369.411	413
369.863	416.67
370.314	446.87
370.766	415.54
371.217	425.7
371.669	420.34
372.12	417.8
372.571	426.83
373.022	407.92
373.473	410.74
373.924	407.63
374.375	423.16
374.826	427.12
375.277	397.19
375.728	396.34
376.179	417.23
376.63	401.99
377.08	425.99
377.531	388.71
377.981	429.66
378.432	403.96
378.883	432.48
379.333	436.43
379.783	423.73
380.234	405.66
380.684	446.87
381.134	424.57
381.584	418.93
382.034	424.01
382.485	438.69
382.935	423.45
383.385	441.23
383.834	439.25
384.284	424.01
384.734	447.72
385.184	426.55
385.634	411.31
386.083	411.31
386.533	404.53
386.982	424.29
387.432	417.52
387.881	414.98
388.331	411.02
388.78	428.24
389.229	418.36
389.679	450.54
390.128	439.54
390.577	442.92
391.026	416.95
391.475	437.28
391.924	422.6
392.373	413.28
392.822	436.43
393.27	427.68
393.719	438.12
394.168	419.49
394.617	451.39
395.065	407.35
395.514	440.1
395.962	452.52
396.411	452.8
396.859	448.85
397.307	458.44
397.756	455.9
398.204	423.16
398.652	439.25
399.1	427.96
399.548	462.39
399.996	457.31
400.444	432.2
400.892	434.45
401.34	445.46
401.788	474.24
402.236	430.5
402.683	476.78
403.131	474.81
403.579	451.11
404.026	459.57
404.474	457.31
404.921	481.86
405.369	450.82
405.816	471.42
406.263	458.16
406.71	476.22
407.158	467.75
407.605	492.01
408.052	493.14
408.499	474.81
408.946	493.71
409.393	507.81
409.84	506.4
410.286	494.83
410.733	544.46
411.18	542.48
411.626	585.6
412.073	615.73
412.52	704.38
412.966	808.09
413.413	958.2
413.859	1104.94
414.305	1334.85
414.752	1625.79
415.198	1959.11
415.644	2418
416.09	2923.29
416.536	3477.78
416.982	4155.92
417.428	4882.7
417.874	5759.05
418.32	6633.35
418.766	7572.91
419.211	8736.51
419.657	9609.91
420.103	10896.18
420.548	11744.61
420.994	13119.4
421.439	14274.91
421.885	15291.79
422.33	16708.58
422.776	17730.5
423.221	18626.97
423.666	19768.48
424.111	21073.73
424.556	21947.11
425.001	23199.92
425.446	24476.39
425.891	25549.94
426.336	26360.72
426.781	27595.34
427.226	29375.1
427.671	29917.05
428.115	30591.95
428.56	32182.36
429.005	33551.64
429.449	33891.36
429.894	35122.37
430.338	36102.4
430.782	36080.4
431.227	37604.94
431.671	37910.11
432.115	39198.71
432.559	40149.65
433.003	39891.6
433.447	40840.23
433.891	41228.89
434.335	41283.81
434.779	42113.2
435.223	42172.27
435.667	42432.29
436.111	42815.24
436.554	42540.16
436.998	42199.33
437.442	42257.92
437.885	44073.95
438.328	42501.63
438.772	42835.9
439.215	43299.02
439.659	42869.75
440.102	43339.18
440.545	42496.41
440.988	42637.87
441.431	43161.91
441.874	42622.7
442.317	43052.28
442.76	42371.18
443.203	41993.11
443.646	42515.55
444.089	42072.25
444.531	42557.06
444.974	41460.54
445.417	42411.17
445.859	41403.1
446.302	42542.64
446.744	41793.74
447.186	42950.41
447.629	41826.46
448.071	41796.96
448.513	41766.72
448.956	42977.31
449.398	42172.77
449.84	41165.81
450.282	41545.97
450.724	42222.42
451.166	41614.08
451.607	41596
452.049	41860.43
452.491	42621.46
452.933	42225.64
453.374	42666.47
453.816	43027.12
454.257	42546.12
454.699	43563.52
455.14	43353.39
455.582	42912.07
456.023	42851.33
456.464	43028.61
456.905	43464.67
457.347	43497.11
457.788	42521.76
458.229	42652.54
458.67	43641.68
459.111	41704.27
459.552	41903.08
459.992	41638.61
460.433	41500.4
460.874	40432.81
461.315	41435.04
461.755	40627.32
462.196	40251.24
462.636	39312.83
463.077	39210.26
463.517	39181.25
463.957	39411.98
464.398	39039.63
464.838	39123.46
465.278	38012.61
465.718	38357.06
466.158	37279.88
466.598	37723.8
467.038	37340.61
467.478	37756.16
467.918	37846.61
468.358	37238.74
468.798	36914.87
469.237	36733.8
469.677	36792.03
470.117	37446.92
470.556	35271.31
470.996	35832.6
471.435	35916.41
471.874	36499.95
472.314	36142.24
472.753	35387.3
473.192	35467.4
473.631	35181.21
474.07	35409.03
474.509	35412.7
474.948	35638.38
475.387	34883.88
475.826	34268.23
476.265	35605.4
476.704	35359.7
477.143	35536.03
477.581	35268.13
478.02	35808.17
478.458	34699.86
478.897	35205.38
479.335	36220.47
479.774	35586.59
480.212	35934.25
480.65	35857.04
481.089	35626.41
481.527	35204.9
481.965	34739.4
482.403	36510.22
482.841	36210.69
483.279	36236.36
483.717	36160.33
484.155	35801.82
484.592	36167.42
485.03	36443.45
485.468	35515.27
485.905	35648.15
486.343	36032.74
486.781	35524.31
487.218	35013.25
487.655	34902.68
488.093	34192.36
488.53	35400.49
488.967	34651.05
489.405	34471.22
489.842	33750.63
490.279	33746
490.716	33465.55
491.153	33792.09
491.59	33353.39
492.027	32678.25
492.463	32404.95
492.9	31809.58
493.337	31589.65
493.773	31595.5
494.21	30913.92
494.647	30811.96
495.083	30116.43
495.519	29900.69
495.956	29796.47
496.392	29276.2
496.828	29160.68
497.265	28359.95
497.701	28545.23
498.137	28211.54
498.573	27558.63
499.009	27856.17
499.445	27240.39
499.881	26726.22
500.316	26946
500.752	26131.4
501.188	25986.15
501.624	26010.93
502.059	25009.88
502.495	24842.44
502.93	24719.23
503.366	25019.96
503.801	24336.34
504.236	24074.84
504.672	23707.96
505.107	23461.66
505.542	22984.69
505.977	22916.55
506.412	22572.47
506.847	22773.57
507.282	22303.3
507.717	22027.28
508.152	21975.82
508.587	21809.51
509.021	21156.29
509.456	20972.3
509.891	20904.59
510.325	20885.99
510.76	20637.6
511.194	20491.63
511.628	20374.18
512.063	19842.09
512.497	19915.7
512.931	19517.94
513.366	19298.87
513.8	19385.26
514.234	18774.36
514.668	18782.83
515.102	18999.94
515.536	18181.99
515.969	18404.17
516.403	17975.42
516.837	17670.24
517.271	17769.99
517.704	17461.39
518.138	17345.04
518.571	17226.15
519.005	16757.21
519.438	16867.74
519.871	16565.91
520.305	16374
520.738	16213.11
521.171	15945.9
521.604	15993.63
522.037	15733.79
522.47	15573.86
522.903	15192.59
523.336	15191.83
523.769	15038.95
524.202	14654.77
524.634	14692.1
525.067	14437.01
525.5	14301.68
525.932	14245.11
526.365	13793.65
526.797	13716.48
527.23	13743.05
527.662	13287.23
528.094	13154.39
528.527	13051.93
528.959	12861.1
529.391	12693.75
529.823	12321.32
530.255	12320.3
530.687	12046.39
531.119	11874.91
531.551	11808.88
531.982	11569.58
532.414	11364
532.846	11138.28
533.277	11023.92
533.709	10750.16
534.14	10777.07
534.572	10554.02
535.003	10415.96
535.435	10185.29
535.866	10089.39
536.297	9844.66
536.728	9847.5
537.159	9739.31
537.59	9553.43
538.022	9516.53
538.452	9328.6
538.883	9069.31
539.314	9007.98
539.745	8825.67
540.176	8750.77
540.606	8503.24
541.037	8499.87
541.468	8365.81
541.898	8256.08
542.328	8228.51
542.759	8025.17
543.189	7919.88
543.619	7909.45
544.05	7630.93
544.48	7554.35
544.91	7523.76
545.34	7394.25
545.77	7313.34
546.2	7241.81
546.63	7086.83
547.06	7096.8
547.489	6942.42
547.919	6734.71
548.349	6757.87
548.778	6721.55
549.208	6573.02
549.637	6491.31
550.067	6442.51
550.496	6455.44
550.926	6313.18
551.355	6110.69
551.784	6141.12
552.213	5986.27
552.642	5899.36
553.071	5938.06
553.5	5796.46
553.929	5619.34
554.358	5669.03
554.787	5561.66
555.216	5573.89
555.645	5471.21
556.073	5341.25
556.502	5297.81
556.93	5204.2
557.359	5148.95
557.787	5161.23
558.216	5091.8
558.644	5010.03
559.072	4954.94
559.5	4871.19
559.929	4891.8
560.357	4887.25
560.785	4804.5
561.213	4761.63
561.641	4646.86
562.068	4674.76
562.496	4607.41
562.924	4585.66
563.352	4618.68
563.779	4550.75
564.207	4529.8
564.634	4447.29
565.062	4455.09
565.489	4394.31
565.917	4404.8
566.344	4350.18
566.771	4288.52
567.198	4232.21
567.625	4192.59
568.053	4161.04
568.48	4114.1
568.907	4123
569.333	4015.29
569.76	3847.39
570.187	3931.78
570.614	3859.03
571.04	4831.02
571.467	3724.72
571.894	3721.19
572.32	3600.52
572.747	3580.16
573.173	3468.27
573.599	3431.57
574.026	3368.47
574.452	3318.39
574.878	3310.77
575.304	3206.7
575.73	3201.25
576.156	3103.88
576.582	3103.33
577.008	3034.53
577.434	3021.96
577.86	2928.21
578.285	2952.82
578.711	2845.04
579.137	2849.14
579.562	2743.14
579.988	2774.93
580.413	2663.62
580.838	2616.15
581.264	2630.42
581.689	2578.81
582.114	2582.65
582.539	2612.03
582.964	2526.89
583.39	2477.68
583.814	2396.26
584.239	2362.4
584.664	2331
585.089	2316.12
585.514	2284.99
585.939	2228.74
586.363	2209.99
586.788	2193.16
587.212	2203.37
587.637	2162.53
588.061	2103.43
588.485	2051.49
588.91	2065.58
589.334	2018.04
589.758	1997.29
590.182	2010.02
590.606	1951.37
591.03	1899.32
591.454	1880.21
591.878	1921.47
592.302	1868.3
592.726	1840.31
593.15	1825.62
593.573	1802.06
593.997	1735.76
594.42	1740.76
594.844	1724.66
595.267	1709.67
595.691	1683.57
596.114	1670.24
596.537	1657.19
596.96	1645.52
597.384	1655.24
597.807	1628.29
598.23	1581.87
598.653	1581.87
599.076	1556.56
599.499	1555.73
599.921	1545.16
600.344	1522.07
600.767	1504.54
601.189	1502.03
601.612	1511.49
602.034	1492.57
602.457	1432.97
602.879	1473.36
603.302	1500.64
603.724	1439.66
604.146	1486.16
604.568	1419.6
604.991	1421.27
605.413	1416.81
605.835	1419.88
606.257	1415.98
606.678	1394.52
607.1	1422.94
607.522	1379.74
607.944	1369.99
608.365	1354.93
608.787	1361.06
609.209	1362.74
609.63	1324.81
610.051	1322.02
610.473	1311.14
610.894	1315.88
611.315	1297.18
611.737	1275.13
612.158	1251.4
612.579	1229.62
613	1267.88
613.421	1217.05
613.842	1182.12
614.263	1166.75
614.683	1182.12
615.104	1191.06
615.525	1161.99
615.945	1135.43
616.366	1126.76
616.787	1137.11
617.207	1081.16
617.627	1063.81
618.048	1089.83
618.468	1057.65
618.888	1065.48
619.308	1037.49
619.728	1024.33
620.148	1005.56
620.568	1028.81
620.988	989.59
621.408	991.83
621.828	989.31
622.248	943.34
622.668	979.5
623.087	969.69
623.507	962.97
623.926	952.03
624.346	915.86
624.765	901.56
625.185	936.9
625.604	914.74
626.023	893.14
626.442	906.89
626.861	917.27
627.28	876.87
627.699	860.31
628.118	858.07
628.537	849.92
628.956	826.34
629.375	855.26
629.794	854.42
630.212	838.41
630.631	816.79
631.049	813.42
631.468	815.11
631.886	800.22
632.305	824.94
632.723	779.43
633.141	773.25
633.559	791.8
633.978	786.46
634.396	784.49
634.814	753.58
635.232	737.28
635.65	753.3
636.067	717.31
636.485	753.02
636.903	749.65
637.321	739.24
637.738	746.27
638.156	731.37
638.573	691.16
638.991	732.78
639.408	718.44
639.825	683.56
640.243	701.85
640.66	688.06
641.077	701
641.494	679.62
641.911	683.56
642.328	678.22
642.745	678.78
643.162	659.36
643.579	666.96
643.995	660.21
644.412	643.04
644.829	687.5
645.245	654.86
645.662	657.96
646.078	665.55
646.495	641.63
646.911	645.01
647.327	624.46
647.743	620.52
648.159	657.39
648.576	590.38
648.992	628.4
649.408	642.2
649.824	589.82
650.239	607.28
650.655	601.93
651.071	601.65
651.487	605.88
651.902	608.69
652.318	582.5
652.733	563.9
653.149	596.02
653.564	580.81
653.979	564.75
654.395	591.79
654.81	590.67
655.225	599.96
655.64	599.68
656.055	572.92
656.47	572.35
656.885	577.71
657.3	569.54
657.715	580.53
658.13	565.59
658.544	555.45
658.959	581.93
659.374	585.6
659.788	536
660.202	560.52
660.617	545.58
661.031	530.64
661.445	542.48
661.86	536
662.274	532.05
662.688	570.66
663.102	538.26
663.516	555.73
663.93	560.24
664.344	547.84
664.758	531.21
665.171	542.77
665.585	531.21
665.999	553.19
666.412	504.71
666.826	534.31
667.239	519.09
667.653	504.14
668.066	553.48
668.479	516.83
668.892	506.12
669.306	520.5
669.719	523.32
670.132	516.27
670.545	510.91
670.958	505.83
671.37	505.55
671.783	486.09
672.196	503.01
672.609	518.24
673.021	494.83
673.434	516.55
673.846	510.63
674.259	475.37
674.671	489.19
675.084	506.4
675.496	495.4
675.908	483.55
676.32	523.03
676.732	497.37
677.144	475.37
677.556	511.47
677.968	475.65
678.38	485.81
678.792	488.63
679.204	466.91
679.615	485.53
680.027	488.91
680.439	496.81
680.85	490.6
681.262	488.91
681.673	459.85
682.084	439.54
682.496	476.5
682.907	479.6
683.318	478.47
683.729	489.19
684.14	476.78
684.551	458.73
684.962	476.5
685.373	466.63
685.784	446.87
686.194	465.5
686.605	438.97
687.016	459.29
687.426	457.03
687.837	438.41
688.247	454.21
688.657	468.88
689.068	454.77
689.478	444.9
689.888	462.39
690.298	476.5
690.708	471.7
691.118	407.92
691.528	453.93
691.938	437.56
692.348	434.74
692.758	435.58
693.168	465.22
693.577	447.72
693.987	460.42
694.396	435.87
694.806	434.74
695.215	457.03
695.625	451.67
696.034	442.08
696.443	456.75
696.852	435.87
697.262	434.17
697.671	444.33
698.08	449.98
698.489	453.08
698.897	410.74
699.306	400.58
699.715	416.39
700.124	413.56
700.532	417.23
700.941	433.89
701.35	423.16
701.758	437.28
702.166	407.07
702.575	456.19
702.983	438.69
703.391	418.36
703.799	424.57
704.208	438.69
704.616	414.98
705.024	444.33
705.432	433.33
705.839	426.83
706.247	429.09
706.655	442.08
707.063	390.69
707.47	416.39
707.878	438.97
708.285	400.01
708.693	408.2
709.1	439.25
709.508	416.39
709.915	415.54
710.322	429.66
710.729	443.49
711.136	433.89
711.543	416.39
711.95	431.63
712.357	433.61
712.764	429.09
713.171	440.95
713.578	414.98
713.984	375.44
714.391	414.69
714.797	418.93
715.204	418.93
715.61	401.7
716.017	409.89
716.423	407.92
716.829	420.34
717.236	419.21
717.642	425.99
718.048	445.18
718.454	429.66
718.86	428.53
719.266	423.45
719.671	416.11
720.077	416.95
720.483	410.18
720.889	412.72
721.294	406.22
721.7	415.82
722.105	426.55
722.511	412.15
722.916	447.72
723.321	414.13
723.726	403.68
724.132	407.07
724.537	418.93
724.942	373.74
725.347	408.48
725.752	417.8
726.156	416.39
726.561	426.83
726.966	386.74
727.371	416.39
727.775	410.74
728.18	413.56
728.584	413.28
728.989	424.29
729.393	414.69
729.798	397.47
730.202	428.53
730.606	424.57
731.01	423.73
731.414	433.89
731.818	405.09
732.222	418.36
732.626	391.82
733.03	414.98
733.434	424.86
733.837	426.27
734.241	429.37
734.645	414.41
735.048	425.99
735.452	409.05
735.855	403.12
736.258	383.91
736.662	422.03
737.065	427.12
737.468	416.39
737.871	408.2
738.274	424.01
738.677	420.06
739.08	423.16
739.483	415.82
739.886	404.53
740.289	421.47
740.691	404.53
741.094	419.21
741.497	420.34
741.899	388.15
742.302	391.54
742.704	417.23
743.106	418.65
743.508	401.7
743.911	390.97
744.313	411.02
744.715	412.72
745.117	406.79
745.519	411.02
745.921	426.55
746.323	397.75
746.724	404.53
747.126	398.88
747.528	386.45
747.929	412.43
748.331	428.81
748.732	419.21
749.134	389
749.535	414.98
749.936	411.59
750.338	394.08
750.739	417.23
751.14	418.93
751.541	389.28
751.942	396.34
752.343	427.4
752.744	379.68
753.144	370.64
753.545	401.7
753.946	399.16
754.346	391.82
754.747	407.92
755.148	415.54
755.548	435.02
755.948	388.43
756.349	406.51
756.749	391.26
757.149	379.96
757.549	404.81
757.949	393.23
758.349	385.32
758.749	399.45
759.149	391.26
759.549	368.66
759.949	383.91
760.348	418.08
760.748	383.91
761.148	399.73
761.547	392.95
761.947	425.42
762.346	413.56
762.745	417.52
763.145	392.67
763.544	404.25
763.943	397.47
764.342	410.18
764.741	416.95
765.14	409.89
765.539	368.38
765.938	387.87
766.336	379.96
766.735	415.26
767.134	401.7
767.532	403.4
767.931	375.16
768.329	420.34
768.728	405.66
769.126	389.84
769.525	382.78
769.923	377.7
770.321	393.8
770.719	402.27
771.117	375.16
771.515	389.84
771.913	395.77
772.311	409.61
772.709	383.63
773.106	402.55
773.504	368.38
773.902	377.7
774.299	376.57
774.697	400.58
775.094	365.83
775.491	424.57
775.889	397.75
776.286	377.98
776.683	385.04
777.08	378.26
777.477	372.61
777.874	402.55
778.271	390.41
778.668	429.94
779.065	403.12
779.462	384.76
779.858	415.82
780.255	409.33
780.652	419.78
781.048	411.59
781.444	393.51
781.841	387.87
782.237	384.48
782.633	405.09
783.03	398.6
783.426	394.64
783.822	405.38
784.218	382.78
784.614	386.17
785.01	407.35
785.405	401.42
785.801	408.48
786.197	367.81
786.593	373.74
786.988	406.79
787.384	410.18
787.779	384.48
788.174	426.83
788.57	388.43
788.965	407.07
789.36	378.83
789.755	370.07
790.15	387.3
790.545	392.1
790.94	396.34
791.335	387.58
791.73	405.38
792.125	399.73
792.52	402.27
792.914	401.99
793.309	403.68
793.703	392.1
794.098	386.74
794.492	391.54
794.887	383.35
795.281	394.08
795.675	379.96
796.069	389
796.463	377.7
796.857	382.5
797.251	402.83
797.645	385.04
798.039	404.81
798.433	413.56
798.826	360.18
799.22	379.68
799.614	377.42
800.007	396.62
800.401	370.07
800.794	401.99
801.187	364.7
801.581	378.26
801.974	390.69
802.367	412.15
802.76	390.13
803.153	384.19
803.546	364.42
803.939	377.7
804.332	394.36
804.725	364.14
805.117	383.35
805.51	406.22
805.903	372.33
806.295	403.68
806.688	404.53
807.08	390.69
807.472	400.86
807.865	386.45
808.257	396.9
808.649	371.2
809.041	402.55
809.433	374.03
809.825	388.71
810.217	395.49
810.609	374.31
811.001	401.99
811.392	387.3
811.784	374.59
812.175	379.68
812.567	363.57
812.958	394.64
813.35	414.13
813.741	388.43
814.132	392.95
814.524	380.8
814.915	396.9
815.306	394.08
815.697	394.36
816.088	401.42
816.479	386.17
816.87	404.25
817.26	393.8
817.651	417.52
818.042	377.98
818.432	386.17
818.823	368.38
819.213	361.59
819.604	416.95
819.994	380.24
820.384	381.37
820.775	381.93
821.165	372.05
821.555	392.1
821.945	401.42
822.335	393.51
822.725	376
823.114	388.43
823.504	378.26
823.894	404.25
824.284	403.12
824.673	375.44
825.063	385.04
825.452	394.93
825.842	392.1
826.231	381.37
826.62	390.97
827.009	408.48
827.399	365.27
827.788	352.27
828.177	399.45
828.566	386.74
828.954	415.54
829.343	408.2
829.732	407.35
830.121	391.26
830.509	360.46
830.898	368.66
831.286	375.72
831.675	407.07
832.063	375.44
832.452	369.22
832.84	379.96
833.228	394.08
833.616	387.3
834.004	381.93
834.392	367.81
834.78	405.09
835.168	386.74
835.556	387.87
835.944	372.33
836.331	394.93
836.719	389.56
837.107	391.26
837.494	369.79
837.881	390.41
838.269	387.02
838.656	405.38
839.043	382.5
839.431	404.53
839.818	396.06
840.205	403.96
840.592	382.22
840.979	362.16
841.366	414.41
841.752	378.26
842.139	382.22
842.526	397.75
842.912	391.54
843.299	388.15
843.685	394.36
844.072	369.51
844.458	394.64
844.844	374.03
845.231	418.93
845.617	405.09
846.003	401.14
846.389	359.9
846.775	384.19
847.161	372.61
847.547	375.44
847.933	376.57
848.318	406.22
848.704	369.79
849.09	372.33
849.475	404.25
849.861	393.8
850.246	372.05
850.631	392.67
851.017	383.63
851.402	400.58
851.787	383.06
852.172	390.69
852.557	370.35
852.942	388.15
853.327	373.74
853.712	394.36
854.097	383.06
854.481	348.88
854.866	405.09
855.25	401.42
855.635	394.36
856.019	364.42
856.404	383.63
856.788	383.63
857.172	382.22
857.557	382.5
857.941	393.23
858.325	390.41
858.709	375.72
859.093	366.68
859.477	389
859.86	396.62
860.244	374.31
860.628	394.36
861.012	401.14
861.395	394.08
861.779	403.68
862.162	398.32
862.545	363.01
862.929	409.33
863.312	365.27
863.695	389.28
864.078	412.43
864.461	381.09
864.844	368.94
865.227	375.44
865.61	380.8
865.993	399.16
866.376	396.9
866.758	370.07
867.141	382.78
867.523	402.55
867.906	359.33
868.288	353.4
868.671	403.4
869.053	372.9
869.435	377.13
869.817	401.42
870.199	355.38
870.581	395.77
870.963	390.69
871.345	366.96
871.727	372.33
872.109	380.24
872.491	356.51
872.872	403.68
873.254	367.53
873.635	367.25
874.017	385.89
874.398	372.33
874.779	391.82
875.161	370.92
875.542	374.87
875.923	388.43
876.304	356.23
876.685	386.17
877.066	371.77
877.447	364.7
877.828	360.75
878.208	374.59
878.589	401.99
878.97	416.11
879.35	361.31
879.731	375.16
880.111	374.59
880.491	384.76
880.872	381.37
881.252	386.45
881.632	372.33
882.012	372.61
882.392	388.15
882.772	384.19
883.152	380.8
883.532	389.84
883.912	401.7
884.291	372.05
884.671	398.6
885.051	346.62
885.43	384.19
885.81	378.26
886.189	377.7
886.568	377.13
886.948	384.48
887.327	362.44
887.706	371.77
888.085	377.42
888.464	348.6
888.843	387.58
889.222	383.91
889.601	393.51
889.979	382.22
890.358	372.9
890.737	393.51
891.115	396.9
891.494	383.63
891.872	367.53
892.25	387.87
892.629	402.83
893.007	422.03
893.385	386.45
893.763	355.94
894.141	357.92
894.519	385.04
894.897	382.5
895.275	371.48
895.653	363.01
896.03	370.07
896.408	373.46
896.786	377.98
897.163	381.65
897.541	364.99
897.918	376.29
898.295	383.63
898.673	351.99
899.05	412.15
899.427	403.12
899.804	382.22
900.181	376.57
900.558	363.01
900.935	398.6
901.312	379.11
901.688	400.58
902.065	378.83
902.442	385.32
902.818	369.51
903.195	375.44
903.571	355.1
903.947	372.61
904.324	369.22
904.7	382.5
905.076	376.85
905.452	375.72
905.828	369.79
906.204	389
906.58	355.38
906.956	392.39
907.331	400.58
907.707	403.96
908.083	399.45
908.458	392.39
908.834	400.86
909.209	399.16
909.585	391.54
909.96	369.51
910.335	381.65
910.71	371.48
911.086	383.35
911.461	377.7
911.836	388.71
912.21	380.24
912.585	392.95
912.96	401.14
913.335	364.99
913.709	382.5
914.084	378.55
914.459	367.81
914.833	383.91
915.207	364.14
915.582	387.02
915.956	363.57
916.33	364.99
916.704	383.63
917.078	386.45
917.452	377.98
917.826	378.55
918.2	377.98
918.574	405.94
918.948	360.46
919.321	406.22
919.695	390.13
920.068	389.28
920.442	366.12
920.815	356.79
921.189	353.4
921.562	391.82
921.935	398.32
922.308	379.39
922.681	393.51
923.054	374.59
923.427	387.58
923.8	372.05
924.173	390.69
924.546	388.71
924.919	369.79
925.291	382.5
925.664	389.56
926.036	390.13
926.409	357.92
926.781	390.97
927.153	379.39
927.526	388.43
927.898	372.05
928.27	349.44
928.642	374.87
929.014	369.22
929.386	396.06
929.758	383.06
930.129	370.64
930.501	349.44
930.873	367.53
931.244	380.52
931.616	359.33
931.987	377.13
932.359	409.05
932.73	370.35
933.101	377.13
933.472	372.9
933.843	390.97
934.214	383.91
934.585	374.03
934.956	359.9
935.327	385.04
935.698	383.91
936.069	356.51
936.439	387.87
936.81	355.66
937.18	382.78
937.551	374.03
937.921	388.15
938.292	375.72
938.662	364.99
939.032	381.37
939.402	385.89
939.772	376.85
940.142	355.1
940.512	356.51
940.882	385.32
941.252	391.26
941.621	378.83
941.991	350.86
942.361	380.52
942.73	360.75
943.1	374.87
943.469	370.35
943.838	363.29
944.208	380.52
944.577	335.88
944.946	372.61
945.315	387.58
945.684	348.03
946.053	381.93
946.422	367.81
946.791	364.14
947.159	375.44
947.528	376
947.897	383.91
948.265	364.99
948.634	365.83
949.002	347.18
949.371	361.88
949.739	367.81
950.107	399.73
950.475	373.74
950.843	374.31
951.211	389.84
951.579	372.61
951.947	377.42
952.315	386.17
952.683	378.26
953.05	355.94
953.418	390.41
953.785	393.23
954.153	369.51
954.52	394.64
954.888	384.19
955.255	385.32
955.622	367.25
955.989	381.65
956.356	381.37
956.723	364.7
957.09	360.18
957.457	383.06
957.824	365.55
958.191	391.26
958.557	379.96
958.924	389.84
959.291	371.2
959.657	380.52
960.023	414.13
960.39	404.53
960.756	366.96
961.122	362.44
961.488	340.68
961.855	359.33
962.221	385.04
962.586	357.07
962.952	376.57
963.318	394.64
963.684	379.11
964.05	394.93
964.415	387.87
964.781	369.51
965.146	375.44
965.512	372.61
965.877	398.32
966.242	392.39
966.608	383.63
966.973	343.79
967.338	353.12
967.703	366.96
968.068	394.64
968.433	378.83
968.797	370.92
969.162	367.25
969.527	366.4
969.891	369.51
970.256	379.96
970.62	347.18
970.985	367.81
971.349	366.4
971.714	390.69
972.078	384.76
972.442	350.01
972.806	386.17
973.17	384.19
973.534	383.35
973.898	359.62
974.262	377.7
974.625	368.38
974.989	332.2
975.353	381.37
975.716	364.42
976.08	366.96
976.443	364.42
976.806	387.3
977.17	377.98
977.533	377.7
977.896	377.98
978.259	366.12
978.622	380.52
978.985	372.61
979.348	363.01
979.711	340.97
980.073	376.57
980.436	385.04
980.799	379.39
981.161	374.87
981.524	365.27
981.886	371.48
982.248	366.68
982.611	378.55
982.973	368.94
983.335	390.97
983.697	385.04
984.059	355.38
984.421	367.53
984.783	357.07
985.145	355.38
985.506	340.68
985.868	354.25
986.23	396.9
986.591	373.18
986.953	380.24
987.314	375.72
987.675	377.7
988.037	1224.87
988.398	387.3
988.759	353.4
989.12	357.92
989.481	345.49
989.842	401.42
990.203	361.59
990.564	373.46
990.924	377.98
991.285	885.01
991.646	380.24
992.006	357.92
992.367	380.24
992.727	394.93
993.087	370.92
993.448	375.72
993.808	378.26
994.168	392.67
994.528	380.8
994.888	374.87
995.248	375.72
995.608	377.13
995.967	353.12
996.327	360.46
996.687	372.05
997.046	385.04
997.406	356.23
997.765	378.26
998.125	367.81
998.484	343.51
998.843	392.1
999.202	357.07
999.561	370.92
999.92	353.68
1000.279	383.63
1000.638	368.09
1000.997	381.65
1001.356	354.53
1001.715	380.24
1002.073	390.41
1002.432	374.31
1002.79	377.7
1003.149	366.4
1003.507	368.94
1003.865	389.84
1004.224	379.96
1004.582	361.31
1004.94	372.33
1005.298	367.25
1005.656	361.88
1006.014	366.12
1006.371	376.85
1006.729	371.77
1007.087	374.31
1007.445	364.42
1007.802	381.09
1008.16	351.71
1008.517	372.61
1008.874	377.42
1009.232	383.06
1009.589	419.21
1009.946	388.15
1010.303	357.36
1010.66	362.16
1011.017	368.94
1011.374	381.37
1011.731	389.28
1012.087	369.22
1012.444	359.9
1012.801	389
1013.157	357.64
1013.513	370.35
1013.87	362.44
1014.226	357.92
1014.582	399.45
1014.939	381.37
1015.295	365.83
1015.651	385.89
1016.007	379.96
1016.363	402.83
1016.719	378.55
1017.074	379.68
1017.43	349.73
1017.786	403.12
1018.141	387.58
1018.497	326.83
1018.852	377.7
1019.208	385.89
1019.563	374.87
1019.918	365.55
1020.273	378.26
1020.628	360.46
1020.983	370.64
1021.338	373.46
1021.693	386.17
1022.048	370.64
1022.403	390.97
1022.757	350.29
1023.112	389
1023.467	395.77
1023.821	362.72
1024.175	382.5
1024.53	365.83
1024.884	373.46
1025.238	382.22
1025.592	393.8
1025.946	346.05
1026.3	361.59
1026.654	360.18
1027.008	379.39
1027.362	369.79
1027.716	366.12
1028.069	374.59
1028.423	376.29
1028.777	375.44
1029.13	372.33
1029.483	385.89
1029.837	388.43
1030.19	379.39
1030.543	380.8
1030.896	364.42
1031.249	358.77
1031.602	392.39
1031.955	374.59
1032.308	366.96
1032.661	342.1
1033.013	370.64
1033.366	377.98
1033.719	368.38
1034.071	354.81
1034.424	367.81
1034.776	364.14
1035.128	388.15
1035.48	379.68
1035.833	372.9
1036.185	380.8
1036.537	380.8
1036.889	380.8
