Data from SCSF78_irradiation_FLMS019251_01-42-13-277.txt Node
Date: Thu Feb 21 01:42:13 PST 2019
User: mu3e
Spectrometer: FLMS01925
Trigger mode: 0
Integration Time (sec): 6.500000E-2
Scans to average: 10
Electric dark correction enabled: true
Nonlinearity correction enabled: true
Boxcar width: 0
XAxis mode: Wavelengths
Number of Pixels in Spectrum: 2048
>>>>>Begin Spectral Data<<<<<
187.103	-115.43
187.574	-115.43
188.045	-115.43
188.516	-135.91
188.987	-112.87
189.458	-114.86
189.929	-131.64
190.4	-113.16
190.871	-109.46
191.342	-94.96
191.813	-40.11
192.284	-28.75
192.754	-28.75
193.225	16.68
193.696	27.75
194.166	26.61
194.637	57.54
195.107	109.73
195.578	115.39
196.048	141.47
196.518	165.55
196.989	167.54
197.459	208.88
197.929	229.83
198.399	284.16
198.869	302.26
199.339	298.01
199.809	310.74
200.279	330.24
200.749	375.46
201.219	356.24
201.689	366.98
202.159	353.98
202.628	384.21
203.098	358.5
203.568	378.56
204.037	386.75
204.507	399.75
204.976	393.81
205.445	373.2
205.915	395.79
206.384	392.69
206.853	390.14
207.323	449.15
207.792	387.6
208.261	382.8
208.73	409.06
209.199	398.33
209.668	386.19
210.137	378.56
210.606	396.92
211.075	361.61
211.543	392.97
212.012	368.39
212.481	375.17
212.95	337.03
213.418	406.24
213.887	352.29
214.355	355.68
214.824	364.44
215.292	364.44
215.76	352.57
216.229	349.74
216.697	368.39
217.165	376.3
217.633	365.85
218.101	360.48
218.569	376.87
219.037	336.18
219.505	363.31
219.973	358.22
220.441	358.22
220.909	355.68
221.377	358.5
221.844	344.94
222.312	340.98
222.78	337.88
223.247	339.01
223.715	352.57
224.182	356.24
224.65	328.27
225.117	357.09
225.584	364.16
226.052	333.07
226.519	363.87
226.986	355.96
227.453	326.57
227.92	369.24
228.387	381.39
228.854	347.48
229.321	374.33
229.788	342.96
230.255	350.31
230.722	355.96
231.189	357.94
231.655	358.5
232.122	366.98
232.589	365
233.055	370.94
233.522	367.55
233.988	367.55
234.454	378.28
234.921	369.52
235.387	370.09
235.853	366.7
236.32	369.81
236.786	381.39
237.252	389.01
237.718	367.55
238.184	368.68
238.65	402.85
239.116	369.52
239.582	380.26
240.047	368.39
240.513	379.69
240.979	343.81
241.445	348.33
241.91	374.33
242.376	369.81
242.841	351.16
243.307	376.87
243.772	388.17
244.238	364.72
244.703	384.21
245.168	385.62
245.633	387.32
246.099	363.02
246.564	372.63
247.029	389.3
247.494	378.85
247.959	413.02
248.424	373.2
248.889	387.88
249.353	376.59
249.818	366.42
250.283	405.68
250.748	379.13
251.212	380.54
251.677	354.55
252.141	364.72
252.606	400.59
253.07	387.04
253.535	379.98
253.999	366.98
254.463	379.69
254.927	392.12
255.392	369.81
255.856	400.59
256.32	387.32
256.784	367.83
257.248	385.06
257.712	370.09
258.176	386.75
258.64	380.54
259.103	392.69
259.567	389.01
260.031	370.09
260.495	366.42
260.958	412.17
261.422	397.77
261.885	389.58
262.349	373.76
262.812	380.54
263.275	390.71
263.739	396.64
264.202	411.04
264.665	371.22
265.128	385.06
265.591	385.34
266.054	414.71
266.517	390.71
266.98	373.2
267.443	405.39
267.906	385.62
268.369	380.54
268.832	390.99
269.294	394.38
269.757	399.46
270.22	372.07
270.682	375.46
271.145	370.65
271.607	400.03
272.07	425.44
272.532	379.69
272.994	394.66
273.456	381.95
273.919	399.75
274.381	389.3
274.843	398.05
275.305	392.97
275.767	382.23
276.229	402.29
276.691	396.07
277.153	390.71
277.614	389.01
278.076	400.03
278.538	404.55
279	377.15
279.461	391.84
279.923	412.17
280.384	409.91
280.846	392.97
281.307	399.46
281.769	378.28
282.23	402
282.691	410.76
283.152	403.7
283.613	378
284.075	356.24
284.536	387.88
284.997	390.71
285.458	361.61
285.918	394.1
286.379	403.13
286.84	404.26
287.301	406.81
287.762	400.31
288.222	359.92
288.683	407.65
289.143	408.5
289.604	412.17
290.064	398.05
290.525	374.61
290.985	409.63
291.445	368.68
291.906	374.61
292.366	387.04
292.826	396.64
293.286	401.16
293.746	375.46
294.206	378.28
294.666	414.71
295.126	388.45
295.586	401.44
296.046	385.34
296.506	404.55
296.965	391.84
297.425	388.45
297.884	372.35
298.344	398.05
298.804	399.18
299.263	414.99
299.722	404.83
300.182	407.93
300.641	398.33
301.1	382.23
301.559	402.85
302.019	402.85
302.478	397.77
302.937	381.11
303.396	385.34
303.855	413.86
304.314	418.38
304.772	423.75
305.231	403.98
305.69	387.04
306.149	388.73
306.607	383.93
307.066	388.17
307.524	404.83
307.983	424.31
308.441	387.04
308.9	415.84
309.358	406.52
309.816	419.79
310.275	390.71
310.733	391.84
311.191	374.04
311.649	415.84
312.107	404.55
312.565	418.95
313.023	428.54
313.481	400.03
313.939	420.08
314.397	407.37
314.854	408.5
315.312	396.36
315.77	412.73
316.227	413.58
316.685	418.38
317.142	378
317.6	413.3
318.057	402
318.514	407.37
318.972	439.84
319.429	416.69
319.886	410.19
320.343	395.23
320.8	422.05
321.257	402.85
321.714	439.27
322.171	412.17
322.628	404.83
323.085	418.95
323.542	393.25
323.998	396.07
324.455	400.88
324.912	441.81
325.368	424.31
325.825	396.92
326.281	403.42
326.738	379.69
327.194	417.25
327.65	423.46
328.107	420.92
328.563	400.59
329.019	419.23
329.475	407.93
329.931	403.98
330.387	428.26
330.843	390.14
331.299	402.85
331.755	403.42
332.211	421.77
332.666	417.25
333.122	387.6
333.578	422.9
334.033	383.93
334.489	402.85
334.944	411.32
335.4	398.9
335.855	428.26
336.31	402.29
336.766	401.16
337.221	388.73
337.676	410.48
338.131	433.91
338.586	414.99
339.041	412.73
339.496	410.76
339.951	414.71
340.406	419.79
340.861	424.03
341.316	428.83
341.771	393.25
342.225	388.17
342.68	420.08
343.134	424.31
343.589	428.26
344.043	407.37
344.498	415.84
344.952	433.63
345.406	437.01
345.861	429.96
346.315	411.32
346.769	387.04
347.223	389.86
347.677	399.75
348.131	401.72
348.585	429.11
349.039	411.89
349.493	403.42
349.947	421.77
350.401	407.09
350.854	412.17
351.308	431.65
351.762	389.86
352.215	425.72
352.669	399.75
353.122	411.89
353.575	408.5
354.029	428.54
354.482	410.76
354.935	396.92
355.388	376.02
355.842	429.39
356.295	435.88
356.748	391.27
357.201	402.85
357.654	400.88
358.106	437.86
358.559	387.88
359.012	377.15
359.465	411.32
359.917	400.03
360.37	419.51
360.823	418.38
361.275	419.51
361.728	455.07
362.18	426
362.632	427.42
363.085	403.98
363.537	422.33
363.989	424.31
364.441	452.53
364.893	395.23
365.345	388.17
365.797	406.81
366.249	426.57
366.701	404.55
367.153	441.81
367.605	423.18
368.057	405.96
368.508	422.33
368.96	437.29
369.411	409.06
369.863	408.78
370.314	427.7
370.766	434.75
371.217	438.71
371.669	431.65
372.12	441.53
372.571	428.83
373.022	425.72
373.473	420.08
373.924	424.03
374.375	400.59
374.826	420.36
375.277	422.62
375.728	432.78
376.179	417.25
376.63	410.19
377.08	432.21
377.531	424.31
377.981	426.29
378.432	399.18
378.883	406.81
379.333	411.04
379.783	414.71
380.234	441.25
380.684	435.88
381.134	463.26
381.584	426
382.034	442.94
382.485	446.04
382.935	427.98
383.385	449.15
383.834	420.08
384.284	413.86
384.734	424.59
385.184	426.29
385.634	414.15
386.083	422.33
386.533	433.34
386.982	410.76
387.432	437.58
387.881	429.11
388.331	442.09
388.78	433.91
389.229	430.52
389.679	448.3
390.128	440.12
390.577	473.98
391.026	433.91
391.475	414.71
391.924	399.18
392.373	434.75
392.822	429.11
393.27	414.15
393.719	439.55
394.168	454.79
394.617	431.93
395.065	435.04
395.514	462.98
395.962	472.29
396.411	425.72
396.859	444.63
397.307	451.41
397.756	444.92
398.204	442.09
398.652	442.09
399.1	452.25
399.548	449.71
399.996	427.13
400.444	449.15
400.892	443.79
401.34	455.36
401.788	501.34
402.236	471.44
402.683	474.83
403.131	464.67
403.579	481.03
404.026	469.18
404.474	446.04
404.921	505.01
405.369	464.1
405.816	475.39
406.263	490.06
406.71	478.77
407.158	461.56
407.605	496.54
408.052	521.64
408.499	499.65
408.946	504.44
409.393	530.1
409.84	499.08
410.286	536.3
410.733	555.47
411.18	571.53
411.626	628.7
412.073	662.2
412.52	744.6
412.966	889.79
413.413	1037.23
413.859	1255.33
414.305	1495.09
414.752	1907.92
415.198	2311.46
415.644	2799.33
416.09	3479.42
416.536	4099.28
416.982	4951.75
417.428	5865.71
417.874	6861.76
418.32	7925.89
418.766	9056.39
419.211	10407.25
419.657	11584.65
420.103	12995.12
420.548	14065.48
420.994	15741.34
421.439	17002.29
421.885	18137.05
422.33	19890.85
422.776	21128.29
423.221	22322.35
423.666	23738.54
424.111	25198.66
424.556	26272.7
425.001	27726.52
425.446	29252.77
425.891	30615.13
426.336	31410.69
426.781	32820.65
427.226	35103.1
427.671	35646.21
428.115	36556.46
428.56	38318.54
429.005	39961.84
429.449	40314.65
429.894	41971.79
430.338	43120.56
430.782	43134.76
431.227	44780.23
431.671	45205.72
432.115	46731.35
432.559	47687.56
433.003	47537.54
433.447	48521.44
433.891	48916.9
434.335	49373.64
434.779	50003.14
435.223	50125.79
435.667	50181.27
436.111	50809.66
436.554	50590.6
436.998	49929.43
437.442	50056.43
437.885	52199.79
438.328	50466.4
438.772	50824.52
439.215	51379.04
439.659	50782.6
440.102	51155.97
440.545	50263.11
440.988	50092.68
441.431	50948.56
441.874	50598.53
442.317	50930.75
442.76	50088.47
443.203	49535.53
443.646	50201
444.089	49644.15
444.531	50154.97
444.974	48840.22
445.417	49847.15
445.859	48876.48
446.302	49908.2
446.744	49162.39
447.186	50308.94
447.629	49192.8
448.071	49154.08
448.513	49226.08
448.956	50468.25
449.398	49622.47
449.84	48462.08
450.282	49036.71
450.724	49601.84
451.166	48988.98
451.607	49121.35
452.049	49158.5
452.491	50088.21
452.933	49501.88
453.374	50150.5
453.816	50443.43
454.257	50191.26
454.699	51072.02
455.14	50641.66
455.582	50285.76
456.023	50363.23
456.464	50479.07
456.905	50968.76
457.347	51004.94
457.788	49787.45
458.229	50063.26
458.67	51108.52
459.111	49028.15
459.552	49115.37
459.992	48791.55
460.433	48478.85
460.874	47538.05
461.315	48633.53
461.755	47719.08
462.196	47136.24
462.636	46341.85
463.077	45923.04
463.517	46040.67
463.957	46289.12
464.398	45773.66
464.838	46003.47
465.278	44675.77
465.718	44868.16
466.158	43780.1
466.598	44358.72
467.038	43739.62
467.478	44095.74
467.918	44223.93
468.358	43527.33
468.798	43096.64
469.237	42965.12
469.677	42962.38
470.117	43519.84
470.556	41139.11
470.996	41840.36
471.435	41765.5
471.874	42476.29
472.314	42187.92
472.753	41199.71
473.192	41366.73
473.631	40947.5
474.07	41181.16
474.509	41149.5
474.948	41589.58
475.387	40801.21
475.826	39812.29
476.265	41379.35
476.704	41032.54
477.143	41388.27
477.581	40940.08
478.02	41713.7
478.458	40325.01
478.897	40905.73
479.335	42093.61
479.774	41432.58
480.212	41710.48
480.65	41652.75
481.089	41321.94
481.527	40704.88
481.965	40292.94
482.403	42269.61
482.841	41943.76
483.279	41826.23
483.717	42019.92
484.155	41386.29
484.592	41822.51
485.03	41955.92
485.468	40982.1
485.905	41196.99
486.343	41732.54
486.781	41116.36
487.218	40375.59
487.655	40303.55
488.093	39412.98
488.53	40835.55
488.967	39913.05
489.405	39812.54
489.842	38943.54
490.279	39046.28
490.716	38485.94
491.153	38897.09
491.59	38266.52
492.027	37736.81
492.463	37256.39
492.9	36514.64
493.337	36383.31
493.773	36384.78
494.21	35654.76
494.647	35485
495.083	34715.49
495.519	34209.45
495.956	34263.36
496.392	33568.72
496.828	33436.55
497.265	32504.43
497.701	32669.24
498.137	32436.41
498.573	31519.93
499.009	32010.74
499.445	31229.02
499.881	30783.44
500.316	30926.13
500.752	30018.59
501.188	29857.51
501.624	29736.69
502.059	28457.01
502.495	28331.6
502.93	28371.94
503.366	28537.92
503.801	27842.98
504.236	27508.72
504.672	27255.59
505.107	26874.73
505.542	26268.77
505.977	26204.51
506.412	25767.24
506.847	26047.51
507.282	25638.6
507.717	25218.32
508.152	25180.48
508.587	24957.53
509.021	24206.86
509.456	23976.82
509.891	23979.78
510.325	23918.19
510.76	23536.39
511.194	23274.94
511.628	23431.58
512.063	22613.75
512.497	22835.57
512.931	22207.37
513.366	22154.2
513.8	22189.56
514.234	21348.13
514.668	21453.43
515.102	21573.81
515.536	20791.98
515.969	21015.47
516.403	20467.56
516.837	20137.19
517.271	20188.62
517.704	19818.73
518.138	19597.58
518.571	19545.33
519.005	19255.05
519.438	19074.96
519.871	18956.1
520.305	18477.05
520.738	18473.06
521.171	17903.97
521.604	18115.82
522.037	17810
522.47	17502.69
522.903	17146.8
523.336	17125.51
523.769	17075.68
524.202	16542.85
524.634	16518.52
525.067	16308.51
525.5	16198.57
525.932	15991.13
526.365	15705.64
526.797	15530.11
527.23	15556.27
527.662	15068.69
528.094	14842.65
528.527	14784.66
528.959	14628.81
529.391	14386.79
529.823	13886.24
530.255	13926.95
530.687	13669.93
531.119	13365.29
531.551	13351.61
531.982	13024.04
532.414	12848.93
532.846	12676.49
533.277	12504.19
533.709	12126.12
534.14	12041.06
534.572	11887.16
535.003	11797.93
535.435	11509.86
535.866	11305.25
536.297	11132.92
536.728	11056.18
537.159	10995.52
537.59	10767.34
538.022	10691.99
538.452	10487.58
538.883	10203.56
539.314	10181.19
539.745	9976.74
540.176	9875.58
540.606	9512.68
541.037	9594.45
541.468	9413.31
541.898	9288.57
542.328	9242.32
542.759	9021.46
543.189	8960.89
543.619	8835.27
544.05	8649.12
544.48	8544.28
544.91	8461.44
545.34	8331.77
545.77	8166.33
546.2	8068.69
546.63	7943.1
547.06	7932.41
547.489	7770.15
547.919	7572.14
548.349	7601.16
548.778	7448.7
549.208	7327.76
549.637	7234.23
550.067	7128.03
550.496	7162.66
550.926	7013.35
551.355	6832.32
551.784	6883.32
552.213	6759.72
552.642	6605.71
553.071	6570.41
553.5	6512.94
553.929	6299.19
554.358	6318.21
554.787	6189
555.216	6219.66
555.645	6058.31
556.073	5978.08
556.502	5894.08
556.93	5759.59
557.359	5725.61
557.787	5765.43
558.216	5651.51
558.644	5545.72
559.072	5515.4
559.5	5456.85
559.929	5420.65
560.357	5406.27
560.785	5263.43
561.213	5290.63
561.641	5253.03
562.068	5180.46
562.496	5098.76
562.924	5072.05
563.352	5049.34
563.779	4996.41
564.207	5004.7
564.634	4928.21
565.062	4911.08
565.489	4848.44
565.917	4827.29
566.344	4752
566.771	4757.63
567.198	4723.05
567.625	4646.88
568.053	4536.26
568.48	4482.52
568.907	4465.05
569.333	4452.68
569.76	4238.43
570.187	4312.77
570.614	4214.17
571.04	5066.17
571.467	4088.75
571.894	4061.22
572.32	3930.72
572.747	3911.52
573.173	3854.71
573.599	3810.59
574.026	3706.3
574.452	3668.35
574.878	3615.46
575.304	3510.94
575.73	3482.41
576.156	3412.55
576.582	3409.83
577.008	3298.53
577.434	3272.12
577.86	3184.09
578.285	3178.37
578.711	3136.36
579.137	3097.62
579.562	3017.61
579.988	3051.48
580.413	2970.34
580.838	2895.41
581.264	2888.84
581.689	2839.58
582.114	2779.05
582.539	2866.68
582.964	2695.18
583.39	2651.84
583.814	2658.97
584.239	2594.2
584.664	2572.78
585.089	2546.69
585.514	2487.32
585.939	2444.7
586.363	2427.64
586.788	2390.22
587.212	2379.48
587.637	2321.1
588.061	2245.86
588.485	2227.93
588.91	2210.28
589.334	2205.32
589.758	2150.4
590.182	2154.54
590.606	2133.55
591.03	2049.29
591.454	2048.46
591.878	2010.86
592.302	2032.43
592.726	2021.09
593.15	1973.52
593.573	1932.56
593.997	1893.24
594.42	1886.32
594.844	1867.48
595.267	1848.36
595.691	1800.41
596.114	1812.05
596.537	1798.19
596.96	1805.96
597.384	1723.57
597.807	1732.45
598.23	1746.32
598.653	1737.17
599.076	1698.86
599.499	1661.93
599.921	1700.25
600.344	1661.37
600.767	1663.04
601.189	1644.7
601.612	1622.75
602.034	1611.08
602.457	1604.96
602.879	1610.52
603.302	1583.56
603.724	1546.57
604.146	1544.34
604.568	1527.37
604.991	1523.48
605.413	1569.65
605.835	1517.08
606.257	1503.44
606.678	1510.4
607.1	1491.47
607.522	1481.45
607.944	1469.75
608.365	1462.51
608.787	1431.6
609.209	1454.16
609.63	1471.42
610.051	1395.93
610.473	1374.74
610.894	1385.62
611.315	1391.19
611.737	1369.45
612.158	1317.85
612.579	1284.08
613	1308.92
613.421	1290.5
613.842	1302.22
614.263	1232.15
614.683	1266.78
615.104	1239.97
615.525	1185.49
615.945	1218.18
616.366	1208.41
616.787	1211.48
617.207	1167.6
617.627	1147.47
618.048	1136.57
618.468	1140.2
618.888	1125.1
619.308	1096.57
619.728	1068.3
620.148	1093.21
620.568	1095.17
620.988	1053.74
621.408	1047.03
621.828	1004.74
622.248	1039.19
622.668	1027.14
623.087	984.28
623.507	985.4
623.926	1008.94
624.346	985.96
624.765	972.51
625.185	952.05
625.604	950.09
626.023	941.68
626.442	931.02
626.861	924.57
627.28	924.57
627.699	930.18
628.118	907.75
628.537	913.64
628.956	876.61
629.375	852.19
629.794	883.9
630.212	860.61
630.631	838.43
631.049	850.78
631.468	853.31
631.886	836.75
632.305	859.77
632.723	853.31
633.141	823.27
633.559	811.19
633.978	783.1
634.396	828.32
634.814	780.29
635.232	777.48
635.65	783.95
636.067	776.08
636.485	759.78
636.903	749.1
637.321	747.13
637.738	746.85
638.156	756.97
638.573	720.71
638.991	744.32
639.408	739.54
639.825	702.99
640.243	737.01
640.66	732.51
641.077	726.33
641.494	712.83
641.911	713.39
642.328	718.46
642.745	691.74
643.162	689.21
643.579	693.71
643.995	699.89
644.412	683.58
644.829	680.77
645.245	681.61
645.662	650.66
646.078	656.57
646.495	647.28
646.911	641.93
647.327	659.94
647.743	656.57
648.159	630.95
648.576	649.81
648.992	645.59
649.408	648.12
649.824	633.77
650.239	605.61
650.655	635.74
651.071	652.06
651.487	633.49
651.902	644.46
652.318	616.59
652.733	602.51
653.149	611.81
653.564	586.18
653.979	605.33
654.395	611.24
654.81	583.64
655.225	577.73
655.64	596.88
656.055	602.23
656.47	604.77
656.885	614.62
657.3	588.15
657.715	589.56
658.13	579.7
658.544	589.84
658.959	587.02
659.374	542.78
659.788	583.36
660.202	571.25
660.617	593.22
661.031	551.52
661.445	593.5
661.86	572.65
662.274	554.06
662.688	553.49
663.102	538.84
663.516	596.88
663.93	546.45
664.344	538.84
664.758	541.94
665.171	545.04
665.585	560.26
665.999	542.5
666.412	523.05
666.826	525.31
667.239	532.64
667.653	519.1
668.066	516
668.479	541.94
668.892	508.11
669.306	539.4
669.719	523.9
670.132	513.18
670.545	506.98
670.958	528.41
671.37	506.98
671.783	500.49
672.196	515.72
672.609	507.26
673.021	503.03
673.434	507.26
673.846	531.23
674.259	519.95
674.671	488.65
675.084	490.9
675.496	516.85
675.908	489.78
676.32	479.9
676.732	485.83
677.144	512.05
677.556	492.88
677.968	512.05
678.38	484.98
678.792	485.83
679.204	498.8
679.615	509.23
680.027	482.44
680.439	484.7
680.85	488.37
681.262	474.83
681.673	508.11
682.084	462.41
682.496	494.85
682.907	495.7
683.318	468.9
683.729	475.67
684.14	466.93
684.551	464.67
684.962	492.03
685.373	461.28
685.784	469.46
686.194	462.98
686.605	459.87
687.016	484.42
687.426	462.69
687.837	492.31
688.247	469.75
688.657	462.69
689.068	463.26
689.478	472.85
689.888	471.16
690.298	444.92
690.708	471.44
691.118	471.72
691.528	442.09
691.938	473.41
692.348	459.59
692.758	457.61
693.168	467.77
693.577	423.46
693.987	461.56
694.396	451.41
694.806	449.43
695.215	453.38
695.625	442.09
696.034	429.11
696.443	456.77
696.852	460.72
697.262	448.02
697.671	448.58
698.08	434.75
698.489	451.69
698.897	452.53
699.306	452.82
699.715	447.17
700.124	472.85
700.532	438.42
700.941	464.1
701.35	438.14
701.758	451.69
702.166	444.07
702.575	468.34
702.983	401.16
703.391	449.71
703.799	414.71
704.208	427.42
704.616	450.56
705.024	423.18
705.432	442.94
705.839	447.46
706.247	446.61
706.655	452.25
707.063	445.2
707.47	431.93
707.878	427.7
708.285	419.79
708.693	446.89
709.1	425.44
709.508	430.24
709.915	401.72
710.322	435.88
710.729	429.11
711.136	427.98
711.543	407.09
711.95	405.96
712.357	405.68
712.764	399.46
713.171	426.29
713.578	444.92
713.984	433.91
714.391	411.04
714.797	429.11
715.204	431.37
715.61	450
716.017	427.13
716.423	415.84
716.829	447.74
717.236	429.96
717.642	412.17
718.048	426.57
718.454	460.15
718.86	432.21
719.266	423.46
719.671	416.97
720.077	423.46
720.483	441.81
720.889	441.81
721.294	421.77
721.7	402.57
722.105	414.15
722.511	409.35
722.916	406.81
723.321	433.34
723.726	426.57
724.132	413.86
724.537	390.99
724.942	404.83
725.347	416.12
725.752	381.95
726.156	429.96
726.561	407.65
726.966	409.91
727.371	429.67
727.775	421.77
728.18	455.07
728.584	424.59
728.989	431.37
729.393	424.59
729.798	406.24
730.202	441.81
730.606	396.36
731.01	409.63
731.414	433.91
731.818	418.95
732.222	416.41
732.626	400.88
733.03	427.42
733.434	441.25
733.837	410.48
734.241	428.83
734.645	408.5
735.048	403.7
735.452	405.11
735.855	425.72
736.258	412.73
736.662	447.46
737.065	427.13
737.468	424.31
737.871	401.72
738.274	429.96
738.677	424.59
739.08	417.82
739.483	405.11
739.886	410.76
740.289	407.93
740.691	422.62
741.094	398.33
741.497	412.73
741.899	404.55
742.302	378.56
742.704	377.43
743.106	429.11
743.508	413.58
743.911	393.81
744.313	412.45
744.715	420.08
745.117	406.24
745.519	401.72
745.921	381.67
746.323	416.12
746.724	403.42
747.126	404.55
747.528	424.03
747.929	396.92
748.331	393.25
748.732	390.71
749.134	431.37
749.535	408.5
749.936	422.05
750.338	403.7
750.739	427.13
751.14	409.63
751.541	416.69
751.942	379.41
752.343	393.81
752.744	408.5
753.144	405.96
753.545	421.77
753.946	408.5
754.346	419.79
754.747	389.3
755.148	404.26
755.548	398.33
755.948	402
756.349	409.63
756.749	411.61
757.149	372.91
757.549	426.57
757.949	395.51
758.349	405.68
758.749	396.36
759.149	402.29
759.549	395.51
759.949	426.57
760.348	389.3
760.748	384.49
761.148	413.58
761.547	396.92
761.947	427.13
762.346	402
762.745	405.11
763.145	403.13
763.544	392.97
763.943	369.81
764.342	371.22
764.741	379.41
765.14	370.37
765.539	386.19
765.938	422.33
766.336	372.91
766.735	363.59
767.134	396.64
767.532	416.12
767.931	403.98
768.329	385.91
768.728	407.65
769.126	403.98
769.525	411.04
769.923	405.68
770.321	386.75
770.719	386.75
771.117	379.41
771.515	403.7
771.913	398.05
772.311	398.9
772.709	405.39
773.106	409.91
773.504	400.03
773.902	389.86
774.299	381.67
774.697	400.59
775.094	379.41
775.491	409.06
775.889	381.11
776.286	395.23
776.683	408.22
777.08	399.46
777.477	385.34
777.874	431.65
778.271	400.31
778.668	393.53
779.065	370.37
779.462	401.72
779.858	389.58
780.255	368.96
780.652	403.42
781.048	398.62
781.444	415.84
781.841	385.34
782.237	385.91
782.633	394.66
783.03	370.65
783.426	391.56
783.822	400.31
784.218	403.13
784.614	392.4
785.01	388.73
785.405	403.13
785.801	402.57
786.197	423.46
786.593	414.99
786.988	370.94
787.384	400.88
787.779	384.49
788.174	402.57
788.57	385.91
788.965	390.71
789.36	401.16
789.755	382.52
790.15	397.2
790.545	371.78
790.94	384.49
791.335	397.49
791.73	380.82
792.125	383.65
792.52	386.47
792.914	417.82
793.309	374.89
793.703	399.18
794.098	389.3
794.492	359.92
794.887	404.83
795.281	400.59
795.675	417.53
796.069	369.52
796.463	409.06
796.857	386.47
797.251	397.49
797.645	379.13
798.039	379.41
798.433	411.89
798.826	397.49
799.22	388.17
799.614	404.26
800.007	389.58
800.401	376.3
800.794	377.15
801.187	424.59
801.581	387.88
801.974	407.65
802.367	380.54
802.76	381.11
803.153	373.76
803.546	394.94
803.939	403.98
804.332	409.06
804.725	409.35
805.117	396.64
805.51	396.64
805.903	374.33
806.295	378.56
806.688	393.53
807.08	386.75
807.472	400.88
807.865	396.92
808.257	398.05
808.649	419.79
809.041	387.6
809.433	377.43
809.825	379.13
810.217	380.54
810.609	406.24
811.001	369.52
811.392	396.07
811.784	368.96
812.175	385.06
812.567	387.32
812.958	387.32
813.35	387.32
813.741	354.27
814.132	363.31
814.524	368.96
814.915	379.69
815.306	405.96
815.697	389.86
816.088	393.53
816.479	398.9
816.87	415.28
817.26	394.1
817.651	419.51
818.042	420.64
818.432	367.83
818.823	376.59
819.213	383.08
819.604	399.46
819.994	378.85
820.384	400.59
820.775	387.32
821.165	361.89
821.555	382.23
821.945	392.69
822.335	380.54
822.725	398.05
823.114	399.18
823.504	409.63
823.894	376.59
824.284	385.91
824.673	399.18
825.063	397.49
825.452	401.72
825.842	398.33
826.231	399.75
826.62	376.59
827.009	401.44
827.399	398.33
827.788	389.01
828.177	375.17
828.566	388.17
828.954	394.94
829.343	392.4
829.732	396.07
830.121	392.4
830.509	398.62
830.898	384.21
831.286	411.32
831.675	420.64
832.063	348.9
832.452	420.92
832.84	391.27
833.228	374.33
833.616	372.35
834.004	392.12
834.392	384.49
834.78	375.74
835.168	346.07
835.556	389.58
835.944	418.95
836.331	385.34
836.719	389.01
837.107	403.98
837.494	375.46
837.881	396.92
838.269	388.17
838.656	395.79
839.043	395.51
839.431	396.07
839.818	370.94
840.205	360.48
840.592	394.66
840.979	379.13
841.366	380.82
841.752	370.65
842.139	384.21
842.526	381.67
842.912	379.69
843.299	393.81
843.685	405.96
844.072	392.12
844.458	392.97
844.844	370.94
845.231	363.87
845.617	382.8
846.003	361.89
846.389	388.17
846.775	376.87
847.161	387.04
847.547	397.49
847.933	392.69
848.318	371.78
848.704	395.51
849.09	379.98
849.475	366.42
849.861	361.61
850.246	400.31
850.631	396.07
851.017	393.53
851.402	385.91
851.787	392.69
852.172	374.61
852.557	394.94
852.942	392.97
853.327	384.78
853.712	393.25
854.097	383.08
854.481	364.44
854.866	371.78
855.25	390.14
855.635	398.05
856.019	403.7
856.404	367.26
856.788	378.56
857.172	390.14
857.557	382.8
857.941	399.75
858.325	393.81
858.709	375.17
859.093	364.16
859.477	390.14
859.86	368.11
860.244	363.31
860.628	400.31
861.012	403.42
861.395	373.76
861.779	376.3
862.162	372.91
862.545	370.37
862.929	372.35
863.312	365
863.695	382.23
864.078	369.24
864.461	363.02
864.844	403.7
865.227	386.75
865.61	388.17
865.993	379.98
866.376	383.93
866.758	391.84
867.141	376.59
867.523	367.26
867.906	409.91
868.288	385.06
868.671	396.36
869.053	366.13
869.435	383.36
869.817	385.62
870.199	387.88
870.581	378
870.963	386.47
871.345	356.53
871.727	367.83
872.109	370.65
872.491	358.5
872.872	351.72
873.254	371.78
873.635	387.6
874.017	405.96
874.398	388.17
874.779	367.26
875.161	383.36
875.542	364.44
875.923	348.9
876.304	391.56
876.685	397.77
877.066	383.93
877.447	377.15
877.828	385.34
878.208	369.52
878.589	383.93
878.97	405.96
879.35	374.33
879.731	378.28
880.111	380.26
880.491	390.99
880.872	394.66
881.252	376.59
881.632	378.56
882.012	385.62
882.392	396.07
882.772	389.86
883.152	368.39
883.532	397.2
883.912	372.35
884.291	349.46
884.671	357.94
885.051	390.43
885.43	385.91
885.81	415.56
886.189	385.91
886.568	396.92
886.948	393.81
887.327	369.24
887.706	379.98
888.085	397.2
888.464	380.54
888.843	405.96
889.222	385.34
889.601	344.94
889.979	403.42
890.358	376.87
890.737	379.41
891.115	386.47
891.494	369.24
891.872	368.96
892.25	383.08
892.629	369.24
893.007	380.54
893.385	384.21
893.763	396.92
894.141	398.33
894.519	394.38
894.897	400.31
895.275	396.36
895.653	368.11
896.03	384.21
896.408	379.69
896.786	392.12
897.163	400.59
897.541	381.95
897.918	380.26
898.295	357.37
898.673	375.17
899.05	382.52
899.427	451.41
899.804	335.9
900.181	372.07
900.558	394.38
900.935	358.22
901.312	408.22
901.688	359.35
902.065	375.74
902.442	398.62
902.818	392.69
903.195	393.25
903.571	392.4
903.947	378.85
904.324	373.76
904.7	385.06
905.076	379.41
905.452	394.94
905.828	392.12
906.204	376.87
906.58	377.72
906.956	390.43
907.331	378
907.707	396.92
908.083	384.49
908.458	368.68
908.834	371.22
909.209	394.66
909.585	371.78
909.96	353.7
910.335	374.61
910.71	370.65
911.086	394.94
911.461	377.43
911.836	388.17
912.21	342.11
912.585	377.15
912.96	379.13
913.335	396.64
913.709	404.26
914.084	391.84
914.459	356.81
914.833	374.33
915.207	368.39
915.582	387.6
915.956	369.52
916.33	366.42
916.704	348.33
917.078	372.07
917.452	358.79
917.826	381.67
918.2	379.13
918.574	369.81
918.948	378.56
919.321	378.56
919.695	380.26
920.068	366.7
920.442	368.11
920.815	371.5
921.189	390.43
921.562	376.59
921.935	369.52
922.308	389.01
922.681	400.88
923.054	368.39
923.427	382.8
923.8	405.96
924.173	390.71
924.546	394.66
924.919	378.28
925.291	370.37
925.664	373.76
926.036	376.87
926.409	382.8
926.781	389.01
927.153	393.53
927.526	417.53
927.898	353.42
928.27	372.91
928.642	398.05
929.014	381.67
929.386	351.44
929.758	350.87
930.129	396.92
930.501	374.33
930.873	381.39
931.244	380.26
931.616	372.35
931.987	377.43
932.359	369.24
932.73	380.82
933.101	385.34
933.472	401.72
933.843	387.04
934.214	376.59
934.585	379.13
934.956	384.78
935.327	398.05
935.698	377.15
936.069	378
936.439	367.55
936.81	378.28
937.18	367.26
937.551	381.39
937.921	400.88
938.292	372.91
938.662	382.23
939.032	374.61
939.402	359.63
939.772	377.72
940.142	383.65
940.512	370.94
940.882	370.65
941.252	358.22
941.621	355.68
941.991	394.94
942.361	379.41
942.73	377.43
943.1	386.47
943.469	380.26
943.838	384.49
944.208	382.52
944.577	385.91
944.946	367.83
945.315	357.66
945.684	363.59
946.053	359.35
946.422	354.83
946.791	376.02
947.159	381.11
947.528	351.72
947.897	403.98
948.265	353.7
948.634	390.43
949.002	393.53
949.371	358.79
949.739	353.14
950.107	377.43
950.475	350.59
950.843	399.18
951.211	405.68
951.579	376.59
951.947	365.29
952.315	384.21
952.683	363.31
953.05	347.77
953.418	355.96
953.785	364.72
954.153	375.74
954.52	393.81
954.888	383.08
955.255	374.33
955.622	344.94
955.989	386.75
956.356	394.66
956.723	372.63
957.09	378.28
957.457	378
957.824	362.18
958.191	372.63
958.557	379.98
958.924	365.85
959.291	370.65
959.657	374.04
960.023	394.38
960.39	338.44
960.756	372.07
961.122	370.09
961.488	364.44
961.855	382.23
962.221	368.11
962.586	377.43
962.952	373.76
963.318	388.45
963.684	398.62
964.05	371.5
964.415	383.08
964.781	379.13
965.146	367.26
965.512	367.55
965.877	372.63
966.242	390.43
966.608	371.5
966.973	376.59
967.338	359.63
967.703	386.75
968.068	389.01
968.433	378.56
968.797	399.18
969.162	388.17
969.527	349.18
969.891	387.6
970.256	354.55
970.62	373.48
970.985	371.22
971.349	377.43
971.714	378.28
972.078	386.47
972.442	378.85
972.806	361.33
973.17	381.67
973.534	381.67
973.898	369.24
974.262	375.74
974.625	373.48
974.989	403.98
975.353	373.76
975.716	368.96
976.08	357.09
976.443	361.89
976.806	367.26
977.17	377.72
977.533	379.13
977.896	394.66
978.259	361.33
978.622	402.29
978.985	367.83
979.348	381.67
979.711	357.94
980.073	367.26
980.436	368.11
980.799	349.74
981.161	374.89
981.524	374.61
981.886	385.91
982.248	357.94
982.611	376.59
982.973	365.85
983.335	391.84
983.697	386.47
984.059	380.26
984.421	367.83
984.783	380.82
985.145	378.85
985.506	378.85
985.868	363.02
986.23	390.43
986.591	384.78
986.953	375.46
987.314	363.87
987.675	408.78
988.037	911.11
988.398	379.13
988.759	377.15
989.12	395.23
989.481	348.9
989.842	383.65
990.203	372.91
990.564	402
990.924	377.72
991.285	1042.27
991.646	405.96
992.006	387.32
992.367	388.45
992.727	389.3
993.087	383.36
993.448	379.41
993.808	370.94
994.168	392.4
994.528	364.72
994.888	384.21
995.248	354.27
995.608	395.23
995.967	361.89
996.327	351.44
996.687	362.74
997.046	369.81
997.406	378.28
997.765	372.63
998.125	391.27
998.484	350.31
998.843	369.81
999.202	366.13
999.561	368.39
999.92	375.74
1000.279	351.16
1000.638	377.72
1000.997	374.04
1001.356	365.57
1001.715	376.59
1002.073	368.39
1002.432	390.43
1002.79	369.24
1003.149	373.76
1003.507	384.21
1003.865	348.9
1004.224	350.31
1004.582	374.33
1004.94	385.91
1005.298	378.28
1005.656	363.02
1006.014	363.87
1006.371	368.68
1006.729	369.52
1007.087	421.77
1007.445	384.21
1007.802	363.02
1008.16	366.98
1008.517	385.62
1008.874	381.39
1009.232	348.33
1009.589	399.46
1009.946	361.05
1010.303	363.87
1010.66	362.18
1011.017	379.41
1011.374	411.89
1011.731	350.31
1012.087	349.46
1012.444	355.68
1012.801	376.02
1013.157	396.92
1013.513	376.3
1013.87	386.47
1014.226	359.35
1014.582	381.67
1014.939	391.27
1015.295	376.59
1015.651	346.07
1016.007	373.48
1016.363	378.85
1016.719	374.33
1017.074	341.27
1017.43	341.55
1017.786	376.87
1018.141	394.66
1018.497	370.65
1018.852	363.02
1019.208	381.95
1019.563	370.65
1019.918	359.92
1020.273	362.46
1020.628	383.36
1020.983	372.35
1021.338	388.45
1021.693	391.27
1022.048	365.29
1022.403	394.1
1022.757	346.64
1023.112	361.33
1023.467	368.96
1023.821	370.37
1024.175	388.17
1024.53	378.56
1024.884	391.56
1025.238	352.01
1025.592	384.49
1025.946	385.62
1026.3	392.4
1026.654	369.81
1027.008	391.84
1027.362	385.91
1027.716	372.63
1028.069	377.72
1028.423	379.98
1028.777	361.61
1029.13	376.3
1029.483	367.83
1029.837	347.77
1030.19	359.92
1030.543	376.3
1030.896	367.26
1031.249	372.63
1031.602	368.39
1031.955	379.98
1032.308	365
1032.661	383.36
1033.013	364.44
1033.366	391.84
1033.719	366.42
1034.071	357.37
1034.424	363.87
1034.776	369.52
1035.128	377.72
1035.48	378
1035.833	384.78
1036.185	385.06
1036.537	385.06
1036.889	385.06
