Data from SCSF78_irradiation_FLMS019251_02-49-13-123.txt Node
Date: Thu Feb 21 02:49:13 PST 2019
User: mu3e
Spectrometer: FLMS01925
Trigger mode: 0
Integration Time (sec): 6.500000E-2
Scans to average: 10
Electric dark correction enabled: true
Nonlinearity correction enabled: true
Boxcar width: 0
XAxis mode: Wavelengths
Number of Pixels in Spectrum: 2048
>>>>>Begin Spectral Data<<<<<
187.103	-81.99
187.574	-81.99
188.045	-81.99
188.516	-148.82
188.987	-119.81
189.458	-128.34
189.929	-116.68
190.4	-92.23
190.871	-104.73
191.342	-78.87
191.813	-75.46
192.284	-48.46
192.754	-0.75
193.225	-24.31
193.696	36.44
194.166	47.22
194.637	68.5
195.107	70.77
195.578	115.57
196.048	169.98
196.518	160.35
196.989	181.03
197.459	207.93
197.929	243.03
198.399	274.43
198.869	301.87
199.339	276.13
199.809	306.39
200.279	341.44
200.749	345.96
201.219	357.83
201.689	357.27
202.159	368
202.628	379.02
203.098	371.39
203.568	390.88
204.037	409.81
204.507	397.38
204.976	414.32
205.445	400.77
205.915	391.17
206.384	415.17
206.853	395.97
207.323	390.6
207.792	406.7
208.261	401.62
208.73	403.88
209.199	384.67
209.668	400.2
210.137	379.3
210.606	386.93
211.075	361.22
211.543	386.37
212.012	355.86
212.481	376.2
212.95	392.86
213.418	372.24
213.887	368
214.355	375.35
214.824	358.12
215.292	369.7
215.76	370.55
216.229	382.98
216.697	379.3
217.165	356.14
217.633	377.33
218.101	350.77
218.569	390.88
219.037	347.66
219.505	369.42
219.973	373.09
220.441	356.14
220.909	350.2
221.377	362.07
221.844	375.35
222.312	354.73
222.78	355.57
223.247	340.31
223.715	359.25
224.182	377.61
224.65	351.33
225.117	379.59
225.584	373.37
226.052	368.57
226.519	382.41
226.986	367.72
227.453	347.1
227.92	373.37
228.387	373.09
228.854	357.83
229.321	335.23
229.788	354.16
230.255	355.01
230.722	371.11
231.189	370.55
231.655	392.86
232.122	388.06
232.589	366.59
233.055	346.53
233.522	380.72
233.988	366.03
234.454	401.05
234.921	364.05
235.387	397.1
235.853	349.92
236.32	385.52
236.786	367.16
237.252	380.72
237.718	365.46
238.184	380.72
238.65	355.01
239.116	360.94
239.582	365.74
240.047	368.57
240.513	373.37
240.979	374.78
241.445	387.5
241.91	363.2
242.376	396.53
242.841	389.19
243.307	395.97
243.772	360.94
244.238	369.42
244.703	382.69
245.168	343.7
245.633	400.49
246.099	355.01
246.564	363.2
247.029	377.89
247.494	386.65
247.959	382.69
248.424	384.67
248.889	411.5
249.353	368.85
249.818	384.95
250.283	361.51
250.748	383.54
251.212	377.89
251.677	377.04
252.141	397.1
252.606	395.12
253.07	363.77
253.535	373.37
253.999	381.28
254.463	363.77
254.927	401.9
255.392	379.3
255.856	371.68
256.32	384.11
256.784	377.61
257.248	372.81
257.712	363.2
258.176	371.96
258.64	360.38
259.103	367.72
259.567	366.87
260.031	383.26
260.495	373.65
260.958	353.59
261.422	382.13
261.885	378.17
262.349	397.1
262.812	383.82
263.275	393.43
263.739	389.19
264.202	409.81
264.665	398.79
265.128	381
265.591	375.91
266.054	366.03
266.517	387.78
266.98	393.14
267.443	403.31
267.906	398.23
268.369	388.63
268.832	398.23
269.294	380.15
269.757	373.37
270.22	372.52
270.682	379.87
271.145	377.04
271.607	393.71
272.07	381.28
272.532	388.06
272.994	386.37
273.456	366.59
273.919	406.13
274.381	398.23
274.843	405.29
275.305	431.26
275.767	379.59
276.229	394.27
276.691	393.71
277.153	390.6
277.614	380.15
278.076	400.2
278.538	388.06
279	376.76
279.461	385.8
279.923	389.19
280.384	394.56
280.846	382.69
281.307	398.51
281.769	373.09
282.23	398.51
282.691	409.24
283.152	398.23
283.613	387.5
284.075	394.27
284.536	368.29
284.997	360.09
285.458	384.39
285.918	401.05
286.379	395.69
286.84	393.99
287.301	391.73
287.762	399.36
288.222	391.17
288.683	398.51
289.143	404.44
289.604	392.86
290.064	373.37
290.525	390.6
290.985	396.82
291.445	390.6
291.906	405
292.366	391.45
292.826	391.45
293.286	382.69
293.746	406.42
294.206	423.92
294.666	399.36
295.126	375.35
295.586	397.38
296.046	392.01
296.506	415.17
296.965	407.26
297.425	388.34
297.884	394.56
298.344	386.93
298.804	404.44
299.263	415.73
299.722	395.4
300.182	406.42
300.641	381
301.1	377.33
301.559	417.71
302.019	363.48
302.478	430.7
302.937	389.47
303.396	398.51
303.855	417.15
304.314	406.98
304.772	414.32
305.231	403.31
305.69	389.19
306.149	389.19
306.607	418.84
307.066	392.86
307.524	413.76
307.983	391.73
308.441	408.39
308.9	421.1
309.358	384.95
309.816	417.99
310.275	404.72
310.733	405.29
311.191	424.2
311.649	421.95
312.107	432.11
312.565	425.05
313.023	399.92
313.481	389.19
313.939	405.57
314.397	411.78
314.854	415.73
315.312	402.46
315.77	399.64
316.227	394.56
316.685	396.25
317.142	389.47
317.6	402.46
318.057	377.33
318.514	406.98
318.972	399.92
319.429	421.38
319.886	408.39
320.343	417.43
320.8	405.57
321.257	406.13
321.714	398.51
322.171	424.49
322.628	401.9
323.085	390.32
323.542	423.07
323.998	412.06
324.455	383.54
324.912	398.79
325.368	406.98
325.825	433.52
326.281	405.85
326.738	406.13
327.194	397.1
327.65	390.88
328.107	383.26
328.563	402.75
329.019	412.63
329.475	421.38
329.931	408.11
330.387	427.59
330.843	409.52
331.299	405
331.755	398.51
332.211	410.93
332.666	399.07
333.122	422.23
333.578	419.97
334.033	403.31
334.489	412.91
334.944	415.73
335.4	412.91
335.855	409.24
336.31	418.28
336.766	397.38
337.221	381
337.676	428.44
338.131	404.72
338.586	430.98
339.041	414.32
339.496	423.36
339.951	386.08
340.406	417.71
340.861	388.63
341.316	429
341.771	431.83
342.225	412.63
342.68	418.28
343.134	416.86
343.589	397.66
344.043	405.85
344.498	417.15
344.952	408.68
345.406	444.53
345.861	419.4
346.315	410.93
346.769	416.02
347.223	401.05
347.677	416.86
348.131	416.86
348.585	431.26
349.039	421.95
349.493	412.91
349.947	418.28
350.401	407.83
350.854	407.55
351.308	401.62
351.762	405
352.215	403.03
352.669	410.09
353.122	417.15
353.575	412.63
354.029	439.45
354.482	412.63
354.935	414.89
355.388	419.97
355.842	433.24
356.295	422.51
356.748	405.29
357.201	408.11
357.654	435.21
358.106	419.97
358.559	426.74
359.012	406.13
359.465	403.31
359.917	421.95
360.37	406.13
360.823	426.18
361.275	423.92
361.728	406.7
362.18	413.48
362.632	414.04
363.085	424.49
363.537	412.35
363.989	408.39
364.441	425.9
364.893	440.01
365.345	399.07
365.797	402.46
366.249	422.23
366.701	419.69
367.153	432.39
367.605	417.71
368.057	423.64
368.508	428.72
368.96	412.63
369.411	417.15
369.863	399.07
370.314	415.73
370.766	421.66
371.217	419.97
371.669	432.11
372.12	407.55
372.571	429
373.022	436.34
373.473	413.48
373.924	428.72
374.375	448.76
374.826	415.73
375.277	426.18
375.728	429
376.179	421.1
376.63	426.74
377.08	421.95
377.531	388.06
377.981	434.37
378.432	436.34
378.883	413.48
379.333	412.63
379.783	431.26
380.234	437.47
380.684	439.45
381.134	415.73
381.584	414.04
382.034	417.99
382.485	432.11
382.935	444.24
383.385	423.36
383.834	405.85
384.284	410.09
384.734	402.75
385.184	427.87
385.634	433.24
386.083	417.71
386.533	453.56
386.982	422.23
387.432	431.83
387.881	418.84
388.331	398.51
388.78	427.59
389.229	441.42
389.679	472.74
390.128	449.32
390.577	419.4
391.026	434.08
391.475	430.13
391.924	453.56
392.373	422.51
392.822	418.84
393.27	435.78
393.719	433.52
394.168	433.52
394.617	446.5
395.065	463.15
395.514	462.02
395.962	436.34
396.411	431.83
396.859	440.29
397.307	487.41
397.756	421.66
398.204	454.12
398.652	436.34
399.1	444.53
399.548	486.57
399.996	454.97
400.444	437.75
400.892	443.68
401.34	436.62
401.788	434.65
402.236	444.81
402.683	434.37
403.131	451.58
403.579	469.64
404.026	456.94
404.474	445.66
404.921	487.7
405.369	478.1
405.816	469.92
406.263	453.84
406.71	467.38
407.158	482.62
407.605	496.44
408.052	459.48
408.499	493.9
408.946	486.57
409.393	513.08
409.84	537.04
410.286	515.05
410.733	531.4
411.18	549.16
411.626	594.8
412.073	636.2
412.52	683.47
412.966	788.62
413.413	965.4
413.859	1106.53
414.305	1357.07
414.752	1621.26
415.198	1963.73
415.644	2392.87
416.09	3001.12
416.536	3491.01
416.982	4201.4
417.428	4935.6
417.874	5829.28
418.32	6732.26
418.766	7619.35
419.211	8812.89
419.657	9826.81
420.103	11073.73
420.548	11844.49
420.994	13250.14
421.439	14405.13
421.885	15384.33
422.33	16854.13
422.776	17882.64
423.221	18793.48
423.666	20178.34
424.111	21374.55
424.556	22086.82
425.001	23501.78
425.446	24718.9
425.891	25861.16
426.336	26671.25
426.781	27730.1
427.226	29666.05
427.671	30152.96
428.115	30925.55
428.56	32657.45
429.005	33927.87
429.449	34244.24
429.894	35515.68
430.338	36479.33
430.782	36507.45
431.227	37877.18
431.671	38290.47
432.115	39514.52
432.559	40520.6
433.003	40353.29
433.447	41265.67
433.891	41588.74
434.335	41796.88
434.779	42671.12
435.223	42586.82
435.667	42709.67
436.111	43084.58
436.554	43009.36
436.998	42608.45
437.442	42777.59
437.885	44505.8
438.328	42945.85
438.772	43266.03
439.215	43724.78
439.659	43298.45
440.102	43743.02
440.545	42996.65
440.988	42853
441.431	43593.4
441.874	42989.43
442.317	43469.08
442.76	42717.38
443.203	42252.13
443.646	42932.16
444.089	42533.12
444.531	42952.58
444.974	41685.36
445.417	42676.84
445.859	41906.22
446.302	42895.81
446.744	42115.11
447.186	43285.23
447.629	42246.42
448.071	42060.76
448.513	42397.18
448.956	43493.04
449.398	42520.94
449.84	41514.19
450.282	42056.54
450.724	42604.72
451.166	42175.67
451.607	42086.81
452.049	42144.64
452.491	43127.19
452.933	42594.03
453.374	43199.72
453.816	43508.77
454.257	43134.17
454.699	44026.82
455.14	43555.95
455.582	43300.19
456.023	43406.2
456.464	43368.53
456.905	43856.75
457.347	43805.25
457.788	42907.01
458.229	43151.36
458.67	43902.25
459.111	42042.65
459.552	42262.31
459.992	42024.78
460.433	41720.3
460.874	40904.4
461.315	42027.51
461.755	41045.79
462.196	40396.71
462.636	39661.73
463.077	39566.7
463.517	39628.24
463.957	39763.18
464.398	39368.35
464.838	39533.96
465.278	38436.5
465.718	38592.16
466.158	37718.58
466.598	38097.64
467.038	37668.34
467.478	38081.21
467.918	38122.9
468.358	37404.71
468.798	37293.03
469.237	37161.78
469.677	37103.27
470.117	37786.47
470.556	35650.03
470.996	36173.7
471.435	36103.79
471.874	36759.41
472.314	36617.03
472.753	35700.35
473.192	35814.2
473.631	35448.77
474.07	35734.55
474.509	35573.57
474.948	35871.38
475.387	35337.89
475.826	34546.54
476.265	35999.67
476.704	35554.28
477.143	35840.83
477.581	35448.52
478.02	36152.92
478.458	35021.96
478.897	35645.63
479.335	36534.6
479.774	36011.65
480.212	36215.5
480.65	36218.43
481.089	36027.53
481.527	35357.92
481.965	35033.92
482.403	36719.53
482.841	36521.64
483.279	36575.94
483.717	36510.88
484.155	36141.43
484.592	36669.38
485.03	36744.24
485.468	35827.15
485.905	35917.56
486.343	36410.12
486.781	35777.8
487.218	35240.22
487.655	35305.66
488.093	34421.85
488.53	35667.86
488.967	34966.55
489.405	34735.9
489.842	34091.78
490.279	34052.02
490.716	33756.41
491.153	34163.01
491.59	33545.71
492.027	32935.39
492.463	32507.76
492.9	31852.65
493.337	31907.27
493.773	31879.47
494.21	31194.54
494.647	31058.46
495.083	30429.15
495.519	30110.25
495.956	30066.08
496.392	29576.94
496.828	29299.32
497.265	28653.18
497.701	28780.25
498.137	28543.93
498.573	27667.95
499.009	28180.17
499.445	27409.98
499.881	26996.88
500.316	27216.56
500.752	26378.3
501.188	26289.53
501.624	26183.32
502.059	25193.16
502.495	25021.61
502.93	24922.53
503.366	25112.8
503.801	24592.95
504.236	24365.06
504.672	23855.26
505.107	23611.75
505.542	23179.85
505.977	23104.34
506.412	22751.75
506.847	22985.85
507.282	22455.25
507.717	22297.04
508.152	22209.75
508.587	21932.68
509.021	21325.24
509.456	21079.1
509.891	21069.43
510.325	21023.06
510.76	20831.33
511.194	20517.63
511.628	20648.7
512.063	20031.22
512.497	20214.62
512.931	19621.13
513.366	19624.61
513.8	19452.65
514.234	18908.65
514.668	18946.53
515.102	19116.22
515.536	18370.65
515.969	18553.8
516.403	18140.21
516.837	17818.91
517.271	17818.41
517.704	17634.15
518.138	17427.54
518.571	17328.19
519.005	17005.2
519.438	16874.17
519.871	16882.69
520.305	16499.11
520.738	16312.18
521.171	15952.35
521.604	16030.98
522.037	15884.26
522.47	15626.09
522.903	15341.3
523.336	15265.53
523.769	15168.59
524.202	14722.54
524.634	14746.24
525.067	14565.14
525.5	14425.83
525.932	14299.08
526.365	13967.56
526.797	13860.35
527.23	13781.93
527.662	13388.51
528.094	13239.24
528.527	13147.21
528.959	12947.06
529.391	12805.16
529.823	12396.02
530.255	12443.84
530.687	12128.06
531.119	11935.23
531.551	11873.81
531.982	11680
532.414	11471.46
532.846	11300.55
533.277	11157.38
533.709	10779.03
534.14	10876.63
534.572	10584.72
535.003	10493.9
535.435	10350.66
535.866	10166.7
536.297	9945.5
536.728	9908.95
537.159	9865.7
537.59	9620.66
538.022	9501.75
538.452	9373.45
538.883	9184.84
539.314	9112.69
539.745	8964.42
540.176	8815.22
540.606	8595.06
541.037	8581.3
541.468	8416.92
541.898	8334.28
542.328	8192.26
542.759	8069.38
543.189	8018.06
543.619	7945.6
544.05	7737.16
544.48	7658.28
544.91	7598.45
545.34	7436.04
545.77	7372.7
546.2	7263.22
546.63	7154.69
547.06	7136.07
547.489	6977.28
547.919	6774.1
548.349	6836.43
548.778	6772.78
549.208	6628.53
549.637	6548.43
550.067	6456.15
550.496	6419.21
550.926	6287.47
551.355	6194.19
551.784	6187.05
552.213	6029.09
552.642	5983.81
553.071	5943.01
553.5	5881.25
553.929	5695.77
554.358	5704.54
554.787	5605.71
555.216	5547.75
555.645	5483.63
556.073	5460.48
556.502	5312.12
556.93	5177.96
557.359	5185.7
557.787	5176.09
558.216	5103.2
558.644	5031.87
559.072	5043.36
559.5	4956.2
559.929	4951.38
560.357	4897.07
560.785	4782.72
561.213	4773.34
561.641	4682.72
562.068	4732.6
562.496	4650.26
562.924	4567.59
563.352	4590.14
563.779	4556.58
564.207	4568.66
564.634	4526.49
565.062	4509.3
565.489	4411.71
565.917	4345.78
566.344	4386.15
566.771	4297.86
567.198	4260.42
567.625	4236.17
568.053	4142.88
568.48	4130.74
568.907	4099.71
569.333	3989.81
569.76	3947.65
570.187	3957.65
570.614	3868.14
571.04	4790.76
571.467	3783.15
571.894	3718.13
572.32	3611.29
572.747	3543.43
573.173	3491.82
573.599	3441.54
574.026	3377.63
574.452	3344.71
574.878	3319.67
575.304	3273.92
575.73	3227.61
576.156	3128.08
576.582	3132.44
577.008	3095.33
577.434	3009.59
577.86	2952.19
578.285	2960.67
578.711	2910.08
579.137	2841.39
579.562	2797.03
579.988	2757.03
580.413	2725.51
580.838	2668.47
581.264	2676.43
581.689	2596.02
582.114	2584.21
582.539	2628.14
582.964	2509.21
583.39	2468.25
583.814	2425.06
584.239	2376.35
584.664	2370.57
585.089	2313.01
585.514	2323.2
585.939	2305.02
586.363	2217.9
586.788	2210.45
587.212	2228.11
587.637	2150.57
588.061	2162.44
588.485	2088.15
588.91	2072.4
589.334	2067.15
589.758	2032.88
590.182	2016.29
590.606	1942.98
591.03	1952.39
591.454	1925.54
591.878	1926.92
592.302	1856.02
592.726	1842.16
593.15	1856.85
593.573	1778.68
593.997	1815.28
594.42	1734.84
594.844	1763.14
595.267	1747.88
595.691	1674.32
596.114	1665.99
596.537	1679.32
596.96	1637.93
597.384	1644.04
597.807	1630.98
598.23	1609.86
598.653	1602.64
599.076	1587.9
599.499	1609.86
599.921	1560.93
600.344	1542.01
600.767	1523.93
601.189	1512.24
601.612	1517.81
602.034	1516.42
602.457	1491.92
602.879	1494.15
603.302	1511.96
603.724	1492.2
604.146	1479.95
604.568	1446.26
604.991	1424.81
605.413	1464.36
605.835	1430.1
606.257	1405.58
606.678	1431.21
607.1	1404.74
607.522	1425.08
607.944	1391.64
608.365	1400.01
608.787	1354.01
609.209	1287.61
609.63	1320.26
610.051	1304.07
610.473	1329.74
610.894	1300.17
611.315	1287.89
611.737	1255.5
612.158	1285.65
612.579	1234.56
613	1243.22
613.421	1250.48
613.842	1227.3
614.263	1201.04
614.683	1183.71
615.104	1188.18
615.525	1175.05
615.945	1146.53
616.366	1148.21
616.787	1135.06
617.207	1125.56
617.627	1114.65
618.048	1068.76
618.468	1069.32
618.888	1066.8
619.308	1056.44
619.728	1054.76
620.148	1051.12
620.568	1003.51
620.988	1008.55
621.408	984.46
621.828	993.71
622.248	1004.63
622.668	982.78
623.087	963.16
623.507	957.27
623.926	950.55
624.346	931.76
624.765	951.67
625.185	963.44
625.604	921.95
626.023	930.36
626.442	875.38
626.861	881.83
627.28	901.19
627.699	876.5
628.118	872.01
628.537	875.66
628.956	825.13
629.375	867.24
629.794	822.6
630.212	854.05
630.631	826.82
631.049	804.07
631.468	826.82
631.886	794.8
632.305	815.86
632.723	805.75
633.141	790.02
633.559	793.11
633.978	781.31
634.396	749.84
634.814	797.33
635.232	737.47
635.65	787.49
636.067	754.05
636.485	745.9
636.903	742.53
637.321	744.5
637.738	748.43
638.156	715.26
638.573	736.63
638.991	727.63
639.408	731.57
639.825	707.1
640.243	713.85
640.66	698.38
641.077	711.6
641.494	711.6
641.911	677
642.328	666.31
642.745	685.44
643.162	660.12
643.579	695.01
643.995	659.56
644.412	653.65
644.829	675.6
645.245	632.82
645.662	675.03
646.078	671.09
646.495	640.14
646.911	639.29
647.327	635.35
647.743	639.57
648.159	625.5
648.576	614.24
648.992	618.46
649.408	602.13
649.824	619.87
650.239	609.73
650.655	596.77
651.071	622.12
651.487	617.33
651.902	626.91
652.318	621.56
652.733	614.24
653.149	602.41
653.564	584.1
653.979	572.83
654.395	597.06
654.81	588.32
655.225	586.07
655.64	600.15
656.055	573.39
656.47	601.56
656.885	551.7
657.3	562.69
657.715	567.76
658.13	572.83
658.544	586.35
658.959	557.33
659.374	535.07
659.788	533.94
660.202	596.77
660.617	592.55
661.031	549.16
661.445	551.7
661.86	544.65
662.274	567.2
662.688	547.47
663.102	551.41
663.516	532.81
663.93	533.38
664.344	562.69
664.758	566.63
665.171	526.61
665.585	540.7
665.999	550.57
666.412	519.56
666.826	521.25
667.239	532.81
667.653	536.48
668.066	533.94
668.479	536.48
668.892	524.07
669.306	532.53
669.719	528.02
670.132	511.1
670.545	508.28
670.958	521.82
671.37	513.36
671.783	529.43
672.196	514.49
672.609	519
673.021	490.8
673.434	493.62
673.846	504.34
674.259	512.79
674.671	507.16
675.084	520.41
675.496	507.44
675.908	487.13
676.32	497.85
676.732	504.34
677.144	515.33
677.556	505.75
677.968	479.52
678.38	491.08
678.792	481.21
679.204	483.46
679.615	475.57
680.027	494.75
680.439	471.62
680.85	488.82
681.262	515.61
681.673	454.12
682.084	500.67
682.496	498.13
682.907	482.34
683.318	481.77
683.729	478.39
684.14	471.33
684.551	477.54
684.962	476.41
685.373	458.07
685.784	484.87
686.194	470.49
686.605	460.33
687.016	477.26
687.426	489.67
687.837	482.62
688.247	481.77
688.657	469.64
689.068	459.2
689.478	446.78
689.888	460.05
690.298	476.69
690.708	480.64
691.118	459.2
691.528	436.62
691.938	460.89
692.348	473.03
692.758	445.66
693.168	467.95
693.577	463.43
693.987	448.76
694.396	443.12
694.806	459.77
695.215	471.9
695.625	458.64
696.034	456.1
696.443	443.96
696.852	444.81
697.262	450.74
697.671	413.19
698.08	457.23
698.489	428.72
698.897	437.19
699.306	436.62
699.715	429.85
700.124	440.29
700.532	414.04
700.941	450.17
701.35	444.81
701.758	434.93
702.166	434.08
702.575	462.02
702.983	451.02
703.391	441.7
703.799	447.63
704.208	442.83
704.616	426.74
705.024	438.6
705.432	464
705.839	425.62
706.247	453.28
706.655	458.36
707.063	441.7
707.47	437.75
707.878	435.78
708.285	414.89
708.693	438.32
709.1	426.74
709.508	428.16
709.915	419.69
710.322	411.78
710.729	460.33
711.136	431.83
711.543	426.74
711.95	414.89
712.357	440.29
712.764	438.6
713.171	434.08
713.578	430.7
713.984	427.59
714.391	427.87
714.797	436.62
715.204	424.2
715.61	434.37
716.017	411.5
716.423	400.77
716.829	446.22
717.236	415.45
717.642	421.38
718.048	439.45
718.454	426.18
718.86	430.41
719.266	427.31
719.671	432.67
720.077	412.63
720.483	395.69
720.889	424.49
721.294	433.8
721.7	417.43
722.105	447.35
722.511	417.43
722.916	429.57
723.321	439.45
723.726	422.79
724.132	390.32
724.537	406.98
724.942	404.72
725.347	425.62
725.752	425.9
726.156	433.24
726.561	439.16
726.966	417.99
727.371	420.82
727.775	424.77
728.18	392.86
728.584	422.23
728.989	425.62
729.393	433.24
729.798	409.81
730.202	429
730.606	412.63
731.01	427.31
731.414	397.1
731.818	428.44
732.222	426.46
732.626	410.37
733.03	426.74
733.434	391.73
733.837	401.05
734.241	411.5
734.645	422.23
735.048	434.65
735.452	410.65
735.855	403.31
736.258	411.22
736.662	403.59
737.065	432.95
737.468	409.81
737.871	404.72
738.274	418.84
738.677	388.06
739.08	397.66
739.483	401.9
739.886	409.52
740.289	414.89
740.691	430.98
741.094	402.46
741.497	400.2
741.899	402.75
742.302	425.62
742.704	417.15
743.106	423.64
743.508	416.3
743.911	393.43
744.313	419.97
744.715	403.03
745.117	400.2
745.519	399.07
745.921	381
746.323	399.07
746.724	401.05
747.126	405
747.528	404.16
747.929	393.43
748.331	382.98
748.732	379.02
749.134	406.42
749.535	387.78
749.936	390.6
750.338	412.35
750.739	412.91
751.14	418.56
751.541	393.14
751.942	397.1
752.343	393.99
752.744	391.45
753.144	423.92
753.545	409.24
753.946	430.98
754.346	384.11
754.747	407.83
755.148	426.46
755.548	403.03
755.948	421.66
756.349	429.29
756.749	413.19
757.149	391.45
757.549	429
757.949	420.82
758.349	405.29
758.749	401.33
759.149	388.34
759.549	394.56
759.949	404.72
760.348	440.58
760.748	420.25
761.148	379.3
761.547	405.57
761.947	397.38
762.346	402.75
762.745	430.41
763.145	391.17
763.544	397.95
763.943	404.44
764.342	377.04
764.741	393.99
765.14	399.92
765.539	390.32
765.938	412.63
766.336	421.66
766.735	405.29
767.134	409.81
767.532	400.49
767.931	379.3
768.329	414.04
768.728	392.58
769.126	401.9
769.525	416.58
769.923	410.65
770.321	420.25
770.719	409.24
771.117	408.68
771.515	385.8
771.913	385.8
772.311	403.03
772.709	380.15
773.106	416.3
773.504	425.9
773.902	384.67
774.299	401.9
774.697	427.59
775.094	383.26
775.491	387.21
775.889	362.07
776.286	406.42
776.683	395.97
777.08	422.79
777.477	402.18
777.874	373.94
778.271	405.29
778.668	390.88
779.065	397.95
779.462	389.76
779.858	406.98
780.255	399.92
780.652	405.85
781.048	411.22
781.444	388.63
781.841	385.24
782.237	416.02
782.633	405
783.03	395.12
783.426	390.32
783.822	396.25
784.218	390.88
784.614	417.43
785.01	393.71
785.405	401.9
785.801	392.3
786.197	393.99
786.593	390.88
786.988	394.84
787.384	401.62
787.779	421.66
788.174	400.2
788.57	421.1
788.965	403.03
789.36	403.03
789.755	403.03
790.15	378.46
790.545	395.12
790.94	373.65
791.335	386.93
791.73	388.91
792.125	373.65
792.52	392.3
792.914	401.9
793.309	399.92
793.703	407.55
794.098	404.72
794.492	386.65
794.887	413.19
795.281	401.33
795.675	412.63
796.069	403.03
796.463	411.5
796.857	398.51
797.251	395.12
797.645	395.4
798.039	428.72
798.433	387.5
798.826	399.64
799.22	392.58
799.614	412.35
800.007	374.5
800.401	387.5
800.794	385.24
801.187	399.07
801.581	385.24
801.974	371.39
802.367	420.25
802.76	420.25
803.153	395.12
803.546	394.27
803.939	411.22
804.332	389.76
804.725	417.43
805.117	398.79
805.51	377.89
805.903	393.71
806.295	418.28
806.688	364.61
807.08	380.43
807.472	381
807.865	416.86
808.257	381.85
808.649	393.43
809.041	379.59
809.433	408.96
809.825	391.73
810.217	387.5
810.609	383.82
811.001	387.78
811.392	415.73
811.784	411.78
812.175	397.66
812.567	382.41
812.958	384.39
813.35	410.65
813.741	390.88
814.132	408.39
814.524	395.4
814.915	400.77
815.306	408.11
815.697	403.03
816.088	397.66
816.479	406.98
816.87	397.95
817.26	392.58
817.651	389.76
818.042	383.54
818.432	373.37
818.823	402.75
819.213	399.07
819.604	398.23
819.994	383.54
820.384	399.64
820.775	397.38
821.165	373.37
821.555	381
821.945	415.17
822.335	384.11
822.725	374.78
823.114	393.71
823.504	386.65
823.894	371.39
824.284	384.95
824.673	409.81
825.063	399.92
825.452	377.89
825.842	376.2
826.231	390.04
826.62	412.06
827.009	382.98
827.399	382.98
827.788	385.52
828.177	385.8
828.566	415.17
828.954	417.43
829.343	390.6
829.732	382.41
830.121	390.88
830.509	382.13
830.898	381.28
831.286	373.94
831.675	414.04
832.063	393.99
832.452	393.71
832.84	345.96
833.228	405.57
833.616	389.47
834.004	386.08
834.392	398.51
834.78	397.95
835.168	403.03
835.556	372.24
835.944	379.3
836.331	393.71
836.719	386.37
837.107	399.36
837.494	425.05
837.881	401.33
838.269	393.14
838.656	372.24
839.043	388.06
839.431	404.44
839.818	392.01
840.205	401.9
840.592	399.07
840.979	406.7
841.366	398.51
841.752	390.6
842.139	386.65
842.526	371.68
842.912	359.53
843.299	412.35
843.685	386.37
844.072	397.38
844.458	381.28
844.844	410.93
845.231	383.54
845.617	382.69
846.003	390.6
846.389	393.99
846.775	357.55
847.161	382.69
847.547	393.43
847.933	403.31
848.318	394.84
848.704	391.73
849.09	401.9
849.475	389.76
849.861	367.72
850.246	374.5
850.631	391.73
851.017	390.04
851.402	394.27
851.787	396.25
852.172	382.98
852.557	381.28
852.942	397.1
853.327	374.78
853.712	376.48
854.097	384.39
854.481	386.93
854.866	381.56
855.25	397.38
855.635	372.81
856.019	388.06
856.404	378.46
856.788	392.86
857.172	370.55
857.557	399.07
857.941	405.57
858.325	375.35
858.709	397.38
859.093	374.78
859.477	399.07
859.86	408.96
860.244	392.01
860.628	400.77
861.012	401.05
861.395	392.3
861.779	391.17
862.162	387.78
862.545	381.56
862.929	392.86
863.312	364.9
863.695	412.91
864.078	381.28
864.461	382.13
864.844	425.05
865.227	412.06
865.61	380.72
865.993	369.13
866.376	403.59
866.758	375.35
867.141	388.06
867.523	387.78
867.906	396.53
868.288	375.35
868.671	399.64
869.053	374.5
869.435	402.18
869.817	401.33
870.199	358.68
870.581	378.17
870.963	395.4
871.345	361.51
871.727	396.82
872.109	400.77
872.491	404.16
872.872	391.73
873.254	380.43
873.635	383.82
874.017	405.85
874.398	412.91
874.779	390.88
875.161	371.39
875.542	382.69
875.923	398.79
876.304	387.78
876.685	390.6
877.066	388.63
877.447	395.4
877.828	385.52
878.208	406.7
878.589	399.92
878.97	357.27
879.35	390.6
879.731	383.54
880.111	399.36
880.491	389.47
880.872	380.43
881.252	390.32
881.632	399.92
882.012	402.18
882.392	399.36
882.772	375.35
883.152	388.91
883.532	372.81
883.912	369.7
884.291	397.66
884.671	394.27
885.051	401.05
885.43	387.5
885.81	396.82
886.189	405.57
886.568	399.92
886.948	394.27
887.327	392.01
887.706	392.3
888.085	398.23
888.464	411.5
888.843	412.91
889.222	386.08
889.601	388.63
889.979	384.39
890.358	384.39
890.737	390.32
891.115	393.43
891.494	394.56
891.872	386.37
892.25	373.37
892.629	383.82
893.007	414.61
893.385	389.47
893.763	402.18
894.141	406.98
894.519	390.88
894.897	381.85
895.275	391.17
895.653	408.96
896.03	399.07
896.408	395.4
896.786	410.37
897.163	384.95
897.541	417.15
897.918	371.39
898.295	398.51
898.673	416.3
899.05	385.24
899.427	415.17
899.804	367.72
900.181	384.11
900.558	361.22
900.935	393.14
901.312	373.94
901.688	371.96
902.065	379.3
902.442	383.26
902.818	369.7
903.195	403.88
903.571	391.45
903.947	392.58
904.324	402.46
904.7	379.87
905.076	408.68
905.452	367.72
905.828	421.1
906.204	387.5
906.58	388.63
906.956	398.51
907.331	407.55
907.707	387.21
908.083	397.66
908.458	370.55
908.834	357.27
909.209	392.01
909.585	375.63
909.96	392.01
910.335	386.65
910.71	387.78
911.086	403.31
911.461	384.95
911.836	400.77
912.21	367.44
912.585	393.43
912.96	373.09
913.335	356.14
913.709	381
914.084	393.71
914.459	408.11
914.833	367.72
915.207	390.32
915.582	387.21
915.956	362.92
916.33	390.6
916.704	378.74
917.078	377.89
917.452	402.18
917.826	394.84
918.2	376.48
918.574	400.77
918.948	392.3
919.321	390.88
919.695	380.72
920.068	396.53
920.442	402.46
920.815	372.24
921.189	389.76
921.562	386.37
921.935	381.28
922.308	361.22
922.681	401.62
923.054	355.57
923.427	389.19
923.8	369.98
924.173	375.91
924.546	400.2
924.919	393.14
925.291	389.47
925.664	375.35
926.036	375.35
926.409	377.04
926.781	360.09
927.153	368.57
927.526	393.99
927.898	387.21
928.27	362.35
928.642	357.83
929.014	389.19
929.386	360.94
929.758	407.55
930.129	410.09
930.501	378.74
930.873	373.37
931.244	379.3
931.616	361.79
931.987	368.29
932.359	386.93
932.73	382.13
933.101	367.16
933.472	385.8
933.843	398.23
934.214	412.63
934.585	377.33
934.956	354.73
935.327	403.88
935.698	375.63
936.069	405
936.439	390.88
936.81	354.73
937.18	416.58
937.551	374.22
937.921	408.39
938.292	376.2
938.662	371.96
939.032	384.95
939.402	391.17
939.772	362.07
940.142	397.1
940.512	393.43
940.882	373.37
941.252	392.01
941.621	399.92
941.991	401.9
942.361	386.08
942.73	359.81
943.1	393.71
943.469	364.05
943.838	401.05
944.208	395.4
944.577	412.35
944.946	375.07
945.315	397.95
945.684	389.47
946.053	384.11
946.422	378.74
946.791	374.5
947.159	408.68
947.528	370.26
947.897	375.35
948.265	370.26
948.634	376.2
949.002	379.02
949.371	392.58
949.739	381
950.107	364.61
950.475	400.2
950.843	381.85
951.211	372.52
951.579	401.05
951.947	379.02
952.315	369.98
952.683	357.83
953.05	378.46
953.418	365.18
953.785	381
954.153	373.94
954.52	404.44
954.888	385.52
955.255	362.35
955.622	379.02
955.989	384.39
956.356	431.54
956.723	373.65
957.09	393.43
957.457	383.26
957.824	376.48
958.191	378.17
958.557	381
958.924	386.65
959.291	359.81
959.657	391.17
960.023	386.93
960.39	376.48
960.756	369.7
961.122	372.81
961.488	366.31
961.855	380.72
962.221	389.19
962.586	393.43
962.952	384.11
963.318	377.61
963.684	403.88
964.05	374.5
964.415	366.87
964.781	378.17
965.146	360.38
965.512	380.43
965.877	367.72
966.242	384.67
966.608	377.33
966.973	367.72
967.338	367.44
967.703	400.49
968.068	352.75
968.433	374.78
968.797	395.4
969.162	371.68
969.527	358.12
969.891	358.96
970.256	377.33
970.62	394.27
970.985	371.11
971.349	381
971.714	364.05
972.078	375.63
972.442	374.5
972.806	416.02
973.17	402.18
973.534	388.06
973.898	373.09
974.262	391.45
974.625	375.91
974.989	389.19
975.353	397.38
975.716	375.63
976.08	361.22
976.443	374.5
976.806	386.93
977.17	390.04
977.533	388.34
977.896	401.33
978.259	354.73
978.622	415.73
978.985	402.46
979.348	388.34
979.711	381
980.073	355.86
980.436	378.17
980.799	369.42
981.161	347.94
981.524	359.81
981.886	368.85
982.248	351.33
982.611	406.98
982.973	373.65
983.335	368
983.697	378.74
984.059	390.04
984.421	365.18
984.783	378.46
985.145	398.79
985.506	358.4
985.868	371.96
986.23	401.33
986.591	391.17
986.953	376.76
987.314	372.52
987.675	353.31
988.037	1251.04
988.398	407.26
988.759	383.26
989.12	364.9
989.481	356.14
989.842	414.61
990.203	411.22
990.564	379.87
990.924	379.87
991.285	901.19
991.646	384.67
992.006	357.55
992.367	373.37
992.727	382.13
993.087	377.04
993.448	380.15
993.808	387.21
994.168	388.34
994.528	356.42
994.888	361.79
995.248	364.9
995.608	359.81
995.967	363.48
996.327	384.39
996.687	379.59
997.046	372.52
997.406	375.91
997.765	370.83
998.125	373.94
998.484	344.55
998.843	372.52
999.202	360.09
999.561	384.39
999.92	366.31
1000.279	365.18
1000.638	363.48
1000.997	367.44
1001.356	359.25
1001.715	377.89
1002.073	377.33
1002.432	383.54
1002.79	373.94
1003.149	389.47
1003.507	381.85
1003.865	369.42
1004.224	379.87
1004.582	371.11
1004.94	411.78
1005.298	386.37
1005.656	365.18
1006.014	378.17
1006.371	379.87
1006.729	375.63
1007.087	392.3
1007.445	374.78
1007.802	382.98
1008.16	374.5
1008.517	378.46
1008.874	370.55
1009.232	380.43
1009.589	402.46
1009.946	393.99
1010.303	371.68
1010.66	374.5
1011.017	401.33
1011.374	384.67
1011.731	397.66
1012.087	349.64
1012.444	378.46
1012.801	371.68
1013.157	387.21
1013.513	365.74
1013.87	396.25
1014.226	386.65
1014.582	355.57
1014.939	393.71
1015.295	366.59
1015.651	348.51
1016.007	375.35
1016.363	396.82
1016.719	349.64
1017.074	386.65
1017.43	357.27
1017.786	366.87
1018.141	360.09
1018.497	378.74
1018.852	369.98
1019.208	364.33
1019.563	355.86
1019.918	395.12
1020.273	369.42
1020.628	376.2
1020.983	391.17
1021.338	358.96
1021.693	390.6
1022.048	369.98
1022.403	377.89
1022.757	390.04
1023.112	366.87
1023.467	349.92
1023.821	359.53
1024.175	369.13
1024.53	395.4
1024.884	355.29
1025.238	386.37
1025.592	365.18
1025.946	373.37
1026.3	389.19
1026.654	376.48
1027.008	366.87
1027.362	357.83
1027.716	362.35
1028.069	376.2
1028.423	366.59
1028.777	367.72
1029.13	367.44
1029.483	387.21
1029.837	381.56
1030.19	377.61
1030.543	388.06
1030.896	389.47
1031.249	382.69
1031.602	381.28
1031.955	359.81
1032.308	382.13
1032.661	385.52
1033.013	375.35
1033.366	383.82
1033.719	382.98
1034.071	376.76
1034.424	349.07
1034.776	388.34
1035.128	370.83
1035.48	359.81
1035.833	398.51
1036.185	368.57
1036.537	368.57
1036.889	368.57
