Data from SCSF78_irradiation_FLMS019251_05-08-13-085.txt Node
Date: Thu Feb 21 05:08:13 PST 2019
User: mu3e
Spectrometer: FLMS01925
Trigger mode: 0
Integration Time (sec): 6.500000E-2
Scans to average: 10
Electric dark correction enabled: true
Nonlinearity correction enabled: true
Boxcar width: 0
XAxis mode: Wavelengths
Number of Pixels in Spectrum: 2048
>>>>>Begin Spectral Data<<<<<
187.103	-86.59
187.574	-86.59
188.045	-86.59
188.516	-103.94
188.987	-107.63
189.458	-138.06
189.929	-105.64
190.4	-88.01
190.871	-121
191.342	-87.16
191.813	-51.35
192.284	-30.62
192.754	-23.8
193.225	-14.43
193.696	13.4
194.166	51.71
194.637	97.37
195.107	79.22
195.578	109.28
196.048	152.08
196.518	156.05
196.989	144.99
197.459	183.81
197.929	231.37
198.399	263.06
198.869	261.37
199.339	308.6
199.809	320.19
200.279	331.78
200.749	348.46
201.219	360.04
201.689	335.46
202.159	389.7
202.628	382.08
203.098	412.86
203.568	394.5
204.037	396.48
204.507	371.91
204.976	391.11
205.445	405.8
205.915	400.43
206.384	381.23
206.853	385.18
207.323	381.51
207.792	375.86
208.261	395.63
208.73	376.14
209.199	392.81
209.668	400.43
210.137	364.56
210.606	347.32
211.075	409.47
211.543	388.01
212.012	378.4
212.481	373.04
212.95	380.38
213.418	376.43
213.887	368.23
214.355	373.32
214.824	373.32
215.292	383.77
215.76	376.71
216.229	341.11
216.697	359.76
217.165	365.41
217.633	368.23
218.101	362.58
218.569	372.75
219.037	368.23
219.505	365.69
219.973	358.06
220.441	364.28
220.909	365.41
221.377	352.69
221.844	368.23
222.312	355.52
222.78	350.72
223.247	345.06
223.715	369.36
224.182	372.75
224.65	358.06
225.117	371.06
225.584	363.71
226.052	357.78
226.519	354.95
226.986	373.32
227.453	364.56
227.92	348.17
228.387	346.48
228.854	330.65
229.321	352.13
229.788	372.75
230.255	373.04
230.722	361.17
231.189	353.54
231.655	365.97
232.122	367.95
232.589	366.54
233.055	367.67
233.522	382.64
233.988	337.15
234.454	396.2
234.921	374.73
235.387	349.87
235.853	383.77
236.32	376.71
236.786	368.23
237.252	353.82
237.718	379.25
238.184	376.99
238.65	363.15
239.116	370.21
239.582	357.78
240.047	378.4
240.513	340.83
240.979	347.61
241.445	376.99
241.91	345.06
242.376	328.95
242.841	375.86
243.307	361.17
243.772	386.6
244.238	344.78
244.703	377.27
245.168	349.3
245.633	386.88
246.099	380.38
246.564	384.62
247.029	353.54
247.494	357.78
247.959	375.01
248.424	391.96
248.889	360.32
249.353	351.56
249.818	343.09
250.283	353.82
250.748	373.6
251.212	364.56
251.677	369.36
252.141	368.8
252.606	382.64
253.07	365.13
253.535	395.92
253.999	345.91
254.463	374.73
254.927	375.58
255.392	367.39
255.856	368.23
256.32	373.32
256.784	367.67
257.248	362.3
257.712	383.21
258.176	389.42
258.64	354.39
259.103	372.19
259.567	375.01
260.031	347.89
260.495	358.06
260.958	353.82
261.422	395.63
261.885	381.23
262.349	371.62
262.812	378.69
263.275	376.71
263.739	384.9
264.202	372.47
264.665	373.04
265.128	410.88
265.591	398.46
266.054	377.27
266.517	383.21
266.98	397.05
267.443	363.15
267.906	400.43
268.369	382.92
268.832	401.28
269.294	385.18
269.757	385.75
270.22	382.36
270.682	348.74
271.145	389.7
271.607	379.53
272.07	400.72
272.532	370.49
272.994	369.08
273.456	352.69
273.919	367.67
274.381	383.21
274.843	384.05
275.305	399.02
275.767	379.25
276.229	362.02
276.691	385.47
277.153	384.05
277.614	384.9
278.076	394.22
278.538	369.08
279	402.13
279.461	364.56
279.923	393.37
280.384	363.15
280.846	415.68
281.307	356.65
281.769	387.16
282.23	391.68
282.691	396.2
283.152	363.71
283.613	388.29
284.075	364
284.536	404.1
284.997	384.62
285.458	375.58
285.918	379.82
286.379	374.17
286.84	374.17
287.301	374.45
287.762	387.44
288.222	401
288.683	377.27
289.143	385.18
289.604	375.58
290.064	357.22
290.525	383.77
290.985	391.4
291.445	382.64
291.906	407.78
292.366	377.27
292.826	377.56
293.286	368.8
293.746	384.9
294.206	396.76
294.666	391.4
295.126	373.88
295.586	363.15
296.046	401.85
296.506	383.49
296.965	385.75
297.425	375.58
297.884	393.09
298.344	397.61
298.804	407.49
299.263	417.66
299.722	397.89
300.182	389.14
300.641	393.09
301.1	409.19
301.559	383.21
302.019	405.52
302.478	384.9
302.937	376.99
303.396	394.5
303.855	385.75
304.314	375.3
304.772	417.09
305.231	388.01
305.69	404.95
306.149	386.31
306.607	391.68
307.066	393.94
307.524	393.09
307.983	391.68
308.441	419.92
308.9	401
309.358	406.65
309.816	396.48
310.275	399.3
310.733	404.95
311.191	396.76
311.649	395.92
312.107	383.21
312.565	397.33
313.023	404.67
313.481	379.53
313.939	378.4
314.397	409.75
314.854	409.75
315.312	412.58
315.77	376.71
316.227	401
316.685	399.87
317.142	388.01
317.6	394.5
318.057	414.27
318.514	393.94
318.972	417.66
319.429	411.16
319.886	384.62
320.343	383.21
320.8	432.34
321.257	409.47
321.714	418.79
322.171	405.52
322.628	383.77
323.085	396.48
323.542	406.08
323.998	377.27
324.455	422.74
324.912	402.13
325.368	397.61
325.825	406.65
326.281	394.22
326.738	393.09
327.194	415.96
327.65	390.83
328.107	386.88
328.563	401
329.019	417.09
329.475	397.61
329.931	392.53
330.387	381.51
330.843	382.36
331.299	399.59
331.755	399.59
332.211	406.65
332.666	388.57
333.122	404.95
333.578	393.94
334.033	418.5
334.489	417.94
334.944	423.87
335.4	401.85
335.855	397.05
336.31	389.98
336.766	396.76
337.221	410.6
337.676	431.77
338.131	386.6
338.586	400.43
339.041	406.08
339.496	414.83
339.951	397.89
340.406	414.27
340.861	392.24
341.316	387.44
341.771	406.93
342.225	407.49
342.68	396.48
343.134	411.73
343.589	399.87
344.043	404.1
344.498	404.1
344.952	400.15
345.406	431.49
345.861	388.29
346.315	410.32
346.769	395.63
347.223	388.85
347.677	408.06
348.131	409.75
348.585	421.05
349.039	414.55
349.493	379.25
349.947	399.87
350.401	399.3
350.854	390.55
351.308	406.65
351.762	409.19
352.215	429.51
352.669	409.19
353.122	390.83
353.575	423.59
354.029	401.56
354.482	429.8
354.935	394.22
355.388	393.66
355.842	387.73
356.295	395.07
356.748	394.22
357.201	394.5
357.654	413.71
358.106	420.48
358.559	400.15
359.012	401.56
359.465	402.41
359.917	409.47
360.37	399.02
360.823	392.24
361.275	425
361.728	411.16
362.18	415.4
362.632	404.95
363.085	402.13
363.537	425.28
363.989	388.01
364.441	410.32
364.893	453.79
365.345	386.03
365.797	393.09
366.249	378.4
366.701	414.83
367.153	396.2
367.605	431.77
368.057	396.48
368.508	399.59
368.96	393.66
369.411	400.72
369.863	413.42
370.314	410.6
370.766	402.41
371.217	417.38
371.669	408.34
372.12	430.64
372.571	398.17
373.022	409.75
373.473	415.68
373.924	395.63
374.375	442.22
374.826	416.25
375.277	433.18
375.728	420.2
376.179	415.68
376.63	387.16
377.08	404.95
377.531	417.94
377.981	385.75
378.432	423.87
378.883	430.36
379.333	418.5
379.783	395.92
380.234	407.49
380.684	400.72
381.134	421.05
381.584	440.24
382.034	421.61
382.485	421.05
382.935	406.65
383.385	413.99
383.834	402.13
384.284	410.03
384.734	425
385.184	409.47
385.634	404.67
386.083	419.92
386.533	422.46
386.982	414.27
387.432	458.3
387.881	403.82
388.331	403.82
388.78	421.61
389.229	400.72
389.679	403.82
390.128	432.06
390.577	424.15
391.026	406.65
391.475	452.66
391.924	415.4
392.373	414.83
392.822	404.95
393.27	403.82
393.719	434.31
394.168	422.17
394.617	415.12
395.065	412.01
395.514	433.18
395.962	434.6
396.411	426.13
396.859	423.3
397.307	415.96
397.756	437.98
398.204	423.59
398.652	441.93
399.1	431.49
399.548	443.63
399.996	454.63
400.444	421.89
400.892	439.11
401.34	429.8
401.788	437.7
402.236	420.2
402.683	416.25
403.131	442.22
403.579	448.99
404.026	429.8
404.474	434.6
404.921	462.53
405.369	452.38
405.816	433.75
406.263	461.69
406.71	468.74
407.158	476.36
407.605	443.63
408.052	443.91
408.499	484.26
408.946	476.08
409.393	475.51
409.84	459.15
410.286	496.67
410.733	527.12
411.18	529.94
411.626	546.85
412.073	609.11
412.52	650.5
412.966	727.58
413.413	815.25
413.859	942.64
414.305	1153.47
414.752	1423.92
415.198	1690.38
415.644	2048.58
416.09	2505.59
416.536	2941.75
416.982	3538.22
417.428	4131.77
417.874	4924.31
418.32	5651.63
418.766	6432.36
419.211	7360.87
419.657	8135.99
420.103	9221.75
420.548	9979.42
420.994	11131.25
421.439	12007.54
421.885	12890.16
422.33	14138.37
422.776	15168.54
423.221	15830.43
423.666	16850.07
424.111	17910.83
424.556	18476.91
425.001	19724.58
425.446	20692.58
425.891	21694.76
426.336	22345.2
426.781	23304.41
427.226	24853.39
427.671	25266.59
428.115	25959.77
428.56	27274.06
429.005	28392.83
429.449	28770.43
429.894	29751.93
430.338	30589.14
430.782	30647.44
431.227	31884.55
431.671	32227.1
432.115	33220.62
432.559	34010.51
433.003	33937.82
433.447	34609.69
433.891	34930.62
434.335	35183.04
434.779	35832.48
435.223	35967.61
435.667	36027.73
436.111	36341.85
436.554	36292.46
436.998	35943.42
437.442	36023.09
437.885	37540.38
438.328	36337.45
438.772	36613.31
439.215	36846.23
439.659	36610.62
440.102	36841.09
440.545	36297.6
440.988	36152.87
441.431	36926.25
441.874	36424.26
442.317	36762.3
442.76	36275.84
443.203	35796.56
443.646	36349.43
444.089	36028.71
444.531	36454.83
444.974	35366.42
445.417	36222.05
445.859	35694.69
446.302	36481.48
446.744	35674.9
447.186	36753.25
447.629	35935.35
448.071	35843.72
448.513	35965.9
448.956	37050.1
449.398	36253.1
449.84	35373.01
450.282	35635.81
450.724	36246.01
451.166	35810
451.607	35949.28
452.049	35962.97
452.491	36645.85
452.933	36308.6
453.374	36853.08
453.816	37048.63
454.257	36714.83
454.699	37621.24
455.14	37231.27
455.582	36914.26
456.023	37044.22
456.464	37121.09
456.905	37418.14
457.347	37435.28
457.788	36609.64
458.229	36832.03
458.67	37643.54
459.111	36010.13
459.552	36224.25
459.992	35911.16
460.433	35642.17
460.874	34958.94
461.315	35871.82
461.755	35028.51
462.196	34776.37
462.636	34073.93
463.077	33974.41
463.517	33892.46
463.957	34043.93
464.398	33725.88
464.838	33903.19
465.278	32926.57
465.718	33079.93
466.158	32254.4
466.598	32649.85
467.038	32341.44
467.478	32637.66
467.918	32803.44
468.358	32047.17
468.798	32008.65
469.237	32011.82
469.677	31821.89
470.117	32540.14
470.556	30624.51
470.996	31153.53
471.435	31138.9
471.874	31652.19
472.314	31388.12
472.753	30667.44
473.192	30812.57
473.631	30557.43
474.07	30848.18
474.509	30742.57
474.948	30973.3
475.387	30502.78
475.826	29731.91
476.265	31041.83
476.704	30706.23
477.143	30959.16
477.581	30752.33
478.02	31124.75
478.458	30213.18
478.897	30755.99
479.335	31578.07
479.774	31096.71
480.212	31330.57
480.65	31321.3
481.089	31154.99
481.527	30616.7
481.965	30309.31
482.403	31784.58
482.841	31747.52
483.279	31620.01
483.717	31640.73
484.155	31247.66
484.592	31621.71
485.03	31778.49
485.468	31099.63
485.905	31191.08
486.343	31616.1
486.781	30995.25
487.218	30570.6
487.655	30669.39
488.093	29960.37
488.53	30985.74
488.967	30358.84
489.405	30229.77
489.842	29476.06
490.279	29673.57
490.716	29441.15
491.153	29627.68
491.59	29188.16
492.027	28708.12
492.463	28331.47
492.9	27846.51
493.337	27757.46
493.773	27881.74
494.21	27216.27
494.647	26988.5
495.083	26453.28
495.519	26263.73
495.956	26162.18
496.392	25723.9
496.828	25549.08
497.265	24935.76
497.701	25027.21
498.137	24805.43
498.573	24277.14
499.009	24589.46
499.445	23872.71
499.881	23456.35
500.316	23808.64
500.752	22925.07
501.188	22904.08
501.624	22827.28
502.059	21907.89
502.495	21899.72
502.93	21773.24
503.366	22005.63
503.801	21389.13
504.236	21188.88
504.672	20851.63
505.107	20674.46
505.542	20244.39
505.977	20203.14
506.412	19895.68
506.847	20034.4
507.282	19736.02
507.717	19467.78
508.152	19498.9
508.587	19231.25
509.021	18729.1
509.456	18394.81
509.891	18603.9
510.325	18460.94
510.76	18157.89
511.194	17955.06
511.628	18049.74
512.063	17509.3
512.497	17622.85
512.931	17271.08
513.366	17073.03
513.8	17017.18
514.234	16684.64
514.668	16631.48
515.102	16771.88
515.536	16212.99
515.969	16239.85
516.403	15988.73
516.837	15687.65
517.271	15742.71
517.704	15451.22
518.138	15333.19
518.571	15290.15
519.005	15041.09
519.438	14935.01
519.871	14774.18
520.305	14465.41
520.738	14401.29
521.171	14107.8
521.604	14248.77
522.037	13985.47
522.47	13724.7
522.903	13478.39
523.336	13591.06
523.769	13400.37
524.202	12913.77
524.634	12906.41
525.067	12878.23
525.5	12661.1
525.932	12676.35
526.365	12396.74
526.797	12223.73
527.23	12188.35
527.662	11752.9
528.094	11697.81
528.527	11573.79
528.959	11465.54
529.391	11318.65
529.823	10921.91
530.255	10963.64
530.687	10703.39
531.119	10585.44
531.551	10509.51
531.982	10274.07
532.414	10228.6
532.846	9979.94
533.277	9821.87
533.709	9574.45
534.14	9489.31
534.572	9379.34
535.003	9324.08
535.435	9099.97
535.866	9043.83
536.297	8815.69
536.728	8730.93
537.159	8699.56
537.59	8581.25
538.022	8419.99
538.452	8310.57
538.883	8135.99
539.314	8014.88
539.745	7912.44
540.176	7772.35
540.606	7538.53
541.037	7656.41
541.468	7465.3
541.898	7434.69
542.328	7308.23
542.759	7180.08
543.189	7059.67
543.619	6997.97
544.05	6865.03
544.48	6800.88
544.91	6684.31
545.34	6586.07
545.77	6515.17
546.2	6484.06
546.63	6399.64
547.06	6304.86
547.489	6160.03
547.919	6007.06
548.349	6120.09
548.778	6032.22
549.208	5914.6
549.637	5850.44
550.067	5761.83
550.496	5778.82
550.926	5589.71
551.355	5562.06
551.784	5525.89
552.213	5394.4
552.642	5323.53
553.071	5300.08
553.5	5218.74
553.929	5059.88
554.358	5101.55
554.787	5019.52
555.216	5016.04
555.645	4905.58
556.073	4852.31
556.502	4763.91
556.93	4686.7
557.359	4616.94
557.787	4635.19
558.216	4585.8
558.644	4509.51
559.072	4480.76
559.5	4385.56
559.929	4370.49
560.357	4355.96
560.785	4297.81
561.213	4247.17
561.641	4178.16
562.068	4206.74
562.496	4160.37
562.924	4091.03
563.352	4127.46
563.779	4111.27
564.207	4077.8
564.634	4043.24
565.062	4011.64
565.489	3948.95
565.917	3878.37
566.344	3923
566.771	3894.06
567.198	3861.6
567.625	3748.97
568.053	3725.12
568.48	3730.27
568.907	3690.7
569.333	3644.6
569.76	3535.77
570.187	3569.98
570.614	3511.33
571.04	4447.96
571.467	3409.68
571.894	3310.63
572.32	3254.8
572.747	3230.55
573.173	3191.3
573.599	3155.03
574.026	3036.85
574.452	3038.76
574.878	3013.63
575.304	2964.17
575.73	2896.35
576.156	2849.01
576.582	2852.56
577.008	2745.47
577.434	2725.46
577.86	2666.5
578.285	2675.83
578.711	2616.01
579.137	2624.79
579.562	2519.33
579.988	2529.22
580.413	2484.42
580.838	2398.05
581.264	2396.39
581.689	2371.34
582.114	2348.49
582.539	2394.19
582.964	2297.25
583.39	2236.05
583.814	2205.99
584.239	2146.65
584.664	2161.01
585.089	2104.4
585.514	2106.33
585.939	2090.87
586.363	2043.61
586.788	2038.63
587.212	1976.68
587.637	1965.34
588.061	1953.44
588.485	1909.43
588.91	1907.21
589.334	1882.29
589.758	1846.55
590.182	1806.63
590.606	1808.29
591.03	1774.46
591.454	1775.85
591.878	1747
592.302	1747.83
592.726	1710.36
593.15	1681.21
593.573	1620.37
593.997	1640.38
594.42	1623.71
594.844	1610.92
595.267	1562.54
595.691	1556.98
596.114	1540.01
596.537	1521.65
596.96	1519.42
597.384	1533.61
597.807	1508.85
598.23	1465.7
598.653	1477.12
599.076	1482.68
599.499	1459.29
599.921	1448.71
600.344	1421.69
600.767	1403.58
601.189	1403.58
601.612	1379.33
602.034	1396.61
602.457	1348.38
602.879	1417.51
603.302	1358.69
603.724	1376.26
604.146	1353.12
604.568	1355.35
604.991	1306.25
605.413	1333.87
605.835	1338.89
606.257	1297.6
606.678	1309.32
607.1	1315.18
607.522	1316.02
607.944	1315.46
608.365	1272.76
608.787	1264.67
609.209	1284.49
609.63	1257.96
610.051	1253.78
610.473	1195.12
610.894	1214.12
611.315	1187.01
611.737	1214.12
612.158	1190.36
612.579	1173.87
613	1174.43
613.421	1156.82
613.842	1123.54
614.263	1103.68
614.683	1109.28
615.104	1050.51
615.525	1050.51
615.945	1037.35
616.366	1070.1
616.787	1051.35
617.207	1027.27
617.627	1042.39
618.048	984.69
618.468	998.42
618.888	997.29
619.308	999.54
619.728	923.58
620.148	979.92
620.568	972.08
620.988	932.55
621.408	942.36
621.828	933.95
622.248	936.47
622.668	921.89
623.087	931.43
623.507	917.69
623.926	877.57
624.346	881.78
624.765	896.09
625.185	900.86
625.604	885.43
626.023	857.64
626.442	827.04
626.861	858.77
627.28	850.07
627.699	825.08
628.118	807.1
628.537	844.73
628.956	811.04
629.375	797.27
629.794	825.36
630.212	816.93
630.631	788.28
631.049	777.05
631.468	760.19
631.886	772.83
632.305	771.71
632.723	731.79
633.141	729.83
633.559	737.98
633.978	730.11
634.396	714.92
634.814	735.73
635.232	732.92
635.65	717.17
636.067	717.17
636.485	711.55
636.903	707.61
637.321	676.39
637.738	712.67
638.156	682.58
638.573	682.86
638.991	698.05
639.408	674.98
639.825	696.64
640.243	683.7
640.66	673.01
641.077	648.53
641.494	681.17
641.911	658.1
642.328	663.73
642.745	643.18
643.162	659.5
643.579	654.72
643.995	633.05
644.412	638.68
644.829	643.74
645.245	648.81
645.662	649.37
646.078	625.16
646.495	646.84
646.911	599.82
647.327	622.63
647.743	633.33
648.159	613.9
648.576	590.53
648.992	610.8
649.408	598.41
649.824	592.22
650.239	591.65
650.655	582.64
651.071	587.15
651.487	588.55
651.902	598.98
652.318	591.65
652.733	572.78
653.149	557.56
653.564	582.92
653.979	551.08
654.395	566.58
654.81	563.76
655.225	549.11
655.64	563.48
656.055	572.78
656.47	575.31
656.885	562.63
657.3	546.85
657.715	563.76
658.13	547.98
658.544	530.79
658.959	565.45
659.374	537.27
659.788	550.23
660.202	526.56
660.617	529.66
661.031	571.09
661.445	532.2
661.86	521.48
662.274	539.24
662.688	525.15
663.102	506.54
663.516	556.43
663.93	531.07
664.344	523.46
664.758	507.67
665.171	528.81
665.585	513.87
665.999	526.84
666.412	555.31
666.826	513.87
667.239	523.17
667.653	518.38
668.066	518.1
668.479	542.34
668.892	496.39
669.306	509.08
669.719	506.54
670.132	497.8
670.545	491.59
670.958	514.43
671.37	474.95
671.783	508.23
672.196	501.46
672.609	486.8
673.021	465.92
673.434	453.22
673.846	515.56
674.259	482
674.671	492.72
675.084	509.08
675.496	471.85
675.908	498.36
676.32	490.75
676.732	494.13
677.144	493.57
677.556	465.64
677.968	468.46
678.38	478.62
678.792	490.75
679.204	496.95
679.615	506.26
680.027	502.31
680.439	486.8
680.85	490.18
681.262	479.18
681.673	471.85
682.084	483.69
682.496	480.59
682.907	476.92
683.318	515.56
683.729	454.35
684.14	455.76
684.551	461.12
684.962	448.14
685.373	445.6
685.784	451.81
686.194	466.48
686.605	420.2
687.016	432.06
687.426	447.86
687.837	447.3
688.247	452.38
688.657	452.09
689.068	446.73
689.478	449.84
689.888	472.69
690.298	439.11
690.708	442.78
691.118	459.15
691.528	430.36
691.938	464.51
692.348	455.2
692.758	456.89
693.168	424.72
693.577	431.49
693.987	448.14
694.396	441.37
694.806	434.88
695.215	458.58
695.625	466.77
696.034	442.5
696.443	460.56
696.852	432.9
697.262	439.68
697.671	442.22
698.08	437.42
698.489	427.54
698.897	438.27
699.306	427.54
699.715	419.63
700.124	427.26
700.532	428.67
700.941	437.7
701.35	430.08
701.758	417.09
702.166	419.63
702.575	436.85
702.983	424.72
703.391	456.33
703.799	430.08
704.208	425.28
704.616	404.67
705.024	432.06
705.432	404.39
705.839	416.53
706.247	430.64
706.655	417.94
707.063	431.21
707.47	403.26
707.878	402.98
708.285	403.26
708.693	412.01
709.1	417.94
709.508	413.14
709.915	418.79
710.322	418.79
710.729	432.62
711.136	435.16
711.543	423.87
711.95	434.31
712.357	422.74
712.764	427.82
713.171	418.79
713.578	432.62
713.984	416.81
714.391	391.68
714.797	406.93
715.204	385.75
715.61	414.27
716.017	414.83
716.423	409.47
716.829	411.16
717.236	395.92
717.642	391.4
718.048	393.09
718.454	441.09
718.86	412.58
719.266	439.96
719.671	391.96
720.077	426.69
720.483	417.66
720.889	401.85
721.294	427.82
721.7	413.14
722.105	405.52
722.511	401.56
722.916	420.2
723.321	419.92
723.726	419.63
724.132	378.12
724.537	412.58
724.942	419.92
725.347	441.37
725.752	391.96
726.156	407.78
726.561	395.07
726.966	384.9
727.371	412.01
727.775	382.36
728.18	400.15
728.584	406.36
728.989	387.73
729.393	411.16
729.798	424.72
730.202	419.35
730.606	406.36
731.01	396.48
731.414	398.74
731.818	439.39
732.222	395.35
732.626	424.43
733.03	399.87
733.434	428.39
733.837	423.02
734.241	403.54
734.645	410.6
735.048	378.4
735.452	397.89
735.855	413.99
736.258	410.6
736.662	419.07
737.065	400.15
737.468	422.74
737.871	391.4
738.274	410.6
738.677	408.34
739.08	370.78
739.483	408.34
739.886	399.02
740.289	423.02
740.691	398.74
741.094	393.37
741.497	427.54
741.899	429.51
742.302	390.27
742.704	424.15
743.106	393.09
743.508	417.38
743.911	406.93
744.313	397.89
744.715	396.76
745.117	424.43
745.519	395.92
745.921	377.84
746.323	411.73
746.724	408.62
747.126	396.48
747.528	411.16
747.929	404.39
748.331	400.72
748.732	395.35
749.134	385.18
749.535	397.33
749.936	413.14
750.338	411.45
750.739	402.13
751.14	398.74
751.541	409.75
751.942	408.91
752.343	396.2
752.744	402.13
753.144	398.17
753.545	417.38
753.946	408.62
754.346	405.52
754.747	391.4
755.148	421.89
755.548	395.35
755.948	395.07
756.349	414.83
756.749	380.1
757.149	385.75
757.549	409.19
757.949	408.06
758.349	399.02
758.749	368.8
759.149	391.96
759.549	398.74
759.949	419.63
760.348	409.75
760.748	408.06
761.148	381.79
761.547	399.3
761.947	383.77
762.346	410.6
762.745	426.97
763.145	400.15
763.544	401.28
763.943	401.56
764.342	375.3
764.741	394.22
765.14	404.95
765.539	382.64
765.938	428.67
766.336	408.06
766.735	390.83
767.134	402.13
767.532	388.57
767.931	387.44
768.329	393.09
768.728	406.36
769.126	416.81
769.525	360.89
769.923	400.72
770.321	414.55
770.719	406.93
771.117	396.2
771.515	396.76
771.913	399.59
772.311	394.79
772.709	391.11
773.106	386.6
773.504	388.57
773.902	426.69
774.299	399.59
774.697	427.82
775.094	376.71
775.491	395.92
775.889	410.32
776.286	391.4
776.683	420.48
777.08	389.42
777.477	393.09
777.874	397.33
778.271	386.6
778.668	402.98
779.065	405.23
779.462	397.61
779.858	379.82
780.255	428.1
780.652	414.27
781.048	394.79
781.444	370.21
781.841	393.94
782.237	405.23
782.633	401.85
783.03	395.07
783.426	407.21
783.822	397.61
784.218	391.96
784.614	385.47
785.01	405.23
785.405	394.79
785.801	397.89
786.197	437.42
786.593	414.27
786.988	408.06
787.384	395.92
787.779	393.94
788.174	391.96
788.57	384.34
788.965	383.49
789.36	398.17
789.755	388.57
790.15	379.53
790.545	385.47
790.94	368.23
791.335	370.78
791.73	389.98
792.125	410.6
792.52	402.69
792.914	377.84
793.309	362.02
793.703	386.88
794.098	406.36
794.492	412.58
794.887	417.66
795.281	389.14
795.675	404.1
796.069	402.13
796.463	373.6
796.857	378.4
797.251	386.88
797.645	389.7
798.039	372.47
798.433	371.06
798.826	405.8
799.22	411.73
799.614	400.15
800.007	384.05
800.401	402.98
800.794	397.89
801.187	387.44
801.581	369.36
801.974	394.5
802.367	380.95
802.76	404.95
803.153	372.19
803.546	389.14
803.939	384.05
804.332	365.69
804.725	399.3
805.117	381.23
805.51	418.5
805.903	395.63
806.295	407.78
806.688	377.84
807.08	388.29
807.472	374.45
807.865	389.14
808.257	386.88
808.649	394.22
809.041	380.66
809.433	397.89
809.825	380.95
810.217	364.84
810.609	373.6
811.001	424.15
811.392	408.62
811.784	399.3
812.175	411.73
812.567	394.5
812.958	398.17
813.35	373.6
813.741	404.1
814.132	371.62
814.524	386.31
814.915	406.93
815.306	402.41
815.697	374.73
816.088	405.8
816.479	397.89
816.87	408.91
817.26	390.55
817.651	387.16
818.042	391.4
818.432	385.75
818.823	396.2
819.213	367.95
819.604	397.61
819.994	395.35
820.384	378.97
820.775	389.98
821.165	381.51
821.555	378.12
821.945	382.36
822.335	383.77
822.725	381.51
823.114	377.27
823.504	380.95
823.894	397.61
824.284	377.27
824.673	393.94
825.063	377.56
825.452	380.1
825.842	397.33
826.231	400.15
826.62	382.64
827.009	398.17
827.399	402.41
827.788	394.79
828.177	369.08
828.566	366.54
828.954	394.79
829.343	392.53
829.732	391.4
830.121	395.35
830.509	390.83
830.898	393.37
831.286	405.8
831.675	366.26
832.063	386.6
832.452	385.75
832.84	389.42
833.228	407.49
833.616	392.53
834.004	378.12
834.392	375.3
834.78	371.91
835.168	389.7
835.556	414.55
835.944	387.16
836.331	432.06
836.719	402.13
837.107	381.79
837.494	422.74
837.881	414.55
838.269	378.12
838.656	357.22
839.043	358.35
839.431	393.09
839.818	361.45
840.205	391.4
840.592	383.77
840.979	414.55
841.366	375.3
841.752	393.94
842.139	378.69
842.526	388.85
842.912	367.39
843.299	380.1
843.685	392.53
844.072	405.52
844.458	391.68
844.844	383.77
845.231	385.47
845.617	406.65
846.003	376.71
846.389	398.46
846.775	398.17
847.161	372.47
847.547	418.5
847.933	380.66
848.318	401
848.704	389.7
849.09	362.58
849.475	377.56
849.861	389.7
850.246	388.85
850.631	380.1
851.017	416.53
851.402	389.98
851.787	388.01
852.172	394.22
852.557	382.36
852.942	384.62
853.327	379.53
853.712	388.57
854.097	389.7
854.481	394.79
854.866	382.08
855.25	401.85
855.635	396.48
856.019	418.5
856.404	366.82
856.788	379.53
857.172	397.89
857.557	378.12
857.941	377.27
858.325	392.24
858.709	388.57
859.093	390.27
859.477	389.14
859.86	405.23
860.244	366.82
860.628	386.31
861.012	369.93
861.395	387.73
861.779	395.63
862.162	393.94
862.545	412.58
862.929	387.16
863.312	378.4
863.695	373.88
864.078	391.68
864.461	398.74
864.844	379.25
865.227	375.3
865.61	366.54
865.993	390.55
866.376	387.16
866.758	410.32
867.141	416.81
867.523	382.08
867.906	380.66
868.288	388.01
868.671	368.8
869.053	372.47
869.435	402.13
869.817	386.6
870.199	373.88
870.581	388.01
870.963	399.59
871.345	405.8
871.727	388.57
872.109	381.79
872.491	395.07
872.872	369.08
873.254	400.43
873.635	404.67
874.017	369.08
874.398	386.03
874.779	378.69
875.161	367.1
875.542	402.69
875.923	385.47
876.304	418.5
876.685	356.65
877.066	358.63
877.447	398.74
877.828	387.16
878.208	377.84
878.589	377.84
878.97	396.2
879.35	375.3
879.731	394.79
880.111	379.25
880.491	373.32
880.872	373.6
881.252	368.8
881.632	380.95
882.012	383.77
882.392	401.28
882.772	375.01
883.152	387.73
883.532	392.53
883.912	393.66
884.291	398.46
884.671	389.98
885.051	411.73
885.43	397.61
885.81	384.9
886.189	362.3
886.568	379.82
886.948	368.52
887.327	403.54
887.706	380.66
888.085	397.33
888.464	356.65
888.843	381.79
889.222	391.96
889.601	403.26
889.979	404.95
890.358	389.98
890.737	391.4
891.115	369.93
891.494	381.51
891.872	387.44
892.25	374.73
892.629	382.08
893.007	398.74
893.385	383.77
893.763	378.4
894.141	377.56
894.519	398.74
894.897	390.27
895.275	356.65
895.653	374.73
896.03	417.38
896.408	377.56
896.786	387.73
897.163	374.73
897.541	375.58
897.918	385.75
898.295	369.08
898.673	359.76
899.05	369.08
899.427	406.36
899.804	360.61
900.181	376.43
900.558	378.97
900.935	382.08
901.312	404.1
901.688	400.72
902.065	378.4
902.442	390.83
902.818	376.71
903.195	370.78
903.571	381.51
903.947	386.88
904.324	384.34
904.7	343.65
905.076	387.73
905.452	385.75
905.828	368.8
906.204	382.92
906.58	361.17
906.956	413.71
907.331	402.13
907.707	396.76
908.083	370.49
908.458	381.51
908.834	396.48
909.209	371.34
909.585	377.56
909.96	372.19
910.335	375.01
910.71	407.78
911.086	391.4
911.461	384.62
911.836	372.19
912.21	362.87
912.585	376.99
912.96	381.51
913.335	372.75
913.709	385.75
914.084	375.01
914.459	371.06
914.833	367.1
915.207	382.36
915.582	388.85
915.956	364
916.33	357.5
916.704	376.14
917.078	381.79
917.452	372.19
917.826	388.85
918.2	376.43
918.574	404.39
918.948	353.54
919.321	366.82
919.695	356.08
920.068	408.62
920.442	341.67
920.815	384.62
921.189	361.45
921.562	394.22
921.935	391.4
922.308	375.01
922.681	385.47
923.054	370.21
923.427	382.08
923.8	384.05
924.173	350.72
924.546	361.17
924.919	367.67
925.291	378.4
925.664	369.08
926.036	376.14
926.409	398.74
926.781	361.17
927.153	385.75
927.526	393.37
927.898	367.1
928.27	372.75
928.642	399.3
929.014	390.27
929.386	375.01
929.758	360.04
930.129	367.39
930.501	361.74
930.873	372.75
931.244	379.53
931.616	367.1
931.987	393.66
932.359	400.43
932.73	388.29
933.101	355.52
933.472	388.85
933.843	390.55
934.214	393.94
934.585	394.5
934.956	371.91
935.327	382.08
935.698	398.17
936.069	379.53
936.439	367.95
936.81	345.06
937.18	386.03
937.551	349.87
937.921	399.87
938.292	386.31
938.662	386.88
939.032	365.97
939.402	388.01
939.772	359.76
940.142	379.25
940.512	378.12
940.882	364.28
941.252	371.06
941.621	388.01
941.991	375.3
942.361	384.9
942.73	382.64
943.1	374.73
943.469	383.21
943.838	394.79
944.208	362.58
944.577	386.6
944.946	380.95
945.315	381.79
945.684	362.87
946.053	369.65
946.422	372.19
946.791	391.96
947.159	387.16
947.528	371.34
947.897	384.34
948.265	407.21
948.634	388.57
949.002	367.95
949.371	384.62
949.739	384.05
950.107	381.79
950.475	383.49
950.843	351.85
951.211	391.68
951.579	367.39
951.947	385.18
952.315	382.92
952.683	395.07
953.05	359.76
953.418	430.64
953.785	375.86
954.153	370.21
954.52	369.08
954.888	393.66
955.255	373.6
955.622	390.27
955.989	410.03
956.356	365.41
956.723	407.78
957.09	371.91
957.457	392.24
957.824	370.78
958.191	358.63
958.557	375.86
958.924	359.48
959.291	370.49
959.657	366.54
960.023	393.94
960.39	401.56
960.756	376.43
961.122	391.68
961.488	373.32
961.855	375.3
962.221	385.75
962.586	362.3
962.952	371.62
963.318	383.21
963.684	369.93
964.05	389.98
964.415	377.27
964.781	384.9
965.146	398.17
965.512	389.14
965.877	362.58
966.242	368.8
966.608	373.04
966.973	395.63
967.338	368.52
967.703	351.28
968.068	358.35
968.433	407.49
968.797	397.61
969.162	373.04
969.527	392.24
969.891	377.56
970.256	379.53
970.62	375.01
970.985	377.84
971.349	367.67
971.714	381.79
972.078	375.58
972.442	360.89
972.806	390.83
973.17	365.41
973.534	375.3
973.898	369.93
974.262	353.26
974.625	372.75
974.989	388.01
975.353	393.66
975.716	401.56
976.08	355.52
976.443	386.6
976.806	358.35
977.17	365.69
977.533	380.95
977.896	382.92
978.259	408.34
978.622	381.23
978.985	370.49
979.348	377.56
979.711	393.94
980.073	383.21
980.436	345.91
980.799	375.86
981.161	353.82
981.524	373.88
981.886	362.3
982.248	366.54
982.611	355.8
982.973	367.39
983.335	384.05
983.697	383.77
984.059	382.92
984.421	365.41
984.783	377.84
985.145	365.13
985.506	372.47
985.868	369.93
986.23	380.66
986.591	372.75
986.953	396.76
987.314	385.75
987.675	376.71
988.037	912.64
988.398	394.5
988.759	371.34
989.12	353.26
989.481	397.61
989.842	363.43
990.203	363.15
990.564	361.74
990.924	360.04
991.285	1139.77
991.646	394.22
992.006	386.88
992.367	391.68
992.727	371.62
993.087	358.63
993.448	379.53
993.808	368.52
994.168	347.89
994.528	381.23
994.888	376.71
995.248	373.6
995.608	372.47
995.967	382.92
996.327	378.97
996.687	355.8
997.046	347.32
997.406	368.23
997.765	379.82
998.125	369.36
998.484	380.66
998.843	382.64
999.202	370.49
999.561	388.57
999.92	372.19
1000.279	381.51
1000.638	387.73
1000.997	361.74
1001.356	371.06
1001.715	381.23
1002.073	397.89
1002.432	371.34
1002.79	376.71
1003.149	380.66
1003.507	388.57
1003.865	374.73
1004.224	352.98
1004.582	388.57
1004.94	378.69
1005.298	372.47
1005.656	395.92
1006.014	357.78
1006.371	366.26
1006.729	341.96
1007.087	360.04
1007.445	356.08
1007.802	376.71
1008.16	363.15
1008.517	367.67
1008.874	377.84
1009.232	373.32
1009.589	386.31
1009.946	370.21
1010.303	365.41
1010.66	391.68
1011.017	377.27
1011.374	381.23
1011.731	391.96
1012.087	374.73
1012.444	368.52
1012.801	371.34
1013.157	348.46
1013.513	360.04
1013.87	367.39
1014.226	389.98
1014.582	403.26
1014.939	386.6
1015.295	380.95
1015.651	386.31
1016.007	371.62
1016.363	367.1
1016.719	354.95
1017.074	361.17
1017.43	373.04
1017.786	402.69
1018.141	387.16
1018.497	382.92
1018.852	381.79
1019.208	388.29
1019.563	352.98
1019.918	376.14
1020.273	378.4
1020.628	373.88
1020.983	373.32
1021.338	387.73
1021.693	396.2
1022.048	395.92
1022.403	369.36
1022.757	391.68
1023.112	395.63
1023.467	344.78
1023.821	372.75
1024.175	377.84
1024.53	345.06
1024.884	366.54
1025.238	387.44
1025.592	346.19
1025.946	370.78
1026.3	380.66
1026.654	388.85
1027.008	378.12
1027.362	369.65
1027.716	364.56
1028.069	378.4
1028.423	349.3
1028.777	376.99
1029.13	359.19
1029.483	393.66
1029.837	375.3
1030.19	373.88
1030.543	377.56
1030.896	364.28
1031.249	367.67
1031.602	387.44
1031.955	390.27
1032.308	400.43
1032.661	351
1033.013	377.56
1033.366	359.48
1033.719	373.32
1034.071	380.38
1034.424	364.84
1034.776	364.56
1035.128	369.36
1035.48	371.34
1035.833	380.66
1036.185	392.81
1036.537	392.81
1036.889	392.81
