Data from SCSF78_irradiation_FLMS019251_03-14-13-173.txt Node
Date: Thu Feb 21 03:14:13 PST 2019
User: mu3e
Spectrometer: FLMS01925
Trigger mode: 0
Integration Time (sec): 6.500000E-2
Scans to average: 10
Electric dark correction enabled: true
Nonlinearity correction enabled: true
Boxcar width: 0
XAxis mode: Wavelengths
Number of Pixels in Spectrum: 2048
>>>>>Begin Spectral Data<<<<<
187.103	-80.32
187.574	-80.32
188.045	-80.32
188.516	-136.62
188.987	-116.43
189.458	-128.09
189.929	-118.42
190.4	-116.14
190.871	-82.6
191.342	-78.9
191.813	-58.44
192.284	-41.96
192.754	-8.45
193.225	-8.73
193.696	32.15
194.166	32.43
194.637	63.36
195.107	90.59
195.578	115.25
196.048	147.28
196.518	159.75
196.989	179.57
197.459	215.25
197.929	238.46
198.399	314.55
198.869	255.16
199.339	285.43
199.809	312.86
200.279	338.3
200.749	334.06
201.219	354.12
201.689	356.1
202.159	378.7
202.628	374.18
203.098	371.64
203.568	387.18
204.037	382.09
204.507	383.51
204.976	383.51
205.445	402.71
205.915	398.19
206.384	398.19
206.853	385.2
207.323	408.64
207.792	388.03
208.261	397.63
208.73	370.23
209.199	400.73
209.668	407.23
210.137	384.64
210.606	416.26
211.075	391.98
211.543	385.77
212.012	390
212.481	338.3
212.95	379.27
213.418	409.77
213.887	391.41
214.355	382.38
214.824	342.82
215.292	358.93
215.76	367.4
216.229	341.69
216.697	342.26
217.165	352.43
217.633	371.92
218.101	367.69
218.569	372.77
219.037	337.17
219.505	371.92
219.973	362.04
220.441	330.1
220.909	362.32
221.377	379.55
221.844	363.17
222.312	369.1
222.78	377.86
223.247	373.62
223.715	348.47
224.182	364.3
224.65	365.71
225.117	368.53
225.584	336.89
226.052	364.01
226.519	333.21
226.986	354.97
227.453	351.02
227.92	347.63
228.387	370.51
228.854	372.21
229.321	359.49
229.788	368.53
230.255	347.91
230.722	354.41
231.189	337.73
231.655	347.34
232.122	351.02
232.589	373.34
233.055	382.38
233.522	380.4
233.988	376.44
234.454	370.51
234.921	368.25
235.387	381.53
235.853	377.57
236.32	369.38
236.786	349.32
237.252	374.47
237.718	372.77
238.184	401.3
238.65	387.74
239.116	378.7
239.582	376.16
240.047	389.44
240.513	392.54
240.979	367.69
241.445	365.14
241.91	377.86
242.376	372.21
242.841	380.12
243.307	390.28
243.772	373.34
244.238	384.92
244.703	378.99
245.168	359.49
245.633	382.94
246.099	368.53
246.564	375.03
247.029	343.39
247.494	379.27
247.959	351.3
248.424	396.5
248.889	386.05
249.353	391.13
249.818	364.58
250.283	360.91
250.748	383.22
251.212	391.98
251.677	355.25
252.141	370.51
252.606	378.42
253.07	398.47
253.535	382.94
253.999	380.12
254.463	374.75
254.927	395.93
255.392	361.75
255.856	378.7
256.32	383.22
256.784	360.62
257.248	377.29
257.712	386.33
258.176	386.9
258.64	382.38
259.103	396.5
259.567	383.79
260.031	350.45
260.495	375.88
260.958	388.59
261.422	392.26
261.885	367.12
262.349	395.09
262.812	406.1
263.275	381.53
263.739	377.86
264.202	382.94
264.665	381.25
265.128	399.89
265.591	403.56
266.054	382.94
266.517	373.05
266.98	390.28
267.443	371.92
267.906	364.58
268.369	399.04
268.832	376.73
269.294	402.71
269.757	413.72
270.22	378.7
270.682	384.35
271.145	415.42
271.607	367.69
272.07	384.92
272.532	376.44
272.994	399.04
273.456	386.05
273.919	393.39
274.381	358.08
274.843	408.64
275.305	407.79
275.767	380.96
276.229	410.05
276.691	379.83
277.153	373.62
277.614	382.66
278.076	404.97
278.538	402.43
279	389.44
279.461	375.31
279.923	401.02
280.384	374.18
280.846	392.26
281.307	404.4
281.769	408.64
282.23	364.86
282.691	363.17
283.152	379.83
283.613	389.72
284.075	359.78
284.536	394.52
284.997	367.69
285.458	389.44
285.918	386.61
286.379	400.73
286.84	393.39
287.301	378.99
287.762	386.61
288.222	378.7
288.683	398.19
289.143	401.58
289.604	414.85
290.064	416.55
290.525	363.17
290.985	411.18
291.445	426.43
291.906	411.18
292.366	384.35
292.826	378.42
293.286	370.51
293.746	397.63
294.206	413.44
294.666	364.86
295.126	389.15
295.586	374.75
296.046	403.84
296.506	408.08
296.965	373.9
297.425	397.35
297.884	395.93
298.344	403.84
298.804	406.66
299.263	409.77
299.722	395.93
300.182	397.35
300.641	407.79
301.1	409.77
301.559	386.05
302.019	390.85
302.478	411.46
302.937	369.95
303.396	381.81
303.855	402.43
304.314	391.98
304.772	428.12
305.231	424.17
305.69	397.91
306.149	420.78
306.607	392.26
307.066	393.96
307.524	422.19
307.983	403.56
308.441	389.15
308.9	413.16
309.358	408.08
309.816	401.58
310.275	392.83
310.733	425.58
311.191	400.73
311.649	391.98
312.107	404.4
312.565	391.41
313.023	424.45
313.481	398.76
313.939	384.64
314.397	404.97
314.854	391.41
315.312	399.6
315.77	407.51
316.227	400.45
316.685	406.38
317.142	391.41
317.6	416.55
318.057	419.09
318.514	390
318.972	390.28
319.429	434.33
319.886	401.58
320.343	400.45
320.8	403.28
321.257	401.3
321.714	415.98
322.171	396.78
322.628	396.22
323.085	404.69
323.542	402.71
323.998	412.31
324.455	425.58
324.912	412.31
325.368	404.12
325.825	413.72
326.281	421.35
326.738	416.26
327.194	421.63
327.65	397.91
328.107	394.52
328.563	421.63
329.019	420.5
329.475	399.89
329.931	395.65
330.387	410.62
330.843	415.13
331.299	400.73
331.755	374.75
332.211	409.21
332.666	392.54
333.122	404.4
333.578	400.73
334.033	386.61
334.489	418.52
334.944	405.53
335.4	435.18
335.855	428.12
336.31	397.06
336.766	424.45
337.221	399.89
337.676	394.52
338.131	418.24
338.586	425.3
339.041	392.54
339.496	414.85
339.951	395.37
340.406	413.16
340.861	431.51
341.316	379.55
341.771	399.04
342.225	397.35
342.68	402.43
343.134	401.86
343.589	417.39
344.043	392.26
344.498	388.03
344.952	418.8
345.406	422.47
345.861	414.57
346.315	404.4
346.769	413.44
347.223	417.96
347.677	396.78
348.131	413.44
348.585	432.07
349.039	420.5
349.493	396.5
349.947	389.15
350.401	409.21
350.854	398.47
351.308	415.7
351.762	402.15
352.215	391.13
352.669	426.14
353.122	415.13
353.575	410.33
354.029	436.02
354.482	402.43
354.935	388.87
355.388	396.78
355.842	406.66
356.295	405.25
356.748	413.44
357.201	395.93
357.654	384.35
358.106	415.13
358.559	428.12
359.012	404.4
359.465	402.71
359.917	414.57
360.37	416.26
360.823	401.3
361.275	422.47
361.728	405.25
362.18	423.6
362.632	424.45
363.085	370.51
363.537	398.76
363.989	438
364.441	404.69
364.893	401.02
365.345	428.4
365.797	434.61
366.249	429.81
366.701	425.02
367.153	437.15
367.605	402.71
368.057	393.67
368.508	406.66
368.96	415.98
369.411	425.3
369.863	434.33
370.314	442.23
370.766	416.55
371.217	411.18
371.669	405.25
372.12	436.87
372.571	435.74
373.022	423.32
373.473	417.39
373.924	429.25
374.375	413.72
374.826	395.37
375.277	405.53
375.728	428.12
376.179	410.05
376.63	393.67
377.08	412.03
377.531	411.18
377.981	436.87
378.432	419.09
378.883	453.24
379.333	407.79
379.783	443.93
380.234	417.68
380.684	417.68
381.134	436.02
381.584	457.19
382.034	424.73
382.485	412.03
382.935	403.28
383.385	446.47
383.834	425.02
384.284	419.65
384.734	415.7
385.184	416.26
385.634	425.02
386.083	418.52
386.533	431.51
386.982	445.9
387.432	422.47
387.881	418.8
388.331	417.11
388.78	403.56
389.229	417.68
389.679	436.59
390.128	426.99
390.577	428.4
391.026	445.06
391.475	405.53
391.924	396.78
392.373	416.55
392.822	422.76
393.27	414.29
393.719	414.01
394.168	415.13
394.617	431.23
395.065	441.39
395.514	453.24
395.962	440.54
396.411	426.43
396.859	456.34
397.307	447.88
397.756	424.45
398.204	453.52
398.652	439.13
399.1	446.75
399.548	441.39
399.996	474.12
400.444	439.41
400.892	435.46
401.34	442.8
401.788	462.55
402.236	448.73
402.683	456.63
403.131	456.34
403.579	446.47
404.026	471.3
404.474	461.99
404.921	468.48
405.369	475.25
405.816	471.3
406.263	470.17
406.71	482.02
407.158	476.66
407.605	480.89
408.052	458.6
408.499	476.38
408.946	488.22
409.393	479.2
409.84	460.86
410.286	519.53
410.733	537.85
411.18	534.47
411.626	579.84
412.073	611.67
412.52	679.78
412.966	763.86
413.413	898.63
413.859	1065.64
414.305	1278.64
414.752	1579.53
415.198	1913.6
415.644	2365.58
416.09	2878.03
416.536	3403.44
416.982	4092.93
417.428	4826.08
417.874	5586.8
418.32	6474.31
418.766	7406.7
419.211	8542.85
419.657	9397.69
420.103	10670.59
420.548	11496.2
420.994	12818.33
421.439	13933.9
421.885	14898.23
422.33	16320.69
422.776	17326.66
423.221	18313.71
423.666	19492.69
424.111	20706.74
424.556	21415.9
425.001	22769.01
425.446	23976.45
425.891	24980.27
426.336	25699.12
426.781	26903.27
427.226	28637.51
427.671	29231.89
428.115	29916.7
428.56	31410.08
429.005	32708.13
429.449	33147.48
429.894	34453.05
430.338	35337.62
430.782	35368.63
431.227	36786.05
431.671	37063.82
432.115	38341.98
432.559	39316.66
433.003	39121.14
433.447	39851.09
433.891	40200.83
434.335	40457.63
434.779	41153.83
435.223	41287.91
435.667	41319.83
436.111	41766.12
436.554	41688.55
436.998	41256.98
437.442	41298.3
437.885	43169.78
438.328	41725.47
438.772	41887.35
439.215	42290.59
439.659	41933.47
440.102	42314.19
440.545	41702.67
440.988	41528.77
441.431	42213.87
441.874	41749.51
442.317	42080.83
442.76	41436.41
443.203	40939.47
443.646	41533.72
444.089	41114.5
444.531	41681.86
444.974	40424.56
445.417	41345.82
445.859	40506.99
446.302	41544.62
446.744	40937.98
447.186	41930.5
447.629	40966.41
448.071	40953.31
448.513	41023.02
448.956	42100.43
449.398	41380.96
449.84	40284.68
450.282	40683.02
450.724	41325.03
451.166	40960.72
451.607	40825.05
452.049	40835.43
452.491	41791.4
452.933	41365.62
453.374	41934.46
453.816	42236.21
454.257	41885.11
454.699	42637.26
455.14	42371.32
455.582	42015.82
456.023	42039.64
456.464	42295.31
456.905	42606.68
457.347	42708.4
457.788	41709.61
458.229	41878.42
458.67	42599.96
459.111	40940.21
459.552	41005.22
459.992	40654.87
460.433	40552.16
460.874	39705.03
461.315	40658.57
461.755	39953.34
462.196	39437.7
462.636	38676.12
463.077	38431.56
463.517	38553.09
463.957	38875.84
464.398	38400.14
464.838	38462
465.278	37435.79
465.718	37547.26
466.158	36555.85
466.598	37117.43
467.038	36675.22
467.478	36864.84
467.918	36990.63
468.358	36432.59
468.798	36255.32
469.237	35965.92
469.677	36056.83
470.117	36659.81
470.556	34563.1
470.996	35115.92
471.435	35323.7
471.874	35786.32
472.314	35470.47
472.753	34726.11
473.192	34916.24
473.631	34597.02
474.07	34723.18
474.509	34799.57
474.948	35022.42
475.387	34443.54
475.826	33649.81
476.265	34904.28
476.704	34534.79
477.143	34967.01
477.581	34625.57
478.02	35249.96
478.458	34037.11
478.897	34544.55
479.335	35555.95
479.774	35097.61
480.212	35195.51
480.65	35087.84
481.089	35115.92
481.527	34567.98
481.965	34283
482.403	35826.39
482.841	35548.14
483.279	35577.69
483.717	35654.39
484.155	35125.44
484.592	35467.05
485.03	35781.92
485.468	34968.47
485.905	34915.02
486.343	35367.17
486.781	34761.5
487.218	34422.07
487.655	34279.1
488.093	33480.32
488.53	34839.84
488.967	34035.4
489.405	33892.23
489.842	33127.73
490.279	33124.81
490.716	32893.67
491.153	33113.1
491.59	32662.78
492.027	32133.98
492.463	31822.88
492.9	31075.51
493.337	31019.9
493.773	31217.19
494.21	30425.95
494.647	30238.33
495.083	29666.99
495.519	29292.45
495.956	29302.96
496.392	28710.82
496.828	28566.15
497.265	27956.85
497.701	28033.16
498.137	27673.05
498.573	27037.75
499.009	27505.41
499.445	26640.83
499.881	26224.26
500.316	26515.32
500.752	25744.78
501.188	25686.11
501.624	25568
502.059	24577.91
502.495	24360.36
502.93	24309.4
503.366	24519.84
503.801	23971.03
504.236	23675.07
504.672	23240.03
505.107	23029.27
505.542	22585.21
505.977	22527.64
506.412	22210.21
506.847	22471.04
507.282	21890.33
507.717	21681.41
508.152	21692.06
508.587	21354.7
509.021	20963.02
509.456	20546.64
509.891	20663.06
510.325	20493.02
510.76	20225.27
511.194	20070.71
511.628	20155.95
512.063	19461.33
512.497	19684.29
512.931	19149.32
513.366	19050.42
513.8	19010.05
514.234	18423.78
514.668	18434.51
515.102	18612.89
515.536	17874.11
515.969	18006.04
516.403	17626.37
516.837	17372.96
517.271	17553.09
517.704	17124.14
518.138	17049.51
518.571	16979.37
519.005	16652.81
519.438	16564.79
519.871	16369.37
520.305	16078.17
520.738	15993.52
521.171	15658.25
521.604	15708.28
522.037	15451.74
522.47	15247.87
522.903	14963.25
523.336	14923.94
523.769	14784.29
524.202	14405.35
524.634	14356.12
525.067	14158.6
525.5	14045.14
525.932	13941.49
526.365	13648.54
526.797	13585.26
527.23	13520.19
527.662	13091.13
528.094	12916.58
528.527	12858.96
528.959	12706.34
529.391	12440.75
529.823	12061.31
530.255	12220.69
530.687	11852.62
531.119	11640.16
531.551	11588.87
531.982	11372.32
532.414	11247.35
532.846	10976.71
533.277	10868.66
533.709	10560.58
534.14	10514.14
534.572	10406.86
535.003	10307.48
535.435	10082.08
535.866	9961.68
536.297	9705.95
536.728	9677.34
537.159	9593.03
537.59	9456.81
538.022	9272.94
538.452	9174.2
538.883	8978.36
539.314	8903.79
539.745	8667.67
540.176	8605.92
540.606	8358.16
541.037	8376.61
541.468	8212
541.898	8184.94
542.328	8094.61
542.759	7909.07
543.189	7858.21
543.619	7812.56
544.05	7572.8
544.48	7452.76
544.91	7414.03
545.34	7318.72
545.77	7184.55
546.2	7098.52
546.63	6970.68
547.06	6930.49
547.489	6806.68
547.919	6657.47
548.349	6659.31
548.778	6611.38
549.208	6498.31
549.637	6435.8
550.067	6301.17
550.496	6345.01
550.926	6205.26
551.355	6025.35
551.784	6084.12
552.213	5897.39
552.642	5839.85
553.071	5820.76
553.5	5739.02
553.929	5574.84
554.358	5611.79
554.787	5484.13
555.216	5467.37
555.645	5317.15
556.073	5290.76
556.502	5243.03
556.93	5070.85
557.359	5097.03
557.787	5074.59
558.216	5002.16
558.644	4949.74
559.072	4924.6
559.5	4828.23
559.929	4783.49
560.357	4778.67
560.785	4762.59
561.213	4749.72
561.641	4602.73
562.068	4594.94
562.496	4520.28
562.924	4518.4
563.352	4501.47
563.779	4459.27
564.207	4453.36
564.634	4398.22
565.062	4404.95
565.489	4315.33
565.917	4291.63
566.344	4251.5
566.771	4245.84
567.198	4170.09
567.625	4108.05
568.053	4109.13
568.48	4058.38
568.907	3986.26
569.333	3976.27
569.76	3852.41
570.187	3840.51
570.614	3823.99
571.04	4663.11
571.467	3699.12
571.894	3636.21
572.32	3533.35
572.747	3476.3
573.173	3446.67
573.599	3375.15
574.026	3284.24
574.452	3278.79
574.878	3243.1
575.304	3220.49
575.73	3170.87
576.156	3074.28
576.582	3078.92
577.008	3020.21
577.434	2933.02
577.86	2912.5
578.285	2883.23
578.711	2809.6
579.137	2794.81
579.562	2715.06
579.988	2712.32
580.413	2672.83
580.838	2641.28
581.264	2599.83
581.689	2576.49
582.114	2536.66
582.539	2606.69
582.964	2446.76
583.39	2452.81
583.814	2366.13
584.239	2333.63
584.664	2374.11
585.089	2296.99
585.514	2261.44
585.939	2207.94
586.363	2183.38
586.788	2164.34
587.212	2174.27
587.637	2112.98
588.061	2110.22
588.485	2077.9
588.91	2030.36
589.334	2047.22
589.758	1991.36
590.182	1978.09
590.606	1928.55
591.03	1937.13
591.454	1892.27
591.878	1866.79
592.302	1855.98
592.726	1827.44
593.15	1824.67
593.573	1760.89
593.997	1730.64
594.42	1734.81
594.844	1715.1
595.267	1707.05
595.691	1679.01
596.114	1657.9
596.537	1656.79
596.96	1638.73
597.384	1608.44
597.807	1597.04
598.23	1597.6
598.653	1576.74
599.076	1547.54
599.499	1540.87
599.921	1552.55
600.344	1542.81
600.767	1514.43
601.189	1466.83
601.612	1480.75
602.034	1462.65
602.457	1461.54
602.879	1514.15
603.302	1478.52
603.724	1440.37
604.146	1435.64
604.568	1375.44
604.991	1424.49
605.413	1427
605.835	1424.49
606.257	1415.58
606.678	1389.66
607.1	1406.1
607.522	1360.11
607.944	1384.64
608.365	1363.45
608.787	1375.16
609.209	1333.05
609.63	1339.75
610.051	1329.15
610.473	1311.01
610.894	1291.76
611.315	1274.73
611.737	1239.27
612.158	1235.08
612.579	1215.25
613	1254.63
613.421	1240.67
613.842	1185.35
614.263	1176.69
614.683	1155.44
615.104	1162.43
615.525	1112.09
615.945	1137.83
616.366	1106.5
616.787	1132.51
617.207	1076.28
617.627	1106.22
618.048	1098.11
618.468	1053.6
618.888	1020.56
619.308	1045.21
619.728	1046.89
620.148	1007.96
620.568	1032.88
620.988	995.35
621.408	981.34
621.828	1002.07
622.248	995.35
622.668	969.85
623.087	957.24
623.507	946.59
623.926	931.44
624.346	939.58
624.765	897.79
625.185	916.86
625.604	921.63
626.023	884.88
626.442	922.19
626.861	905.08
627.28	870.85
627.699	883.2
628.118	854.29
628.537	865.24
628.956	822.85
629.375	840.54
629.794	816.11
630.212	841.94
630.631	828.75
631.049	811.62
631.468	814.99
631.886	802.35
632.305	788.02
632.723	806
633.141	809.09
633.559	783.24
633.978	782.96
634.396	781.84
634.814	757.11
635.232	743.62
635.65	769.2
636.067	756.27
636.485	757.11
636.903	719.16
637.321	743.9
637.738	746.43
638.156	707.35
638.573	688.22
638.991	711.29
639.408	705.38
639.825	709.32
640.243	694.69
640.66	686.25
641.077	680.63
641.494	668.81
641.911	677.25
642.328	700.88
642.745	653.33
643.162	665.99
643.579	669.65
643.995	672.47
644.412	700.32
644.829	649.39
645.245	648.26
645.662	628.28
646.078	649.11
646.495	635.6
646.911	641.79
647.327	627.72
647.743	647.98
648.159	620.68
648.576	617.3
648.992	618.42
649.408	655.02
649.824	633.35
650.239	604.06
650.655	584.91
651.071	632.78
651.487	599.56
651.902	599.27
652.318	599.56
652.733	584.63
653.149	584.35
653.564	592.8
653.979	595.61
654.395	597.3
654.81	572.51
655.225	578.43
655.64	572.8
656.055	605.75
656.47	580.97
656.885	562.93
657.3	554.2
657.715	577.87
658.13	542.92
658.544	565.19
658.959	566.03
659.374	553.63
659.788	543.49
660.202	588.29
660.617	580.97
661.031	558.14
661.445	563.5
661.86	562.65
662.274	552.51
662.688	546.59
663.102	532.78
663.516	580.4
663.93	556.73
664.344	533.9
664.758	519.81
665.171	530.8
665.585	529.39
665.999	553.63
666.412	533.34
666.826	532.78
667.239	526.01
667.653	536.16
668.066	522.35
668.479	508.25
668.892	537.85
669.306	511.35
669.719	523.19
670.132	512.76
670.545	520.09
670.958	528.27
671.37	527.42
671.783	539.26
672.196	521.78
672.609	507.4
673.021	517.83
673.434	516.14
673.846	492.74
674.259	504.86
674.671	485.69
675.084	487.94
675.496	505.15
675.908	486.25
676.32	513.32
676.732	499.79
677.144	468.48
677.556	488.79
677.968	539.82
678.38	480.89
678.792	490.48
679.204	465.66
679.615	484.28
680.027	511.07
680.439	485.12
680.85	478.92
681.262	471.86
681.673	492.74
682.084	490.2
682.496	466.5
682.907	471.58
683.318	469.32
683.729	478.92
684.14	472.43
684.551	461.71
684.962	450.14
685.373	433.77
685.784	466.22
686.194	461.71
686.605	454.93
687.016	481.74
687.426	472.15
687.837	466.5
688.247	469.61
688.657	469.32
689.068	468.48
689.478	465.09
689.888	454.93
690.298	446.47
690.708	450.98
691.118	464.81
691.528	456.63
691.938	454.93
692.348	459.73
692.758	473.84
693.168	443.08
693.577	428.97
693.987	450.7
694.396	463.96
694.806	454.09
695.215	445.9
695.625	448.73
696.034	448.73
696.443	432.36
696.852	447.6
697.262	434.05
697.671	437.15
698.08	441.39
698.489	457.47
698.897	445.34
699.306	445.06
699.715	436.02
700.124	439.13
700.532	439.98
700.941	439.98
701.35	439.41
701.758	469.61
702.166	438.28
702.575	445.9
702.983	429.25
703.391	442.23
703.799	415.98
704.208	442.52
704.616	456.34
705.024	430.66
705.432	452.96
705.839	417.96
706.247	440.54
706.655	435.74
707.063	416.83
707.47	432.92
707.878	413.72
708.285	424.45
708.693	437.72
709.1	439.41
709.508	436.02
709.915	433.77
710.322	406.95
710.729	448.16
711.136	424.17
711.543	460.01
711.95	414.29
712.357	431.51
712.764	414.57
713.171	415.98
713.578	433.77
713.984	421.91
714.391	441.39
714.797	438.28
715.204	414.29
715.61	444.21
716.017	436.02
716.423	402.43
716.829	412.31
717.236	406.95
717.642	431.79
718.048	425.02
718.454	402.43
718.86	430.94
719.266	456.06
719.671	435.18
720.077	418.52
720.483	406.1
720.889	432.64
721.294	407.23
721.7	418.8
722.105	410.05
722.511	404.97
722.916	431.51
723.321	428.12
723.726	428.69
724.132	422.76
724.537	399.89
724.942	388.03
725.347	414.57
725.752	420.5
726.156	402.99
726.561	413.44
726.966	438.56
727.371	432.07
727.775	391.7
728.18	416.83
728.584	400.45
728.989	406.66
729.393	448.16
729.798	397.35
730.202	443.93
730.606	399.6
731.01	414.57
731.414	391.98
731.818	415.42
732.222	415.13
732.626	400.45
733.03	409.21
733.434	408.36
733.837	412.31
734.241	410.33
734.645	391.13
735.048	406.95
735.452	422.47
735.855	404.97
736.258	399.6
736.662	395.09
737.065	428.97
737.468	438.85
737.871	390.57
738.274	413.72
738.677	425.58
739.08	390.28
739.483	397.63
739.886	421.63
740.289	410.05
740.691	440.54
741.094	389.15
741.497	420.78
741.899	418.52
742.302	380.12
742.704	397.63
743.106	380.68
743.508	377.57
743.911	386.05
744.313	400.73
744.715	396.22
745.117	406.66
745.519	397.91
745.921	369.66
746.323	404.69
746.724	394.8
747.126	384.07
747.528	433.48
747.929	400.73
748.331	422.76
748.732	406.1
749.134	394.8
749.535	410.62
749.936	392.26
750.338	417.96
750.739	445.06
751.14	415.13
751.541	412.88
751.942	419.09
752.343	388.87
752.744	390.57
753.144	390.57
753.545	408.92
753.946	395.65
754.346	397.63
754.747	385.2
755.148	402.43
755.548	396.78
755.948	421.06
756.349	416.83
756.749	421.06
757.149	389.44
757.549	407.51
757.949	400.73
758.349	409.21
758.749	421.06
759.149	389.72
759.549	396.5
759.949	388.87
760.348	398.76
760.748	400.45
761.148	412.59
761.547	372.49
761.947	379.83
762.346	414.29
762.745	417.39
763.145	414.85
763.544	403.28
763.943	398.19
764.342	386.61
764.741	414.29
765.14	401.86
765.539	404.4
765.938	426.43
766.336	390
766.735	399.32
767.134	377.86
767.532	380.68
767.931	385.48
768.329	385.48
768.728	409.49
769.126	388.03
769.525	406.66
769.923	388.59
770.321	382.09
770.719	392.26
771.117	398.19
771.515	408.64
771.913	386.33
772.311	397.35
772.709	410.05
773.106	398.76
773.504	409.77
773.902	404.12
774.299	406.95
774.697	429.53
775.094	397.63
775.491	372.77
775.889	374.47
776.286	378.14
776.683	413.72
777.08	405.25
777.477	408.92
777.874	399.6
778.271	388.87
778.668	390.28
779.065	387.74
779.462	398.47
779.858	404.4
780.255	407.79
780.652	414.29
781.048	385.48
781.444	397.35
781.841	413.44
782.237	386.9
782.633	395.65
783.03	395.65
783.426	380.12
783.822	383.22
784.218	357.23
784.614	397.35
785.01	411.46
785.405	396.22
785.801	390
786.197	400.73
786.593	419.65
786.988	384.64
787.384	396.5
787.779	409.49
788.174	410.05
788.57	384.07
788.965	393.39
789.36	406.1
789.755	391.13
790.15	402.99
790.545	399.6
790.94	382.66
791.335	373.9
791.73	400.17
792.125	417.39
792.52	419.09
792.914	396.5
793.309	398.47
793.703	388.59
794.098	406.66
794.492	408.92
794.887	412.31
795.281	404.12
795.675	407.51
796.069	401.3
796.463	373.34
796.857	405.53
797.251	390.28
797.645	388.31
798.039	389.15
798.433	396.22
798.826	391.41
799.22	410.9
799.614	402.71
800.007	375.88
800.401	379.55
800.794	405.82
801.187	382.38
801.581	399.04
801.974	401.3
802.367	373.9
802.76	398.19
803.153	396.78
803.546	385.2
803.939	383.79
804.332	384.92
804.725	397.35
805.117	377.01
805.51	413.72
805.903	383.79
806.295	380.4
806.688	391.41
807.08	362.32
807.472	395.09
807.865	374.75
808.257	360.62
808.649	392.83
809.041	393.39
809.433	393.96
809.825	378.14
810.217	382.09
810.609	379.55
811.001	391.41
811.392	396.78
811.784	398.76
812.175	397.63
812.567	384.92
812.958	402.71
813.35	386.61
813.741	398.19
814.132	377.86
814.524	363.73
814.915	391.41
815.306	395.65
815.697	385.77
816.088	380.12
816.479	369.1
816.87	412.88
817.26	394.8
817.651	394.24
818.042	398.19
818.432	399.89
818.823	384.64
819.213	385.48
819.604	377.57
819.994	375.6
820.384	392.54
820.775	410.05
821.165	408.92
821.555	391.41
821.945	410.9
822.335	390.57
822.725	377.86
823.114	386.61
823.504	375.6
823.894	416.55
824.284	397.63
824.673	378.42
825.063	390.28
825.452	385.77
825.842	399.32
826.231	378.7
826.62	380.12
827.009	402.71
827.399	390.28
827.788	382.09
828.177	370.79
828.566	398.76
828.954	414.29
829.343	394.52
829.732	400.45
830.121	415.13
830.509	384.35
830.898	380.96
831.286	395.37
831.675	380.68
832.063	394.52
832.452	393.96
832.84	386.61
833.228	403.84
833.616	374.18
834.004	397.06
834.392	364.3
834.78	410.33
835.168	385.77
835.556	406.1
835.944	405.25
836.331	400.73
836.719	393.96
837.107	380.12
837.494	386.33
837.881	398.76
838.269	407.79
838.656	394.52
839.043	409.49
839.431	392.83
839.818	399.32
840.205	404.12
840.592	383.51
840.979	406.95
841.366	388.87
841.752	379.27
842.139	375.03
842.526	394.52
842.912	392.54
843.299	381.81
843.685	372.77
844.072	397.06
844.458	373.9
844.844	412.03
845.231	399.04
845.617	391.13
846.003	405.82
846.389	382.66
846.775	393.11
847.161	386.05
847.547	388.59
847.933	388.31
848.318	397.91
848.704	387.74
849.09	374.75
849.475	385.48
849.861	383.51
850.246	394.52
850.631	383.79
851.017	392.54
851.402	396.78
851.787	381.25
852.172	416.55
852.557	402.71
852.942	386.33
853.327	401.86
853.712	381.53
854.097	373.05
854.481	385.2
854.866	386.9
855.25	399.04
855.635	399.32
856.019	378.14
856.404	375.88
856.788	377.86
857.172	395.65
857.557	378.99
857.941	385.2
858.325	382.09
858.709	390.28
859.093	394.8
859.477	386.9
859.86	389.72
860.244	393.39
860.628	414.85
861.012	397.35
861.395	385.2
861.779	399.89
862.162	356.1
862.545	397.35
862.929	387.18
863.312	394.52
863.695	395.93
864.078	359.78
864.461	390
864.844	385.2
865.227	386.33
865.61	363.17
865.993	400.73
866.376	403.28
866.758	356.95
867.141	364.3
867.523	395.93
867.906	359.49
868.288	376.73
868.671	395.65
869.053	394.52
869.435	377.01
869.817	367.97
870.199	403.56
870.581	372.77
870.963	381.53
871.345	399.6
871.727	374.47
872.109	367.4
872.491	393.96
872.872	391.41
873.254	360.91
873.635	365.43
874.017	399.04
874.398	367.4
874.779	368.25
875.161	372.77
875.542	375.88
875.923	383.51
876.304	386.05
876.685	385.2
877.066	410.9
877.447	385.77
877.828	385.48
878.208	398.19
878.589	376.16
878.97	360.62
879.35	375.6
879.731	375.6
880.111	385.77
880.491	376.73
880.872	373.34
881.252	406.66
881.632	374.75
882.012	379.83
882.392	384.92
882.772	388.87
883.152	373.34
883.532	380.4
883.912	382.38
884.291	396.5
884.671	376.44
885.051	390
885.43	378.7
885.81	369.1
886.189	397.91
886.568	371.92
886.948	384.64
887.327	381.25
887.706	393.11
888.085	365.99
888.464	366.84
888.843	393.11
889.222	377.29
889.601	384.64
889.979	386.61
890.358	389.44
890.737	388.87
891.115	383.51
891.494	387.74
891.872	382.38
892.25	364.58
892.629	369.95
893.007	380.12
893.385	378.14
893.763	390
894.141	389.15
894.519	401.02
894.897	399.89
895.275	411.46
895.653	381.53
896.03	386.61
896.408	382.94
896.786	362.88
897.163	369.95
897.541	374.47
897.918	363.45
898.295	356.1
898.673	378.14
899.05	404.69
899.427	408.64
899.804	365.99
900.181	386.05
900.558	387.18
900.935	348.19
901.312	362.04
901.688	359.78
902.065	383.22
902.442	393.11
902.818	384.35
903.195	379.83
903.571	361.75
903.947	373.62
904.324	402.43
904.7	394.52
905.076	403.28
905.452	405.25
905.828	398.76
906.204	369.38
906.58	384.35
906.956	395.09
907.331	407.23
907.707	391.41
908.083	388.31
908.458	382.38
908.834	390.85
909.209	400.73
909.585	401.86
909.96	378.14
910.335	389.72
910.71	367.12
911.086	388.31
911.461	367.12
911.836	373.62
912.21	406.1
912.585	388.03
912.96	406.1
913.335	378.14
913.709	396.5
914.084	393.39
914.459	359.78
914.833	359.21
915.207	379.83
915.582	373.9
915.956	391.7
916.33	394.8
916.704	382.38
917.078	371.08
917.452	381.25
917.826	379.27
918.2	399.04
918.574	383.79
918.948	377.01
919.321	396.5
919.695	398.76
920.068	385.48
920.442	355.54
920.815	391.41
921.189	387.74
921.562	369.66
921.935	360.91
922.308	377.57
922.681	391.13
923.054	385.2
923.427	395.37
923.8	381.25
924.173	401.86
924.546	366.27
924.919	364.3
925.291	376.44
925.664	381.25
926.036	396.22
926.409	395.65
926.781	405.25
927.153	398.19
927.526	375.88
927.898	380.4
928.27	361.47
928.642	347.63
929.014	397.06
929.386	382.94
929.758	369.38
930.129	363.73
930.501	407.79
930.873	378.42
931.244	403.84
931.616	400.17
931.987	374.75
932.359	369.1
932.73	383.79
933.101	377.86
933.472	382.94
933.843	386.05
934.214	360.06
934.585	363.17
934.956	373.05
935.327	378.7
935.698	394.8
936.069	401.02
936.439	395.37
936.81	391.41
937.18	393.96
937.551	367.69
937.921	400.17
938.292	367.12
938.662	401.58
939.032	372.21
939.402	397.06
939.772	388.87
940.142	367.4
940.512	354.97
940.882	403.84
941.252	375.88
941.621	379.83
941.991	389.72
942.361	385.48
942.73	385.2
943.1	394.24
943.469	399.89
943.838	389.15
944.208	390.57
944.577	361.75
944.946	364.3
945.315	400.17
945.684	386.9
946.053	396.78
946.422	406.38
946.791	387.46
947.159	354.41
947.528	380.12
947.897	385.48
948.265	377.01
948.634	382.66
949.002	387.74
949.371	382.38
949.739	390.28
950.107	407.79
950.475	378.42
950.843	393.39
951.211	365.43
951.579	367.97
951.947	376.73
952.315	402.43
952.683	375.88
953.05	393.11
953.418	396.5
953.785	388.87
954.153	383.79
954.52	367.12
954.888	385.77
955.255	381.81
955.622	401.86
955.989	372.49
956.356	354.12
956.723	344.23
957.09	375.03
957.457	375.88
957.824	365.71
958.191	384.35
958.557	377.86
958.924	385.48
959.291	385.2
959.657	383.22
960.023	398.47
960.39	384.92
960.756	388.03
961.122	393.67
961.488	358.36
961.855	398.76
962.221	362.88
962.586	386.9
962.952	421.63
963.318	359.49
963.684	400.17
964.05	389.44
964.415	373.9
964.781	373.34
965.146	385.48
965.512	400.17
965.877	362.04
966.242	389.44
966.608	360.06
966.973	371.64
967.338	358.93
967.703	383.79
968.068	356.95
968.433	376.44
968.797	405.82
969.162	381.53
969.527	382.38
969.891	389.72
970.256	364.58
970.62	400.17
970.985	386.61
971.349	377.29
971.714	358.36
972.078	381.81
972.442	374.18
972.806	357.23
973.17	381.25
973.534	377.57
973.898	375.03
974.262	376.73
974.625	376.16
974.989	353.56
975.353	385.77
975.716	371.64
976.08	397.06
976.443	384.07
976.806	380.68
977.17	373.05
977.533	375.88
977.896	374.75
978.259	377.29
978.622	416.55
978.985	398.47
979.348	410.9
979.711	362.6
980.073	394.52
980.436	383.79
980.799	368.82
981.161	380.68
981.524	390.28
981.886	382.09
982.248	415.13
982.611	369.66
982.973	380.12
983.335	379.55
983.697	397.63
984.059	377.86
984.421	336.04
984.783	377.29
985.145	375.88
985.506	374.75
985.868	395.65
986.23	391.7
986.591	377.86
986.953	380.68
987.314	371.92
987.675	365.14
988.037	1212.18
988.398	424.17
988.759	376.16
989.12	370.23
989.481	390
989.842	385.48
990.203	384.64
990.564	353.84
990.924	384.35
991.285	931.16
991.646	377.57
992.006	373.34
992.367	376.73
992.727	364.86
993.087	380.4
993.448	391.13
993.808	391.13
994.168	380.68
994.528	382.09
994.888	375.88
995.248	394.8
995.608	366.27
995.967	365.43
996.327	388.31
996.687	368.53
997.046	375.31
997.406	368.53
997.765	377.01
998.125	388.87
998.484	398.76
998.843	406.66
999.202	363.17
999.561	363.17
999.92	373.05
1000.279	363.73
1000.638	390
1000.997	356.1
1001.356	367.4
1001.715	357.23
1002.073	377.57
1002.432	385.2
1002.79	364.86
1003.149	362.6
1003.507	380.12
1003.865	360.62
1004.224	371.36
1004.582	352.99
1004.94	377.57
1005.298	375.03
1005.656	402.71
1006.014	373.34
1006.371	371.36
1006.729	366.27
1007.087	396.78
1007.445	379.55
1007.802	392.83
1008.16	358.08
1008.517	369.66
1008.874	372.77
1009.232	378.7
1009.589	390.28
1009.946	396.5
1010.303	365.14
1010.66	358.36
1011.017	405.82
1011.374	375.6
1011.731	362.32
1012.087	366.27
1012.444	360.34
1012.801	380.68
1013.157	410.33
1013.513	363.73
1013.87	366.27
1014.226	373.62
1014.582	396.22
1014.939	371.92
1015.295	379.27
1015.651	367.69
1016.007	369.1
1016.363	380.96
1016.719	369.1
1017.074	386.05
1017.43	393.96
1017.786	389.72
1018.141	390.28
1018.497	345.36
1018.852	360.06
1019.208	390.57
1019.563	380.68
1019.918	361.47
1020.273	388.03
1020.628	391.13
1020.983	365.43
1021.338	382.38
1021.693	390.57
1022.048	359.21
1022.403	378.7
1022.757	381.81
1023.112	357.52
1023.467	381.53
1023.821	367.69
1024.175	371.08
1024.53	367.97
1024.884	362.04
1025.238	369.38
1025.592	396.22
1025.946	364.58
1026.3	378.99
1026.654	373.05
1027.008	358.36
1027.362	355.54
1027.716	376.44
1028.069	376.44
1028.423	380.4
1028.777	359.78
1029.13	365.43
1029.483	377.29
1029.837	382.94
1030.19	380.96
1030.543	362.88
1030.896	376.16
1031.249	381.25
1031.602	381.25
1031.955	391.98
1032.308	357.52
1032.661	363.17
1033.013	342.26
1033.366	365.99
1033.719	369.66
1034.071	389.72
1034.424	363.73
1034.776	352.43
1035.128	358.93
1035.48	373.9
1035.833	381.81
1036.185	368.25
1036.537	368.25
1036.889	368.25
