Data from SCSF78_irradiation_FLMS019251_02-37-12-996.txt Node
Date: Thu Feb 21 02:37:12 PST 2019
User: mu3e
Spectrometer: FLMS01925
Trigger mode: 0
Integration Time (sec): 6.500000E-2
Scans to average: 10
Electric dark correction enabled: true
Nonlinearity correction enabled: true
Boxcar width: 0
XAxis mode: Wavelengths
Number of Pixels in Spectrum: 2048
>>>>>Begin Spectral Data<<<<<
187.103	-87.87
187.574	-87.87
188.045	-87.87
188.516	-99.81
188.987	-107.2
189.458	-125.12
189.929	-139.34
190.4	-107.2
190.871	-87.59
191.342	-66.27
191.813	-79.35
192.284	-48.37
192.754	-21.1
193.225	-12.58
193.696	37.95
194.166	76.25
194.637	66.32
195.107	96.38
195.578	110.56
196.048	138.34
196.518	160.15
196.989	159.3
197.459	226.42
197.929	233.49
198.399	296.58
198.869	277.92
199.339	287.25
199.809	323.44
200.279	350.01
200.749	321.46
201.219	363.85
201.689	347.75
202.159	371.77
202.628	387.58
203.098	370.92
203.568	381.65
204.037	409.61
204.507	408.76
204.976	390.41
205.445	393.23
205.915	395.77
206.384	405.66
206.853	394.64
207.323	388.71
207.792	398.03
208.261	385.04
208.73	416.67
209.199	411.31
209.668	369.51
210.137	372.05
210.606	381.65
211.075	397.47
211.543	369.22
212.012	379.11
212.481	388.15
212.95	382.5
213.418	382.5
213.887	360.75
214.355	375.72
214.824	369.51
215.292	376
215.76	358.77
216.229	390.41
216.697	367.81
217.165	362.44
217.633	374.87
218.101	360.18
218.569	374.59
219.037	349.44
219.505	375.44
219.973	379.96
220.441	375.16
220.909	351.14
221.377	346.62
221.844	318.07
222.312	368.09
222.78	380.52
223.247	354.53
223.715	357.07
224.182	372.05
224.65	344.64
225.117	372.33
225.584	337.29
226.052	375.16
226.519	384.19
226.986	360.18
227.453	377.13
227.92	366.96
228.387	373.18
228.854	356.23
229.321	367.25
229.788	349.73
230.255	352.84
230.722	358.49
231.189	362.16
231.655	364.42
232.122	377.98
232.589	382.5
233.055	365.55
233.522	391.26
233.988	373.18
234.454	348.6
234.921	361.31
235.387	392.1
235.853	362.44
236.32	402.27
236.786	353.68
237.252	386.17
237.718	392.95
238.184	366.4
238.65	362.16
239.116	387.02
239.582	385.04
240.047	366.96
240.513	384.76
240.979	352.27
241.445	393.8
241.91	382.22
242.376	363.01
242.841	362.72
243.307	372.9
243.772	360.18
244.238	349.44
244.703	385.89
245.168	366.12
245.633	374.31
246.099	368.66
246.564	368.09
247.029	411.87
247.494	351.99
247.959	364.7
248.424	359.05
248.889	385.04
249.353	395.21
249.818	390.97
250.283	383.35
250.748	377.42
251.212	366.68
251.677	369.79
252.141	359.05
252.606	383.63
253.07	402.83
253.535	378.83
253.999	372.9
254.463	355.1
254.927	376.85
255.392	381.09
255.856	377.98
256.32	396.9
256.784	396.34
257.248	401.99
257.712	399.16
258.176	409.05
258.64	389
259.103	381.65
259.567	388.71
260.031	370.35
260.495	374.59
260.958	392.39
261.422	374.03
261.885	385.89
262.349	382.78
262.812	394.93
263.275	394.08
263.739	398.32
264.202	390.41
264.665	391.26
265.128	400.29
265.591	375.44
266.054	394.64
266.517	420.62
266.98	401.7
267.443	412.72
267.906	416.39
268.369	359.62
268.832	384.19
269.294	362.16
269.757	396.06
270.22	406.22
270.682	401.99
271.145	386.74
271.607	416.67
272.07	389.28
272.532	416.39
272.994	358.2
273.456	415.54
273.919	378.26
274.381	388.15
274.843	400.58
275.305	393.51
275.767	386.17
276.229	398.88
276.691	419.78
277.153	382.78
277.614	423.73
278.076	407.63
278.538	392.39
279	403.68
279.461	392.67
279.923	396.9
280.384	413
280.846	392.95
281.307	391.82
281.769	391.26
282.23	401.99
282.691	398.6
283.152	387.3
283.613	396.34
284.075	392.95
284.536	408.48
284.997	392.39
285.458	413
285.918	397.47
286.379	389.84
286.84	411.02
287.301	392.1
287.762	409.61
288.222	405.38
288.683	396.62
289.143	388.43
289.604	397.47
290.064	404.53
290.525	391.82
290.985	400.86
291.445	414.69
291.906	375.44
292.366	400.01
292.826	376.29
293.286	389.84
293.746	386.45
294.206	419.78
294.666	382.78
295.126	424.29
295.586	411.59
296.046	392.95
296.506	391.26
296.965	408.2
297.425	407.07
297.884	423.73
298.344	393.8
298.804	402.27
299.263	414.41
299.722	414.69
300.182	422.6
300.641	405.66
301.1	403.96
301.559	417.52
302.019	407.35
302.478	448.85
302.937	387.58
303.396	400.86
303.855	409.05
304.314	405.09
304.772	419.49
305.231	411.31
305.69	412.15
306.149	397.19
306.607	379.96
307.066	395.49
307.524	407.35
307.983	412.72
308.441	416.67
308.9	425.14
309.358	383.35
309.816	421.47
310.275	407.92
310.733	383.91
311.191	431.07
311.649	397.19
312.107	433.89
312.565	417.23
313.023	394.36
313.481	420.06
313.939	411.02
314.397	387.02
314.854	393.23
315.312	413
315.77	389.56
316.227	418.93
316.685	411.59
317.142	384.48
317.6	415.26
318.057	407.35
318.514	420.62
318.972	399.16
319.429	401.7
319.886	413.28
320.343	408.76
320.8	397.19
321.257	421.47
321.714	376.85
322.171	422.88
322.628	412.72
323.085	436.71
323.542	412.72
323.998	405.09
324.455	394.93
324.912	413.85
325.368	415.54
325.825	414.41
326.281	407.63
326.738	407.63
327.194	413.56
327.65	399.16
328.107	397.47
328.563	402.27
329.019	385.04
329.475	412.43
329.931	397.19
330.387	422.03
330.843	405.66
331.299	401.99
331.755	402.55
332.211	435.3
332.666	405.38
333.122	398.32
333.578	419.21
334.033	418.93
334.489	416.95
334.944	403.4
335.4	426.83
335.855	405.94
336.31	388.15
336.766	418.08
337.221	401.42
337.676	410.74
338.131	415.82
338.586	398.88
339.041	441.23
339.496	413.28
339.951	419.21
340.406	429.09
340.861	410.18
341.316	403.12
341.771	409.89
342.225	427.96
342.68	408.48
343.134	429.09
343.589	412.15
344.043	411.87
344.498	388.71
344.952	393.8
345.406	462.68
345.861	383.35
346.315	414.69
346.769	396.9
347.223	389.84
347.677	420.9
348.131	415.82
348.585	400.29
349.039	407.35
349.493	420.06
349.947	422.03
350.401	421.19
350.854	401.42
351.308	420.62
351.762	405.66
352.215	408.76
352.669	416.11
353.122	416.95
353.575	419.78
354.029	414.13
354.482	392.95
354.935	408.2
355.388	409.61
355.842	418.93
356.295	409.05
356.748	434.74
357.201	440.95
357.654	435.58
358.106	430.22
358.559	401.42
359.012	408.48
359.465	438.69
359.917	414.98
360.37	425.14
360.823	422.03
361.275	436.99
361.728	421.19
362.18	418.08
362.632	405.09
363.085	411.87
363.537	420.62
363.989	397.47
364.441	424.57
364.893	414.41
365.345	364.99
365.797	394.36
366.249	418.93
366.701	409.89
367.153	423.73
367.605	387.58
368.057	422.03
368.508	404.53
368.96	402.27
369.411	423.73
369.863	424.86
370.314	412.15
370.766	435.3
371.217	418.65
371.669	429.37
372.12	461.55
372.571	451.11
373.022	404.25
373.473	410.46
373.924	416.67
374.375	409.89
374.826	401.7
375.277	394.64
375.728	421.19
376.179	398.88
376.63	434.74
377.08	427.68
377.531	428.53
377.981	432.48
378.432	411.31
378.883	451.95
379.333	440.1
379.783	423.16
380.234	424.01
380.684	421.75
381.134	430.5
381.584	421.75
382.034	439.25
382.485	403.68
382.935	417.23
383.385	390.13
383.834	424.29
384.284	432.76
384.734	426.83
385.184	423.16
385.634	418.08
386.083	429.94
386.533	423.16
386.982	443.2
387.432	399.73
387.881	436.15
388.331	401.14
388.78	440.95
389.229	411.02
389.679	445.74
390.128	421.75
390.577	474.24
391.026	438.97
391.475	440.1
391.924	437.84
392.373	443.77
392.822	422.03
393.27	424.86
393.719	449.41
394.168	433.04
394.617	435.02
395.065	436.15
395.514	455.9
395.962	419.49
396.411	444.62
396.859	436.99
397.307	429.66
397.756	453.65
398.204	448.85
398.652	439.54
399.1	444.33
399.548	428.81
399.996	445.18
400.444	445.18
400.892	459.29
401.34	440.95
401.788	482.14
402.236	441.51
402.683	449.7
403.131	462.68
403.579	444.62
404.026	457.31
404.474	465.5
404.921	482.14
405.369	486.66
405.816	475.37
406.263	473.96
406.71	474.81
407.158	473.4
407.605	475.65
408.052	509.5
408.499	505.27
408.946	522.75
409.393	480.45
409.84	514.01
410.286	517.11
410.733	531.49
411.18	550.94
411.626	591.51
412.073	655.14
412.52	718.72
412.966	813.7
413.413	963.53
413.859	1112.5
414.305	1336.24
414.752	1647.74
415.198	2043.75
415.644	2450.46
416.09	2997.65
416.536	3572.56
416.982	4335.1
417.428	5028.47
417.874	5977
418.32	6865.17
418.766	7742.72
419.211	8922.03
419.657	9942.75
420.103	11194.29
420.548	12127.38
420.994	13494.97
421.439	14740.52
421.885	15780.54
422.33	17153.04
422.776	18161.26
423.221	19200.74
423.666	20549.98
424.111	21760
424.556	22617.44
425.001	23841.05
425.446	25180.22
425.891	26327.37
426.336	27137.05
426.781	28397.11
427.226	30158.64
427.671	30791.96
428.115	31513.57
428.56	33069.81
429.005	34519.77
429.449	34875.58
429.894	36188.93
430.338	37227.96
430.782	37136.88
431.227	38701.28
431.671	38924.85
432.115	40312.66
432.559	41160.61
433.003	41205.88
433.447	41976.98
433.891	42210.5
434.335	42523.25
434.779	43283.31
435.223	43449.2
435.667	43467.66
436.111	44049.67
436.554	43816.08
436.998	43309.25
437.442	43402.54
437.885	45304.18
438.328	43903.83
438.772	44041.66
439.215	44518.42
439.659	44042.92
440.102	44553.04
440.545	43797.83
440.988	43759.59
441.431	44342.92
441.874	44048.17
442.317	44270.25
442.76	43689.14
443.203	43136.24
443.646	43766.59
444.089	43141.22
444.531	43798.58
444.974	42414.65
445.417	43422.25
445.859	42650.55
446.302	43701.63
446.744	42800.06
447.186	44042.42
447.629	43040.57
448.071	42929
448.513	43034.34
448.956	44201.12
449.398	43402.79
449.84	42329.69
450.282	42609.77
450.724	43234.94
451.166	42851.08
451.607	42773.19
452.049	42717.46
452.491	43777.59
452.933	43308
453.374	43909.08
453.816	44255.72
454.257	43796.33
454.699	44850.31
455.14	44351.69
455.582	44028.65
456.023	44013.39
456.464	44055.68
456.905	44618.27
457.347	44565.08
457.788	43660.41
458.229	43702.38
458.67	44794.78
459.111	42632.9
459.552	42954.4
459.992	42583.91
460.433	42485.23
460.874	41500.4
461.315	42572.72
461.755	41711.7
462.196	41118.32
462.636	40458.23
463.077	40204.39
463.517	40180.47
463.957	40494.51
464.398	40055.23
464.838	40208.58
465.278	39068.64
465.718	39376.3
466.158	38269.2
466.598	38793.39
467.038	38150.95
467.478	38652.4
467.918	38894.87
468.358	38052.59
468.798	37754.93
469.237	37713.26
469.677	37649.05
470.117	38343.31
470.556	36197.49
470.996	36713.73
471.435	36795.94
471.874	37433.2
472.314	37030.15
472.753	36278.16
473.192	36305.06
473.631	36071.6
474.07	36310.19
474.509	36216.55
474.948	36570.88
475.387	35966.02
475.826	35110.66
476.265	36524.65
476.704	36126.6
477.143	36454.46
477.581	36256.89
478.02	36805.73
478.458	35401.95
478.897	36191.86
479.335	37212.29
479.774	36464.24
480.212	36865.92
480.65	36602.92
481.089	36475.49
481.527	36052.29
481.965	35490.6
482.403	37357.51
482.841	37096.24
483.279	37095.02
483.717	37155.73
484.155	36679.73
484.592	37077.15
485.03	37138.84
485.468	36465.71
485.905	36485.27
486.343	36900.67
486.781	36124.15
487.218	35855.57
487.655	35786.18
488.093	35019.84
488.53	36235.62
488.967	35473.02
489.405	35313.8
489.842	34508.55
490.279	34626.65
490.716	34225.54
491.153	34670.82
491.59	34166.75
492.027	33496.28
492.463	33057.38
492.9	32472.24
493.337	32337.17
493.773	32435.67
494.21	31563.56
494.647	31487.97
495.083	30874.4
495.519	30491.44
495.956	30507.54
496.392	29933.15
496.828	29728.37
497.265	29073.48
497.701	29138.7
498.137	28897.36
498.573	28252.86
499.009	28446.48
499.445	27889.93
499.881	27354.24
500.316	27653.34
500.752	26978.58
501.188	26709.07
501.624	26579.9
502.059	25535.94
502.495	25423.94
502.93	25300.86
503.366	25474.79
503.801	24950.63
504.236	24777.52
504.672	24247.96
505.107	24083.22
505.542	23585.93
505.977	23499.14
506.412	23008.39
506.847	23318.84
507.282	22769.61
507.717	22587.54
508.152	22504.76
508.587	22320.11
509.021	21645.12
509.456	21449.45
509.891	21535.66
510.325	21434.59
510.76	21056.62
511.194	20884.75
511.628	20990.16
512.063	20260.41
512.497	20397.52
512.931	19976.36
513.366	19834.88
513.8	19805.29
514.234	19181.57
514.668	19242.83
515.102	19373.31
515.536	18607.77
515.969	18742.44
516.403	18416.15
516.837	18091.33
517.271	18065.86
517.704	17832.73
518.138	17727.75
518.571	17486.91
519.005	17289.98
519.438	17152.54
519.871	16999.27
520.305	16672.23
520.738	16672.48
521.171	16182.48
521.604	16297.71
522.037	16160.89
522.47	15907.71
522.903	15592.22
523.336	15509.97
523.769	15399.01
524.202	15037.19
524.634	14890.78
525.067	14851.96
525.5	14569
525.932	14504.4
526.365	14133.45
526.797	14012.64
527.23	14065.97
527.662	13555.24
528.094	13381.75
528.527	13293.56
528.959	13189.89
529.391	12963.89
529.823	12499.09
530.255	12604.32
530.687	12238.36
531.119	12136.03
531.551	12074.92
531.982	11696.4
532.414	11605.57
532.846	11419.69
533.277	11342.8
533.709	11004.72
534.14	10842.39
534.572	10761.18
535.003	10687.62
535.435	10436.49
535.866	10249.28
536.297	9965.4
536.728	10157.02
537.159	9929.62
537.59	9818.14
538.022	9669.46
538.452	9464.15
538.883	9242.56
539.314	9233.77
539.745	9028.69
540.176	8889.92
540.606	8671.16
541.037	8663.37
541.468	8588.65
541.898	8443.24
542.328	8393.88
542.759	8170.22
543.189	8085.87
543.619	7999.38
544.05	7818.93
544.48	7760.21
544.91	7661.76
545.34	7545.2
545.77	7429.32
546.2	7414.67
546.63	7241.55
547.06	7216.65
547.489	7060.85
547.919	6912.74
548.349	6910.9
548.778	6873.84
549.208	6732.61
549.637	6582.51
550.067	6448.58
550.496	6488.93
550.926	6396.6
551.355	6240.79
551.784	6315.82
552.213	6133.44
552.642	6103.28
553.071	6018.58
553.5	5979.92
553.929	5753.21
554.358	5750.29
554.787	5704.62
555.216	5631.83
555.645	5526.82
556.073	5470.68
556.502	5438.74
556.93	5273.01
557.359	5253.01
557.787	5247.68
558.216	5157.76
558.644	5135.07
559.072	5069.63
559.5	4998.8
559.929	4957.62
560.357	4902.5
560.785	4890.73
561.213	4864.76
561.641	4783.34
562.068	4721.69
562.496	4690.05
562.924	4650.88
563.352	4587.27
563.779	4590.23
564.207	4605.8
564.634	4535.17
565.062	4540.01
565.489	4442.99
565.917	4435.46
566.344	4399.69
566.771	4394.31
567.198	4335.1
567.625	4279.36
568.053	4153.76
568.48	4211.19
568.907	4124.35
569.333	4089
569.76	3935.3
570.187	4041.49
570.614	3890.41
571.04	4865.56
571.467	3832.5
571.894	3770.5
572.32	3662.1
572.747	3640.67
573.173	3529.66
573.599	3515
574.026	3435.1
574.452	3388.6
574.878	3379.08
575.304	3303.69
575.73	3236.96
576.156	3156.53
576.582	3122.71
577.008	3105.24
577.434	3029.34
577.86	2934.5
578.285	2975.79
578.711	2917
579.137	2872.13
579.562	2812.18
579.988	2778.22
580.413	2737.93
580.838	2693.79
581.264	2686.66
581.689	2636.73
582.114	2612.3
582.539	2644.14
582.964	2511.77
583.39	2490.06
583.814	2460.36
584.239	2452.38
584.664	2364.6
585.089	2369.55
585.514	2298.49
585.939	2281.13
586.363	2235.09
586.788	2236.47
587.212	2235.09
587.637	2165.84
588.061	2143.48
588.485	2087.41
588.91	2078.02
589.334	2056.74
589.758	2065.86
590.182	2044.3
590.606	1966.86
591.03	1923.96
591.454	1928.95
591.878	1925.62
592.302	1918.43
592.726	1856.38
593.15	1859.71
593.573	1819.52
593.997	1775.71
594.42	1749.08
594.844	1747.69
595.267	1733.82
595.691	1714.67
596.114	1718.28
596.537	1630.52
596.96	1639.41
597.384	1667.19
597.807	1631.63
598.23	1602.44
598.653	1627.46
599.076	1600.22
599.499	1577.42
599.921	1574.92
600.344	1550.45
600.767	1548.78
601.189	1520.95
601.612	1527.35
602.034	1517.89
602.457	1525.69
602.879	1498.13
603.302	1470.29
603.724	1462.5
604.146	1478.09
604.568	1473.63
604.991	1445.51
605.413	1483.38
605.835	1481.71
606.257	1427.96
606.678	1436.04
607.1	1412.08
607.522	1444.11
607.944	1410.68
608.365	1416.81
608.787	1382.53
609.209	1359.39
609.63	1332.62
610.051	1349.91
610.473	1327.32
610.894	1319.23
611.315	1339.31
611.737	1261.73
612.158	1271.23
612.579	1268.99
613	1257.82
613.421	1243.58
613.842	1211.18
614.263	1184.08
614.683	1210.34
615.104	1183.52
615.525	1147.18
615.945	1135.15
616.366	1137.95
616.787	1095.99
617.207	1113.06
617.627	1082.28
618.048	1087.31
618.468	1075.84
618.888	1060.17
619.308	1049.25
619.728	1043.65
620.148	1038.89
620.568	1029.37
620.988	996.03
621.408	1017.6
621.828	998.56
622.248	1010.88
622.668	978.66
623.087	966.33
623.507	983.43
623.926	989.31
624.346	947.27
624.765	942.5
625.185	925.4
625.604	914.74
626.023	935.49
626.442	899.03
626.861	902.4
627.28	899.03
627.699	868.73
628.118	878.27
628.537	892.02
628.956	849.64
629.375	872.38
629.794	846.28
630.212	871.82
630.631	825.22
631.049	821.29
631.468	833.36
631.886	803.03
632.305	832.24
632.723	808.37
633.141	772.97
633.559	797.69
633.978	770.16
634.396	758.36
634.814	799.94
635.232	777.19
635.65	795.45
636.067	765.1
636.485	731.93
636.903	720.69
637.321	729.69
637.738	745.15
638.156	747.12
638.573	720.97
638.991	747.96
639.408	695.66
639.825	722.38
640.243	752.46
640.66	713.66
641.077	708.6
641.494	669.78
641.911	685.53
642.328	682.72
642.745	684.97
643.162	688.63
643.579	659.93
643.995	662.18
644.412	647.26
644.829	663.3
645.245	653.17
645.662	659.08
646.078	617.14
646.495	654.86
646.911	619.67
647.327	646.98
647.743	616.29
648.159	637.41
648.576	625.3
648.992	624.74
649.408	610.94
649.824	615.45
650.239	643.88
650.655	636.28
651.071	625.02
651.487	619.39
651.902	607
652.318	616.29
652.733	570.1
653.149	598.83
653.564	608.41
653.979	576.02
654.395	582.78
654.81	591.23
655.225	607
655.64	603.62
656.055	573.76
656.47	601.93
656.885	572.35
657.3	579.12
657.715	590.95
658.13	595.17
658.544	576.02
658.959	572.92
659.374	572.07
659.788	559.11
660.202	558.55
660.617	576.3
661.031	552.35
661.445	557.14
661.86	580.24
662.274	553.76
662.688	563.06
663.102	552.07
663.516	554.32
663.93	561.65
664.344	547.84
664.758	536.56
665.171	530.93
665.585	529.8
665.999	549.25
666.412	535.16
666.826	537.97
667.239	562.21
667.653	531.77
668.066	524.72
668.479	538.82
668.892	506.12
669.306	515.98
669.719	501.32
670.132	521.34
670.545	498.5
670.958	521.34
671.37	518.8
671.783	514.86
672.196	524.72
672.609	513.45
673.021	519.93
673.434	505.83
673.846	490.6
674.259	540.23
674.671	498.22
675.084	534.03
675.496	497.37
675.908	520.5
676.32	519.65
676.732	502.17
677.144	512.6
677.556	474.24
677.968	493.99
678.38	479.32
678.792	499.63
679.204	493.71
679.615	515.14
680.027	485.53
680.439	483.83
680.85	478.47
681.262	504.99
681.673	508.09
682.084	499.35
682.496	490.6
682.907	477.06
683.318	525.29
683.729	470.29
684.14	463.24
684.551	482.99
684.962	490.6
685.373	479.32
685.784	474.81
686.194	493.14
686.605	439.25
687.016	475.94
687.426	463.8
687.837	454.77
688.247	461.83
688.657	470.29
689.068	472.27
689.478	477.06
689.888	462.11
690.298	461.83
690.708	470.58
691.118	449.7
691.528	450.54
691.938	455.34
692.348	454.21
692.758	456.47
693.168	460.7
693.577	454.77
693.987	438.97
694.396	454.49
694.806	462.96
695.215	426.83
695.625	458.16
696.034	450.26
696.443	462.11
696.852	452.24
697.262	464.37
697.671	445.46
698.08	427.12
698.489	449.7
698.897	444.33
699.306	450.54
699.715	437.56
700.124	441.23
700.532	428.81
700.941	444.05
701.35	409.61
701.758	460.7
702.166	436.99
702.575	438.97
702.983	467.19
703.391	454.21
703.799	417.23
704.208	449.98
704.616	434.74
705.024	438.69
705.432	431.91
705.839	449.41
706.247	454.77
706.655	443.77
707.063	415.54
707.47	406.22
707.878	444.62
708.285	439.25
708.693	422.32
709.1	422.88
709.508	460.7
709.915	426.83
710.322	437.28
710.729	426.83
711.136	408.76
711.543	427.68
711.95	431.35
712.357	446.59
712.764	438.12
713.171	427.96
713.578	425.7
713.984	421.47
714.391	418.08
714.797	420.34
715.204	417.23
715.61	424.86
716.017	407.92
716.423	421.47
716.829	426.27
717.236	415.26
717.642	410.46
718.048	424.01
718.454	415.82
718.86	400.01
719.266	449.98
719.671	440.66
720.077	435.02
720.483	449.13
720.889	436.71
721.294	402.83
721.7	409.33
722.105	400.01
722.511	413
722.916	429.09
723.321	421.75
723.726	410.46
724.132	422.88
724.537	428.24
724.942	418.65
725.347	437.56
725.752	412.15
726.156	407.35
726.561	394.64
726.966	431.07
727.371	440.66
727.775	425.7
728.18	436.15
728.584	407.35
728.989	416.39
729.393	469.17
729.798	420.9
730.202	414.13
730.606	426.27
731.01	427.68
731.414	420.9
731.818	403.96
732.222	414.98
732.626	418.93
733.03	440.66
733.434	408.2
733.837	408.2
734.241	431.63
734.645	420.06
735.048	432.76
735.452	403.96
735.855	391.82
736.258	396.62
736.662	413.56
737.065	429.37
737.468	410.18
737.871	418.93
738.274	412.15
738.677	394.93
739.08	425.42
739.483	411.31
739.886	407.35
740.289	414.13
740.691	406.51
741.094	410.46
741.497	407.07
741.899	410.18
742.302	401.14
742.704	390.97
743.106	415.82
743.508	412.43
743.911	421.19
744.313	390.97
744.715	417.52
745.117	378.55
745.519	427.68
745.921	392.95
746.323	406.79
746.724	422.88
747.126	376.57
747.528	405.09
747.929	414.98
748.331	415.54
748.732	387.58
749.134	387.58
749.535	421.75
749.936	422.88
750.338	413.28
750.739	433.61
751.14	401.99
751.541	412.72
751.942	422.03
752.343	383.06
752.744	404.25
753.144	406.22
753.545	433.89
753.946	421.19
754.346	410.18
754.747	400.86
755.148	455.34
755.548	403.12
755.948	410.74
756.349	405.66
756.749	396.06
757.149	377.42
757.549	429.37
757.949	414.41
758.349	425.42
758.749	396.34
759.149	401.42
759.549	407.92
759.949	380.8
760.348	401.7
760.748	411.02
761.148	404.81
761.547	409.05
761.947	403.4
762.346	424.86
762.745	378.55
763.145	392.1
763.544	404.81
763.943	430.22
764.342	392.95
764.741	404.81
765.14	424.86
765.539	372.61
765.938	394.93
766.336	407.35
766.735	394.64
767.134	425.99
767.532	407.63
767.931	425.99
768.329	416.39
768.728	385.04
769.126	391.26
769.525	427.96
769.923	373.18
770.321	416.39
770.719	404.25
771.117	396.34
771.515	396.62
771.913	435.02
772.311	390.69
772.709	397.47
773.106	414.98
773.504	399.45
773.902	387.3
774.299	392.1
774.697	417.8
775.094	381.93
775.491	405.66
775.889	381.37
776.286	403.12
776.683	372.05
777.08	376.29
777.477	392.67
777.874	410.46
778.271	393.51
778.668	373.46
779.065	394.08
779.462	378.55
779.858	392.67
780.255	401.7
780.652	396.34
781.048	387.02
781.444	405.38
781.841	387.87
782.237	430.22
782.633	384.76
783.03	397.47
783.426	400.29
783.822	394.08
784.218	403.96
784.614	391.82
785.01	417.23
785.405	413.28
785.801	391.54
786.197	395.21
786.593	385.32
786.988	400.86
787.384	407.35
787.779	407.35
788.174	389.56
788.57	382.5
788.965	389
789.36	386.17
789.755	384.19
790.15	390.69
790.545	397.19
790.94	382.78
791.335	382.78
791.73	385.32
792.125	401.7
792.52	422.88
792.914	392.95
793.309	364.99
793.703	400.58
794.098	404.25
794.492	391.26
794.887	380.8
795.281	414.41
795.675	400.86
796.069	417.23
796.463	398.32
796.857	424.86
797.251	411.87
797.645	373.74
798.039	392.1
798.433	389.84
798.826	378.55
799.22	386.17
799.614	435.3
800.007	411.31
800.401	430.5
800.794	392.39
801.187	407.35
801.581	372.05
801.974	396.62
802.367	384.48
802.76	373.46
803.153	360.18
803.546	409.61
803.939	411.31
804.332	390.97
804.725	378.83
805.117	412.72
805.51	413.85
805.903	401.99
806.295	402.55
806.688	378.55
807.08	392.67
807.472	374.31
807.865	401.42
808.257	390.69
808.649	398.32
809.041	382.22
809.433	379.11
809.825	377.42
810.217	414.41
810.609	381.09
811.001	386.17
811.392	412.72
811.784	399.16
812.175	410.46
812.567	360.46
812.958	387.87
813.35	380.52
813.741	396.9
814.132	397.47
814.524	399.45
814.915	407.92
815.306	406.51
815.697	397.47
816.088	411.87
816.479	394.08
816.87	385.61
817.26	373.74
817.651	395.49
818.042	376.57
818.432	406.79
818.823	366.68
819.213	388.43
819.604	369.22
819.994	423.16
820.384	403.4
820.775	370.64
821.165	397.47
821.555	405.66
821.945	375.16
822.335	387.3
822.725	402.83
823.114	376.57
823.504	377.7
823.894	411.31
824.284	381.65
824.673	380.8
825.063	380.24
825.452	388.71
825.842	403.68
826.231	403.68
826.62	382.5
827.009	395.21
827.399	374.59
827.788	389.84
828.177	380.52
828.566	390.97
828.954	391.26
829.343	389.56
829.732	391.26
830.121	380.24
830.509	396.06
830.898	418.08
831.286	404.53
831.675	405.94
832.063	420.34
832.452	402.27
832.84	398.88
833.228	374.31
833.616	390.41
834.004	406.51
834.392	412.15
834.78	387.87
835.168	393.23
835.556	390.97
835.944	379.39
836.331	382.5
836.719	429.94
837.107	418.08
837.494	385.61
837.881	396.06
838.269	374.31
838.656	395.77
839.043	376
839.431	425.7
839.818	393.8
840.205	377.7
840.592	379.11
840.979	377.42
841.366	382.78
841.752	410.46
842.139	377.98
842.526	405.38
842.912	415.26
843.299	373.18
843.685	374.87
844.072	378.83
844.458	375.72
844.844	380.8
845.231	383.63
845.617	404.25
846.003	368.66
846.389	380.8
846.775	387.87
847.161	381.37
847.547	368.09
847.933	381.93
848.318	423.45
848.704	380.8
849.09	387.3
849.475	390.97
849.861	380.24
850.246	391.82
850.631	392.1
851.017	388.71
851.402	394.08
851.787	409.89
852.172	383.06
852.557	386.74
852.942	389.56
853.327	388.43
853.712	370.35
854.097	382.22
854.481	369.79
854.866	412.43
855.25	379.11
855.635	392.95
856.019	380.52
856.404	407.63
856.788	387.3
857.172	379.96
857.557	376
857.941	372.05
858.325	385.32
858.709	387.02
859.093	414.69
859.477	389.84
859.86	403.96
860.244	408.2
860.628	389.28
861.012	403.4
861.395	383.06
861.779	364.7
862.162	384.76
862.545	389.84
862.929	396.62
863.312	405.38
863.695	376
864.078	385.32
864.461	371.48
864.844	399.73
865.227	395.49
865.61	415.82
865.993	431.07
866.376	364.99
866.758	386.17
867.141	385.04
867.523	388.43
867.906	387.02
868.288	377.98
868.671	420.06
869.053	390.41
869.435	392.1
869.817	409.89
870.199	393.51
870.581	388.71
870.963	401.7
871.345	421.19
871.727	390.13
872.109	379.96
872.491	388.71
872.872	363.29
873.254	366.12
873.635	380.24
874.017	403.12
874.398	394.08
874.779	400.01
875.161	375.44
875.542	398.6
875.923	379.96
876.304	364.14
876.685	376.57
877.066	392.67
877.447	407.35
877.828	401.7
878.208	389.84
878.589	395.21
878.97	414.69
879.35	409.33
879.731	383.06
880.111	385.04
880.491	361.31
880.872	404.25
881.252	379.96
881.632	380.52
882.012	402.83
882.392	386.74
882.772	386.74
883.152	390.97
883.532	372.33
883.912	389.84
884.291	386.17
884.671	393.23
885.051	411.31
885.43	405.38
885.81	381.09
886.189	390.13
886.568	390.97
886.948	388.43
887.327	409.05
887.706	403.12
888.085	390.13
888.464	362.44
888.843	407.35
889.222	390.13
889.601	410.18
889.979	392.1
890.358	392.95
890.737	380.8
891.115	372.33
891.494	393.23
891.872	395.21
892.25	382.78
892.629	390.69
893.007	377.42
893.385	368.94
893.763	376.85
894.141	369.22
894.519	394.64
894.897	382.22
895.275	368.94
895.653	342.1
896.03	412.15
896.408	401.14
896.786	374.31
897.163	387.87
897.541	390.41
897.918	404.81
898.295	383.06
898.673	385.89
899.05	372.9
899.427	399.45
899.804	387.87
900.181	376
900.558	389
900.935	388.43
901.312	380.52
901.688	374.31
902.065	403.68
902.442	385.04
902.818	385.04
903.195	395.77
903.571	402.55
903.947	383.63
904.324	406.22
904.7	368.38
905.076	397.19
905.452	373.46
905.828	374.03
906.204	378.55
906.58	356.79
906.956	368.38
907.331	394.08
907.707	395.49
908.083	401.99
908.458	391.26
908.834	385.04
909.209	389.28
909.585	390.41
909.96	369.51
910.335	395.49
910.71	385.32
911.086	392.67
911.461	374.03
911.836	394.93
912.21	387.87
912.585	382.78
912.96	386.17
913.335	394.93
913.709	376.85
914.084	388.15
914.459	389.28
914.833	386.74
915.207	385.89
915.582	391.82
915.956	396.9
916.33	372.05
916.704	385.89
917.078	391.26
917.452	383.35
917.826	347.75
918.2	385.04
918.574	386.45
918.948	375.72
919.321	365.55
919.695	376.85
920.068	380.8
920.442	392.39
920.815	366.4
921.189	377.13
921.562	392.39
921.935	418.36
922.308	377.13
922.681	383.06
923.054	381.65
923.427	385.89
923.8	380.52
924.173	363.85
924.546	374.87
924.919	363.57
925.291	381.37
925.664	390.97
926.036	364.7
926.409	368.38
926.781	386.17
927.153	369.79
927.526	366.4
927.898	385.89
928.27	389.28
928.642	392.39
929.014	392.95
929.386	356.23
929.758	397.19
930.129	376.29
930.501	390.41
930.873	389
931.244	392.1
931.616	378.83
931.987	373.18
932.359	376.57
932.73	386.74
933.101	364.99
933.472	394.93
933.843	392.39
934.214	386.45
934.585	383.63
934.956	362.44
935.327	397.19
935.698	370.92
936.069	381.65
936.439	376
936.81	365.55
937.18	374.31
937.551	368.09
937.921	386.17
938.292	408.76
938.662	376
939.032	408.76
939.402	401.7
939.772	382.22
940.142	385.89
940.512	364.7
940.882	372.33
941.252	377.7
941.621	375.44
941.991	383.63
942.361	409.61
942.73	413
943.1	369.51
943.469	378.55
943.838	384.48
944.208	368.94
944.577	389.56
944.946	381.65
945.315	385.32
945.684	385.32
946.053	370.35
946.422	394.36
946.791	358.2
947.159	360.46
947.528	383.35
947.897	410.18
948.265	398.03
948.634	370.35
949.002	379.96
949.371	385.04
949.739	392.1
950.107	356.51
950.475	387.3
950.843	377.13
951.211	364.42
951.579	361.03
951.947	390.13
952.315	370.07
952.683	385.61
953.05	379.11
953.418	374.59
953.785	365.27
954.153	393.8
954.52	380.24
954.888	362.16
955.255	390.13
955.622	368.66
955.989	383.06
956.356	383.35
956.723	369.51
957.09	381.65
957.457	372.9
957.824	395.77
958.191	366.96
958.557	411.87
958.924	377.13
959.291	411.31
959.657	370.35
960.023	405.09
960.39	366.68
960.756	386.17
961.122	353.97
961.488	367.25
961.855	409.05
962.221	366.68
962.586	359.33
962.952	391.82
963.318	389
963.684	391.82
964.05	410.74
964.415	388.71
964.781	370.92
965.146	376.57
965.512	376
965.877	384.48
966.242	389.28
966.608	376.29
966.973	381.93
967.338	366.4
967.703	363.01
968.068	362.44
968.433	374.03
968.797	385.32
969.162	378.83
969.527	380.24
969.891	409.33
970.256	365.83
970.62	386.45
970.985	385.61
971.349	395.77
971.714	372.61
972.078	387.87
972.442	356.79
972.806	401.7
973.17	378.83
973.534	383.91
973.898	398.88
974.262	392.95
974.625	386.74
974.989	355.66
975.353	387.3
975.716	402.55
976.08	389
976.443	377.7
976.806	376
977.17	363.85
977.533	335.6
977.896	360.75
978.259	392.1
978.622	381.37
978.985	402.27
979.348	364.42
979.711	363.01
980.073	383.06
980.436	394.93
980.799	381.65
981.161	380.8
981.524	372.9
981.886	368.38
982.248	388.71
982.611	377.98
982.973	373.74
983.335	380.24
983.697	389.84
984.059	364.99
984.421	384.19
984.783	379.68
985.145	375.44
985.506	382.22
985.868	380.8
986.23	391.54
986.591	385.32
986.953	380.52
987.314	407.35
987.675	364.14
988.037	1119.49
988.398	396.62
988.759	366.68
989.12	372.9
989.481	372.9
989.842	374.31
990.203	370.64
990.564	383.63
990.924	390.69
991.285	1048.97
991.646	379.11
992.006	385.04
992.367	384.76
992.727	393.23
993.087	346.05
993.448	361.88
993.808	370.07
994.168	376
994.528	370.92
994.888	382.78
995.248	363.85
995.608	353.4
995.967	380.52
996.327	354.81
996.687	369.79
997.046	347.47
997.406	356.51
997.765	392.39
998.125	372.9
998.484	387.02
998.843	398.88
999.202	397.19
999.561	377.42
999.92	364.99
1000.279	361.03
1000.638	377.98
1000.997	367.25
1001.356	382.22
1001.715	383.63
1002.073	357.64
1002.432	369.51
1002.79	365.27
1003.149	362.44
1003.507	366.12
1003.865	375.72
1004.224	369.51
1004.582	385.32
1004.94	383.35
1005.298	359.9
1005.656	366.68
1006.014	372.9
1006.371	388.15
1006.729	356.23
1007.087	387.02
1007.445	379.68
1007.802	372.9
1008.16	368.38
1008.517	370.07
1008.874	376.85
1009.232	379.96
1009.589	385.89
1009.946	398.32
1010.303	371.48
1010.66	351.14
1011.017	360.18
1011.374	402.27
1011.731	358.49
1012.087	403.68
1012.444	359.33
1012.801	377.13
1013.157	381.93
1013.513	398.88
1013.87	364.14
1014.226	377.98
1014.582	389
1014.939	377.42
1015.295	376.29
1015.651	390.13
1016.007	358.77
1016.363	375.16
1016.719	385.89
1017.074	385.04
1017.43	380.8
1017.786	394.36
1018.141	351.99
1018.497	384.48
1018.852	377.13
1019.208	381.65
1019.563	379.68
1019.918	381.93
1020.273	384.76
1020.628	381.37
1020.983	390.13
1021.338	376.29
1021.693	383.06
1022.048	368.38
1022.403	389.56
1022.757	401.99
1023.112	355.94
1023.467	389.84
1023.821	400.58
1024.175	384.76
1024.53	369.79
1024.884	360.75
1025.238	375.16
1025.592	389.84
1025.946	376.57
1026.3	398.6
1026.654	365.83
1027.008	369.22
1027.362	380.52
1027.716	394.64
1028.069	367.53
1028.423	385.32
1028.777	383.91
1029.13	407.92
1029.483	376.29
1029.837	381.09
1030.19	353.4
1030.543	368.66
1030.896	387.58
1031.249	390.13
1031.602	381.65
1031.955	368.38
1032.308	373.74
1032.661	386.17
1033.013	370.64
1033.366	374.31
1033.719	388.71
1034.071	361.88
1034.424	389.56
1034.776	363.85
1035.128	355.94
1035.48	366.68
1035.833	373.46
1036.185	370.35
1036.537	370.35
1036.889	370.35
