Data from BCF12_Round-3_FLMS019251_12-07-12-974.txt Node
Date: Wed Feb 20 12:07:12 CET 2019
User: luk
Spectrometer: FLMS01925
Trigger mode: 0
Integration Time (sec): 1.181800E-1
Scans to average: 1
Electric dark correction enabled: true
Nonlinearity correction enabled: true
Boxcar width: 0
XAxis mode: Wavelengths
Number of Pixels in Spectrum: 2048
>>>>>Begin Spectral Data<<<<<
187.103	-122.19
187.574	-122.19
188.045	-122.19
188.516	-127.88
188.987	-119.34
189.458	-96.6
189.929	-139.25
190.4	-73.86
190.871	-65.33
191.342	-107.97
191.813	-90.91
192.284	-65.33
192.754	22.71
193.225	-11.36
193.696	-39.76
194.166	-19.88
194.637	34.06
195.107	184.32
195.578	155.99
196.048	113.48
196.518	198.48
196.989	127.65
197.459	153.16
197.929	184.32
198.399	229.62
198.869	283.38
199.339	238.11
199.809	300.35
200.279	311.66
200.749	334.27
201.219	297.52
201.689	280.55
202.159	294.69
202.628	300.35
203.098	373.83
203.568	334.27
204.037	433.13
204.507	404.9
204.976	322.96
205.445	387.95
205.915	373.83
206.384	311.66
206.853	421.84
207.323	373.83
207.792	373.83
208.261	365.36
208.73	390.78
209.199	317.31
209.668	348.4
210.137	331.44
210.606	385.13
211.075	306
211.543	433.13
212.012	404.9
212.481	272.06
212.95	342.75
213.418	308.83
213.887	385.13
214.355	331.44
214.824	331.44
215.292	322.96
215.76	435.95
216.229	320.14
216.697	232.45
217.165	311.66
217.633	322.96
218.101	339.92
218.569	311.66
219.037	283.38
219.505	311.66
219.973	328.62
220.441	342.75
220.909	424.66
221.377	218.3
221.844	255.09
222.312	274.89
222.78	266.41
223.247	232.45
223.715	328.62
224.182	345.58
224.65	300.35
225.117	322.96
225.584	328.62
226.052	354.05
226.519	356.88
226.986	368.18
227.453	277.72
227.92	320.14
228.387	385.13
228.854	311.66
229.321	294.69
229.788	306
230.255	249.43
230.722	314.48
231.189	345.58
231.655	371.01
232.122	342.75
232.589	308.83
233.055	342.75
233.522	311.66
233.988	314.48
234.454	322.96
234.921	345.58
235.387	396.43
235.853	407.72
236.32	342.75
236.786	322.96
237.252	373.83
237.718	240.94
238.184	433.13
238.65	396.43
239.116	322.96
239.582	337.1
240.047	322.96
240.513	306
240.979	297.52
241.445	283.38
241.91	308.83
242.376	317.31
242.841	399.25
243.307	294.69
243.772	252.26
244.238	362.53
244.703	320.14
245.168	322.96
245.633	274.89
246.099	385.13
246.564	354.05
247.029	339.92
247.494	311.66
247.959	368.18
248.424	354.05
248.889	334.27
249.353	376.66
249.818	317.31
250.283	272.06
250.748	328.62
251.212	328.62
251.677	294.69
252.141	382.31
252.606	314.48
253.07	359.71
253.535	291.86
253.999	314.48
254.463	314.48
254.927	359.71
255.392	365.36
255.856	337.1
256.32	291.86
256.784	263.58
257.248	359.71
257.712	373.83
258.176	410.55
258.64	337.1
259.103	311.66
259.567	286.21
260.031	325.79
260.495	339.92
260.958	359.71
261.422	345.58
261.885	345.58
262.349	365.36
262.812	387.95
263.275	376.66
263.739	345.58
264.202	390.78
264.665	345.58
265.128	289.03
265.591	306
266.054	402.08
266.517	311.66
266.98	266.41
267.443	402.08
267.906	229.62
268.369	345.58
268.832	356.88
269.294	362.53
269.757	356.88
270.22	322.96
270.682	339.92
271.145	339.92
271.607	359.71
272.07	385.13
272.532	407.72
272.994	331.44
273.456	410.55
273.919	399.25
274.381	354.05
274.843	320.14
275.305	289.03
275.767	362.53
276.229	255.09
276.691	311.66
277.153	317.31
277.614	368.18
278.076	433.13
278.538	345.58
279	345.58
279.461	337.1
279.923	289.03
280.384	277.72
280.846	379.48
281.307	249.43
281.769	337.1
282.23	390.78
282.691	379.48
283.152	351.23
283.613	291.86
284.075	427.49
284.536	311.66
284.997	424.66
285.458	376.66
285.918	314.48
286.379	320.14
286.84	322.96
287.301	356.88
287.762	334.27
288.222	331.44
288.683	362.53
289.143	322.96
289.604	260.75
290.064	379.48
290.525	334.27
290.985	404.9
291.445	294.69
291.906	348.4
292.366	379.48
292.826	351.23
293.286	286.21
293.746	427.49
294.206	404.9
294.666	204.14
295.126	371.01
295.586	294.69
296.046	371.01
296.506	354.05
296.965	399.25
297.425	280.55
297.884	320.14
298.344	342.75
298.804	351.23
299.263	390.78
299.722	269.23
300.182	407.72
300.641	379.48
301.1	331.44
301.559	339.92
302.019	325.79
302.478	325.79
302.937	435.95
303.396	373.83
303.855	337.1
304.314	354.05
304.772	348.4
305.231	277.72
305.69	297.52
306.149	500.85
306.607	351.23
307.066	416.19
307.524	356.88
307.983	311.66
308.441	413.37
308.9	331.44
309.358	433.13
309.816	385.13
310.275	368.18
310.733	345.58
311.191	328.62
311.649	368.18
312.107	348.4
312.565	407.72
313.023	306
313.481	331.44
313.939	390.78
314.397	387.95
314.854	399.25
315.312	314.48
315.77	345.58
316.227	339.92
316.685	328.62
317.142	373.83
317.6	331.44
318.057	385.13
318.514	303.17
318.972	365.36
319.429	399.25
319.886	385.13
320.343	342.75
320.8	308.83
321.257	289.03
321.714	322.96
322.171	337.1
322.628	413.37
323.085	339.92
323.542	306
323.998	328.62
324.455	416.19
324.912	289.03
325.368	337.1
325.825	229.62
326.281	303.17
326.738	399.25
327.194	351.23
327.65	461.35
328.107	277.72
328.563	376.66
329.019	266.41
329.475	291.86
329.931	387.95
330.387	390.78
330.843	356.88
331.299	419.02
331.755	399.25
332.211	351.23
332.666	379.48
333.122	339.92
333.578	387.95
334.033	452.89
334.489	354.05
334.944	351.23
335.4	410.55
335.855	407.72
336.31	359.71
336.766	373.83
337.221	325.79
337.676	334.27
338.131	421.84
338.586	325.79
339.041	291.86
339.496	337.1
339.951	413.37
340.406	356.88
340.861	416.19
341.316	348.4
341.771	354.05
342.225	351.23
342.68	351.23
343.134	314.48
343.589	416.19
344.043	317.31
344.498	416.19
344.952	382.31
345.406	438.78
345.861	382.31
346.315	421.84
346.769	393.6
347.223	433.13
347.677	371.01
348.131	303.17
348.585	435.95
349.039	382.31
349.493	351.23
349.947	348.4
350.401	337.1
350.854	322.96
351.308	348.4
351.762	365.36
352.215	433.13
352.669	387.95
353.122	351.23
353.575	342.75
354.029	334.27
354.482	368.18
354.935	413.37
355.388	376.66
355.842	334.27
356.295	373.83
356.748	334.27
357.201	328.62
357.654	249.43
358.106	345.58
358.559	354.05
359.012	424.66
359.465	331.44
359.917	303.17
360.37	322.96
360.823	351.23
361.275	413.37
361.728	373.83
362.18	263.58
362.632	385.13
363.085	348.4
363.537	334.27
363.989	342.75
364.441	430.31
364.893	354.05
365.345	342.75
365.797	300.35
366.249	317.31
366.701	331.44
367.153	373.83
367.605	345.58
368.057	345.58
368.508	337.1
368.96	373.83
369.411	354.05
369.863	430.31
370.314	368.18
370.766	393.6
371.217	348.4
371.669	339.92
372.12	348.4
372.571	362.53
373.022	331.44
373.473	297.52
373.924	371.01
374.375	308.83
374.826	376.66
375.277	368.18
375.728	339.92
376.179	472.64
376.63	356.88
377.08	396.43
377.531	351.23
377.981	354.05
378.432	421.84
378.883	373.83
379.333	478.28
379.783	399.25
380.234	430.31
380.684	351.23
381.134	320.14
381.584	385.13
382.034	345.58
382.485	410.55
382.935	325.79
383.385	419.02
383.834	376.66
384.284	368.18
384.734	379.48
385.184	257.92
385.634	371.01
386.083	294.69
386.533	402.08
386.982	356.88
387.432	387.95
387.881	354.05
388.331	371.01
388.78	345.58
389.229	402.08
389.679	402.08
390.128	368.18
390.577	348.4
391.026	356.88
391.475	390.78
391.924	283.38
392.373	322.96
392.822	399.25
393.27	317.31
393.719	356.88
394.168	450.07
394.617	396.43
395.065	430.31
395.514	404.9
395.962	328.62
396.411	325.79
396.859	371.01
397.307	291.86
397.756	297.52
398.204	427.49
398.652	455.71
399.1	342.75
399.548	359.71
399.996	379.48
400.444	371.01
400.892	356.88
401.34	345.58
401.788	421.84
402.236	379.48
402.683	387.95
403.131	390.78
403.579	334.27
404.026	419.02
404.474	356.88
404.921	385.13
405.369	379.48
405.816	345.58
406.263	376.66
406.71	424.66
407.158	444.42
407.605	328.62
408.052	390.78
408.499	351.23
408.946	390.78
409.393	368.18
409.84	308.83
410.286	373.83
410.733	382.31
411.18	402.08
411.626	407.72
412.073	402.08
412.52	387.95
412.966	376.66
413.413	345.58
413.859	348.4
414.305	311.66
414.752	339.92
415.198	373.83
415.644	379.48
416.09	404.9
416.536	334.27
416.982	354.05
417.428	359.71
417.874	322.96
418.32	337.1
418.766	294.69
419.211	322.96
419.657	416.19
420.103	317.31
420.548	461.35
420.994	354.05
421.439	402.08
421.885	359.71
422.33	320.14
422.776	359.71
423.221	345.58
423.666	317.31
424.111	354.05
424.556	464.17
425.001	421.84
425.446	458.53
425.891	387.95
426.336	328.62
426.781	354.05
427.226	322.96
427.671	289.03
428.115	362.53
428.56	399.25
429.005	424.66
429.449	322.96
429.894	413.37
430.338	495.2
430.782	396.43
431.227	339.92
431.671	379.48
432.115	469.82
432.559	371.01
433.003	337.1
433.447	303.17
433.891	328.62
434.335	396.43
434.779	359.71
435.223	455.71
435.667	303.17
436.111	483.92
436.554	376.66
436.998	399.25
437.442	306
437.885	416.19
438.328	342.75
438.772	334.27
439.215	317.31
439.659	320.14
440.102	371.01
440.545	373.83
440.988	407.72
441.431	371.01
441.874	396.43
442.317	331.44
442.76	382.31
443.203	291.86
443.646	263.58
444.089	387.95
444.531	413.37
444.974	427.49
445.417	365.36
445.859	322.96
446.302	469.82
446.744	373.83
447.186	455.71
447.629	385.13
448.071	390.78
448.513	385.13
448.956	308.83
449.398	368.18
449.84	314.48
450.282	356.88
450.724	348.4
451.166	413.37
451.607	413.37
452.049	416.19
452.491	334.27
452.933	331.44
453.374	390.78
453.816	351.23
454.257	393.6
454.699	396.43
455.14	356.88
455.582	311.66
456.023	382.31
456.464	314.48
456.905	297.52
457.347	385.13
457.788	328.62
458.229	382.31
458.67	450.07
459.111	390.78
459.552	399.25
459.992	320.14
460.433	348.4
460.874	359.71
461.315	390.78
461.755	322.96
462.196	368.18
462.636	421.84
463.077	404.9
463.517	339.92
463.957	373.83
464.398	328.62
464.838	486.74
465.278	393.6
465.718	376.66
466.158	359.71
466.598	455.71
467.038	365.36
467.478	399.25
467.918	430.31
468.358	421.84
468.798	396.43
469.237	328.62
469.677	306
470.117	303.17
470.556	362.53
470.996	399.25
471.435	303.17
471.874	371.01
472.314	320.14
472.753	291.86
473.192	385.13
473.631	303.17
474.07	331.44
474.509	345.58
474.948	331.44
475.387	371.01
475.826	444.42
476.265	362.53
476.704	435.95
477.143	362.53
477.581	393.6
478.02	322.96
478.458	359.71
478.897	390.78
479.335	348.4
479.774	331.44
480.212	300.35
480.65	348.4
481.089	334.27
481.527	387.95
481.965	345.58
482.403	300.35
482.841	297.52
483.279	339.92
483.717	339.92
484.155	396.43
484.592	385.13
485.03	430.31
485.468	410.55
485.905	404.9
486.343	371.01
486.781	404.9
487.218	263.58
487.655	379.48
488.093	342.75
488.53	348.4
488.967	337.1
489.405	351.23
489.842	345.58
490.279	356.88
490.716	387.95
491.153	331.44
491.59	416.19
492.027	356.88
492.463	356.88
492.9	385.13
493.337	385.13
493.773	348.4
494.21	345.58
494.647	492.38
495.083	359.71
495.519	342.75
495.956	399.25
496.392	452.89
496.828	351.23
497.265	325.79
497.701	430.31
498.137	362.53
498.573	382.31
499.009	404.9
499.445	348.4
499.881	337.1
500.316	382.31
500.752	433.13
501.188	382.31
501.624	421.84
502.059	274.89
502.495	421.84
502.93	294.69
503.366	450.07
503.801	430.31
504.236	362.53
504.672	368.18
505.107	421.84
505.542	354.05
505.977	342.75
506.412	348.4
506.847	362.53
507.282	322.96
507.717	390.78
508.152	390.78
508.587	387.95
509.021	433.13
509.456	277.72
509.891	345.58
510.325	396.43
510.76	356.88
511.194	317.31
511.628	300.35
512.063	441.6
512.497	371.01
512.931	373.83
513.366	303.17
513.8	345.58
514.234	393.6
514.668	359.71
515.102	359.71
515.536	433.13
515.969	419.02
516.403	382.31
516.837	387.95
517.271	416.19
517.704	464.17
518.138	376.66
518.571	399.25
519.005	300.35
519.438	331.44
519.871	325.79
520.305	435.95
520.738	362.53
521.171	396.43
521.604	339.92
522.037	421.84
522.47	407.72
522.903	365.36
523.336	382.31
523.769	297.52
524.202	379.48
524.634	280.55
525.067	362.53
525.5	354.05
525.932	345.58
526.365	368.18
526.797	421.84
527.23	252.26
527.662	345.58
528.094	419.02
528.527	407.72
528.959	300.35
529.391	272.06
529.823	356.88
530.255	393.6
530.687	410.55
531.119	396.43
531.551	348.4
531.982	322.96
532.414	371.01
532.846	339.92
533.277	337.1
533.709	274.89
534.14	390.78
534.572	348.4
535.003	320.14
535.435	393.6
535.866	351.23
536.297	379.48
536.728	467
537.159	345.58
537.59	291.86
538.022	371.01
538.452	424.66
538.883	390.78
539.314	407.72
539.745	337.1
540.176	382.31
540.606	373.83
541.037	368.18
541.468	421.84
541.898	433.13
542.328	410.55
542.759	291.86
543.189	430.31
543.619	339.92
544.05	356.88
544.48	356.88
544.91	359.71
545.34	376.66
545.77	399.25
546.2	373.83
546.63	351.23
547.06	427.49
547.489	351.23
547.919	413.37
548.349	314.48
548.778	354.05
549.208	371.01
549.637	427.49
550.067	311.66
550.496	337.1
550.926	396.43
551.355	427.49
551.784	455.71
552.213	373.83
552.642	359.71
553.071	382.31
553.5	348.4
553.929	306
554.358	433.13
554.787	342.75
555.216	331.44
555.645	433.13
556.073	280.55
556.502	351.23
556.93	334.27
557.359	407.72
557.787	368.18
558.216	337.1
558.644	337.1
559.072	447.24
559.5	365.36
559.929	277.72
560.357	308.83
560.785	427.49
561.213	407.72
561.641	368.18
562.068	368.18
562.496	407.72
562.924	399.25
563.352	376.66
563.779	373.83
564.207	407.72
564.634	348.4
565.062	345.58
565.489	430.31
565.917	382.31
566.344	376.66
566.771	297.52
567.198	407.72
567.625	371.01
568.053	354.05
568.48	334.27
568.907	339.92
569.333	427.49
569.76	365.36
570.187	317.31
570.614	339.92
571.04	2526.97
571.467	359.71
571.894	435.95
572.32	467
572.747	354.05
573.173	413.37
573.599	404.9
574.026	430.31
574.452	407.72
574.878	334.27
575.304	356.88
575.73	331.44
576.156	303.17
576.582	342.75
577.008	396.43
577.434	356.88
577.86	396.43
578.285	286.21
578.711	339.92
579.137	354.05
579.562	402.08
579.988	387.95
580.413	390.78
580.838	354.05
581.264	419.02
581.689	402.08
582.114	396.43
582.539	593.85
582.964	498.03
583.39	404.9
583.814	396.43
584.239	404.9
584.664	351.23
585.089	404.9
585.514	393.6
585.939	297.52
586.363	371.01
586.788	325.79
587.212	393.6
587.637	393.6
588.061	407.72
588.485	371.01
588.91	410.55
589.334	348.4
589.758	444.42
590.182	399.25
590.606	337.1
591.03	345.58
591.454	427.49
591.878	328.62
592.302	373.83
592.726	512.13
593.15	339.92
593.573	376.66
593.997	354.05
594.42	376.66
594.844	390.78
595.267	337.1
595.691	435.95
596.114	413.37
596.537	283.38
596.96	356.88
597.384	320.14
597.807	402.08
598.23	328.62
598.653	297.52
599.076	339.92
599.499	334.27
599.921	379.48
600.344	354.05
600.767	306
601.189	354.05
601.612	317.31
602.034	419.02
602.457	379.48
602.879	348.4
603.302	311.66
603.724	337.1
604.146	376.66
604.568	272.06
604.991	376.66
605.413	311.66
605.835	410.55
606.257	402.08
606.678	376.66
607.1	396.43
607.522	419.02
607.944	322.96
608.365	430.31
608.787	441.6
609.209	365.36
609.63	257.92
610.051	385.13
610.473	354.05
610.894	325.79
611.315	413.37
611.737	421.84
612.158	387.95
612.579	328.62
613	461.35
613.421	362.53
613.842	407.72
614.263	407.72
614.683	387.95
615.104	427.49
615.525	376.66
615.945	410.55
616.366	427.49
616.787	407.72
617.207	410.55
617.627	390.78
618.048	356.88
618.468	354.05
618.888	387.95
619.308	379.48
619.728	413.37
620.148	390.78
620.568	396.43
620.988	356.88
621.408	430.31
621.828	306
622.248	328.62
622.668	303.17
623.087	356.88
623.507	399.25
623.926	337.1
624.346	320.14
624.765	450.07
625.185	368.18
625.604	356.88
626.023	348.4
626.442	356.88
626.861	393.6
627.28	260.75
627.699	481.1
628.118	433.13
628.537	322.96
628.956	376.66
629.375	354.05
629.794	385.13
630.212	402.08
630.631	362.53
631.049	300.35
631.468	396.43
631.886	331.44
632.305	419.02
632.723	348.4
633.141	266.41
633.559	365.36
633.978	385.13
634.396	404.9
634.814	387.95
635.232	345.58
635.65	390.78
636.067	382.31
636.485	354.05
636.903	356.88
637.321	373.83
637.738	306
638.156	455.71
638.573	368.18
638.991	351.23
639.408	342.75
639.825	450.07
640.243	452.89
640.66	339.92
641.077	450.07
641.494	385.13
641.911	354.05
642.328	308.83
642.745	382.31
643.162	320.14
643.579	314.48
643.995	379.48
644.412	362.53
644.829	404.9
645.245	306
645.662	421.84
646.078	481.1
646.495	320.14
646.911	348.4
647.327	410.55
647.743	385.13
648.159	356.88
648.576	447.24
648.992	393.6
649.408	379.48
649.824	303.17
650.239	368.18
650.655	458.53
651.071	404.9
651.487	328.62
651.902	331.44
652.318	379.48
652.733	317.31
653.149	450.07
653.564	461.35
653.979	402.08
654.395	317.31
654.81	314.48
655.225	450.07
655.64	438.78
656.055	407.72
656.47	387.95
656.885	348.4
657.3	404.9
657.715	410.55
658.13	342.75
658.544	379.48
658.959	337.1
659.374	235.28
659.788	379.48
660.202	368.18
660.617	419.02
661.031	331.44
661.445	303.17
661.86	356.88
662.274	328.62
662.688	438.78
663.102	339.92
663.516	421.84
663.93	390.78
664.344	404.9
664.758	297.52
665.171	421.84
665.585	407.72
665.999	402.08
666.412	331.44
666.826	322.96
667.239	328.62
667.653	348.4
668.066	283.38
668.479	362.53
668.892	379.48
669.306	314.48
669.719	410.55
670.132	342.75
670.545	404.9
670.958	396.43
671.37	382.31
671.783	311.66
672.196	430.31
672.609	382.31
673.021	404.9
673.434	286.21
673.846	345.58
674.259	308.83
674.671	320.14
675.084	365.36
675.496	447.24
675.908	452.89
676.32	430.31
676.732	430.31
677.144	306
677.556	379.48
677.968	337.1
678.38	399.25
678.792	303.17
679.204	387.95
679.615	300.35
680.027	371.01
680.439	385.13
680.85	348.4
681.262	379.48
681.673	368.18
682.084	359.71
682.496	382.31
682.907	337.1
683.318	385.13
683.729	413.37
684.14	297.52
684.551	308.83
684.962	393.6
685.373	337.1
685.784	441.6
686.194	356.88
686.605	294.69
687.016	365.36
687.426	348.4
687.837	337.1
688.247	407.72
688.657	376.66
689.068	447.24
689.478	382.31
689.888	416.19
690.298	371.01
690.708	407.72
691.118	334.27
691.528	314.48
691.938	371.01
692.348	354.05
692.758	393.6
693.168	419.02
693.577	348.4
693.987	314.48
694.396	373.83
694.806	450.07
695.215	348.4
695.625	354.05
696.034	427.49
696.443	337.1
696.852	376.66
697.262	393.6
697.671	452.89
698.08	427.49
698.489	387.95
698.897	328.62
699.306	325.79
699.715	399.25
700.124	314.48
700.532	368.18
700.941	433.13
701.35	365.36
701.758	345.58
702.166	354.05
702.575	373.83
702.983	356.88
703.391	413.37
703.799	300.35
704.208	322.96
704.616	427.49
705.024	424.66
705.432	289.03
705.839	345.58
706.247	356.88
706.655	455.71
707.063	306
707.47	306
707.878	413.37
708.285	243.77
708.693	334.27
709.1	387.95
709.508	427.49
709.915	356.88
710.322	272.06
710.729	413.37
711.136	368.18
711.543	371.01
711.95	413.37
712.357	421.84
712.764	362.53
713.171	390.78
713.578	371.01
713.984	435.95
714.391	345.58
714.797	325.79
715.204	379.48
715.61	433.13
716.017	362.53
716.423	407.72
716.829	365.36
717.236	294.69
717.642	396.43
718.048	387.95
718.454	359.71
718.86	300.35
719.266	404.9
719.671	337.1
720.077	356.88
720.483	297.52
720.889	322.96
721.294	376.66
721.7	342.75
722.105	311.66
722.511	407.72
722.916	385.13
723.321	424.66
723.726	447.24
724.132	379.48
724.537	320.14
724.942	320.14
725.347	373.83
725.752	356.88
726.156	368.18
726.561	390.78
726.966	402.08
727.371	263.58
727.775	373.83
728.18	351.23
728.584	469.82
728.989	368.18
729.393	396.43
729.798	348.4
730.202	320.14
730.606	289.03
731.01	379.48
731.414	348.4
731.818	382.31
732.222	322.96
732.626	272.06
733.03	396.43
733.434	444.42
733.837	387.95
734.241	272.06
734.645	376.66
735.048	387.95
735.452	385.13
735.855	379.48
736.258	387.95
736.662	464.17
737.065	351.23
737.468	342.75
737.871	339.92
738.274	402.08
738.677	325.79
739.08	365.36
739.483	373.83
739.886	404.9
740.289	385.13
740.691	348.4
741.094	390.78
741.497	331.44
741.899	399.25
742.302	444.42
742.704	472.64
743.106	356.88
743.508	379.48
743.911	266.41
744.313	300.35
744.715	331.44
745.117	345.58
745.519	368.18
745.921	351.23
746.323	402.08
746.724	424.66
747.126	351.23
747.528	430.31
747.929	371.01
748.331	294.69
748.732	379.48
749.134	371.01
749.535	331.44
749.936	337.1
750.338	291.86
750.739	396.43
751.14	308.83
751.541	452.89
751.942	399.25
752.343	331.44
752.744	393.6
753.144	300.35
753.545	399.25
753.946	402.08
754.346	345.58
754.747	416.19
755.148	469.82
755.548	424.66
755.948	255.09
756.349	373.83
756.749	303.17
757.149	413.37
757.549	385.13
757.949	300.35
758.349	416.19
758.749	314.48
759.149	368.18
759.549	404.9
759.949	294.69
760.348	478.28
760.748	393.6
761.148	300.35
761.547	320.14
761.947	376.66
762.346	368.18
762.745	359.71
763.145	424.66
763.544	283.38
763.943	368.18
764.342	390.78
764.741	303.17
765.14	452.89
765.539	371.01
765.938	402.08
766.336	424.66
766.735	359.71
767.134	337.1
767.532	342.75
767.931	368.18
768.329	402.08
768.728	320.14
769.126	365.36
769.525	390.78
769.923	396.43
770.321	345.58
770.719	430.31
771.117	390.78
771.515	362.53
771.913	433.13
772.311	339.92
772.709	348.4
773.106	402.08
773.504	387.95
773.902	407.72
774.299	404.9
774.697	371.01
775.094	396.43
775.491	356.88
775.889	382.31
776.286	387.95
776.683	325.79
777.08	393.6
777.477	379.48
777.874	387.95
778.271	311.66
778.668	404.9
779.065	387.95
779.462	464.17
779.858	407.72
780.255	385.13
780.652	325.79
781.048	419.02
781.444	354.05
781.841	455.71
782.237	393.6
782.633	387.95
783.03	303.17
783.426	430.31
783.822	334.27
784.218	359.71
784.614	356.88
785.01	291.86
785.405	269.23
785.801	322.96
786.197	354.05
786.593	396.43
786.988	404.9
787.384	382.31
787.779	390.78
788.174	328.62
788.57	320.14
788.965	416.19
789.36	387.95
789.755	300.35
790.15	393.6
790.545	430.31
790.94	365.36
791.335	277.72
791.73	339.92
792.125	500.85
792.52	444.42
792.914	458.53
793.309	419.02
793.703	404.9
794.098	390.78
794.492	447.24
794.887	396.43
795.281	399.25
795.675	416.19
796.069	328.62
796.463	328.62
796.857	376.66
797.251	475.46
797.645	280.55
798.039	325.79
798.433	320.14
798.826	435.95
799.22	393.6
799.614	421.84
800.007	393.6
800.401	435.95
800.794	368.18
801.187	421.84
801.581	396.43
801.974	325.79
802.367	373.83
802.76	289.03
803.153	339.92
803.546	376.66
803.939	399.25
804.332	393.6
804.725	379.48
805.117	371.01
805.51	396.43
805.903	390.78
806.295	387.95
806.688	306
807.08	348.4
807.472	325.79
807.865	356.88
808.257	458.53
808.649	325.79
809.041	382.31
809.433	320.14
809.825	283.38
810.217	306
810.609	416.19
811.001	416.19
811.392	328.62
811.784	376.66
812.175	348.4
812.567	365.36
812.958	354.05
813.35	455.71
813.741	396.43
814.132	354.05
814.524	322.96
814.915	373.83
815.306	334.27
815.697	348.4
816.088	362.53
816.479	373.83
816.87	393.6
817.26	322.96
817.651	416.19
818.042	320.14
818.432	297.52
818.823	308.83
819.213	306
819.604	410.55
819.994	345.58
820.384	407.72
820.775	356.88
821.165	472.64
821.555	311.66
821.945	339.92
822.335	325.79
822.725	356.88
823.114	399.25
823.504	424.66
823.894	376.66
824.284	348.4
824.673	356.88
825.063	328.62
825.452	345.58
825.842	339.92
826.231	399.25
826.62	317.31
827.009	365.36
827.399	306
827.788	371.01
828.177	300.35
828.566	387.95
828.954	458.53
829.343	365.36
829.732	416.19
830.121	419.02
830.509	385.13
830.898	424.66
831.286	390.78
831.675	325.79
832.063	303.17
832.452	444.42
832.84	396.43
833.228	322.96
833.616	371.01
834.004	438.78
834.392	294.69
834.78	393.6
835.168	351.23
835.556	348.4
835.944	371.01
836.331	387.95
836.719	421.84
837.107	348.4
837.494	404.9
837.881	376.66
838.269	430.31
838.656	407.72
839.043	371.01
839.431	404.9
839.818	306
840.205	433.13
840.592	393.6
840.979	331.44
841.366	342.75
841.752	348.4
842.139	351.23
842.526	354.05
842.912	441.6
843.299	356.88
843.685	433.13
844.072	365.36
844.458	322.96
844.844	393.6
845.231	351.23
845.617	334.27
846.003	328.62
846.389	390.78
846.775	252.26
847.161	376.66
847.547	396.43
847.933	308.83
848.318	368.18
848.704	294.69
849.09	322.96
849.475	461.35
849.861	345.58
850.246	345.58
850.631	359.71
851.017	232.45
851.402	365.36
851.787	430.31
852.172	390.78
852.557	393.6
852.942	368.18
853.327	339.92
853.712	382.31
854.097	413.37
854.481	387.95
854.866	339.92
855.25	297.52
855.635	450.07
856.019	328.62
856.404	356.88
856.788	354.05
857.172	402.08
857.557	297.52
857.941	325.79
858.325	351.23
858.709	266.41
859.093	334.27
859.477	402.08
859.86	433.13
860.244	376.66
860.628	435.95
861.012	441.6
861.395	306
861.779	385.13
862.162	413.37
862.545	289.03
862.929	438.78
863.312	342.75
863.695	354.05
864.078	396.43
864.461	368.18
864.844	365.36
865.227	306
865.61	328.62
865.993	387.95
866.376	396.43
866.758	283.38
867.141	354.05
867.523	348.4
867.906	351.23
868.288	376.66
868.671	376.66
869.053	368.18
869.435	359.71
869.817	257.92
870.199	328.62
870.581	373.83
870.963	475.46
871.345	354.05
871.727	342.75
872.109	410.55
872.491	455.71
872.872	421.84
873.254	311.66
873.635	345.58
874.017	339.92
874.398	356.88
874.779	413.37
875.161	390.78
875.542	424.66
875.923	376.66
876.304	424.66
876.685	311.66
877.066	351.23
877.447	385.13
877.828	339.92
878.208	294.69
878.589	396.43
878.97	478.28
879.35	365.36
879.731	359.71
880.111	337.1
880.491	393.6
880.872	334.27
881.252	311.66
881.632	320.14
882.012	354.05
882.392	404.9
882.772	345.58
883.152	379.48
883.532	430.31
883.912	356.88
884.291	286.21
884.671	300.35
885.051	379.48
885.43	348.4
885.81	328.62
886.189	294.69
886.568	334.27
886.948	300.35
887.327	382.31
887.706	382.31
888.085	376.66
888.464	385.13
888.843	452.89
889.222	427.49
889.601	348.4
889.979	385.13
890.358	331.44
890.737	438.78
891.115	365.36
891.494	410.55
891.872	354.05
892.25	379.48
892.629	308.83
893.007	396.43
893.385	311.66
893.763	407.72
894.141	441.6
894.519	373.83
894.897	416.19
895.275	373.83
895.653	376.66
896.03	257.92
896.408	421.84
896.786	399.25
897.163	308.83
897.541	373.83
897.918	376.66
898.295	345.58
898.673	373.83
899.05	322.96
899.427	359.71
899.804	345.58
900.181	419.02
900.558	410.55
900.935	413.37
901.312	404.9
901.688	447.24
902.065	382.31
902.442	334.27
902.818	396.43
903.195	376.66
903.571	311.66
903.947	325.79
904.324	322.96
904.7	404.9
905.076	402.08
905.452	294.69
905.828	393.6
906.204	322.96
906.58	455.71
906.956	424.66
907.331	342.75
907.707	359.71
908.083	362.53
908.458	328.62
908.834	441.6
909.209	322.96
909.585	354.05
909.96	365.36
910.335	348.4
910.71	325.79
911.086	317.31
911.461	407.72
911.836	311.66
912.21	354.05
912.585	410.55
912.96	393.6
913.335	314.48
913.709	419.02
914.084	289.03
914.459	356.88
914.833	348.4
915.207	348.4
915.582	331.44
915.956	306
916.33	396.43
916.704	348.4
917.078	320.14
917.452	430.31
917.826	359.71
918.2	359.71
918.574	337.1
918.948	419.02
919.321	404.9
919.695	342.75
920.068	416.19
920.442	314.48
920.815	337.1
921.189	393.6
921.562	441.6
921.935	404.9
922.308	359.71
922.681	416.19
923.054	274.89
923.427	404.9
923.8	354.05
924.173	421.84
924.546	399.25
924.919	407.72
925.291	416.19
925.664	390.78
926.036	424.66
926.409	306
926.781	320.14
927.153	331.44
927.526	368.18
927.898	407.72
928.27	376.66
928.642	481.1
929.014	339.92
929.386	368.18
929.758	320.14
930.129	345.58
930.501	390.78
930.873	342.75
931.244	362.53
931.616	379.48
931.987	328.62
932.359	345.58
932.73	373.83
933.101	450.07
933.472	339.92
933.843	365.36
934.214	317.31
934.585	365.36
934.956	365.36
935.327	365.36
935.698	419.02
936.069	404.9
936.439	356.88
936.81	413.37
937.18	447.24
937.551	252.26
937.921	354.05
938.292	396.43
938.662	379.48
939.032	356.88
939.402	362.53
939.772	334.27
940.142	337.1
940.512	351.23
940.882	339.92
941.252	308.83
941.621	452.89
941.991	461.35
942.361	286.21
942.73	393.6
943.1	311.66
943.469	337.1
943.838	348.4
944.208	419.02
944.577	433.13
944.946	362.53
945.315	416.19
945.684	444.42
946.053	342.75
946.422	328.62
946.791	297.52
947.159	308.83
947.528	356.88
947.897	402.08
948.265	337.1
948.634	402.08
949.002	328.62
949.371	317.31
949.739	390.78
950.107	376.66
950.475	413.37
950.843	365.36
951.211	404.9
951.579	385.13
951.947	402.08
952.315	385.13
952.683	317.31
953.05	387.95
953.418	354.05
953.785	447.24
954.153	325.79
954.52	455.71
954.888	413.37
955.255	334.27
955.622	306
955.989	342.75
956.356	351.23
956.723	424.66
957.09	294.69
957.457	354.05
957.824	390.78
958.191	291.86
958.557	339.92
958.924	410.55
959.291	351.23
959.657	385.13
960.023	354.05
960.39	354.05
960.756	356.88
961.122	399.25
961.488	303.17
961.855	396.43
962.221	317.31
962.586	368.18
962.952	390.78
963.318	382.31
963.684	404.9
964.05	365.36
964.415	396.43
964.781	294.69
965.146	314.48
965.512	393.6
965.877	379.48
966.242	331.44
966.608	325.79
966.973	263.58
967.338	308.83
967.703	356.88
968.068	424.66
968.433	438.78
968.797	339.92
969.162	334.27
969.527	339.92
969.891	385.13
970.256	371.01
970.62	382.31
970.985	317.31
971.349	421.84
971.714	393.6
972.078	376.66
972.442	320.14
972.806	365.36
973.17	362.53
973.534	387.95
973.898	306
974.262	385.13
974.625	345.58
974.989	274.89
975.353	402.08
975.716	359.71
976.08	376.66
976.443	328.62
976.806	407.72
977.17	368.18
977.533	376.66
977.896	390.78
978.259	348.4
978.622	433.13
978.985	379.48
979.348	362.53
979.711	334.27
980.073	393.6
980.436	447.24
980.799	385.13
981.161	371.01
981.524	322.96
981.886	371.01
982.248	334.27
982.611	387.95
982.973	416.19
983.335	407.72
983.697	382.31
984.059	334.27
984.421	328.62
984.783	354.05
985.145	320.14
985.506	382.31
985.868	351.23
986.23	450.07
986.591	334.27
986.953	368.18
987.314	308.83
987.675	342.75
988.037	1592.8
988.398	351.23
988.759	373.83
989.12	368.18
989.481	277.72
989.842	342.75
990.203	371.01
990.564	308.83
990.924	322.96
991.285	1884.17
991.646	452.89
992.006	280.55
992.367	379.48
992.727	339.92
993.087	365.36
993.448	320.14
993.808	371.01
994.168	351.23
994.528	348.4
994.888	362.53
995.248	407.72
995.608	342.75
995.967	303.17
996.327	348.4
996.687	348.4
997.046	325.79
997.406	362.53
997.765	280.55
998.125	348.4
998.484	399.25
998.843	331.44
999.202	376.66
999.561	337.1
999.92	348.4
1000.279	328.62
1000.638	334.27
1000.997	362.53
1001.356	387.95
1001.715	331.44
1002.073	314.48
1002.432	317.31
1002.79	331.44
1003.149	379.48
1003.507	373.83
1003.865	331.44
1004.224	410.55
1004.582	396.43
1004.94	368.18
1005.298	387.95
1005.656	255.09
1006.014	311.66
1006.371	303.17
1006.729	407.72
1007.087	407.72
1007.445	407.72
1007.802	306
1008.16	404.9
1008.517	325.79
1008.874	320.14
1009.232	359.71
1009.589	467
1009.946	399.25
1010.303	303.17
1010.66	390.78
1011.017	382.31
1011.374	345.58
1011.731	447.24
1012.087	331.44
1012.444	402.08
1012.801	421.84
1013.157	356.88
1013.513	283.38
1013.87	334.27
1014.226	396.43
1014.582	396.43
1014.939	351.23
1015.295	421.84
1015.651	334.27
1016.007	342.75
1016.363	387.95
1016.719	404.9
1017.074	447.24
1017.43	396.43
1017.786	266.41
1018.141	356.88
1018.497	354.05
1018.852	306
1019.208	416.19
1019.563	300.35
1019.918	419.02
1020.273	322.96
1020.628	410.55
1020.983	410.55
1021.338	362.53
1021.693	410.55
1022.048	283.38
1022.403	334.27
1022.757	362.53
1023.112	382.31
1023.467	396.43
1023.821	427.49
1024.175	322.96
1024.53	382.31
1024.884	354.05
1025.238	337.1
1025.592	393.6
1025.946	368.18
1026.3	404.9
1026.654	419.02
1027.008	416.19
1027.362	342.75
1027.716	368.18
1028.069	280.55
1028.423	365.36
1028.777	359.71
1029.13	351.23
1029.483	322.96
1029.837	348.4
1030.19	385.13
1030.543	382.31
1030.896	342.75
1031.249	407.72
1031.602	320.14
1031.955	348.4
1032.308	399.25
1032.661	407.72
1033.013	337.1
1033.366	345.58
1033.719	399.25
1034.071	413.37
1034.424	320.14
1034.776	359.71
1035.128	475.46
1035.48	294.69
1035.833	345.58
1036.185	447.24
1036.537	447.24
1036.889	447.24
