Data from BCF12_Round-3_FLMS019251_12-04-43-443.txt Node
Date: Wed Feb 20 12:04:43 CET 2019
User: luk
Spectrometer: FLMS01925
Trigger mode: 0
Integration Time (sec): 3.000000E-2
Scans to average: 1
Electric dark correction enabled: true
Nonlinearity correction enabled: true
Boxcar width: 0
XAxis mode: Wavelengths
Number of Pixels in Spectrum: 2048
>>>>>Begin Spectral Data<<<<<
187.103	-80.25
187.574	-80.25
188.045	-80.25
188.516	-216.81
188.987	-108.68
189.458	-100.15
189.929	-102.99
190.4	-100.15
190.871	-122.9
191.342	-120.05
191.813	-88.78
192.284	-54.68
192.754	-14.91
193.225	-9.23
193.696	67.4
194.166	81.58
194.637	75.91
195.107	78.75
195.578	166.62
196.048	92.93
196.518	149.62
196.989	158.12
197.459	160.95
197.929	226.08
198.399	211.93
198.869	319.43
199.339	228.91
199.809	206.26
200.279	308.12
200.749	299.64
201.219	330.74
201.689	291.16
202.159	330.74
202.628	308.12
203.098	361.82
203.568	330.74
204.037	474.75
204.507	392.9
204.976	483.22
205.445	421.13
205.915	426.78
206.384	336.39
206.853	271.36
207.323	378.77
207.792	387.25
208.261	440.89
208.73	356.17
209.199	353.35
209.668	327.91
210.137	359
210.606	319.43
211.075	412.66
211.543	308.12
212.012	404.19
212.481	401.37
212.95	387.25
213.418	265.7
213.887	409.84
214.355	373.12
214.824	310.95
215.292	347.7
215.76	305.29
216.229	364.65
216.697	319.43
217.165	293.98
217.633	339.22
218.101	347.7
218.569	455
219.037	353.35
219.505	375.95
219.973	364.65
220.441	361.82
220.909	387.25
221.377	257.21
221.844	347.7
222.312	325.08
222.78	319.43
223.247	262.87
223.715	339.22
224.182	356.17
224.65	350.52
225.117	387.25
225.584	392.9
226.052	308.12
226.519	288.33
226.986	370.3
227.453	375.95
227.92	384.42
228.387	313.78
228.854	293.98
229.321	350.52
229.788	279.84
230.255	330.74
230.722	350.52
231.189	375.95
231.655	268.53
232.122	356.17
232.589	291.16
233.055	381.6
233.522	404.19
233.988	378.77
234.454	356.17
234.921	339.22
235.387	316.6
235.853	395.72
236.32	407.02
236.786	401.37
237.252	421.13
237.718	364.65
238.184	370.3
238.65	353.35
239.116	418.31
239.582	308.12
240.047	421.13
240.513	316.6
240.979	364.65
241.445	370.3
241.91	302.47
242.376	336.39
242.841	381.6
243.307	330.74
243.772	316.6
244.238	361.82
244.703	327.91
245.168	299.64
245.633	336.39
246.099	449.36
246.564	274.19
247.029	404.19
247.494	350.52
247.959	384.42
248.424	361.82
248.889	375.95
249.353	361.82
249.818	347.7
250.283	432.43
250.748	353.35
251.212	387.25
251.677	336.39
252.141	344.87
252.606	438.07
253.07	409.84
253.535	415.49
253.999	367.47
254.463	367.47
254.927	339.22
255.392	313.78
255.856	333.56
256.32	423.96
256.784	469.11
257.248	330.74
257.712	390.07
258.176	418.31
258.64	333.56
259.103	305.29
259.567	387.25
260.031	390.07
260.495	409.84
260.958	305.29
261.422	336.39
261.885	347.7
262.349	423.96
262.812	426.78
263.275	404.19
263.739	384.42
264.202	305.29
264.665	401.37
265.128	367.47
265.591	373.12
266.054	342.04
266.517	313.78
266.98	361.82
267.443	367.47
267.906	353.35
268.369	381.6
268.832	390.07
269.294	347.7
269.757	407.02
270.22	387.25
270.682	384.42
271.145	384.42
271.607	361.82
272.07	359
272.532	325.08
272.994	421.13
273.456	387.25
273.919	415.49
274.381	390.07
274.843	418.31
275.305	426.78
275.767	421.13
276.229	378.77
276.691	418.31
277.153	285.5
277.614	457.83
278.076	471.93
278.538	401.37
279	398.55
279.461	392.9
279.923	412.66
280.384	412.66
280.846	378.77
281.307	375.95
281.769	373.12
282.23	390.07
282.691	367.47
283.152	339.22
283.613	370.3
284.075	353.35
284.536	469.11
284.997	305.29
285.458	353.35
285.918	401.37
286.379	392.9
286.84	401.37
287.301	398.55
287.762	387.25
288.222	356.17
288.683	265.7
289.143	423.96
289.604	409.84
290.064	375.95
290.525	322.26
290.985	384.42
291.445	378.77
291.906	426.78
292.366	409.84
292.826	288.33
293.286	342.04
293.746	305.29
294.206	435.25
294.666	404.19
295.126	378.77
295.586	466.29
296.046	477.58
296.506	390.07
296.965	310.95
297.425	344.87
297.884	336.39
298.344	488.86
298.804	378.77
299.263	480.4
299.722	333.56
300.182	378.77
300.641	398.55
301.1	395.72
301.559	356.17
302.019	452.18
302.478	316.6
302.937	455
303.396	449.36
303.855	395.72
304.314	432.43
304.772	381.6
305.231	392.9
305.69	356.17
306.149	415.49
306.607	409.84
307.066	423.96
307.524	457.83
307.983	305.29
308.441	333.56
308.9	409.84
309.358	429.6
309.816	344.87
310.275	398.55
310.733	378.77
311.191	415.49
311.649	364.65
312.107	373.12
312.565	364.65
313.023	344.87
313.481	378.77
313.939	398.55
314.397	398.55
314.854	353.35
315.312	390.07
315.77	525.52
316.227	217.59
316.685	325.08
317.142	421.13
317.6	384.42
318.057	440.89
318.514	409.84
318.972	378.77
319.429	364.65
319.886	330.74
320.343	466.29
320.8	438.07
321.257	418.31
321.714	421.13
322.171	370.3
322.628	426.78
323.085	423.96
323.542	460.65
323.998	296.81
324.455	356.17
324.912	378.77
325.368	367.47
325.825	412.66
326.281	455
326.738	384.42
327.194	310.95
327.65	452.18
328.107	288.33
328.563	274.19
329.019	313.78
329.475	361.82
329.931	353.35
330.387	356.17
330.843	404.19
331.299	452.18
331.755	319.43
332.211	296.81
332.666	378.77
333.122	367.47
333.578	364.65
334.033	359
334.489	342.04
334.944	361.82
335.4	457.83
335.855	375.95
336.31	401.37
336.766	392.9
337.221	455
337.676	384.42
338.131	359
338.586	423.96
339.041	401.37
339.496	438.07
339.951	375.95
340.406	418.31
340.861	412.66
341.316	339.22
341.771	401.37
342.225	336.39
342.68	370.3
343.134	333.56
343.589	398.55
344.043	429.6
344.498	435.25
344.952	384.42
345.406	486.04
345.861	353.35
346.315	415.49
346.769	373.12
347.223	375.95
347.677	370.3
348.131	296.81
348.585	401.37
349.039	426.78
349.493	432.43
349.947	367.47
350.401	426.78
350.854	395.72
351.308	418.31
351.762	404.19
352.215	407.02
352.669	356.17
353.122	375.95
353.575	359
354.029	469.11
354.482	387.25
354.935	497.32
355.388	398.55
355.842	367.47
356.295	356.17
356.748	387.25
357.201	342.04
357.654	308.12
358.106	407.02
358.559	367.47
359.012	398.55
359.465	421.13
359.917	342.04
360.37	342.04
360.823	440.89
361.275	392.9
361.728	364.65
362.18	387.25
362.632	347.7
363.085	291.16
363.537	401.37
363.989	409.84
364.441	443.72
364.893	378.77
365.345	378.77
365.797	446.54
366.249	370.3
366.701	375.95
367.153	446.54
367.605	559.34
368.057	373.12
368.508	412.66
368.96	466.29
369.411	463.47
369.863	378.77
370.314	409.84
370.766	497.32
371.217	505.78
371.669	398.55
372.12	429.6
372.571	375.95
373.022	359
373.473	367.47
373.924	370.3
374.375	381.6
374.826	342.04
375.277	367.47
375.728	378.77
376.179	327.91
376.63	390.07
377.08	409.84
377.531	361.82
377.981	474.75
378.432	432.43
378.883	446.54
379.333	421.13
379.783	375.95
380.234	421.13
380.684	421.13
381.134	407.02
381.584	477.58
382.034	443.72
382.485	336.39
382.935	381.6
383.385	460.65
383.834	494.5
384.284	398.55
384.734	412.66
385.184	350.52
385.634	429.6
386.083	384.42
386.533	455
386.982	446.54
387.432	500.14
387.881	370.3
388.331	455
388.78	359
389.229	407.02
389.679	342.04
390.128	412.66
390.577	522.7
391.026	305.29
391.475	432.43
391.924	466.29
392.373	390.07
392.822	517.06
393.27	438.07
393.719	409.84
394.168	449.36
394.617	486.04
395.065	412.66
395.514	384.42
395.962	426.78
396.411	384.42
396.859	359
397.307	463.47
397.756	415.49
398.204	412.66
398.652	483.22
399.1	446.54
399.548	364.65
399.996	452.18
400.444	474.75
400.892	452.18
401.34	514.24
401.788	488.86
402.236	404.19
402.683	460.65
403.131	438.07
403.579	367.47
404.026	500.14
404.474	626.94
404.921	581.88
405.369	525.52
405.816	514.24
406.263	686.04
406.71	773.2
407.158	964.04
407.605	1031.27
408.052	1215.88
408.499	1567.08
408.946	1872.4
409.393	2253.79
409.84	2803.37
410.286	3526.08
410.733	4178.25
411.18	4970.41
411.626	5655.43
412.073	6718.34
412.52	7813.67
412.966	8975.32
413.413	10277.49
413.859	11402.02
414.305	12342.64
414.752	13927.65
415.198	15030.59
415.644	16486.1
416.09	17925.65
416.536	18697.01
416.982	20210.43
417.428	21398.87
417.874	22761.91
418.32	24216.89
418.766	24930.43
419.211	26795.77
419.657	27447.22
420.103	28731.16
420.548	29495.67
420.994	30971.92
421.439	31435.26
421.885	32549.48
422.33	33746.69
422.776	34215
423.221	35213.15
423.666	36129.24
424.111	36383.5
424.556	36995.1
425.001	38652.35
425.446	39114.32
425.891	39734.4
426.336	40212.48
426.781	40871.57
427.226	42765.68
427.671	42333.12
428.115	42437.47
428.56	43905.54
429.005	45308.41
429.449	44253.42
429.894	44842.97
430.338	45308.41
430.782	44551.73
431.227	45995.06
431.671	45853.45
432.115	46903.53
432.559	47377.92
433.003	46146.92
433.447	46929
433.891	46776.3
434.335	46565.35
434.779	47342.16
435.223	47117.56
435.667	46349.65
436.111	46415.6
436.554	46468.88
436.998	45477.28
437.442	45497.46
437.885	47020.7
438.328	45169.91
438.772	45011.4
439.215	45449.55
439.659	44820.36
440.102	44915.85
440.545	44662.15
440.988	43830.53
441.431	44674.7
441.874	44306.03
442.317	43893.03
442.76	44103.18
443.203	43348.61
443.646	43853.03
444.089	42987.22
444.531	43698.08
444.974	42472.26
445.417	43655.62
445.859	42179.17
446.302	43196.51
446.744	42673.64
447.186	43945.55
447.629	42594.06
448.071	42512.02
448.513	42310.77
448.956	43923.04
449.398	42803
449.84	41698.03
450.282	42117.12
450.724	42608.98
451.166	42656.23
451.607	42691.05
452.049	42196.55
452.491	43613.16
452.933	43580.7
453.374	43983.07
453.816	44135.73
454.257	43253.85
454.699	44458.93
455.14	44393.75
455.582	43418.46
456.023	43650.62
456.464	43518.28
456.905	44225.87
457.347	44208.34
457.788	43086.86
458.229	43743.06
458.67	44541.7
459.111	42420.07
459.552	42932.44
459.992	42335.61
460.433	42581.63
460.874	41559.3
461.315	42211.45
461.755	41569.2
462.196	41237.5
462.636	40192.75
463.077	40099.06
463.517	40192.75
463.957	40325.94
464.398	39909.29
464.838	39956.11
465.278	38708.84
465.718	39286.46
466.158	38404.38
466.598	38426.47
467.038	38009.38
467.478	38563.95
467.918	38480.48
468.358	37901.48
468.798	37742.14
469.237	37847.54
469.677	37585.3
470.117	38230.14
470.556	36070.58
470.996	36738.15
471.435	36253.91
471.874	37188.5
472.314	37066.09
472.753	36051.03
473.192	36178.13
473.631	35877.52
474.07	35992.37
474.509	36293.03
474.948	36295.47
475.387	35254.66
475.826	34785.96
476.265	36178.13
476.704	35667.4
477.143	36227.02
477.581	35848.19
478.02	36498.43
478.458	35235.13
478.897	36024.14
479.335	36882.52
479.774	36427.51
480.212	36650.08
480.65	36073.02
481.089	36095.02
481.527	35899.51
481.965	35349.89
482.403	37009.79
482.841	37269.3
483.279	36943.7
483.717	36332.15
484.155	36129.24
484.592	36642.74
485.03	36806.66
485.468	35772.45
485.905	36126.8
486.343	36730.81
486.781	35740.69
487.218	35459.79
487.655	35472
488.093	34695.67
488.53	35638.09
488.967	35093.52
489.405	34768.88
489.842	34212.56
490.279	33878.39
490.716	33724.74
491.153	34234.52
491.59	33705.23
492.027	33154.13
492.463	32632.37
492.9	32144.77
493.337	31971.66
493.773	32383.69
494.21	31171.9
494.647	30949.97
495.083	30598.73
495.519	29888.69
495.956	30254.74
496.392	29669.01
496.828	29468.82
497.265	28491.66
497.701	28738.49
498.137	28775.15
498.573	28046.67
499.009	28058.9
499.445	27515.76
499.881	27197.49
500.316	27378.68
500.752	26999.11
501.188	26200.03
501.624	26276.07
502.059	24927.97
502.495	25593.85
502.93	25060.72
503.366	25362.98
503.801	24957.47
504.236	24362.14
504.672	23862.19
505.107	23936.11
505.542	23287.71
505.977	23573.81
506.412	22964.4
506.847	23127.32
507.282	22462.95
507.717	22292.37
508.152	22326.99
508.587	22208.3
509.021	21656.46
509.456	21061.78
509.891	21247.7
510.325	21096.49
510.76	21056.82
511.194	20771.57
511.628	20826.15
512.063	19830.11
512.497	20312.28
512.931	19909.68
513.366	19825.14
513.8	19703.26
514.234	19080.88
514.668	19103.3
515.102	19245.28
515.536	18465.01
515.969	18891.48
516.403	18350.21
516.837	17713.2
517.271	17928.15
517.704	17728.2
518.138	17565.66
518.571	17435.58
519.005	17200.32
519.438	16957.39
519.871	17032.54
520.305	16611.5
520.738	16686.72
521.171	16277.83
521.604	16320.5
522.037	15891.08
522.47	15790.55
522.903	15375.56
523.336	15322.7
523.769	15483.76
524.202	15053.26
524.634	14866.79
525.067	14496.02
525.5	14496.02
525.932	14132.39
526.365	13940.29
526.797	13952.93
527.23	13677.21
527.662	13545.57
528.094	13256.77
528.527	13302.39
528.959	13216.21
529.391	12734.09
529.823	12240.86
530.255	12589.27
530.687	12220.5
531.119	12049.91
531.551	12149.22
531.982	11596.08
532.414	11427.56
532.846	11381.58
533.277	11177.1
533.709	10926.34
534.14	10754.72
534.572	10659.89
535.003	10493.16
535.435	10334
535.866	10095
536.297	9793.88
536.728	10064.14
537.159	9981.82
537.59	9757.81
538.022	9569.63
538.452	9523.19
538.883	9192.62
539.314	8902.82
539.745	8905.41
540.176	8933.9
540.606	8417.74
541.037	8770.68
541.468	8422.93
541.898	8378.76
542.328	8454.11
542.759	8076.96
543.189	8035.29
543.619	8032.68
544.05	7811.06
544.48	7771.91
544.91	7690.97
545.34	7450.47
545.77	7366.71
546.2	7379.8
546.63	7031.14
547.06	6983.88
547.489	7031.14
547.919	6731.5
548.349	6933.97
548.778	6941.85
549.208	6655.16
549.637	6526.06
550.067	6338.74
550.496	6388.9
550.926	6386.26
551.355	6185.49
551.784	6394.18
552.213	6264.79
552.642	6018.8
553.071	5833.29
553.5	5769.61
553.929	5697.93
554.358	5676.68
554.787	5503.89
555.216	5474.62
555.645	5575.7
556.073	5445.34
556.502	5397.41
556.93	5256.16
557.359	5066.64
557.787	5352.13
558.216	5088.01
558.644	5026.55
559.072	5112.05
559.5	4951.68
559.929	4807.13
560.357	4823.2
560.785	4777.66
561.213	4702.6
561.641	4745.5
562.068	4662.37
562.496	4740.14
562.924	4576.48
563.352	4565.74
563.779	4560.37
564.207	4525.45
564.634	4514.7
565.062	4434.06
565.489	4326.44
565.917	4420.62
566.344	4460.95
566.771	4380.27
567.198	4350.66
567.625	4135.09
568.053	4108.11
568.48	4132.4
568.907	4151.28
569.333	3916.32
569.76	3986.6
570.187	3827.04
570.614	3789.14
571.04	4312.97
571.467	3805.38
571.894	3656.35
572.32	3621.09
572.747	3498.92
573.173	3534.23
573.599	3311.26
574.026	3343.93
574.452	3289.48
574.878	3319.43
575.304	3229.55
575.73	3232.27
576.156	3084.99
576.582	3155.94
577.008	2907.38
577.434	3104.1
577.86	2934.73
578.285	2904.64
578.711	2797.89
579.137	2740.35
579.562	2691
579.988	2759.53
580.413	2583.97
580.838	2559.25
581.264	2660.83
581.689	2592.21
582.114	2496.05
582.539	2567.49
582.964	2542.77
583.39	2402.53
583.814	2487.81
584.239	2430.05
584.664	2311.67
585.089	2341.97
585.514	2234.48
585.939	2193.11
586.363	2430.05
586.788	2137.9
587.212	2204.14
587.637	1977.6
588.061	2107.53
588.485	2159.99
588.91	2179.31
589.334	2013.56
589.758	1983.13
590.182	1974.83
590.606	1952.7
591.03	1866.86
591.454	1800.34
591.878	1902.87
592.302	1847.46
592.726	1891.79
593.15	1833.61
593.573	1861.32
593.997	1900.1
594.42	1739.32
594.844	1750.41
595.267	1633.8
595.691	1686.57
596.114	1700.46
596.537	1575.42
596.96	1631.02
597.384	1661.58
597.807	1608.79
598.23	1661.58
598.653	1603.23
599.076	1597.67
599.499	1558.74
599.921	1569.86
600.344	1491.96
600.767	1478.04
601.189	1525.35
601.612	1539.27
602.034	1539.27
602.457	1472.47
602.879	1522.57
603.302	1461.33
603.724	1480.82
604.146	1530.92
604.568	1475.25
604.991	1461.33
605.413	1425.12
605.835	1478.04
606.257	1308.01
606.678	1458.55
607.1	1441.83
607.522	1461.33
607.944	1422.33
608.365	1408.4
608.787	1344.28
609.209	1419.55
609.63	1324.75
610.051	1260.56
610.473	1285.69
610.894	1243.81
611.315	1280.11
611.737	1288.48
612.158	1257.77
612.579	1185.14
613	1199.11
613.421	1221.47
613.842	1249.4
614.263	1154.39
614.683	1190.73
615.104	1143.21
615.525	1070.47
615.945	1073.27
616.366	1109.65
616.787	1115.24
617.207	1148.8
617.627	1039.68
618.048	1067.67
618.468	1031.27
618.888	1045.28
619.308	989.26
619.728	1017.27
620.148	868.68
620.568	997.66
620.988	941.61
621.408	879.9
621.828	955.63
622.248	905.15
622.668	958.43
623.087	924.78
623.507	961.23
623.926	879.9
624.346	1000.46
624.765	877.1
625.185	854.64
625.604	849.03
626.023	871.48
626.442	936
626.861	896.74
627.28	851.84
627.699	809.72
628.118	764.77
628.537	860.26
628.956	806.91
629.375	818.15
629.794	924.78
630.212	784.44
630.631	714.17
631.049	801.29
631.468	863.06
631.886	882.71
632.305	784.44
632.723	781.63
633.141	714.17
633.559	761.96
633.978	686.04
634.396	829.38
634.814	742.28
635.232	764.77
635.65	784.44
636.067	806.91
636.485	694.48
636.903	728.23
637.321	722.6
637.738	626.94
638.156	643.83
638.573	711.36
638.991	677.6
639.408	669.16
639.825	716.98
640.243	646.65
640.66	635.39
641.077	669.16
641.494	629.76
641.911	660.72
642.328	691.67
642.745	612.86
643.162	562.16
643.579	570.61
643.995	655.09
644.412	612.86
644.829	545.25
645.245	621.31
645.662	677.6
646.078	635.39
646.495	629.76
646.911	680.41
647.327	562.16
647.743	590.33
648.159	641.02
648.576	508.6
648.992	607.23
649.408	564.98
649.824	646.65
650.239	559.34
650.655	584.7
651.071	525.52
651.487	601.6
651.902	595.96
652.318	553.7
652.733	615.68
653.149	598.78
653.564	618.49
653.979	593.15
654.395	590.33
654.81	610.05
655.225	522.7
655.64	604.41
656.055	632.57
656.47	562.16
656.885	517.06
657.3	595.96
657.715	615.68
658.13	539.61
658.544	536.79
658.959	610.05
659.374	531.16
659.788	593.15
660.202	480.4
660.617	559.34
661.031	556.52
661.445	584.7
661.86	469.11
662.274	514.24
662.688	615.68
663.102	477.58
663.516	497.32
663.93	502.96
664.344	525.52
664.758	536.79
665.171	511.42
665.585	573.43
665.999	508.6
666.412	514.24
666.826	440.89
667.239	522.7
667.653	542.43
668.066	539.61
668.479	559.34
668.892	545.25
669.306	584.7
669.719	528.34
670.132	457.83
670.545	452.18
670.958	533.97
671.37	480.4
671.783	508.6
672.196	423.96
672.609	528.34
673.021	409.84
673.434	491.68
673.846	471.93
674.259	480.4
674.671	497.32
675.084	517.06
675.496	469.11
675.908	480.4
676.32	474.75
676.732	460.65
677.144	423.96
677.556	378.77
677.968	429.6
678.38	545.25
678.792	463.47
679.204	525.52
679.615	548.07
680.027	517.06
680.439	443.72
680.85	466.29
681.262	390.07
681.673	497.32
682.084	395.72
682.496	466.29
682.907	443.72
683.318	514.24
683.729	449.36
684.14	432.43
684.551	432.43
684.962	415.49
685.373	502.96
685.784	497.32
686.194	477.58
686.605	517.06
687.016	480.4
687.426	480.4
687.837	471.93
688.247	483.22
688.657	423.96
689.068	480.4
689.478	412.66
689.888	502.96
690.298	486.04
690.708	497.32
691.118	497.32
691.528	435.25
691.938	361.82
692.348	392.9
692.758	494.5
693.168	398.55
693.577	423.96
693.987	375.95
694.396	514.24
694.806	531.16
695.215	471.93
695.625	452.18
696.034	370.3
696.443	401.37
696.852	466.29
697.262	508.6
697.671	477.58
698.08	350.52
698.489	407.02
698.897	409.84
699.306	438.07
699.715	471.93
700.124	381.6
700.532	404.19
700.941	466.29
701.35	390.07
701.758	440.89
702.166	440.89
702.575	463.47
702.983	460.65
703.391	469.11
703.799	483.22
704.208	449.36
704.616	483.22
705.024	435.25
705.432	384.42
705.839	350.52
706.247	423.96
706.655	502.96
707.063	440.89
707.47	432.43
707.878	375.95
708.285	412.66
708.693	333.56
709.1	415.49
709.508	409.84
709.915	370.3
710.322	429.6
710.729	412.66
711.136	327.91
711.543	471.93
711.95	446.54
712.357	359
712.764	457.83
713.171	421.13
713.578	395.72
713.984	440.89
714.391	344.87
714.797	378.77
715.204	500.14
715.61	392.9
716.017	455
716.423	333.56
716.829	344.87
717.236	392.9
717.642	469.11
718.048	313.78
718.454	401.37
718.86	497.32
719.266	390.07
719.671	356.17
720.077	412.66
720.483	401.37
720.889	319.43
721.294	412.66
721.7	407.02
722.105	446.54
722.511	356.17
722.916	381.6
723.321	457.83
723.726	392.9
724.132	350.52
724.537	384.42
724.942	457.83
725.347	401.37
725.752	463.47
726.156	404.19
726.561	387.25
726.966	373.12
727.371	373.12
727.775	426.78
728.18	474.75
728.584	387.25
728.989	415.49
729.393	342.04
729.798	423.96
730.202	364.65
730.606	347.7
731.01	390.07
731.414	409.84
731.818	356.17
732.222	387.25
732.626	384.42
733.03	423.96
733.434	415.49
733.837	452.18
734.241	325.08
734.645	432.43
735.048	440.89
735.452	435.25
735.855	387.25
736.258	344.87
736.662	426.78
737.065	387.25
737.468	327.91
737.871	342.04
738.274	327.91
738.677	344.87
739.08	359
739.483	426.78
739.886	353.35
740.289	398.55
740.691	452.18
741.094	277.01
741.497	407.02
741.899	387.25
742.302	347.7
742.704	353.35
743.106	395.72
743.508	347.7
743.911	387.25
744.313	407.02
744.715	432.43
745.117	302.47
745.519	373.12
745.921	342.04
746.323	392.9
746.724	325.08
747.126	395.72
747.528	381.6
747.929	313.78
748.331	378.77
748.732	367.47
749.134	370.3
749.535	378.77
749.936	322.26
750.338	350.52
750.739	418.31
751.14	350.52
751.541	350.52
751.942	384.42
752.343	330.74
752.744	387.25
753.144	421.13
753.545	449.36
753.946	404.19
754.346	387.25
754.747	319.43
755.148	364.65
755.548	412.66
755.948	339.22
756.349	421.13
756.749	398.55
757.149	370.3
757.549	384.42
757.949	319.43
758.349	308.12
758.749	421.13
759.149	367.47
759.549	438.07
759.949	404.19
760.348	285.5
760.748	319.43
761.148	373.12
761.547	327.91
761.947	429.6
762.346	404.19
762.745	404.19
763.145	375.95
763.544	415.49
763.943	347.7
764.342	423.96
764.741	373.12
765.14	443.72
765.539	390.07
765.938	446.54
766.336	327.91
766.735	330.74
767.134	381.6
767.532	418.31
767.931	390.07
768.329	426.78
768.728	426.78
769.126	367.47
769.525	404.19
769.923	333.56
770.321	384.42
770.719	429.6
771.117	401.37
771.515	310.95
771.913	395.72
772.311	387.25
772.709	432.43
773.106	378.77
773.504	288.33
773.902	359
774.299	409.84
774.697	336.39
775.094	327.91
775.491	344.87
775.889	339.22
776.286	342.04
776.683	277.01
777.08	342.04
777.477	378.77
777.874	398.55
778.271	477.58
778.668	373.12
779.065	370.3
779.462	469.11
779.858	432.43
780.255	426.78
780.652	398.55
781.048	344.87
781.444	367.47
781.841	359
782.237	344.87
782.633	291.16
783.03	310.95
783.426	407.02
783.822	367.47
784.218	401.37
784.614	344.87
785.01	440.89
785.405	398.55
785.801	373.12
786.197	356.17
786.593	378.77
786.988	409.84
787.384	359
787.779	404.19
788.174	344.87
788.57	407.02
788.965	319.43
789.36	344.87
789.755	390.07
790.15	384.42
790.545	370.3
790.94	330.74
791.335	418.31
791.73	305.29
792.125	359
792.52	373.12
792.914	308.12
793.309	404.19
793.703	426.78
794.098	254.38
794.492	370.3
794.887	370.3
795.281	367.47
795.675	418.31
796.069	339.22
796.463	339.22
796.857	390.07
797.251	390.07
797.645	426.78
798.039	398.55
798.433	392.9
798.826	361.82
799.22	407.02
799.614	514.24
800.007	398.55
800.401	423.96
800.794	517.06
801.187	342.04
801.581	339.22
801.974	330.74
802.367	356.17
802.76	378.77
803.153	364.65
803.546	353.35
803.939	364.65
804.332	412.66
804.725	367.47
805.117	347.7
805.51	302.47
805.903	313.78
806.295	367.47
806.688	401.37
807.08	395.72
807.472	446.54
807.865	407.02
808.257	248.72
808.649	418.31
809.041	392.9
809.433	361.82
809.825	342.04
810.217	279.84
810.609	415.49
811.001	378.77
811.392	268.53
811.784	398.55
812.175	367.47
812.567	378.77
812.958	299.64
813.35	390.07
813.741	415.49
814.132	305.29
814.524	384.42
814.915	440.89
815.306	384.42
815.697	401.37
816.088	432.43
816.479	347.7
816.87	353.35
817.26	404.19
817.651	435.25
818.042	455
818.432	407.02
818.823	364.65
819.213	446.54
819.604	367.47
819.994	409.84
820.384	359
820.775	421.13
821.165	361.82
821.555	435.25
821.945	421.13
822.335	407.02
822.725	415.49
823.114	392.9
823.504	356.17
823.894	308.12
824.284	291.16
824.673	418.31
825.063	435.25
825.452	356.17
825.842	313.78
826.231	440.89
826.62	387.25
827.009	344.87
827.399	390.07
827.788	378.77
828.177	392.9
828.566	398.55
828.954	350.52
829.343	356.17
829.732	384.42
830.121	350.52
830.509	387.25
830.898	466.29
831.286	395.72
831.675	404.19
832.063	370.3
832.452	404.19
832.84	353.35
833.228	347.7
833.616	412.66
834.004	361.82
834.392	390.07
834.78	381.6
835.168	356.17
835.556	373.12
835.944	336.39
836.331	356.17
836.719	384.42
837.107	378.77
837.494	359
837.881	350.52
838.269	452.18
838.656	500.14
839.043	344.87
839.431	350.52
839.818	375.95
840.205	415.49
840.592	347.7
840.979	390.07
841.366	370.3
841.752	353.35
842.139	384.42
842.526	407.02
842.912	305.29
843.299	361.82
843.685	404.19
844.072	291.16
844.458	398.55
844.844	398.55
845.231	330.74
845.617	293.98
846.003	474.75
846.389	274.19
846.775	370.3
847.161	336.39
847.547	302.47
847.933	353.35
848.318	432.43
848.704	305.29
849.09	423.96
849.475	378.77
849.861	364.65
850.246	381.6
850.631	359
851.017	265.7
851.402	395.72
851.787	330.74
852.172	310.95
852.557	446.54
852.942	293.98
853.327	359
853.712	336.39
854.097	327.91
854.481	395.72
854.866	353.35
855.25	435.25
855.635	367.47
856.019	370.3
856.404	370.3
856.788	359
857.172	367.47
857.557	344.87
857.941	367.47
858.325	339.22
858.709	327.91
859.093	384.42
859.477	435.25
859.86	367.47
860.244	268.53
860.628	375.95
861.012	381.6
861.395	373.12
861.779	452.18
862.162	361.82
862.545	319.43
862.929	401.37
863.312	325.08
863.695	325.08
864.078	347.7
864.461	370.3
864.844	316.6
865.227	339.22
865.61	373.12
865.993	384.42
866.376	395.72
866.758	381.6
867.141	313.78
867.523	347.7
867.906	347.7
868.288	302.47
868.671	299.64
869.053	333.56
869.435	395.72
869.817	378.77
870.199	373.12
870.581	299.64
870.963	361.82
871.345	291.16
871.727	344.87
872.109	336.39
872.491	339.22
872.872	274.19
873.254	288.33
873.635	401.37
874.017	446.54
874.398	353.35
874.779	296.81
875.161	310.95
875.542	423.96
875.923	435.25
876.304	353.35
876.685	364.65
877.066	339.22
877.447	339.22
877.828	310.95
878.208	455
878.589	415.49
878.97	302.47
879.35	392.9
879.731	333.56
880.111	353.35
880.491	367.47
880.872	423.96
881.252	390.07
881.632	316.6
882.012	347.7
882.392	435.25
882.772	333.56
883.152	310.95
883.532	353.35
883.912	401.37
884.291	322.26
884.671	390.07
885.051	322.26
885.43	404.19
885.81	407.02
886.189	367.47
886.568	327.91
886.948	367.47
887.327	293.98
887.706	404.19
888.085	350.52
888.464	415.49
888.843	429.6
889.222	375.95
889.601	378.77
889.979	415.49
890.358	316.6
890.737	364.65
891.115	381.6
891.494	395.72
891.872	401.37
892.25	432.43
892.629	409.84
893.007	401.37
893.385	364.65
893.763	384.42
894.141	404.19
894.519	375.95
894.897	356.17
895.275	279.84
895.653	279.84
896.03	356.17
896.408	325.08
896.786	344.87
897.163	333.56
897.541	350.52
897.918	282.67
898.295	390.07
898.673	271.36
899.05	310.95
899.427	432.43
899.804	342.04
900.181	446.54
900.558	336.39
900.935	339.22
901.312	375.95
901.688	353.35
902.065	350.52
902.442	361.82
902.818	443.72
903.195	426.78
903.571	353.35
903.947	381.6
904.324	228.91
904.7	364.65
905.076	361.82
905.452	353.35
905.828	333.56
906.204	268.53
906.58	330.74
906.956	387.25
907.331	392.9
907.707	401.37
908.083	395.72
908.458	308.12
908.834	404.19
909.209	316.6
909.585	412.66
909.96	370.3
910.335	364.65
910.71	327.91
911.086	409.84
911.461	322.26
911.836	373.12
912.21	370.3
912.585	347.7
912.96	409.84
913.335	310.95
913.709	375.95
914.084	378.77
914.459	344.87
914.833	353.35
915.207	322.26
915.582	330.74
915.956	390.07
916.33	395.72
916.704	336.39
917.078	350.52
917.452	262.87
917.826	333.56
918.2	364.65
918.574	327.91
918.948	370.3
919.321	325.08
919.695	401.37
920.068	308.12
920.442	404.19
920.815	373.12
921.189	339.22
921.562	384.42
921.935	347.7
922.308	356.17
922.681	375.95
923.054	364.65
923.427	342.04
923.8	435.25
924.173	378.77
924.546	313.78
924.919	359
925.291	370.3
925.664	316.6
926.036	395.72
926.409	395.72
926.781	361.82
927.153	339.22
927.526	336.39
927.898	381.6
928.27	336.39
928.642	409.84
929.014	392.9
929.386	418.31
929.758	367.47
930.129	412.66
930.501	415.49
930.873	350.52
931.244	347.7
931.616	378.77
931.987	288.33
932.359	310.95
932.73	370.3
933.101	373.12
933.472	384.42
933.843	378.77
934.214	390.07
934.585	265.7
934.956	364.65
935.327	353.35
935.698	333.56
936.069	401.37
936.439	356.17
936.81	392.9
937.18	421.13
937.551	322.26
937.921	322.26
938.292	339.22
938.662	412.66
939.032	302.47
939.402	452.18
939.772	327.91
940.142	347.7
940.512	350.52
940.882	327.91
941.252	381.6
941.621	392.9
941.991	350.52
942.361	347.7
942.73	313.78
943.1	310.95
943.469	412.66
943.838	353.35
944.208	435.25
944.577	344.87
944.946	316.6
945.315	322.26
945.684	432.43
946.053	305.29
946.422	327.91
946.791	319.43
947.159	407.02
947.528	330.74
947.897	302.47
948.265	387.25
948.634	375.95
949.002	375.95
949.371	409.84
949.739	356.17
950.107	409.84
950.475	409.84
950.843	375.95
951.211	415.49
951.579	407.02
951.947	347.7
952.315	330.74
952.683	319.43
953.05	339.22
953.418	375.95
953.785	344.87
954.153	342.04
954.52	359
954.888	421.13
955.255	364.65
955.622	316.6
955.989	347.7
956.356	407.02
956.723	353.35
957.09	381.6
957.457	296.81
957.824	322.26
958.191	308.12
958.557	330.74
958.924	333.56
959.291	404.19
959.657	327.91
960.023	483.22
960.39	415.49
960.756	384.42
961.122	378.77
961.488	285.5
961.855	310.95
962.221	373.12
962.586	257.21
962.952	378.77
963.318	375.95
963.684	412.66
964.05	325.08
964.415	305.29
964.781	327.91
965.146	364.65
965.512	339.22
965.877	390.07
966.242	336.39
966.608	466.29
966.973	364.65
967.338	370.3
967.703	429.6
968.068	305.29
968.433	274.19
968.797	353.35
969.162	440.89
969.527	359
969.891	370.3
970.256	325.08
970.62	325.08
970.985	285.5
971.349	316.6
971.714	407.02
972.078	316.6
972.442	293.98
972.806	336.39
973.17	381.6
973.534	353.35
973.898	381.6
974.262	347.7
974.625	293.98
974.989	390.07
975.353	353.35
975.716	305.29
976.08	429.6
976.443	279.84
976.806	339.22
977.17	342.04
977.533	359
977.896	347.7
978.259	333.56
978.622	342.04
978.985	279.84
979.348	299.64
979.711	299.64
980.073	327.91
980.436	375.95
980.799	367.47
981.161	344.87
981.524	327.91
981.886	387.25
982.248	387.25
982.611	361.82
982.973	327.91
983.335	313.78
983.697	330.74
984.059	336.39
984.421	415.49
984.783	240.23
985.145	327.91
985.506	330.74
985.868	378.77
986.23	401.37
986.591	392.9
986.953	398.55
987.314	353.35
987.675	310.95
988.037	784.44
988.398	322.26
988.759	296.81
989.12	313.78
989.481	316.6
989.842	367.47
990.203	344.87
990.564	398.55
990.924	327.91
991.285	686.04
991.646	384.42
992.006	333.56
992.367	330.74
992.727	330.74
993.087	322.26
993.448	336.39
993.808	390.07
994.168	404.19
994.528	336.39
994.888	412.66
995.248	401.37
995.608	418.31
995.967	356.17
996.327	378.77
996.687	333.56
997.046	440.89
997.406	359
997.765	356.17
998.125	339.22
998.484	407.02
998.843	302.47
999.202	271.36
999.561	327.91
999.92	404.19
1000.279	291.16
1000.638	373.12
1000.997	353.35
1001.356	336.39
1001.715	333.56
1002.073	339.22
1002.432	296.81
1002.79	296.81
1003.149	293.98
1003.507	310.95
1003.865	387.25
1004.224	308.12
1004.582	268.53
1004.94	279.84
1005.298	395.72
1005.656	285.5
1006.014	262.87
1006.371	310.95
1006.729	305.29
1007.087	387.25
1007.445	319.43
1007.802	330.74
1008.16	412.66
1008.517	387.25
1008.874	347.7
1009.232	308.12
1009.589	438.07
1009.946	373.12
1010.303	370.3
1010.66	378.77
1011.017	421.13
1011.374	390.07
1011.731	342.04
1012.087	418.31
1012.444	339.22
1012.801	313.78
1013.157	350.52
1013.513	336.39
1013.87	336.39
1014.226	359
1014.582	316.6
1014.939	364.65
1015.295	378.77
1015.651	327.91
1016.007	310.95
1016.363	353.35
1016.719	404.19
1017.074	356.17
1017.43	381.6
1017.786	299.64
1018.141	359
1018.497	373.12
1018.852	316.6
1019.208	429.6
1019.563	423.96
1019.918	384.42
1020.273	302.47
1020.628	279.84
1020.983	409.84
1021.338	265.7
1021.693	387.25
1022.048	344.87
1022.403	401.37
1022.757	415.49
1023.112	407.02
1023.467	375.95
1023.821	356.17
1024.175	401.37
1024.53	333.56
1024.884	353.35
1025.238	313.78
1025.592	350.52
1025.946	293.98
1026.3	378.77
1026.654	370.3
1027.008	344.87
1027.362	313.78
1027.716	296.81
1028.069	322.26
1028.423	339.22
1028.777	316.6
1029.13	373.12
1029.483	302.47
1029.837	378.77
1030.19	342.04
1030.543	313.78
1030.896	245.89
1031.249	344.87
1031.602	407.02
1031.955	404.19
1032.308	356.17
1032.661	322.26
1033.013	271.36
1033.366	291.16
1033.719	327.91
1034.071	395.72
1034.424	310.95
1034.776	268.53
1035.128	395.72
1035.48	359
1035.833	319.43
1036.185	288.33
1036.537	288.33
1036.889	288.33
