Data from Fibre6_FLMS019251_12-42-52-200.txt Node
Date: Thu Feb 07 12:42:52 CET 2019
User: luk
Spectrometer: FLMS01925
Trigger mode: 0
Integration Time (sec): 1.771060E0
Scans to average: 1
Electric dark correction enabled: true
Nonlinearity correction enabled: true
Boxcar width: 0
XAxis mode: Wavelengths
Number of Pixels in Spectrum: 2048
>>>>>Begin Spectral Data<<<<<
187.103	-215.74
187.574	-215.74
188.045	-215.74
188.516	-315.47
188.987	57.12
189.458	-79.19
189.929	-136.05
190.4	-13.84
190.871	-161.66
191.342	-147.43
191.813	-136.05
192.284	96.82
192.754	-16.68
193.225	-33.72
193.696	51.44
194.166	-62.13
194.637	88.32
195.107	269.59
195.578	74.14
196.048	88.32
196.518	116.67
196.989	159.18
197.459	215.82
197.929	105.33
198.399	504.02
198.869	263.93
199.339	374.18
199.809	391.13
200.279	613.92
200.749	348.76
201.219	360.06
201.689	385.48
202.159	326.15
202.628	410.9
203.098	447.6
203.568	385.48
204.037	419.37
204.507	441.95
204.976	563.22
205.445	365.71
205.915	419.37
206.384	295.04
206.853	312.01
207.323	492.74
207.792	461.71
208.261	396.78
208.73	413.72
209.199	568.85
209.668	388.31
210.137	520.94
210.606	408.08
211.075	551.94
211.543	568.85
212.012	489.92
212.481	396.78
212.95	323.32
213.418	526.57
213.887	461.71
214.355	433.48
214.824	379.83
215.292	303.53
215.76	422.19
216.229	362.88
216.697	393.96
217.165	484.28
217.633	379.83
218.101	439.13
218.569	763.01
219.037	498.38
219.505	628
219.973	444.77
220.441	391.13
220.909	297.87
221.377	537.85
221.844	467.35
222.312	331.8
222.78	382.66
223.247	416.55
223.715	246.95
224.182	382.66
224.65	450.42
225.117	464.53
225.584	396.78
226.052	396.78
226.519	458.88
226.986	351.58
227.453	368.53
227.92	458.88
228.387	464.53
228.854	365.71
229.321	266.76
229.788	399.6
230.255	484.28
230.722	357.23
231.189	416.55
231.655	472.99
232.122	427.84
232.589	362.88
233.055	410.9
233.522	582.94
233.988	481.45
234.454	441.95
234.921	430.66
235.387	597.02
235.853	382.66
236.32	269.59
236.786	368.53
237.252	374.18
237.718	639.26
238.184	408.08
238.65	328.97
239.116	484.28
239.582	441.95
240.047	275.25
240.513	447.6
240.979	306.36
241.445	379.83
241.91	362.88
242.376	286.56
242.841	461.71
243.307	413.72
243.772	309.18
244.238	300.7
244.703	388.31
245.168	447.6
245.633	422.19
246.099	360.06
246.564	371.36
247.029	456.06
247.494	258.27
247.959	377.01
248.424	255.44
248.889	317.66
249.353	613.92
249.818	351.58
250.283	399.6
250.748	388.31
251.212	408.08
251.677	371.36
252.141	436.31
252.606	410.9
253.07	354.41
253.535	357.23
253.999	283.73
254.463	365.71
254.927	258.27
255.392	337.45
255.856	416.55
256.32	413.72
256.784	331.8
257.248	408.08
257.712	441.95
258.176	605.47
258.64	439.13
259.103	472.99
259.567	362.88
260.031	379.83
260.495	512.48
260.958	475.81
261.422	475.81
261.885	413.72
262.349	427.84
262.812	252.61
263.275	413.72
263.739	351.58
264.202	377.01
264.665	487.1
265.128	478.63
265.591	427.84
266.054	345.93
266.517	546.31
266.98	402.43
267.443	416.55
267.906	312.01
268.369	405.25
268.832	472.99
269.294	326.15
269.757	436.31
270.22	343.1
270.682	402.43
271.145	430.66
271.607	470.17
272.07	687.1
272.532	348.76
272.994	456.06
273.456	509.66
273.919	1303.48
274.381	351.58
274.843	571.67
275.305	444.77
275.767	300.7
276.229	492.74
276.691	351.58
277.153	365.71
277.614	377.01
278.076	269.59
278.538	399.6
279	453.24
279.461	365.71
279.923	1040.73
280.384	357.23
280.846	388.31
281.307	368.53
281.769	382.66
282.23	444.77
282.691	574.49
283.152	416.55
283.613	371.36
284.075	396.78
284.536	456.06
284.997	244.12
285.458	357.23
285.918	300.7
286.379	385.48
286.84	568.85
287.301	371.36
287.762	472.99
288.222	416.55
288.683	362.88
289.143	354.41
289.604	391.13
290.064	396.78
290.525	413.72
290.985	656.14
291.445	439.13
291.906	297.87
292.366	385.48
292.826	377.01
293.286	475.81
293.746	436.31
294.206	427.84
294.666	323.32
295.126	399.6
295.586	334.62
296.046	303.53
296.506	413.72
296.965	529.39
297.425	354.41
297.884	563.22
298.344	391.13
298.804	427.84
299.263	425.02
299.722	343.1
300.182	419.37
300.641	314.84
301.1	334.62
301.559	461.71
302.019	326.15
302.478	441.95
302.937	402.43
303.396	410.9
303.855	751.77
304.314	345.93
304.772	1144.26
305.231	337.45
305.69	467.35
306.149	512.48
306.607	484.28
307.066	523.76
307.524	504.02
307.983	546.31
308.441	535.03
308.9	673.03
309.358	410.9
309.816	765.82
310.275	371.36
310.733	388.31
311.191	439.13
311.649	495.56
312.107	532.21
312.565	289.39
313.023	331.8
313.481	357.23
313.939	436.31
314.397	317.66
314.854	450.42
315.312	568.85
315.77	439.13
316.227	416.55
316.685	261.1
317.142	295.04
317.6	518.12
318.057	368.53
318.514	419.37
318.972	396.78
319.429	520.94
319.886	357.23
320.343	399.6
320.8	295.04
321.257	283.73
321.714	532.21
322.171	692.72
322.628	365.71
323.085	379.83
323.542	266.76
323.998	408.08
324.455	365.71
324.912	456.06
325.368	416.55
325.825	653.33
326.281	487.1
326.738	489.92
327.194	348.76
327.65	408.08
328.107	323.32
328.563	374.18
329.019	348.76
329.475	413.72
329.931	436.31
330.387	467.35
330.843	272.42
331.299	526.57
331.755	309.18
332.211	388.31
332.666	343.1
333.122	323.32
333.578	472.99
334.033	286.56
334.489	450.42
334.944	292.22
335.4	732.09
335.855	616.73
336.31	320.49
336.766	436.31
337.221	453.24
337.676	340.28
338.131	450.42
338.586	563.22
339.041	393.96
339.496	566.03
339.951	357.23
340.406	470.17
340.861	391.13
341.316	464.53
341.771	340.28
342.225	365.71
342.68	529.39
343.134	337.45
343.589	436.31
344.043	430.66
344.498	410.9
344.952	408.08
345.406	3470.05
345.861	433.48
346.315	345.93
346.769	377.01
347.223	391.13
347.677	365.71
348.131	365.71
348.585	382.66
349.039	405.25
349.493	416.55
349.947	377.01
350.401	422.19
350.854	323.32
351.308	605.47
351.762	402.43
352.215	563.22
352.669	303.53
353.122	348.76
353.575	472.99
354.029	450.42
354.482	402.43
354.935	537.85
355.388	537.85
355.842	430.66
356.295	436.31
356.748	371.36
357.201	393.96
357.654	450.42
358.106	396.78
358.559	365.71
359.012	323.32
359.465	323.32
359.917	470.17
360.37	402.43
360.823	354.41
361.275	495.56
361.728	382.66
362.18	501.2
362.632	523.76
363.085	422.19
363.537	430.66
363.989	317.66
364.441	365.71
364.893	399.6
365.345	388.31
365.797	323.32
366.249	520.94
366.701	331.8
367.153	348.76
367.605	365.71
368.057	416.55
368.508	379.83
368.96	388.31
369.411	357.23
369.863	484.28
370.314	656.14
370.766	484.28
371.217	433.48
371.669	433.48
372.12	633.63
372.571	447.6
373.022	357.23
373.473	410.9
373.924	512.48
374.375	374.18
374.826	489.92
375.277	444.77
375.728	292.22
376.179	410.9
376.63	475.81
377.08	625.18
377.531	354.41
377.981	357.23
378.432	433.48
378.883	644.89
379.333	467.35
379.783	433.48
380.234	422.19
380.684	331.8
381.134	458.88
381.584	535.03
382.034	574.49
382.485	495.56
382.935	348.76
383.385	636.44
383.834	382.66
384.284	368.53
384.734	328.97
385.184	464.53
385.634	348.76
386.083	441.95
386.533	422.19
386.982	379.83
387.432	532.21
387.881	368.53
388.331	419.37
388.78	591.39
389.229	326.15
389.679	340.28
390.128	613.92
390.577	385.48
391.026	360.06
391.475	374.18
391.924	312.01
392.373	320.49
392.822	402.43
393.27	504.02
393.719	317.66
394.168	388.31
394.617	580.12
395.065	371.36
395.514	523.76
395.962	498.38
396.411	331.8
396.859	365.71
397.307	689.91
397.756	506.84
398.204	391.13
398.652	557.58
399.1	422.19
399.548	340.28
399.996	723.66
400.444	484.28
400.892	348.76
401.34	422.19
401.788	312.01
402.236	447.6
402.683	413.72
403.131	543.49
403.579	467.35
404.026	314.84
404.474	314.84
404.921	439.13
405.369	328.97
405.816	399.6
406.263	458.88
406.71	509.66
407.158	408.08
407.605	425.02
408.052	348.76
408.499	489.92
408.946	492.74
409.393	447.6
409.84	489.92
410.286	481.45
410.733	574.49
411.18	478.63
411.626	782.68
412.073	647.7
412.52	765.82
412.966	931.44
413.413	967.89
413.859	1096.71
414.305	1281.15
414.752	1612.61
415.198	1848.5
415.644	2343
416.09	2735.89
416.536	3159.69
416.982	3727.85
417.428	4491.53
417.874	4821.53
418.32	5446.34
418.766	6186.48
419.211	6927.07
419.657	7856.39
420.103	8823.48
420.548	9364.13
420.994	10360.65
421.439	11218.98
421.885	12083.97
422.33	13049.79
422.776	14055
423.221	15142.37
423.666	16037.73
424.111	16767.88
424.556	17559.09
425.001	18650.56
425.446	19743.99
425.891	20385.24
426.336	21179.23
426.781	22555.31
427.226	23774.4
427.671	24301.52
428.115	24451.67
428.56	26269.63
429.005	27088.21
429.449	27516.67
429.894	28648.99
430.338	29547.86
430.782	29733.39
431.227	30677.7
431.671	31058.19
432.115	31972.58
432.559	33294.03
433.003	33176.99
433.447	33362.3
433.891	33611.03
434.335	34501.37
434.779	34845.45
435.223	35333.71
435.667	35788.03
436.111	36117.93
436.554	36120.38
436.998	36169.27
437.442	35773.37
437.885	37493.11
438.328	37292.26
438.772	37537.21
439.215	37948.99
439.659	37505.36
440.102	38000.49
440.545	38213.89
440.988	37924.47
441.431	38994.78
441.874	38599.25
442.317	39329.2
442.76	39319.36
443.203	38314.49
443.646	39464.53
444.089	39496.52
444.531	40021.11
444.974	38874.36
445.417	40783.55
445.859	40260.26
446.302	41478.5
446.744	40386.07
447.186	42339.02
447.629	41278.01
448.071	41718.78
448.513	42219.82
448.956	42908.48
449.398	43025.51
449.84	41966.71
450.282	42793.98
450.724	43269.74
451.166	43464.31
451.607	44079.09
452.049	43841.47
452.491	45548.85
452.933	45135.62
453.374	45521.1
453.816	46693.35
454.257	46515.52
454.699	47447.89
455.14	47596.27
455.582	47440.22
456.023	47960.33
456.464	48353.92
456.905	48289.51
457.347	49384.97
457.788	48153.09
458.229	48289.51
458.67	49855.14
459.111	47944.92
459.552	48925.07
459.992	47493.92
460.433	47667.97
460.874	47248.63
461.315	48472.53
461.755	48050.24
462.196	46310.03
462.636	46680.64
463.077	46940.14
463.517	46835.77
463.957	47391.66
464.398	47532.29
464.838	47514.38
465.278	45990.95
465.718	46551.07
466.158	45163.3
466.598	46624.73
467.038	45960.59
467.478	46627.27
467.918	46449.53
468.358	46622.19
468.798	46523.14
469.237	46099.77
469.677	46431.77
470.117	47223.11
470.556	44472.41
470.996	45581.65
471.435	45561.47
471.874	46528.22
472.314	46378.5
472.753	45301.8
473.192	45915.07
473.631	45723.02
474.07	45902.43
474.509	46089.64
474.948	46573.93
475.387	45894.85
475.826	45440.41
476.265	46606.95
476.704	46904.49
477.143	46980.89
477.581	46502.83
478.02	48183.96
478.458	46173.2
478.897	47228.21
479.335	48405.47
479.774	48034.82
480.212	48181.39
480.65	48454.47
481.089	48117.08
481.527	48194.25
481.965	47501.6
482.403	49918.03
482.841	50051.84
483.279	49860.38
483.717	49726.89
484.155	49364.13
484.592	49439.69
485.03	50154.31
485.468	49228.81
485.905	49562.28
486.343	49894.44
486.781	49054.75
487.218	48482.85
487.655	48681.74
488.093	47893.59
488.53	49364.13
488.967	47965.47
489.405	48356.49
489.842	47539.97
490.279	47880.75
490.716	47274.16
491.153	47593.71
491.59	46797.6
492.027	46454.61
492.463	45955.53
492.9	45316.91
493.337	45349.67
493.773	45329.51
494.21	44535.11
494.647	44500
495.083	42893.54
495.519	43179.99
495.956	42662.13
496.392	42373.8
496.828	42167.69
497.265	41052.93
497.701	41092.49
498.137	41057.88
498.573	39789.51
499.009	40751.44
499.445	39171.79
499.881	39014.45
500.316	39503.9
500.752	38184.45
501.188	38191.81
501.624	38844.88
502.059	36614.31
502.495	36470
502.93	36494.46
503.366	38977.58
503.801	35785.58
504.236	35563.28
504.672	35052.94
505.107	35074.91
505.542	34337.9
505.977	34042.72
506.412	33720.77
506.847	33676.88
507.282	33530.56
507.717	33196.49
508.152	32796.63
508.587	32694.23
509.021	31633.67
509.456	31843.36
509.891	31787.28
510.325	31065.51
510.76	30872.83
511.194	30728.93
511.628	30770.39
512.063	29852.99
512.497	30145.85
512.931	29362.29
513.366	29684.57
513.8	29608.89
514.234	29032.59
514.668	28323.9
515.102	28761.4
515.536	27431
515.969	27986.44
516.403	27418.76
516.837	27058.82
517.271	27404.08
517.704	26634.94
518.138	26600.63
518.571	26375.08
519.005	25938.44
519.438	25945.8
519.871	25555.48
520.305	25282.82
520.738	25105.89
521.171	24685.42
521.604	24525.5
522.037	24237.51
522.47	24247.36
522.903	23281.23
523.336	23278.77
523.769	23073.95
524.202	22861.63
524.634	22762.84
525.067	22377.36
525.5	22177.07
525.932	22278.46
526.365	21637.58
526.797	21414.66
527.23	21161.88
527.662	20598.77
528.094	20129.36
528.527	20169.12
528.959	19719.12
529.391	19836.02
529.823	18832.59
530.255	19069.35
530.687	18540.8
531.119	18575.73
531.551	18173.89
531.982	17851.62
532.414	17834.12
532.846	17388.97
533.277	17086.07
533.709	16830.54
534.14	16843.07
534.572	16529.68
535.003	16276.26
535.435	15871.92
535.866	15979.95
536.297	15700.99
536.728	15457.02
537.159	15029.01
537.59	15122.22
538.022	14814.79
538.452	14789.58
538.883	14153.55
539.314	14247.02
539.745	13726.24
540.176	13905.84
540.606	13214.62
541.037	13483.21
541.468	13267.86
541.898	13174.06
542.328	12917.84
542.759	12948.3
543.189	12488.55
543.619	12531.77
544.05	12369.03
544.48	11913.28
544.91	12086.52
545.34	11785.82
545.77	11602.14
546.2	11505.13
546.63	11390.21
547.06	11339.11
547.489	11157.61
547.919	10368.35
548.349	10760.81
548.778	10850.48
549.208	10234.78
549.637	10488.99
550.067	10319.56
550.496	10155.1
550.926	10021.38
551.355	9609.28
551.784	9802.57
552.213	9335.72
552.642	9377.04
553.071	9247.87
553.5	9371.87
553.929	8787.2
554.358	8991.82
554.787	8696.46
555.216	8766.47
555.645	8449.89
556.073	8395.32
556.502	8478.46
556.93	8158.65
557.359	7900.73
557.787	8267.93
558.216	7856.39
558.644	7825.08
559.072	7892.9
559.5	7613.57
559.929	7728.51
560.357	7621.41
560.785	7386.02
561.213	7488.07
561.641	7359.84
562.068	7621.41
562.496	7289.12
562.924	7391.25
563.352	7281.26
563.779	7147.58
564.207	7131.84
564.634	7102.98
565.062	7116.1
565.489	7260.3
565.917	6779.85
566.344	6871.88
566.771	6645.62
567.198	6811.41
567.625	6598.2
568.053	6600.84
568.48	6376.69
568.907	6162.69
569.333	6247.28
569.76	6059.5
570.187	6247.28
570.614	5836.94
571.04	35177.44
571.467	5980.07
571.894	5741.41
572.32	5688.3
572.747	5544.79
573.173	5555.42
573.599	5446.34
574.026	5454.32
574.452	5251.83
574.878	5163.78
575.304	4976.76
575.73	4955.36
576.156	4765.27
576.582	4941.99
577.008	4652.64
577.434	4542.58
577.86	4504.96
578.285	4574.8
578.711	4400.11
579.137	4308.6
579.562	4179.26
579.988	4284.36
580.413	4190.04
580.838	4009.23
581.264	3930.85
581.689	3887.58
582.114	4028.14
582.539	6929.7
582.964	4020.03
583.39	3979.51
583.814	3589.54
584.239	3589.54
584.664	3456.46
585.089	3478.2
585.514	3586.83
585.939	3608.54
586.363	3434.71
586.788	3412.96
587.212	3304.12
587.637	3331.34
588.061	3260.54
588.485	3118.77
588.91	3004.09
589.334	3064.18
589.758	3268.71
590.182	3129.68
590.606	2905.67
591.03	3126.95
591.454	2922.08
591.878	2881.04
592.302	2757.82
592.726	2935.75
593.15	2787.96
593.573	2565.78
593.997	2631.67
594.42	2521.82
594.844	2609.71
595.267	2623.44
595.691	2568.52
596.114	2359.52
596.537	2458.59
596.96	2486.09
597.384	2392.56
597.807	2337.49
598.23	2337.49
598.653	2447.59
599.076	2285.14
599.499	2343
599.921	2188.62
600.344	2161.02
600.767	2436.58
601.189	2450.34
601.612	2086.46
602.034	2080.94
602.457	2144.46
602.879	2749.6
603.302	2075.41
603.724	2025.66
604.146	2039.48
604.568	2114.09
604.991	2058.83
605.413	2003.53
605.835	2249.31
606.257	2144.46
606.678	2050.54
607.1	2094.75
607.522	2022.89
607.944	2127.89
608.365	2119.61
608.787	1779.2
609.209	2133.42
609.63	1854.05
610.051	1912.21
610.473	1970.34
610.894	1931.59
611.315	1715.38
611.737	2103.04
612.158	1815.24
612.579	1768.1
613	2230
613.421	1645.95
613.842	1967.57
614.263	1773.65
614.683	1737.58
615.104	1715.38
615.525	1720.93
615.945	1559.78
616.366	1451.23
616.787	1718.15
617.207	1562.56
617.627	1520.83
618.048	1384.36
618.468	1512.48
618.888	1428.95
619.308	1395.51
619.728	1520.83
620.148	1317.43
620.568	1431.74
620.988	1540.31
621.408	1356.48
621.828	1376
622.248	1445.66
622.668	1476.3
623.087	1339.75
623.507	1253.23
623.926	1219.72
624.346	1286.74
624.765	1242.06
625.185	1149.85
625.604	1247.65
626.023	1186.19
626.442	1147.05
626.861	1376
627.28	1127.48
627.699	1110.7
628.118	1163.83
628.537	1172.22
628.956	1336.96
629.375	1216.93
629.794	1096.71
630.212	1197.37
630.631	1200.16
631.049	1283.94
631.468	1077.12
631.886	990.31
632.305	1119.09
632.723	945.46
633.141	1093.91
633.559	951.07
633.978	1015.52
634.396	1107.9
634.814	931.44
635.232	948.27
635.65	1035.13
636.067	942.66
636.485	1040.73
636.903	928.64
637.321	993.11
637.738	1127.48
638.156	816.39
638.573	883.76
638.991	1141.46
639.408	1244.86
639.825	920.23
640.243	973.49
640.66	844.47
641.077	1040.73
641.494	962.28
641.911	1040.73
642.328	945.46
642.745	903.4
643.162	878.15
643.579	838.85
643.995	866.92
644.412	1015.52
644.829	661.77
645.245	813.58
645.662	760.2
646.078	684.28
646.495	807.96
646.911	692.72
647.327	892.18
647.743	726.47
648.159	928.64
648.576	732.09
648.992	777.06
649.408	779.87
649.824	658.96
650.239	732.09
650.655	678.66
651.071	661.77
651.487	774.25
651.902	737.72
652.318	616.73
652.733	673.03
653.149	720.85
653.564	743.34
653.979	563.22
654.395	642.07
654.81	726.47
655.225	611.1
655.64	706.79
656.055	622.37
656.47	594.2
656.885	597.02
657.3	611.1
657.715	878.15
658.13	616.73
658.544	636.44
658.959	628
659.374	520.94
659.788	757.39
660.202	630.81
660.617	782.68
661.031	613.92
661.445	746.15
661.86	532.21
662.274	796.73
662.688	737.72
663.102	613.92
663.516	892.18
663.93	650.52
664.344	698.35
664.758	703.97
665.171	568.85
665.585	549.12
665.999	580.12
666.412	509.66
666.826	748.96
667.239	681.47
667.653	523.76
668.066	602.65
668.479	852.89
668.892	557.58
669.306	546.31
669.719	613.92
670.132	557.58
670.545	518.12
670.958	580.12
671.37	551.94
671.783	512.48
672.196	591.39
672.609	560.4
673.021	382.66
673.434	571.67
673.846	489.92
674.259	461.71
674.671	535.03
675.084	441.95
675.496	501.2
675.908	506.84
676.32	419.37
676.732	489.92
677.144	532.21
677.556	472.99
677.968	543.49
678.38	656.14
678.792	484.28
679.204	453.24
679.615	650.52
680.027	566.03
680.439	492.74
680.85	695.53
681.262	678.66
681.673	467.35
682.084	526.57
682.496	472.99
682.907	551.94
683.318	464.53
683.729	439.13
684.14	557.58
684.551	537.85
684.962	492.74
685.373	554.76
685.784	430.66
686.194	518.12
686.605	472.99
687.016	501.2
687.426	464.53
687.837	374.18
688.247	396.78
688.657	526.57
689.068	495.56
689.478	436.31
689.888	453.24
690.298	453.24
690.708	484.28
691.118	487.1
691.528	574.49
691.938	582.94
692.348	447.6
692.758	475.81
693.168	504.02
693.577	526.57
693.987	399.6
694.396	523.76
694.806	458.88
695.215	388.31
695.625	405.25
696.034	512.48
696.443	472.99
696.852	551.94
697.262	456.06
697.671	345.93
698.08	506.84
698.489	425.02
698.897	402.43
699.306	450.42
699.715	467.35
700.124	520.94
700.532	484.28
700.941	523.76
701.35	481.45
701.758	743.34
702.166	453.24
702.575	532.21
702.983	377.01
703.391	484.28
703.799	430.66
704.208	475.81
704.616	379.83
705.024	439.13
705.432	481.45
705.839	464.53
706.247	532.21
706.655	748.96
707.063	441.95
707.47	382.66
707.878	385.48
708.285	374.18
708.693	393.96
709.1	413.72
709.508	430.66
709.915	475.81
710.322	470.17
710.729	746.15
711.136	410.9
711.543	425.02
711.95	515.3
712.357	518.12
712.764	487.1
713.171	388.31
713.578	320.49
713.984	439.13
714.391	368.53
714.797	425.02
715.204	518.12
715.61	461.71
716.017	464.53
716.423	416.55
716.829	444.77
717.236	396.78
717.642	419.37
718.048	560.4
718.454	520.94
718.86	360.06
719.266	701.16
719.671	351.58
720.077	444.77
720.483	374.18
720.889	526.57
721.294	413.72
721.7	413.72
722.105	484.28
722.511	368.53
722.916	427.84
723.321	427.84
723.726	585.75
724.132	374.18
724.537	512.48
724.942	481.45
725.347	453.24
725.752	357.23
726.156	464.53
726.561	393.96
726.966	597.02
727.371	475.81
727.775	427.84
728.18	379.83
728.584	340.28
728.989	447.6
729.393	712.41
729.798	402.43
730.202	563.22
730.606	402.43
731.01	467.35
731.414	306.36
731.818	377.01
732.222	419.37
732.626	501.2
733.03	371.36
733.434	391.13
733.837	444.77
734.241	464.53
734.645	416.55
735.048	357.23
735.452	371.36
735.855	297.87
736.258	441.95
736.662	577.3
737.065	512.48
737.468	430.66
737.871	377.01
738.274	537.85
738.677	379.83
739.08	444.77
739.483	492.74
739.886	472.99
740.289	518.12
740.691	427.84
741.094	388.31
741.497	309.18
741.899	594.2
742.302	368.53
742.704	328.97
743.106	382.66
743.508	297.87
743.911	393.96
744.313	371.36
744.715	391.13
745.117	334.62
745.519	348.76
745.921	396.78
746.323	340.28
746.724	410.9
747.126	348.76
747.528	560.4
747.929	351.58
748.331	340.28
748.732	275.25
749.134	357.23
749.535	286.56
749.936	504.02
750.338	379.83
750.739	557.58
751.14	337.45
751.541	354.41
751.942	388.31
752.343	280.9
752.744	393.96
753.144	328.97
753.545	393.96
753.946	444.77
754.346	283.73
754.747	661.77
755.148	953.87
755.548	436.31
755.948	360.06
756.349	470.17
756.749	444.77
757.149	314.84
757.549	529.39
757.949	504.02
758.349	343.1
758.749	326.15
759.149	408.08
759.549	362.88
759.949	444.77
760.348	698.35
760.748	362.88
761.148	306.36
761.547	312.01
761.947	275.25
762.346	554.76
762.745	492.74
763.145	441.95
763.544	410.9
763.943	427.84
764.342	357.23
764.741	410.9
765.14	261.1
765.539	371.36
765.938	656.14
766.336	309.18
766.735	337.45
767.134	334.62
767.532	306.36
767.931	255.44
768.329	748.96
768.728	289.39
769.126	405.25
769.525	566.03
769.923	422.19
770.321	377.01
770.719	523.76
771.117	475.81
771.515	475.81
771.913	467.35
772.311	444.77
772.709	365.71
773.106	289.39
773.504	374.18
773.902	427.84
774.299	388.31
774.697	816.39
775.094	444.77
775.491	351.58
775.889	402.43
776.286	354.41
776.683	365.71
777.08	292.22
777.477	334.62
777.874	591.39
778.271	478.63
778.668	371.36
779.065	368.53
779.462	365.71
779.858	433.48
780.255	523.76
780.652	374.18
781.048	602.65
781.444	331.8
781.841	246.95
782.237	399.6
782.633	436.31
783.03	326.15
783.426	365.71
783.822	368.53
784.218	286.56
784.614	337.45
785.01	419.37
785.405	331.8
785.801	388.31
786.197	314.84
786.593	408.08
786.988	402.43
787.384	501.2
787.779	393.96
788.174	385.48
788.57	379.83
788.965	348.76
789.36	331.8
789.755	328.97
790.15	328.97
790.545	427.84
790.94	283.73
791.335	269.59
791.73	340.28
792.125	566.03
792.52	520.94
792.914	425.02
793.309	312.01
793.703	447.6
794.098	328.97
794.492	447.6
794.887	393.96
795.281	602.65
795.675	439.13
796.069	628
796.463	360.06
796.857	345.93
797.251	326.15
797.645	272.42
798.039	433.48
798.433	334.62
798.826	405.25
799.22	357.23
799.614	396.78
800.007	405.25
800.401	393.96
800.794	283.73
801.187	360.06
801.581	255.44
801.974	492.74
802.367	481.45
802.76	368.53
803.153	328.97
803.546	354.41
803.939	377.01
804.332	377.01
804.725	343.1
805.117	379.83
805.51	523.76
805.903	263.93
806.295	393.96
806.688	269.59
807.08	410.9
807.472	427.84
807.865	405.25
808.257	391.13
808.649	487.1
809.041	297.87
809.433	588.57
809.825	328.97
810.217	388.31
810.609	357.23
811.001	377.01
811.392	351.58
811.784	537.85
812.175	326.15
812.567	540.67
812.958	568.85
813.35	362.88
813.741	348.76
814.132	374.18
814.524	441.95
814.915	297.87
815.306	300.7
815.697	306.36
816.088	374.18
816.479	475.81
816.87	450.42
817.26	495.56
817.651	605.47
818.042	425.02
818.432	441.95
818.823	464.53
819.213	425.02
819.604	343.1
819.994	365.71
820.384	317.66
820.775	368.53
821.165	314.84
821.555	382.66
821.945	439.13
822.335	306.36
822.725	523.76
823.114	295.04
823.504	323.32
823.894	345.93
824.284	656.14
824.673	365.71
825.063	413.72
825.452	360.06
825.842	303.53
826.231	616.73
826.62	410.9
827.009	484.28
827.399	515.3
827.788	385.48
828.177	275.25
828.566	343.1
828.954	864.12
829.343	495.56
829.732	368.53
830.121	698.35
830.509	613.92
830.898	348.76
831.286	289.39
831.675	450.42
832.063	492.74
832.452	326.15
832.84	351.58
833.228	506.84
833.616	385.48
834.004	427.84
834.392	345.93
834.78	487.1
835.168	391.13
835.556	475.81
835.944	430.66
836.331	546.31
836.719	526.57
837.107	360.06
837.494	504.02
837.881	334.62
838.269	348.76
838.656	377.01
839.043	289.39
839.431	670.22
839.818	286.56
840.205	368.53
840.592	456.06
840.979	388.31
841.366	280.9
841.752	297.87
842.139	393.96
842.526	540.67
842.912	444.77
843.299	374.18
843.685	467.35
844.072	436.31
844.458	441.95
844.844	427.84
845.231	379.83
845.617	337.45
846.003	348.76
846.389	498.38
846.775	272.42
847.161	427.84
847.547	351.58
847.933	323.32
848.318	453.24
848.704	328.97
849.09	340.28
849.475	306.36
849.861	489.92
850.246	340.28
850.631	571.67
851.017	487.1
851.402	351.58
851.787	416.55
852.172	560.4
852.557	506.84
852.942	374.18
853.327	278.07
853.712	487.1
854.097	450.42
854.481	396.78
854.866	436.31
855.25	348.76
855.635	374.18
856.019	385.48
856.404	368.53
856.788	314.84
857.172	362.88
857.557	413.72
857.941	385.48
858.325	320.49
858.709	295.04
859.093	357.23
859.477	320.49
859.86	453.24
860.244	275.25
860.628	695.53
861.012	450.42
861.395	405.25
861.779	351.58
862.162	280.9
862.545	269.59
862.929	436.31
863.312	379.83
863.695	249.78
864.078	430.66
864.461	289.39
864.844	422.19
865.227	563.22
865.61	283.73
865.993	351.58
866.376	360.06
866.758	410.9
867.141	526.57
867.523	436.31
867.906	362.88
868.288	362.88
868.671	506.84
869.053	292.22
869.435	405.25
869.817	526.57
870.199	232.8
870.581	577.3
870.963	464.53
871.345	391.13
871.727	399.6
872.109	292.22
872.491	334.62
872.872	374.18
873.254	422.19
873.635	371.36
874.017	560.4
874.398	331.8
874.779	419.37
875.161	388.31
875.542	537.85
875.923	263.93
876.304	320.49
876.685	334.62
877.066	343.1
877.447	292.22
877.828	348.76
878.208	489.92
878.589	444.77
878.97	597.02
879.35	334.62
879.731	374.18
880.111	263.93
880.491	269.59
880.872	351.58
881.252	309.18
881.632	357.23
882.012	489.92
882.392	819.2
882.772	588.57
883.152	371.36
883.532	472.99
883.912	405.25
884.291	275.25
884.671	374.18
885.051	441.95
885.43	328.97
885.81	232.8
886.189	478.63
886.568	396.78
886.948	447.6
887.327	543.49
887.706	337.45
888.085	580.12
888.464	447.6
888.843	748.96
889.222	430.66
889.601	498.38
889.979	365.71
890.358	399.6
890.737	405.25
891.115	391.13
891.494	300.7
891.872	286.56
892.25	371.36
892.629	560.4
893.007	563.22
893.385	518.12
893.763	320.49
894.141	402.43
894.519	444.77
894.897	351.58
895.275	430.66
895.653	309.18
896.03	382.66
896.408	427.84
896.786	334.62
897.163	391.13
897.541	354.41
897.918	504.02
898.295	283.73
898.673	320.49
899.05	371.36
899.427	1057.52
899.804	405.25
900.181	334.62
900.558	568.85
900.935	441.95
901.312	323.32
901.688	295.04
902.065	461.71
902.442	377.01
902.818	379.83
903.195	320.49
903.571	289.39
903.947	340.28
904.324	348.76
904.7	348.76
905.076	597.02
905.452	343.1
905.828	436.31
906.204	385.48
906.58	357.23
906.956	453.24
907.331	580.12
907.707	574.49
908.083	504.02
908.458	478.63
908.834	289.39
909.209	450.42
909.585	453.24
909.96	546.31
910.335	337.45
910.71	326.15
911.086	402.43
911.461	425.02
911.836	382.66
912.21	413.72
912.585	357.23
912.96	422.19
913.335	280.9
913.709	289.39
914.084	354.41
914.459	416.55
914.833	405.25
915.207	425.02
915.582	320.49
915.956	331.8
916.33	379.83
916.704	306.36
917.078	388.31
917.452	478.63
917.826	286.56
918.2	224.31
918.574	419.37
918.948	292.22
919.321	326.15
919.695	399.6
920.068	328.97
920.442	441.95
920.815	272.42
921.189	379.83
921.562	568.85
921.935	385.48
922.308	340.28
922.681	441.95
923.054	388.31
923.427	563.22
923.8	357.23
924.173	334.62
924.546	261.1
924.919	365.71
925.291	374.18
925.664	292.22
926.036	343.1
926.409	357.23
926.781	388.31
927.153	425.02
927.526	498.38
927.898	309.18
928.27	360.06
928.642	280.9
929.014	377.01
929.386	300.7
929.758	309.18
930.129	317.66
930.501	526.57
930.873	309.18
931.244	365.71
931.616	326.15
931.987	425.02
932.359	506.84
932.73	427.84
933.101	337.45
933.472	379.83
933.843	472.99
934.214	509.66
934.585	391.13
934.956	334.62
935.327	844.47
935.698	504.02
936.069	464.53
936.439	286.56
936.81	280.9
937.18	453.24
937.551	399.6
937.921	605.47
938.292	433.48
938.662	272.42
939.032	464.53
939.402	252.61
939.772	467.35
940.142	326.15
940.512	345.93
940.882	385.48
941.252	399.6
941.621	297.87
941.991	351.58
942.361	461.71
942.73	487.1
943.1	309.18
943.469	326.15
943.838	543.49
944.208	470.17
944.577	379.83
944.946	309.18
945.315	340.28
945.684	295.04
946.053	275.25
946.422	377.01
946.791	309.18
947.159	413.72
947.528	227.14
947.897	535.03
948.265	269.59
948.634	348.76
949.002	263.93
949.371	289.39
949.739	303.53
950.107	419.37
950.475	334.62
950.843	422.19
951.211	580.12
951.579	453.24
951.947	374.18
952.315	484.28
952.683	297.87
953.05	343.1
953.418	345.93
953.785	323.32
954.153	238.46
954.52	444.77
954.888	399.6
955.255	224.31
955.622	309.18
955.989	396.78
956.356	602.65
956.723	360.06
957.09	340.28
957.457	365.71
957.824	249.78
958.191	297.87
958.557	453.24
958.924	312.01
959.291	399.6
959.657	289.39
960.023	883.76
960.39	425.02
960.756	297.87
961.122	456.06
961.488	354.41
961.855	280.9
962.221	422.19
962.586	280.9
962.952	698.35
963.318	416.55
963.684	746.15
964.05	613.92
964.415	458.88
964.781	391.13
965.146	385.48
965.512	577.3
965.877	439.13
966.242	467.35
966.608	331.8
966.973	312.01
967.338	351.58
967.703	436.31
968.068	337.45
968.433	551.94
968.797	754.58
969.162	362.88
969.527	337.45
969.891	368.53
970.256	306.36
970.62	402.43
970.985	396.78
971.349	436.31
971.714	439.13
972.078	391.13
972.442	422.19
972.806	481.45
973.17	399.6
973.534	470.17
973.898	365.71
974.262	388.31
974.625	523.76
974.989	343.1
975.353	535.03
975.716	439.13
976.08	365.71
976.443	303.53
976.806	354.41
977.17	450.42
977.533	374.18
977.896	275.25
978.259	441.95
978.622	883.76
978.985	458.88
979.348	334.62
979.711	399.6
980.073	391.13
980.436	371.36
980.799	399.6
981.161	461.71
981.524	360.06
981.886	393.96
982.248	396.78
982.611	427.84
982.973	385.48
983.335	374.18
983.697	244.12
984.059	317.66
984.421	323.32
984.783	357.23
985.145	379.83
985.506	360.06
985.868	385.48
986.23	337.45
986.591	343.1
986.953	382.66
987.314	255.44
987.675	283.73
988.037	22646.73
988.398	850.08
988.759	272.42
989.12	377.01
989.481	464.53
989.842	391.13
990.203	303.53
990.564	317.66
990.924	382.66
991.285	18406.06
991.646	771.44
992.006	306.36
992.367	368.53
992.727	385.48
993.087	289.39
993.448	263.93
993.808	323.32
994.168	331.8
994.528	244.12
994.888	393.96
995.248	388.31
995.608	297.87
995.967	258.27
996.327	326.15
996.687	317.66
997.046	275.25
997.406	252.61
997.765	255.44
998.125	334.62
998.484	249.78
998.843	591.39
999.202	393.96
999.561	241.29
999.92	360.06
1000.279	436.31
1000.638	297.87
1000.997	266.76
1001.356	371.36
1001.715	266.76
1002.073	326.15
1002.432	484.28
1002.79	410.9
1003.149	295.04
1003.507	506.84
1003.865	328.97
1004.224	345.93
1004.582	331.8
1004.94	458.88
1005.298	345.93
1005.656	323.32
1006.014	292.22
1006.371	331.8
1006.729	314.84
1007.087	546.31
1007.445	433.48
1007.802	481.45
1008.16	275.25
1008.517	328.97
1008.874	422.19
1009.232	286.56
1009.589	1113.49
1009.946	365.71
1010.303	328.97
1010.66	506.84
1011.017	382.66
1011.374	588.57
1011.731	388.31
1012.087	323.32
1012.444	266.76
1012.801	379.83
1013.157	351.58
1013.513	348.76
1013.87	343.1
1014.226	326.15
1014.582	377.01
1014.939	300.7
1015.295	317.66
1015.651	263.93
1016.007	261.1
1016.363	456.06
1016.719	292.22
1017.074	396.78
1017.43	326.15
1017.786	520.94
1018.141	354.41
1018.497	272.42
1018.852	436.31
1019.208	453.24
1019.563	323.32
1019.918	286.56
1020.273	334.62
1020.628	303.53
1020.983	447.6
1021.338	320.49
1021.693	337.45
1022.048	303.53
1022.403	232.8
1022.757	326.15
1023.112	360.06
1023.467	283.73
1023.821	312.01
1024.175	388.31
1024.53	345.93
1024.884	396.78
1025.238	323.32
1025.592	326.15
1025.946	365.71
1026.3	405.25
1026.654	334.62
1027.008	309.18
1027.362	312.01
1027.716	348.76
1028.069	357.23
1028.423	388.31
1028.777	314.84
1029.13	258.27
1029.483	396.78
1029.837	433.48
1030.19	314.84
1030.543	295.04
1030.896	272.42
1031.249	413.72
1031.602	343.1
1031.955	334.62
1032.308	368.53
1032.661	470.17
1033.013	382.66
1033.366	365.71
1033.719	365.71
1034.071	343.1
1034.424	252.61
1034.776	340.28
1035.128	286.56
1035.48	320.49
1035.833	597.02
1036.185	280.9
1036.537	280.9
1036.889	280.9
