Data from Fibre6_FLMS019251_12-44-10-611.txt Node
Date: Thu Feb 07 12:44:10 CET 2019
User: luk
Spectrometer: FLMS01925
Trigger mode: 0
Integration Time (sec): 2.535230E0
Scans to average: 1
Electric dark correction enabled: true
Nonlinearity correction enabled: true
Boxcar width: 0
XAxis mode: Wavelengths
Number of Pixels in Spectrum: 2048
>>>>>Begin Spectral Data<<<<<
187.103	-318.5
187.574	-318.5
188.045	-318.5
188.516	-366.99
188.987	102.32
189.458	-22.54
189.929	-133.39
190.4	17.21
190.871	-161.84
191.342	-215.92
191.813	-119.17
192.284	153.34
192.754	-201.68
193.225	-53.79
193.696	-79.36
194.166	20.05
194.637	122.16
195.107	238.29
195.578	130.67
196.048	221.3
196.518	82.47
196.989	173.17
197.459	272.24
197.929	133.5
198.399	664.41
198.869	351.4
199.339	317.49
199.809	402.25
200.279	625.01
200.749	354.23
201.219	328.8
201.689	390.96
202.159	348.58
202.628	345.75
203.098	413.55
203.568	396.6
204.037	534.86
204.507	410.72
204.976	478.46
205.445	325.97
205.915	334.45
206.384	300.52
206.853	390.96
207.323	498.2
207.792	422.02
208.261	376.83
208.73	399.43
209.199	574.31
209.668	498.2
210.137	515.12
210.606	357.06
211.075	481.28
211.543	579.94
212.012	509.48
212.481	263.75
212.95	342.93
213.418	540.49
213.887	543.31
214.355	498.2
214.824	407.9
215.292	243.95
215.76	195.82
216.229	272.24
216.697	294.87
217.165	458.71
217.633	399.43
218.101	532.04
218.569	1048.95
219.037	537.67
219.505	782.51
219.973	515.12
220.441	328.8
220.909	458.71
221.377	613.74
221.844	464.35
222.312	410.72
222.78	385.31
223.247	438.95
223.715	181.66
224.182	458.71
224.65	447.42
225.117	532.04
225.584	410.72
226.052	357.06
226.519	495.38
226.986	388.13
227.453	362.71
227.92	492.56
228.387	551.77
228.854	354.23
229.321	204.32
229.788	492.56
230.255	512.3
230.722	546.13
231.189	543.31
231.655	554.59
232.122	461.53
232.589	362.71
233.055	345.75
233.522	768.46
233.988	357.06
234.454	455.89
234.921	458.71
235.387	653.15
235.853	430.49
236.32	337.27
236.786	374.01
237.252	280.73
237.718	703.8
238.184	357.06
238.65	388.13
239.116	311.83
239.582	478.46
240.047	379.66
240.513	517.94
240.979	503.84
241.445	275.07
241.91	221.3
242.376	263.75
242.841	472.82
243.307	263.75
243.772	374.01
244.238	320.31
244.703	486.92
245.168	399.43
245.633	458.71
246.099	311.83
246.564	379.66
247.029	430.49
247.494	340.1
247.959	365.53
248.424	297.7
248.889	297.7
249.353	633.45
249.818	362.71
250.283	340.1
250.748	277.9
251.212	374.01
251.677	362.71
252.141	402.25
252.606	362.71
253.07	354.23
253.535	317.49
253.999	266.58
254.463	286.38
254.927	300.52
255.392	368.36
255.856	419.19
256.32	388.13
256.784	351.4
257.248	410.72
257.712	557.4
258.176	757.22
258.64	390.96
259.103	402.25
259.567	379.66
260.031	311.83
260.495	582.76
260.958	625.01
261.422	585.58
261.885	314.66
262.349	269.41
262.812	258.1
263.275	323.14
263.739	444.6
264.202	489.74
264.665	517.94
265.128	422.02
265.591	529.22
266.054	323.14
266.517	532.04
266.98	399.43
267.443	311.83
267.906	246.78
268.369	314.66
268.832	464.35
269.294	317.49
269.757	388.13
270.22	258.1
270.682	450.24
271.145	475.64
271.607	469.99
272.07	841.49
272.532	275.07
272.994	382.48
273.456	560.22
273.919	1631.89
274.381	376.83
274.843	616.56
275.305	619.37
275.767	354.23
276.229	503.84
276.691	458.71
277.153	297.7
277.614	427.66
278.076	328.8
278.538	354.23
279	444.6
279.461	272.24
279.923	1420.42
280.384	306.18
280.846	283.55
281.307	357.06
281.769	424.84
282.23	424.84
282.691	627.82
283.152	277.9
283.613	292.04
284.075	314.66
284.536	388.13
284.997	348.58
285.458	331.62
285.918	348.58
286.379	506.66
286.84	639.08
287.301	325.97
287.762	323.14
288.222	342.93
288.683	314.66
289.143	320.31
289.604	438.95
290.064	393.78
290.525	413.55
290.985	866.75
291.445	475.64
291.906	263.75
292.366	365.53
292.826	314.66
293.286	461.53
293.746	357.06
294.206	481.28
294.666	362.71
295.126	438.95
295.586	410.72
296.046	229.8
296.506	461.53
296.965	520.76
297.425	292.04
297.884	650.34
298.344	475.64
298.804	484.1
299.263	340.1
299.722	354.23
300.182	382.48
300.641	283.55
301.1	382.48
301.559	430.49
302.019	328.8
302.478	376.83
302.937	374.01
303.396	376.83
303.855	880.78
304.314	368.36
304.772	1350.73
305.231	323.14
305.69	396.6
306.149	537.67
306.607	337.27
307.066	436.13
307.524	546.13
307.983	526.4
308.441	517.94
308.9	776.89
309.358	467.17
309.816	908.83
310.275	461.53
310.733	280.73
311.191	331.62
311.649	453.06
312.107	563.04
312.565	331.62
313.023	359.88
313.481	334.45
313.939	413.55
314.397	331.62
314.854	255.27
315.312	523.58
315.77	399.43
316.227	286.38
316.685	255.27
317.142	388.13
317.6	554.59
318.057	515.12
318.514	436.13
318.972	399.43
319.429	543.31
319.886	402.25
320.343	348.58
320.8	342.93
321.257	396.6
321.714	588.4
322.171	653.15
322.628	405.08
323.085	351.4
323.542	232.63
323.998	249.61
324.455	342.93
324.912	438.95
325.368	441.78
325.825	641.9
326.281	396.6
326.738	520.76
327.194	416.37
327.65	379.66
328.107	258.1
328.563	385.31
329.019	447.42
329.475	365.53
329.931	348.58
330.387	467.17
330.843	255.27
331.299	455.89
331.755	294.87
332.211	467.17
332.666	486.92
333.122	371.18
333.578	390.96
334.033	328.8
334.489	515.12
334.944	311.83
335.4	945.29
335.855	681.29
336.31	272.24
336.766	393.78
337.221	314.66
337.676	286.38
338.131	475.64
338.586	543.31
339.041	427.66
339.496	625.01
339.951	340.1
340.406	362.71
340.861	441.78
341.316	467.17
341.771	413.55
342.225	351.4
342.68	447.42
343.134	317.49
343.589	407.9
344.043	303.35
344.498	368.36
344.952	393.78
345.406	4931.12
345.861	396.6
346.315	331.62
346.769	427.66
347.223	297.7
347.677	289.21
348.131	340.1
348.585	283.55
349.039	433.31
349.493	379.66
349.947	393.78
350.401	385.31
350.854	266.58
351.308	774.08
351.762	388.13
352.215	608.11
352.669	272.24
353.122	297.7
353.575	359.88
354.029	390.96
354.482	331.62
354.935	554.59
355.388	475.64
355.842	388.13
356.295	467.17
356.748	249.61
357.201	402.25
357.654	475.64
358.106	351.4
358.559	255.27
359.012	385.31
359.465	376.83
359.917	543.31
360.37	379.66
360.823	393.78
361.275	481.28
361.728	402.25
362.18	537.67
362.632	523.58
363.085	292.04
363.537	359.88
363.989	297.7
364.441	303.35
364.893	407.9
365.345	410.72
365.797	348.58
366.249	402.25
366.701	348.58
367.153	351.4
367.605	345.75
368.057	359.88
368.508	235.46
368.96	235.46
369.411	368.36
369.863	455.89
370.314	715.05
370.766	512.3
371.217	433.31
371.669	427.66
372.12	729.11
372.571	407.9
373.022	243.95
373.473	436.13
373.924	450.24
374.375	405.08
374.826	430.49
375.277	382.48
375.728	393.78
376.179	309.01
376.63	444.6
377.08	903.22
377.531	382.48
377.981	258.1
378.432	532.04
378.883	785.32
379.333	424.84
379.783	365.53
380.234	399.43
380.684	486.92
381.134	416.37
381.584	467.17
382.034	655.97
382.485	481.28
382.935	368.36
383.385	574.31
383.834	283.55
384.284	368.36
384.734	354.23
385.184	540.49
385.634	325.97
386.083	345.75
386.533	354.23
386.982	475.64
387.432	501.02
387.881	241.12
388.331	427.66
388.78	560.22
389.229	413.55
389.679	243.95
390.128	622.19
390.577	410.72
391.026	320.31
391.475	303.35
391.924	292.04
392.373	277.9
392.822	306.18
393.27	599.66
393.719	286.38
394.168	292.04
394.617	636.27
395.065	272.24
395.514	605.29
395.962	520.76
396.411	410.72
396.859	306.18
397.307	532.04
397.756	416.37
398.204	340.1
398.652	667.23
399.1	340.1
399.548	255.27
399.996	804.98
400.444	610.93
400.892	317.49
401.34	328.8
401.788	331.62
402.236	272.24
402.683	374.01
403.131	453.06
403.579	486.92
404.026	226.97
404.474	221.3
404.921	368.36
405.369	289.21
405.816	334.45
406.263	345.75
406.71	410.72
407.158	371.18
407.605	365.53
408.052	337.27
408.499	529.22
408.946	453.06
409.393	365.53
409.84	402.25
410.286	280.73
410.733	422.02
411.18	379.66
411.626	605.29
412.073	427.66
412.52	393.78
412.966	616.56
413.413	472.82
413.859	416.37
414.305	512.3
414.752	388.13
415.198	376.83
415.644	461.53
416.09	563.04
416.536	396.6
416.982	469.99
417.428	734.73
417.874	670.04
418.32	844.29
418.766	1009.74
419.211	1085.34
419.657	1300.52
420.103	1529.01
420.548	1737.41
420.994	2047.6
421.439	2397.89
421.885	2604.05
422.33	2924.64
422.776	3320.28
423.221	4057.67
423.666	4014.46
424.111	4631.01
424.556	5211.65
425.001	5520.68
425.446	5956.06
425.891	6505.79
426.336	6645.45
426.781	8174.11
427.226	8293.78
427.671	8932.12
428.115	9294.22
428.56	10044.37
429.005	10747.84
429.449	11073.03
429.894	11908.03
430.338	12732.34
430.782	12684.08
431.227	13189.11
431.671	13695.71
432.115	14183.71
432.559	14960.83
433.003	15492.09
433.447	15625.4
433.891	16082.78
434.335	16547.08
434.779	17288.71
435.223	17861.46
435.667	17513.91
436.111	21478.92
436.554	18675.34
436.998	18530.67
437.442	19051.76
437.885	19758.76
438.328	19696.58
438.772	20223.63
439.215	20782.27
439.659	20673.08
440.102	21352.56
440.545	21763.7
440.988	21654.76
441.431	22505.73
441.874	22742.92
442.317	23081.2
442.76	22752.8
443.203	23128.09
443.646	23853.11
444.089	24173.34
444.531	24362.91
444.974	23922.1
445.417	25211.41
445.859	25292.5
446.302	25683.01
446.744	25803.3
447.186	26877.39
447.629	26828.39
448.071	26865.14
448.513	27411.27
448.956	27952.05
449.398	28174.6
449.84	28013.2
450.282	28851.65
450.724	29418.3
451.166	29511.08
451.607	30170.1
452.049	30523.87
452.491	31243.38
452.933	31467.72
453.374	32225.98
453.816	33330.45
454.257	32825.74
454.699	33681.6
455.14	34174.29
455.582	34105.99
456.023	34208.44
456.464	34933.17
456.905	35199.27
457.347	36051.79
457.788	35592.44
458.229	35844.07
458.67	37407.22
459.111	35709.7
459.552	36988.52
459.992	36562.79
460.433	36883.28
460.874	36071.34
461.315	37091.33
461.755	36937.12
462.196	36264.46
462.636	36152
463.077	36694.88
463.517	36964.05
463.957	37240.68
464.398	36961.6
464.838	37350.89
465.278	36521.21
465.718	37159.88
466.158	36570.13
466.598	37492.96
467.038	37441.51
467.478	38007.69
467.918	38051.83
468.358	37870.38
468.798	38424.78
469.237	38454.24
469.677	38545.08
470.117	39417.62
470.556	37240.68
470.996	38680.14
471.435	38272.62
471.874	39203.61
472.314	39348.73
472.753	38648.21
473.192	38989.72
473.631	39508.67
474.07	39439.77
474.509	39520.98
474.948	40457.48
475.387	39425
475.826	39370.87
476.265	41003.33
476.704	40726.58
477.143	41136.85
477.581	41055.25
478.02	42336.38
478.458	40743.87
478.897	42264.36
479.335	43217.23
479.774	42721.67
480.212	43541.53
480.65	43681.38
481.089	43643.91
481.527	43130
481.965	43000.45
482.403	45508.33
482.841	44878.94
483.279	45336.91
483.717	45591.59
484.155	45324.31
484.592	45978.14
485.03	46553.45
485.468	45614.3
485.905	46205.97
486.343	46934.88
486.781	45748.12
487.218	45887.1
487.655	46016.09
488.093	45070.04
488.53	46142.65
488.967	45935.14
489.405	45894.69
489.842	45437.73
490.279	45500.77
490.716	44675.49
491.153	45609.25
491.59	44763.37
492.027	44467.24
492.463	44206.62
492.9	44141.52
493.337	43766.33
493.773	43876.31
494.21	42875.96
494.647	42512.8
495.083	42202.29
495.519	42130.31
495.956	41981.43
496.392	41181.37
496.828	41337.25
497.265	40102.3
497.701	40242.84
498.137	40361.24
498.573	39171.64
499.009	40514.24
499.445	38888.95
499.881	39004.46
500.316	38955.31
500.752	37943.93
501.188	37823.8
501.624	37985.62
502.059	37076.64
502.495	37238.23
502.93	36895.52
503.366	40620.39
503.801	36423.39
504.236	36100.67
504.672	35829.41
505.107	35331.12
505.542	34525.61
505.977	34960.02
506.412	34423.14
506.847	34432.89
507.282	33935.25
507.717	33859.64
508.152	33920.61
508.587	33247.54
509.021	32750.16
509.456	32481.97
509.891	32659.95
510.325	32357.64
510.76	32040.69
511.194	32074.83
511.628	31638.4
512.063	31250.69
512.497	31596.95
512.931	30604.37
513.366	30645.84
513.8	30665.35
514.234	30092.01
514.668	29503.76
515.102	30113.97
515.536	29017.78
515.969	29799.14
516.403	28758.81
516.837	28861.43
517.271	28863.87
517.704	28005.86
518.138	28162.38
518.571	28360.42
519.005	27917.8
519.438	27225.2
519.871	27362.31
520.305	26960.69
520.738	26992.53
521.171	26195.89
521.604	26620.08
522.037	26296.45
522.47	25707.56
522.903	25294.95
523.336	25211.41
523.769	24867.26
524.202	24242.28
524.634	24414.6
525.067	23789.04
525.5	24042.81
525.932	24249.67
526.365	23522.8
526.797	22824.43
527.23	22683.64
527.662	22382.15
528.094	21976.54
528.527	21912.21
528.959	21419.46
529.391	21733.99
529.823	20705.34
530.255	20531.59
530.687	20673.08
531.119	20144.11
531.551	20067.07
531.982	19208.7
532.414	19410.39
532.846	19026.84
533.277	18368.46
533.709	18023.87
534.14	18233.66
534.572	18118.79
535.003	18031.37
535.435	17636.47
535.866	17493.9
536.297	16948.15
536.728	17020.8
537.159	16988.23
537.59	16649.9
538.022	16501.93
538.452	16429.18
538.883	15844.11
539.314	16082.78
539.745	15421.64
540.176	15597.74
540.606	14686.03
541.037	14920.5
541.468	14849.93
541.898	14668.38
542.328	14332.73
542.759	14279.7
543.189	14277.17
543.619	13857.63
544.05	13741.26
544.48	13303.18
544.91	13703.3
545.34	13402
545.77	13054.7
546.2	12976.05
546.63	12833.92
547.06	12739.96
547.489	12562.11
547.919	11742.3
548.349	12139.84
548.778	12088.91
549.208	11732.1
549.637	11734.65
550.067	11379.83
550.496	11762.71
550.926	11175.35
551.355	10934.82
551.784	10914.34
552.213	10783.71
552.642	10694.01
553.071	10491.4
553.5	10268.02
553.929	10170.37
554.358	10211.49
554.787	9879.67
555.216	9931.15
555.645	9768.92
556.073	9668.42
556.502	9750.89
556.93	9320.06
557.359	9356.22
557.787	9214.11
558.216	9084.82
558.644	9286.47
559.072	9139.13
559.5	8867.37
559.929	8976.13
560.357	8812.96
560.785	8680.74
561.213	8789.63
561.641	8615.88
562.068	8680.74
562.496	8366.57
562.924	8402.96
563.352	8561.38
563.779	8475.7
564.207	8080.38
564.634	8272.97
565.062	8280.78
565.489	8046.52
565.917	8140.27
566.344	8254.77
566.771	7830.14
567.198	7822.31
567.625	7464.37
568.053	7422.5
568.48	7548.06
568.907	7383.24
569.333	7425.12
569.76	7063.46
570.187	7058.21
570.614	7058.21
571.04	51325.77
571.467	7047.71
571.894	6861.21
572.32	6590.13
572.747	6516.34
573.173	6368.61
573.599	6268.25
574.026	6228.62
574.452	6191.61
574.878	5921.61
575.304	5778.4
575.73	5754.52
576.156	5783.71
576.582	5605.77
577.008	5571.21
577.434	5398.25
577.86	5203.65
578.285	5299.66
578.711	5192.97
579.137	4952.52
579.562	5078.16
579.988	5067.47
580.413	4965.89
580.838	4810.65
581.264	4652.48
581.689	4644.43
582.114	4665.89
582.539	8952.83
582.964	4558.52
583.39	4539.72
583.814	4211.44
584.239	4340.74
584.664	4214.14
585.089	4243.78
585.514	4294.97
585.939	4265.34
586.363	3957.72
586.788	4092.76
587.212	3854.95
587.637	3846.83
588.061	3708.71
588.485	3499.77
588.91	3719.55
589.334	3665.33
589.758	3730.39
590.182	3472.6
590.606	3497.05
591.03	3624.65
591.454	3467.16
591.878	3205.87
592.302	3374.71
592.726	3442.7
593.15	3205.87
593.573	3099.49
593.997	3410.07
594.42	2872.66
594.844	3006.65
595.267	2880.87
595.691	2823.39
596.114	2700.08
596.537	2927.38
596.96	3050.35
597.384	2647.96
597.807	2639.73
598.23	2678.14
598.653	2861.72
599.076	2711.05
599.499	2727.5
599.921	2516.15
600.344	2452.92
600.767	2604.05
601.189	2815.18
601.612	2499.66
602.034	2397.89
602.457	2488.66
602.879	3328.45
603.302	2268.43
603.724	2417.15
604.146	2251.89
604.568	2428.16
604.991	2406.15
605.413	2400.64
605.835	2386.88
606.257	2210.52
606.678	2265.68
607.1	2408.9
607.522	2268.43
607.944	2812.44
608.365	2351.09
608.787	2152.57
609.209	2483.17
609.63	2053.13
610.051	2017.19
610.473	2227.07
610.894	2254.65
611.315	2028.25
611.737	2276.7
612.158	2011.66
612.579	1967.4
613	2604.05
613.421	2105.63
613.842	2318.04
614.263	2058.66
614.683	1942.49
615.104	1995.06
615.525	2160.85
615.945	1945.26
616.366	1726.31
616.787	1978.47
617.207	1862.18
617.627	1706.88
618.048	1620.77
618.468	1670.78
618.888	1637.44
619.308	1612.43
619.728	1679.11
620.148	1562.39
620.568	1659.67
620.988	1809.53
621.408	1548.48
621.828	1520.66
622.248	1640.22
622.668	1654.11
623.087	1595.76
623.507	1476.12
623.926	1501.18
624.346	1434.35
624.765	1551.26
625.185	1350.73
625.604	1361.88
626.023	1353.52
626.442	1320.05
626.861	1606.87
627.28	1227.93
627.699	1205.58
628.118	1339.57
628.537	1339.57
628.956	1645.78
629.375	1384.19
629.794	1300.52
630.212	1384.19
630.631	1584.63
631.049	1554.04
631.468	1412.06
631.886	1062.95
632.305	1211.16
632.723	1121.71
633.141	1026.55
633.559	1174.84
633.978	1110.52
634.396	1253.06
634.814	1040.55
635.232	1132.9
635.65	1043.35
636.067	1090.94
636.485	1132.9
636.903	1009.74
637.321	1034.95
637.738	1470.55
638.156	984.53
638.573	945.29
638.991	1487.26
639.408	1297.72
639.825	922.86
640.243	1239.1
640.66	950.9
641.077	1054.55
641.494	1004.14
641.911	1102.13
642.328	1020.95
642.745	948.09
643.162	990.13
643.579	920.05
643.995	877.97
644.412	1381.4
644.829	802.17
645.245	838.68
645.662	720.67
646.078	855.52
646.495	900.42
646.911	908.83
647.327	1060.15
647.743	866.75
648.159	973.32
648.576	754.41
648.992	967.71
649.408	785.32
649.824	788.13
650.239	785.32
650.655	788.13
651.071	703.8
651.487	934.07
651.902	889.2
652.318	709.42
652.733	686.92
653.149	802.17
653.564	709.42
653.979	703.8
654.395	793.74
654.81	709.42
655.225	622.19
655.64	658.78
656.055	650.34
656.47	655.97
656.885	653.15
657.3	588.4
657.715	1026.55
658.13	799.36
658.544	745.97
658.959	574.31
659.374	672.85
659.788	886.39
660.202	703.8
660.617	964.91
661.031	675.67
661.445	816.21
661.86	641.9
662.274	936.88
662.688	900.42
663.102	591.21
663.516	998.54
663.93	608.11
664.344	661.6
664.758	731.92
665.171	582.76
665.585	709.42
665.999	557.4
666.412	681.29
666.826	664.41
667.239	877.97
667.653	608.11
668.066	588.4
668.479	1132.9
668.892	591.21
669.306	602.48
669.719	540.49
670.132	594.03
670.545	484.1
670.958	537.67
671.37	644.71
671.783	512.3
672.196	658.78
672.609	546.13
673.021	484.1
673.434	543.31
673.846	548.95
674.259	515.12
674.671	458.71
675.084	467.17
675.496	599.66
675.908	540.49
676.32	478.46
676.732	647.53
677.144	678.48
677.556	571.49
677.968	422.02
678.38	762.84
678.792	774.08
679.204	554.59
679.615	827.45
680.027	548.95
680.439	523.58
680.85	658.78
681.262	779.7
681.673	537.67
682.084	625.01
682.496	515.12
682.907	622.19
683.318	560.22
683.729	557.4
684.14	509.48
684.551	512.3
684.962	571.49
685.373	517.94
685.784	447.42
686.194	610.93
686.605	419.19
687.016	608.11
687.426	523.58
687.837	438.95
688.247	402.25
688.657	464.35
689.068	495.38
689.478	436.13
689.888	495.38
690.298	523.58
690.708	464.35
691.118	506.66
691.528	422.02
691.938	546.13
692.348	430.49
692.758	419.19
693.168	484.1
693.577	543.31
693.987	407.9
694.396	543.31
694.806	362.71
695.215	410.72
695.625	498.2
696.034	492.56
696.443	323.14
696.852	577.13
697.262	368.36
697.671	379.66
698.08	540.49
698.489	427.66
698.897	453.06
699.306	422.02
699.715	422.02
700.124	472.82
700.532	393.78
700.941	526.4
701.35	385.31
701.758	875.17
702.166	365.53
702.575	551.77
702.983	348.58
703.391	419.19
703.799	450.24
704.208	481.28
704.616	280.73
705.024	557.4
705.432	396.6
705.839	348.58
706.247	619.37
706.655	945.29
707.063	351.4
707.47	436.13
707.878	275.07
708.285	286.38
708.693	365.53
709.1	374.01
709.508	309.01
709.915	396.6
710.322	407.9
710.729	1065.75
711.136	407.9
711.543	385.31
711.95	357.06
712.357	458.71
712.764	325.97
713.171	368.36
713.578	351.4
713.984	444.6
714.391	331.62
714.797	292.04
715.204	388.13
715.61	464.35
716.017	351.4
716.423	515.12
716.829	455.89
717.236	402.25
717.642	396.6
718.048	526.4
718.454	619.37
718.86	277.9
719.266	788.13
719.671	374.01
720.077	517.94
720.483	405.08
720.889	608.11
721.294	342.93
721.7	351.4
722.105	405.08
722.511	410.72
722.916	467.17
723.321	317.49
723.726	599.66
724.132	280.73
724.537	424.84
724.942	610.93
725.347	441.78
725.752	447.42
726.156	512.3
726.561	342.93
726.966	396.6
727.371	594.03
727.775	579.94
728.18	311.83
728.584	306.18
728.989	424.84
729.393	978.92
729.798	351.4
730.202	625.01
730.606	317.49
731.01	450.24
731.414	416.37
731.818	402.25
732.222	419.19
732.626	413.55
733.03	467.17
733.434	320.31
733.837	551.77
734.241	328.8
734.645	314.66
735.048	277.9
735.452	447.42
735.855	354.23
736.258	374.01
736.662	698.17
737.065	670.04
737.468	647.53
737.871	441.78
738.274	492.56
738.677	359.88
739.08	453.06
739.483	441.78
739.886	396.6
740.289	478.46
740.691	354.23
741.094	283.55
741.497	334.45
741.899	757.22
742.302	277.9
742.704	300.52
743.106	277.9
743.508	365.53
743.911	368.36
744.313	309.01
744.715	309.01
745.117	320.31
745.519	323.14
745.921	427.66
746.323	424.84
746.724	283.55
747.126	374.01
747.528	613.74
747.929	337.27
748.331	455.89
748.732	340.1
749.134	334.45
749.535	368.36
749.936	517.94
750.338	317.49
750.739	650.34
751.14	342.93
751.541	416.37
751.942	309.01
752.343	374.01
752.744	393.78
753.144	374.01
753.545	371.18
753.946	475.64
754.346	351.4
754.747	715.05
755.148	1205.58
755.548	342.93
755.948	385.31
756.349	328.8
756.749	385.31
757.149	289.21
757.549	571.49
757.949	424.84
758.349	407.9
758.749	317.49
759.149	297.7
759.549	325.97
759.949	410.72
760.348	824.64
760.748	328.8
761.148	402.25
761.547	348.58
761.947	289.21
762.346	407.9
762.745	588.4
763.145	427.66
763.544	388.13
763.943	427.66
764.342	277.9
764.741	436.13
765.14	292.04
765.539	209.98
765.938	681.29
766.336	331.62
766.735	342.93
767.134	275.07
767.532	286.38
767.931	351.4
768.329	835.87
768.728	357.06
769.126	390.96
769.525	667.23
769.923	419.19
770.321	498.2
770.719	636.27
771.117	478.46
771.515	441.78
771.913	481.28
772.311	424.84
772.709	430.49
773.106	357.06
773.504	328.8
773.902	258.1
774.299	506.66
774.697	1071.35
775.094	489.74
775.491	272.24
775.889	359.88
776.286	348.58
776.683	300.52
777.08	289.21
777.477	328.8
777.874	602.48
778.271	337.27
778.668	286.38
779.065	297.7
779.462	357.06
779.858	357.06
780.255	641.9
780.652	407.9
781.048	588.4
781.444	269.41
781.841	246.78
782.237	467.17
782.633	351.4
783.03	209.98
783.426	280.73
783.822	309.01
784.218	238.29
784.614	306.18
785.01	263.75
785.405	354.23
785.801	323.14
786.197	351.4
786.593	351.4
786.988	266.58
787.384	582.76
787.779	325.97
788.174	413.55
788.57	328.8
788.965	354.23
789.36	342.93
789.755	275.07
790.15	144.84
790.545	351.4
790.94	300.52
791.335	317.49
791.73	357.06
792.125	568.67
792.52	436.13
792.914	433.31
793.309	260.92
793.703	574.31
794.098	323.14
794.492	512.3
794.887	379.66
795.281	785.32
795.675	495.38
796.069	748.78
796.463	430.49
796.857	348.58
797.251	376.83
797.645	263.75
798.039	441.78
798.433	289.21
798.826	286.38
799.22	277.9
799.614	340.1
800.007	328.8
800.401	422.02
800.794	260.92
801.187	354.23
801.581	306.18
801.974	402.25
802.367	526.4
802.76	351.4
803.153	277.9
803.546	266.58
803.939	348.58
804.332	263.75
804.725	317.49
805.117	354.23
805.51	484.1
805.903	303.35
806.295	413.55
806.688	294.87
807.08	396.6
807.472	472.82
807.865	354.23
808.257	467.17
808.649	481.28
809.041	351.4
809.433	438.95
809.825	379.66
810.217	277.9
810.609	376.83
811.001	486.92
811.392	382.48
811.784	506.66
812.175	314.66
812.567	486.92
812.958	430.49
813.35	455.89
813.741	252.44
814.132	331.62
814.524	362.71
814.915	351.4
815.306	283.55
815.697	294.87
816.088	436.13
816.479	402.25
816.87	481.28
817.26	458.71
817.651	717.86
818.042	365.53
818.432	427.66
818.823	467.17
819.213	365.53
819.604	320.31
819.994	390.96
820.384	331.62
820.775	430.49
821.165	238.29
821.555	362.71
821.945	388.13
822.335	266.58
822.725	548.95
823.114	334.45
823.504	345.75
823.894	402.25
824.284	709.42
824.673	286.38
825.063	320.31
825.452	365.53
825.842	325.97
826.231	821.83
826.62	317.49
827.009	447.42
827.399	498.2
827.788	258.1
828.177	241.12
828.566	351.4
828.954	1034.95
829.343	458.71
829.732	309.01
830.121	942.49
830.509	729.11
830.898	342.93
831.286	286.38
831.675	453.06
832.063	596.85
832.452	292.04
832.84	289.21
833.228	532.04
833.616	317.49
834.004	467.17
834.392	376.83
834.78	546.13
835.168	277.9
835.556	571.49
835.944	441.78
836.331	464.35
836.719	599.66
837.107	472.82
837.494	484.1
837.881	340.1
838.269	390.96
838.656	277.9
839.043	292.04
839.431	889.2
839.818	306.18
840.205	365.53
840.592	388.13
840.979	388.13
841.366	207.15
841.752	238.29
842.139	226.97
842.526	362.71
842.912	526.4
843.299	300.52
843.685	577.13
844.072	407.9
844.458	368.36
844.844	331.62
845.231	297.7
845.617	374.01
846.003	532.04
846.389	371.18
846.775	221.3
847.161	345.75
847.547	283.55
847.933	209.98
848.318	433.31
848.704	320.31
849.09	275.07
849.475	187.33
849.861	529.22
850.246	334.45
850.631	616.56
851.017	345.75
851.402	297.7
851.787	376.83
852.172	653.15
852.557	512.3
852.942	269.41
853.327	300.52
853.712	469.99
854.097	501.02
854.481	300.52
854.866	478.46
855.25	331.62
855.635	399.43
856.019	407.9
856.404	371.18
856.788	238.29
857.172	289.21
857.557	486.92
857.941	317.49
858.325	297.7
858.709	374.01
859.093	303.35
859.477	289.21
859.86	464.35
860.244	294.87
860.628	774.08
861.012	348.58
861.395	365.53
861.779	311.83
862.162	362.71
862.545	320.31
862.929	416.37
863.312	441.78
863.695	235.46
864.078	374.01
864.461	334.45
864.844	501.02
865.227	729.11
865.61	263.75
865.993	260.92
866.376	405.08
866.758	532.04
867.141	529.22
867.523	396.6
867.906	283.55
868.288	472.82
868.671	430.49
869.053	269.41
869.435	317.49
869.817	594.03
870.199	258.1
870.581	543.31
870.963	405.08
871.345	469.99
871.727	359.88
872.109	241.12
872.491	396.6
872.872	365.53
873.254	342.93
873.635	309.01
874.017	588.4
874.398	232.63
874.779	481.28
875.161	300.52
875.542	554.59
875.923	306.18
876.304	201.49
876.685	246.78
877.066	337.27
877.447	272.24
877.828	340.1
878.208	501.02
878.589	517.94
878.97	529.22
879.35	368.36
879.731	300.52
880.111	283.55
880.491	229.8
880.872	501.02
881.252	286.38
881.632	303.35
882.012	469.99
882.392	1020.95
882.772	543.31
883.152	396.6
883.532	286.38
883.912	444.6
884.291	365.53
884.671	334.45
885.051	407.9
885.43	340.1
885.81	340.1
886.189	419.19
886.568	342.93
886.948	396.6
887.327	622.19
887.706	419.19
888.085	639.08
888.464	385.31
888.843	880.78
889.222	520.76
889.601	526.4
889.979	422.02
890.358	351.4
890.737	396.6
891.115	385.31
891.494	207.15
891.872	340.1
892.25	357.06
892.629	548.95
893.007	689.73
893.385	469.99
893.763	357.06
894.141	354.23
894.519	540.49
894.897	311.83
895.275	450.24
895.653	303.35
896.03	526.4
896.408	399.43
896.786	325.97
897.163	280.73
897.541	354.23
897.918	625.01
898.295	232.63
898.673	269.41
899.05	297.7
899.427	1523.44
899.804	357.06
900.181	405.08
900.558	613.74
900.935	453.06
901.312	292.04
901.688	269.41
902.065	484.1
902.442	379.66
902.818	289.21
903.195	325.97
903.571	365.53
903.947	258.1
904.324	393.78
904.7	388.13
905.076	720.67
905.452	311.83
905.828	540.49
906.204	399.43
906.58	334.45
906.956	444.6
907.331	619.37
907.707	619.37
908.083	571.49
908.458	399.43
908.834	226.97
909.209	331.62
909.585	450.24
909.96	365.53
910.335	306.18
910.71	289.21
911.086	424.84
911.461	529.22
911.836	374.01
912.21	323.14
912.585	438.95
912.96	405.08
913.335	303.35
913.709	300.52
914.084	218.47
914.459	399.43
914.833	303.35
915.207	331.62
915.582	297.7
915.956	334.45
916.33	249.61
916.704	297.7
917.078	317.49
917.452	441.78
917.826	218.47
918.2	311.83
918.574	424.84
918.948	243.95
919.321	272.24
919.695	283.55
920.068	467.17
920.442	393.78
920.815	337.27
921.189	362.71
921.562	695.36
921.935	481.28
922.308	286.38
922.681	342.93
923.054	379.66
923.427	540.49
923.8	292.04
924.173	300.52
924.546	289.21
924.919	325.97
925.291	365.53
925.664	280.73
926.036	371.18
926.409	342.93
926.781	342.93
927.153	351.4
927.526	467.17
927.898	263.75
928.27	260.92
928.642	238.29
929.014	351.4
929.386	311.83
929.758	266.58
930.129	243.95
930.501	639.08
930.873	294.87
931.244	427.66
931.616	184.5
931.987	444.6
932.359	551.77
932.73	345.75
933.101	405.08
933.472	351.4
933.843	481.28
934.214	630.64
934.585	371.18
934.956	320.31
935.327	936.88
935.698	371.18
936.069	529.22
936.439	292.04
936.81	277.9
937.18	424.84
937.551	297.7
937.921	692.55
938.292	591.21
938.662	348.58
939.032	501.02
939.402	357.06
939.772	464.35
940.142	289.21
940.512	303.35
940.882	362.71
941.252	501.02
941.621	419.19
941.991	438.95
942.361	461.53
942.73	351.4
943.1	226.97
943.469	249.61
943.838	675.67
944.208	625.01
944.577	272.24
944.946	266.58
945.315	300.52
945.684	286.38
946.053	215.64
946.422	396.6
946.791	286.38
947.159	325.97
947.528	272.24
947.897	430.49
948.265	215.64
948.634	413.55
949.002	224.14
949.371	351.4
949.739	226.97
950.107	385.31
950.475	297.7
950.843	484.1
951.211	509.48
951.579	475.64
951.947	340.1
952.315	492.56
952.683	303.35
953.05	311.83
953.418	351.4
953.785	255.27
954.153	320.31
954.52	399.43
954.888	472.82
955.255	294.87
955.622	325.97
955.989	345.75
956.356	509.48
956.723	309.01
957.09	340.1
957.457	314.66
957.824	275.07
958.191	340.1
958.557	447.42
958.924	272.24
959.291	382.48
959.657	266.58
960.023	1048.95
960.39	365.53
960.756	340.1
961.122	534.86
961.488	410.72
961.855	334.45
962.221	260.92
962.586	323.14
962.952	684.11
963.318	323.14
963.684	883.59
964.05	695.36
964.415	393.78
964.781	342.93
965.146	331.62
965.512	700.98
965.877	506.66
966.242	393.78
966.608	379.66
966.973	390.96
967.338	340.1
967.703	517.94
968.068	314.66
968.433	534.86
968.797	804.98
969.162	379.66
969.527	325.97
969.891	252.44
970.256	277.9
970.62	351.4
970.985	325.97
971.349	433.31
971.714	498.2
972.078	382.48
972.442	413.55
972.806	484.1
973.17	351.4
973.534	374.01
973.898	331.62
974.262	309.01
974.625	568.67
974.989	289.21
975.353	723.48
975.716	413.55
976.08	289.21
976.443	289.21
976.806	309.01
977.17	390.96
977.533	399.43
977.896	303.35
978.259	416.37
978.622	1160.86
978.985	501.02
979.348	430.49
979.711	269.41
980.073	348.58
980.436	385.31
980.799	294.87
981.161	430.49
981.524	309.01
981.886	309.01
982.248	232.63
982.611	424.84
982.973	396.6
983.335	368.36
983.697	306.18
984.059	438.95
984.421	320.31
984.783	283.55
985.145	246.78
985.506	340.1
985.868	275.07
986.23	311.83
986.591	300.52
986.953	433.31
987.314	260.92
987.675	272.24
988.037	27369.65
988.398	877.97
988.759	374.01
989.12	520.76
989.481	413.55
989.842	548.95
990.203	309.01
990.564	362.71
990.924	503.84
991.285	26982.73
991.646	883.59
992.006	249.61
992.367	520.76
992.727	371.18
993.087	292.04
993.448	243.95
993.808	379.66
994.168	243.95
994.528	218.47
994.888	393.78
995.248	433.31
995.608	365.53
995.967	303.35
996.327	249.61
996.687	280.73
997.046	198.66
997.406	289.21
997.765	286.38
998.125	323.14
998.484	241.12
998.843	630.64
999.202	331.62
999.561	334.45
999.92	275.07
1000.279	340.1
1000.638	241.12
1000.997	306.18
1001.356	320.31
1001.715	255.27
1002.073	368.36
1002.432	464.35
1002.79	413.55
1003.149	204.32
1003.507	450.24
1003.865	258.1
1004.224	334.45
1004.582	365.53
1004.94	515.12
1005.298	229.8
1005.656	376.83
1006.014	382.48
1006.371	351.4
1006.729	229.8
1007.087	554.59
1007.445	464.35
1007.802	410.72
1008.16	187.33
1008.517	464.35
1008.874	503.84
1009.232	187.33
1009.589	1294.93
1009.946	354.23
1010.303	209.98
1010.66	405.08
1011.017	365.53
1011.374	577.13
1011.731	447.42
1012.087	342.93
1012.444	229.8
1012.801	390.96
1013.157	272.24
1013.513	269.41
1013.87	447.42
1014.226	357.06
1014.582	348.58
1014.939	283.55
1015.295	348.58
1015.651	303.35
1016.007	229.8
1016.363	484.1
1016.719	294.87
1017.074	405.08
1017.43	359.88
1017.786	453.06
1018.141	348.58
1018.497	272.24
1018.852	405.08
1019.208	410.72
1019.563	232.63
1019.918	235.46
1020.273	413.55
1020.628	337.27
1020.983	571.49
1021.338	286.38
1021.693	337.27
1022.048	229.8
1022.403	178.83
1022.757	342.93
1023.112	379.66
1023.467	314.66
1023.821	232.63
1024.175	235.46
1024.53	283.55
1024.884	218.47
1025.238	246.78
1025.592	438.95
1025.946	178.83
1026.3	181.66
1026.654	306.18
1027.008	229.8
1027.362	342.93
1027.716	303.35
1028.069	317.49
1028.423	323.14
1028.777	277.9
1029.13	272.24
1029.483	472.82
1029.837	419.19
1030.19	342.93
1030.543	320.31
1030.896	272.24
1031.249	405.08
1031.602	294.87
1031.955	323.14
1032.308	351.4
1032.661	543.31
1033.013	325.97
1033.366	260.92
1033.719	422.02
1034.071	283.55
1034.424	351.4
1034.776	218.47
1035.128	289.21
1035.48	249.61
1035.833	639.08
1036.185	317.49
1036.537	317.49
1036.889	317.49
