Data from SCSF78-1_FLMS019251_09-30-18-375.txt Node
Date: Fri Feb 08 09:30:18 CET 2019
User: luk
Spectrometer: FLMS01925
Trigger mode: 0
Integration Time (sec): 2.390840E0
Scans to average: 1
Electric dark correction enabled: true
Nonlinearity correction enabled: true
Boxcar width: 0
XAxis mode: Wavelengths
Number of Pixels in Spectrum: 2048
>>>>>Begin Spectral Data<<<<<
187.103	-314.76
187.574	-314.76
188.045	-314.76
188.516	-254.9
188.987	26.61
189.458	-81.32
189.929	-158.1
190.4	-10.29
190.871	-152.41
191.342	-115.43
191.813	-118.28
192.284	-52.9
192.754	-75.63
193.225	52.15
193.696	18.1
194.166	6.74
194.637	49.31
195.107	298.58
195.578	69.17
196.048	91.86
196.518	176.88
196.989	179.72
197.459	230.68
197.929	72.01
198.399	507.54
198.869	256.15
199.339	278.78
199.809	355.11
200.279	484.98
200.749	352.29
201.219	555.47
201.689	324.02
202.159	258.98
202.628	357.94
203.098	304.23
203.568	422.9
204.037	425.72
204.507	312.72
204.976	357.94
205.445	335.33
205.915	281.61
206.384	431.37
206.853	346.64
207.323	448.3
207.792	307.06
208.261	301.41
208.73	309.89
209.199	527.28
209.668	414.43
210.137	372.07
210.606	408.78
211.075	473.7
211.543	510.36
212.012	352.29
212.481	278.78
212.95	349.46
213.418	544.19
213.887	462.41
214.355	501.9
214.824	273.12
215.292	403.13
215.76	162.72
216.229	352.29
216.697	338.16
217.165	366.42
217.633	352.29
218.101	434.19
218.569	783.39
219.037	470.88
219.505	654.03
219.973	468.05
220.441	292.92
220.909	383.36
221.377	487.8
221.844	448.3
222.312	298.58
222.78	329.68
223.247	459.59
223.715	298.58
224.182	340.98
224.65	439.84
225.117	377.72
225.584	329.68
226.052	287.27
226.519	422.9
226.986	431.37
227.453	287.27
227.92	355.11
228.387	338.16
228.854	355.11
229.321	247.66
229.788	484.98
230.255	434.19
230.722	408.78
231.189	445.48
231.655	431.37
232.122	374.89
232.589	338.16
233.055	355.11
233.522	569.55
233.988	332.5
234.454	456.77
234.921	442.66
235.387	535.74
235.853	366.42
236.32	338.16
236.786	321.2
237.252	343.81
237.718	625.88
238.184	377.72
238.65	403.13
239.116	343.81
239.582	326.85
240.047	253.32
240.513	400.31
240.979	335.33
241.445	292.92
241.91	352.29
242.376	287.27
242.841	507.54
243.307	397.49
243.772	307.06
244.238	338.16
244.703	445.48
245.168	374.89
245.633	366.42
246.099	219.36
246.564	335.33
247.029	366.42
247.494	321.2
247.959	360.76
248.424	230.68
248.889	312.72
249.353	468.05
249.818	360.76
250.283	290.1
250.748	287.27
251.212	431.37
251.677	247.66
252.141	352.29
252.606	448.3
253.07	321.2
253.535	298.58
253.999	340.98
254.463	400.31
254.927	250.49
255.392	321.2
255.856	428.54
256.32	321.2
256.784	315.54
257.248	422.9
257.712	389.01
258.176	566.74
258.64	321.2
259.103	267.47
259.567	315.54
260.031	326.85
260.495	524.46
260.958	490.62
261.422	527.28
261.885	329.68
262.349	374.89
262.812	338.16
263.275	372.07
263.739	420.08
264.202	372.07
264.665	377.72
265.128	442.66
265.591	386.19
266.054	304.23
266.517	442.66
266.98	338.16
267.443	304.23
267.906	287.27
268.369	312.72
268.832	389.01
269.294	278.78
269.757	459.59
270.22	247.66
270.682	414.43
271.145	451.12
271.607	352.29
272.07	713.11
272.532	329.68
272.994	307.06
273.456	380.54
273.919	1142.16
274.381	309.89
274.843	597.73
275.305	468.05
275.767	369.24
276.229	451.12
276.691	468.05
277.153	244.83
277.614	434.19
278.076	420.08
278.538	352.29
279	405.96
279.461	357.94
279.923	1007.82
280.384	258.98
280.846	321.2
281.307	340.98
281.769	324.02
282.23	405.96
282.691	459.59
283.152	400.31
283.613	304.23
284.075	295.75
284.536	442.66
284.997	476.52
285.458	264.64
285.918	357.94
286.379	411.61
286.84	547.01
287.301	343.81
287.762	360.76
288.222	307.06
288.683	439.84
289.143	394.66
289.604	360.76
290.064	386.19
290.525	400.31
290.985	696.24
291.445	374.89
291.906	307.06
292.366	417.25
292.826	281.61
293.286	459.59
293.746	355.11
294.206	428.54
294.666	386.19
295.126	414.43
295.586	295.75
296.046	247.66
296.506	476.52
296.965	456.77
297.425	290.1
297.884	462.41
298.344	352.29
298.804	439.84
299.263	332.5
299.722	346.64
300.182	437.01
300.641	349.46
301.1	386.19
301.559	422.9
302.019	386.19
302.478	442.66
302.937	380.54
303.396	417.25
303.855	710.3
304.314	479.34
304.772	1035.83
305.231	324.02
305.69	380.54
306.149	414.43
306.607	338.16
307.066	408.78
307.524	487.8
307.983	516
308.441	431.37
308.9	510.36
309.358	292.92
309.816	744.04
310.275	420.08
310.733	338.16
311.191	383.36
311.649	391.84
312.107	549.83
312.565	343.81
313.023	346.64
313.481	380.54
313.939	346.64
314.397	425.72
314.854	389.01
315.312	295.75
315.77	482.16
316.227	250.49
316.685	318.37
317.142	247.66
317.6	417.25
318.057	408.78
318.514	445.48
318.972	389.01
319.429	487.8
319.886	403.13
320.343	400.31
320.8	343.81
321.257	366.42
321.714	518.82
322.171	611.81
322.628	428.54
323.085	400.31
323.542	343.81
323.998	324.02
324.455	287.27
324.912	516
325.368	394.66
325.825	524.46
326.281	273.12
326.738	445.48
327.194	386.19
327.65	391.84
328.107	332.5
328.563	428.54
329.019	439.84
329.475	445.48
329.931	380.54
330.387	411.61
330.843	397.49
331.299	470.88
331.755	338.16
332.211	273.12
332.666	383.36
333.122	372.07
333.578	363.59
334.033	295.75
334.489	434.19
334.944	346.64
335.4	758.09
335.855	682.17
336.31	270.3
336.766	315.54
337.221	363.59
337.676	349.46
338.131	389.01
338.586	403.13
339.041	442.66
339.496	501.9
339.951	363.59
340.406	383.36
340.861	420.08
341.316	411.61
341.771	507.54
342.225	275.95
342.68	442.66
343.134	321.2
343.589	389.01
344.043	369.24
344.498	394.66
344.952	428.54
345.406	3174
345.861	332.5
346.315	465.23
346.769	346.64
347.223	307.06
347.677	434.19
348.131	349.46
348.585	326.85
349.039	312.72
349.493	366.42
349.947	383.36
350.401	290.1
350.854	307.06
351.308	578.01
351.762	275.95
352.215	521.64
352.669	295.75
353.122	338.16
353.575	309.89
354.029	405.96
354.482	383.36
354.935	372.07
355.388	346.64
355.842	473.7
356.295	391.84
356.748	369.24
357.201	397.49
357.654	442.66
358.106	397.49
358.559	335.33
359.012	256.15
359.465	383.36
359.917	422.9
360.37	366.42
360.823	318.37
361.275	369.24
361.728	346.64
362.18	343.81
362.632	490.62
363.085	428.54
363.537	352.29
363.989	301.41
364.441	366.42
364.893	372.07
365.345	329.68
365.797	253.32
366.249	442.66
366.701	275.95
367.153	278.78
367.605	304.23
368.057	225.02
368.508	326.85
368.96	292.92
369.411	312.72
369.863	470.88
370.314	482.16
370.766	369.24
371.217	403.13
371.669	346.64
372.12	589.28
372.571	425.72
373.022	318.37
373.473	374.89
373.924	504.72
374.375	360.76
374.826	493.44
375.277	462.41
375.728	366.42
376.179	403.13
376.63	420.08
377.08	662.48
377.531	357.94
377.981	315.54
378.432	499.08
378.883	592.09
379.333	352.29
379.783	431.37
380.234	340.98
380.684	287.27
381.134	411.61
381.584	422.9
382.034	575.19
382.485	434.19
382.935	304.23
383.385	411.61
383.834	366.42
384.284	414.43
384.734	383.36
385.184	442.66
385.634	349.46
386.083	490.62
386.533	346.64
386.982	482.16
387.432	592.09
387.881	357.94
388.331	326.85
388.78	504.72
389.229	380.54
389.679	355.11
390.128	408.78
390.577	453.95
391.026	397.49
391.475	295.75
391.924	360.76
392.373	253.32
392.822	349.46
393.27	496.26
393.719	309.89
394.168	363.59
394.617	575.19
395.065	295.75
395.514	442.66
395.962	451.12
396.411	360.76
396.859	386.19
397.307	569.55
397.756	422.9
398.204	329.68
398.652	561.1
399.1	355.11
399.548	349.46
399.996	620.25
400.444	473.7
400.892	329.68
401.34	309.89
401.788	391.84
402.236	363.59
402.683	369.24
403.131	422.9
403.579	400.31
404.026	335.33
404.474	332.5
404.921	295.75
405.369	287.27
405.816	355.11
406.263	346.64
406.71	445.48
407.158	326.85
407.605	372.07
408.052	366.42
408.499	437.01
408.946	445.48
409.393	425.72
409.84	442.66
410.286	360.76
410.733	459.59
411.18	484.98
411.626	634.33
412.073	468.05
412.52	391.84
412.966	504.72
413.413	465.23
413.859	377.72
414.305	366.42
414.752	408.78
415.198	437.01
415.644	422.9
416.09	417.25
416.536	389.01
416.982	507.54
417.428	476.52
417.874	343.81
418.32	386.19
418.766	451.12
419.211	312.72
419.657	394.66
420.103	372.07
420.548	490.62
420.994	538.56
421.439	527.28
421.885	437.01
422.33	476.52
422.776	575.19
423.221	746.85
423.666	549.83
424.111	707.49
424.556	884.46
425.001	876.04
425.446	985.4
425.891	1245.56
426.336	1668.87
426.781	2555.48
427.226	2914.56
427.671	3478.88
428.115	4120.59
428.56	5375.11
429.005	6572.51
429.449	7433.79
429.894	8774.89
430.338	10469.11
430.782	11804.3
431.227	13065.64
431.671	14810.38
432.115	16552.88
432.559	18616.26
433.003	20067.85
433.447	21427.67
433.891	23062.22
434.335	25308.01
434.779	26439.44
435.223	28067.77
435.667	29318.95
436.111	31239.26
436.554	31897.61
436.998	33219.05
437.442	33923.81
437.885	36135.66
438.328	36803.3
438.772	37471.68
439.215	39029.81
439.659	39268.32
440.102	39856.63
440.545	40492.8
440.988	41167.31
441.431	42419.14
441.874	42540.92
442.317	43285.32
442.76	43302.78
443.203	43355.16
443.646	44505.64
444.089	43937.11
444.531	45083.4
444.974	44109.75
445.417	46315.74
445.859	45562.1
446.302	46541.55
446.744	46211.83
447.186	47914.76
447.629	46719.4
448.071	46849.13
448.513	47338.64
448.956	48455.12
449.398	48007.2
449.84	46933.13
450.282	47968.68
450.724	48762.56
451.166	48292.73
451.607	48424.17
452.049	48548.03
452.491	50026.24
452.933	49112.52
453.374	50028.86
453.816	51006.54
454.257	49803.42
454.699	51433.66
455.14	51019.84
455.582	50963.98
456.023	51334.63
456.464	51019.84
456.905	52012.31
457.347	52438.61
457.788	50897.53
458.229	51302.55
458.67	52843.65
459.111	50168.12
459.552	51195.72
459.992	49863.65
460.433	50786.05
460.874	49539.45
461.315	50262.85
461.755	49372.59
462.196	48372.6
462.636	48164.02
463.077	48053.45
463.517	47617.39
463.957	48734.1
464.398	48308.18
464.838	48027.76
465.278	47042.67
465.718	47213.54
466.158	46209.3
466.598	46541.55
467.038	45953.64
467.478	46762.63
467.918	46290.39
468.358	46381.67
468.798	46401.96
469.237	45652.95
469.677	45488.95
470.117	46396.89
470.556	43904.6
470.996	44937.53
471.435	44982.79
471.874	45405.74
472.314	45095.98
472.753	44580.9
473.192	44902.34
473.631	44167.33
474.07	43787.1
474.509	44405.34
474.948	45005.42
475.387	44498.12
475.826	43767.11
476.265	44864.65
476.704	44887.26
477.143	44019.66
477.581	44382.78
478.02	45640.33
478.458	43809.6
478.897	44957.65
479.335	46247.3
479.774	45365.42
480.212	45430.95
480.65	45277.24
481.089	45350.3
481.527	45153.86
481.965	44874.7
482.403	46849.13
482.841	46381.67
483.279	46153.57
483.717	45923.29
484.155	46204.23
484.592	46640.61
485.03	46412.11
485.468	45665.57
485.905	46371.52
486.343	46232.1
486.781	44884.75
487.218	45088.43
487.655	44945.08
488.093	43914.6
488.53	45146.31
488.967	44214.91
489.405	43764.61
489.842	43624.71
490.279	43125.79
490.716	43061.01
491.153	43080.94
491.59	42677.68
492.027	41754.1
492.463	41451.89
492.9	40845.93
493.337	40317.61
493.773	40088.28
494.21	40024.19
494.647	39519.29
495.083	38879.89
495.519	38553.21
495.956	38354.37
496.392	37640.74
496.828	37136.16
497.265	36367.91
497.701	36722.56
498.137	36536.65
498.573	35148.76
499.009	36226.1
499.445	35383.16
499.881	34604.46
500.316	34560.54
500.752	33838.45
501.188	33336.09
501.624	33731.14
502.059	32468.11
502.495	32519.31
502.93	32280.38
503.366	33970.16
503.801	31427.03
504.236	31278.28
504.672	30695.39
505.107	30971
505.542	30151.34
505.977	30285.54
506.412	29614.39
506.847	29812.11
507.282	29406.86
507.717	29323.83
508.152	29221.27
508.587	28336.74
509.021	28133.8
509.456	27534.42
509.891	27620.07
510.325	27470.78
510.76	27145.15
511.194	26812
511.628	26856.11
512.063	26265.34
512.497	26186.85
512.931	25516.8
513.366	25565.92
513.8	25455.4
514.234	24732.77
514.668	24895.08
515.102	25452.94
515.536	24060.82
515.969	24759.82
516.403	23807.06
516.837	23548.23
517.271	23678.89
517.704	22743.69
518.138	22931.38
518.571	22528.75
519.005	22526.28
519.438	22256.83
519.871	21811.5
520.305	21648.11
520.738	21368.21
521.171	20904.61
521.604	21484.65
522.037	20830.18
522.47	20763.19
522.903	19856.53
523.336	19978.36
523.769	19896.32
524.202	19134.75
524.634	19388.76
525.067	19040.08
525.5	18785.84
525.932	18935.41
526.365	18129.56
526.797	17722.26
527.23	17867.24
527.662	17274.48
528.094	17224.41
528.527	16768.51
528.959	16565.42
529.391	16522.78
529.823	15857.47
530.255	15942.9
530.687	15709.16
531.119	15296.59
531.551	14845.67
531.982	14790.21
532.414	14757.43
532.846	14522.84
533.277	13997.49
533.709	13883.71
534.14	13855.89
534.572	13433.19
535.003	13635.76
535.435	13063.11
535.866	13293.83
536.297	12728.06
536.728	13017.44
537.159	12758.53
537.59	12150.82
538.022	12415.45
538.452	12379.84
538.883	11919.02
539.314	11829.8
539.745	11510.88
540.176	11439.38
540.606	11201.72
541.037	11347.41
541.468	10904.9
541.898	11035.45
542.328	10856.24
542.759	10922.82
543.189	10738.39
543.619	10476.81
544.05	10422.91
544.48	10081.18
544.91	9986
545.34	9852.15
545.77	9834.12
546.2	9545.44
546.63	9620.24
547.06	9326.03
547.489	9320.86
547.919	8907.03
548.349	9000.24
548.778	8914.8
549.208	8611.5
549.637	8525.85
550.067	8603.72
550.496	8442.74
550.926	8533.64
551.355	8070.78
551.784	8182.73
552.213	8070.78
552.642	7901.38
553.071	7797.03
553.5	7810.08
553.929	7462.57
554.358	7444.25
554.787	7384.06
555.216	7441.64
555.645	7187.57
556.073	6869.91
556.502	6830.48
556.93	6814.7
557.359	6980.27
557.787	6712.09
558.216	6509.25
558.644	6575.15
559.072	6619.94
559.5	6506.62
559.929	6445.96
560.357	6482.88
560.785	6366.79
561.213	6316.63
561.641	6152.77
562.068	6203.01
562.496	5850.86
562.924	5956.89
563.352	6073.4
563.779	6054.87
564.207	5880.03
564.634	5893.28
565.062	6025.75
565.489	5712.87
565.917	5826.99
566.344	5696.94
566.771	5643.81
567.198	5481.6
567.625	5457.65
568.053	5388.42
568.48	5534.81
568.907	5268.5
569.333	5401.74
569.76	5073.65
570.187	4857.01
570.614	4980.1
571.04	34021.38
571.467	5100.37
571.894	4709.64
572.32	4725.73
572.747	4519.07
573.173	4390.02
573.599	4395.4
574.026	4365.8
574.452	4320.04
574.878	4255.4
575.304	4125.99
575.73	4042.31
576.156	3896.38
576.582	3982.89
577.008	3939.64
577.434	3652.62
577.86	3685.16
578.285	3742.07
578.711	3590.22
579.137	3492.47
579.562	3440.83
579.988	3342.91
580.413	3416.36
580.838	3318.41
581.264	3318.41
581.689	3258.5
582.114	3312.96
582.539	5864.12
582.964	3307.52
583.39	3154.91
583.814	2939.17
584.239	2911.82
584.664	2898.14
585.089	2766.73
585.514	2947.37
585.939	2903.61
586.363	2829.72
586.788	2753.02
587.212	2785.9
587.637	2591.18
588.061	2563.72
588.485	2574.7
588.91	2525.26
589.334	2481.28
589.758	2615.89
590.182	2437.27
590.606	2448.28
591.03	2555.48
591.454	2346.44
591.878	2340.93
592.302	2368.47
592.726	2379.48
593.15	2238.97
593.573	2067.81
593.997	2379.48
594.42	1979.33
594.844	2056.76
595.267	1993.16
595.691	1912.91
596.114	1973.8
596.537	1918.44
596.96	1990.4
597.384	1940.59
597.807	1885.21
598.23	1943.36
598.653	1849.2
599.076	1757.7
599.499	1843.65
599.921	1810.39
600.344	1749.37
600.767	1846.43
601.189	1874.13
601.612	1688.31
602.034	1632.76
602.457	1774.34
602.879	2272.05
603.302	1688.31
603.724	1738.28
604.146	1632.76
604.568	1554.91
604.991	1621.64
605.413	1460.29
605.835	1679.98
606.257	1543.79
606.678	1443.58
607.1	1688.31
607.522	1591.06
607.944	1724.4
608.365	1482.56
608.787	1399
609.209	1627.2
609.63	1429.65
610.051	1357.18
610.473	1429.65
610.894	1426.86
611.315	1334.87
611.737	1454.72
612.158	1407.36
612.579	1343.23
613	1657.76
613.421	1284.64
613.842	1566.04
614.263	1404.57
614.683	1304.18
615.104	1312.55
615.525	1476.99
615.945	1226.01
616.366	1223.21
616.787	1401.78
617.207	1212.04
617.627	1281.85
618.048	1167.32
618.468	1161.73
618.888	1100.2
619.308	1033.03
619.728	1178.5
620.148	1133.77
620.568	1142.16
620.988	1295.81
621.408	1133.77
621.828	1178.5
622.248	1133.77
622.668	1164.53
623.087	1231.59
623.507	1038.63
623.926	1133.77
624.346	1100.2
624.765	1192.48
625.185	974.2
625.604	951.77
626.023	988.21
626.442	982.6
626.861	1128.18
627.28	951.77
627.699	968.59
628.118	847.98
628.537	1041.43
628.956	1114.19
629.375	1063.82
629.794	988.21
630.212	1047.03
630.631	1063.82
631.049	774.96
631.468	946.16
631.886	876.04
632.305	1044.23
632.723	777.77
633.141	842.36
633.559	808.67
633.978	774.96
634.396	920.93
634.814	763.72
635.232	780.58
635.65	859.21
636.067	814.28
636.485	819.9
636.903	673.73
637.321	693.43
637.738	1086.21
638.156	670.92
638.573	656.85
638.991	920.93
639.408	918.12
639.825	625.88
640.243	940.56
640.66	738.42
641.077	763.72
641.494	749.66
641.911	794.62
642.328	805.86
642.745	625.88
643.162	769.34
643.579	715.93
643.995	648.41
644.412	878.85
644.829	642.78
645.245	642.78
645.662	575.19
646.078	699.05
646.495	690.61
646.911	662.48
647.327	887.27
647.743	701.86
648.159	729.98
648.576	569.55
648.992	769.34
649.408	538.56
649.824	603.36
650.239	684.99
650.655	637.15
651.071	547.01
651.487	651.22
651.902	625.88
652.318	634.33
652.733	569.55
653.149	648.41
653.564	572.37
653.979	541.37
654.395	518.82
654.81	580.82
655.225	547.01
655.64	628.7
656.055	532.92
656.47	668.1
656.885	456.77
657.3	535.74
657.715	819.9
658.13	625.88
658.544	558.28
658.959	603.36
659.374	496.26
659.788	628.7
660.202	501.9
660.617	839.56
661.031	569.55
661.445	510.36
661.86	572.37
662.274	772.15
662.688	687.8
663.102	439.84
663.516	642.78
663.93	628.7
664.344	541.37
664.758	544.19
665.171	465.23
665.585	465.23
665.999	459.59
666.412	476.52
666.826	608.99
667.239	614.62
667.653	558.28
668.066	470.88
668.479	845.17
668.892	493.44
669.306	569.55
669.719	530.1
670.132	493.44
670.545	476.52
670.958	437.01
671.37	411.61
671.783	493.44
672.196	555.47
672.609	484.98
673.021	465.23
673.434	456.77
673.846	516
674.259	507.54
674.671	527.28
675.084	451.12
675.496	411.61
675.908	516
676.32	357.94
676.732	453.95
677.144	465.23
677.556	496.26
677.968	493.44
678.38	583.64
678.792	569.55
679.204	411.61
679.615	668.1
680.027	487.8
680.439	448.3
680.85	642.78
681.262	608.99
681.673	439.84
682.084	687.8
682.496	431.37
682.907	476.52
683.318	380.54
683.729	346.64
684.14	408.78
684.551	484.98
684.962	456.77
685.373	420.08
685.784	465.23
686.194	518.82
686.605	431.37
687.016	360.76
687.426	383.36
687.837	281.61
688.247	357.94
688.657	417.25
689.068	544.19
689.478	549.83
689.888	403.13
690.298	425.72
690.708	340.98
691.118	366.42
691.528	324.02
691.938	380.54
692.348	465.23
692.758	439.84
693.168	377.72
693.577	476.52
693.987	414.43
694.396	422.9
694.806	403.13
695.215	372.07
695.625	479.34
696.034	470.88
696.443	343.81
696.852	583.64
697.262	318.37
697.671	411.61
698.08	425.72
698.489	468.05
698.897	329.68
699.306	292.92
699.715	405.96
700.124	380.54
700.532	434.19
700.941	372.07
701.35	340.98
701.758	679.36
702.166	357.94
702.575	411.61
702.983	307.06
703.391	309.89
703.799	360.76
704.208	442.66
704.616	275.95
705.024	535.74
705.432	417.25
705.839	312.72
706.247	473.7
706.655	715.93
707.063	377.72
707.47	307.06
707.878	295.75
708.285	352.29
708.693	338.16
709.1	417.25
709.508	383.36
709.915	422.9
710.322	473.7
710.729	769.34
711.136	465.23
711.543	329.68
711.95	366.42
712.357	504.72
712.764	349.46
713.171	343.81
713.578	377.72
713.984	405.96
714.391	278.78
714.797	199.54
715.204	349.46
715.61	507.54
716.017	324.02
716.423	470.88
716.829	374.89
717.236	431.37
717.642	335.33
718.048	504.72
718.454	403.13
718.86	372.07
719.266	637.15
719.671	301.41
720.077	408.78
720.483	346.64
720.889	623.07
721.294	292.92
721.7	346.64
722.105	479.34
722.511	369.24
722.916	411.61
723.321	414.43
723.726	504.72
724.132	298.58
724.537	431.37
724.942	479.34
725.347	397.49
725.752	403.13
726.156	372.07
726.561	321.2
726.966	394.66
727.371	484.98
727.775	487.8
728.18	335.33
728.584	366.42
728.989	369.24
729.393	786.19
729.798	417.25
730.202	470.88
730.606	355.11
731.01	318.37
731.414	340.98
731.818	244.83
732.222	301.41
732.626	411.61
733.03	411.61
733.434	372.07
733.837	527.28
734.241	363.59
734.645	349.46
735.048	304.23
735.452	386.19
735.855	386.19
736.258	253.32
736.662	600.54
737.065	532.92
737.468	507.54
737.871	326.85
738.274	535.74
738.677	394.66
739.08	253.32
739.483	357.94
739.886	425.72
740.289	439.84
740.691	335.33
741.094	338.16
741.497	363.59
741.899	549.83
742.302	295.75
742.704	301.41
743.106	318.37
743.508	400.31
743.911	408.78
744.313	411.61
744.715	346.64
745.117	349.46
745.519	309.89
745.921	468.05
746.323	360.76
746.724	210.87
747.126	239.17
747.528	434.19
747.929	145.72
748.331	369.24
748.732	363.59
749.134	372.07
749.535	242
749.936	544.19
750.338	335.33
750.739	434.19
751.14	312.72
751.541	326.85
751.942	338.16
752.343	307.06
752.744	315.54
753.144	352.29
753.545	335.33
753.946	403.13
754.346	332.5
754.747	448.3
755.148	940.56
755.548	244.83
755.948	352.29
756.349	258.98
756.749	420.08
757.149	270.3
757.549	408.78
757.949	400.31
758.349	301.41
758.749	264.64
759.149	386.19
759.549	309.89
759.949	338.16
760.348	634.33
760.748	372.07
761.148	292.92
761.547	343.81
761.947	324.02
762.346	473.7
762.745	645.59
763.145	352.29
763.544	445.48
763.943	369.24
764.342	346.64
764.741	383.36
765.14	428.54
765.539	338.16
765.938	549.83
766.336	267.47
766.735	318.37
767.134	284.44
767.532	329.68
767.931	329.68
768.329	606.17
768.728	360.76
769.126	287.27
769.525	530.1
769.923	411.61
770.321	420.08
770.719	431.37
771.117	479.34
771.515	386.19
771.913	451.12
772.311	338.16
772.709	349.46
773.106	315.54
773.504	247.66
773.902	352.29
774.299	340.98
774.697	769.34
775.094	420.08
775.491	278.78
775.889	383.36
776.286	281.61
776.683	275.95
777.08	315.54
777.477	290.1
777.874	532.92
778.271	307.06
778.668	304.23
779.065	329.68
779.462	357.94
779.858	253.32
780.255	445.48
780.652	346.64
781.048	507.54
781.444	369.24
781.841	287.27
782.237	309.89
782.633	369.24
783.03	267.47
783.426	335.33
783.822	309.89
784.218	270.3
784.614	324.02
785.01	222.19
785.405	335.33
785.801	321.2
786.197	363.59
786.593	374.89
786.988	437.01
787.384	465.23
787.779	343.81
788.174	372.07
788.57	360.76
788.965	295.75
789.36	298.58
789.755	338.16
790.15	312.72
790.545	301.41
790.94	315.54
791.335	287.27
791.73	369.24
792.125	482.16
792.52	403.13
792.914	363.59
793.309	355.11
793.703	403.13
794.098	284.44
794.492	403.13
794.887	292.92
795.281	563.92
795.675	470.88
796.069	558.28
796.463	352.29
796.857	284.44
797.251	391.84
797.645	273.12
798.039	428.54
798.433	332.5
798.826	258.98
799.22	380.54
799.614	411.61
800.007	391.84
800.401	355.11
800.794	273.12
801.187	324.02
801.581	281.61
801.974	369.24
802.367	468.05
802.76	321.2
803.153	346.64
803.546	284.44
803.939	335.33
804.332	174.05
804.725	394.66
805.117	380.54
805.51	451.12
805.903	267.47
806.295	355.11
806.688	278.78
807.08	357.94
807.472	403.13
807.865	374.89
808.257	355.11
808.649	431.37
809.041	391.84
809.433	420.08
809.825	648.41
810.217	315.54
810.609	292.92
811.001	335.33
811.392	281.61
811.784	456.77
812.175	420.08
812.567	425.72
812.958	301.41
813.35	357.94
813.741	343.81
814.132	428.54
814.524	397.49
814.915	391.84
815.306	295.75
815.697	321.2
816.088	357.94
816.479	451.12
816.87	369.24
817.26	473.7
817.651	530.1
818.042	397.49
818.432	442.66
818.823	431.37
819.213	470.88
819.604	335.33
819.994	389.01
820.384	349.46
820.775	394.66
821.165	352.29
821.555	357.94
821.945	360.76
822.335	165.55
822.725	420.08
823.114	372.07
823.504	312.72
823.894	222.19
824.284	397.49
824.673	332.5
825.063	233.51
825.452	301.41
825.842	386.19
826.231	659.66
826.62	304.23
827.009	403.13
827.399	504.72
827.788	372.07
828.177	315.54
828.566	363.59
828.954	690.61
829.343	340.98
829.732	295.75
830.121	690.61
830.509	456.77
830.898	292.92
831.286	315.54
831.675	389.01
832.063	389.01
832.452	270.3
832.84	233.51
833.228	561.1
833.616	332.5
834.004	484.98
834.392	374.89
834.78	493.44
835.168	329.68
835.556	451.12
835.944	380.54
836.331	343.81
836.719	442.66
837.107	394.66
837.494	527.28
837.881	324.02
838.269	287.27
838.656	343.81
839.043	307.06
839.431	628.7
839.818	267.47
840.205	309.89
840.592	372.07
840.979	275.95
841.366	278.78
841.752	346.64
842.139	338.16
842.526	363.59
842.912	451.12
843.299	414.43
843.685	459.59
844.072	391.84
844.458	332.5
844.844	363.59
845.231	312.72
845.617	295.75
846.003	369.24
846.389	372.07
846.775	315.54
847.161	369.24
847.547	292.92
847.933	369.24
848.318	403.13
848.704	250.49
849.09	261.81
849.475	256.15
849.861	448.3
850.246	318.37
850.631	541.37
851.017	360.76
851.402	374.89
851.787	386.19
852.172	530.1
852.557	453.95
852.942	380.54
853.327	304.23
853.712	422.9
854.097	397.49
854.481	236.34
854.866	510.36
855.25	391.84
855.635	332.5
856.019	309.89
856.404	295.75
856.788	377.72
857.172	324.02
857.557	439.84
857.941	366.42
858.325	270.3
858.709	264.64
859.093	352.29
859.477	295.75
859.86	490.62
860.244	357.94
860.628	614.62
861.012	422.9
861.395	383.36
861.779	275.95
862.162	397.49
862.545	191.05
862.929	309.89
863.312	487.8
863.695	270.3
864.078	383.36
864.461	329.68
864.844	451.12
865.227	400.31
865.61	301.41
865.993	256.15
866.376	355.11
866.758	453.95
867.141	462.41
867.523	397.49
867.906	290.1
868.288	400.31
868.671	405.96
869.053	307.06
869.435	389.01
869.817	476.52
870.199	332.5
870.581	544.19
870.963	355.11
871.345	434.19
871.727	321.2
872.109	321.2
872.491	338.16
872.872	377.72
873.254	332.5
873.635	213.7
874.017	428.54
874.398	352.29
874.779	456.77
875.161	315.54
875.542	453.95
875.923	374.89
876.304	247.66
876.685	304.23
877.066	244.83
877.447	281.61
877.828	309.89
878.208	437.01
878.589	420.08
878.97	578.01
879.35	307.06
879.731	264.64
880.111	261.81
880.491	389.01
880.872	439.84
881.252	287.27
881.632	355.11
882.012	343.81
882.392	744.04
882.772	521.64
883.152	326.85
883.532	332.5
883.912	445.48
884.291	307.06
884.671	332.5
885.051	414.43
885.43	315.54
885.81	366.42
886.189	360.76
886.568	366.42
886.948	290.1
887.327	544.19
887.706	292.92
888.085	521.64
888.464	366.42
888.843	668.1
889.222	496.26
889.601	532.92
889.979	434.19
890.358	394.66
890.737	394.66
891.115	442.66
891.494	349.46
891.872	292.92
892.25	295.75
892.629	516
893.007	558.28
893.385	312.72
893.763	346.64
894.141	343.81
894.519	386.19
894.897	349.46
895.275	391.84
895.653	244.83
896.03	394.66
896.408	394.66
896.786	250.49
897.163	278.78
897.541	357.94
897.918	544.19
898.295	273.12
898.673	321.2
899.05	346.64
899.427	1027.42
899.804	422.9
900.181	309.89
900.558	547.01
900.935	510.36
901.312	292.92
901.688	270.3
902.065	343.81
902.442	264.64
902.818	338.16
903.195	295.75
903.571	369.24
903.947	258.98
904.324	321.2
904.7	329.68
905.076	507.54
905.452	318.37
905.828	499.08
906.204	355.11
906.58	304.23
906.956	403.13
907.331	507.54
907.707	456.77
908.083	456.77
908.458	369.24
908.834	307.06
909.209	363.59
909.585	326.85
909.96	439.84
910.335	340.98
910.71	338.16
911.086	400.31
911.461	510.36
911.836	380.54
912.21	264.64
912.585	363.59
912.96	394.66
913.335	275.95
913.709	307.06
914.084	253.32
914.459	428.54
914.833	357.94
915.207	281.61
915.582	326.85
915.956	326.85
916.33	357.94
916.704	273.12
917.078	442.66
917.452	420.08
917.826	329.68
918.2	290.1
918.574	332.5
918.948	321.2
919.321	281.61
919.695	321.2
920.068	352.29
920.442	355.11
920.815	332.5
921.189	261.81
921.562	535.74
921.935	468.05
922.308	270.3
922.681	417.25
923.054	372.07
923.427	451.12
923.8	287.27
924.173	374.89
924.546	261.81
924.919	403.13
925.291	267.47
925.664	338.16
926.036	242
926.409	405.96
926.781	284.44
927.153	363.59
927.526	499.08
927.898	208.03
928.27	295.75
928.642	360.76
929.014	321.2
929.386	321.2
929.758	185.38
930.129	377.72
930.501	493.44
930.873	349.46
931.244	326.85
931.616	287.27
931.987	304.23
932.359	437.01
932.73	335.33
933.101	448.3
933.472	349.46
933.843	459.59
934.214	538.56
934.585	307.06
934.956	222.19
935.327	836.75
935.698	312.72
936.069	442.66
936.439	321.2
936.81	357.94
937.18	411.61
937.551	363.59
937.921	451.12
938.292	355.11
938.662	290.1
939.032	417.25
939.402	360.76
939.772	414.43
940.142	355.11
940.512	261.81
940.882	278.78
941.252	431.37
941.621	318.37
941.991	332.5
942.361	468.05
942.73	324.02
943.1	185.38
943.469	236.34
943.838	484.98
944.208	484.98
944.577	261.81
944.946	422.9
945.315	250.49
945.684	329.68
946.053	318.37
946.422	309.89
946.791	338.16
947.159	321.2
947.528	315.54
947.897	411.61
948.265	349.46
948.634	504.72
949.002	208.03
949.371	340.98
949.739	321.2
950.107	459.59
950.475	273.12
950.843	360.76
951.211	490.62
951.579	417.25
951.947	307.06
952.315	372.07
952.683	335.33
953.05	225.02
953.418	324.02
953.785	456.77
954.153	205.2
954.52	374.89
954.888	335.33
955.255	216.53
955.622	258.98
955.989	315.54
956.356	451.12
956.723	273.12
957.09	422.9
957.457	391.84
957.824	301.41
958.191	301.41
958.557	377.72
958.924	349.46
959.291	312.72
959.657	312.72
960.023	718.74
960.39	326.85
960.756	352.29
961.122	414.43
961.488	307.06
961.855	301.41
962.221	244.83
962.586	225.02
962.952	561.1
963.318	445.48
963.684	673.73
964.05	532.92
964.415	357.94
964.781	312.72
965.146	213.7
965.512	544.19
965.877	744.04
966.242	267.47
966.608	278.78
966.973	205.2
967.338	298.58
967.703	357.94
968.068	216.53
968.433	465.23
968.797	541.37
969.162	264.64
969.527	335.33
969.891	225.02
970.256	309.89
970.62	369.24
970.985	219.36
971.349	414.43
971.714	386.19
972.078	405.96
972.442	380.54
972.806	490.62
973.17	391.84
973.534	315.54
973.898	284.44
974.262	284.44
974.625	541.37
974.989	301.41
975.353	482.16
975.716	298.58
976.08	366.42
976.443	284.44
976.806	363.59
977.17	295.75
977.533	394.66
977.896	321.2
978.259	355.11
978.622	906.91
978.985	349.46
979.348	290.1
979.711	326.85
980.073	338.16
980.436	321.2
980.799	340.98
981.161	397.49
981.524	352.29
981.886	307.06
982.248	383.36
982.611	355.11
982.973	304.23
983.335	292.92
983.697	372.07
984.059	324.02
984.421	315.54
984.783	329.68
985.145	205.2
985.506	324.02
985.868	250.49
986.23	363.59
986.591	236.34
986.953	462.41
987.314	233.51
987.675	213.7
988.037	17999.67
988.398	819.9
988.759	437.01
989.12	414.43
989.481	420.08
989.842	309.89
990.203	301.41
990.564	307.06
990.924	403.13
991.285	15311.69
991.646	744.04
992.006	284.44
992.367	366.42
992.727	335.33
993.087	315.54
993.448	307.06
993.808	434.19
994.168	309.89
994.528	261.81
994.888	380.54
995.248	451.12
995.608	366.42
995.967	281.61
996.327	287.27
996.687	329.68
997.046	278.78
997.406	326.85
997.765	267.47
998.125	309.89
998.484	242
998.843	493.44
999.202	256.15
999.561	290.1
999.92	236.34
1000.279	343.81
1000.638	295.75
1000.997	380.54
1001.356	329.68
1001.715	267.47
1002.073	281.61
1002.432	445.48
1002.79	324.02
1003.149	270.3
1003.507	442.66
1003.865	329.68
1004.224	338.16
1004.582	408.78
1004.94	386.19
1005.298	292.92
1005.656	145.72
1006.014	301.41
1006.371	360.76
1006.729	208.03
1007.087	549.83
1007.445	403.13
1007.802	408.78
1008.16	244.83
1008.517	349.46
1008.874	431.37
1009.232	250.49
1009.589	1024.62
1009.946	397.49
1010.303	307.06
1010.66	434.19
1011.017	400.31
1011.374	487.8
1011.731	304.23
1012.087	275.95
1012.444	343.81
1012.801	298.58
1013.157	174.05
1013.513	244.83
1013.87	428.54
1014.226	343.81
1014.582	394.66
1014.939	264.64
1015.295	340.98
1015.651	216.53
1016.007	219.36
1016.363	420.08
1016.719	253.32
1017.074	360.76
1017.43	321.2
1017.786	389.01
1018.141	355.11
1018.497	270.3
1018.852	397.49
1019.208	389.01
1019.563	236.34
1019.918	264.64
1020.273	307.06
1020.628	326.85
1020.983	355.11
1021.338	312.72
1021.693	462.41
1022.048	253.32
1022.403	227.85
1022.757	338.16
1023.112	363.59
1023.467	267.47
1023.821	275.95
1024.175	253.32
1024.53	284.44
1024.884	225.02
1025.238	318.37
1025.592	343.81
1025.946	225.02
1026.3	213.7
1026.654	261.81
1027.008	208.03
1027.362	332.5
1027.716	295.75
1028.069	295.75
1028.423	389.01
1028.777	230.68
1029.13	292.92
1029.483	332.5
1029.837	343.81
1030.19	258.98
1030.543	298.58
1030.896	340.98
1031.249	315.54
1031.602	225.02
1031.955	363.59
1032.308	304.23
1032.661	541.37
1033.013	307.06
1033.366	295.75
1033.719	253.32
1034.071	324.02
1034.424	295.75
1034.776	270.3
1035.128	292.92
1035.48	219.36
1035.833	465.23
1036.185	242
1036.537	242
1036.889	242
