Data from SCSF78-irradiation_FLMS019251_10-03-38-062.txt Node
Date: Fri Feb 08 10:03:38 CET 2019
User: luk
Spectrometer: FLMS01925
Trigger mode: 0
Integration Time (sec): 2.154980E0
Scans to average: 1
Electric dark correction enabled: true
Nonlinearity correction enabled: true
Boxcar width: 0
XAxis mode: Wavelengths
Number of Pixels in Spectrum: 2048
>>>>>Begin Spectral Data<<<<<
187.103	-274.67
187.574	-274.67
188.045	-274.67
188.516	-283.22
188.987	-21.47
189.458	-78.3
189.929	-212
190.4	-27.15
190.871	-177.84
191.342	-98.2
191.813	-126.63
192.284	83.53
192.754	-89.67
193.225	38.14
193.696	-18.63
194.166	63.68
194.637	72.19
195.107	242.18
195.578	100.55
196.048	140.23
196.518	86.37
196.989	140.23
197.459	196.89
197.929	177.06
198.399	535.91
198.869	245.01
199.339	276.13
199.809	247.84
200.279	499.26
200.749	327.03
201.219	465.41
201.689	423.07
202.159	318.55
202.628	310.07
203.098	431.54
203.568	270.47
204.037	423.07
204.507	383.54
204.976	445.66
205.445	366.59
205.915	408.96
206.384	434.37
206.853	425.9
207.323	496.44
207.792	332.68
208.261	400.49
208.73	343.99
209.199	482.34
209.668	414.61
210.137	530.27
210.606	462.59
211.075	440.01
211.543	369.42
212.012	533.09
212.481	290.27
212.95	386.37
213.418	634.51
213.887	425.9
214.355	558.46
214.824	403.31
215.292	338.33
215.76	366.59
216.229	324.2
216.697	377.89
217.165	380.72
217.633	380.72
218.101	468.23
218.569	820.08
219.037	530.27
219.505	662.65
219.973	448.48
220.441	270.47
220.909	386.37
221.377	454.12
221.844	397.66
222.312	346.81
222.78	386.37
223.247	315.72
223.715	276.13
224.182	411.78
224.65	521.82
225.117	485.16
225.584	363.77
226.052	343.99
226.519	366.59
226.986	417.43
227.453	358.12
227.92	366.59
228.387	490.8
228.854	377.89
229.321	273.3
229.788	493.62
230.255	502.08
230.722	513.36
231.189	440.01
231.655	394.84
232.122	493.62
232.589	406.13
233.055	276.13
233.522	583.82
233.988	335.51
234.454	442.83
234.921	369.42
235.387	564.1
235.853	397.66
236.32	295.93
236.786	349.64
237.252	369.42
237.718	685.16
238.184	343.99
238.65	383.54
239.116	414.61
239.582	329.86
240.047	358.12
240.513	445.66
240.979	375.07
241.445	261.99
241.91	293.1
242.376	335.51
242.841	445.66
243.307	349.64
243.772	242.18
244.238	386.37
244.703	465.41
245.168	366.59
245.633	363.77
246.099	276.13
246.564	417.43
247.029	423.07
247.494	349.64
247.959	372.24
248.424	360.94
248.889	295.93
249.353	423.07
249.818	318.55
250.283	363.77
250.748	312.89
251.212	445.66
251.677	383.54
252.141	372.24
252.606	338.33
253.07	386.37
253.535	321.37
253.999	392.01
254.463	261.99
254.927	324.2
255.392	377.89
255.856	377.89
256.32	318.55
256.784	247.84
257.248	465.41
257.712	473.87
258.176	592.27
258.64	406.13
259.103	425.9
259.567	360.94
260.031	256.33
260.495	479.52
260.958	493.62
261.422	487.98
261.885	459.77
262.349	352.46
262.812	259.16
263.275	358.12
263.739	485.16
264.202	510.54
264.665	400.49
265.128	346.81
265.591	448.48
266.054	318.55
266.517	519
266.98	394.84
267.443	295.93
267.906	222.37
268.369	338.33
268.832	448.48
269.294	307.24
269.757	338.33
270.22	341.16
270.682	380.72
271.145	386.37
271.607	394.84
272.07	752.65
272.532	349.64
272.994	414.61
273.456	479.52
273.919	1446.53
274.381	335.51
274.843	662.65
275.305	578.18
275.767	360.94
276.229	420.25
276.691	420.25
277.153	307.24
277.614	434.37
278.076	307.24
278.538	445.66
279	338.33
279.461	372.24
279.923	1142.34
280.384	338.33
280.846	349.64
281.307	358.12
281.769	414.61
282.23	434.37
282.691	527.46
283.152	329.86
283.613	403.31
284.075	329.86
284.536	479.52
284.997	459.77
285.458	349.64
285.918	375.07
286.379	473.87
286.84	524.64
287.301	335.51
287.762	442.83
288.222	400.49
288.683	386.37
289.143	406.13
289.604	425.9
290.064	389.19
290.525	400.49
290.985	727.35
291.445	482.34
291.906	318.55
292.366	338.33
292.826	389.19
293.286	440.01
293.746	369.42
294.206	519
294.666	476.69
295.126	434.37
295.586	290.27
296.046	307.24
296.506	341.16
296.965	372.24
297.425	327.03
297.884	550.01
298.344	389.19
298.804	428.72
299.263	504.9
299.722	312.89
300.182	499.26
300.641	315.72
301.1	346.81
301.559	448.48
302.019	352.46
302.478	383.54
302.937	369.42
303.396	448.48
303.855	735.78
304.314	372.24
304.772	1089.19
305.231	369.42
305.69	487.98
306.149	400.49
306.607	386.37
307.066	386.37
307.524	448.48
307.983	451.3
308.441	541.55
308.9	626.06
309.358	321.37
309.816	718.91
310.275	437.19
310.733	341.16
311.191	366.59
311.649	485.16
312.107	572.55
312.565	375.07
313.023	468.23
313.481	349.64
313.939	392.01
314.397	352.46
314.854	355.29
315.312	304.41
315.77	516.18
316.227	392.01
316.685	259.16
317.142	355.29
317.6	527.46
318.057	516.18
318.514	346.81
318.972	425.9
319.429	552.82
319.886	442.83
320.343	335.51
320.8	329.86
321.257	414.61
321.714	521.82
322.171	631.69
322.628	397.66
323.085	428.72
323.542	329.86
323.998	372.24
324.455	352.46
324.912	360.94
325.368	408.96
325.825	552.82
326.281	346.81
326.738	490.8
327.194	324.2
327.65	423.07
328.107	375.07
328.563	459.77
329.019	400.49
329.475	499.26
329.931	496.44
330.387	490.8
330.843	335.51
331.299	383.54
331.755	349.64
332.211	324.2
332.666	406.13
333.122	245.01
333.578	403.31
334.033	312.89
334.489	493.62
334.944	290.27
335.4	763.89
335.855	696.41
336.31	375.07
336.766	397.66
337.221	341.16
337.676	312.89
338.131	420.25
338.586	513.36
339.041	343.99
339.496	490.8
339.951	465.41
340.406	389.19
340.861	327.03
341.316	434.37
341.771	451.3
342.225	366.59
342.68	456.94
343.134	408.96
343.589	389.19
344.043	442.83
344.498	411.78
344.952	524.64
345.406	3479.05
345.861	479.52
346.315	281.79
346.769	360.94
347.223	304.41
347.677	383.54
348.131	298.76
348.585	318.55
349.039	369.42
349.493	408.96
349.947	454.12
350.401	377.89
350.854	406.13
351.308	589.45
351.762	270.47
352.215	541.55
352.669	321.37
353.122	312.89
353.575	366.59
354.029	352.46
354.482	375.07
354.935	411.78
355.388	442.83
355.842	423.07
356.295	507.72
356.748	281.79
357.201	451.3
357.654	547.19
358.106	349.64
358.559	346.81
359.012	397.66
359.465	386.37
359.917	468.23
360.37	358.12
360.823	392.01
361.275	490.8
361.728	406.13
362.18	535.91
362.632	454.12
363.085	307.24
363.537	428.72
363.989	386.37
364.441	372.24
364.893	423.07
365.345	298.76
365.797	250.67
366.249	451.3
366.701	358.12
367.153	406.13
367.605	281.79
368.057	332.68
368.508	341.16
368.96	307.24
369.411	369.42
369.863	380.72
370.314	417.43
370.766	451.3
371.217	434.37
371.669	476.69
372.12	662.65
372.571	521.82
373.022	346.81
373.473	406.13
373.924	456.94
374.375	369.42
374.826	496.44
375.277	454.12
375.728	358.12
376.179	293.1
376.63	369.42
377.08	741.41
377.531	332.68
377.981	369.42
378.432	538.73
378.883	673.91
379.333	403.31
379.783	338.33
380.234	425.9
380.684	454.12
381.134	538.73
381.584	527.46
382.034	578.18
382.485	397.66
382.935	338.33
383.385	533.09
383.834	352.46
384.284	434.37
384.734	332.68
385.184	499.26
385.634	411.78
386.083	423.07
386.533	372.24
386.982	502.08
387.432	507.72
387.881	287.44
388.331	366.59
388.78	606.35
389.229	355.29
389.679	273.3
390.128	535.91
390.577	417.43
391.026	442.83
391.475	389.19
391.924	343.99
392.373	372.24
392.822	510.54
393.27	434.37
393.719	389.19
394.168	304.41
394.617	487.98
395.065	423.07
395.514	490.8
395.962	490.8
396.411	414.61
396.859	389.19
397.307	676.72
397.756	417.43
398.204	366.59
398.652	476.69
399.1	456.94
399.548	465.41
399.996	718.91
400.444	541.55
400.892	389.19
401.34	468.23
401.788	372.24
402.236	380.72
402.683	442.83
403.131	479.52
403.579	451.3
404.026	414.61
404.474	375.07
404.921	502.08
405.369	428.72
405.816	352.46
406.263	392.01
406.71	535.91
407.158	327.03
407.605	341.16
408.052	513.36
408.499	572.55
408.946	507.72
409.393	442.83
409.84	383.54
410.286	406.13
410.733	454.12
411.18	471.05
411.626	648.58
412.073	550.01
412.52	533.09
412.966	710.48
413.413	611.98
413.859	676.72
414.305	735.78
414.752	879.03
415.198	1038.8
415.644	1510.57
416.09	1702.37
416.536	2148.08
416.982	2607.83
417.428	3168.72
417.874	3804.54
418.32	4578.33
418.766	5747.55
419.211	6725.42
419.657	7606.55
420.103	8992.63
420.548	10024.75
420.994	11743.26
421.439	13063.26
421.885	14530.57
422.33	16241.9
422.776	17634.9
423.221	19012.82
423.666	20373.6
424.111	22266.87
424.556	23511.39
425.001	24978.83
425.446	26613.65
425.891	27652.04
426.336	28742.62
426.781	31115.04
427.226	32212.27
427.671	33077.78
428.115	33331.36
428.56	35393.08
429.005	36214.03
429.449	36960.07
429.894	38619.66
430.338	39519.44
430.782	39295.53
431.227	40522.57
431.671	40769.5
432.115	41469.37
432.559	43215.67
433.003	42588.31
433.447	43143.39
433.891	43572.43
434.335	44433.08
434.779	44385.44
435.223	44520.85
435.667	45003.07
436.111	47257.09
436.554	44892.45
436.998	44726.64
437.442	44975.4
437.885	45913.33
438.328	45592.53
438.772	45736.44
439.215	46437.64
439.659	45496.67
440.102	45804.64
440.545	45875.41
440.988	45489.1
441.431	46790.77
441.874	46090.43
442.317	46356.47
442.76	46123.34
443.203	45920.92
443.646	46095.49
444.089	45852.66
444.531	46328.57
444.974	44578.55
445.417	47065.77
445.859	45885.52
446.302	46635.69
446.744	46072.71
447.186	47827.68
447.629	46617.9
448.071	46351.39
448.513	46255.06
448.956	47535.65
449.398	47292.83
449.84	45716.23
450.282	46244.93
450.724	47177.98
451.166	46729.73
451.607	46851.83
452.049	46658.56
452.491	47745.63
452.933	47479.38
453.374	48120.46
453.816	48470.76
454.257	47791.78
454.699	48432.07
455.14	48949.21
455.582	47909.79
456.023	48698.06
456.464	48455.28
456.905	49086.71
457.347	49706.78
457.788	48370.19
458.229	48243.96
458.67	49599.65
459.111	47333.69
459.552	48125.6
459.992	47264.75
460.433	47540.77
460.874	46037.28
461.315	46856.92
461.755	46138.54
462.196	44581.06
462.636	44812.04
463.077	45300.07
463.517	44741.71
463.957	45103.69
464.398	44864.8
464.838	44272.68
465.278	43250.57
465.718	43552.45
466.158	42759.92
466.598	43195.73
467.038	42419.3
467.478	43028.78
467.918	42792.27
468.358	42650.48
468.798	42180.88
469.237	41888.12
469.677	42466.51
470.117	42223.08
470.556	40140.2
470.996	41466.9
471.435	41177.36
471.874	41818.7
472.314	41568.43
472.753	40409.05
473.192	40823.85
473.631	40586.76
474.07	40298.03
474.509	40480.61
474.948	41110.58
475.387	40310.36
475.826	39822.3
476.265	41184.78
476.704	41058.65
477.143	40646.01
477.581	40423.85
478.02	41677.43
478.458	40362.17
478.897	40932.58
479.335	42334.83
479.774	41419.86
480.212	41677.43
480.65	41979.88
481.089	41244.15
481.527	40638.6
481.965	40816.44
482.403	41950.12
482.841	42503.79
483.279	42183.36
483.717	41781.52
484.155	41717.08
484.592	42200.74
485.03	42396.94
485.468	40910.33
485.905	41868.28
486.343	41890.6
486.781	40818.91
487.218	40972.12
487.655	40769.5
488.093	39553.9
488.53	41115.52
488.967	39893.74
489.405	39768.11
489.842	39691.77
490.279	39052.09
490.716	38929.19
491.153	39226.66
491.59	38612.29
492.027	37765.88
492.463	37545.33
492.9	36823.03
493.337	36294.71
493.773	36409.63
494.21	36424.3
494.647	35825.44
495.083	34990.23
495.519	35009.76
495.956	34585.09
496.392	34470.41
496.828	33438.65
497.265	33309.42
497.701	33294.79
498.137	32804.71
498.573	32265.91
499.009	32353.67
499.445	31978.22
499.881	31419.86
500.316	31734.4
500.752	30666.27
501.188	30329.61
501.624	30297.89
502.059	29323.99
502.495	29282.47
502.93	29172.57
503.366	31561.29
503.801	28332
504.236	28505.56
504.672	27774.38
505.107	27789.06
505.542	27517.44
505.977	27025.29
506.412	27076.73
506.847	26745.99
507.282	26307.18
507.717	26184.55
508.152	26439.6
508.587	25659.38
509.021	25411.34
509.456	24826.38
509.891	24804.25
510.325	24764.9
510.76	24467.21
511.194	24280.14
511.628	24272.75
512.063	23639.6
512.497	23693.84
512.931	23091.99
513.366	23062.38
513.8	23205.52
514.234	22780.9
514.668	22269.35
515.102	22561.03
515.536	21734.92
515.969	21885.91
516.403	21524.43
516.837	21108.11
517.271	21502.14
517.704	20611.96
518.138	20539.97
518.571	20463
519.005	20090.37
519.438	20033.21
519.871	19841.77
520.305	19232.05
520.738	19124.94
521.171	18848.33
521.604	19027.77
522.037	18783.5
522.47	18421.81
522.903	18124.72
523.336	17974.84
523.769	17684.91
524.202	17512.35
524.634	16921.53
525.067	17086.85
525.5	16871.42
525.932	17161.98
526.365	16525.45
526.797	16284.58
527.23	16156.54
527.662	15747.03
528.094	15626.34
528.527	15498.06
528.959	14707.15
529.391	14984.45
529.823	14437.18
530.255	14492.71
530.687	14331.15
531.119	13944.56
531.551	13891.45
531.982	13182.46
532.414	13509.33
532.846	13220.49
533.277	12842.49
533.709	12578.31
534.14	12557.98
534.572	12410.52
535.003	12255.34
535.435	11939.56
535.866	11908.98
536.297	11362.9
536.728	11860.55
537.159	11414
537.59	11045.84
538.022	11454.86
538.452	11503.38
538.883	11099.57
539.314	10577.02
539.745	10217.59
540.176	10633.44
540.606	10248.43
541.037	10215.02
541.468	10101.91
541.898	9818.83
542.328	9615.24
542.759	9576.56
543.189	9357.18
543.619	9393.34
544.05	9339.11
544.48	9331.36
544.91	9103.9
545.34	9015.93
545.77	8759.5
546.2	8673.93
546.63	8738.76
547.06	8370.15
547.489	8409.13
547.919	8003.2
548.349	8018.84
548.778	8195.9
549.208	7854.59
549.637	7750.21
550.067	7828.51
550.496	7716.27
550.926	7543.81
551.355	7376.37
551.784	7365.89
552.213	7158.89
552.642	6898.99
553.071	7195.6
553.5	6843.79
553.929	6817.49
554.358	6696.47
554.787	6525.24
555.216	6699.1
555.645	6554.23
556.073	6335.28
556.502	6332.64
556.93	6078.86
557.359	6129.13
557.787	6150.29
558.216	5707.72
558.644	5938.5
559.072	6028.56
559.5	5864.28
559.929	5816.54
560.357	5991.49
560.785	5742.24
561.213	5707.72
561.641	5657.26
562.068	5951.75
562.496	5524.34
562.924	5287.33
563.352	5476.45
563.779	5441.85
564.207	5508.38
564.634	5401.91
565.062	5399.24
565.489	5180.63
565.917	5135.25
566.344	5041.75
566.771	5079.16
567.198	5092.52
567.625	4763.42
568.053	4891.98
568.48	4800.94
568.907	4750.02
569.333	4790.22
569.76	4489.68
570.187	4554.16
570.614	4626.65
571.04	35459.02
571.467	4830.4
571.894	4309.44
572.32	4234.01
572.747	4185.49
573.173	4104.57
573.599	3920.88
574.026	4020.88
574.452	4010.07
574.878	3899.25
575.304	3772.04
575.73	3842.43
576.156	3614.81
576.582	3652.79
577.008	3565.96
577.434	3484.48
577.86	3275.01
578.285	3465.46
578.711	3332.19
579.137	3435.56
579.562	3176.9
579.988	3171.45
580.413	3261.39
580.838	3007.67
581.264	3015.87
581.689	3100.52
582.114	3032.26
582.539	6147.64
582.964	2813.46
583.39	2936.61
583.814	2788.81
584.239	2791.55
584.664	2725.79
585.089	2577.62
585.514	2783.34
585.939	2627.04
586.363	2522.68
586.788	2528.17
587.212	2464.95
587.637	2360.38
588.061	2374.15
588.485	2398.92
588.91	2313.56
589.334	2244.65
589.758	2385.16
590.182	2357.63
590.606	2233.62
591.03	2299.78
591.454	2272.22
591.878	2137.04
592.302	2079.04
592.726	2255.68
593.15	2018.23
593.573	2076.27
593.997	2189.48
594.42	1902
594.844	1913.08
595.267	2054.16
595.691	1899.23
596.114	1890.92
596.537	1868.76
596.96	1968.44
597.384	1744
597.807	1865.99
598.23	1802.25
598.653	1802.25
599.076	1713.47
599.499	1788.38
599.921	1588.46
600.344	1657.93
600.767	1757.87
601.189	1807.79
601.612	1621.81
602.034	1527.27
602.457	1635.71
602.879	2299.78
603.302	1699.59
603.724	1549.52
604.146	1546.74
604.568	1513.35
604.991	1479.95
605.413	1477.17
605.835	1735.67
606.257	1524.49
606.678	1591.24
607.1	1613.48
607.522	1466.03
607.944	1813.34
608.365	1535.61
608.787	1513.35
609.209	1669.04
609.63	1399.17
610.051	1312.72
610.473	1440.96
610.894	1379.66
611.315	1351.78
611.737	1471.6
612.158	1379.66
612.579	1315.51
613	1885.39
613.421	1287.61
613.842	1513.35
614.263	1318.3
614.683	1346.2
615.104	1298.77
615.525	1354.56
615.945	1245.73
616.366	1153.52
616.787	1312.72
617.207	1254.11
617.627	1187.06
618.048	1122.76
618.468	1119.96
618.888	1156.32
619.308	1119.96
619.728	1125.56
620.148	1022
620.568	1159.11
620.988	1357.35
621.408	1131.15
621.828	1010.79
622.248	1223.39
622.668	1100.38
623.087	1061.2
623.507	951.95
623.926	1010.79
624.346	1100.38
624.765	1038.8
625.185	996.79
625.604	1019.2
626.023	921.1
626.442	1010.79
626.861	1097.58
627.28	862.19
627.699	817.27
628.118	887.44
628.537	921.1
628.956	1002.39
629.375	1052.8
629.794	901.47
630.212	1027.6
630.631	1033.2
631.049	881.83
631.468	951.95
631.886	853.77
632.305	1013.6
632.723	842.54
633.141	828.5
633.559	845.35
633.978	758.27
634.396	999.59
634.814	909.89
635.232	901.47
635.65	820.08
636.067	828.5
636.485	797.61
636.903	662.65
637.321	831.31
637.738	1100.38
638.156	766.7
638.573	673.91
638.991	1050
639.408	977.17
639.825	741.41
640.243	887.44
640.66	668.28
641.077	895.86
641.494	718.91
641.911	921.1
642.328	786.37
642.745	794.8
643.162	766.7
643.579	685.16
643.995	657.02
644.412	943.54
644.829	569.73
645.245	628.88
645.662	578.18
646.078	592.27
646.495	617.61
646.911	558.46
647.327	937.93
647.743	614.8
648.159	699.23
648.576	533.09
648.992	761.08
649.408	699.23
649.824	642.95
650.239	606.35
650.655	716.1
651.071	586.63
651.487	707.66
651.902	572.55
652.318	600.72
652.733	581
653.149	465.41
653.564	589.45
653.979	583.82
654.395	687.98
654.81	519
655.225	592.27
655.64	535.91
656.055	533.09
656.47	611.98
656.885	493.62
657.3	507.72
657.715	884.64
658.13	524.64
658.544	547.19
658.959	504.9
659.374	482.34
659.788	665.47
660.202	569.73
660.617	850.96
661.031	628.88
661.445	662.65
661.86	504.9
662.274	665.47
662.688	637.32
663.102	527.46
663.516	718.91
663.93	606.35
664.344	550.01
664.758	586.63
665.171	471.05
665.585	589.45
665.999	493.62
666.412	527.46
666.826	611.98
667.239	685.16
667.653	485.16
668.066	437.19
668.479	876.22
668.892	473.87
669.306	550.01
669.719	561.28
670.132	544.37
670.545	482.34
670.958	493.62
671.37	555.64
671.783	516.18
672.196	592.27
672.609	499.26
673.021	459.77
673.434	513.36
673.846	499.26
674.259	400.49
674.671	462.59
675.084	487.98
675.496	468.23
675.908	468.23
676.32	411.78
676.732	454.12
677.144	485.16
677.556	434.37
677.968	400.49
678.38	592.27
678.792	513.36
679.204	493.62
679.615	637.32
680.027	468.23
680.439	456.94
680.85	682.35
681.262	707.66
681.673	479.52
682.084	502.08
682.496	389.19
682.907	445.66
683.318	437.19
683.729	406.13
684.14	490.8
684.551	434.37
684.962	428.72
685.373	397.66
685.784	544.37
686.194	315.72
686.605	411.78
687.016	487.98
687.426	394.84
687.837	343.99
688.247	380.72
688.657	400.49
689.068	535.91
689.478	572.55
689.888	400.49
690.298	324.2
690.708	332.68
691.118	343.99
691.528	380.72
691.938	468.23
692.348	471.05
692.758	406.13
693.168	468.23
693.577	516.18
693.987	434.37
694.396	352.46
694.806	442.83
695.215	524.64
695.625	431.54
696.034	366.59
696.443	389.19
696.852	513.36
697.262	406.13
697.671	338.33
698.08	456.94
698.489	456.94
698.897	434.37
699.306	380.72
699.715	437.19
700.124	434.37
700.532	332.68
700.941	355.29
701.35	358.12
701.758	735.78
702.166	366.59
702.575	411.78
702.983	338.33
703.391	397.66
703.799	440.01
704.208	400.49
704.616	310.07
705.024	521.82
705.432	456.94
705.839	295.93
706.247	552.82
706.655	800.42
707.063	287.44
707.47	349.64
707.878	383.54
708.285	392.01
708.693	324.2
709.1	479.52
709.508	346.81
709.915	414.61
710.322	392.01
710.729	870.61
711.136	411.78
711.543	369.42
711.95	437.19
712.357	420.25
712.764	496.44
713.171	406.13
713.578	386.37
713.984	448.48
714.391	343.99
714.797	341.16
715.204	392.01
715.61	530.27
716.017	386.37
716.423	490.8
716.829	490.8
717.236	392.01
717.642	352.46
718.048	564.1
718.454	490.8
718.86	445.66
719.266	662.65
719.671	281.79
720.077	482.34
720.483	468.23
720.889	496.44
721.294	363.77
721.7	318.55
722.105	352.46
722.511	332.68
722.916	544.37
723.321	541.55
723.726	592.27
724.132	434.37
724.537	440.01
724.942	434.37
725.347	448.48
725.752	440.01
726.156	270.47
726.561	408.96
726.966	428.72
727.371	493.62
727.775	431.54
728.18	341.16
728.584	293.1
728.989	358.12
729.393	685.16
729.798	423.07
730.202	462.59
730.606	341.16
731.01	392.01
731.414	307.24
731.818	377.89
732.222	278.96
732.626	343.99
733.03	386.37
733.434	389.19
733.837	502.08
734.241	346.81
734.645	400.49
735.048	338.33
735.452	327.03
735.855	332.68
736.258	386.37
736.662	547.19
737.065	550.01
737.468	476.69
737.871	338.33
738.274	406.13
738.677	372.24
739.08	431.54
739.483	372.24
739.886	527.46
740.289	482.34
740.691	408.96
741.094	355.29
741.497	307.24
741.899	589.45
742.302	278.96
742.704	310.07
743.106	315.72
743.508	343.99
743.911	360.94
744.313	352.46
744.715	366.59
745.117	346.81
745.519	360.94
745.921	504.9
746.323	400.49
746.724	270.47
747.126	329.86
747.528	538.73
747.929	290.27
748.331	400.49
748.732	442.83
749.134	394.84
749.535	278.96
749.936	527.46
750.338	383.54
750.739	603.53
751.14	392.01
751.541	352.46
751.942	301.58
752.343	335.51
752.744	338.33
753.144	256.33
753.545	411.78
753.946	454.12
754.346	290.27
754.747	583.82
755.148	831.31
755.548	411.78
755.948	293.1
756.349	392.01
756.749	329.86
757.149	239.35
757.549	473.87
757.949	375.07
758.349	301.58
758.749	304.41
759.149	389.19
759.549	312.89
759.949	366.59
760.348	640.14
760.748	380.72
761.148	377.89
761.547	358.12
761.947	332.68
762.346	380.72
762.745	606.35
763.145	355.29
763.544	437.19
763.943	417.43
764.342	301.58
764.741	250.67
765.14	389.19
765.539	284.62
765.938	617.61
766.336	329.86
766.735	242.18
767.134	349.64
767.532	400.49
767.931	295.93
768.329	749.84
768.728	315.72
769.126	425.9
769.525	592.27
769.923	389.19
770.321	411.78
770.719	538.73
771.117	516.18
771.515	400.49
771.913	479.52
772.311	287.44
772.709	386.37
773.106	324.2
773.504	349.64
773.902	315.72
774.299	383.54
774.697	946.34
775.094	397.66
775.491	431.54
775.889	420.25
776.286	250.67
776.683	318.55
777.08	236.52
777.477	304.41
777.874	485.16
778.271	377.89
778.668	315.72
779.065	335.51
779.462	392.01
779.858	335.51
780.255	569.73
780.652	301.58
781.048	561.28
781.444	420.25
781.841	312.89
782.237	417.43
782.633	392.01
783.03	295.93
783.426	355.29
783.822	324.2
784.218	346.81
784.614	301.58
785.01	264.81
785.405	343.99
785.801	369.42
786.197	380.72
786.593	358.12
786.988	417.43
787.384	524.64
787.779	273.3
788.174	369.42
788.57	295.93
788.965	335.51
789.36	377.89
789.755	389.19
790.15	273.3
790.545	321.37
790.94	295.93
791.335	270.47
791.73	383.54
792.125	575.37
792.52	343.99
792.914	507.72
793.309	256.33
793.703	437.19
794.098	324.2
794.492	468.23
794.887	414.61
795.281	617.61
795.675	487.98
796.069	538.73
796.463	394.84
796.857	352.46
797.251	273.3
797.645	247.84
798.039	437.19
798.433	318.55
798.826	372.24
799.22	400.49
799.614	465.41
800.007	358.12
800.401	394.84
800.794	312.89
801.187	281.79
801.581	253.5
801.974	442.83
802.367	482.34
802.76	307.24
803.153	301.58
803.546	264.81
803.939	423.07
804.332	284.62
804.725	366.59
805.117	318.55
805.51	513.36
805.903	349.64
806.295	400.49
806.688	315.72
807.08	355.29
807.472	423.07
807.865	392.01
808.257	321.37
808.649	521.82
809.041	394.84
809.433	451.3
809.825	870.61
810.217	315.72
810.609	440.01
811.001	397.66
811.392	329.86
811.784	564.1
812.175	335.51
812.567	408.96
812.958	417.43
813.35	411.78
813.741	352.46
814.132	352.46
814.524	394.84
814.915	228.03
815.306	304.41
815.697	338.33
816.088	377.89
816.479	465.41
816.87	389.19
817.26	420.25
817.651	566.91
818.042	417.43
818.432	389.19
818.823	423.07
819.213	434.37
819.604	366.59
819.994	346.81
820.384	321.37
820.775	440.01
821.165	321.37
821.555	343.99
821.945	369.42
822.335	276.13
822.725	482.34
823.114	327.03
823.504	411.78
823.894	346.81
824.284	310.07
824.673	363.77
825.063	312.89
825.452	428.72
825.842	375.07
826.231	727.35
826.62	327.03
827.009	521.82
827.399	431.54
827.788	327.03
828.177	310.07
828.566	346.81
828.954	839.73
829.343	462.59
829.732	369.42
830.121	850.96
830.509	668.28
830.898	355.29
831.286	256.33
831.675	375.07
832.063	423.07
832.452	298.76
832.84	281.79
833.228	555.64
833.616	276.13
834.004	473.87
834.392	343.99
834.78	527.46
835.168	310.07
835.556	535.91
835.944	375.07
836.331	468.23
836.719	521.82
837.107	349.64
837.494	597.9
837.881	372.24
838.269	366.59
838.656	253.5
839.043	233.69
839.431	685.16
839.818	324.2
840.205	423.07
840.592	366.59
840.979	301.58
841.366	358.12
841.752	295.93
842.139	253.5
842.526	343.99
842.912	408.96
843.299	369.42
843.685	406.13
844.072	321.37
844.458	417.43
844.844	400.49
845.231	352.46
845.617	301.58
846.003	417.43
846.389	301.58
846.775	327.03
847.161	428.72
847.547	386.37
847.933	369.42
848.318	437.19
848.704	335.51
849.09	154.4
849.475	276.13
849.861	482.34
850.246	318.55
850.631	561.28
851.017	425.9
851.402	298.76
851.787	346.81
852.172	687.98
852.557	521.82
852.942	386.37
853.327	394.84
853.712	375.07
854.097	465.41
854.481	372.24
854.866	428.72
855.25	261.99
855.635	366.59
856.019	349.64
856.404	341.16
856.788	239.35
857.172	270.47
857.557	434.37
857.941	425.9
858.325	400.49
858.709	270.47
859.093	335.51
859.477	276.13
859.86	476.69
860.244	298.76
860.628	589.45
861.012	465.41
861.395	259.16
861.779	332.68
862.162	355.29
862.545	355.29
862.929	377.89
863.312	425.9
863.695	355.29
864.078	383.54
864.461	355.29
864.844	355.29
865.227	555.64
865.61	332.68
865.993	295.93
866.376	406.13
866.758	394.84
867.141	440.01
867.523	434.37
867.906	343.99
868.288	403.31
868.671	425.9
869.053	363.77
869.435	366.59
869.817	575.37
870.199	318.55
870.581	465.41
870.963	417.43
871.345	389.19
871.727	437.19
872.109	343.99
872.491	417.43
872.872	380.72
873.254	264.81
873.635	290.27
874.017	524.64
874.398	375.07
874.779	403.31
875.161	293.1
875.542	403.31
875.923	315.72
876.304	293.1
876.685	341.16
877.066	324.2
877.447	284.62
877.828	301.58
878.208	510.54
878.589	490.8
878.97	623.25
879.35	276.13
879.731	307.24
880.111	372.24
880.491	281.79
880.872	485.16
881.252	264.81
881.632	332.68
882.012	465.41
882.392	730.16
882.772	533.09
883.152	400.49
883.532	383.54
883.912	485.16
884.291	397.66
884.671	298.76
885.051	440.01
885.43	375.07
885.81	527.46
886.189	394.84
886.568	451.3
886.948	284.62
887.327	519
887.706	261.99
888.085	600.72
888.464	459.77
888.843	766.7
889.222	414.61
889.601	417.43
889.979	428.72
890.358	380.72
890.737	312.89
891.115	341.16
891.494	239.35
891.872	363.77
892.25	278.96
892.629	454.12
893.007	597.9
893.385	332.68
893.763	343.99
894.141	369.42
894.519	479.52
894.897	256.33
895.275	338.33
895.653	321.37
896.03	448.48
896.408	343.99
896.786	352.46
897.163	346.81
897.541	349.64
897.918	533.09
898.295	230.86
898.673	355.29
899.05	420.25
899.427	1133.95
899.804	304.41
900.181	372.24
900.558	552.82
900.935	389.19
901.312	290.27
901.688	290.27
902.065	442.83
902.442	431.54
902.818	264.81
903.195	380.72
903.571	284.62
903.947	332.68
904.324	321.37
904.7	327.03
905.076	499.26
905.452	355.29
905.828	406.13
906.204	366.59
906.58	324.2
906.956	530.27
907.331	502.08
907.707	538.73
908.083	406.13
908.458	437.19
908.834	261.99
909.209	394.84
909.585	465.41
909.96	420.25
910.335	307.24
910.71	293.1
911.086	437.19
911.461	530.27
911.836	366.59
912.21	253.5
912.585	437.19
912.96	425.9
913.335	284.62
913.709	287.44
914.084	321.37
914.459	420.25
914.833	290.27
915.207	264.81
915.582	321.37
915.956	321.37
916.33	377.89
916.704	211.04
917.078	338.33
917.452	468.23
917.826	315.72
918.2	343.99
918.574	380.72
918.948	358.12
919.321	338.33
919.695	290.27
920.068	394.84
920.442	403.31
920.815	363.77
921.189	312.89
921.562	533.09
921.935	482.34
922.308	312.89
922.681	445.66
923.054	448.48
923.427	434.37
923.8	261.99
924.173	324.2
924.546	287.44
924.919	414.61
925.291	383.54
925.664	366.59
926.036	352.46
926.409	349.64
926.781	256.33
927.153	408.96
927.526	440.01
927.898	332.68
928.27	273.3
928.642	341.16
929.014	349.64
929.386	352.46
929.758	327.03
930.129	338.33
930.501	513.36
930.873	318.55
931.244	400.49
931.616	301.58
931.987	295.93
932.359	445.66
932.73	377.89
933.101	394.84
933.472	318.55
933.843	456.94
934.214	507.72
934.585	355.29
934.956	290.27
935.327	850.96
935.698	468.23
936.069	482.34
936.439	490.8
936.81	358.12
937.18	428.72
937.551	343.99
937.921	516.18
938.292	445.66
938.662	307.24
939.032	425.9
939.402	293.1
939.772	425.9
940.142	287.44
940.512	332.68
940.882	346.81
941.252	403.31
941.621	341.16
941.991	298.76
942.361	456.94
942.73	386.37
943.1	346.81
943.469	315.72
943.838	659.84
944.208	502.08
944.577	287.44
944.946	267.64
945.315	250.67
945.684	276.13
946.053	355.29
946.422	327.03
946.791	307.24
947.159	366.59
947.528	327.03
947.897	473.87
948.265	256.33
948.634	406.13
949.002	264.81
949.371	392.01
949.739	284.62
950.107	425.9
950.475	335.51
950.843	423.07
951.211	493.62
951.579	372.24
951.947	318.55
952.315	459.77
952.683	338.33
953.05	369.42
953.418	318.55
953.785	253.5
954.153	312.89
954.52	324.2
954.888	499.26
955.255	298.76
955.622	389.19
955.989	290.27
956.356	561.28
956.723	332.68
957.09	417.43
957.457	434.37
957.824	358.12
958.191	256.33
958.557	456.94
958.924	295.93
959.291	343.99
959.657	205.38
960.023	803.23
960.39	366.59
960.756	298.76
961.122	473.87
961.488	293.1
961.855	360.94
962.221	423.07
962.586	315.72
962.952	566.91
963.318	437.19
963.684	752.65
964.05	564.1
964.415	414.61
964.781	332.68
965.146	318.55
965.512	572.55
965.877	651.4
966.242	397.66
966.608	434.37
966.973	394.84
967.338	324.2
967.703	533.09
968.068	264.81
968.433	535.91
968.797	690.79
969.162	335.51
969.527	338.33
969.891	338.33
970.256	281.79
970.62	355.29
970.985	324.2
971.349	403.31
971.714	420.25
972.078	392.01
972.442	389.19
972.806	425.9
973.17	358.12
973.534	366.59
973.898	437.19
974.262	332.68
974.625	493.62
974.989	397.66
975.353	541.55
975.716	454.12
976.08	406.13
976.443	301.58
976.806	355.29
977.17	392.01
977.533	315.72
977.896	358.12
978.259	408.96
978.622	968.77
978.985	420.25
979.348	295.93
979.711	352.46
980.073	287.44
980.436	414.61
980.799	394.84
981.161	411.78
981.524	230.86
981.886	366.59
982.248	369.42
982.611	358.12
982.973	338.33
983.335	372.24
983.697	247.84
984.059	403.31
984.421	239.35
984.783	307.24
985.145	352.46
985.506	239.35
985.868	301.58
986.23	360.94
986.591	298.76
986.953	485.16
987.314	366.59
987.675	324.2
988.037	26407.72
988.398	935.13
988.759	392.01
989.12	389.19
989.481	425.9
989.842	451.3
990.203	245.01
990.564	199.72
990.924	360.94
991.285	16595.67
991.646	735.78
992.006	261.99
992.367	369.42
992.727	414.61
993.087	394.84
993.448	276.13
993.808	338.33
994.168	256.33
994.528	284.62
994.888	408.96
995.248	338.33
995.608	369.42
995.967	346.81
996.327	293.1
996.687	366.59
997.046	318.55
997.406	307.24
997.765	273.3
998.125	245.01
998.484	298.76
998.843	535.91
999.202	428.72
999.561	225.2
999.92	425.9
1000.279	281.79
1000.638	213.87
1000.997	312.89
1001.356	346.81
1001.715	295.93
1002.073	363.77
1002.432	476.69
1002.79	312.89
1003.149	295.93
1003.507	417.43
1003.865	225.2
1004.224	321.37
1004.582	369.42
1004.94	440.01
1005.298	290.27
1005.656	228.03
1006.014	360.94
1006.371	329.86
1006.729	239.35
1007.087	589.45
1007.445	406.13
1007.802	358.12
1008.16	287.44
1008.517	366.59
1008.874	423.07
1009.232	284.62
1009.589	1066.8
1009.946	383.54
1010.303	270.47
1010.66	394.84
1011.017	310.07
1011.374	561.28
1011.731	454.12
1012.087	318.55
1012.444	341.16
1012.801	332.68
1013.157	256.33
1013.513	315.72
1013.87	411.78
1014.226	304.41
1014.582	276.13
1014.939	324.2
1015.295	335.51
1015.651	338.33
1016.007	239.35
1016.363	485.16
1016.719	245.01
1017.074	397.66
1017.43	267.64
1017.786	338.33
1018.141	324.2
1018.497	239.35
1018.852	473.87
1019.208	397.66
1019.563	369.42
1019.918	261.99
1020.273	394.84
1020.628	397.66
1020.983	665.47
1021.338	324.2
1021.693	389.19
1022.048	228.03
1022.403	327.03
1022.757	392.01
1023.112	329.86
1023.467	406.13
1023.821	191.22
1024.175	307.24
1024.53	318.55
1024.884	298.76
1025.238	386.37
1025.592	420.25
1025.946	338.33
1026.3	191.22
1026.654	343.99
1027.008	145.9
1027.362	281.79
1027.716	301.58
1028.069	267.64
1028.423	372.24
1028.777	403.31
1029.13	363.77
1029.483	454.12
1029.837	346.81
1030.19	329.86
1030.543	312.89
1030.896	332.68
1031.249	400.49
1031.602	352.46
1031.955	343.99
1032.308	346.81
1032.661	451.3
1033.013	253.5
1033.366	298.76
1033.719	338.33
1034.071	290.27
1034.424	239.35
1034.776	230.86
1035.128	298.76
1035.48	278.96
1035.833	487.98
1036.185	310.07
1036.537	310.07
1036.889	310.07
