Data from SCSF78-irradiation_FLMS019251_10-48-38-165.txt Node
Date: Fri Feb 08 10:48:38 CET 2019
User: luk
Spectrometer: FLMS01925
Trigger mode: 0
Integration Time (sec): 2.154980E0
Scans to average: 1
Electric dark correction enabled: true
Nonlinearity correction enabled: true
Boxcar width: 0
XAxis mode: Wavelengths
Number of Pixels in Spectrum: 2048
>>>>>Begin Spectral Data<<<<<
187.103	-316.01
187.574	-316.01
188.045	-316.01
188.516	-347.38
188.987	104.8
189.458	-91.09
189.929	-187.8
190.4	-3.02
190.871	-48.46
191.342	-153.65
191.813	-119.52
192.284	70.77
192.754	-122.37
193.225	-3.02
193.696	2.66
194.166	-14.37
194.637	96.29
195.107	271.89
195.578	93.46
196.048	158.65
196.518	48.07
196.989	212.46
197.459	249.25
197.929	186.97
198.399	604.94
198.869	260.57
199.339	427.31
199.809	305.82
200.279	540.14
200.749	365.18
201.219	384.95
201.689	370.83
202.159	311.48
202.628	263.4
203.098	396.25
203.568	469.64
204.037	427.31
204.507	353.88
204.976	492.21
205.445	413.19
205.915	308.65
206.384	376.48
206.853	322.79
207.323	410.37
207.792	416.02
208.261	294.51
208.73	424.49
209.199	607.76
209.668	480.93
210.137	534.5
210.606	351.05
211.075	455.53
211.543	573.96
212.012	528.87
212.481	294.51
212.95	413.19
213.418	655.62
213.887	449.89
214.355	489.39
214.824	379.3
215.292	359.53
215.76	311.48
216.229	291.69
216.697	339.75
217.165	314.31
217.633	427.31
218.101	545.78
218.569	905.68
219.037	554.23
219.505	619.02
219.973	444.24
220.441	328.44
220.909	362.35
221.377	565.5
221.844	399.07
222.312	396.25
222.78	379.3
223.247	435.78
223.715	283.2
224.182	407.55
224.65	509.13
225.117	579.59
225.584	370.83
226.052	384.95
226.519	356.7
226.986	384.95
227.453	288.86
227.92	382.13
228.387	492.21
228.854	376.48
229.321	237.93
229.788	444.24
230.255	438.6
230.722	540.14
231.189	430.13
231.655	503.49
232.122	492.21
232.589	291.69
233.055	308.65
233.522	633.1
233.988	348.23
234.454	421.66
234.921	353.88
235.387	649.99
235.853	441.42
236.32	359.53
236.786	351.05
237.252	362.35
237.718	680.94
238.184	334.09
238.65	353.88
239.116	339.75
239.582	339.75
240.047	339.75
240.513	342.57
240.979	407.55
241.445	300.17
241.91	288.86
242.376	379.3
242.841	396.25
243.307	430.13
243.772	342.57
244.238	370.83
244.703	404.72
245.168	379.3
245.633	469.64
246.099	311.48
246.564	297.34
247.029	376.48
247.494	336.92
247.959	353.88
248.424	342.57
248.889	356.7
249.353	514.77
249.818	376.48
250.283	356.7
250.748	334.09
251.212	393.43
251.677	218.12
252.141	407.55
252.606	455.53
253.07	342.57
253.535	410.37
253.999	249.25
254.463	305.82
254.927	215.29
255.392	373.65
255.856	311.48
256.32	334.09
256.784	305.82
257.248	407.55
257.712	469.64
258.176	641.54
258.64	348.23
259.103	368
259.567	407.55
260.031	393.43
260.495	449.89
260.958	506.31
261.422	545.78
261.885	418.84
262.349	387.78
262.812	274.72
263.275	393.43
263.739	413.19
264.202	413.19
264.665	424.49
265.128	424.49
265.591	336.92
266.054	286.03
266.517	523.23
266.98	393.43
267.443	308.65
267.906	291.69
268.369	339.75
268.832	396.25
269.294	303
269.757	362.35
270.22	325.62
270.682	368
271.145	407.55
271.607	466.82
272.07	790.58
272.532	240.76
272.994	404.72
273.456	452.71
273.919	1316.91
274.381	339.75
274.843	571.14
275.305	619.02
275.767	401.9
276.229	475.28
276.691	509.13
277.153	359.53
277.614	438.6
278.076	365.18
278.538	373.65
279	413.19
279.461	404.72
279.923	1258.3
280.384	305.82
280.846	368
281.307	314.31
281.769	466.82
282.23	410.37
282.691	582.41
283.152	353.88
283.613	291.69
284.075	322.79
284.536	464
284.997	365.18
285.458	328.44
285.918	331.27
286.379	421.66
286.84	542.96
287.301	322.79
287.762	396.25
288.222	345.4
288.683	464
289.143	390.6
289.604	331.27
290.064	351.05
290.525	353.88
290.985	728.75
291.445	483.75
291.906	401.9
292.366	237.93
292.826	379.3
293.286	370.83
293.746	353.88
294.206	495.03
294.666	582.41
295.126	466.82
295.586	365.18
296.046	300.17
296.506	359.53
296.965	393.43
297.425	339.75
297.884	503.49
298.344	365.18
298.804	444.24
299.263	387.78
299.722	362.35
300.182	336.92
300.641	249.25
301.1	362.35
301.559	339.75
302.019	305.82
302.478	353.88
302.937	401.9
303.396	356.7
303.855	796.2
304.314	492.21
304.772	953.35
305.231	269.06
305.69	421.66
306.149	404.72
306.607	319.96
307.066	432.95
307.524	568.32
307.983	480.93
308.441	466.82
308.9	661.25
309.358	384.95
309.816	807.44
310.275	410.37
310.733	379.3
311.191	461.18
311.649	497.85
312.107	472.46
312.565	345.4
313.023	432.95
313.481	342.57
313.939	373.65
314.397	314.31
314.854	370.83
315.312	345.4
315.77	497.85
316.227	288.86
316.685	319.96
317.142	314.31
317.6	534.5
318.057	509.13
318.514	404.72
318.972	384.95
319.429	545.78
319.886	384.95
320.343	396.25
320.8	274.72
321.257	435.78
321.714	593.68
322.171	661.25
322.628	413.19
323.085	345.4
323.542	252.08
323.998	319.96
324.455	342.57
324.912	432.95
325.368	387.78
325.825	610.57
326.281	413.19
326.738	531.68
327.194	351.05
327.65	452.71
328.107	322.79
328.563	314.31
329.019	424.49
329.475	345.4
329.931	486.57
330.387	495.03
330.843	336.92
331.299	399.07
331.755	319.96
332.211	328.44
332.666	314.31
333.122	325.62
333.578	452.71
334.033	271.89
334.489	418.84
334.944	393.43
335.4	787.77
335.855	514.77
336.31	373.65
336.766	413.19
337.221	382.13
337.676	387.78
338.131	489.39
338.586	520.41
339.041	410.37
339.496	528.87
339.951	396.25
340.406	413.19
340.861	334.09
341.316	345.4
341.771	410.37
342.225	339.75
342.68	489.39
343.134	455.53
343.589	472.46
344.043	464
344.498	362.35
344.952	497.85
345.406	3854.61
345.861	432.95
346.315	237.93
346.769	334.09
347.223	379.3
347.677	288.86
348.131	362.35
348.585	339.75
349.039	370.83
349.493	466.82
349.947	370.83
350.401	362.35
350.854	379.3
351.308	669.69
351.762	351.05
352.215	478.1
352.669	351.05
353.122	359.53
353.575	317.13
354.029	334.09
354.482	356.7
354.935	441.42
355.388	472.46
355.842	447.07
356.295	416.02
356.748	263.4
357.201	430.13
357.654	455.53
358.106	376.48
358.559	399.07
359.012	277.54
359.465	379.3
359.917	464
360.37	362.35
360.823	396.25
361.275	511.95
361.728	404.72
362.18	362.35
362.632	368
363.085	271.89
363.537	447.07
363.989	331.27
364.441	379.3
364.893	314.31
365.345	368
365.797	336.92
366.249	486.57
366.701	399.07
367.153	331.27
367.605	319.96
368.057	416.02
368.508	390.6
368.96	305.82
369.411	339.75
369.863	548.6
370.314	568.32
370.766	365.18
371.217	492.21
371.669	351.05
372.12	596.49
372.571	531.68
373.022	317.13
373.473	545.78
373.924	520.41
374.375	444.24
374.826	503.49
375.277	418.84
375.728	368
376.179	384.95
376.63	328.44
377.08	815.86
377.531	356.7
377.981	308.65
378.432	542.96
378.883	717.51
379.333	430.13
379.783	449.89
380.234	413.19
380.684	390.6
381.134	528.87
381.584	435.78
382.034	624.65
382.485	387.78
382.935	280.37
383.385	410.37
383.834	314.31
384.284	413.19
384.734	237.93
385.184	461.18
385.634	373.65
386.083	387.78
386.533	461.18
386.982	418.84
387.432	500.67
387.881	356.7
388.331	311.48
388.78	562.69
389.229	368
389.679	373.65
390.128	449.89
390.577	331.27
391.026	348.23
391.475	348.23
391.924	305.82
392.373	297.34
392.822	390.6
393.27	461.18
393.719	444.24
394.168	311.48
394.617	401.9
395.065	382.13
395.514	523.23
395.962	559.87
396.411	382.13
396.859	325.62
397.307	596.49
397.756	401.9
398.204	387.78
398.652	647.17
399.1	404.72
399.548	353.88
399.996	686.57
400.444	531.68
400.892	373.65
401.34	427.31
401.788	356.7
402.236	387.78
402.683	390.6
403.131	452.71
403.579	619.02
404.026	438.6
404.474	345.4
404.921	376.48
405.369	497.85
405.816	370.83
406.263	359.53
406.71	489.39
407.158	413.19
407.605	345.4
408.052	410.37
408.499	534.5
408.946	492.21
409.393	427.31
409.84	466.82
410.286	362.35
410.733	514.77
411.18	404.72
411.626	568.32
412.073	548.6
412.52	503.49
412.966	613.39
413.413	647.17
413.859	604.94
414.305	692.19
414.752	928.11
415.198	1037.4
415.644	1322.49
416.09	1609.31
416.536	1889.54
416.982	2507.56
417.428	2978.98
417.874	3428.76
418.32	4135.6
418.766	5109.88
419.211	6019.3
419.657	7057.88
420.103	7973.23
420.548	9138.81
420.994	11029.21
421.439	11736.88
421.885	13234.43
422.33	14879.86
422.776	15919.19
423.221	17225.82
423.666	18353.18
424.111	19997.16
424.556	21208.51
425.001	22431.28
425.446	23633.44
425.891	24783.34
426.336	26075.38
426.781	27941.96
427.226	28912.43
427.671	29972.13
428.115	30330.83
428.56	32030.64
429.005	33003.42
429.449	33800.8
429.894	34906.02
430.338	36222.59
430.782	35882.86
431.227	36848.72
431.671	37451.01
432.115	37798.98
432.559	39277.08
433.003	38701.94
433.447	39227.89
433.891	39564.98
434.335	40099.52
434.779	40891.8
435.223	40948.64
435.667	41203.33
436.111	43828.5
436.554	41463.18
436.998	40988.19
437.442	41106.87
437.885	42557.23
438.328	42070.44
438.772	41879.44
439.215	42868.18
439.659	41958.8
440.102	42609.44
440.545	42410.6
440.988	42221.84
441.431	42597.01
441.874	42400.66
442.317	42815.91
442.76	42308.75
443.203	42020.82
443.646	42689.03
444.089	42691.51
444.531	42654.21
444.974	41879.44
445.417	43661.08
445.859	42338.56
446.302	43369.03
446.744	42942.87
447.186	43651.09
447.629	43167.07
448.071	43087.33
448.513	43049.96
448.956	44221.33
449.398	43196.98
449.84	42557.23
450.282	43528.74
450.724	43733.53
451.166	43201.96
451.607	43239.35
452.049	43112.24
452.491	44108.66
452.933	43681.06
453.374	44843.44
453.816	44866.06
454.257	44306.5
454.699	45288.73
455.14	45397.08
455.582	44607.41
456.023	45024.44
456.464	45001.81
456.905	45009.35
457.347	45482.8
457.788	44785.66
458.229	43961.03
458.67	45651.85
459.111	43329.12
459.552	44354.12
459.992	43661.08
460.433	44021.07
460.874	42967.77
461.315	43159.59
461.755	43097.29
462.196	41215.7
462.636	41344.36
463.077	41341.89
463.517	41624.16
463.957	41327.04
464.398	41557.28
464.838	41121.71
465.278	40363.4
465.718	40291.86
466.158	39242.65
466.598	40126.64
467.038	39688.07
467.478	39825.99
467.918	39638.83
468.358	39636.37
468.798	39156.58
469.237	38736.32
469.677	38657.73
470.117	39301.68
470.556	37269.76
470.996	37926.46
471.435	38154.55
471.874	38144.74
472.314	38662.64
472.753	37509.8
473.192	38088.32
473.631	38019.65
474.07	38000.03
474.509	37152.23
474.948	37997.57
475.387	37149.78
475.826	36851.17
476.265	38139.83
476.704	38073.6
477.143	37607.81
477.581	37615.16
478.02	38765.8
478.458	37257.52
478.897	38014.74
479.335	39284.46
479.774	38294.4
480.212	38576.69
480.65	38223.24
481.089	38363.11
481.527	37970.6
481.965	37600.46
482.403	39272.17
482.841	38829.68
483.279	38409.75
483.717	38925.51
484.155	38488.3
484.592	38810.02
485.03	39355.8
485.468	37862.71
485.905	38684.74
486.343	38986.95
486.781	38083.41
487.218	37742.6
487.655	37174.27
488.093	36931.92
488.53	38107.94
488.967	37034.72
489.405	37431.41
489.842	36931.92
490.279	36670.11
490.716	36415.74
491.153	36300.82
491.59	36049.04
492.027	34818.15
492.463	34837.67
492.9	34652.2
493.337	33956.89
493.773	34244.73
494.21	33678.86
494.647	33356.97
495.083	32727.91
495.519	32323.2
495.956	32330.51
496.392	32154.98
496.828	31506.43
497.265	30684.56
497.701	31228.44
498.137	30572.35
498.573	29679.23
499.009	30384.51
499.445	29554.73
499.881	29576.7
500.316	28917.31
500.752	28426.12
501.188	28465.23
501.624	28367.45
502.059	27518.66
502.495	27237.13
502.93	27058.36
503.366	29898.91
503.801	26739.87
504.236	26291.24
504.672	26104.82
505.107	26129.36
505.542	25601.68
505.977	25380.63
506.412	25439.59
506.847	25090.68
507.282	24694.8
507.717	24470.9
508.152	24369.99
508.587	23823.23
509.021	23475.64
509.456	23339.98
509.891	23470.7
510.325	22875.98
510.76	22512.84
511.194	22537.55
511.628	22596.86
512.063	21976.23
512.497	22112.3
512.931	21451.36
513.366	21617.31
513.8	21478.61
514.234	20908.48
514.668	20814.21
515.102	20749.7
515.536	20178.59
515.969	20322.68
516.403	20066.76
516.837	19626.6
517.271	19773.38
517.704	19034
518.138	19365.27
518.571	19011.58
519.005	18647.6
519.438	18555.3
519.871	18360.66
520.305	18405.59
520.738	18208.38
521.171	17781.16
521.604	18076.02
522.037	17753.67
522.47	17260.87
522.903	17020.48
523.336	16972.89
523.769	16835.08
524.202	16320.97
524.634	16215.55
525.067	16044.79
525.5	15914.16
525.932	15987.02
526.365	15552.15
526.797	15348.34
527.23	15217.44
527.662	14652.93
528.094	14715.98
528.527	14506.59
528.959	14244.02
529.391	14365.24
529.823	13525.79
530.255	13556.17
530.687	13437.15
531.119	12980.81
531.551	13178.65
531.982	12421.97
532.414	12488.08
532.846	12513.5
533.277	11958.67
533.709	11787.89
534.14	11499.55
534.572	11461.25
535.003	11387.17
535.435	11272.18
535.866	11228.72
536.297	10539.83
536.728	11141.78
537.159	10714.2
537.59	10529.57
538.022	10434.62
538.452	10639.85
538.883	10216.31
539.314	10090.34
539.745	9812.39
540.176	9799.51
540.606	9283.56
541.037	9423.03
541.468	9265.48
541.898	9094.84
542.328	9167.26
542.759	9063.8
543.189	8988.75
543.619	8794.49
544.05	8854.09
544.48	8428.62
544.91	8423.42
545.34	8392.24
545.77	8231.03
546.2	8111.3
546.63	8184.19
547.06	8009.72
547.489	8040.98
547.919	7552.96
548.349	7513.74
548.778	7785.45
549.208	7314.83
549.637	7147.08
550.067	7191.66
550.496	7196.91
550.926	7055.25
551.355	6776.73
551.784	6866.13
552.213	6653.02
552.642	6697.78
553.071	6647.76
553.5	6676.72
553.929	6278.49
554.358	6523.92
554.787	6178.06
555.216	6289.06
555.645	6162.19
556.073	6003.41
556.502	5900.08
556.93	5778.07
557.359	5775.42
557.787	5743.57
558.216	5562.9
558.644	5565.56
559.072	5610.76
559.5	5570.88
559.929	5469.8
560.357	5592.15
560.785	5328.64
561.213	5488.42
561.641	5347.3
562.068	5520.35
562.496	5235.33
562.924	5144.59
563.352	5181.96
563.779	5123.23
564.207	5155.27
564.634	5109.88
565.062	5325.98
565.489	4986.95
565.917	4994.97
566.344	4839.78
566.771	4826.38
567.198	4732.6
567.625	4544.76
568.053	4394.22
568.48	4676.29
568.907	4485.65
569.333	4542.07
569.76	4351.17
570.187	4485.65
570.614	4211.11
571.04	37306.5
571.467	4520.58
571.894	4157.18
572.32	3970.89
572.747	3962.79
573.173	3889.78
573.599	3884.37
574.026	3751.73
574.452	3830.25
574.878	3697.53
575.304	3518.44
575.73	3488.56
576.156	3548.32
576.582	3390.69
577.008	3423.33
577.434	3349.88
577.86	3115.53
578.285	3292.71
578.711	3235.51
579.137	3295.44
579.562	3189.17
579.988	3028.16
580.413	3050.01
580.838	2836.74
581.264	2894.21
581.689	2916.09
582.114	2875.06
582.539	5937.18
582.964	2806.62
583.39	2801.14
583.814	2570.76
584.239	2529.55
584.664	2592.72
585.089	2592.72
585.514	2650.37
585.939	2705.22
586.363	2455.32
586.788	2518.56
587.212	2386.54
587.637	2323.2
588.061	2416.81
588.485	2251.55
588.91	2251.55
589.334	2235
589.758	2262.57
590.182	2232.24
590.606	2050.02
591.03	2314.94
591.454	2251.55
591.878	2022.37
592.302	2069.37
592.726	2232.24
593.15	2127.38
593.573	1955.98
593.997	2135.66
594.42	1836.9
594.844	1814.72
595.267	1806.41
595.691	1842.44
596.114	1703.75
596.537	1836.9
596.96	1859.07
597.384	1728.74
597.807	1728.74
598.23	1687.1
598.653	1775.9
599.076	1603.75
599.499	1695.42
599.921	1550.91
600.344	1612.09
600.767	1828.58
601.189	1675.99
601.612	1573.16
602.034	1595.41
602.457	1553.7
602.879	2353.5
603.302	1500.83
603.724	1550.91
604.146	1389.41
604.568	1506.4
604.991	1609.31
605.413	1436.79
605.835	1639.88
606.257	1475.78
606.678	1339.23
607.1	1506.4
607.522	1442.36
607.944	1778.68
608.365	1573.16
608.787	1367.11
609.209	1612.09
609.63	1277.84
610.051	1235.96
610.473	1389.41
610.894	1319.7
611.315	1347.59
611.737	1392.2
612.158	1286.21
612.579	1208.02
613	1800.86
613.421	1057
613.842	1553.7
614.263	1389.41
614.683	1221.99
615.104	1280.63
615.525	1347.59
615.945	1249.92
616.366	1146.53
616.787	1269.46
617.207	1196.84
617.627	1135.34
618.048	1182.87
618.468	1168.9
618.888	1140.94
619.308	998.19
619.728	1023.4
620.148	936.53
620.568	1168.9
620.988	1221.99
621.408	1079.39
621.828	995.39
622.248	1132.55
622.668	1163.3
623.087	1135.34
623.507	1045.8
623.926	964.56
624.346	972.97
624.765	998.19
625.185	984.18
625.604	978.57
626.023	1000.99
626.442	919.7
626.861	1146.53
627.28	992.58
627.699	894.46
628.118	827.1
628.537	939.33
628.956	1057
629.375	1110.17
629.794	863.59
630.212	964.56
630.631	1015
631.049	827.1
631.468	855.17
631.886	770.92
632.305	939.33
632.723	807.44
633.141	768.11
633.559	737.19
633.978	773.73
634.396	958.95
634.814	748.43
635.232	773.73
635.65	835.52
636.067	832.71
636.485	734.38
636.903	723.13
637.321	613.39
637.738	1110.17
638.156	793.39
638.573	655.62
638.991	981.38
639.408	841.13
639.825	725.94
640.243	835.52
640.66	683.76
641.077	784.97
641.494	754.05
641.911	897.26
642.328	717.51
642.745	731.57
643.162	742.81
643.579	709.07
643.995	731.57
644.412	933.72
644.829	596.49
645.245	658.43
645.662	568.32
646.078	596.49
646.495	613.39
646.911	647.17
647.327	796.2
647.743	604.94
648.159	759.68
648.576	486.57
648.992	852.36
649.408	686.57
649.824	596.49
650.239	588.04
650.655	633.1
651.071	551.41
651.487	709.07
651.902	562.69
652.318	582.41
652.733	559.87
653.149	449.89
653.564	573.96
653.979	585.23
654.395	557.05
654.81	500.67
655.225	562.69
655.64	540.14
656.055	528.87
656.47	514.77
656.885	509.13
657.3	528.87
657.715	872.01
658.13	562.69
658.544	568.32
658.959	509.13
659.374	613.39
659.788	633.1
660.202	404.72
660.617	891.65
661.031	509.13
661.445	672.5
661.86	559.87
662.274	664.06
662.688	695.01
663.102	582.41
663.516	714.7
663.93	511.95
664.344	573.96
664.758	534.5
665.171	545.78
665.585	582.41
665.999	509.13
666.412	540.14
666.826	599.31
667.239	711.88
667.653	478.1
668.066	401.9
668.479	950.55
668.892	582.41
669.306	486.57
669.719	458.36
670.132	517.59
670.545	447.07
670.958	455.53
671.37	486.57
671.783	449.89
672.196	641.54
672.609	478.1
673.021	464
673.434	480.93
673.846	506.31
674.259	472.46
674.671	424.49
675.084	424.49
675.496	410.37
675.908	478.1
676.32	449.89
676.732	399.07
677.144	489.39
677.556	424.49
677.968	396.25
678.38	624.65
678.792	655.62
679.204	492.21
679.615	680.94
680.027	475.28
680.439	396.25
680.85	604.94
681.262	669.69
681.673	469.64
682.084	452.71
682.496	447.07
682.907	590.86
683.318	475.28
683.729	483.75
684.14	435.78
684.551	432.95
684.962	418.84
685.373	492.21
685.784	382.13
686.194	573.96
686.605	401.9
687.016	368
687.426	438.6
687.837	365.18
688.247	387.78
688.657	370.83
689.068	404.72
689.478	579.59
689.888	396.25
690.298	322.79
690.708	376.48
691.118	455.53
691.528	396.25
691.938	475.28
692.348	325.62
692.758	469.64
693.168	407.55
693.577	537.32
693.987	351.05
694.396	438.6
694.806	432.95
695.215	520.41
695.625	506.31
696.034	401.9
696.443	348.23
696.852	542.96
697.262	339.75
697.671	359.53
698.08	478.1
698.489	416.02
698.897	373.65
699.306	379.3
699.715	427.31
700.124	480.93
700.532	455.53
700.941	390.6
701.35	353.88
701.758	782.16
702.166	359.53
702.575	514.77
702.983	421.66
703.391	430.13
703.799	441.42
704.208	540.14
704.616	280.37
705.024	475.28
705.432	497.85
705.839	407.55
706.247	534.5
706.655	799.01
707.063	447.07
707.47	452.71
707.878	351.05
708.285	362.35
708.693	382.13
709.1	410.37
709.508	418.84
709.915	390.6
710.322	464
710.729	866.4
711.136	413.19
711.543	373.65
711.95	359.53
712.357	531.68
712.764	376.48
713.171	308.65
713.578	384.95
713.984	404.72
714.391	351.05
714.797	362.35
715.204	322.79
715.61	396.25
716.017	421.66
716.423	458.36
716.829	475.28
717.236	387.78
717.642	407.55
718.048	571.14
718.454	483.75
718.86	300.17
719.266	717.51
719.671	351.05
720.077	517.59
720.483	393.43
720.889	540.14
721.294	297.34
721.7	469.64
722.105	410.37
722.511	393.43
722.916	455.53
723.321	356.7
723.726	528.87
724.132	334.09
724.537	382.13
724.942	345.4
725.347	427.31
725.752	404.72
726.156	280.37
726.561	387.78
726.966	455.53
727.371	534.5
727.775	500.67
728.18	325.62
728.584	328.44
728.989	424.49
729.393	796.2
729.798	328.44
730.202	478.1
730.606	379.3
731.01	331.27
731.414	387.78
731.818	339.75
732.222	328.44
732.626	393.43
733.03	384.95
733.434	300.17
733.837	458.36
734.241	345.4
734.645	303
735.048	390.6
735.452	308.65
735.855	229.44
736.258	444.24
736.662	573.96
737.065	557.05
737.468	559.87
737.871	396.25
738.274	548.6
738.677	393.43
739.08	305.82
739.483	404.72
739.886	368
740.289	495.03
740.691	387.78
741.094	300.17
741.497	319.96
741.899	528.87
742.302	353.88
742.704	288.86
743.106	399.07
743.508	322.79
743.911	314.31
744.313	373.65
744.715	421.66
745.117	339.75
745.519	274.72
745.921	393.43
746.323	362.35
746.724	373.65
747.126	271.89
747.528	480.93
747.929	280.37
748.331	435.78
748.732	424.49
749.134	305.82
749.535	353.88
749.936	461.18
750.338	342.57
750.739	590.86
751.14	317.13
751.541	283.2
751.942	376.48
752.343	407.55
752.744	356.7
753.144	334.09
753.545	396.25
753.946	441.42
754.346	322.79
754.747	624.65
755.148	989.78
755.548	288.86
755.948	384.95
756.349	365.18
756.749	384.95
757.149	342.57
757.549	562.69
757.949	497.85
758.349	407.55
758.749	322.79
759.149	334.09
759.549	325.62
759.949	339.75
760.348	751.24
760.748	382.13
761.148	314.31
761.547	263.4
761.947	260.57
762.346	461.18
762.745	624.65
763.145	393.43
763.544	401.9
763.943	407.55
764.342	291.69
764.741	356.7
765.14	365.18
765.539	342.57
765.938	649.99
766.336	308.65
766.735	393.43
767.134	254.91
767.532	322.79
767.931	331.27
768.329	734.38
768.728	286.03
769.126	325.62
769.525	551.41
769.923	396.25
770.321	384.95
770.719	520.41
771.117	540.14
771.515	404.72
771.913	430.13
772.311	368
772.709	401.9
773.106	291.69
773.504	325.62
773.902	322.79
774.299	432.95
774.697	1000.99
775.094	427.31
775.491	365.18
775.889	416.02
776.286	328.44
776.683	342.57
777.08	263.4
777.477	339.75
777.874	511.95
778.271	294.51
778.668	356.7
779.065	373.65
779.462	351.05
779.858	351.05
780.255	441.42
780.652	348.23
781.048	492.21
781.444	288.86
781.841	226.61
782.237	368
782.633	291.69
783.03	331.27
783.426	269.06
783.822	243.59
784.218	348.23
784.614	303
785.01	283.2
785.405	438.6
785.801	308.65
786.197	359.53
786.593	393.43
786.988	379.3
787.384	444.24
787.779	356.7
788.174	336.92
788.57	308.65
788.965	359.53
789.36	294.51
789.755	376.48
790.15	274.72
790.545	351.05
790.94	246.42
791.335	277.54
791.73	334.09
792.125	537.32
792.52	492.21
792.914	478.1
793.309	336.92
793.703	489.39
794.098	325.62
794.492	500.67
794.887	384.95
795.281	720.32
795.675	509.13
796.069	658.43
796.463	401.9
796.857	368
797.251	348.23
797.645	379.3
798.039	362.35
798.433	348.23
798.826	319.96
799.22	325.62
799.614	399.07
800.007	339.75
800.401	432.95
800.794	198.3
801.187	325.62
801.581	271.89
801.974	379.3
802.367	509.13
802.76	376.48
803.153	206.8
803.546	288.86
803.939	427.31
804.332	209.63
804.725	277.54
805.117	322.79
805.51	387.78
805.903	353.88
806.295	348.23
806.688	286.03
807.08	314.31
807.472	430.13
807.865	396.25
808.257	432.95
808.649	458.36
809.041	331.27
809.433	475.28
809.825	846.75
810.217	288.86
810.609	359.53
811.001	384.95
811.392	345.4
811.784	542.96
812.175	308.65
812.567	410.37
812.958	486.57
813.35	427.31
813.741	322.79
814.132	305.82
814.524	328.44
814.915	300.17
815.306	303
815.697	376.48
816.088	362.35
816.479	503.49
816.87	399.07
817.26	511.95
817.651	672.5
818.042	424.49
818.432	376.48
818.823	430.13
819.213	396.25
819.604	348.23
819.994	438.6
820.384	271.89
820.775	458.36
821.165	283.2
821.555	382.13
821.945	365.18
822.335	305.82
822.725	438.6
823.114	407.55
823.504	393.43
823.894	362.35
824.284	390.6
824.673	387.78
825.063	447.07
825.452	416.02
825.842	368
826.231	697.82
826.62	294.51
827.009	495.03
827.399	432.95
827.788	353.88
828.177	229.44
828.566	283.2
828.954	866.4
829.343	492.21
829.732	317.13
830.121	801.82
830.509	644.36
830.898	416.02
831.286	314.31
831.675	435.78
832.063	464
832.452	317.13
832.84	308.65
833.228	635.91
833.616	455.53
834.004	300.17
834.392	430.13
834.78	514.77
835.168	271.89
835.556	458.36
835.944	455.53
836.331	514.77
836.719	455.53
837.107	401.9
837.494	590.86
837.881	294.51
838.269	382.13
838.656	328.44
839.043	274.72
839.431	790.58
839.818	294.51
840.205	342.57
840.592	441.42
840.979	452.71
841.366	373.65
841.752	334.09
842.139	288.86
842.526	328.44
842.912	447.07
843.299	339.75
843.685	432.95
844.072	376.48
844.458	384.95
844.844	342.57
845.231	249.25
845.617	283.2
846.003	384.95
846.389	356.7
846.775	243.59
847.161	311.48
847.547	277.54
847.933	362.35
848.318	393.43
848.704	325.62
849.09	303
849.475	314.31
849.861	435.78
850.246	376.48
850.631	658.43
851.017	438.6
851.402	336.92
851.787	432.95
852.172	593.68
852.557	497.85
852.942	461.18
853.327	359.53
853.712	379.3
854.097	483.75
854.481	243.59
854.866	432.95
855.25	410.37
855.635	342.57
856.019	348.23
856.404	353.88
856.788	300.17
857.172	322.79
857.557	384.95
857.941	461.18
858.325	356.7
858.709	331.27
859.093	286.03
859.477	288.86
859.86	432.95
860.244	370.83
860.628	616.21
861.012	464
861.395	274.72
861.779	379.3
862.162	308.65
862.545	359.53
862.929	300.17
863.312	475.28
863.695	263.4
864.078	407.55
864.461	252.08
864.844	427.31
865.227	542.96
865.61	277.54
865.993	345.4
866.376	413.19
866.758	495.03
867.141	492.21
867.523	466.82
867.906	393.43
868.288	348.23
868.671	387.78
869.053	393.43
869.435	300.17
869.817	545.78
870.199	336.92
870.581	537.32
870.963	410.37
871.345	461.18
871.727	435.78
872.109	342.57
872.491	342.57
872.872	424.49
873.254	399.07
873.635	291.69
874.017	554.23
874.398	401.9
874.779	523.23
875.161	300.17
875.542	528.87
875.923	283.2
876.304	303
876.685	300.17
877.066	416.02
877.447	303
877.828	469.64
878.208	483.75
878.589	449.89
878.97	641.54
879.35	280.37
879.731	155.81
880.111	348.23
880.491	257.74
880.872	410.37
881.252	291.69
881.632	382.13
882.012	444.24
882.392	838.33
882.772	565.5
883.152	387.78
883.532	331.27
883.912	469.64
884.291	266.23
884.671	401.9
885.051	401.9
885.43	317.13
885.81	427.31
886.189	416.02
886.568	359.53
886.948	325.62
887.327	537.32
887.706	404.72
888.085	517.59
888.464	438.6
888.843	765.3
889.222	444.24
889.601	573.96
889.979	393.43
890.358	325.62
890.737	432.95
891.115	351.05
891.494	269.06
891.872	325.62
892.25	286.03
892.629	497.85
893.007	588.04
893.385	506.31
893.763	399.07
894.141	401.9
894.519	492.21
894.897	294.51
895.275	325.62
895.653	266.23
896.03	370.83
896.408	382.13
896.786	356.7
897.163	314.31
897.541	331.27
897.918	506.31
898.295	257.74
898.673	342.57
899.05	308.65
899.427	1350.38
899.804	303
900.181	331.27
900.558	514.77
900.935	362.35
901.312	294.51
901.688	206.8
902.065	435.78
902.442	432.95
902.818	254.91
903.195	232.27
903.571	243.59
903.947	303
904.324	362.35
904.7	370.83
905.076	630.28
905.452	438.6
905.828	523.23
906.204	435.78
906.58	359.53
906.956	495.03
907.331	568.32
907.707	633.1
908.083	557.05
908.458	416.02
908.834	274.72
909.209	407.55
909.585	401.9
909.96	452.71
910.335	353.88
910.71	288.86
911.086	407.55
911.461	596.49
911.836	294.51
912.21	390.6
912.585	387.78
912.96	458.36
913.335	359.53
913.709	396.25
914.084	331.27
914.459	345.4
914.833	314.31
915.207	229.44
915.582	362.35
915.956	294.51
916.33	319.96
916.704	263.4
917.078	379.3
917.452	413.19
917.826	300.17
918.2	232.27
918.574	379.3
918.948	269.06
919.321	269.06
919.695	365.18
920.068	376.48
920.442	331.27
920.815	432.95
921.189	432.95
921.562	537.32
921.935	390.6
922.308	384.95
922.681	435.78
923.054	407.55
923.427	461.18
923.8	308.65
924.173	294.51
924.546	325.62
924.919	379.3
925.291	331.27
925.664	294.51
926.036	441.42
926.409	404.72
926.781	393.43
927.153	334.09
927.526	447.07
927.898	294.51
928.27	353.88
928.642	297.34
929.014	438.6
929.386	269.06
929.758	283.2
930.129	328.44
930.501	435.78
930.873	314.31
931.244	421.66
931.616	305.82
931.987	328.44
932.359	438.6
932.73	359.53
933.101	396.25
933.472	311.48
933.843	396.25
934.214	568.32
934.585	308.65
934.956	339.75
935.327	905.68
935.698	390.6
936.069	418.84
936.439	554.23
936.81	317.13
937.18	520.41
937.551	308.65
937.921	593.68
938.292	475.28
938.662	334.09
939.032	509.13
939.402	356.7
939.772	432.95
940.142	339.75
940.512	365.18
940.882	328.44
941.252	427.31
941.621	390.6
941.991	407.55
942.361	469.64
942.73	362.35
943.1	303
943.469	359.53
943.838	599.31
944.208	540.14
944.577	300.17
944.946	353.88
945.315	314.31
945.684	288.86
946.053	342.57
946.422	325.62
946.791	271.89
947.159	353.88
947.528	353.88
947.897	317.13
948.265	303
948.634	396.25
949.002	322.79
949.371	283.2
949.739	283.2
950.107	370.83
950.475	311.48
950.843	365.18
951.211	464
951.579	447.07
951.947	280.37
952.315	404.72
952.683	266.23
953.05	322.79
953.418	314.31
953.785	336.92
954.153	359.53
954.52	359.53
954.888	353.88
955.255	280.37
955.622	331.27
955.989	269.06
956.356	523.23
956.723	345.4
957.09	444.24
957.457	407.55
957.824	359.53
958.191	379.3
958.557	444.24
958.924	345.4
959.291	351.05
959.657	280.37
960.023	849.56
960.39	339.75
960.756	314.31
961.122	480.93
961.488	404.72
961.855	277.54
962.221	368
962.586	280.37
962.952	703.45
963.318	438.6
963.684	692.19
964.05	545.78
964.415	353.88
964.781	317.13
965.146	342.57
965.512	616.21
965.877	469.64
966.242	339.75
966.608	379.3
966.973	334.09
967.338	297.34
967.703	478.1
968.068	237.93
968.433	573.96
968.797	754.05
969.162	362.35
969.527	373.65
969.891	209.63
970.256	280.37
970.62	280.37
970.985	362.35
971.349	390.6
971.714	466.82
972.078	449.89
972.442	353.88
972.806	401.9
973.17	269.06
973.534	407.55
973.898	376.48
974.262	413.19
974.625	472.46
974.989	303
975.353	503.49
975.716	407.55
976.08	308.65
976.443	353.88
976.806	297.34
977.17	404.72
977.533	373.65
977.896	266.23
978.259	407.55
978.622	1003.79
978.985	478.1
979.348	435.78
979.711	421.66
980.073	351.05
980.436	418.84
980.799	430.13
981.161	336.92
981.524	300.17
981.886	328.44
982.248	322.79
982.611	328.44
982.973	376.48
983.335	393.43
983.697	339.75
984.059	399.07
984.421	362.35
984.783	311.48
985.145	252.08
985.506	288.86
985.868	407.55
986.23	271.89
986.591	235.1
986.953	362.35
987.314	252.08
987.675	277.54
988.037	25252.88
988.398	815.86
988.759	390.6
989.12	407.55
989.481	444.24
989.842	438.6
990.203	277.54
990.564	206.8
990.924	492.21
991.285	21453.84
991.646	810.25
992.006	314.31
992.367	305.82
992.727	342.57
993.087	382.13
993.448	331.27
993.808	376.48
994.168	288.86
994.528	288.86
994.888	416.02
995.248	401.9
995.608	356.7
995.967	308.65
996.327	246.42
996.687	393.43
997.046	274.72
997.406	325.62
997.765	266.23
998.125	353.88
998.484	325.62
998.843	649.99
999.202	382.13
999.561	252.08
999.92	300.17
1000.279	387.78
1000.638	195.47
1000.997	348.23
1001.356	356.7
1001.715	348.23
1002.073	334.09
1002.432	497.85
1002.79	286.03
1003.149	223.78
1003.507	449.89
1003.865	263.4
1004.224	379.3
1004.582	424.49
1004.94	438.6
1005.298	303
1005.656	356.7
1006.014	325.62
1006.371	336.92
1006.729	325.62
1007.087	534.5
1007.445	478.1
1007.802	449.89
1008.16	274.72
1008.517	438.6
1008.874	424.49
1009.232	396.25
1009.589	1196.84
1009.946	401.9
1010.303	331.27
1010.66	432.95
1011.017	345.4
1011.374	531.68
1011.731	472.46
1012.087	311.48
1012.444	334.09
1012.801	410.37
1013.157	345.4
1013.513	336.92
1013.87	461.18
1014.226	382.13
1014.582	435.78
1014.939	410.37
1015.295	376.48
1015.651	370.83
1016.007	314.31
1016.363	466.82
1016.719	288.86
1017.074	334.09
1017.43	376.48
1017.786	472.46
1018.141	300.17
1018.497	325.62
1018.852	336.92
1019.208	447.07
1019.563	331.27
1019.918	291.69
1020.273	376.48
1020.628	353.88
1020.983	754.05
1021.338	379.3
1021.693	376.48
1022.048	232.27
1022.403	266.23
1022.757	353.88
1023.112	421.66
1023.467	288.86
1023.821	319.96
1024.175	314.31
1024.53	322.79
1024.884	243.59
1025.238	257.74
1025.592	322.79
1025.946	359.53
1026.3	319.96
1026.654	212.46
1027.008	201.13
1027.362	297.34
1027.716	269.06
1028.069	328.44
1028.423	325.62
1028.777	257.74
1029.13	294.51
1029.483	517.59
1029.837	458.36
1030.19	303
1030.543	303
1030.896	283.2
1031.249	416.02
1031.602	303
1031.955	308.65
1032.308	449.89
1032.661	554.23
1033.013	280.37
1033.366	325.62
1033.719	390.6
1034.071	365.18
1034.424	311.48
1034.776	269.06
1035.128	314.31
1035.48	212.46
1035.833	554.23
1036.185	308.65
1036.537	308.65
1036.889	308.65
