Data from BCF92_2_FLMS019251_15-55-57-242.txt Node
Date: Tue Feb 12 15:55:57 CET 2019
User: luk
Spectrometer: FLMS01925
Trigger mode: 0
Integration Time (sec): 1.140050E0
Scans to average: 1
Electric dark correction enabled: true
Nonlinearity correction enabled: true
Boxcar width: 0
XAxis mode: Wavelengths
Number of Pixels in Spectrum: 2048
>>>>>Begin Spectral Data<<<<<
187.103	-214.67
187.574	-214.67
188.045	-214.67
188.516	-231.76
188.987	-92.33
189.458	-12.78
189.929	-246
190.4	-15.62
190.871	-89.49
191.342	-123.61
191.813	-21.3
192.284	117.73
192.754	-55.39
193.225	-7.1
193.696	15.61
194.166	-58.23
194.637	112.06
195.107	157.41
195.578	89.38
196.048	21.29
196.518	114.9
196.989	177.24
197.459	137.57
197.929	109.23
198.399	414.78
198.869	327.21
199.339	380.89
199.809	355.47
200.279	471.23
200.749	318.72
201.219	335.68
201.689	363.94
202.159	304.59
202.628	330.03
203.098	344.16
203.568	307.42
204.037	366.77
204.507	426.07
204.976	462.76
205.445	383.72
205.915	355.47
206.384	468.41
206.853	369.59
207.323	363.94
207.792	437.37
208.261	406.31
208.73	355.47
209.199	482.51
209.668	344.16
210.137	482.51
210.606	465.59
211.075	586.81
211.543	380.89
212.012	451.48
212.481	313.07
212.95	349.82
213.418	510.72
213.887	482.51
214.355	341.34
214.824	369.59
215.292	346.99
215.76	293.28
216.229	267.82
216.697	338.51
217.165	443.01
217.633	341.34
218.101	459.94
218.569	600.89
219.037	375.24
219.505	457.12
219.973	440.19
220.441	335.68
220.909	349.82
221.377	361.12
221.844	332.86
222.312	369.59
222.78	431.72
223.247	352.64
223.715	313.07
224.182	445.83
224.65	403.49
225.117	383.72
225.584	366.77
226.052	335.68
226.519	400.66
226.986	296.1
227.453	301.76
227.92	338.51
228.387	454.3
228.854	332.86
229.321	355.47
229.788	414.78
230.255	505.08
230.722	553
231.189	406.31
231.655	355.47
232.122	403.49
232.589	262.16
233.055	346.99
233.522	465.59
233.988	366.77
234.454	465.59
234.921	496.62
235.387	465.59
235.853	355.47
236.32	344.16
236.786	293.28
237.252	386.54
237.718	547.36
238.184	349.82
238.65	355.47
239.116	358.29
239.582	361.12
240.047	361.12
240.513	414.78
240.979	428.9
241.445	375.24
241.91	346.99
242.376	330.03
242.841	448.65
243.307	335.68
243.772	236.7
244.238	409.13
244.703	564.27
245.168	392.19
245.633	454.3
246.099	330.03
246.564	304.59
247.029	392.19
247.494	443.01
247.959	231.03
248.424	389.37
248.889	296.1
249.353	538.91
249.818	389.37
250.283	338.51
250.748	321.55
251.212	366.77
251.677	448.65
252.141	468.41
252.606	335.68
253.07	361.12
253.535	389.37
253.999	301.76
254.463	383.72
254.927	307.42
255.392	465.59
255.856	502.26
256.32	448.65
256.784	318.72
257.248	372.42
257.712	457.12
258.176	643.13
258.64	346.99
259.103	287.62
259.567	346.99
260.031	344.16
260.495	482.51
260.958	403.49
261.422	400.66
261.885	375.24
262.349	389.37
262.812	358.29
263.275	363.94
263.739	389.37
264.202	457.12
264.665	389.37
265.128	352.64
265.591	474.05
266.054	417.6
266.517	451.48
266.98	389.37
267.443	395.02
267.906	380.89
268.369	290.45
268.832	397.84
269.294	423.25
269.757	386.54
270.22	267.82
270.682	437.37
271.145	479.69
271.607	332.86
272.07	564.27
272.532	290.45
272.994	380.89
273.456	547.36
273.919	940.91
274.381	403.49
274.843	533.27
275.305	533.27
275.767	474.05
276.229	440.19
276.691	437.37
277.153	349.82
277.614	366.77
278.076	284.79
278.538	448.65
279	482.51
279.461	403.49
279.923	553
280.384	349.82
280.846	471.23
281.307	386.54
281.769	414.78
282.23	375.24
282.691	505.08
283.152	369.59
283.613	327.21
284.075	448.65
284.536	536.09
284.997	318.72
285.458	375.24
285.918	443.01
286.379	403.49
286.84	541.73
287.301	287.62
287.762	451.48
288.222	474.05
288.683	397.84
289.143	403.49
289.604	428.9
290.064	375.24
290.525	363.94
290.985	637.5
291.445	471.23
291.906	363.94
292.366	428.9
292.826	349.82
293.286	411.96
293.746	380.89
294.206	445.83
294.666	369.59
295.126	493.79
295.586	315.9
296.046	363.94
296.506	474.05
296.965	414.78
297.425	375.24
297.884	533.27
298.344	468.41
298.804	409.13
299.263	431.72
299.722	321.55
300.182	423.25
300.641	417.6
301.1	349.82
301.559	406.31
302.019	389.37
302.478	372.42
302.937	386.54
303.396	352.64
303.855	724.71
304.314	417.6
304.772	797.78
305.231	344.16
305.69	417.6
306.149	496.62
306.607	409.13
307.066	465.59
307.524	468.41
307.983	414.78
308.441	403.49
308.9	547.36
309.358	355.47
309.816	626.24
310.275	363.94
310.733	324.38
311.191	406.31
311.649	474.05
312.107	474.05
312.565	355.47
313.023	392.19
313.481	363.94
313.939	380.89
314.397	426.07
314.854	383.72
315.312	555.82
315.77	502.26
316.227	330.03
316.685	375.24
317.142	335.68
317.6	428.9
318.057	541.73
318.514	507.9
318.972	468.41
319.429	538.91
319.886	414.78
320.343	375.24
320.8	403.49
321.257	474.05
321.714	505.08
322.171	544.54
322.628	428.9
323.085	431.72
323.542	335.68
323.998	324.38
324.455	332.86
324.912	414.78
325.368	304.59
325.825	482.51
326.281	369.59
326.738	434.54
327.194	403.49
327.65	527.63
328.107	324.38
328.563	409.13
329.019	440.19
329.475	397.84
329.931	465.59
330.387	397.84
330.843	321.55
331.299	454.3
331.755	383.72
332.211	406.31
332.666	321.55
333.122	293.28
333.578	462.76
334.033	386.54
334.489	443.01
334.944	332.86
335.4	679.71
335.855	516.35
336.31	389.37
336.766	361.12
337.221	445.83
337.676	400.66
338.131	392.19
338.586	485.33
339.041	318.72
339.496	507.9
339.951	423.25
340.406	358.29
340.861	352.64
341.316	423.25
341.771	448.65
342.225	406.31
342.68	454.3
343.134	434.54
343.589	468.41
344.043	409.13
344.498	426.07
344.952	474.05
345.406	1030.57
345.861	395.02
346.315	344.16
346.769	414.78
347.223	437.37
347.677	332.86
348.131	397.84
348.585	372.42
349.039	330.03
349.493	307.42
349.947	395.02
350.401	395.02
350.854	313.07
351.308	558.64
351.762	310.24
352.215	527.63
352.669	318.72
353.122	358.29
353.575	428.9
354.029	400.66
354.482	380.89
354.935	507.9
355.388	465.59
355.842	375.24
356.295	451.48
356.748	335.68
357.201	262.16
357.654	423.25
358.106	428.9
358.559	431.72
359.012	375.24
359.465	332.86
359.917	411.96
360.37	369.59
360.823	406.31
361.275	440.19
361.728	440.19
362.18	457.12
362.632	397.84
363.085	380.89
363.537	352.64
363.989	375.24
364.441	389.37
364.893	355.47
365.345	409.13
365.797	338.51
366.249	378.07
366.701	417.6
367.153	434.54
367.605	383.72
368.057	431.72
368.508	366.77
368.96	341.34
369.411	428.9
369.863	443.01
370.314	496.62
370.766	485.33
371.217	462.76
371.669	341.34
372.12	631.87
372.571	505.08
373.022	386.54
373.473	397.84
373.924	502.26
374.375	414.78
374.826	443.01
375.277	366.77
375.728	395.02
376.179	468.41
376.63	448.65
377.08	519.17
377.531	428.9
377.981	324.38
378.432	389.37
378.883	617.79
379.333	426.07
379.783	420.43
380.234	403.49
380.684	389.37
381.134	459.94
381.584	482.51
382.034	490.97
382.485	375.24
382.935	423.25
383.385	516.35
383.834	392.19
384.284	462.76
384.734	287.62
385.184	411.96
385.634	341.34
386.083	375.24
386.533	358.29
386.982	445.83
387.432	451.48
387.881	378.07
388.331	395.02
388.78	578.36
389.229	366.77
389.679	352.64
390.128	389.37
390.577	471.23
391.026	395.02
391.475	389.37
391.924	389.37
392.373	327.21
392.822	414.78
393.27	471.23
393.719	383.72
394.168	417.6
394.617	346.99
395.065	346.99
395.514	493.79
395.962	443.01
396.411	414.78
396.859	330.03
397.307	482.51
397.756	448.65
398.204	417.6
398.652	561.45
399.1	423.25
399.548	414.78
399.996	567.09
400.444	516.35
400.892	380.89
401.34	332.86
401.788	346.99
402.236	366.77
402.683	380.89
403.131	448.65
403.579	434.54
404.026	431.72
404.474	378.07
404.921	443.01
405.369	386.54
405.816	338.51
406.263	366.77
406.71	485.33
407.158	406.31
407.605	378.07
408.052	369.59
408.499	423.25
408.946	505.08
409.393	397.84
409.84	395.02
410.286	380.89
410.733	411.96
411.18	420.43
411.626	468.41
412.073	426.07
412.52	358.29
412.966	355.47
413.413	344.16
413.859	383.72
414.305	369.59
414.752	397.84
415.198	355.47
415.644	428.9
416.09	409.13
416.536	324.38
416.982	411.96
417.428	490.97
417.874	330.03
418.32	406.31
418.766	414.78
419.211	338.51
419.657	372.42
420.103	411.96
420.548	420.43
420.994	471.23
421.439	414.78
421.885	426.07
422.33	440.19
422.776	400.66
423.221	617.79
423.666	431.72
424.111	505.08
424.556	488.15
425.001	361.12
425.446	443.01
425.891	423.25
426.336	482.51
426.781	654.39
427.226	397.84
427.671	406.31
428.115	440.19
428.56	448.65
429.005	459.94
429.449	400.66
429.894	358.29
430.338	606.53
430.782	397.84
431.227	380.89
431.671	474.05
432.115	431.72
432.559	369.59
433.003	434.54
433.447	403.49
433.891	380.89
434.335	406.31
434.779	358.29
435.223	451.48
435.667	409.13
436.111	1719.2
436.554	426.07
436.998	443.01
437.442	375.24
437.885	389.37
438.328	372.42
438.772	409.13
439.215	417.6
439.659	389.37
440.102	400.66
440.545	386.54
440.988	434.54
441.431	375.24
441.874	445.83
442.317	423.25
442.76	349.82
443.203	372.42
443.646	434.54
444.089	383.72
444.531	434.54
444.974	431.72
445.417	482.51
445.859	428.9
446.302	443.01
446.744	366.77
447.186	423.25
447.629	527.63
448.071	313.07
448.513	411.96
448.956	372.42
449.398	496.62
449.84	409.13
450.282	538.91
450.724	344.16
451.166	465.59
451.607	600.89
452.049	366.77
452.491	358.29
452.933	451.48
453.374	536.09
453.816	614.97
454.257	485.33
454.699	544.54
455.14	397.84
455.582	496.62
456.023	502.26
456.464	369.59
456.905	462.76
457.347	564.27
457.788	459.94
458.229	457.12
458.67	443.01
459.111	499.44
459.552	488.15
459.992	431.72
460.433	383.72
460.874	344.16
461.315	428.9
461.755	490.97
462.196	383.72
462.636	459.94
463.077	423.25
463.517	516.35
463.957	344.16
464.398	420.43
464.838	476.87
465.278	411.96
465.718	454.3
466.158	383.72
466.598	423.25
467.038	462.76
467.478	524.81
467.918	440.19
468.358	493.79
468.798	417.6
469.237	397.84
469.677	434.54
470.117	482.51
470.556	443.01
470.996	527.63
471.435	417.6
471.874	406.31
472.314	397.84
472.753	445.83
473.192	420.43
473.631	448.65
474.07	307.42
474.509	575.54
474.948	366.77
475.387	366.77
475.826	505.08
476.265	490.97
476.704	505.08
477.143	553
477.581	654.39
478.02	589.63
478.458	586.81
478.897	640.31
479.335	561.45
479.774	555.82
480.212	660.01
480.65	493.79
481.089	544.54
481.527	831.48
481.965	733.15
482.403	654.39
482.841	820.25
483.279	1036.18
483.717	1485.69
484.155	1491.26
484.592	1702.54
485.03	2261.37
485.468	2602.51
485.905	3108.87
486.343	3601.42
486.781	4201.84
487.218	5004.5
487.655	5867.1
488.093	6612.36
488.53	7961.67
488.967	8790.77
489.405	10048.07
489.842	11053.68
490.279	12570.85
490.716	14010.45
491.153	15475.58
491.59	16806.42
492.027	17952.51
492.463	19595.66
492.9	20728.76
493.337	22158.21
493.773	23873.9
494.21	25092.06
494.647	26577.04
495.083	27591.01
495.519	29397.4
495.956	30698.13
496.392	31873.53
496.828	33399.79
497.265	33948.51
497.701	35490.93
498.137	36532.06
498.573	37077.71
499.009	38993.25
499.445	39664.84
499.881	39960.42
500.316	41766.8
500.752	41893.24
501.188	42984.11
501.624	44498.43
502.059	43607.54
502.495	44433.23
502.93	45270
503.366	48334.27
503.801	46846.9
504.236	47249.59
504.672	47017.51
505.107	47845.8
505.542	47681.74
505.977	48856.08
506.412	48486.4
506.847	49445.88
507.282	49221.98
507.717	49890.18
508.152	50205.27
508.587	50529.59
509.021	50205.27
509.456	50434.52
509.891	50746.61
510.325	51188.05
510.76	51334.96
511.194	51460.78
511.628	51926.16
512.063	51482.22
512.497	52305.54
512.931	51260.13
513.366	51686.29
513.8	52186.02
514.234	51433.99
514.668	51753.57
515.102	52945.77
515.536	51439.35
515.969	52294.66
516.403	51769.73
516.837	52001.83
517.271	52194.16
517.704	51842.49
518.138	52283.79
518.571	52107.39
519.005	51829.01
519.438	51220.08
519.871	51570.75
520.305	51212.07
520.738	51321.59
521.171	50638.02
521.604	51538.54
522.037	50834.14
522.47	50831.49
522.903	49610.26
523.336	50556.02
523.769	50142.15
524.202	49696.49
524.634	49219.38
525.067	49490.2
525.5	49370.32
525.932	49412
526.365	47884.28
526.797	48038.36
527.23	48801.71
527.662	47809.89
528.094	47369.62
528.527	47132.22
528.959	46602.82
529.391	46404.81
529.823	45164.25
530.255	45779.54
530.687	45184.38
531.119	44671.56
531.551	44628.89
531.982	44152.63
532.414	43897.41
532.846	42959.21
533.277	42964.19
533.709	41846.12
534.14	42842.2
534.572	41846.12
535.003	42114.02
535.435	41372.98
535.866	41375.46
536.297	40243.92
536.728	40668.39
537.159	40885.78
537.59	39938.24
538.022	39566.36
538.452	39499.9
538.883	38953.92
539.314	38757.36
539.745	38364.49
540.176	37937.65
540.606	37293.18
541.037	37869
541.468	36943.09
541.898	37006.73
542.328	36686.17
542.759	36226.41
543.189	36206.85
543.619	35959.99
544.05	35429.87
544.48	35464.06
544.91	34868.34
545.34	34804.88
545.77	34380.29
546.2	34299.78
546.63	33741.2
547.06	33502.21
547.489	33353.46
547.919	32083.21
548.349	33170.59
548.778	32417.21
549.208	31936.92
549.637	31771.13
550.067	31466.35
550.496	31332.23
550.926	31498.04
551.355	30573.73
551.784	30739.6
552.213	30139.44
552.642	29763.6
553.071	29470.65
553.5	29399.84
553.929	28789.2
554.358	28806.3
554.787	28681.68
555.216	28495.94
555.645	27828.36
556.073	27517.59
556.502	27321.76
556.93	27400.1
557.359	26939.71
557.787	26861.31
558.216	26429.94
558.644	26086.58
559.072	26238.67
559.5	25639.89
559.929	26037.51
560.357	25949.17
560.785	25305.86
561.213	25549.03
561.641	25298.48
562.068	25526.93
562.496	24769.97
562.924	24698.64
563.352	24708.48
563.779	24907.68
564.207	24873.26
564.634	24622.38
565.062	24632.22
565.489	24021.72
565.917	24327.06
566.344	23969.99
566.771	23775.33
567.198	23459.76
567.625	23548.53
568.053	23252.55
568.48	22951.44
568.907	22605.66
569.333	22491.99
569.76	21695.46
570.187	22373.34
570.614	21782.11
571.04	41692.45
571.467	21011.56
571.894	20562.47
572.32	20321.6
572.747	20209.81
573.173	19923.98
573.599	19707.61
574.026	19214.77
574.452	19077.76
574.878	18793.63
575.304	18399.51
575.73	18237.25
576.156	17710.07
576.582	17960.01
577.008	17537.52
577.434	17139.6
577.86	16874.08
578.285	16974.3
578.711	16558.21
579.137	16146.66
579.562	15739.65
579.988	15787.41
580.413	15596.32
580.838	15196.19
581.264	15160.94
581.689	15047.59
582.114	14861.11
582.539	16620.9
582.964	14518.11
583.39	14455.01
583.814	13889.08
584.239	13704.41
584.664	13846.09
585.089	13512.02
585.514	13387.91
585.939	13210.5
586.363	13017.76
586.788	12895.95
587.212	12514.93
587.637	12481.88
588.061	12286.03
588.485	12148.59
588.91	11786.77
589.334	11809.72
589.758	11605.65
590.182	11490.77
590.606	10920.58
591.03	11076.71
591.454	10792.52
591.878	10879.61
592.302	10882.17
592.726	10766.9
593.15	10418.09
593.573	10400.12
593.997	10176.63
594.42	9651.5
594.844	9687.59
595.267	9764.9
595.691	9568.98
596.114	9390.92
596.537	9287.6
596.96	9378.01
597.384	9272.1
597.807	8899.58
598.23	9140.27
598.653	8694.84
599.076	8554.73
599.499	8578.09
599.921	8359.91
600.344	8232.49
600.767	8170.04
601.189	8411.89
601.612	8130.99
602.034	7917.35
602.457	7912.13
602.879	8141.41
603.302	7833.89
603.724	7729.49
604.146	7606.71
604.568	7358.2
604.991	7567.5
605.413	7261.29
605.835	7371.29
606.257	7342.49
606.678	7300.58
607.1	7111.84
607.522	7054.11
607.944	7077.73
608.365	6967.46
608.787	6709.79
609.209	6741.37
609.63	6696.63
610.051	6514.86
610.473	6843.95
610.894	6504.31
611.315	6499.04
611.737	6622.9
612.158	6200.7
612.579	6105.48
613	6480.58
613.421	6113.42
613.842	6290.54
614.263	6036.67
614.683	5957.22
615.104	5906.87
615.525	5697.27
615.945	5758.33
616.366	5604.28
616.787	5803.44
617.207	5529.83
617.627	5311.49
618.048	5194.14
618.468	5202.15
618.888	5242.16
619.308	5122.06
619.728	5001.83
620.148	4985.78
620.568	4961.71
620.988	4870.73
621.408	4868.06
621.828	4637.55
622.248	4597.29
622.668	4567.76
623.087	4403.81
623.507	4452.21
623.926	4428.01
624.346	4298.84
624.765	4355.37
625.185	4185.66
625.604	4058.85
626.023	4129.02
626.442	3961.6
626.861	4112.84
627.28	3758.67
627.699	3931.87
628.118	3690.92
628.537	3704.47
628.956	3709.9
629.375	3674.65
629.794	3652.96
630.212	3579.71
630.631	3490.09
631.049	3422.14
631.468	3408.54
631.886	3348.69
632.305	3454.76
632.723	3125.25
633.141	3217.96
633.559	3155.25
633.978	3141.62
634.396	3147.07
634.814	3035.16
635.232	2988.72
635.65	2788.99
636.067	2758.85
636.485	2887.54
636.903	2717.73
637.321	2769.81
637.738	2868.39
638.156	2786.25
638.573	2566.81
638.991	2723.22
639.408	2671.11
639.825	2550.33
640.243	2591.52
640.66	2481.62
641.077	2517.35
641.494	2484.37
641.911	2451.37
642.328	2429.36
642.745	2368.81
643.162	2357.8
643.579	2335.77
643.995	2164.82
644.412	2264.12
644.829	2145.5
645.245	2167.58
645.662	2128.93
646.078	2048.81
646.495	2076.45
646.911	2018.4
647.327	1985.21
647.743	1982.44
648.159	1985.21
648.576	2081.97
648.992	2037.75
649.408	1866.17
649.824	1907.71
650.239	1943.7
650.655	1885.56
651.071	1874.48
651.487	1866.17
651.902	1616.43
652.318	1771.91
652.733	1683.1
653.149	1683.1
653.564	1705.32
653.979	1674.77
654.395	1669.22
654.81	1474.56
655.225	1596.97
655.64	1746.95
656.055	1510.75
656.47	1624.77
656.885	1571.95
657.3	1488.48
657.715	1591.41
658.13	1399.34
658.544	1596.97
658.959	1435.57
659.374	1416.06
659.788	1563.6
660.202	1466.2
660.617	1599.75
661.031	1390.98
661.445	1413.28
661.86	1326.85
662.274	1466.2
662.688	1466.2
663.102	1357.53
663.516	1340.79
663.93	1368.68
664.344	1354.74
664.758	1310.11
665.171	1363.1
665.585	1315.69
665.999	1195.62
666.412	1153.69
666.826	1298.95
667.239	1404.92
667.653	1206.8
668.066	1209.59
668.479	1259.87
668.892	1120.14
669.306	1167.67
669.719	1181.65
670.132	1226.35
670.545	1122.93
670.958	1103.35
671.37	1201.21
671.783	1078.17
672.196	1094.96
672.609	1016.57
673.021	1033.38
673.434	943.71
673.846	1083.76
674.259	1002.57
674.671	991.36
675.084	1016.57
675.496	960.53
675.908	935.3
676.32	1044.58
676.732	1027.77
677.144	1086.56
677.556	952.12
677.968	971.74
678.38	932.5
678.792	918.47
679.204	980.15
679.615	963.33
680.027	896.04
680.439	949.32
680.85	1008.17
681.262	1156.49
681.673	890.42
682.084	974.55
682.496	901.65
682.907	952.12
683.318	825.87
683.729	825.87
684.14	738.77
684.551	786.55
684.962	862.36
685.373	789.36
685.784	817.44
686.194	912.87
686.605	752.82
687.016	772.5
687.426	741.58
687.837	660.01
688.247	741.58
688.657	730.34
689.068	727.52
689.478	640.31
689.888	705.03
690.298	707.84
690.708	707.84
691.118	693.78
691.528	668.46
691.938	654.39
692.348	690.96
692.758	617.79
693.168	738.77
693.577	643.13
693.987	612.16
694.396	688.15
694.806	640.31
695.215	710.65
695.625	690.96
696.034	772.5
696.443	555.82
696.852	764.07
697.262	617.79
697.671	592.44
698.08	536.09
698.489	614.97
698.897	583.99
699.306	550.18
699.715	581.18
700.124	536.09
700.532	496.62
700.941	600.89
701.35	544.54
701.758	744.39
702.166	541.73
702.575	606.53
702.983	553
703.391	620.61
703.799	521.99
704.208	538.91
704.616	448.65
705.024	617.79
705.432	493.79
705.839	485.33
706.247	696.59
706.655	735.96
707.063	550.18
707.47	550.18
707.878	448.65
708.285	572.72
708.693	547.36
709.1	493.79
709.508	454.3
709.915	488.15
710.322	521.99
710.729	738.77
711.136	403.49
711.543	496.62
711.95	479.69
712.357	411.96
712.764	440.19
713.171	363.94
713.578	499.44
713.984	519.17
714.391	355.47
714.797	409.13
715.204	468.41
715.61	406.31
716.017	420.43
716.423	490.97
716.829	406.31
717.236	445.83
717.642	448.65
718.048	502.26
718.454	553
718.86	363.94
719.266	609.34
719.671	443.01
720.077	462.76
720.483	459.94
720.889	558.64
721.294	437.37
721.7	400.66
722.105	420.43
722.511	431.72
722.916	479.69
723.321	465.59
723.726	592.44
724.132	496.62
724.537	485.33
724.942	445.83
725.347	400.66
725.752	434.54
726.156	465.59
726.561	493.79
726.966	395.02
727.371	440.19
727.775	507.9
728.18	440.19
728.584	437.37
728.989	482.51
729.393	600.89
729.798	488.15
730.202	578.36
730.606	459.94
731.01	397.84
731.414	462.76
731.818	468.41
732.222	524.81
732.626	443.01
733.03	474.05
733.434	369.59
733.837	468.41
734.241	530.45
734.645	428.9
735.048	510.72
735.452	505.08
735.855	406.31
736.258	493.79
736.662	578.36
737.065	581.18
737.468	443.01
737.871	476.87
738.274	493.79
738.677	428.9
739.08	372.42
739.483	315.9
739.886	434.54
740.289	459.94
740.691	369.59
741.094	420.43
741.497	369.59
741.899	575.54
742.302	346.99
742.704	363.94
743.106	389.37
743.508	443.01
743.911	397.84
744.313	420.43
744.715	400.66
745.117	395.02
745.519	361.12
745.921	462.76
746.323	417.6
746.724	445.83
747.126	403.49
747.528	482.51
747.929	380.89
748.331	409.13
748.732	361.12
749.134	420.43
749.535	318.72
749.936	612.16
750.338	378.07
750.739	533.27
751.14	372.42
751.541	361.12
751.942	361.12
752.343	440.19
752.744	423.25
753.144	375.24
753.545	330.03
753.946	426.07
754.346	358.29
754.747	530.45
755.148	705.03
755.548	383.72
755.948	386.54
756.349	431.72
756.749	358.29
757.149	338.51
757.549	555.82
757.949	417.6
758.349	389.37
758.749	403.49
759.149	352.64
759.549	321.55
759.949	358.29
760.348	609.34
760.748	380.89
761.148	366.77
761.547	338.51
761.947	290.45
762.346	403.49
762.745	448.65
763.145	440.19
763.544	414.78
763.943	482.51
764.342	341.34
764.741	346.99
765.14	352.64
765.539	363.94
765.938	561.45
766.336	344.16
766.735	397.84
767.134	315.9
767.532	372.42
767.931	380.89
768.329	592.44
768.728	423.25
769.126	380.89
769.525	527.63
769.923	426.07
770.321	366.77
770.719	479.69
771.117	380.89
771.515	454.3
771.913	420.43
772.311	434.54
772.709	344.16
773.106	358.29
773.504	389.37
773.902	372.42
774.299	513.54
774.697	693.78
775.094	352.64
775.491	411.96
775.889	397.84
776.286	406.31
776.683	383.72
777.08	338.51
777.477	327.21
777.874	468.41
778.271	426.07
778.668	414.78
779.065	403.49
779.462	437.37
779.858	366.77
780.255	454.3
780.652	476.87
781.048	301.76
781.444	431.72
781.841	349.82
782.237	400.66
782.633	338.51
783.03	324.38
783.426	287.62
783.822	290.45
784.218	366.77
784.614	307.42
785.01	358.29
785.405	395.02
785.801	335.68
786.197	400.66
786.593	395.02
786.988	409.13
787.384	510.72
787.779	426.07
788.174	400.66
788.57	448.65
788.965	395.02
789.36	440.19
789.755	403.49
790.15	298.93
790.545	414.78
790.94	369.59
791.335	279.14
791.73	352.64
792.125	513.54
792.52	397.84
792.914	448.65
793.309	330.03
793.703	445.83
794.098	338.51
794.492	338.51
794.887	380.89
795.281	536.09
795.675	507.9
796.069	476.87
796.463	397.84
796.857	375.24
797.251	383.72
797.645	330.03
798.039	440.19
798.433	355.47
798.826	372.42
799.22	420.43
799.614	253.67
800.007	324.38
800.401	304.59
800.794	313.07
801.187	406.31
801.581	395.02
801.974	465.59
802.367	443.01
802.76	397.84
803.153	335.68
803.546	380.89
803.939	440.19
804.332	366.77
804.725	338.51
805.117	307.42
805.51	324.38
805.903	346.99
806.295	355.47
806.688	403.49
807.08	428.9
807.472	426.07
807.865	426.07
808.257	445.83
808.649	476.87
809.041	392.19
809.433	471.23
809.825	363.94
810.217	310.24
810.609	485.33
811.001	392.19
811.392	369.59
811.784	417.6
812.175	361.12
812.567	459.94
812.958	403.49
813.35	352.64
813.741	324.38
814.132	358.29
814.524	420.43
814.915	352.64
815.306	366.77
815.697	352.64
816.088	380.89
816.479	445.83
816.87	462.76
817.26	349.82
817.651	513.54
818.042	380.89
818.432	490.97
818.823	369.59
819.213	476.87
819.604	349.82
819.994	414.78
820.384	434.54
820.775	443.01
821.165	411.96
821.555	363.94
821.945	358.29
822.335	344.16
822.725	411.96
823.114	344.16
823.504	361.12
823.894	369.59
824.284	536.09
824.673	372.42
825.063	434.54
825.452	414.78
825.842	420.43
826.231	558.64
826.62	397.84
827.009	383.72
827.399	414.78
827.788	395.02
828.177	327.21
828.566	457.12
828.954	657.2
829.343	426.07
829.732	346.99
830.121	668.46
830.509	474.05
830.898	344.16
831.286	296.1
831.675	516.35
832.063	417.6
832.452	358.29
832.84	242.36
833.228	445.83
833.616	346.99
834.004	414.78
834.392	335.68
834.78	479.69
835.168	315.9
835.556	426.07
835.944	471.23
836.331	380.89
836.719	423.25
837.107	392.19
837.494	414.78
837.881	409.13
838.269	380.89
838.656	445.83
839.043	363.94
839.431	629.05
839.818	411.96
840.205	363.94
840.592	451.48
840.979	293.28
841.366	346.99
841.752	383.72
842.139	264.99
842.526	369.59
842.912	392.19
843.299	324.38
843.685	420.43
844.072	400.66
844.458	482.51
844.844	341.34
845.231	324.38
845.617	389.37
846.003	513.54
846.389	330.03
846.775	332.86
847.161	346.99
847.547	355.47
847.933	332.86
848.318	423.25
848.704	310.24
849.09	330.03
849.475	451.48
849.861	541.73
850.246	400.66
850.631	496.62
851.017	355.47
851.402	296.1
851.787	392.19
852.172	485.33
852.557	346.99
852.942	355.47
853.327	355.47
853.712	471.23
854.097	437.37
854.481	318.72
854.866	428.9
855.25	411.96
855.635	448.65
856.019	375.24
856.404	378.07
856.788	369.59
857.172	411.96
857.557	386.54
857.941	496.62
858.325	406.31
858.709	375.24
859.093	445.83
859.477	304.59
859.86	499.44
860.244	330.03
860.628	507.9
861.012	406.31
861.395	324.38
861.779	395.02
862.162	445.83
862.545	403.49
862.929	341.34
863.312	465.59
863.695	335.68
864.078	462.76
864.461	301.76
864.844	366.77
865.227	581.18
865.61	386.54
865.993	352.64
866.376	375.24
866.758	440.19
867.141	468.41
867.523	485.33
867.906	321.55
868.288	321.55
868.671	443.01
869.053	310.24
869.435	437.37
869.817	507.9
870.199	344.16
870.581	338.51
870.963	389.37
871.345	437.37
871.727	375.24
872.109	400.66
872.491	346.99
872.872	440.19
873.254	358.29
873.635	372.42
874.017	417.6
874.398	307.42
874.779	476.87
875.161	358.29
875.542	488.15
875.923	380.89
876.304	315.9
876.685	332.86
877.066	346.99
877.447	389.37
877.828	324.38
878.208	403.49
878.589	479.69
878.97	409.13
879.35	349.82
879.731	369.59
880.111	403.49
880.491	264.99
880.872	490.97
881.252	279.14
881.632	313.07
882.012	476.87
882.392	457.12
882.772	440.19
883.152	369.59
883.532	352.64
883.912	434.54
884.291	327.21
884.671	330.03
885.051	363.94
885.43	332.86
885.81	428.9
886.189	392.19
886.568	445.83
886.948	445.83
887.327	383.72
887.706	352.64
888.085	471.23
888.464	417.6
888.843	620.61
889.222	426.07
889.601	423.25
889.979	369.59
890.358	386.54
890.737	335.68
891.115	375.24
891.494	304.59
891.872	386.54
892.25	281.96
892.629	499.44
893.007	490.97
893.385	397.84
893.763	304.59
894.141	392.19
894.519	383.72
894.897	378.07
895.275	327.21
895.653	307.42
896.03	397.84
896.408	414.78
896.786	468.41
897.163	358.29
897.541	264.99
897.918	507.9
898.295	330.03
898.673	327.21
899.05	426.07
899.427	890.42
899.804	290.45
900.181	417.6
900.558	448.65
900.935	437.37
901.312	284.79
901.688	301.76
902.065	471.23
902.442	403.49
902.818	358.29
903.195	349.82
903.571	330.03
903.947	369.59
904.324	409.13
904.7	284.79
905.076	567.09
905.452	428.9
905.828	459.94
906.204	361.12
906.58	315.9
906.956	496.62
907.331	567.09
907.707	550.18
908.083	431.72
908.458	375.24
908.834	330.03
909.209	321.55
909.585	426.07
909.96	536.09
910.335	310.24
910.71	361.12
911.086	389.37
911.461	488.15
911.836	349.82
912.21	378.07
912.585	380.89
912.96	423.25
913.335	338.51
913.709	380.89
914.084	349.82
914.459	471.23
914.833	423.25
915.207	352.64
915.582	290.45
915.956	307.42
916.33	459.94
916.704	321.55
917.078	451.48
917.452	409.13
917.826	315.9
918.2	363.94
918.574	411.96
918.948	307.42
919.321	366.77
919.695	363.94
920.068	479.69
920.442	389.37
920.815	383.72
921.189	361.12
921.562	462.76
921.935	411.96
922.308	338.51
922.681	454.3
923.054	346.99
923.427	437.37
923.8	321.55
924.173	454.3
924.546	349.82
924.919	403.49
925.291	324.38
925.664	248.02
926.036	406.31
926.409	324.38
926.781	352.64
927.153	403.49
927.526	454.3
927.898	330.03
928.27	262.16
928.642	276.31
929.014	346.99
929.386	372.42
929.758	361.12
930.129	395.02
930.501	502.26
930.873	313.07
931.244	426.07
931.616	363.94
931.987	363.94
932.359	428.9
932.73	307.42
933.101	403.49
933.472	293.28
933.843	434.54
934.214	521.99
934.585	276.31
934.956	346.99
935.327	702.22
935.698	440.19
936.069	479.69
936.439	496.62
936.81	375.24
937.18	349.82
937.551	358.29
937.921	474.05
938.292	476.87
938.662	451.48
939.032	454.3
939.402	431.72
939.772	341.34
940.142	315.9
940.512	397.84
940.882	378.07
941.252	428.9
941.621	389.37
941.991	352.64
942.361	496.62
942.73	417.6
943.1	403.49
943.469	355.47
943.838	440.19
944.208	482.51
944.577	346.99
944.946	324.38
945.315	349.82
945.684	420.43
946.053	403.49
946.422	380.89
946.791	375.24
947.159	516.35
947.528	378.07
947.897	459.94
948.265	346.99
948.634	411.96
949.002	352.64
949.371	378.07
949.739	296.1
950.107	397.84
950.475	355.47
950.843	383.72
951.211	372.42
951.579	462.76
951.947	321.55
952.315	344.16
952.683	335.68
953.05	284.79
953.418	341.34
953.785	395.02
954.153	298.93
954.52	352.64
954.888	378.07
955.255	411.96
955.622	448.65
955.989	338.51
956.356	513.54
956.723	276.31
957.09	406.31
957.457	448.65
957.824	307.42
958.191	253.67
958.557	366.77
958.924	290.45
959.291	358.29
959.657	417.6
960.023	620.61
960.39	395.02
960.756	397.84
961.122	476.87
961.488	330.03
961.855	352.64
962.221	397.84
962.586	344.16
962.952	631.87
963.318	423.25
963.684	620.61
964.05	485.33
964.415	423.25
964.781	358.29
965.146	310.24
965.512	561.45
965.877	488.15
966.242	428.9
966.608	403.49
966.973	428.9
967.338	346.99
967.703	474.05
968.068	397.84
968.433	454.3
968.797	606.53
969.162	335.68
969.527	358.29
969.891	344.16
970.256	389.37
970.62	397.84
970.985	459.94
971.349	465.59
971.714	406.31
972.078	423.25
972.442	400.66
972.806	363.94
973.17	417.6
973.534	346.99
973.898	361.12
974.262	372.42
974.625	400.66
974.989	380.89
975.353	476.87
975.716	420.43
976.08	335.68
976.443	304.59
976.806	375.24
977.17	440.19
977.533	406.31
977.896	346.99
978.259	346.99
978.622	800.59
978.985	392.19
979.348	352.64
979.711	403.49
980.073	335.68
980.436	386.54
980.799	369.59
981.161	372.42
981.524	301.76
981.886	392.19
982.248	445.83
982.611	380.89
982.973	341.34
983.335	369.59
983.697	363.94
984.059	287.62
984.421	301.76
984.783	332.86
985.145	352.64
985.506	276.31
985.868	395.02
986.23	375.24
986.591	298.93
986.953	378.07
987.314	361.12
987.675	341.34
988.037	10631.04
988.398	660.01
988.759	400.66
989.12	352.64
989.481	395.02
989.842	411.96
990.203	372.42
990.564	276.31
990.924	361.12
991.285	11840.32
991.646	643.13
992.006	397.84
992.367	378.07
992.727	510.72
993.087	420.43
993.448	324.38
993.808	338.51
994.168	400.66
994.528	479.69
994.888	406.31
995.248	437.37
995.608	397.84
995.967	400.66
996.327	338.51
996.687	318.72
997.046	330.03
997.406	417.6
997.765	242.36
998.125	380.89
998.484	304.59
998.843	462.76
999.202	341.34
999.561	248.02
999.92	290.45
1000.279	279.14
1000.638	335.68
1000.997	355.47
1001.356	335.68
1001.715	426.07
1002.073	284.79
1002.432	414.78
1002.79	287.62
1003.149	290.45
1003.507	397.84
1003.865	281.96
1004.224	409.13
1004.582	389.37
1004.94	409.13
1005.298	321.55
1005.656	363.94
1006.014	383.72
1006.371	400.66
1006.729	338.51
1007.087	519.17
1007.445	321.55
1007.802	409.13
1008.16	361.12
1008.517	363.94
1008.874	392.19
1009.232	298.93
1009.589	817.44
1009.946	375.24
1010.303	276.31
1010.66	369.59
1011.017	293.28
1011.374	462.76
1011.731	315.9
1012.087	338.51
1012.444	318.72
1012.801	380.89
1013.157	386.54
1013.513	375.24
1013.87	392.19
1014.226	479.69
1014.582	358.29
1014.939	400.66
1015.295	366.77
1015.651	301.76
1016.007	276.31
1016.363	521.99
1016.719	259.33
1017.074	395.02
1017.43	375.24
1017.786	372.42
1018.141	332.86
1018.497	301.76
1018.852	392.19
1019.208	496.62
1019.563	363.94
1019.918	287.62
1020.273	335.68
1020.628	296.1
1020.983	426.07
1021.338	321.55
1021.693	355.47
1022.048	375.24
1022.403	327.21
1022.757	403.49
1023.112	411.96
1023.467	310.24
1023.821	321.55
1024.175	363.94
1024.53	363.94
1024.884	304.59
1025.238	378.07
1025.592	378.07
1025.946	270.65
1026.3	304.59
1026.654	262.16
1027.008	383.72
1027.362	270.65
1027.716	392.19
1028.069	352.64
1028.423	389.37
1028.777	279.14
1029.13	380.89
1029.483	330.03
1029.837	395.02
1030.19	372.42
1030.543	267.82
1030.896	330.03
1031.249	395.02
1031.602	380.89
1031.955	386.54
1032.308	307.42
1032.661	428.9
1033.013	375.24
1033.366	296.1
1033.719	411.96
1034.071	406.31
1034.424	296.1
1034.776	321.55
1035.128	264.99
1035.48	315.9
1035.833	403.49
1036.185	349.82
1036.537	349.82
1036.889	349.82
