Data from SCSF78-3-385-irrad_FLMS019251_12-05-53-902.txt Node
Date: Fri Feb 15 12:05:53 CET 2019
User: luk
Spectrometer: FLMS01925
Trigger mode: 0
Integration Time (sec): 5.070000E-3
Scans to average: 1
Electric dark correction enabled: true
Nonlinearity correction enabled: true
Boxcar width: 0
XAxis mode: Wavelengths
Number of Pixels in Spectrum: 2048
>>>>>Begin Spectral Data<<<<<
187.103	-106.01
187.574	-106.01
188.045	-106.01
188.516	-171.44
188.987	-128.76
189.458	-26.44
189.929	-86.11
190.4	-111.7
190.871	-128.76
191.342	-9.41
191.813	-60.54
192.284	-57.69
192.754	10.47
193.225	53.04
193.696	38.85
194.166	-15.08
194.637	36.01
195.107	53.04
195.578	58.71
196.048	135.27
196.518	109.76
196.989	157.94
197.459	319.25
197.929	152.27
198.399	251.38
198.869	251.38
199.339	257.03
199.809	276.84
200.279	316.43
200.749	316.43
201.219	276.84
201.689	409.66
202.159	361.65
202.628	409.66
203.098	370.12
203.568	389.9
204.037	350.35
204.507	409.66
204.976	384.25
205.445	392.72
205.915	395.54
206.384	437.89
206.853	423.78
207.323	381.42
207.792	358.82
208.261	392.72
208.73	370.12
209.199	446.36
209.668	370.12
210.137	341.87
210.606	358.82
211.075	420.96
211.543	412.49
212.012	404.02
212.481	356
212.95	330.56
213.418	384.25
213.887	395.54
214.355	404.02
214.824	316.43
215.292	372.95
215.76	364.47
216.229	347.52
216.697	375.77
217.165	324.91
217.633	330.56
218.101	356
218.569	370.12
219.037	276.84
219.505	313.6
219.973	356
220.441	429.43
220.909	370.12
221.377	372.95
221.844	330.56
222.312	356
222.78	341.87
223.247	398.37
223.715	409.66
224.182	339.04
224.65	372.95
225.117	333.39
225.584	356
226.052	316.43
226.519	398.37
226.986	347.52
227.453	372.95
227.92	395.54
228.387	420.96
228.854	322.08
229.321	353.17
229.788	313.6
230.255	358.82
230.722	361.65
231.189	356
231.655	372.95
232.122	404.02
232.589	426.6
233.055	358.82
233.522	468.94
233.988	307.95
234.454	381.42
234.921	392.72
235.387	409.66
235.853	372.95
236.32	322.08
236.786	319.25
237.252	370.12
237.718	378.6
238.184	392.72
238.65	440.72
239.116	282.49
239.582	426.6
240.047	305.12
240.513	290.98
240.979	336.21
241.445	234.4
241.91	375.77
242.376	364.47
242.841	347.52
243.307	330.56
243.772	347.52
244.238	327.74
244.703	457.65
245.168	302.29
245.633	378.6
246.099	330.56
246.564	302.29
247.029	378.6
247.494	387.07
247.959	310.77
248.424	406.84
248.889	375.77
249.353	418.13
249.818	378.6
250.283	322.08
250.748	341.87
251.212	356
251.677	432.25
252.141	406.84
252.606	361.65
253.07	378.6
253.535	401.19
253.999	372.95
254.463	375.77
254.927	364.47
255.392	435.07
255.856	372.95
256.32	420.96
256.784	322.08
257.248	344.69
257.712	333.39
258.176	290.98
258.64	361.65
259.103	322.08
259.567	350.35
260.031	327.74
260.495	375.77
260.958	437.89
261.422	389.9
261.885	387.07
262.349	392.72
262.812	384.25
263.275	387.07
263.739	271.18
264.202	389.9
264.665	330.56
265.128	353.17
265.591	429.43
266.054	336.21
266.517	310.77
266.98	310.77
267.443	372.95
267.906	375.77
268.369	392.72
268.832	372.95
269.294	333.39
269.757	420.96
270.22	389.9
270.682	375.77
271.145	375.77
271.607	395.54
272.07	310.77
272.532	322.08
272.994	429.43
273.456	446.36
273.919	341.87
274.381	452.01
274.843	435.07
275.305	426.6
275.767	316.43
276.229	429.43
276.691	330.56
277.153	406.84
277.614	409.66
278.076	387.07
278.538	460.47
279	378.6
279.461	432.25
279.923	395.54
280.384	339.04
280.846	443.54
281.307	276.84
281.769	361.65
282.23	353.17
282.691	454.83
283.152	412.49
283.613	389.9
284.075	398.37
284.536	401.19
284.997	356
285.458	361.65
285.918	367.3
286.379	361.65
286.84	384.25
287.301	412.49
287.762	313.6
288.222	401.19
288.683	420.96
289.143	387.07
289.604	435.07
290.064	409.66
290.525	384.25
290.985	389.9
291.445	440.72
291.906	367.3
292.366	378.6
292.826	341.87
293.286	418.13
293.746	364.47
294.206	412.49
294.666	367.3
295.126	457.65
295.586	381.42
296.046	423.78
296.506	406.84
296.965	435.07
297.425	446.36
297.884	420.96
298.344	418.13
298.804	409.66
299.263	485.86
299.722	423.78
300.182	333.39
300.641	370.12
301.1	299.46
301.559	426.6
302.019	395.54
302.478	389.9
302.937	336.21
303.396	395.54
303.855	330.56
304.314	387.07
304.772	339.04
305.231	398.37
305.69	404.02
306.149	491.5
306.607	372.95
307.066	415.31
307.524	367.3
307.983	358.82
308.441	372.95
308.9	364.47
309.358	471.76
309.816	418.13
310.275	375.77
310.733	330.56
311.191	401.19
311.649	324.91
312.107	341.87
312.565	412.49
313.023	344.69
313.481	435.07
313.939	341.87
314.397	372.95
314.854	435.07
315.312	435.07
315.77	316.43
316.227	316.43
316.685	404.02
317.142	412.49
317.6	435.07
318.057	454.83
318.514	443.54
318.972	409.66
319.429	423.78
319.886	412.49
320.343	435.07
320.8	429.43
321.257	429.43
321.714	474.58
322.171	322.08
322.628	367.3
323.085	290.98
323.542	387.07
323.998	420.96
324.455	395.54
324.912	378.6
325.368	409.66
325.825	435.07
326.281	418.13
326.738	336.21
327.194	485.86
327.65	418.13
328.107	316.43
328.563	420.96
329.019	375.77
329.475	375.77
329.931	387.07
330.387	353.17
330.843	372.95
331.299	406.84
331.755	463.29
332.211	463.29
332.666	452.01
333.122	375.77
333.578	319.25
334.033	353.17
334.489	466.11
334.944	375.77
335.4	310.77
335.855	339.04
336.31	429.43
336.766	384.25
337.221	350.35
337.676	423.78
338.131	432.25
338.586	336.21
339.041	404.02
339.496	415.31
339.951	423.78
340.406	378.6
340.861	370.12
341.316	460.47
341.771	404.02
342.225	423.78
342.68	412.49
343.134	415.31
343.589	426.6
344.043	324.91
344.498	468.94
344.952	401.19
345.406	409.66
345.861	415.31
346.315	370.12
346.769	395.54
347.223	468.94
347.677	440.72
348.131	437.89
348.585	432.25
349.039	426.6
349.493	384.25
349.947	494.32
350.401	415.31
350.854	412.49
351.308	449.18
351.762	392.72
352.215	392.72
352.669	415.31
353.122	480.22
353.575	437.89
354.029	437.89
354.482	381.42
354.935	381.42
355.388	406.84
355.842	358.82
356.295	336.21
356.748	437.89
357.201	313.6
357.654	454.83
358.106	398.37
358.559	341.87
359.012	443.54
359.465	341.87
359.917	418.13
360.37	333.39
360.823	372.95
361.275	446.36
361.728	389.9
362.18	437.89
362.632	401.19
363.085	415.31
363.537	423.78
363.989	547.89
364.441	494.32
364.893	344.69
365.345	398.37
365.797	389.9
366.249	401.19
366.701	432.25
367.153	435.07
367.605	508.42
368.057	406.84
368.508	395.54
368.96	446.36
369.411	412.49
369.863	358.82
370.314	432.25
370.766	404.02
371.217	452.01
371.669	412.49
372.12	409.66
372.571	457.65
373.022	460.47
373.473	381.42
373.924	435.07
374.375	435.07
374.826	401.19
375.277	387.07
375.728	426.6
376.179	367.3
376.63	412.49
377.08	423.78
377.531	440.72
377.981	392.72
378.432	452.01
378.883	339.04
379.333	395.54
379.783	375.77
380.234	330.56
380.684	471.76
381.134	443.54
381.584	499.96
382.034	452.01
382.485	452.01
382.935	449.18
383.385	339.04
383.834	480.22
384.284	494.32
384.734	404.02
385.184	420.96
385.634	370.12
386.083	389.9
386.533	466.11
386.982	404.02
387.432	395.54
387.881	381.42
388.331	463.29
388.78	435.07
389.229	454.83
389.679	415.31
390.128	370.12
390.577	477.4
391.026	423.78
391.475	502.78
391.924	511.24
392.373	392.72
392.822	384.25
393.27	378.6
393.719	418.13
394.168	356
394.617	353.17
395.065	432.25
395.514	401.19
395.962	381.42
396.411	389.9
396.859	389.9
397.307	452.01
397.756	485.86
398.204	375.77
398.652	350.35
399.1	350.35
399.548	398.37
399.996	449.18
400.444	401.19
400.892	516.88
401.34	415.31
401.788	435.07
402.236	471.76
402.683	474.58
403.131	511.24
403.579	341.87
404.026	429.43
404.474	432.25
404.921	437.89
405.369	435.07
405.816	406.84
406.263	420.96
406.71	491.5
407.158	432.25
407.605	463.29
408.052	375.77
408.499	378.6
408.946	547.89
409.393	423.78
409.84	466.11
410.286	508.42
410.733	485.86
411.18	435.07
411.626	401.19
412.073	435.07
412.52	545.07
412.966	533.8
413.413	576.07
413.859	592.97
414.305	592.97
414.752	621.13
415.198	643.66
415.644	764.59
416.09	947.04
416.536	1098.28
416.982	1279.93
417.428	1658.63
417.874	2018.92
418.32	2438.13
418.766	2918.15
419.211	3618.21
419.657	4277.8
420.103	5250.66
420.548	5973.61
420.994	7030.97
421.439	8240.78
421.885	9267.42
422.33	10392.9
422.776	11662.26
423.221	12728.85
423.666	14160.02
424.111	15481.08
424.556	16608.84
425.001	18265.18
425.446	19568.75
425.891	20550.52
426.336	21428.44
426.781	23164.18
427.226	24453.06
427.671	25397.21
428.115	26160.63
428.56	27789.67
429.005	29063.27
429.449	29815.31
429.894	31318.06
430.338	32032.46
430.782	32020.27
431.227	32946.73
431.671	33268.58
432.115	34859.03
432.559	35877.36
433.003	36070.43
433.447	36980.26
433.891	36667.05
434.335	36965.58
434.779	38188.28
435.223	38524.51
435.667	38490.14
436.111	39246.96
436.554	38865.92
436.998	38693.95
437.442	38924.89
437.885	40799.76
438.328	39463.45
438.772	40111.23
439.215	40819.53
439.659	40328.25
440.102	40560.22
440.545	40024.96
440.988	40202.46
441.431	41242.29
441.874	40518.25
442.317	41024.65
442.76	40893.65
443.203	40389.93
443.646	40787.41
444.089	40375.12
444.531	41182.92
444.974	40128.49
445.417	41165.61
445.859	40500.98
446.302	41098.83
446.744	40960.38
447.186	42104.56
447.629	41079.05
448.071	41217.55
448.513	41195.29
448.956	42280.81
449.398	41970.58
449.84	40750.36
450.282	40957.91
450.724	41861.47
451.166	41328.9
451.607	41517.04
452.049	41410.57
452.491	42521.81
452.933	41883.78
453.374	42738.16
453.816	43231.25
454.257	42521.81
454.699	43253.69
455.14	43146.5
455.582	42867.56
456.023	43248.7
456.464	43178.9
456.905	43365.91
457.347	43805.38
457.788	42429.86
458.229	43183.89
458.67	43982.92
459.111	41824.28
459.552	42002.83
459.992	41353.64
460.433	41794.53
460.874	41185.39
461.315	41769.74
461.755	41472.47
462.196	40767.65
462.636	40123.56
463.077	39397.01
463.517	39815.52
463.957	40007.71
464.398	39598.82
464.838	40108.77
465.278	38590.81
465.718	39055.16
466.158	37972.44
466.598	38372.32
467.038	38286.42
467.478	38777.47
467.918	38566.25
468.358	37820.42
468.798	37930.75
469.237	37604.74
469.677	37688.06
470.117	38009.22
470.556	35811.39
470.996	36393.13
471.435	36985.16
471.874	37359.76
472.314	36760.02
472.753	36351.56
473.192	36446.92
473.631	36219.53
474.07	35889.58
474.509	36023.99
474.948	36373.56
475.387	35857.82
475.826	34993.28
476.265	36532.52
476.704	35686.79
477.143	36823.64
477.581	35852.93
478.02	36828.53
478.458	35466.96
478.897	36177.98
479.335	37122.24
479.774	36725.77
480.212	36972.92
480.65	36503.17
481.089	36554.53
481.527	35613.51
481.965	35576.87
482.403	37423.45
482.841	37276.5
483.279	37036.56
483.717	37119.79
484.155	36919.08
484.592	36904.39
485.03	37065.93
485.468	36329.55
485.905	36376.01
486.343	37063.49
486.781	36038.65
487.218	36094.87
487.655	35769.86
488.093	35291.13
488.53	36390.68
488.967	35835.83
489.405	35281.37
489.842	34392.94
490.279	34876.12
490.716	34737
491.153	34634.5
491.59	34007.51
492.027	33549
492.463	33083.27
492.9	32754.12
493.337	32498.13
493.773	32395.73
494.21	31878.86
494.647	31498.5
495.083	31135.16
495.519	30742.5
495.956	30988.84
496.392	30110.62
496.828	29773.82
497.265	29158.53
497.701	29585.85
498.137	28821.42
498.573	28694.36
499.009	28701.69
499.445	28354.62
499.881	27388.32
500.316	27926.67
500.752	27030.8
501.188	26802.97
501.624	26923.02
502.059	25920.19
502.495	25473.36
502.93	25652.63
503.366	25689.45
503.801	25112.18
504.236	24667.12
504.672	24305.37
505.107	24194.58
505.542	23625.43
505.977	23736.35
506.412	23299.89
506.847	23869.43
507.282	23250.55
507.717	22833.38
508.152	22902.52
508.587	22823.5
509.021	21856.83
509.456	21606.78
509.891	21876.63
510.325	21579.54
510.76	21074.02
511.194	20912.82
511.628	21049.22
512.063	20555.49
512.497	20793.74
512.931	20187.91
513.366	20115.85
513.8	20135.73
514.234	19718.03
514.668	19568.75
515.102	19558.8
515.536	18906.28
515.969	19010.95
516.403	18592.1
516.837	18277.66
517.271	18352.55
517.704	18270.17
518.138	17823.03
518.571	17683.04
519.005	17420.41
519.438	17192.65
519.871	17440.43
520.305	16811.9
520.738	16841.97
521.171	16513.53
521.604	16511.02
522.037	16157.17
522.47	15792.91
522.903	15752.69
523.336	15591.76
523.769	15491.15
524.202	15393.02
524.634	15282.27
525.067	15055.62
525.5	14717.87
525.932	14616.98
526.365	14021.03
526.797	14202.97
527.23	14165.08
527.662	13813.68
528.094	13565.67
528.527	13515.03
528.959	13221.12
529.391	12959.88
529.823	12482.36
530.255	12622.15
530.687	12352.66
531.119	12164.34
531.551	11901.97
531.982	11983.52
532.414	11598.47
532.846	11590.81
533.277	11378.87
533.709	11049.04
534.14	11038.81
534.572	10839.11
535.003	10723.81
535.435	10364.66
535.866	10431.41
536.297	10313.3
536.728	10346.68
537.159	10102.56
537.59	10066.55
538.022	9832.35
538.452	9504.97
538.883	9708.69
539.314	9368.16
539.745	9138.16
540.176	9083.85
540.606	8861.21
541.037	8799.03
541.468	8669.39
541.898	8417.57
542.328	8594.15
542.759	8227.78
543.189	8342.2
543.619	8037.73
544.05	8102.84
544.48	8045.54
544.91	7889.15
545.34	7586.29
545.77	7651.62
546.2	7308.93
546.63	7243.43
547.06	7400.58
547.489	7170.03
547.919	7012.6
548.349	6962.7
548.778	6865.48
549.208	6954.82
549.637	6702.39
550.067	6718.18
550.496	6541.71
550.926	6486.35
551.355	6409.85
551.784	6430.95
552.213	6238.2
552.642	5838.43
553.071	6100.69
553.5	6031.87
553.929	5750.87
554.358	5785.37
554.787	5761.48
555.216	5721.66
555.645	5708.39
556.073	5498.4
556.502	5522.35
556.93	5333.31
557.359	5405.24
557.787	5482.44
558.216	5213.32
558.644	5175.96
559.072	5114.55
559.5	5010.35
559.929	5061.13
560.357	5090.52
560.785	4868.56
561.213	4940.82
561.641	4887.3
562.068	4881.94
562.496	4702.44
562.924	4748.01
563.352	4788.21
563.779	4713.16
564.207	4630
564.634	4648.79
565.062	4605.85
565.489	4573.63
565.917	4439.27
566.344	4385.48
566.771	4471.54
567.198	4380.1
567.625	4401.62
568.053	4296.65
568.48	4231.99
568.907	4194.26
569.333	4132.23
569.76	3937.78
570.187	3791.68
570.614	3829.58
571.04	3924.26
571.467	3748.34
571.894	3856.64
572.32	3631.77
572.747	3634.48
573.173	3664.32
573.599	3523.2
574.026	3425.37
574.452	3349.2
574.878	3313.81
575.304	3365.53
575.73	3343.76
576.156	3202.12
576.582	3082.09
577.008	3136.67
577.434	3068.44
577.86	2997.43
578.285	2926.35
578.711	2953.69
579.137	2888.05
579.562	2778.54
579.988	2649.68
580.413	2718.25
580.838	2704.54
581.264	2819.63
581.689	2704.54
582.114	2556.34
582.539	2526.11
582.964	2572.82
583.39	2542.6
583.814	2440.88
584.239	2482.13
584.664	2446.38
585.089	2391.35
585.514	2267.4
585.939	2363.82
586.363	2154.3
586.788	2217.76
587.212	2168.1
587.637	2206.73
588.061	2148.77
588.485	2121.16
588.91	2049.33
589.334	2184.66
589.758	2049.33
590.182	1996.79
590.606	1938.69
591.03	1891.62
591.454	1916.54
591.878	1891.62
592.302	1955.29
592.726	1830.66
593.15	1819.57
593.573	1786.3
593.997	1808.49
594.42	1728.04
594.844	1761.34
595.267	1750.24
595.691	1639.18
596.114	1650.29
596.537	1736.37
596.96	1697.51
597.384	1614.17
597.807	1647.52
598.23	1603.05
598.653	1614.17
599.076	1605.83
599.499	1502.92
599.921	1569.69
600.344	1530.75
600.767	1547.44
601.189	1441.66
601.612	1491.78
602.034	1491.78
602.457	1527.96
602.879	1408.23
603.302	1455.59
603.724	1458.37
604.146	1391.5
604.568	1413.8
604.991	1366.41
605.413	1399.87
605.835	1397.08
606.257	1346.89
606.678	1263.18
607.1	1321.79
607.522	1338.53
607.944	1310.63
608.365	1307.84
608.787	1332.95
609.209	1344.11
609.63	1369.2
610.051	1355.26
610.473	1349.68
610.894	1260.39
611.315	1355.26
611.737	1358.05
612.158	1226.88
612.579	1324.58
613	1285.51
613.421	1249.22
613.842	1179.38
614.263	1302.26
614.683	1190.56
615.104	1103.88
615.525	1201.73
615.945	1151.42
616.366	1106.67
616.787	1140.24
617.207	1084.29
617.627	1184.97
618.048	1014.3
618.468	1154.22
618.888	1137.44
619.308	997.49
619.728	1059.1
620.148	1005.89
620.568	1109.47
620.988	1050.7
621.408	975.07
621.828	933.02
622.248	935.83
622.668	986.28
623.087	975.07
623.507	1036.7
623.926	949.84
624.346	916.2
624.765	952.65
625.185	913.39
625.604	888.14
626.023	902.17
626.442	930.22
626.861	896.56
627.28	910.59
627.699	815.16
628.118	820.78
628.537	1003.09
628.956	902.17
629.375	843.24
629.794	907.78
630.212	832.01
630.631	770.21
631.049	798.31
631.468	798.31
631.886	851.66
632.305	899.37
632.723	840.43
633.141	860.08
633.559	803.93
633.978	823.59
634.396	742.11
634.814	778.64
635.232	801.12
635.65	778.64
636.067	730.86
636.485	792.69
636.903	792.69
637.321	663.36
637.738	635.21
638.156	674.61
638.573	761.78
638.991	711.18
639.408	758.97
639.825	778.64
640.243	685.87
640.66	660.54
641.077	713.99
641.494	750.54
641.911	607.05
642.328	668.98
642.745	632.4
643.162	632.4
643.579	576.07
643.995	629.58
644.412	683.05
644.829	567.62
645.245	567.62
645.662	584.52
646.078	640.84
646.495	604.24
646.911	694.3
647.327	722.43
647.743	618.32
648.159	640.84
648.576	519.7
648.992	632.4
649.408	623.95
649.824	578.89
650.239	528.16
650.655	607.05
651.071	550.71
651.487	592.97
651.902	654.91
652.318	612.69
652.733	561.98
653.149	657.73
653.564	564.8
653.979	550.71
654.395	643.66
654.81	494.32
655.225	485.86
655.64	567.62
656.055	618.32
656.47	612.69
656.885	550.71
657.3	483.04
657.715	502.78
658.13	556.35
658.544	609.87
658.959	618.32
659.374	511.24
659.788	643.66
660.202	463.29
660.617	573.25
661.031	488.68
661.445	519.7
661.86	550.71
662.274	550.71
662.688	505.6
663.102	547.89
663.516	505.6
663.93	511.24
664.344	511.24
664.758	471.76
665.171	525.34
665.585	539.44
665.999	497.14
666.412	536.62
666.826	499.96
667.239	576.07
667.653	477.4
668.066	539.44
668.479	581.7
668.892	547.89
669.306	454.83
669.719	519.7
670.132	494.32
670.545	457.65
670.958	525.34
671.37	542.25
671.783	522.52
672.196	505.6
672.609	491.5
673.021	474.58
673.434	466.11
673.846	480.22
674.259	443.54
674.671	530.98
675.084	454.83
675.496	559.16
675.908	485.86
676.32	525.34
676.732	522.52
677.144	553.53
677.556	530.98
677.968	477.4
678.38	542.25
678.792	519.7
679.204	449.18
679.615	545.07
680.027	485.86
680.439	443.54
680.85	533.8
681.262	449.18
681.673	497.14
682.084	404.02
682.496	440.72
682.907	446.36
683.318	437.89
683.729	494.32
684.14	488.68
684.551	375.77
684.962	514.06
685.373	499.96
685.784	556.35
686.194	491.5
686.605	406.84
687.016	559.16
687.426	480.22
687.837	468.94
688.247	553.53
688.657	471.76
689.068	491.5
689.478	406.84
689.888	491.5
690.298	522.52
690.708	460.47
691.118	406.84
691.528	420.96
691.938	463.29
692.348	378.6
692.758	387.07
693.168	432.25
693.577	463.29
693.987	426.6
694.396	480.22
694.806	468.94
695.215	378.6
695.625	471.76
696.034	477.4
696.443	480.22
696.852	429.43
697.262	372.95
697.671	505.6
698.08	491.5
698.489	480.22
698.897	437.89
699.306	398.37
699.715	545.07
700.124	474.58
700.532	378.6
700.941	477.4
701.35	452.01
701.758	435.07
702.166	415.31
702.575	452.01
702.983	497.14
703.391	454.83
703.799	406.84
704.208	483.04
704.616	483.04
705.024	398.37
705.432	378.6
705.839	353.17
706.247	336.21
706.655	437.89
707.063	384.25
707.47	440.72
707.878	457.65
708.285	353.17
708.693	477.4
709.1	432.25
709.508	432.25
709.915	389.9
710.322	423.78
710.729	412.49
711.136	384.25
711.543	310.77
711.95	474.58
712.357	440.72
712.764	389.9
713.171	319.25
713.578	429.43
713.984	404.02
714.391	381.42
714.797	429.43
715.204	474.58
715.61	471.76
716.017	415.31
716.423	522.52
716.829	392.72
717.236	392.72
717.642	404.02
718.048	432.25
718.454	457.65
718.86	432.25
719.266	409.66
719.671	477.4
720.077	406.84
720.483	367.3
720.889	361.65
721.294	401.19
721.7	401.19
722.105	426.6
722.511	435.07
722.916	426.6
723.321	463.29
723.726	480.22
724.132	443.54
724.537	288.15
724.942	420.96
725.347	505.6
725.752	412.49
726.156	480.22
726.561	440.72
726.966	384.25
727.371	404.02
727.775	406.84
728.18	356
728.584	341.87
728.989	449.18
729.393	375.77
729.798	437.89
730.202	406.84
730.606	401.19
731.01	341.87
731.414	401.19
731.818	358.82
732.222	466.11
732.626	389.9
733.03	429.43
733.434	418.13
733.837	307.95
734.241	384.25
734.645	423.78
735.048	387.07
735.452	387.07
735.855	463.29
736.258	449.18
736.662	389.9
737.065	350.35
737.468	395.54
737.871	420.96
738.274	409.66
738.677	452.01
739.08	477.4
739.483	387.07
739.886	395.54
740.289	384.25
740.691	336.21
741.094	401.19
741.497	412.49
741.899	454.83
742.302	404.02
742.704	454.83
743.106	378.6
743.508	361.65
743.911	389.9
744.313	358.82
744.715	452.01
745.117	485.86
745.519	443.54
745.921	401.19
746.323	454.83
746.724	432.25
747.126	460.47
747.528	412.49
747.929	446.36
748.331	310.77
748.732	446.36
749.134	415.31
749.535	440.72
749.936	384.25
750.338	339.04
750.739	497.14
751.14	437.89
751.541	375.77
751.942	443.54
752.343	443.54
752.744	375.77
753.144	426.6
753.545	525.34
753.946	418.13
754.346	418.13
754.747	384.25
755.148	358.82
755.548	412.49
755.948	404.02
756.349	466.11
756.749	375.77
757.149	415.31
757.549	435.07
757.949	358.82
758.349	384.25
758.749	418.13
759.149	364.47
759.549	446.36
759.949	454.83
760.348	392.72
760.748	392.72
761.148	384.25
761.547	446.36
761.947	339.04
762.346	387.07
762.745	471.76
763.145	375.77
763.544	429.43
763.943	353.17
764.342	418.13
764.741	499.96
765.14	429.43
765.539	398.37
765.938	412.49
766.336	398.37
766.735	474.58
767.134	432.25
767.532	372.95
767.931	406.84
768.329	395.54
768.728	404.02
769.126	406.84
769.525	381.42
769.923	313.6
770.321	370.12
770.719	466.11
771.117	370.12
771.515	370.12
771.913	392.72
772.311	449.18
772.709	395.54
773.106	370.12
773.504	415.31
773.902	336.21
774.299	313.6
774.697	387.07
775.094	404.02
775.491	381.42
775.889	341.87
776.286	392.72
776.683	367.3
777.08	358.82
777.477	387.07
777.874	389.9
778.271	499.96
778.668	401.19
779.065	375.77
779.462	327.74
779.858	344.69
780.255	378.6
780.652	350.35
781.048	457.65
781.444	375.77
781.841	423.78
782.237	423.78
782.633	341.87
783.03	457.65
783.426	395.54
783.822	378.6
784.218	446.36
784.614	401.19
785.01	423.78
785.405	381.42
785.801	372.95
786.197	372.95
786.593	401.19
786.988	429.43
787.384	364.47
787.779	319.25
788.174	392.72
788.57	356
788.965	420.96
789.36	435.07
789.755	423.78
790.15	375.77
790.545	440.72
790.94	480.22
791.335	480.22
791.73	480.22
792.125	372.95
792.52	443.54
792.914	412.49
793.309	384.25
793.703	412.49
794.098	392.72
794.492	452.01
794.887	406.84
795.281	460.47
795.675	468.94
796.069	347.52
796.463	285.32
796.857	285.32
797.251	353.17
797.645	367.3
798.039	437.89
798.433	367.3
798.826	389.9
799.22	372.95
799.614	344.69
800.007	330.56
800.401	350.35
800.794	339.04
801.187	319.25
801.581	367.3
801.974	378.6
802.367	432.25
802.76	358.82
803.153	457.65
803.546	429.43
803.939	468.94
804.332	305.12
804.725	375.77
805.117	440.72
805.51	353.17
805.903	339.04
806.295	387.07
806.688	406.84
807.08	364.47
807.472	310.77
807.865	375.77
808.257	356
808.649	387.07
809.041	412.49
809.433	395.54
809.825	480.22
810.217	350.35
810.609	372.95
811.001	401.19
811.392	404.02
811.784	333.39
812.175	392.72
812.567	290.98
812.958	418.13
813.35	347.52
813.741	339.04
814.132	392.72
814.524	381.42
814.915	358.82
815.306	336.21
815.697	358.82
816.088	443.54
816.479	426.6
816.87	387.07
817.26	443.54
817.651	341.87
818.042	406.84
818.432	432.25
818.823	497.14
819.213	389.9
819.604	491.5
819.994	364.47
820.384	384.25
820.775	437.89
821.165	446.36
821.555	384.25
821.945	412.49
822.335	330.56
822.725	319.25
823.114	344.69
823.504	364.47
823.894	446.36
824.284	412.49
824.673	418.13
825.063	446.36
825.452	440.72
825.842	333.39
826.231	429.43
826.62	415.31
827.009	457.65
827.399	415.31
827.788	429.43
828.177	353.17
828.566	449.18
828.954	384.25
829.343	358.82
829.732	364.47
830.121	389.9
830.509	392.72
830.898	307.95
831.286	370.12
831.675	310.77
832.063	457.65
832.452	398.37
832.84	356
833.228	415.31
833.616	435.07
834.004	316.43
834.392	372.95
834.78	440.72
835.168	319.25
835.556	435.07
835.944	375.77
836.331	454.83
836.719	420.96
837.107	344.69
837.494	367.3
837.881	418.13
838.269	406.84
838.656	305.12
839.043	356
839.431	468.94
839.818	381.42
840.205	392.72
840.592	319.25
840.979	406.84
841.366	344.69
841.752	381.42
842.139	420.96
842.526	406.84
842.912	488.68
843.299	395.54
843.685	347.52
844.072	361.65
844.458	358.82
844.844	378.6
845.231	409.66
845.617	364.47
846.003	420.96
846.389	415.31
846.775	452.01
847.161	418.13
847.547	372.95
847.933	384.25
848.318	432.25
848.704	324.91
849.09	319.25
849.475	432.25
849.861	415.31
850.246	418.13
850.631	415.31
851.017	395.54
851.402	350.35
851.787	347.52
852.172	307.95
852.557	347.52
852.942	319.25
853.327	404.02
853.712	381.42
854.097	361.65
854.481	398.37
854.866	395.54
855.25	392.72
855.635	392.72
856.019	364.47
856.404	344.69
856.788	449.18
857.172	432.25
857.557	392.72
857.941	435.07
858.325	344.69
858.709	449.18
859.093	327.74
859.477	364.47
859.86	446.36
860.244	344.69
860.628	404.02
861.012	330.56
861.395	327.74
861.779	406.84
862.162	378.6
862.545	358.82
862.929	508.42
863.312	409.66
863.695	375.77
864.078	508.42
864.461	381.42
864.844	370.12
865.227	322.08
865.61	367.3
865.993	415.31
866.376	324.91
866.758	443.54
867.141	322.08
867.523	429.43
867.906	398.37
868.288	358.82
868.671	384.25
869.053	429.43
869.435	319.25
869.817	418.13
870.199	274.01
870.581	387.07
870.963	330.56
871.345	412.49
871.727	398.37
872.109	406.84
872.491	276.84
872.872	293.81
873.254	305.12
873.635	339.04
874.017	381.42
874.398	333.39
874.779	392.72
875.161	353.17
875.542	415.31
875.923	398.37
876.304	401.19
876.685	415.31
877.066	367.3
877.447	415.31
877.828	418.13
878.208	389.9
878.589	404.02
878.97	401.19
879.35	381.42
879.731	420.96
880.111	401.19
880.491	392.72
880.872	446.36
881.252	392.72
881.632	333.39
882.012	429.43
882.392	319.25
882.772	372.95
883.152	330.56
883.532	429.43
883.912	392.72
884.291	316.43
884.671	341.87
885.051	389.9
885.43	319.25
885.81	381.42
886.189	454.83
886.568	356
886.948	310.77
887.327	350.35
887.706	358.82
888.085	305.12
888.464	356
888.843	367.3
889.222	387.07
889.601	415.31
889.979	358.82
890.358	406.84
890.737	339.04
891.115	339.04
891.494	392.72
891.872	392.72
892.25	341.87
892.629	426.6
893.007	279.67
893.385	290.98
893.763	336.21
894.141	361.65
894.519	319.25
894.897	432.25
895.275	426.6
895.653	381.42
896.03	392.72
896.408	339.04
896.786	293.81
897.163	392.72
897.541	347.52
897.918	313.6
898.295	358.82
898.673	347.52
899.05	398.37
899.427	341.87
899.804	375.77
900.181	353.17
900.558	290.98
900.935	333.39
901.312	333.39
901.688	316.43
902.065	367.3
902.442	364.47
902.818	339.04
903.195	418.13
903.571	353.17
903.947	463.29
904.324	395.54
904.7	364.47
905.076	420.96
905.452	378.6
905.828	466.11
906.204	330.56
906.58	333.39
906.956	378.6
907.331	350.35
907.707	395.54
908.083	440.72
908.458	356
908.834	395.54
909.209	387.07
909.585	353.17
909.96	341.87
910.335	310.77
910.71	432.25
911.086	344.69
911.461	339.04
911.836	344.69
912.21	322.08
912.585	367.3
912.96	389.9
913.335	347.52
913.709	361.65
914.084	378.6
914.459	344.69
914.833	423.78
915.207	387.07
915.582	471.76
915.956	316.43
916.33	384.25
916.704	305.12
917.078	378.6
917.452	460.47
917.826	398.37
918.2	358.82
918.574	398.37
918.948	389.9
919.321	409.66
919.695	418.13
920.068	387.07
920.442	367.3
920.815	406.84
921.189	344.69
921.562	313.6
921.935	406.84
922.308	480.22
922.681	313.6
923.054	372.95
923.427	353.17
923.8	358.82
924.173	339.04
924.546	392.72
924.919	420.96
925.291	372.95
925.664	443.54
926.036	381.42
926.409	381.42
926.781	372.95
927.153	409.66
927.526	350.35
927.898	324.91
928.27	341.87
928.642	387.07
929.014	367.3
929.386	387.07
929.758	437.89
930.129	423.78
930.501	389.9
930.873	378.6
931.244	344.69
931.616	341.87
931.987	412.49
932.359	356
932.73	339.04
933.101	372.95
933.472	333.39
933.843	395.54
934.214	406.84
934.585	387.07
934.956	392.72
935.327	497.14
935.698	341.87
936.069	364.47
936.439	356
936.81	245.72
937.18	302.29
937.551	344.69
937.921	339.04
938.292	457.65
938.662	387.07
939.032	358.82
939.402	333.39
939.772	353.17
940.142	457.65
940.512	356
940.882	347.52
941.252	384.25
941.621	265.52
941.991	401.19
942.361	401.19
942.73	307.95
943.1	285.32
943.469	356
943.838	378.6
944.208	361.65
944.577	350.35
944.946	406.84
945.315	305.12
945.684	322.08
946.053	387.07
946.422	358.82
946.791	319.25
947.159	341.87
947.528	288.15
947.897	356
948.265	268.35
948.634	220.24
949.002	395.54
949.371	440.72
949.739	288.15
950.107	381.42
950.475	327.74
950.843	285.32
951.211	409.66
951.579	333.39
951.947	353.17
952.315	381.42
952.683	384.25
953.05	384.25
953.418	367.3
953.785	372.95
954.153	313.6
954.52	319.25
954.888	307.95
955.255	435.07
955.622	415.31
955.989	319.25
956.356	327.74
956.723	367.3
957.09	350.35
957.457	353.17
957.824	367.3
958.191	375.77
958.557	378.6
958.924	420.96
959.291	361.65
959.657	361.65
960.023	378.6
960.39	418.13
960.756	384.25
961.122	392.72
961.488	404.02
961.855	378.6
962.221	353.17
962.586	387.07
962.952	347.52
963.318	370.12
963.684	440.72
964.05	401.19
964.415	350.35
964.781	437.89
965.146	324.91
965.512	324.91
965.877	367.3
966.242	370.12
966.608	409.66
966.973	341.87
967.338	279.67
967.703	440.72
968.068	364.47
968.433	378.6
968.797	344.69
969.162	392.72
969.527	454.83
969.891	372.95
970.256	384.25
970.62	463.29
970.985	370.12
971.349	395.54
971.714	404.02
972.078	358.82
972.442	319.25
972.806	319.25
973.17	370.12
973.534	387.07
973.898	358.82
974.262	367.3
974.625	350.35
974.989	330.56
975.353	356
975.716	347.52
976.08	401.19
976.443	370.12
976.806	372.95
977.17	406.84
977.533	466.11
977.896	372.95
978.259	364.47
978.622	381.42
978.985	353.17
979.348	356
979.711	443.54
980.073	378.6
980.436	449.18
980.799	316.43
981.161	310.77
981.524	401.19
981.886	406.84
982.248	392.72
982.611	358.82
982.973	271.18
983.335	480.22
983.697	454.83
984.059	353.17
984.421	370.12
984.783	375.77
985.145	361.65
985.506	350.35
985.868	423.78
986.23	347.52
986.591	339.04
986.953	449.18
987.314	341.87
987.675	361.65
988.037	466.11
988.398	392.72
988.759	437.89
989.12	299.46
989.481	404.02
989.842	367.3
990.203	460.47
990.564	336.21
990.924	344.69
991.285	370.12
991.646	418.13
992.006	415.31
992.367	404.02
992.727	412.49
993.087	336.21
993.448	398.37
993.808	319.25
994.168	398.37
994.528	378.6
994.888	392.72
995.248	384.25
995.608	356
995.967	395.54
996.327	327.74
996.687	274.01
997.046	398.37
997.406	310.77
997.765	347.52
998.125	370.12
998.484	344.69
998.843	322.08
999.202	344.69
999.561	375.77
999.92	336.21
1000.279	310.77
1000.638	361.65
1000.997	378.6
1001.356	372.95
1001.715	353.17
1002.073	327.74
1002.432	330.56
1002.79	350.35
1003.149	370.12
1003.507	333.39
1003.865	398.37
1004.224	412.49
1004.582	375.77
1004.94	392.72
1005.298	440.72
1005.656	372.95
1006.014	406.84
1006.371	276.84
1006.729	392.72
1007.087	370.12
1007.445	398.37
1007.802	404.02
1008.16	367.3
1008.517	370.12
1008.874	358.82
1009.232	282.49
1009.589	324.91
1009.946	384.25
1010.303	437.89
1010.66	336.21
1011.017	398.37
1011.374	364.47
1011.731	324.91
1012.087	279.67
1012.444	307.95
1012.801	384.25
1013.157	361.65
1013.513	381.42
1013.87	375.77
1014.226	418.13
1014.582	341.87
1014.939	454.83
1015.295	443.54
1015.651	401.19
1016.007	302.29
1016.363	406.84
1016.719	333.39
1017.074	339.04
1017.43	310.77
1017.786	341.87
1018.141	387.07
1018.497	401.19
1018.852	336.21
1019.208	316.43
1019.563	333.39
1019.918	350.35
1020.273	344.69
1020.628	364.47
1020.983	364.47
1021.338	440.72
1021.693	223.07
1022.048	491.5
1022.403	327.74
1022.757	378.6
1023.112	324.91
1023.467	353.17
1023.821	350.35
1024.175	370.12
1024.53	310.77
1024.884	319.25
1025.238	395.54
1025.592	353.17
1025.946	358.82
1026.3	344.69
1026.654	440.72
1027.008	313.6
1027.362	378.6
1027.716	353.17
1028.069	395.54
1028.423	375.77
1028.777	358.82
1029.13	361.65
1029.483	406.84
1029.837	330.56
1030.19	356
1030.543	324.91
1030.896	426.6
1031.249	370.12
1031.602	418.13
1031.955	344.69
1032.308	398.37
1032.661	370.12
1033.013	387.07
1033.366	398.37
1033.719	406.84
1034.071	350.35
1034.424	358.82
1034.776	344.69
1035.128	435.07
1035.48	415.31
1035.833	443.54
1036.185	375.77
1036.537	375.77
1036.889	375.77
