Data from SCSF78-3-385-irrad_FLMS019251_12-05-55-513.txt Node
Date: Fri Feb 15 12:05:55 CET 2019
User: luk
Spectrometer: FLMS01925
Trigger mode: 0
Integration Time (sec): 5.070000E-3
Scans to average: 1
Electric dark correction enabled: true
Nonlinearity correction enabled: true
Boxcar width: 0
XAxis mode: Wavelengths
Number of Pixels in Spectrum: 2048
>>>>>Begin Spectral Data<<<<<
187.103	-93.04
187.574	-93.04
188.045	-93.04
188.516	-158.46
188.987	-138.54
189.458	-164.15
189.929	-118.63
190.4	-110.1
190.871	-75.99
191.342	-152.77
191.813	-44.73
192.284	-61.78
192.754	26.26
193.225	31.93
193.696	-4.97
194.166	43.29
194.637	102.85
195.107	60.31
195.578	131.2
196.048	136.87
196.518	199.19
196.989	213.34
197.459	151.03
197.929	306.71
198.399	286.91
198.869	255.8
199.339	306.71
199.809	337.8
200.279	349.11
200.749	383.01
201.219	380.19
201.689	366.06
202.159	453.59
202.628	334.98
203.098	425.37
203.568	459.24
204.037	399.96
204.507	405.61
204.976	414.08
205.445	436.66
205.915	464.88
206.384	422.55
206.853	481.81
207.323	442.3
207.792	442.3
208.261	450.77
208.73	394.31
209.199	357.59
209.668	422.55
210.137	462.06
210.606	385.84
211.075	346.28
211.543	476.17
212.012	349.11
212.481	357.59
212.95	411.25
213.418	504.37
213.887	337.8
214.355	301.05
214.824	408.43
215.292	399.96
215.76	459.24
216.229	414.08
216.697	334.98
217.165	377.36
217.633	354.76
218.101	374.54
218.569	385.84
219.037	391.48
219.505	371.71
219.973	394.31
220.441	399.96
220.909	371.71
221.377	380.19
221.844	346.28
222.312	357.59
222.78	399.96
223.247	340.63
223.715	476.17
224.182	397.13
224.65	380.19
225.117	394.31
225.584	405.61
226.052	332.15
226.519	450.77
226.986	368.89
227.453	380.19
227.92	391.48
228.387	303.88
228.854	272.77
229.321	346.28
229.788	323.67
230.255	447.95
230.722	402.78
231.189	422.55
231.655	453.59
232.122	414.08
232.589	318.02
233.055	402.78
233.522	405.61
233.988	439.48
234.454	351.93
234.921	337.8
235.387	459.24
235.853	447.95
236.32	414.08
236.786	411.25
237.252	318.02
237.718	402.78
238.184	340.63
238.65	385.84
239.116	439.48
239.582	467.7
240.047	318.02
240.513	371.71
240.979	366.06
241.445	346.28
241.91	371.71
242.376	332.15
242.841	374.54
243.307	371.71
243.772	453.59
244.238	425.37
244.703	326.5
245.168	354.76
245.633	397.13
246.099	405.61
246.564	385.84
247.029	334.98
247.494	383.01
247.959	422.55
248.424	340.63
248.889	343.46
249.353	419.72
249.818	363.24
250.283	445.13
250.748	399.96
251.212	377.36
251.677	281.26
252.141	399.96
252.606	445.13
253.07	394.31
253.535	422.55
253.999	351.93
254.463	428.19
254.927	456.42
255.392	397.13
255.856	360.41
256.32	422.55
256.784	363.24
257.248	383.01
257.712	456.42
258.176	397.13
258.64	371.71
259.103	394.31
259.567	464.88
260.031	478.99
260.495	411.25
260.958	374.54
261.422	397.13
261.885	303.88
262.349	377.36
262.812	399.96
263.275	366.06
263.739	411.25
264.202	453.59
264.665	478.99
265.128	445.13
265.591	366.06
266.054	388.66
266.517	399.96
266.98	366.06
267.443	433.84
267.906	478.99
268.369	422.55
268.832	490.27
269.294	484.63
269.757	433.84
270.22	428.19
270.682	416.9
271.145	422.55
271.607	408.43
272.07	371.71
272.532	374.54
272.994	453.59
273.456	383.01
273.919	478.99
274.381	408.43
274.843	422.55
275.305	411.25
275.767	385.84
276.229	456.42
276.691	478.99
277.153	433.84
277.614	399.96
278.076	377.36
278.538	366.06
279	456.42
279.461	428.19
279.923	309.54
280.384	371.71
280.846	332.15
281.307	377.36
281.769	391.48
282.23	399.96
282.691	442.3
283.152	343.46
283.613	366.06
284.075	385.84
284.536	354.76
284.997	383.01
285.458	399.96
285.918	433.84
286.379	343.46
286.84	422.55
287.301	329.33
287.762	433.84
288.222	388.66
288.683	422.55
289.143	445.13
289.604	383.01
290.064	422.55
290.525	360.41
290.985	360.41
291.445	467.7
291.906	408.43
292.366	411.25
292.826	408.43
293.286	425.37
293.746	399.96
294.206	377.36
294.666	399.96
295.126	450.77
295.586	431.01
296.046	433.84
296.506	484.63
296.965	366.06
297.425	272.77
297.884	343.46
298.344	456.42
298.804	419.72
299.263	490.27
299.722	416.9
300.182	332.15
300.641	394.31
301.1	456.42
301.559	411.25
302.019	380.19
302.478	462.06
302.937	374.54
303.396	405.61
303.855	490.27
304.314	464.88
304.772	414.08
305.231	383.01
305.69	453.59
306.149	422.55
306.607	411.25
307.066	329.33
307.524	431.01
307.983	484.63
308.441	399.96
308.9	399.96
309.358	501.55
309.816	371.71
310.275	442.3
310.733	484.63
311.191	315.19
311.649	422.55
312.107	464.88
312.565	349.11
313.023	442.3
313.481	464.88
313.939	394.31
314.397	501.55
314.854	487.45
315.312	383.01
315.77	546.66
316.227	425.37
316.685	416.9
317.142	377.36
317.6	442.3
318.057	439.48
318.514	431.01
318.972	419.72
319.429	326.5
319.886	507.19
320.343	498.73
320.8	405.61
321.257	456.42
321.714	431.01
322.171	391.48
322.628	456.42
323.085	453.59
323.542	445.13
323.998	332.15
324.455	408.43
324.912	467.7
325.368	433.84
325.825	411.25
326.281	383.01
326.738	433.84
327.194	456.42
327.65	394.31
328.107	456.42
328.563	385.84
329.019	399.96
329.475	433.84
329.931	470.52
330.387	467.7
330.843	456.42
331.299	428.19
331.755	354.76
332.211	408.43
332.666	490.27
333.122	411.25
333.578	481.81
334.033	467.7
334.489	433.84
334.944	388.66
335.4	456.42
335.855	442.3
336.31	484.63
336.766	377.36
337.221	377.36
337.676	388.66
338.131	422.55
338.586	442.3
339.041	484.63
339.496	411.25
339.951	405.61
340.406	298.23
340.861	388.66
341.316	498.73
341.771	411.25
342.225	510.01
342.68	394.31
343.134	399.96
343.589	495.91
344.043	411.25
344.498	490.27
344.952	391.48
345.406	332.15
345.861	408.43
346.315	405.61
346.769	445.13
347.223	318.02
347.677	428.19
348.131	399.96
348.585	431.01
349.039	349.11
349.493	422.55
349.947	447.95
350.401	439.48
350.854	433.84
351.308	391.48
351.762	501.55
352.215	464.88
352.669	447.95
353.122	399.96
353.575	425.37
354.029	439.48
354.482	456.42
354.935	510.01
355.388	388.66
355.842	363.24
356.295	419.72
356.748	422.55
357.201	445.13
357.654	456.42
358.106	399.96
358.559	456.42
359.012	411.25
359.465	399.96
359.917	484.63
360.37	343.46
360.823	433.84
361.275	399.96
361.728	462.06
362.18	464.88
362.632	377.36
363.085	422.55
363.537	405.61
363.989	419.72
364.441	411.25
364.893	450.77
365.345	484.63
365.797	419.72
366.249	456.42
366.701	354.76
367.153	510.01
367.605	453.59
368.057	535.38
368.508	399.96
368.96	433.84
369.411	535.38
369.863	383.01
370.314	388.66
370.766	433.84
371.217	394.31
371.669	394.31
372.12	374.54
372.571	399.96
373.022	473.34
373.473	357.59
373.924	385.84
374.375	399.96
374.826	388.66
375.277	459.24
375.728	397.13
376.179	450.77
376.63	484.63
377.08	467.7
377.531	476.17
377.981	366.06
378.432	397.13
378.883	351.93
379.333	445.13
379.783	428.19
380.234	388.66
380.684	445.13
381.134	377.36
381.584	462.06
382.034	543.84
382.485	473.34
382.935	377.36
383.385	495.91
383.834	431.01
384.284	439.48
384.734	368.89
385.184	439.48
385.634	374.54
386.083	450.77
386.533	442.3
386.982	374.54
387.432	425.37
387.881	383.01
388.331	476.17
388.78	433.84
389.229	445.13
389.679	346.28
390.128	464.88
390.577	456.42
391.026	394.31
391.475	428.19
391.924	419.72
392.373	416.9
392.822	450.77
393.27	402.78
393.719	414.08
394.168	383.01
394.617	487.45
395.065	481.81
395.514	481.81
395.962	476.17
396.411	459.24
396.859	422.55
397.307	453.59
397.756	481.81
398.204	445.13
398.652	447.95
399.1	405.61
399.548	428.19
399.996	476.17
400.444	478.99
400.892	385.84
401.34	402.78
401.788	476.17
402.236	445.13
402.683	478.99
403.131	394.31
403.579	476.17
404.026	569.2
404.474	574.84
404.921	478.99
405.369	498.73
405.816	433.84
406.263	490.27
406.71	380.19
407.158	490.27
407.605	422.55
408.052	445.13
408.499	495.91
408.946	498.73
409.393	495.91
409.84	541.02
410.286	416.9
410.733	549.48
411.18	563.57
411.626	555.11
412.073	498.73
412.52	447.95
412.966	538.2
413.413	532.57
413.859	557.93
414.305	603.01
414.752	588.92
415.198	701.51
415.644	788.65
416.09	827.97
416.536	1080.27
416.982	1320.57
417.428	1543.44
417.874	2166.89
418.32	2445.18
418.766	3018.09
419.211	3570.88
419.657	4462.3
420.103	5182.8
420.548	5964.5
420.994	7021.95
421.439	8091.29
421.885	9297.29
422.33	10566.28
422.776	11699.42
423.221	12783.61
423.666	14042.67
424.111	15716.39
424.556	16557.58
425.001	18106.77
425.446	19321.23
425.891	20517.16
426.336	21454.61
426.781	23059.44
427.226	24985.74
427.671	25730.11
428.115	26512.69
428.56	27827.75
429.005	29225.85
429.449	29799.6
429.894	30599.95
430.338	31982.64
430.782	32058.22
431.227	33150.47
431.671	33611.34
432.115	34953.16
432.559	35822.54
433.003	35937.38
433.447	36348.04
433.891	36957.16
434.335	36656.2
434.779	38150.41
435.223	38309.89
435.667	37946.84
436.111	39044.25
436.554	39177.02
436.998	38447.33
437.442	38857.47
437.885	41040.88
438.328	39775.04
438.772	39797.2
439.215	40438.2
439.659	40144.67
440.102	40867.86
440.545	40157
440.988	40403.65
441.431	41248.63
441.874	40919.76
442.317	40929.64
442.76	40524.58
443.203	40253.17
443.646	40853.04
444.089	40453
444.531	40951.89
444.974	40122.48
445.417	40801.15
445.859	40221.11
446.302	41176.89
446.744	40724.58
447.186	41862.86
447.629	41100.22
448.071	41011.21
448.513	41451.58
448.956	42697.27
449.398	41520.91
449.84	40541.86
450.282	41421.87
450.724	41642.28
451.166	41511
451.607	41518.43
452.049	41191.73
452.491	41870.3
452.933	41927.33
453.374	42446.16
453.816	43058.21
454.257	42640.06
454.699	43534.51
455.14	43267.56
455.582	42747.02
456.023	42794.29
456.464	43801.78
456.905	43664.36
457.347	43661.86
457.788	42985.98
458.229	43499.56
458.67	43684.34
459.111	41828.15
459.552	42130.77
459.992	41600.16
460.433	41924.85
460.874	40803.62
461.315	41731.48
461.755	41006.27
462.196	39996.77
462.636	39627.29
463.077	40127.41
463.517	40216.18
463.957	39903.13
464.398	39794.74
464.838	39590.36
465.278	38648.67
465.718	39066.38
466.158	38101.35
466.598	38695.33
467.038	37968.91
467.478	38231.37
467.918	38602.01
468.358	37721.3
468.798	37934.58
469.237	37483.62
469.677	37375.84
470.117	38143.05
470.556	35903.17
470.996	36159.79
471.435	36242.91
471.874	37177.48
472.314	36949.82
472.753	36040.03
473.192	36487.43
473.631	35981.37
474.07	36629.29
474.509	35908.06
474.948	36054.69
475.387	35932.5
475.826	35224.14
476.265	36277.14
476.704	36213.57
477.143	36511.88
477.581	36064.47
478.02	36643.97
478.458	35299.83
478.897	36304.03
479.335	37177.48
479.774	36414.06
480.212	36778.52
480.65	36927.79
481.089	36773.63
481.527	36208.69
481.965	35592.9
482.403	37456.67
482.841	37101.58
483.279	36900.87
483.717	36756.5
484.155	36296.7
484.592	37503.22
485.03	37099.13
485.468	36470.31
485.905	36702.68
486.343	37045.28
486.781	35783.45
487.218	35656.41
487.655	35873.85
488.093	34887.25
488.53	35927.61
488.967	35693.05
489.405	35365.76
489.842	34989.77
490.279	34843.32
490.716	34499.23
491.153	34982.45
491.59	34247.93
492.027	33899.12
492.463	33362.61
492.9	32704.29
493.337	32394.66
493.773	32445.86
494.21	31926.56
494.647	31570.58
495.083	31046.3
495.519	30831.68
495.956	30990.21
496.392	29997.29
496.828	30204.72
497.265	29333.3
497.701	29714.17
498.137	29015.79
498.573	28373.1
499.009	28641.97
499.445	28221.52
499.881	27487.61
500.316	27910.92
500.752	27294.21
501.188	27007.69
501.624	26885.2
502.059	26017.27
502.495	25622.09
502.93	25823.39
503.366	25899.48
503.801	25219.24
504.236	25059.49
504.672	24459.36
505.107	24530.73
505.542	23838.78
505.977	23789.5
506.412	23244.53
506.847	23402.42
507.282	23242.07
507.717	22770.56
508.152	22879.22
508.587	22340.58
509.021	21929.99
509.456	21863.17
509.891	21355.51
510.325	21781.49
510.76	21283.64
511.194	21330.73
511.628	21345.59
512.063	20397.97
512.497	20626.39
512.931	20440.19
513.366	19833.84
513.8	20179.37
514.234	19430.77
514.668	19644.8
515.102	19754.25
515.536	18817.94
515.969	19072.16
516.403	18785.53
516.837	18264.09
517.271	18538.62
517.704	18289.05
518.138	18006.85
518.571	18019.35
519.005	17536.89
519.438	17123.95
519.871	17279.17
520.305	16903.52
520.738	16793.26
521.171	16437.18
521.604	16474.81
522.037	16186.2
522.47	16108.36
522.903	15671.13
523.336	15603.24
523.769	15487.53
524.202	15341.58
524.634	15147.72
525.067	14913.42
525.5	14903.33
525.932	14694.07
526.365	14307.95
526.797	14186.71
527.23	14067.95
527.662	13313.79
528.094	13311.26
528.527	13136.34
528.959	13192.12
529.391	13260.57
529.823	12521.92
530.255	12773.45
530.687	12478.7
531.119	12063.92
531.551	11964.57
531.982	11717.27
532.414	11684.11
532.846	11561.62
533.277	11334.32
533.709	11119.56
534.14	11068.39
534.572	11070.95
535.003	10850.8
535.435	10558.59
535.866	10538.07
536.297	10240.24
536.728	10106.58
537.159	9990.83
537.59	9977.96
538.022	9787.44
538.452	9746.22
538.883	9354.12
539.314	9400.6
539.745	9160.31
540.176	9230.11
540.606	8847.13
541.037	8893.76
541.468	8766.79
541.898	8590.42
542.328	8499.56
542.759	8489.17
543.189	8231.84
543.619	8054.82
544.05	7856.71
544.48	7799.31
544.91	7804.53
545.34	7859.32
545.77	7572.08
546.2	7483.17
546.63	7354.93
547.06	7362.78
547.489	7210.83
547.919	6945.79
548.349	7258.01
548.778	7006.2
549.208	6961.55
549.637	6569.55
550.067	6659.11
550.496	6672.28
550.926	6340.06
551.355	6361.18
551.784	6548.47
552.213	6398.14
552.642	6014.83
553.071	6128.63
553.5	6022.77
553.929	5866.44
554.358	5839.92
554.787	5667.39
555.216	5709.88
555.645	5699.26
556.073	5646.13
556.502	5499.9
556.93	5350.8
557.359	5265.5
557.787	5308.16
558.216	5217.49
558.644	5483.93
559.072	5270.83
559.5	5137.42
559.929	5217.49
560.357	4969.07
560.785	5049.27
561.213	4931.62
561.641	5025.22
562.068	4749.52
562.496	4787.04
562.924	4918.24
563.352	4720.03
563.779	4561.71
564.207	4736.12
564.634	4808.47
565.062	4534.85
565.489	4483.8
565.917	4588.56
566.344	4416.58
566.771	4459.61
567.198	4365.47
567.625	4360.08
568.053	4284.7
568.48	4133.75
568.907	4155.33
569.333	4171.51
569.76	4060.88
570.187	4060.88
570.614	4109.46
571.04	3931.19
571.467	3793.2
571.894	3744.45
572.32	3847.34
572.747	3682.11
573.173	3706.51
573.599	3532.87
574.026	3502.99
574.452	3494.84
574.878	3320.79
575.304	3299.01
575.73	3260.88
576.156	3236.36
576.582	3203.65
577.008	3187.3
577.434	2990.77
577.86	2971.63
578.285	3119.11
578.711	2927.89
579.137	2947.03
579.562	2837.59
579.988	2903.27
580.413	2681.4
580.838	2689.63
581.264	2755.42
581.689	2656.71
582.114	2733.5
582.539	2533.16
582.964	2538.65
583.39	2588.09
583.814	2544.15
584.239	2335.08
584.664	2480.93
585.089	2368.13
585.514	2475.43
585.939	2332.33
586.363	2332.33
586.788	2313.04
587.212	2222.07
587.637	2255.16
588.061	2172.41
588.485	2106.15
588.91	2200
589.334	2117.19
589.758	2045.35
590.182	2070.23
590.606	2081.28
591.03	2061.94
591.454	1943.01
591.878	1923.63
592.302	1929.17
592.726	1823.91
593.15	1798.95
593.573	1760.13
593.997	1846.08
594.42	1843.31
594.844	1696.29
595.267	1726.83
595.691	1796.18
596.114	1773.99
596.537	1543.44
596.96	1710.17
597.384	1690.74
597.807	1593.5
598.23	1554.57
598.653	1587.94
599.076	1582.38
599.499	1629.63
599.921	1601.84
600.344	1593.5
600.767	1526.75
601.189	1518.4
601.612	1465.51
602.034	1568.47
602.457	1512.83
602.879	1501.7
603.302	1443.23
603.724	1454.37
604.146	1434.87
604.568	1485
604.991	1451.58
605.413	1443.23
605.835	1393.07
606.257	1407.01
606.678	1404.22
607.1	1292.67
607.522	1354.04
607.944	1423.73
608.365	1287.08
608.787	1351.25
609.209	1379.14
609.63	1342.89
610.051	1278.71
610.473	1370.77
610.894	1259.17
611.315	1317.78
611.737	1292.67
612.158	1222.86
612.579	1166.97
613	1256.38
613.421	1197.72
613.842	1306.62
614.263	1217.28
614.683	1166.97
615.104	1245.21
615.525	1242.41
615.945	1102.65
616.366	1052.27
616.787	1105.45
617.207	1116.64
617.627	1113.84
618.048	1071.87
618.468	1029.87
618.888	1074.67
619.308	990.66
619.728	1004.67
620.148	1001.86
620.568	1080.27
620.988	1007.47
621.408	982.25
621.828	990.66
622.248	1015.87
622.668	987.86
623.087	968.24
623.507	923.38
623.926	965.44
624.346	968.24
624.765	881.31
625.185	1015.87
625.604	943.01
626.023	959.83
626.442	864.47
626.861	945.81
627.28	827.97
627.699	971.04
628.118	867.27
628.537	819.55
628.956	768.98
629.375	912.16
629.794	850.43
630.212	926.19
630.631	797.08
631.049	839.2
631.468	813.93
631.886	788.65
632.305	794.27
632.723	886.92
633.141	783.03
633.559	794.27
633.978	774.6
634.396	833.59
634.814	667.75
635.232	861.66
635.65	777.41
636.067	746.5
636.485	881.31
636.903	743.69
637.321	738.07
637.738	898.14
638.156	749.31
638.573	760.55
638.991	695.89
639.408	760.55
639.825	746.5
640.243	771.79
640.66	783.03
641.077	645.24
641.494	715.57
641.911	709.95
642.328	721.2
642.745	603.01
643.162	625.53
643.579	698.7
643.995	679.01
644.412	594.56
644.829	636.79
645.245	693.07
645.662	633.98
646.078	636.79
646.495	656.5
646.911	709.95
647.327	676.19
647.743	681.82
648.159	636.79
648.576	591.74
648.992	600.19
649.408	650.87
649.824	603.01
650.239	659.31
650.655	648.05
651.071	608.64
651.487	572.02
651.902	670.57
652.318	664.94
652.733	580.47
653.149	611.45
653.564	572.02
653.979	586.11
654.395	588.92
654.81	529.75
655.225	614.27
655.64	611.45
656.055	504.37
656.47	563.57
656.885	487.45
657.3	597.37
657.715	597.37
658.13	611.45
658.544	662.13
658.959	580.47
659.374	543.84
659.788	639.61
660.202	507.19
660.617	515.65
661.031	512.83
661.445	478.99
661.86	572.02
662.274	600.19
662.688	521.29
663.102	552.3
663.516	512.83
663.93	611.45
664.344	664.94
664.758	603.01
665.171	532.57
665.585	518.47
665.999	535.38
666.412	510.01
666.826	524.11
667.239	524.11
667.653	532.57
668.066	529.75
668.479	580.47
668.892	456.42
669.306	541.02
669.719	428.19
670.132	493.09
670.545	529.75
670.958	512.83
671.37	600.19
671.783	532.57
672.196	476.17
672.609	476.17
673.021	490.27
673.434	524.11
673.846	524.11
674.259	524.11
674.671	546.66
675.084	478.99
675.496	490.27
675.908	507.19
676.32	580.47
676.732	467.7
677.144	507.19
677.556	557.93
677.968	498.73
678.38	535.38
678.792	529.75
679.204	549.48
679.615	490.27
680.027	552.3
680.439	495.91
680.85	493.09
681.262	487.45
681.673	354.76
682.084	464.88
682.496	543.84
682.907	431.01
683.318	535.38
683.729	501.55
684.14	478.99
684.551	445.13
684.962	541.02
685.373	512.83
685.784	467.7
686.194	490.27
686.605	456.42
687.016	453.59
687.426	462.06
687.837	541.02
688.247	495.91
688.657	467.7
689.068	467.7
689.478	487.45
689.888	402.78
690.298	470.52
690.708	541.02
691.118	462.06
691.528	422.55
691.938	510.01
692.348	532.57
692.758	498.73
693.168	498.73
693.577	569.2
693.987	462.06
694.396	546.66
694.806	377.36
695.215	495.91
695.625	343.46
696.034	464.88
696.443	394.31
696.852	462.06
697.262	459.24
697.671	473.34
698.08	529.75
698.489	504.37
698.897	459.24
699.306	447.95
699.715	470.52
700.124	464.88
700.532	425.37
700.941	470.52
701.35	459.24
701.758	419.72
702.166	478.99
702.575	453.59
702.983	481.81
703.391	340.63
703.799	377.36
704.208	490.27
704.616	399.96
705.024	363.24
705.432	388.66
705.839	371.71
706.247	450.77
706.655	422.55
707.063	422.55
707.47	433.84
707.878	464.88
708.285	453.59
708.693	377.36
709.1	450.77
709.508	445.13
709.915	524.11
710.322	394.31
710.729	439.48
711.136	447.95
711.543	416.9
711.95	360.41
712.357	419.72
712.764	408.43
713.171	504.37
713.578	442.3
713.984	408.43
714.391	399.96
714.797	416.9
715.204	470.52
715.61	399.96
716.017	484.63
716.423	462.06
716.829	340.63
717.236	498.73
717.642	433.84
718.048	391.48
718.454	397.13
718.86	354.76
719.266	422.55
719.671	371.71
720.077	380.19
720.483	399.96
720.889	343.46
721.294	462.06
721.7	436.66
722.105	408.43
722.511	411.25
722.916	388.66
723.321	493.09
723.726	425.37
724.132	394.31
724.537	399.96
724.942	332.15
725.347	521.29
725.752	385.84
726.156	425.37
726.561	428.19
726.966	416.9
727.371	433.84
727.775	433.84
728.18	425.37
728.584	459.24
728.989	436.66
729.393	422.55
729.798	394.31
730.202	453.59
730.606	447.95
731.01	419.72
731.414	495.91
731.818	391.48
732.222	371.71
732.626	425.37
733.03	349.11
733.434	414.08
733.837	414.08
734.241	425.37
734.645	385.84
735.048	425.37
735.452	368.89
735.855	414.08
736.258	357.59
736.662	405.61
737.065	385.84
737.468	380.19
737.871	425.37
738.274	402.78
738.677	419.72
739.08	428.19
739.483	391.48
739.886	368.89
740.289	402.78
740.691	354.76
741.094	323.67
741.497	453.59
741.899	374.54
742.302	431.01
742.704	433.84
743.106	476.17
743.508	405.61
743.911	467.7
744.313	320.84
744.715	383.01
745.117	309.54
745.519	442.3
745.921	416.9
746.323	512.83
746.724	453.59
747.126	439.48
747.528	405.61
747.929	374.54
748.331	366.06
748.732	518.47
749.134	487.45
749.535	380.19
749.936	501.55
750.338	473.34
750.739	408.43
751.14	450.77
751.541	374.54
751.942	343.46
752.343	368.89
752.744	377.36
753.144	419.72
753.545	388.66
753.946	422.55
754.346	385.84
754.747	343.46
755.148	388.66
755.548	433.84
755.948	411.25
756.349	405.61
756.749	399.96
757.149	416.9
757.549	467.7
757.949	399.96
758.349	402.78
758.749	405.61
759.149	447.95
759.549	394.31
759.949	360.41
760.348	391.48
760.748	442.3
761.148	385.84
761.547	351.93
761.947	397.13
762.346	368.89
762.745	388.66
763.145	399.96
763.544	501.55
763.943	445.13
764.342	476.17
764.741	411.25
765.14	428.19
765.539	445.13
765.938	416.9
766.336	326.5
766.735	433.84
767.134	442.3
767.532	405.61
767.931	414.08
768.329	397.13
768.728	366.06
769.126	411.25
769.525	380.19
769.923	470.52
770.321	405.61
770.719	388.66
771.117	383.01
771.515	363.24
771.913	408.43
772.311	493.09
772.709	298.23
773.106	442.3
773.504	501.55
773.902	383.01
774.299	363.24
774.697	473.34
775.094	433.84
775.491	478.99
775.889	425.37
776.286	445.13
776.683	470.52
777.08	433.84
777.477	450.77
777.874	368.89
778.271	428.19
778.668	368.89
779.065	416.9
779.462	447.95
779.858	385.84
780.255	368.89
780.652	385.84
781.048	374.54
781.444	408.43
781.841	445.13
782.237	425.37
782.633	360.41
783.03	422.55
783.426	337.8
783.822	462.06
784.218	408.43
784.614	442.3
785.01	445.13
785.405	368.89
785.801	470.52
786.197	405.61
786.593	343.46
786.988	371.71
787.384	408.43
787.779	374.54
788.174	453.59
788.57	326.5
788.965	408.43
789.36	416.9
789.755	467.7
790.15	484.63
790.545	385.84
790.94	326.5
791.335	334.98
791.73	411.25
792.125	385.84
792.52	377.36
792.914	397.13
793.309	425.37
793.703	450.77
794.098	428.19
794.492	473.34
794.887	394.31
795.281	357.59
795.675	408.43
796.069	391.48
796.463	431.01
796.857	447.95
797.251	447.95
797.645	377.36
798.039	312.36
798.433	405.61
798.826	414.08
799.22	414.08
799.614	518.47
800.007	385.84
800.401	408.43
800.794	425.37
801.187	402.78
801.581	442.3
801.974	360.41
802.367	371.71
802.76	357.59
803.153	464.88
803.546	433.84
803.939	318.02
804.332	391.48
804.725	453.59
805.117	394.31
805.51	439.48
805.903	433.84
806.295	408.43
806.688	456.42
807.08	340.63
807.472	436.66
807.865	399.96
808.257	354.76
808.649	416.9
809.041	416.9
809.433	521.29
809.825	326.5
810.217	366.06
810.609	351.93
811.001	442.3
811.392	337.8
811.784	357.59
812.175	405.61
812.567	360.41
812.958	337.8
813.35	476.17
813.741	357.59
814.132	385.84
814.524	487.45
814.915	402.78
815.306	371.71
815.697	442.3
816.088	394.31
816.479	445.13
816.87	442.3
817.26	419.72
817.651	405.61
818.042	453.59
818.432	433.84
818.823	405.61
819.213	332.15
819.604	368.89
819.994	405.61
820.384	371.71
820.775	323.67
821.165	433.84
821.555	464.88
821.945	425.37
822.335	408.43
822.725	425.37
823.114	411.25
823.504	388.66
823.894	346.28
824.284	388.66
824.673	431.01
825.063	371.71
825.452	388.66
825.842	380.19
826.231	484.63
826.62	411.25
827.009	419.72
827.399	343.46
827.788	284.09
828.177	425.37
828.566	411.25
828.954	462.06
829.343	411.25
829.732	462.06
830.121	357.59
830.509	445.13
830.898	385.84
831.286	405.61
831.675	391.48
832.063	397.13
832.452	343.46
832.84	433.84
833.228	385.84
833.616	374.54
834.004	433.84
834.392	529.75
834.78	490.27
835.168	445.13
835.556	416.9
835.944	495.91
836.331	397.13
836.719	416.9
837.107	366.06
837.494	436.66
837.881	470.52
838.269	394.31
838.656	453.59
839.043	411.25
839.431	368.89
839.818	419.72
840.205	380.19
840.592	377.36
840.979	439.48
841.366	470.52
841.752	422.55
842.139	374.54
842.526	343.46
842.912	380.19
843.299	385.84
843.685	411.25
844.072	411.25
844.458	394.31
844.844	476.17
845.231	275.6
845.617	371.71
846.003	405.61
846.389	363.24
846.775	315.19
847.161	394.31
847.547	368.89
847.933	408.43
848.318	433.84
848.704	312.36
849.09	301.05
849.475	414.08
849.861	433.84
850.246	366.06
850.631	459.24
851.017	380.19
851.402	380.19
851.787	377.36
852.172	399.96
852.557	414.08
852.942	504.37
853.327	453.59
853.712	422.55
854.097	433.84
854.481	459.24
854.866	374.54
855.25	399.96
855.635	399.96
856.019	450.77
856.404	391.48
856.788	383.01
857.172	332.15
857.557	450.77
857.941	380.19
858.325	414.08
858.709	391.48
859.093	366.06
859.477	447.95
859.86	447.95
860.244	391.48
860.628	402.78
861.012	422.55
861.395	380.19
861.779	453.59
862.162	357.59
862.545	447.95
862.929	428.19
863.312	363.24
863.695	445.13
864.078	323.67
864.461	481.81
864.844	391.48
865.227	371.71
865.61	439.48
865.993	464.88
866.376	351.93
866.758	436.66
867.141	442.3
867.523	414.08
867.906	433.84
868.288	456.42
868.671	447.95
869.053	388.66
869.435	447.95
869.817	422.55
870.199	462.06
870.581	459.24
870.963	411.25
871.345	414.08
871.727	281.26
872.109	436.66
872.491	464.88
872.872	383.01
873.254	357.59
873.635	397.13
874.017	408.43
874.398	371.71
874.779	391.48
875.161	408.43
875.542	399.96
875.923	462.06
876.304	380.19
876.685	318.02
877.066	366.06
877.447	354.76
877.828	391.48
878.208	391.48
878.589	507.19
878.97	388.66
879.35	366.06
879.731	408.43
880.111	431.01
880.491	425.37
880.872	394.31
881.252	332.15
881.632	377.36
882.012	433.84
882.392	334.98
882.772	374.54
883.152	394.31
883.532	388.66
883.912	428.19
884.291	442.3
884.671	416.9
885.051	453.59
885.43	394.31
885.81	436.66
886.189	337.8
886.568	402.78
886.948	439.48
887.327	334.98
887.706	357.59
888.085	391.48
888.464	306.71
888.843	414.08
889.222	414.08
889.601	431.01
889.979	391.48
890.358	416.9
890.737	414.08
891.115	385.84
891.494	394.31
891.872	436.66
892.25	334.98
892.629	436.66
893.007	416.9
893.385	470.52
893.763	380.19
894.141	453.59
894.519	380.19
894.897	385.84
895.275	464.88
895.653	318.02
896.03	433.84
896.408	385.84
896.786	383.01
897.163	411.25
897.541	399.96
897.918	366.06
898.295	286.91
898.673	374.54
899.05	371.71
899.427	349.11
899.804	433.84
900.181	377.36
900.558	439.48
900.935	351.93
901.312	318.02
901.688	354.76
902.065	377.36
902.442	436.66
902.818	422.55
903.195	326.5
903.571	411.25
903.947	371.71
904.324	442.3
904.7	354.76
905.076	380.19
905.452	354.76
905.828	408.43
906.204	416.9
906.58	377.36
906.956	351.93
907.331	371.71
907.707	383.01
908.083	419.72
908.458	405.61
908.834	388.66
909.209	408.43
909.585	374.54
909.96	450.77
910.335	442.3
910.71	416.9
911.086	388.66
911.461	495.91
911.836	436.66
912.21	360.41
912.585	459.24
912.96	411.25
913.335	419.72
913.709	363.24
914.084	431.01
914.459	397.13
914.833	422.55
915.207	411.25
915.582	445.13
915.956	405.61
916.33	411.25
916.704	377.36
917.078	439.48
917.452	366.06
917.826	357.59
918.2	371.71
918.574	388.66
918.948	481.81
919.321	416.9
919.695	402.78
920.068	464.88
920.442	428.19
920.815	464.88
921.189	402.78
921.562	323.67
921.935	484.63
922.308	374.54
922.681	433.84
923.054	397.13
923.427	442.3
923.8	397.13
924.173	383.01
924.546	366.06
924.919	456.42
925.291	433.84
925.664	309.54
926.036	391.48
926.409	354.76
926.781	332.15
927.153	320.84
927.526	343.46
927.898	346.28
928.27	349.11
928.642	354.76
929.014	405.61
929.386	439.48
929.758	363.24
930.129	402.78
930.501	371.71
930.873	402.78
931.244	414.08
931.616	411.25
931.987	431.01
932.359	402.78
932.73	374.54
933.101	385.84
933.472	371.71
933.843	456.42
934.214	391.48
934.585	422.55
934.956	399.96
935.327	414.08
935.698	332.15
936.069	402.78
936.439	360.41
936.81	354.76
937.18	397.13
937.551	456.42
937.921	419.72
938.292	498.73
938.662	399.96
939.032	428.19
939.402	332.15
939.772	462.06
940.142	405.61
940.512	286.91
940.882	374.54
941.252	388.66
941.621	351.93
941.991	363.24
942.361	462.06
942.73	416.9
943.1	445.13
943.469	366.06
943.838	309.54
944.208	436.66
944.577	431.01
944.946	422.55
945.315	405.61
945.684	326.5
946.053	408.43
946.422	377.36
946.791	411.25
947.159	414.08
947.528	329.33
947.897	473.34
948.265	388.66
948.634	343.46
949.002	391.48
949.371	360.41
949.739	374.54
950.107	433.84
950.475	450.77
950.843	402.78
951.211	431.01
951.579	405.61
951.947	484.63
952.315	436.66
952.683	385.84
953.05	388.66
953.418	374.54
953.785	346.28
954.153	431.01
954.52	416.9
954.888	383.01
955.255	450.77
955.622	408.43
955.989	416.9
956.356	402.78
956.723	453.59
957.09	453.59
957.457	439.48
957.824	374.54
958.191	391.48
958.557	332.15
958.924	428.19
959.291	385.84
959.657	366.06
960.023	408.43
960.39	349.11
960.756	414.08
961.122	405.61
961.488	450.77
961.855	383.01
962.221	306.71
962.586	357.59
962.952	419.72
963.318	380.19
963.684	481.81
964.05	354.76
964.415	363.24
964.781	422.55
965.146	436.66
965.512	453.59
965.877	377.36
966.242	428.19
966.608	405.61
966.973	425.37
967.338	405.61
967.703	501.55
968.068	346.28
968.433	436.66
968.797	459.24
969.162	323.67
969.527	399.96
969.891	351.93
970.256	357.59
970.62	329.33
970.985	312.36
971.349	315.19
971.714	275.6
972.078	464.88
972.442	439.48
972.806	414.08
973.17	436.66
973.534	478.99
973.898	399.96
974.262	363.24
974.625	414.08
974.989	357.59
975.353	388.66
975.716	349.11
976.08	354.76
976.443	329.33
976.806	391.48
977.17	399.96
977.533	436.66
977.896	428.19
978.259	433.84
978.622	397.13
978.985	416.9
979.348	318.02
979.711	363.24
980.073	416.9
980.436	411.25
980.799	391.48
981.161	428.19
981.524	439.48
981.886	391.48
982.248	439.48
982.611	470.52
982.973	436.66
983.335	318.02
983.697	351.93
984.059	481.81
984.421	397.13
984.783	340.63
985.145	422.55
985.506	428.19
985.868	374.54
986.23	422.55
986.591	405.61
986.953	377.36
987.314	453.59
987.675	433.84
988.037	467.7
988.398	397.13
988.759	439.48
989.12	411.25
989.481	360.41
989.842	411.25
990.203	411.25
990.564	385.84
990.924	467.7
991.285	515.65
991.646	462.06
992.006	422.55
992.367	354.76
992.727	411.25
993.087	346.28
993.448	425.37
993.808	445.13
994.168	411.25
994.528	422.55
994.888	272.77
995.248	419.72
995.608	383.01
995.967	388.66
996.327	399.96
996.687	349.11
997.046	366.06
997.406	323.67
997.765	428.19
998.125	422.55
998.484	334.98
998.843	411.25
999.202	323.67
999.561	357.59
999.92	445.13
1000.279	357.59
1000.638	405.61
1000.997	402.78
1001.356	368.89
1001.715	399.96
1002.073	380.19
1002.432	402.78
1002.79	431.01
1003.149	453.59
1003.507	292.57
1003.865	419.72
1004.224	340.63
1004.582	286.91
1004.94	377.36
1005.298	402.78
1005.656	366.06
1006.014	332.15
1006.371	366.06
1006.729	484.63
1007.087	402.78
1007.445	298.23
1007.802	433.84
1008.16	411.25
1008.517	408.43
1008.874	447.95
1009.232	366.06
1009.589	416.9
1009.946	399.96
1010.303	388.66
1010.66	408.43
1011.017	349.11
1011.374	431.01
1011.731	411.25
1012.087	366.06
1012.444	473.34
1012.801	351.93
1013.157	405.61
1013.513	411.25
1013.87	343.46
1014.226	414.08
1014.582	371.71
1014.939	368.89
1015.295	411.25
1015.651	371.71
1016.007	301.05
1016.363	340.63
1016.719	402.78
1017.074	422.55
1017.43	357.59
1017.786	425.37
1018.141	411.25
1018.497	414.08
1018.852	371.71
1019.208	363.24
1019.563	351.93
1019.918	349.11
1020.273	447.95
1020.628	487.45
1020.983	383.01
1021.338	428.19
1021.693	408.43
1022.048	397.13
1022.403	462.06
1022.757	459.24
1023.112	323.67
1023.467	399.96
1023.821	388.66
1024.175	408.43
1024.53	385.84
1024.884	414.08
1025.238	383.01
1025.592	354.76
1025.946	512.83
1026.3	388.66
1026.654	385.84
1027.008	419.72
1027.362	337.8
1027.716	411.25
1028.069	360.41
1028.423	343.46
1028.777	332.15
1029.13	521.29
1029.483	422.55
1029.837	346.28
1030.19	411.25
1030.543	439.48
1030.896	383.01
1031.249	337.8
1031.602	470.52
1031.955	428.19
1032.308	397.13
1032.661	357.59
1033.013	368.89
1033.366	340.63
1033.719	312.36
1034.071	337.8
1034.424	374.54
1034.776	351.93
1035.128	394.31
1035.48	329.33
1035.833	368.89
1036.185	507.19
1036.537	507.19
1036.889	507.19
