Data from SCSF78-3-370-irrad_FLMS019251_11-15-01-638.txt Node
Date: Fri Feb 15 11:15:01 CET 2019
User: luk
Spectrometer: FLMS01925
Trigger mode: 0
Integration Time (sec): 1.399000E-2
Scans to average: 1
Electric dark correction enabled: true
Nonlinearity correction enabled: true
Boxcar width: 0
XAxis mode: Wavelengths
Number of Pixels in Spectrum: 2048
>>>>>Begin Spectral Data<<<<<
187.103	-50.95
187.574	-50.95
188.045	-50.95
188.516	-102.1
188.987	-67.99
189.458	-176.06
189.929	-70.84
190.4	-136.23
190.871	-104.95
191.342	-116.32
191.813	0.18
192.284	-31.06
192.754	-53.79
193.225	-53.79
193.696	54.1
194.166	-8.34
194.637	125
195.107	73.96
195.578	153.34
196.048	201.49
196.518	142
196.989	133.5
197.459	215.64
197.929	294.87
198.399	263.75
198.869	317.49
199.339	331.62
199.809	399.43
200.279	365.53
200.749	300.52
201.219	427.66
201.689	413.55
202.159	379.66
202.628	430.49
203.098	430.49
203.568	461.53
204.037	396.6
204.507	424.84
204.976	382.48
205.445	450.24
205.915	331.62
206.384	388.13
206.853	390.96
207.323	416.37
207.792	444.6
208.261	340.1
208.73	328.8
209.199	368.36
209.668	472.82
210.137	413.55
210.606	438.95
211.075	478.46
211.543	464.35
212.012	410.72
212.481	402.25
212.95	422.02
213.418	419.19
213.887	472.82
214.355	368.36
214.824	430.49
215.292	447.42
215.76	354.23
216.229	433.31
216.697	441.78
217.165	359.88
217.633	419.19
218.101	402.25
218.569	396.6
219.037	320.31
219.505	410.72
219.973	365.53
220.441	362.71
220.909	382.48
221.377	396.6
221.844	362.71
222.312	294.87
222.78	467.17
223.247	348.58
223.715	303.35
224.182	371.18
224.65	399.43
225.117	345.75
225.584	348.58
226.052	309.01
226.519	393.78
226.986	407.9
227.453	351.4
227.92	325.97
228.387	351.4
228.854	331.62
229.321	393.78
229.788	422.02
230.255	359.88
230.722	427.66
231.189	430.49
231.655	393.78
232.122	277.9
232.589	399.43
233.055	292.04
233.522	331.62
233.988	410.72
234.454	396.6
234.921	385.31
235.387	416.37
235.853	368.36
236.32	323.14
236.786	325.97
237.252	342.93
237.718	382.48
238.184	379.66
238.65	390.96
239.116	461.53
239.582	469.99
240.047	405.08
240.513	396.6
240.979	424.84
241.445	461.53
241.91	379.66
242.376	405.08
242.841	438.95
243.307	323.14
243.772	320.31
244.238	390.96
244.703	388.13
245.168	405.08
245.633	441.78
246.099	430.49
246.564	396.6
247.029	447.42
247.494	376.83
247.959	427.66
248.424	405.08
248.889	444.6
249.353	402.25
249.818	334.45
250.283	393.78
250.748	388.13
251.212	436.13
251.677	368.36
252.141	317.49
252.606	382.48
253.07	458.71
253.535	469.99
253.999	328.8
254.463	337.27
254.927	388.13
255.392	374.01
255.856	374.01
256.32	405.08
256.784	376.83
257.248	419.19
257.712	405.08
258.176	354.23
258.64	438.95
259.103	447.42
259.567	359.88
260.031	461.53
260.495	374.01
260.958	444.6
261.422	379.66
261.885	371.18
262.349	382.48
262.812	371.18
263.275	481.28
263.739	374.01
264.202	388.13
264.665	461.53
265.128	388.13
265.591	447.42
266.054	410.72
266.517	475.64
266.98	393.78
267.443	424.84
267.906	469.99
268.369	436.13
268.832	433.31
269.294	371.18
269.757	419.19
270.22	379.66
270.682	441.78
271.145	464.35
271.607	450.24
272.07	376.83
272.532	306.18
272.994	438.95
273.456	393.78
273.919	410.72
274.381	441.78
274.843	393.78
275.305	495.38
275.767	422.02
276.229	419.19
276.691	438.95
277.153	427.66
277.614	376.83
278.076	475.64
278.538	461.53
279	422.02
279.461	314.66
279.923	351.4
280.384	444.6
280.846	354.23
281.307	334.45
281.769	438.95
282.23	427.66
282.691	345.75
283.152	402.25
283.613	419.19
284.075	416.37
284.536	444.6
284.997	402.25
285.458	441.78
285.918	461.53
286.379	354.23
286.84	503.84
287.301	407.9
287.762	450.24
288.222	410.72
288.683	413.55
289.143	402.25
289.604	501.02
290.064	376.83
290.525	458.71
290.985	362.71
291.445	486.92
291.906	407.9
292.366	396.6
292.826	481.28
293.286	393.78
293.746	331.62
294.206	405.08
294.666	444.6
295.126	419.19
295.586	388.13
296.046	464.35
296.506	444.6
296.965	430.49
297.425	365.53
297.884	441.78
298.344	365.53
298.804	396.6
299.263	427.66
299.722	469.99
300.182	399.43
300.641	515.12
301.1	450.24
301.559	405.08
302.019	475.64
302.478	379.66
302.937	374.01
303.396	433.31
303.855	506.66
304.314	393.78
304.772	453.06
305.231	382.48
305.69	419.19
306.149	427.66
306.607	438.95
307.066	416.37
307.524	359.88
307.983	472.82
308.441	438.95
308.9	438.95
309.358	410.72
309.816	455.89
310.275	506.66
310.733	314.66
311.191	371.18
311.649	430.49
312.107	464.35
312.565	416.37
313.023	410.72
313.481	450.24
313.939	450.24
314.397	433.31
314.854	405.08
315.312	481.28
315.77	365.53
316.227	433.31
316.685	390.96
317.142	410.72
317.6	368.36
318.057	390.96
318.514	368.36
318.972	402.25
319.429	486.92
319.886	453.06
320.343	379.66
320.8	351.4
321.257	453.06
321.714	467.17
322.171	455.89
322.628	436.13
323.085	495.38
323.542	455.89
323.998	481.28
324.455	436.13
324.912	469.99
325.368	438.95
325.825	424.84
326.281	441.78
326.738	469.99
327.194	481.28
327.65	546.13
328.107	436.13
328.563	388.13
329.019	413.55
329.475	396.6
329.931	509.48
330.387	379.66
330.843	436.13
331.299	379.66
331.755	388.13
332.211	450.24
332.666	486.92
333.122	475.64
333.578	345.75
334.033	447.42
334.489	472.82
334.944	489.74
335.4	438.95
335.855	402.25
336.31	464.35
336.766	551.77
337.221	357.06
337.676	472.82
338.131	481.28
338.586	433.31
339.041	455.89
339.496	407.9
339.951	427.66
340.406	560.22
340.861	509.48
341.316	464.35
341.771	444.6
342.225	427.66
342.68	419.19
343.134	461.53
343.589	472.82
344.043	453.06
344.498	489.74
344.952	433.31
345.406	461.53
345.861	416.37
346.315	382.48
346.769	323.14
347.223	447.42
347.677	523.58
348.131	405.08
348.585	410.72
349.039	486.92
349.493	340.1
349.947	486.92
350.401	399.43
350.854	413.55
351.308	410.72
351.762	489.74
352.215	444.6
352.669	436.13
353.122	430.49
353.575	469.99
354.029	379.66
354.482	509.48
354.935	396.6
355.388	467.17
355.842	453.06
356.295	509.48
356.748	461.53
357.201	484.1
357.654	486.92
358.106	450.24
358.559	444.6
359.012	438.95
359.465	376.83
359.917	427.66
360.37	427.66
360.823	441.78
361.275	438.95
361.728	436.13
362.18	433.31
362.632	433.31
363.085	472.82
363.537	523.58
363.989	413.55
364.441	447.42
364.893	441.78
365.345	512.3
365.797	379.66
366.249	447.42
366.701	430.49
367.153	365.53
367.605	537.67
368.057	424.84
368.508	419.19
368.96	410.72
369.411	396.6
369.863	475.64
370.314	402.25
370.766	450.24
371.217	390.96
371.669	506.66
372.12	416.37
372.571	464.35
373.022	405.08
373.473	436.13
373.924	455.89
374.375	416.37
374.826	484.1
375.277	444.6
375.728	436.13
376.179	498.2
376.63	472.82
377.08	444.6
377.531	447.42
377.981	419.19
378.432	416.37
378.883	489.74
379.333	441.78
379.783	503.84
380.234	455.89
380.684	433.31
381.134	453.06
381.584	484.1
382.034	413.55
382.485	407.9
382.935	481.28
383.385	472.82
383.834	551.77
384.284	481.28
384.734	472.82
385.184	402.25
385.634	461.53
386.083	410.72
386.533	475.64
386.982	501.02
387.432	453.06
387.881	523.58
388.331	441.78
388.78	512.3
389.229	458.71
389.679	484.1
390.128	481.28
390.577	517.94
391.026	486.92
391.475	430.49
391.924	422.02
392.373	503.84
392.822	427.66
393.27	382.48
393.719	467.17
394.168	402.25
394.617	503.84
395.065	495.38
395.514	461.53
395.962	407.9
396.411	396.6
396.859	453.06
397.307	405.08
397.756	427.66
398.204	484.1
398.652	461.53
399.1	512.3
399.548	455.89
399.996	422.02
400.444	472.82
400.892	489.74
401.34	509.48
401.788	509.48
402.236	453.06
402.683	546.13
403.131	486.92
403.579	422.02
404.026	540.49
404.474	450.24
404.921	464.35
405.369	517.94
405.816	464.35
406.263	591.21
406.71	568.67
407.158	478.46
407.605	478.46
408.052	523.58
408.499	481.28
408.946	599.66
409.393	509.48
409.84	453.06
410.286	441.78
410.733	560.22
411.18	506.66
411.626	467.17
412.073	495.38
412.52	540.49
412.966	571.49
413.413	540.49
413.859	532.04
414.305	501.02
414.752	596.85
415.198	594.03
415.644	658.78
416.09	776.89
416.536	779.7
416.982	889.2
417.428	1121.71
417.874	1311.68
418.32	1654.11
418.766	2147.05
419.211	2521.65
419.657	3235.85
420.103	3773.73
420.548	4652.48
420.994	5775.75
421.439	6984.7
421.885	8197.53
422.33	9480.13
422.776	10742.71
423.221	12236.57
423.666	14070
424.111	15421.64
424.556	16900.55
425.001	18805.01
425.446	20819.48
425.891	22058.19
426.336	23702.77
426.781	25641.27
427.226	27834.63
427.671	28844.32
428.115	30270.14
428.56	32179.66
429.005	34169.41
429.449	34501.21
429.894	36895.52
430.338	38488.61
430.782	38277.53
431.227	40077.65
431.671	41159.11
432.115	42537.66
432.559	43731.34
433.003	43698.86
433.447	45127.91
433.891	45604.21
434.335	46109.73
434.779	47394.05
435.223	47890.86
435.667	48356.33
436.111	49330.12
436.554	48650.55
436.998	48886.03
437.442	48873.08
437.885	51194.89
438.328	49779.05
438.772	50449.2
439.215	51459.61
439.659	50758.71
440.102	51381.95
440.545	51088.24
440.988	50589.24
441.431	52130.6
441.874	51757.78
442.317	51825.14
442.76	51232.26
443.203	51152.21
443.646	52027.69
444.089	51615.22
444.531	51790.1
444.974	50947.19
445.417	52271.73
445.859	51852.1
446.302	52601.57
446.744	51852.1
447.186	53671.6
447.629	51995.23
448.071	51701.25
448.513	52323.39
448.956	53624.07
449.398	53060.35
449.84	51798.18
450.282	52716.56
450.724	53248.41
451.166	52680.94
451.607	52713.82
452.049	52628.93
452.491	53610.1
452.933	53442.8
453.374	54226.31
453.816	54334.18
454.257	53811.69
454.699	55436.03
455.14	54590.85
455.582	54402.46
456.023	54765.79
456.464	54545.09
456.905	55016.75
457.347	55022.54
457.788	53895.97
458.229	53994.51
458.67	55471.2
459.111	52963.84
459.552	53935.36
459.992	52840.05
460.433	52895.03
460.874	51987.12
461.315	53085.2
461.755	52127.89
462.196	51483.73
462.636	50283.09
463.077	50636.86
463.517	50443.93
463.957	50663.33
464.398	50356.87
464.838	50372.69
465.278	48886.03
465.718	49275.47
466.158	48273.89
466.598	48454.31
467.038	48286.77
467.478	48493.01
467.918	48805.75
468.358	47611.47
468.798	47721.61
469.237	47383.83
469.677	47475.86
470.117	48019.25
470.556	46051.52
470.996	46011.03
471.435	46330.16
471.874	47123.46
472.314	46751.66
472.753	45536.08
473.192	45505.81
473.631	45442.77
474.07	45760.75
474.509	45389.83
474.948	45909.86
475.387	45309.2
475.826	44061.42
476.265	45773.38
476.704	45528.51
477.143	45606.73
477.581	45331.87
478.02	46970.54
478.458	44206.62
478.897	45844.13
479.335	47143.86
479.774	45826.44
480.212	46596.63
480.65	46403.7
481.089	46276.92
481.527	45649.64
481.965	45432.69
482.403	46754.21
482.841	46489.98
483.279	47067.37
483.717	46756.75
484.155	46216.11
484.592	46528.06
485.03	47016.4
485.468	46071.76
485.905	46195.84
486.343	46396.09
486.781	45914.91
487.218	45319.28
487.655	45183.28
488.093	44459.72
488.53	45450.33
488.967	44788.49
489.405	44166.55
489.842	43773.82
490.279	43593.96
490.716	43092.62
491.153	43871.31
491.59	43047.78
492.027	42341.35
492.463	41884.71
492.9	41035.47
493.337	40837.75
493.773	41478.35
494.21	39976.59
494.647	39991.38
495.083	39068.38
495.519	38488.61
495.956	38893.87
496.392	37720.85
496.828	37992.98
497.265	37000.76
497.701	36986.07
498.137	36687.54
498.573	35526.49
499.009	36200.89
499.445	35572.9
499.881	34310.91
500.316	35284.72
500.752	34130.38
501.188	33901.1
501.624	33703.55
502.059	32347.88
502.495	32433.21
502.93	32179.66
503.366	32343.01
503.801	31360.43
504.236	31160.46
504.672	30711.7
505.107	30604.37
505.542	29674.65
505.977	29926.06
506.412	29323.07
506.847	29806.47
507.282	29122.81
507.717	29076.4
508.152	28714.82
508.587	28260.18
509.021	27763.68
509.456	27004.78
509.891	27095.4
510.325	27335.38
510.76	26784.28
511.194	26598.02
511.628	26419.06
512.063	25660.91
512.497	26065.88
512.931	25444.81
513.366	25125.39
513.8	25307.24
514.234	24572.1
514.668	24323.53
515.102	25000.03
515.536	23850.64
515.969	23917.17
516.403	23327.95
516.837	23029.36
517.271	23429.09
517.704	22723.16
518.138	22599.64
518.571	22317.87
519.005	22065.61
519.438	21790.93
519.871	21852.81
520.305	21112.14
520.738	21303
521.171	20288.22
521.604	20645.78
522.037	20340.38
522.47	19997.47
522.903	19651.79
523.336	19490.05
523.769	19350.64
524.202	18854.87
524.634	18877.3
525.067	18612.99
525.5	18438.34
525.932	18228.67
526.365	17538.93
526.797	17466.38
527.23	17758.98
527.662	17115.97
528.094	17025.81
528.527	16785.27
528.959	16386.53
529.391	16248.49
529.823	16060.18
530.255	15713.41
530.687	15643
531.119	15061.61
531.551	15404.03
531.982	14817.16
532.414	14829.76
532.846	14582.61
533.277	14143.29
533.709	13657.75
534.14	13632.44
534.572	13607.12
535.003	13417.2
535.435	13414.67
535.866	13115.58
536.297	12899.92
536.728	12704.4
537.159	12696.78
537.59	12389.22
538.022	11933.51
538.452	12025.23
538.883	11925.86
539.314	11765.26
539.745	11390.05
540.176	11039.77
540.606	10758.09
541.037	11090.94
541.468	10858
541.898	10735.02
542.328	10432.37
542.759	10363.05
543.189	10509.36
543.619	10437.51
544.05	10016.07
544.48	9596.22
544.91	9753.46
545.34	9681.31
545.77	9480.13
546.2	9304.56
546.63	9012.37
547.06	9069.3
547.489	8986.48
547.919	8672.96
548.349	8802.59
548.778	8750.75
549.208	8374.37
549.637	8228.75
550.067	8168.9
550.496	8452.32
550.926	8317.18
551.355	7968.35
551.784	7957.92
552.213	7817.09
552.642	7537.6
553.071	7427.73
553.5	7409.41
553.929	7184.12
554.358	7312.54
554.787	7176.26
555.216	7142.17
555.645	7092.32
556.073	7037.21
556.502	6711.27
556.93	6532.16
557.359	6569.06
557.787	6590.13
558.216	6537.43
558.644	6299.95
559.072	6431.94
559.5	6350.13
559.929	6281.46
560.357	6281.46
560.785	6093.74
561.213	6207.47
561.641	5842.07
562.068	5971.95
562.496	5998.44
562.924	5948.11
563.352	5823.51
563.779	5672.2
564.207	5738.59
564.634	5852.68
565.062	5640.32
565.489	5563.24
565.917	5512.7
566.344	5531.32
566.771	5486.1
567.198	5496.74
567.625	5379.6
568.053	5315.65
568.48	5246.33
568.907	5243.66
569.333	5147.6
569.76	4896.33
570.187	5136.92
570.614	4818.68
571.04	5027.39
571.467	4738.3
571.894	4692.71
572.32	4518.23
572.747	4475.23
573.173	4203.36
573.599	4359.58
574.026	4284.19
574.452	4346.12
574.878	4114.35
575.304	4119.75
575.73	4052.27
576.156	3830.59
576.582	3909.05
577.008	3819.77
577.434	3925.28
577.86	3768.32
578.285	3559.52
578.711	3592.09
579.137	3613.8
579.562	3437.26
579.988	3478.03
580.413	3467.16
580.838	3309.39
581.264	3309.39
581.689	3181.33
582.114	3301.22
582.539	3126.78
582.964	3036.7
583.39	3134.97
583.814	2867.19
584.239	2910.97
584.664	2828.87
585.089	2878.14
585.514	2965.65
585.939	2754.91
586.363	2754.91
586.788	2697.34
587.212	2749.43
587.637	2606.8
588.061	2587.58
588.485	2560.11
588.91	2543.63
589.334	2491.41
589.758	2535.39
590.182	2422.66
590.606	2381.38
591.03	2433.66
591.454	2395.14
591.878	2362.1
592.302	2373.12
592.726	2196.73
593.15	2268.43
593.573	2238.1
593.997	2155.33
594.42	2111.15
594.844	2232.59
595.267	2053.13
595.691	2080.76
596.114	1995.06
596.537	1995.06
596.96	1984
597.384	2033.78
597.807	2031.01
598.23	1859.41
598.653	1931.42
599.076	1914.81
599.499	1834.47
599.921	1834.47
600.344	1787.34
600.767	1906.5
601.189	1748.51
601.612	1795.66
602.034	1845.56
602.457	1695.77
602.879	1748.51
603.302	1698.55
603.724	1726.31
604.146	1751.28
604.568	1754.06
604.991	1681.89
605.413	1795.66
605.835	1693
606.257	1676.33
606.678	1629.11
607.1	1704.1
607.522	1665.22
607.944	1598.54
608.365	1662.45
608.787	1626.33
609.209	1643
609.63	1629.11
610.051	1640.22
610.473	1559.61
610.894	1592.98
611.315	1395.34
611.737	1531.79
612.158	1509.53
612.579	1398.12
613	1509.53
613.421	1476.12
613.842	1367.46
614.263	1389.76
614.683	1456.63
615.104	1361.88
615.525	1294.93
615.945	1389.76
616.366	1378.61
616.787	1322.84
617.207	1336.78
617.627	1320.05
618.048	1239.1
618.468	1244.68
618.888	1222.34
619.308	1208.37
619.728	1216.75
620.148	1163.65
620.568	1267.02
620.988	1160.86
621.408	1160.86
621.828	1325.63
622.248	1188.81
622.668	1144.08
623.087	1174.84
623.507	1141.29
623.926	1085.34
624.346	1048.95
624.765	1015.35
625.185	1110.52
625.604	1060.15
626.023	1104.92
626.442	1068.55
626.861	1029.35
627.28	992.93
627.699	1057.35
628.118	973.32
628.537	1023.75
628.956	1015.35
629.375	1029.35
629.794	906.03
630.212	987.33
630.631	967.71
631.049	945.29
631.468	925.66
631.886	948.09
632.305	959.31
632.723	973.32
633.141	906.03
633.559	911.64
633.978	877.97
634.396	771.27
634.814	841.49
635.232	886.39
635.65	877.97
636.067	844.29
636.485	852.71
636.903	830.26
637.321	807.79
637.738	782.51
638.156	804.98
638.573	886.39
638.991	802.17
639.408	892
639.825	712.23
640.243	858.33
640.66	712.23
641.077	849.91
641.494	793.74
641.911	821.83
642.328	776.89
642.745	782.51
643.162	802.17
643.579	717.86
643.995	754.41
644.412	788.13
644.829	757.22
645.245	720.67
645.662	740.35
646.078	765.65
646.495	765.65
646.911	748.78
647.327	748.78
647.743	740.35
648.159	720.67
648.576	788.13
648.992	768.46
649.408	695.36
649.824	672.85
650.239	709.42
650.655	529.22
651.071	726.29
651.487	577.13
651.902	594.03
652.318	647.53
652.733	619.37
653.149	599.66
653.564	647.53
653.979	655.97
654.395	639.08
654.81	630.64
655.225	647.53
655.64	672.85
656.055	602.48
656.47	700.98
656.885	653.15
657.3	667.23
657.715	689.73
658.13	543.31
658.544	664.41
658.959	608.11
659.374	670.04
659.788	574.31
660.202	670.04
660.617	625.01
661.031	574.31
661.445	672.85
661.86	703.8
662.274	577.13
662.688	469.99
663.102	670.04
663.516	588.4
663.93	588.4
664.344	608.11
664.758	571.49
665.171	554.59
665.585	517.94
665.999	653.15
666.412	608.11
666.826	560.22
667.239	579.94
667.653	613.74
668.066	568.67
668.479	551.77
668.892	582.76
669.306	565.86
669.719	515.12
670.132	537.67
670.545	523.58
670.958	594.03
671.37	613.74
671.783	582.76
672.196	582.76
672.609	605.29
673.021	486.92
673.434	599.66
673.846	565.86
674.259	571.49
674.671	492.56
675.084	517.94
675.496	546.13
675.908	540.49
676.32	588.4
676.732	565.86
677.144	557.4
677.556	520.76
677.968	467.17
678.38	461.53
678.792	529.22
679.204	548.95
679.615	585.58
680.027	458.71
680.439	455.89
680.85	523.58
681.262	548.95
681.673	455.89
682.084	453.06
682.496	520.76
682.907	554.59
683.318	486.92
683.729	554.59
684.14	501.02
684.551	568.67
684.962	563.04
685.373	512.3
685.784	551.77
686.194	532.04
686.605	469.99
687.016	574.31
687.426	509.48
687.837	478.46
688.247	557.4
688.657	582.76
689.068	551.77
689.478	455.89
689.888	509.48
690.298	492.56
690.708	515.12
691.118	517.94
691.528	396.6
691.938	484.1
692.348	515.12
692.758	537.67
693.168	484.1
693.577	495.38
693.987	546.13
694.396	469.99
694.806	554.59
695.215	523.58
695.625	467.17
696.034	548.95
696.443	503.84
696.852	455.89
697.262	475.64
697.671	430.49
698.08	430.49
698.489	492.56
698.897	532.04
699.306	450.24
699.715	455.89
700.124	467.17
700.532	498.2
700.941	416.37
701.35	450.24
701.758	464.35
702.166	492.56
702.575	484.1
702.983	467.17
703.391	506.66
703.799	489.74
704.208	503.84
704.616	489.74
705.024	532.04
705.432	512.3
705.839	526.4
706.247	565.86
706.655	464.35
707.063	450.24
707.47	509.48
707.878	469.99
708.285	512.3
708.693	534.86
709.1	551.77
709.508	534.86
709.915	509.48
710.322	441.78
710.729	469.99
711.136	450.24
711.543	413.55
711.95	427.66
712.357	393.78
712.764	430.49
713.171	489.74
713.578	532.04
713.984	348.58
714.391	388.13
714.797	376.83
715.204	447.42
715.61	461.53
716.017	382.48
716.423	458.71
716.829	475.64
717.236	464.35
717.642	484.1
718.048	416.37
718.454	402.25
718.86	393.78
719.266	467.17
719.671	410.72
720.077	512.3
720.483	486.92
720.889	461.53
721.294	424.84
721.7	441.78
722.105	498.2
722.511	444.6
722.916	467.17
723.321	424.84
723.726	438.95
724.132	427.66
724.537	486.92
724.942	396.6
725.347	424.84
725.752	455.89
726.156	478.46
726.561	427.66
726.966	444.6
727.371	407.9
727.775	458.71
728.18	453.06
728.584	512.3
728.989	498.2
729.393	450.24
729.798	475.64
730.202	354.23
730.606	515.12
731.01	489.74
731.414	444.6
731.818	393.78
732.222	543.31
732.626	419.19
733.03	453.06
733.434	441.78
733.837	455.89
734.241	371.18
734.645	416.37
735.048	461.53
735.452	495.38
735.855	390.96
736.258	461.53
736.662	484.1
737.065	416.37
737.468	325.97
737.871	385.31
738.274	523.58
738.677	472.82
739.08	405.08
739.483	382.48
739.886	472.82
740.289	458.71
740.691	393.78
741.094	472.82
741.497	382.48
741.899	444.6
742.302	413.55
742.704	427.66
743.106	399.43
743.508	455.89
743.911	407.9
744.313	447.42
744.715	450.24
745.117	436.13
745.519	481.28
745.921	495.38
746.323	413.55
746.724	399.43
747.126	430.49
747.528	424.84
747.929	501.02
748.331	486.92
748.732	436.13
749.134	472.82
749.535	458.71
749.936	390.96
750.338	551.77
750.739	475.64
751.14	495.38
751.541	379.66
751.942	413.55
752.343	388.13
752.744	444.6
753.144	444.6
753.545	374.01
753.946	374.01
754.346	368.36
754.747	357.06
755.148	447.42
755.548	388.13
755.948	478.46
756.349	469.99
756.749	424.84
757.149	390.96
757.549	458.71
757.949	407.9
758.349	486.92
758.749	526.4
759.149	503.84
759.549	430.49
759.949	472.82
760.348	416.37
760.748	419.19
761.148	396.6
761.547	422.02
761.947	399.43
762.346	405.08
762.745	393.78
763.145	422.02
763.544	486.92
763.943	351.4
764.342	433.31
764.741	354.23
765.14	334.45
765.539	342.93
765.938	422.02
766.336	368.36
766.735	396.6
767.134	430.49
767.532	537.67
767.931	453.06
768.329	481.28
768.728	405.08
769.126	450.24
769.525	379.66
769.923	433.31
770.321	419.19
770.719	472.82
771.117	422.02
771.515	509.48
771.913	515.12
772.311	433.31
772.709	467.17
773.106	447.42
773.504	438.95
773.902	385.31
774.299	424.84
774.697	390.96
775.094	390.96
775.491	427.66
775.889	359.88
776.286	413.55
776.683	424.84
777.08	475.64
777.477	427.66
777.874	422.02
778.271	481.28
778.668	464.35
779.065	478.46
779.462	484.1
779.858	436.13
780.255	402.25
780.652	382.48
781.048	424.84
781.444	484.1
781.841	436.13
782.237	328.8
782.633	303.35
783.03	413.55
783.426	325.97
783.822	430.49
784.218	484.1
784.614	382.48
785.01	526.4
785.405	438.95
785.801	478.46
786.197	405.08
786.593	422.02
786.988	362.71
787.384	444.6
787.779	436.13
788.174	371.18
788.57	294.87
788.965	388.13
789.36	413.55
789.755	402.25
790.15	348.58
790.545	314.66
790.94	396.6
791.335	379.66
791.73	345.75
792.125	320.31
792.52	422.02
792.914	484.1
793.309	447.42
793.703	453.06
794.098	447.42
794.492	396.6
794.887	461.53
795.281	419.19
795.675	382.48
796.069	362.71
796.463	455.89
796.857	467.17
797.251	427.66
797.645	422.02
798.039	438.95
798.433	362.71
798.826	385.31
799.22	427.66
799.614	362.71
800.007	359.88
800.401	393.78
800.794	472.82
801.187	433.31
801.581	472.82
801.974	433.31
802.367	393.78
802.76	484.1
803.153	407.9
803.546	376.83
803.939	430.49
804.332	376.83
804.725	342.93
805.117	393.78
805.51	430.49
805.903	433.31
806.295	413.55
806.688	419.19
807.08	455.89
807.472	427.66
807.865	345.75
808.257	402.25
808.649	399.43
809.041	357.06
809.433	467.17
809.825	441.78
810.217	300.52
810.609	385.31
811.001	374.01
811.392	436.13
811.784	484.1
812.175	441.78
812.567	467.17
812.958	540.49
813.35	390.96
813.741	410.72
814.132	438.95
814.524	334.45
814.915	416.37
815.306	357.06
815.697	402.25
816.088	393.78
816.479	385.31
816.87	422.02
817.26	396.6
817.651	436.13
818.042	365.53
818.432	292.04
818.823	413.55
819.213	427.66
819.604	357.06
819.994	436.13
820.384	399.43
820.775	402.25
821.165	320.31
821.555	481.28
821.945	396.6
822.335	458.71
822.725	379.66
823.114	390.96
823.504	362.71
823.894	461.53
824.284	390.96
824.673	447.42
825.063	374.01
825.452	410.72
825.842	354.23
826.231	419.19
826.62	436.13
827.009	444.6
827.399	447.42
827.788	441.78
828.177	371.18
828.566	447.42
828.954	340.1
829.343	424.84
829.732	478.46
830.121	422.02
830.509	453.06
830.898	523.58
831.286	458.71
831.675	407.9
832.063	419.19
832.452	405.08
832.84	436.13
833.228	419.19
833.616	433.31
834.004	489.74
834.392	388.13
834.78	368.36
835.168	399.43
835.556	447.42
835.944	430.49
836.331	351.4
836.719	441.78
837.107	413.55
837.494	334.45
837.881	348.58
838.269	365.53
838.656	450.24
839.043	396.6
839.431	447.42
839.818	467.17
840.205	334.45
840.592	472.82
840.979	450.24
841.366	374.01
841.752	345.75
842.139	362.71
842.526	342.93
842.912	393.78
843.299	410.72
843.685	537.67
844.072	444.6
844.458	486.92
844.844	495.38
845.231	374.01
845.617	419.19
846.003	441.78
846.389	444.6
846.775	376.83
847.161	371.18
847.547	455.89
847.933	388.13
848.318	351.4
848.704	407.9
849.09	348.58
849.475	374.01
849.861	498.2
850.246	517.94
850.631	422.02
851.017	405.08
851.402	438.95
851.787	348.58
852.172	455.89
852.557	441.78
852.942	371.18
853.327	438.95
853.712	461.53
854.097	458.71
854.481	478.46
854.866	405.08
855.25	382.48
855.635	433.31
856.019	368.36
856.404	390.96
856.788	467.17
857.172	405.08
857.557	340.1
857.941	515.12
858.325	424.84
858.709	402.25
859.093	393.78
859.477	388.13
859.86	447.42
860.244	419.19
860.628	453.06
861.012	320.31
861.395	402.25
861.779	475.64
862.162	376.83
862.545	450.24
862.929	362.71
863.312	436.13
863.695	348.58
864.078	402.25
864.461	325.97
864.844	450.24
865.227	379.66
865.61	348.58
865.993	407.9
866.376	342.93
866.758	461.53
867.141	407.9
867.523	371.18
867.906	388.13
868.288	334.45
868.671	331.62
869.053	405.08
869.435	410.72
869.817	362.71
870.199	424.84
870.581	390.96
870.963	371.18
871.345	492.56
871.727	444.6
872.109	436.13
872.491	407.9
872.872	416.37
873.254	402.25
873.635	334.45
874.017	368.36
874.398	410.72
874.779	433.31
875.161	436.13
875.542	424.84
875.923	351.4
876.304	385.31
876.685	362.71
877.066	407.9
877.447	374.01
877.828	433.31
878.208	438.95
878.589	337.27
878.97	365.53
879.35	365.53
879.731	379.66
880.111	478.46
880.491	472.82
880.872	385.31
881.252	283.55
881.632	345.75
882.012	430.49
882.392	359.88
882.772	444.6
883.152	365.53
883.532	345.75
883.912	478.46
884.291	359.88
884.671	385.31
885.051	419.19
885.43	458.71
885.81	390.96
886.189	472.82
886.568	433.31
886.948	388.13
887.327	436.13
887.706	374.01
888.085	359.88
888.464	368.36
888.843	362.71
889.222	385.31
889.601	472.82
889.979	427.66
890.358	413.55
890.737	433.31
891.115	433.31
891.494	438.95
891.872	348.58
892.25	402.25
892.629	396.6
893.007	351.4
893.385	427.66
893.763	405.08
894.141	441.78
894.519	365.53
894.897	388.13
895.275	467.17
895.653	371.18
896.03	427.66
896.408	498.2
896.786	379.66
897.163	379.66
897.541	376.83
897.918	416.37
898.295	433.31
898.673	396.6
899.05	464.35
899.427	453.06
899.804	325.97
900.181	419.19
900.558	410.72
900.935	376.83
901.312	422.02
901.688	427.66
902.065	455.89
902.442	424.84
902.818	374.01
903.195	294.87
903.571	427.66
903.947	328.8
904.324	374.01
904.7	337.27
905.076	348.58
905.452	393.78
905.828	416.37
906.204	450.24
906.58	422.02
906.956	405.08
907.331	410.72
907.707	382.48
908.083	388.13
908.458	424.84
908.834	427.66
909.209	441.78
909.585	416.37
909.96	351.4
910.335	368.36
910.71	365.53
911.086	342.93
911.461	359.88
911.836	438.95
912.21	345.75
912.585	402.25
912.96	424.84
913.335	422.02
913.709	376.83
914.084	368.36
914.459	334.45
914.833	407.9
915.207	334.45
915.582	441.78
915.956	464.35
916.33	396.6
916.704	433.31
917.078	357.06
917.452	405.08
917.826	450.24
918.2	422.02
918.574	340.1
918.948	396.6
919.321	427.66
919.695	382.48
920.068	441.78
920.442	388.13
920.815	393.78
921.189	348.58
921.562	399.43
921.935	467.17
922.308	368.36
922.681	388.13
923.054	371.18
923.427	402.25
923.8	374.01
924.173	447.42
924.546	362.71
924.919	393.78
925.291	340.1
925.664	444.6
926.036	419.19
926.409	331.62
926.781	365.53
927.153	331.62
927.526	430.49
927.898	365.53
928.27	357.06
928.642	385.31
929.014	436.13
929.386	512.3
929.758	413.55
930.129	430.49
930.501	393.78
930.873	368.36
931.244	362.71
931.616	368.36
931.987	371.18
932.359	461.53
932.73	362.71
933.101	444.6
933.472	396.6
933.843	438.95
934.214	399.43
934.585	472.82
934.956	379.66
935.327	416.37
935.698	382.48
936.069	447.42
936.439	433.31
936.81	413.55
937.18	444.6
937.551	444.6
937.921	430.49
938.292	486.92
938.662	351.4
939.032	424.84
939.402	424.84
939.772	461.53
940.142	472.82
940.512	376.83
940.882	340.1
941.252	385.31
941.621	433.31
941.991	455.89
942.361	390.96
942.73	444.6
943.1	416.37
943.469	407.9
943.838	266.58
944.208	492.56
944.577	362.71
944.946	461.53
945.315	376.83
945.684	390.96
946.053	453.06
946.422	382.48
946.791	348.58
947.159	396.6
947.528	351.4
947.897	422.02
948.265	416.37
948.634	354.23
949.002	433.31
949.371	388.13
949.739	447.42
950.107	393.78
950.475	351.4
950.843	402.25
951.211	396.6
951.579	396.6
951.947	467.17
952.315	405.08
952.683	390.96
953.05	416.37
953.418	342.93
953.785	396.6
954.153	388.13
954.52	430.49
954.888	393.78
955.255	345.75
955.622	422.02
955.989	340.1
956.356	388.13
956.723	405.08
957.09	413.55
957.457	340.1
957.824	410.72
958.191	464.35
958.557	382.48
958.924	402.25
959.291	365.53
959.657	402.25
960.023	388.13
960.39	399.43
960.756	441.78
961.122	374.01
961.488	340.1
961.855	464.35
962.221	430.49
962.586	348.58
962.952	444.6
963.318	410.72
963.684	427.66
964.05	354.23
964.415	342.93
964.781	328.8
965.146	385.31
965.512	438.95
965.877	464.35
966.242	520.76
966.608	354.23
966.973	399.43
967.338	438.95
967.703	348.58
968.068	399.43
968.433	413.55
968.797	464.35
969.162	382.48
969.527	517.94
969.891	345.75
970.256	503.84
970.62	455.89
970.985	382.48
971.349	359.88
971.714	424.84
972.078	458.71
972.442	402.25
972.806	365.53
973.17	382.48
973.534	351.4
973.898	300.52
974.262	436.13
974.625	441.78
974.989	359.88
975.353	399.43
975.716	453.06
976.08	424.84
976.443	371.18
976.806	388.13
977.17	396.6
977.533	405.08
977.896	385.31
978.259	405.08
978.622	430.49
978.985	393.78
979.348	427.66
979.711	365.53
980.073	416.37
980.436	382.48
980.799	489.74
981.161	427.66
981.524	374.01
981.886	433.31
982.248	371.18
982.611	413.55
982.973	438.95
983.335	376.83
983.697	345.75
984.059	438.95
984.421	374.01
984.783	405.08
985.145	453.06
985.506	503.84
985.868	461.53
986.23	376.83
986.591	410.72
986.953	365.53
987.314	424.84
987.675	438.95
988.037	526.4
988.398	413.55
988.759	469.99
989.12	323.14
989.481	399.43
989.842	458.71
990.203	345.75
990.564	362.71
990.924	407.9
991.285	599.66
991.646	481.28
992.006	402.25
992.367	382.48
992.727	393.78
993.087	354.23
993.448	532.04
993.808	379.66
994.168	393.78
994.528	354.23
994.888	396.6
995.248	422.02
995.608	396.6
995.967	444.6
996.327	458.71
996.687	416.37
997.046	357.06
997.406	376.83
997.765	345.75
998.125	436.13
998.484	405.08
998.843	362.71
999.202	317.49
999.561	260.92
999.92	419.19
1000.279	478.46
1000.638	348.58
1000.997	388.13
1001.356	422.02
1001.715	450.24
1002.073	374.01
1002.432	337.27
1002.79	407.9
1003.149	453.06
1003.507	405.08
1003.865	314.66
1004.224	388.13
1004.582	376.83
1004.94	354.23
1005.298	501.02
1005.656	393.78
1006.014	413.55
1006.371	396.6
1006.729	396.6
1007.087	441.78
1007.445	410.72
1007.802	447.42
1008.16	371.18
1008.517	388.13
1008.874	337.27
1009.232	323.14
1009.589	345.75
1009.946	450.24
1010.303	407.9
1010.66	320.31
1011.017	368.36
1011.374	413.55
1011.731	410.72
1012.087	438.95
1012.444	362.71
1012.801	362.71
1013.157	345.75
1013.513	407.9
1013.87	410.72
1014.226	382.48
1014.582	388.13
1014.939	441.78
1015.295	484.1
1015.651	419.19
1016.007	342.93
1016.363	390.96
1016.719	303.35
1017.074	438.95
1017.43	410.72
1017.786	368.36
1018.141	351.4
1018.497	455.89
1018.852	416.37
1019.208	419.19
1019.563	345.75
1019.918	359.88
1020.273	464.35
1020.628	416.37
1020.983	405.08
1021.338	571.49
1021.693	393.78
1022.048	337.27
1022.403	484.1
1022.757	371.18
1023.112	492.56
1023.467	359.88
1023.821	382.48
1024.175	461.53
1024.53	455.89
1024.884	464.35
1025.238	444.6
1025.592	450.24
1025.946	534.86
1026.3	311.83
1026.654	472.82
1027.008	436.13
1027.362	455.89
1027.716	447.42
1028.069	390.96
1028.423	382.48
1028.777	379.66
1029.13	362.71
1029.483	402.25
1029.837	334.45
1030.19	461.53
1030.543	458.71
1030.896	382.48
1031.249	390.96
1031.602	379.66
1031.955	472.82
1032.308	362.71
1032.661	410.72
1033.013	374.01
1033.366	362.71
1033.719	359.88
1034.071	388.13
1034.424	334.45
1034.776	354.23
1035.128	275.07
1035.48	359.88
1035.833	436.13
1036.185	351.4
1036.537	351.4
1036.889	351.4
