Data from SCSF78-3-385-irrad_FLMS019251_12-05-58-316.txt Node
Date: Fri Feb 15 12:05:58 CET 2019
User: luk
Spectrometer: FLMS01925
Trigger mode: 0
Integration Time (sec): 5.070000E-3
Scans to average: 1
Electric dark correction enabled: true
Nonlinearity correction enabled: true
Boxcar width: 0
XAxis mode: Wavelengths
Number of Pixels in Spectrum: 2048
>>>>>Begin Spectral Data<<<<<
187.103	-64.09
187.574	-64.09
188.045	-64.09
188.516	-106.73
188.987	-92.51
189.458	-78.3
189.929	-47.04
190.4	-95.35
190.871	-106.73
191.342	-126.63
191.813	-92.51
192.284	-103.88
192.754	29.63
193.225	-78.3
193.696	9.76
194.166	60.84
194.637	157.23
195.107	92.04
195.578	128.89
196.048	123.23
196.518	126.06
196.989	225.2
197.459	185.56
197.929	228.03
198.399	338.33
198.869	310.07
199.339	298.76
199.809	307.24
200.279	394.84
200.749	293.1
201.219	363.77
201.689	301.58
202.159	417.43
202.628	406.13
203.098	338.33
203.568	411.78
204.037	437.19
204.507	400.49
204.976	366.59
205.445	434.37
205.915	448.48
206.384	448.48
206.853	392.01
207.323	341.16
207.792	408.96
208.261	392.01
208.73	459.77
209.199	392.01
209.668	372.24
210.137	332.68
210.606	442.83
211.075	397.66
211.543	493.62
212.012	349.64
212.481	301.58
212.95	389.19
213.418	440.01
213.887	397.66
214.355	360.94
214.824	420.25
215.292	403.31
215.76	400.49
216.229	400.49
216.697	389.19
217.165	310.07
217.633	363.77
218.101	431.54
218.569	312.89
219.037	352.46
219.505	329.86
219.973	360.94
220.441	343.99
220.909	284.62
221.377	411.78
221.844	355.29
222.312	445.66
222.78	375.07
223.247	298.76
223.715	358.12
224.182	465.41
224.65	431.54
225.117	310.07
225.584	341.16
226.052	510.54
226.519	315.72
226.986	343.99
227.453	414.61
227.92	372.24
228.387	327.03
228.854	423.07
229.321	369.42
229.788	380.72
230.255	293.1
230.722	327.03
231.189	369.42
231.655	352.46
232.122	358.12
232.589	473.87
233.055	383.54
233.522	482.34
233.988	456.94
234.454	392.01
234.921	315.72
235.387	377.89
235.853	392.01
236.32	358.12
236.786	318.55
237.252	394.84
237.718	386.37
238.184	369.42
238.65	397.66
239.116	343.99
239.582	338.33
240.047	338.33
240.513	408.96
240.979	372.24
241.445	346.81
241.91	366.59
242.376	372.24
242.841	349.64
243.307	332.68
243.772	290.27
244.238	375.07
244.703	417.43
245.168	394.84
245.633	425.9
246.099	346.81
246.564	372.24
247.029	394.84
247.494	360.94
247.959	284.62
248.424	363.77
248.889	377.89
249.353	417.43
249.818	394.84
250.283	366.59
250.748	440.01
251.212	335.51
251.677	440.01
252.141	383.54
252.606	392.01
253.07	349.64
253.535	403.31
253.999	428.72
254.463	389.19
254.927	375.07
255.392	349.64
255.856	386.37
256.32	360.94
256.784	403.31
257.248	372.24
257.712	440.01
258.176	366.59
258.64	423.07
259.103	375.07
259.567	389.19
260.031	366.59
260.495	392.01
260.958	369.42
261.422	406.13
261.885	386.37
262.349	425.9
262.812	425.9
263.275	392.01
263.739	394.84
264.202	372.24
264.665	375.07
265.128	431.54
265.591	346.81
266.054	394.84
266.517	377.89
266.98	360.94
267.443	355.29
267.906	301.58
268.369	389.19
268.832	408.96
269.294	400.49
269.757	380.72
270.22	425.9
270.682	397.66
271.145	423.07
271.607	420.25
272.07	454.12
272.532	380.72
272.994	338.33
273.456	408.96
273.919	383.54
274.381	349.64
274.843	363.77
275.305	400.49
275.767	338.33
276.229	366.59
276.691	417.43
277.153	360.94
277.614	341.16
278.076	423.07
278.538	397.66
279	394.84
279.461	468.23
279.923	377.89
280.384	397.66
280.846	315.72
281.307	389.19
281.769	363.77
282.23	346.81
282.691	366.59
283.152	400.49
283.613	471.05
284.075	372.24
284.536	312.89
284.997	414.61
285.458	363.77
285.918	392.01
286.379	394.84
286.84	397.66
287.301	358.12
287.762	406.13
288.222	386.37
288.683	389.19
289.143	377.89
289.604	527.46
290.064	394.84
290.525	434.37
290.985	408.96
291.445	358.12
291.906	403.31
292.366	440.01
292.826	437.19
293.286	304.41
293.746	425.9
294.206	341.16
294.666	366.59
295.126	448.48
295.586	366.59
296.046	437.19
296.506	383.54
296.965	358.12
297.425	437.19
297.884	369.42
298.344	437.19
298.804	456.94
299.263	454.12
299.722	420.25
300.182	420.25
300.641	380.72
301.1	499.26
301.559	349.64
302.019	411.78
302.478	423.07
302.937	414.61
303.396	428.72
303.855	406.13
304.314	420.25
304.772	397.66
305.231	290.27
305.69	360.94
306.149	400.49
306.607	440.01
307.066	355.29
307.524	392.01
307.983	293.1
308.441	380.72
308.9	502.08
309.358	386.37
309.816	386.37
310.275	485.16
310.733	454.12
311.191	437.19
311.649	377.89
312.107	389.19
312.565	417.43
313.023	394.84
313.481	454.12
313.939	431.54
314.397	386.37
314.854	400.49
315.312	428.72
315.77	377.89
316.227	383.54
316.685	462.59
317.142	363.77
317.6	366.59
318.057	493.62
318.514	479.52
318.972	355.29
319.429	411.78
319.886	408.96
320.343	420.25
320.8	403.31
321.257	397.66
321.714	408.96
322.171	451.3
322.628	417.43
323.085	352.46
323.542	462.59
323.998	411.78
324.455	411.78
324.912	406.13
325.368	400.49
325.825	360.94
326.281	465.41
326.738	380.72
327.194	462.59
327.65	375.07
328.107	383.54
328.563	372.24
329.019	516.18
329.475	411.78
329.931	473.87
330.387	417.43
330.843	411.78
331.299	504.9
331.755	459.77
332.211	451.3
332.666	343.99
333.122	346.81
333.578	403.31
334.033	487.98
334.489	417.43
334.944	392.01
335.4	471.05
335.855	487.98
336.31	524.64
336.766	434.37
337.221	437.19
337.676	459.77
338.131	428.72
338.586	403.31
339.041	408.96
339.496	442.83
339.951	403.31
340.406	349.64
340.861	414.61
341.316	394.84
341.771	428.72
342.225	420.25
342.68	434.37
343.134	459.77
343.589	440.01
344.043	372.24
344.498	406.13
344.952	527.46
345.406	420.25
345.861	377.89
346.315	411.78
346.769	366.59
347.223	431.54
347.677	445.66
348.131	465.41
348.585	346.81
349.039	341.16
349.493	411.78
349.947	425.9
350.401	468.23
350.854	420.25
351.308	394.84
351.762	459.77
352.215	352.46
352.669	442.83
353.122	406.13
353.575	400.49
354.029	375.07
354.482	530.27
354.935	417.43
355.388	434.37
355.842	454.12
356.295	400.49
356.748	338.33
357.201	394.84
357.654	471.05
358.106	473.87
358.559	408.96
359.012	406.13
359.465	428.72
359.917	448.48
360.37	485.16
360.823	428.72
361.275	473.87
361.728	479.52
362.18	290.27
362.632	456.94
363.085	394.84
363.537	417.43
363.989	493.62
364.441	493.62
364.893	442.83
365.345	496.44
365.797	434.37
366.249	329.86
366.701	375.07
367.153	389.19
367.605	513.36
368.057	437.19
368.508	468.23
368.96	394.84
369.411	437.19
369.863	408.96
370.314	358.12
370.766	437.19
371.217	394.84
371.669	386.37
372.12	394.84
372.571	510.54
373.022	533.09
373.473	383.54
373.924	456.94
374.375	383.54
374.826	366.59
375.277	417.43
375.728	468.23
376.179	425.9
376.63	366.59
377.08	425.9
377.531	440.01
377.981	442.83
378.432	437.19
378.883	420.25
379.333	437.19
379.783	451.3
380.234	349.64
380.684	403.31
381.134	377.89
381.584	420.25
382.034	394.84
382.485	343.99
382.935	346.81
383.385	482.34
383.834	417.43
384.284	400.49
384.734	420.25
385.184	375.07
385.634	442.83
386.083	411.78
386.533	375.07
386.982	468.23
387.432	406.13
387.881	440.01
388.331	493.62
388.78	445.66
389.229	408.96
389.679	428.72
390.128	434.37
390.577	425.9
391.026	420.25
391.475	332.68
391.924	372.24
392.373	425.9
392.822	454.12
393.27	406.13
393.719	431.54
394.168	400.49
394.617	454.12
395.065	490.8
395.514	417.43
395.962	383.54
396.411	459.77
396.859	462.59
397.307	544.37
397.756	400.49
398.204	547.19
398.652	420.25
399.1	513.36
399.548	428.72
399.996	493.62
400.444	352.46
400.892	456.94
401.34	414.61
401.788	428.72
402.236	408.96
402.683	440.01
403.131	437.19
403.579	442.83
404.026	496.44
404.474	434.37
404.921	507.72
405.369	386.37
405.816	411.78
406.263	445.66
406.71	369.42
407.158	468.23
407.605	366.59
408.052	465.41
408.499	425.9
408.946	471.05
409.393	521.82
409.84	510.54
410.286	406.13
410.733	566.91
411.18	471.05
411.626	558.46
412.073	530.27
412.52	530.27
412.966	473.87
413.413	482.34
413.859	572.55
414.305	547.19
414.752	614.8
415.198	626.06
415.644	820.08
416.09	893.05
416.536	1139.54
416.982	1390.81
417.428	1635.71
417.874	2095.61
418.32	2429.19
418.766	2933.87
419.211	3633.8
419.657	4384.81
420.103	5121.9
420.548	5949.1
420.994	7030.32
421.439	8190.7
421.885	9096.14
422.33	10666.78
422.776	11671.83
423.221	12870.41
423.666	14227.6
424.111	15621.31
424.556	16537.99
425.001	18149.7
425.446	19426.26
425.891	20495.28
426.336	21546.72
426.781	22682.09
427.226	24865.73
427.671	25529.23
428.115	26429.79
428.56	27957.86
429.005	29079.76
429.449	29604.77
429.894	30583.33
430.338	31671.01
430.782	32178.14
431.227	32799.83
431.671	33287.47
432.115	34848.66
432.559	35847.43
433.003	35608.01
433.447	36473.21
433.891	36874.41
434.335	37104.49
434.779	37702.16
435.223	38199.93
435.667	38447.8
436.111	38821.08
436.554	39197.15
436.998	38715.44
437.442	38916.91
437.885	40586.76
438.328	39664.68
438.772	39608.05
439.215	40515.17
439.659	40039.13
440.102	40742.33
440.545	40039.13
440.988	39970.12
441.431	41179.83
441.874	40537.38
442.317	41011.68
442.76	40236.37
443.203	40211.71
443.646	40846.09
444.089	40214.18
444.531	41236.73
444.974	39743.48
445.417	40717.63
445.859	40214.18
446.302	41246.62
446.744	40571.94
447.186	42041.9
447.629	41083.38
448.071	41207.04
448.513	41189.72
448.956	42454.08
449.398	41330.75
449.84	40184.58
450.282	41229.3
450.724	41499.09
451.166	41392.63
451.607	40860.91
452.049	41127.89
452.491	42089.05
452.933	41875.72
453.374	42498.82
453.816	43001.39
454.257	42344.77
454.699	43330.37
455.14	43367.78
455.582	42476.45
456.023	42906.76
456.464	43071.13
456.905	43295.46
457.347	43992.3
457.788	42409.36
458.229	42660.42
458.67	43779.76
459.111	42178.4
459.552	42041.9
459.992	42257.84
460.433	41459.47
460.874	41323.33
461.315	41967.48
461.755	40920.22
462.196	40409.05
462.636	39893.74
463.077	40029.27
463.517	39502.21
463.957	40265.97
464.398	39509.59
464.838	40118.01
465.278	38410.98
465.718	38673.69
466.158	38307.9
466.598	38376.61
467.038	37925.24
467.478	38487.07
467.918	38577.92
468.358	37930.14
468.798	37866.39
469.237	37498.78
469.677	37009.02
470.117	37996.35
470.556	36429.19
470.996	36832.81
471.435	36438.98
471.874	37270.99
472.314	37048.19
472.753	36539.25
473.192	36639.53
473.631	35981.83
474.07	35757.03
474.509	36028.27
474.948	36155.36
475.387	35945.17
475.826	35085.43
476.265	36145.59
476.704	36069.81
477.143	36343.61
477.581	35862.09
478.02	36722.71
478.458	35649.54
478.897	36502.56
479.335	37246.5
479.774	36627.3
480.212	36681.12
480.65	36815.68
481.089	36424.3
481.527	36013.6
481.965	35710.61
482.403	37464.48
482.841	36918.46
483.279	37295.48
483.717	37207.32
484.155	36360.73
484.592	37199.97
485.03	37165.7
485.468	36683.57
485.905	36336.28
486.343	36999.23
486.781	36578.38
487.218	35837.66
487.655	36133.36
488.093	35056.14
488.53	36311.83
488.967	35061.02
489.405	35437.04
489.842	34463.09
490.279	34538.73
490.716	34263.03
491.153	34550.93
491.59	34441.13
492.027	33663.01
492.463	33187.5
492.9	32392.68
493.337	32297.6
493.773	32616.98
494.21	31634.44
494.647	31785.61
495.083	31163.82
495.519	30746.76
495.956	30832.13
496.392	30190.53
496.828	30207.61
497.265	29138.38
497.701	29365.5
498.137	28786.6
498.573	28261.1
499.009	28664.42
499.445	28026.34
499.881	27524.78
500.316	27889.37
500.752	27088.97
501.188	27137.96
501.624	26829.31
502.059	25703.57
502.495	25578.35
502.93	25460.46
503.366	25681.47
503.801	25413.79
504.236	25308.16
504.672	24368.76
505.107	24467.21
505.542	23755.46
505.977	23701.23
506.412	23494.13
506.847	23486.73
507.282	23111.74
507.717	22706.8
508.152	22783.37
508.587	22709.27
509.021	21942.83
509.456	21437.73
509.891	21898.29
510.325	21898.29
510.76	21469.94
511.194	21259.32
511.628	21343.58
512.063	20572.24
512.497	20646.71
512.931	20594.59
513.366	19759.7
513.8	20080.43
514.234	19174.76
514.668	19461.11
515.102	19670.14
515.536	18883.22
515.969	19142.38
516.403	18364.41
516.837	18399.35
517.271	18249.58
517.704	18329.46
518.138	18164.68
518.571	17609.9
519.005	17171.99
519.438	17272.13
519.871	17056.8
520.305	16768.66
520.738	16996.69
521.171	16269.52
521.604	16465.24
522.037	16116.37
522.47	16013.4
522.903	15940.54
523.336	15616.28
523.769	15794.79
524.202	15163.3
524.634	15231.29
525.067	15110.41
525.5	14578.51
525.932	14487.66
526.365	14432.14
526.797	14159.39
527.23	14169.5
527.662	13532.12
528.094	13516.93
528.527	13595.42
528.959	13255.97
529.391	13205.27
529.823	12682.49
530.255	12700.27
530.687	12171.34
531.119	12260.43
531.551	12209.52
531.982	11926.82
532.414	11827.41
532.846	11398.67
533.277	11556.99
533.709	10902.5
534.14	10938.34
534.572	10746.23
535.003	10674.47
535.435	10630.88
535.866	10399.96
536.297	10104.49
536.728	10340.9
537.159	10027.33
537.59	9919.25
538.022	9926.97
538.452	9622.98
538.883	9504.33
539.314	9326.19
539.745	9158.21
540.176	8940.86
540.606	8668.74
541.037	8847.61
541.468	8829.48
541.898	8679.12
542.328	8668.74
542.759	8380.54
543.189	8357.15
543.619	8310.36
544.05	8094.38
544.48	7865.03
544.91	7768.48
545.34	7677.09
545.77	7585.64
546.2	7499.35
546.63	7363.28
547.06	7549.04
547.489	7242.78
547.919	7022.44
548.349	7127.41
548.778	6954.16
549.208	6762.26
549.637	6756.99
550.067	6493.6
550.496	6656.97
550.926	6348.48
551.355	6287.74
551.784	6564.77
552.213	6189.95
552.642	6308.87
553.071	5933.2
553.5	6176.73
553.929	5734.28
554.358	5927.9
554.787	5747.55
555.216	5734.28
555.645	5718.35
556.073	5545.62
556.502	5572.21
556.93	5348.63
557.359	5423.21
557.787	5383.26
558.216	5295.33
558.644	5041.75
559.072	5196.64
559.5	5105.87
559.929	5097.86
560.357	4972.24
560.785	4974.92
561.213	4940.15
561.641	4948.17
562.068	4819.69
562.496	4731.26
562.924	4736.62
563.352	4795.58
563.779	4664.21
564.207	4771.46
564.634	4691.04
565.062	4715.17
565.489	4680.31
565.917	4543.42
566.344	4613.23
566.771	4546.1
567.198	4339.06
567.625	4153.13
568.053	4231.32
568.48	4223.23
568.907	4274.43
569.333	4107.27
569.76	3980.35
570.187	4080.28
570.614	3983.05
571.04	4004.67
571.467	3725.99
571.894	3715.15
572.32	3647.37
572.747	3555.1
573.173	3636.52
573.599	3555.1
574.026	3555.1
574.452	3381.17
574.878	3432.84
575.304	3364.85
575.73	3291.35
576.156	3182.35
576.582	3307.69
577.008	3152.36
577.434	3021.33
577.86	2966.68
578.285	2994.01
578.711	3040.45
579.137	2865.48
579.562	2750.46
579.988	2832.63
580.413	2753.2
580.838	2747.71
581.264	2714.82
581.689	2706.59
582.114	2731.27
582.539	2681.91
582.964	2536.42
583.39	2541.91
583.814	2459.45
584.239	2357.63
584.664	2338.35
585.089	2357.63
585.514	2354.88
585.939	2335.6
586.363	2346.61
586.788	2291.52
587.212	2263.95
587.637	2029.29
588.061	2192.24
588.485	2126
588.91	2148.08
589.334	2101.14
589.758	2098.38
590.182	2076.27
590.606	1871.53
591.03	1937.99
591.454	1907.54
591.878	1946.3
592.302	1907.54
592.726	1760.65
593.15	1805.02
593.573	1843.83
593.997	1741.22
594.42	1810.56
594.844	1793.93
595.267	1744
595.691	1669.04
596.114	1716.25
596.537	1652.38
596.96	1666.27
597.384	1702.37
597.807	1685.71
598.23	1666.27
598.653	1482.74
599.076	1585.68
599.499	1596.8
599.921	1582.9
600.344	1641.26
600.767	1460.46
601.189	1449.32
601.612	1610.7
602.034	1577.34
602.457	1482.74
602.879	1438.18
603.302	1477.17
603.724	1362.93
604.146	1385.23
604.568	1449.32
604.991	1298.77
605.413	1435.39
605.835	1460.46
606.257	1499.44
606.678	1415.89
607.1	1390.81
607.522	1368.51
607.944	1270.86
608.365	1368.51
608.787	1393.6
609.209	1346.2
609.63	1312.72
610.051	1298.77
610.473	1312.72
610.894	1326.67
611.315	1307.14
611.737	1279.23
612.158	1206.62
612.579	1279.23
613	1187.06
613.421	1209.42
613.842	1195.45
614.263	1159.11
614.683	1150.72
615.104	1212.21
615.525	1256.9
615.945	1159.11
616.366	1170.29
616.787	1164.7
617.207	1178.68
617.627	1077.99
618.048	1058.4
618.468	1047.2
618.888	1111.57
619.308	1184.27
619.728	954.75
620.148	1013.6
620.568	1058.4
620.988	842.54
621.408	985.58
621.828	937.93
622.248	1030.4
622.668	1013.6
623.087	915.49
623.507	926.71
623.926	923.91
624.346	971.57
624.765	935.13
625.185	951.95
625.604	957.55
626.023	895.86
626.442	822.88
626.861	912.69
627.28	825.69
627.699	822.88
628.118	831.31
628.537	873.41
628.956	890.25
629.375	901.47
629.794	806.03
630.212	932.32
630.631	893.05
631.049	873.41
631.468	929.52
631.886	825.69
632.305	831.31
632.723	777.94
633.141	797.61
633.559	775.13
633.978	873.41
634.396	724.54
634.814	704.85
635.232	724.54
635.65	690.79
636.067	786.37
636.485	766.7
636.903	797.61
637.321	755.46
637.738	766.7
638.156	730.16
638.573	755.46
638.991	730.16
639.408	676.72
639.825	626.06
640.243	696.41
640.66	704.85
641.077	617.61
641.494	704.85
641.911	623.25
642.328	713.29
642.745	595.08
643.162	679.54
643.579	724.54
643.995	671.09
644.412	642.95
644.829	707.66
645.245	693.6
645.662	704.85
646.078	645.77
646.495	676.72
646.911	662.65
647.327	662.65
647.743	617.61
648.159	631.69
648.576	665.47
648.992	657.02
649.408	628.88
649.824	623.25
650.239	614.8
650.655	648.58
651.071	552.82
651.487	566.91
651.902	547.19
652.318	606.35
652.733	617.61
653.149	603.53
653.564	547.19
653.979	600.72
654.395	606.35
654.81	578.18
655.225	566.91
655.64	578.18
656.055	592.27
656.47	499.26
656.885	564.1
657.3	575.37
657.715	564.1
658.13	544.37
658.544	586.63
658.959	581
659.374	575.37
659.788	592.27
660.202	659.84
660.617	586.63
661.031	527.46
661.445	620.43
661.86	611.98
662.274	583.82
662.688	547.19
663.102	589.45
663.516	524.64
663.93	519
664.344	527.46
664.758	521.82
665.171	575.37
665.585	583.82
665.999	569.73
666.412	555.64
666.826	490.8
667.239	581
667.653	482.34
668.066	589.45
668.479	502.08
668.892	566.91
669.306	538.73
669.719	527.46
670.132	468.23
670.545	499.26
670.958	524.64
671.37	550.01
671.783	465.41
672.196	482.34
672.609	479.52
673.021	499.26
673.434	465.41
673.846	552.82
674.259	516.18
674.671	459.77
675.084	496.44
675.496	445.66
675.908	524.64
676.32	482.34
676.732	521.82
677.144	473.87
677.556	425.9
677.968	499.26
678.38	420.25
678.792	456.94
679.204	496.44
679.615	533.09
680.027	502.08
680.439	479.52
680.85	516.18
681.262	479.52
681.673	479.52
682.084	437.19
682.496	487.98
682.907	397.66
683.318	521.82
683.729	454.12
684.14	459.77
684.551	513.36
684.962	468.23
685.373	507.72
685.784	496.44
686.194	442.83
686.605	380.72
687.016	493.62
687.426	434.37
687.837	411.78
688.247	389.19
688.657	403.31
689.068	459.77
689.478	454.12
689.888	454.12
690.298	493.62
690.708	471.05
691.118	471.05
691.528	440.01
691.938	507.72
692.348	487.98
692.758	437.19
693.168	454.12
693.577	485.16
693.987	519
694.396	541.55
694.806	465.41
695.215	473.87
695.625	485.16
696.034	440.01
696.443	360.94
696.852	445.66
697.262	502.08
697.671	456.94
698.08	468.23
698.489	428.72
698.897	454.12
699.306	471.05
699.715	465.41
700.124	420.25
700.532	473.87
700.941	519
701.35	499.26
701.758	440.01
702.166	423.07
702.575	456.94
702.983	519
703.391	502.08
703.799	434.37
704.208	471.05
704.616	448.48
705.024	456.94
705.432	493.62
705.839	408.96
706.247	442.83
706.655	454.12
707.063	471.05
707.47	442.83
707.878	428.72
708.285	456.94
708.693	468.23
709.1	459.77
709.508	406.13
709.915	389.19
710.322	482.34
710.729	403.31
711.136	397.66
711.543	383.54
711.95	516.18
712.357	403.31
712.764	369.42
713.171	360.94
713.578	400.49
713.984	312.89
714.391	346.81
714.797	431.54
715.204	428.72
715.61	499.26
716.017	442.83
716.423	358.12
716.829	468.23
717.236	445.66
717.642	462.59
718.048	327.03
718.454	431.54
718.86	482.34
719.266	380.72
719.671	406.13
720.077	473.87
720.483	428.72
720.889	448.48
721.294	442.83
721.7	428.72
722.105	372.24
722.511	366.59
722.916	425.9
723.321	451.3
723.726	406.13
724.132	451.3
724.537	397.66
724.942	380.72
725.347	349.64
725.752	462.59
726.156	406.13
726.561	394.84
726.966	476.69
727.371	462.59
727.775	519
728.18	383.54
728.584	423.07
728.989	394.84
729.393	473.87
729.798	406.13
730.202	456.94
730.606	493.62
731.01	451.3
731.414	406.13
731.818	485.16
732.222	459.77
732.626	431.54
733.03	428.72
733.434	389.19
733.837	473.87
734.241	493.62
734.645	400.49
735.048	417.43
735.452	369.42
735.855	456.94
736.258	471.05
736.662	403.31
737.065	490.8
737.468	420.25
737.871	335.51
738.274	414.61
738.677	408.96
739.08	375.07
739.483	485.16
739.886	403.31
740.289	420.25
740.691	440.01
741.094	394.84
741.497	411.78
741.899	392.01
742.302	377.89
742.704	366.59
743.106	485.16
743.508	414.61
743.911	437.19
744.313	437.19
744.715	403.31
745.117	485.16
745.519	425.9
745.921	471.05
746.323	442.83
746.724	459.77
747.126	445.66
747.528	369.42
747.929	386.37
748.331	383.54
748.732	397.66
749.134	403.31
749.535	459.77
749.936	428.72
750.338	428.72
750.739	372.24
751.14	375.07
751.541	403.31
751.942	462.59
752.343	321.37
752.744	445.66
753.144	462.59
753.545	437.19
753.946	372.24
754.346	392.01
754.747	380.72
755.148	411.78
755.548	403.31
755.948	377.89
756.349	442.83
756.749	408.96
757.149	397.66
757.549	408.96
757.949	386.37
758.349	440.01
758.749	423.07
759.149	406.13
759.549	293.1
759.949	355.29
760.348	406.13
760.748	358.12
761.148	394.84
761.547	445.66
761.947	380.72
762.346	468.23
762.745	420.25
763.145	428.72
763.544	358.12
763.943	408.96
764.342	425.9
764.741	434.37
765.14	507.72
765.539	363.77
765.938	417.43
766.336	392.01
766.735	482.34
767.134	389.19
767.532	304.41
767.931	411.78
768.329	392.01
768.728	471.05
769.126	437.19
769.525	451.3
769.923	386.37
770.321	454.12
770.719	414.61
771.117	375.07
771.515	417.43
771.913	383.54
772.311	445.66
772.709	392.01
773.106	406.13
773.504	423.07
773.902	366.59
774.299	397.66
774.697	465.41
775.094	462.59
775.491	442.83
775.889	476.69
776.286	417.43
776.683	343.99
777.08	468.23
777.477	417.43
777.874	423.07
778.271	406.13
778.668	386.37
779.065	352.46
779.462	394.84
779.858	312.89
780.255	377.89
780.652	451.3
781.048	360.94
781.444	451.3
781.841	414.61
782.237	437.19
782.633	434.37
783.03	343.99
783.426	440.01
783.822	442.83
784.218	380.72
784.614	414.61
785.01	504.9
785.405	406.13
785.801	315.72
786.197	414.61
786.593	380.72
786.988	397.66
787.384	366.59
787.779	327.03
788.174	403.31
788.57	420.25
788.965	394.84
789.36	403.31
789.755	462.59
790.15	442.83
790.545	360.94
790.94	428.72
791.335	352.46
791.73	321.37
792.125	417.43
792.52	440.01
792.914	366.59
793.309	394.84
793.703	375.07
794.098	349.64
794.492	406.13
794.887	414.61
795.281	360.94
795.675	423.07
796.069	400.49
796.463	406.13
796.857	408.96
797.251	428.72
797.645	482.34
798.039	414.61
798.433	434.37
798.826	400.49
799.22	440.01
799.614	346.81
800.007	369.42
800.401	476.69
800.794	358.12
801.187	479.52
801.581	346.81
801.974	403.31
802.367	445.66
802.76	510.54
803.153	414.61
803.546	363.77
803.939	403.31
804.332	431.54
804.725	423.07
805.117	392.01
805.51	372.24
805.903	375.07
806.295	507.72
806.688	375.07
807.08	341.16
807.472	389.19
807.865	349.64
808.257	332.68
808.649	298.76
809.041	445.66
809.433	425.9
809.825	321.37
810.217	375.07
810.609	448.48
811.001	561.28
811.392	341.16
811.784	380.72
812.175	451.3
812.567	386.37
812.958	397.66
813.35	360.94
813.741	392.01
814.132	355.29
814.524	372.24
814.915	383.54
815.306	434.37
815.697	358.12
816.088	408.96
816.479	445.66
816.87	338.33
817.26	380.72
817.651	408.96
818.042	377.89
818.432	448.48
818.823	394.84
819.213	425.9
819.604	400.49
819.994	414.61
820.384	301.58
820.775	360.94
821.165	403.31
821.555	431.54
821.945	403.31
822.335	431.54
822.725	417.43
823.114	403.31
823.504	360.94
823.894	358.12
824.284	417.43
824.673	366.59
825.063	324.2
825.452	440.01
825.842	363.77
826.231	451.3
826.62	454.12
827.009	414.61
827.399	400.49
827.788	377.89
828.177	400.49
828.566	428.72
828.954	448.48
829.343	510.54
829.732	290.27
830.121	465.41
830.509	406.13
830.898	363.77
831.286	445.66
831.675	437.19
832.063	423.07
832.452	428.72
832.84	372.24
833.228	375.07
833.616	403.31
834.004	448.48
834.392	315.72
834.78	394.84
835.168	377.89
835.556	408.96
835.944	431.54
836.331	507.72
836.719	377.89
837.107	397.66
837.494	434.37
837.881	349.64
838.269	394.84
838.656	431.54
839.043	343.99
839.431	363.77
839.818	372.24
840.205	440.01
840.592	383.54
840.979	386.37
841.366	327.03
841.752	270.47
842.139	349.64
842.526	360.94
842.912	332.68
843.299	428.72
843.685	411.78
844.072	411.78
844.458	377.89
844.844	363.77
845.231	372.24
845.617	425.9
846.003	420.25
846.389	386.37
846.775	400.49
847.161	417.43
847.547	454.12
847.933	321.37
848.318	400.49
848.704	329.86
849.09	456.94
849.475	389.19
849.861	380.72
850.246	380.72
850.631	434.37
851.017	403.31
851.402	420.25
851.787	425.9
852.172	431.54
852.557	324.2
852.942	318.55
853.327	304.41
853.712	341.16
854.097	411.78
854.481	459.77
854.866	343.99
855.25	343.99
855.635	332.68
856.019	358.12
856.404	324.2
856.788	329.86
857.172	448.48
857.557	459.77
857.941	369.42
858.325	408.96
858.709	343.99
859.093	392.01
859.477	312.89
859.86	386.37
860.244	434.37
860.628	454.12
861.012	386.37
861.395	431.54
861.779	423.07
862.162	397.66
862.545	473.87
862.929	406.13
863.312	440.01
863.695	448.48
864.078	366.59
864.461	434.37
864.844	434.37
865.227	451.3
865.61	380.72
865.993	414.61
866.376	375.07
866.758	476.69
867.141	343.99
867.523	369.42
867.906	386.37
868.288	360.94
868.671	456.94
869.053	408.96
869.435	392.01
869.817	293.1
870.199	451.3
870.581	380.72
870.963	411.78
871.345	499.26
871.727	366.59
872.109	304.41
872.491	352.46
872.872	420.25
873.254	355.29
873.635	318.55
874.017	332.68
874.398	389.19
874.779	502.08
875.161	386.37
875.542	366.59
875.923	431.54
876.304	448.48
876.685	341.16
877.066	445.66
877.447	369.42
877.828	440.01
878.208	442.83
878.589	411.78
878.97	425.9
879.35	442.83
879.731	389.19
880.111	366.59
880.491	341.16
880.872	369.42
881.252	451.3
881.632	363.77
882.012	358.12
882.392	372.24
882.772	437.19
883.152	485.16
883.532	428.72
883.912	403.31
884.291	372.24
884.671	363.77
885.051	428.72
885.43	451.3
885.81	414.61
886.189	389.19
886.568	360.94
886.948	377.89
887.327	440.01
887.706	403.31
888.085	392.01
888.464	434.37
888.843	324.2
889.222	434.37
889.601	431.54
889.979	448.48
890.358	369.42
890.737	448.48
891.115	408.96
891.494	349.64
891.872	425.9
892.25	414.61
892.629	380.72
893.007	355.29
893.385	440.01
893.763	380.72
894.141	397.66
894.519	431.54
894.897	392.01
895.275	332.68
895.653	352.46
896.03	440.01
896.408	366.59
896.786	487.98
897.163	369.42
897.541	502.08
897.918	360.94
898.295	403.31
898.673	445.66
899.05	431.54
899.427	341.16
899.804	451.3
900.181	312.89
900.558	442.83
900.935	383.54
901.312	343.99
901.688	360.94
902.065	459.77
902.442	372.24
902.818	389.19
903.195	301.58
903.571	349.64
903.947	437.19
904.324	315.72
904.7	392.01
905.076	290.27
905.452	327.03
905.828	437.19
906.204	389.19
906.58	369.42
906.956	414.61
907.331	355.29
907.707	408.96
908.083	329.86
908.458	397.66
908.834	380.72
909.209	392.01
909.585	389.19
909.96	456.94
910.335	406.13
910.71	454.12
911.086	442.83
911.461	414.61
911.836	358.12
912.21	389.19
912.585	417.43
912.96	360.94
913.335	414.61
913.709	471.05
914.084	369.42
914.459	389.19
914.833	372.24
915.207	380.72
915.582	380.72
915.956	454.12
916.33	408.96
916.704	327.03
917.078	341.16
917.452	352.46
917.826	372.24
918.2	389.19
918.574	406.13
918.948	327.03
919.321	428.72
919.695	360.94
920.068	442.83
920.442	406.13
920.815	372.24
921.189	372.24
921.562	400.49
921.935	281.79
922.308	406.13
922.681	377.89
923.054	360.94
923.427	414.61
923.8	456.94
924.173	479.52
924.546	408.96
924.919	360.94
925.291	358.12
925.664	290.27
926.036	425.9
926.409	428.72
926.781	423.07
927.153	437.19
927.526	454.12
927.898	414.61
928.27	355.29
928.642	346.81
929.014	346.81
929.386	355.29
929.758	352.46
930.129	358.12
930.501	414.61
930.873	301.58
931.244	380.72
931.616	360.94
931.987	369.42
932.359	397.66
932.73	375.07
933.101	431.54
933.472	377.89
933.843	408.96
934.214	451.3
934.585	440.01
934.956	366.59
935.327	414.61
935.698	298.76
936.069	400.49
936.439	332.68
936.81	397.66
937.18	448.48
937.551	335.51
937.921	420.25
938.292	346.81
938.662	332.68
939.032	352.46
939.402	425.9
939.772	360.94
940.142	392.01
940.512	397.66
940.882	389.19
941.252	408.96
941.621	383.54
941.991	437.19
942.361	355.29
942.73	329.86
943.1	394.84
943.469	383.54
943.838	375.07
944.208	414.61
944.577	445.66
944.946	360.94
945.315	400.49
945.684	411.78
946.053	437.19
946.422	369.42
946.791	423.07
947.159	392.01
947.528	414.61
947.897	375.07
948.265	341.16
948.634	408.96
949.002	408.96
949.371	363.77
949.739	366.59
950.107	400.49
950.475	406.13
950.843	411.78
951.211	428.72
951.579	431.54
951.947	392.01
952.315	440.01
952.683	375.07
953.05	343.99
953.418	377.89
953.785	437.19
954.153	394.84
954.52	366.59
954.888	358.12
955.255	437.19
955.622	380.72
955.989	417.43
956.356	295.93
956.723	397.66
957.09	392.01
957.457	425.9
957.824	406.13
958.191	293.1
958.557	411.78
958.924	358.12
959.291	375.07
959.657	411.78
960.023	423.07
960.39	380.72
960.756	392.01
961.122	377.89
961.488	408.96
961.855	420.25
962.221	375.07
962.586	358.12
962.952	346.81
963.318	383.54
963.684	366.59
964.05	394.84
964.415	386.37
964.781	386.37
965.146	485.16
965.512	386.37
965.877	411.78
966.242	383.54
966.608	389.19
966.973	406.13
967.338	321.37
967.703	346.81
968.068	400.49
968.433	386.37
968.797	411.78
969.162	448.48
969.527	408.96
969.891	375.07
970.256	372.24
970.62	431.54
970.985	431.54
971.349	445.66
971.714	355.29
972.078	349.64
972.442	366.59
972.806	417.43
973.17	437.19
973.534	358.12
973.898	349.64
974.262	414.61
974.625	327.03
974.989	386.37
975.353	363.77
975.716	366.59
976.08	431.54
976.443	440.01
976.806	343.99
977.17	389.19
977.533	425.9
977.896	349.64
978.259	281.79
978.622	392.01
978.985	267.64
979.348	307.24
979.711	440.01
980.073	468.23
980.436	324.2
980.799	386.37
981.161	383.54
981.524	423.07
981.886	403.31
982.248	392.01
982.611	394.84
982.973	445.66
983.335	431.54
983.697	375.07
984.059	301.58
984.421	377.89
984.783	369.42
985.145	394.84
985.506	406.13
985.868	386.37
986.23	363.77
986.591	414.61
986.953	428.72
987.314	456.94
987.675	383.54
988.037	468.23
988.398	386.37
988.759	400.49
989.12	352.46
989.481	445.66
989.842	408.96
990.203	372.24
990.564	397.66
990.924	389.19
991.285	465.41
991.646	423.07
992.006	287.44
992.367	338.33
992.727	386.37
993.087	327.03
993.448	318.55
993.808	408.96
994.168	434.37
994.528	394.84
994.888	411.78
995.248	394.84
995.608	485.16
995.967	375.07
996.327	383.54
996.687	375.07
997.046	304.41
997.406	349.64
997.765	451.3
998.125	400.49
998.484	417.43
998.843	462.59
999.202	389.19
999.561	394.84
999.92	369.42
1000.279	343.99
1000.638	440.01
1000.997	420.25
1001.356	321.37
1001.715	392.01
1002.073	341.16
1002.432	423.07
1002.79	315.72
1003.149	397.66
1003.507	335.51
1003.865	360.94
1004.224	346.81
1004.582	411.78
1004.94	355.29
1005.298	301.58
1005.656	389.19
1006.014	363.77
1006.371	414.61
1006.729	358.12
1007.087	425.9
1007.445	346.81
1007.802	360.94
1008.16	448.48
1008.517	358.12
1008.874	352.46
1009.232	392.01
1009.589	406.13
1009.946	369.42
1010.303	448.48
1010.66	327.03
1011.017	358.12
1011.374	434.37
1011.731	482.34
1012.087	420.25
1012.444	321.37
1012.801	420.25
1013.157	369.42
1013.513	425.9
1013.87	360.94
1014.226	335.51
1014.582	366.59
1014.939	341.16
1015.295	414.61
1015.651	394.84
1016.007	392.01
1016.363	414.61
1016.719	445.66
1017.074	392.01
1017.43	327.03
1017.786	386.37
1018.141	312.89
1018.497	358.12
1018.852	369.42
1019.208	343.99
1019.563	360.94
1019.918	307.24
1020.273	471.05
1020.628	397.66
1020.983	363.77
1021.338	332.68
1021.693	321.37
1022.048	358.12
1022.403	321.37
1022.757	423.07
1023.112	380.72
1023.467	431.54
1023.821	386.37
1024.175	358.12
1024.53	363.77
1024.884	324.2
1025.238	281.79
1025.592	360.94
1025.946	380.72
1026.3	451.3
1026.654	454.12
1027.008	264.81
1027.362	372.24
1027.716	341.16
1028.069	389.19
1028.423	343.99
1028.777	403.31
1029.13	377.89
1029.483	270.47
1029.837	431.54
1030.19	278.96
1030.543	312.89
1030.896	425.9
1031.249	383.54
1031.602	327.03
1031.955	437.19
1032.308	392.01
1032.661	420.25
1033.013	394.84
1033.366	389.19
1033.719	369.42
1034.071	380.72
1034.424	377.89
1034.776	343.99
1035.128	425.9
1035.48	324.2
1035.833	414.61
1036.185	397.66
1036.537	397.66
1036.889	397.66
