Data from SCSF78-3-385-irrad_FLMS019251_12-05-51-612.txt Node
Date: Fri Feb 15 12:05:51 CET 2019
User: luk
Spectrometer: FLMS01925
Trigger mode: 0
Integration Time (sec): 5.070000E-3
Scans to average: 1
Electric dark correction enabled: true
Nonlinearity correction enabled: true
Boxcar width: 0
XAxis mode: Wavelengths
Number of Pixels in Spectrum: 2048
>>>>>Begin Spectral Data<<<<<
187.103	-67.46
187.574	-67.46
188.045	-67.46
188.516	-98.73
188.987	-115.79
189.458	-124.32
189.929	-155.61
190.4	-78.83
190.871	-90.2
191.342	-19.17
191.813	-61.78
192.284	-61.78
192.754	40.45
193.225	-50.41
193.696	46.12
194.166	83
194.637	54.63
195.107	31.93
195.578	122.69
196.048	148.2
196.518	114.19
196.989	128.36
197.459	202.02
197.929	202.02
198.399	261.45
198.869	278.43
199.339	278.43
199.809	360.41
200.279	258.63
200.749	329.33
201.219	360.41
201.689	405.61
202.159	366.06
202.628	411.25
203.098	374.54
203.568	416.9
204.037	377.36
204.507	431.01
204.976	436.66
205.445	340.63
205.915	388.66
206.384	442.3
206.853	385.84
207.323	377.36
207.792	397.13
208.261	363.24
208.73	402.78
209.199	425.37
209.668	470.52
210.137	419.72
210.606	470.52
211.075	411.25
211.543	349.11
212.012	405.61
212.481	346.28
212.95	388.66
213.418	351.93
213.887	366.06
214.355	484.63
214.824	360.41
215.292	436.66
215.76	459.24
216.229	391.48
216.697	411.25
217.165	315.19
217.633	360.41
218.101	349.11
218.569	303.88
219.037	318.02
219.505	411.25
219.973	388.66
220.441	411.25
220.909	326.5
221.377	329.33
221.844	318.02
222.312	402.78
222.78	374.54
223.247	366.06
223.715	351.93
224.182	374.54
224.65	343.46
225.117	464.88
225.584	453.59
226.052	402.78
226.519	334.98
226.986	329.33
227.453	346.28
227.92	368.89
228.387	332.15
228.854	337.8
229.321	431.01
229.788	332.15
230.255	366.06
230.722	334.98
231.189	354.76
231.655	368.89
232.122	357.59
232.589	414.08
233.055	360.41
233.522	425.37
233.988	399.96
234.454	405.61
234.921	371.71
235.387	405.61
235.853	337.8
236.32	272.77
236.786	399.96
237.252	326.5
237.718	326.5
238.184	371.71
238.65	312.36
239.116	368.89
239.582	422.55
240.047	495.91
240.513	411.25
240.979	433.84
241.445	462.06
241.91	431.01
242.376	405.61
242.841	318.02
243.307	391.48
243.772	371.71
244.238	419.72
244.703	383.01
245.168	368.89
245.633	309.54
246.099	405.61
246.564	408.43
247.029	388.66
247.494	405.61
247.959	340.63
248.424	343.46
248.889	414.08
249.353	391.48
249.818	366.06
250.283	391.48
250.748	340.63
251.212	394.31
251.677	315.19
252.141	380.19
252.606	309.54
253.07	453.59
253.535	332.15
253.999	349.11
254.463	439.48
254.927	357.59
255.392	346.28
255.856	436.66
256.32	383.01
256.784	399.96
257.248	315.19
257.712	383.01
258.176	383.01
258.64	439.48
259.103	368.89
259.567	343.46
260.031	428.19
260.495	360.41
260.958	399.96
261.422	388.66
261.885	459.24
262.349	388.66
262.812	422.55
263.275	442.3
263.739	374.54
264.202	354.76
264.665	363.24
265.128	419.72
265.591	402.78
266.054	402.78
266.517	470.52
266.98	351.93
267.443	357.59
267.906	394.31
268.369	298.23
268.832	405.61
269.294	278.43
269.757	366.06
270.22	416.9
270.682	357.59
271.145	450.77
271.607	433.84
272.07	447.95
272.532	360.41
272.994	428.19
273.456	377.36
273.919	357.59
274.381	371.71
274.843	405.61
275.305	383.01
275.767	397.13
276.229	241.65
276.691	433.84
277.153	388.66
277.614	394.31
278.076	334.98
278.538	323.67
279	391.48
279.461	391.48
279.923	349.11
280.384	450.77
280.846	394.31
281.307	422.55
281.769	388.66
282.23	428.19
282.691	371.71
283.152	422.55
283.613	238.82
284.075	414.08
284.536	394.31
284.997	399.96
285.458	391.48
285.918	408.43
286.379	377.36
286.84	388.66
287.301	414.08
287.762	377.36
288.222	442.3
288.683	397.13
289.143	447.95
289.604	371.71
290.064	357.59
290.525	414.08
290.985	425.37
291.445	422.55
291.906	366.06
292.366	360.41
292.826	478.99
293.286	360.41
293.746	498.73
294.206	323.67
294.666	411.25
295.126	470.52
295.586	383.01
296.046	419.72
296.506	439.48
296.965	431.01
297.425	411.25
297.884	394.31
298.344	481.81
298.804	377.36
299.263	340.63
299.722	408.43
300.182	354.76
300.641	405.61
301.1	425.37
301.559	374.54
302.019	453.59
302.478	481.81
302.937	371.71
303.396	366.06
303.855	397.13
304.314	385.84
304.772	377.36
305.231	388.66
305.69	402.78
306.149	334.98
306.607	447.95
307.066	363.24
307.524	368.89
307.983	405.61
308.441	399.96
308.9	337.8
309.358	385.84
309.816	366.06
310.275	394.31
310.733	419.72
311.191	343.46
311.649	391.48
312.107	408.43
312.565	405.61
313.023	419.72
313.481	436.66
313.939	422.55
314.397	442.3
314.854	428.19
315.312	436.66
315.77	399.96
316.227	431.01
316.685	431.01
317.142	399.96
317.6	349.11
318.057	391.48
318.514	402.78
318.972	402.78
319.429	397.13
319.886	439.48
320.343	405.61
320.8	360.41
321.257	405.61
321.714	470.52
322.171	416.9
322.628	422.55
323.085	490.27
323.542	546.66
323.998	411.25
324.455	416.9
324.912	402.78
325.368	431.01
325.825	402.78
326.281	408.43
326.738	366.06
327.194	405.61
327.65	397.13
328.107	366.06
328.563	442.3
329.019	470.52
329.475	411.25
329.931	459.24
330.387	402.78
330.843	419.72
331.299	473.34
331.755	391.48
332.211	371.71
332.666	343.46
333.122	419.72
333.578	456.42
334.033	371.71
334.489	399.96
334.944	476.17
335.4	402.78
335.855	323.67
336.31	456.42
336.766	357.59
337.221	459.24
337.676	495.91
338.131	439.48
338.586	419.72
339.041	478.99
339.496	484.63
339.951	399.96
340.406	495.91
340.861	414.08
341.316	414.08
341.771	439.48
342.225	431.01
342.68	354.76
343.134	456.42
343.589	332.15
344.043	320.84
344.498	425.37
344.952	357.59
345.406	368.89
345.861	408.43
346.315	447.95
346.769	405.61
347.223	315.19
347.677	422.55
348.131	391.48
348.585	467.7
349.039	411.25
349.493	405.61
349.947	436.66
350.401	478.99
350.854	402.78
351.308	431.01
351.762	360.41
352.215	433.84
352.669	385.84
353.122	422.55
353.575	402.78
354.029	428.19
354.482	374.54
354.935	431.01
355.388	385.84
355.842	354.76
356.295	394.31
356.748	470.52
357.201	408.43
357.654	408.43
358.106	425.37
358.559	445.13
359.012	416.9
359.465	493.09
359.917	521.29
360.37	450.77
360.823	402.78
361.275	433.84
361.728	399.96
362.18	397.13
362.632	394.31
363.085	411.25
363.537	442.3
363.989	442.3
364.441	391.48
364.893	433.84
365.345	442.3
365.797	459.24
366.249	464.88
366.701	354.76
367.153	436.66
367.605	363.24
368.057	416.9
368.508	459.24
368.96	340.63
369.411	383.01
369.863	425.37
370.314	371.71
370.766	473.34
371.217	526.93
371.669	422.55
372.12	377.36
372.571	422.55
373.022	450.77
373.473	462.06
373.924	464.88
374.375	464.88
374.826	504.37
375.277	371.71
375.728	462.06
376.179	504.37
376.63	436.66
377.08	473.34
377.531	383.01
377.981	388.66
378.432	405.61
378.883	462.06
379.333	405.61
379.783	439.48
380.234	408.43
380.684	439.48
381.134	439.48
381.584	445.13
382.034	354.76
382.485	363.24
382.935	343.46
383.385	456.42
383.834	402.78
384.284	408.43
384.734	459.24
385.184	510.01
385.634	510.01
386.083	484.63
386.533	414.08
386.982	394.31
387.432	402.78
387.881	419.72
388.331	428.19
388.78	462.06
389.229	456.42
389.679	428.19
390.128	374.54
390.577	450.77
391.026	383.01
391.475	481.81
391.924	422.55
392.373	419.72
392.822	462.06
393.27	439.48
393.719	524.11
394.168	447.95
394.617	487.45
395.065	388.66
395.514	450.77
395.962	436.66
396.411	411.25
396.859	453.59
397.307	549.48
397.756	456.42
398.204	394.31
398.652	459.24
399.1	357.59
399.548	462.06
399.996	397.13
400.444	490.27
400.892	371.71
401.34	422.55
401.788	456.42
402.236	431.01
402.683	436.66
403.131	422.55
403.579	414.08
404.026	481.81
404.474	510.01
404.921	484.63
405.369	447.95
405.816	478.99
406.263	518.47
406.71	431.01
407.158	507.19
407.605	495.91
408.052	431.01
408.499	529.75
408.946	487.45
409.393	552.3
409.84	445.13
410.286	431.01
410.733	462.06
411.18	526.93
411.626	462.06
412.073	532.57
412.52	532.57
412.966	507.19
413.413	557.93
413.859	631.16
414.305	605.82
414.752	583.29
415.198	653.68
415.644	774.6
416.09	945.81
416.536	1108.25
416.982	1376.35
417.428	1704.62
417.874	2114.43
418.32	2401.16
418.766	3039.94
419.211	3844.63
419.657	4516.05
420.103	5238.83
420.548	5972.45
420.994	7124.3
421.439	8065.24
421.885	9299.87
422.33	10671.42
422.776	11679.01
423.221	12725.2
423.666	14007.29
424.111	15605.75
424.556	16725.58
425.001	18304.03
425.446	19141.91
425.891	20839.8
426.336	22046.28
426.781	23091.53
427.226	25098.82
427.671	25791.48
428.115	26586.23
428.56	27759.24
429.005	29470.04
429.449	29521.31
429.894	31109.71
430.338	32172.8
430.782	32265.45
431.227	33586.95
431.671	34016.2
432.115	34977.57
432.559	36154.91
433.003	35815.21
433.447	36805.44
433.891	37020.8
434.335	37488.52
434.779	37995.89
435.223	38246.09
435.667	38685.51
436.111	39216.37
436.554	39056.54
436.998	38717.44
437.442	39398.4
437.885	40885.16
438.328	39745.48
438.772	39632.21
439.215	40769.04
439.659	40374.04
440.102	40660.37
440.545	40692.47
440.988	40492.49
441.431	41065.6
441.874	40986.49
442.317	41431.77
442.76	41053.24
443.203	40561.61
443.646	41248.63
444.089	40808.56
444.531	41337.71
444.974	40472.75
445.417	41580.35
445.859	40361.71
446.302	41843.03
446.744	40741.87
447.186	41912.45
447.629	41436.72
448.071	41100.22
448.513	41676.97
448.956	42391.5
449.398	41741.39
449.84	40934.59
450.282	40979.08
450.724	42076.18
451.166	41511
451.607	41830.63
452.049	41471.38
452.491	42679.85
452.933	42244.96
453.374	43185.29
453.816	43287.51
454.257	42856.51
454.699	43624.4
455.14	43070.66
455.582	43013.37
456.023	43594.43
456.464	43342.37
456.905	43671.85
457.347	43719.32
457.788	42799.27
458.229	42834.11
458.67	44001.83
459.111	42113.4
459.552	42572.93
459.992	42617.68
460.433	42098.51
460.874	40736.93
461.315	42225.1
461.755	41154.63
462.196	40924.7
462.636	40070.71
463.077	39984.45
463.517	40157
463.957	40457.94
464.398	39664.22
464.838	39986.91
465.278	38815.7
465.718	39083.59
466.158	38044.94
466.598	38199.47
467.038	38165.13
467.478	39000.01
467.918	38660.95
468.358	38231.37
468.798	38081.73
469.237	37358.69
469.677	37432.17
470.117	38430.15
470.556	36247.8
470.996	36607.27
471.435	36379.83
471.874	37297.46
472.314	36927.79
472.753	36294.25
473.192	36394.5
473.631	36179.35
474.07	36372.49
474.509	36599.94
474.948	36399.39
475.387	35771.23
475.826	34965.36
476.265	36453.19
476.704	36382.27
477.143	36609.72
477.581	36377.38
478.02	37059.97
478.458	35610
478.897	35715.04
479.335	37410.13
479.774	36489.87
480.212	36773.63
480.65	37035.49
481.089	36590.15
481.527	36247.8
481.965	35944.72
482.403	37500.77
482.841	37451.77
483.279	37282.77
483.717	37346.45
484.155	36592.6
484.592	37135.86
485.03	37723.76
485.468	36379.83
485.905	36568.14
486.343	37028.14
486.781	36516.78
487.218	36159.79
487.655	36262.47
488.093	34923.87
488.53	36497.21
488.967	35373.09
489.405	35556.26
489.842	34762.78
490.279	34548.03
490.716	34533.39
491.153	34767.66
491.59	34067.42
492.027	34033.27
492.463	33565
492.9	32806.69
493.337	32392.23
493.773	32636.03
494.21	32326.4
494.647	31541.32
495.083	31334.06
495.519	30765.82
495.956	30717.04
496.392	30385.27
496.828	29928.96
497.265	29250.27
497.701	29643.38
498.137	29257.59
498.573	28500.21
499.009	28747.05
499.445	28153.05
499.881	27654.03
500.316	28160.39
500.752	27213.41
501.188	27015.04
501.624	27152.19
502.059	26014.81
502.495	25676.1
502.93	25764.48
503.366	25646.64
503.801	25533.68
504.236	25081.61
504.672	24730
505.107	24597.16
505.542	24070.36
505.977	23594.76
506.412	23515.86
506.847	23540.52
507.282	23098.94
507.717	22928.6
508.152	22721.15
508.587	22735.98
509.021	22140.28
509.456	21788.92
509.891	21942.36
510.325	21783.97
510.76	21256.38
511.194	21258.86
511.628	21236.55
512.063	20569.3
512.497	20599.08
512.931	20410.39
513.366	19893.52
513.8	20132.16
514.234	19532.82
514.668	19363.56
515.102	19856.22
515.536	19099.56
515.969	19214.15
516.403	18695.76
516.837	18216.65
517.271	18638.4
517.704	18254.1
518.138	17896.92
518.571	17731.95
519.005	17816.94
519.438	17116.44
519.871	17164.01
520.305	16906.03
520.738	16773.21
521.171	16550.06
521.604	16775.71
522.037	16447.21
522.47	16012.92
522.903	16060.65
523.336	15739.02
523.769	15766.67
524.202	15182.97
524.634	15359.2
525.067	14857.96
525.5	14782.33
525.932	14565.42
526.365	14323.1
526.797	14335.73
527.23	14179.13
527.662	13569.62
528.094	13541.77
528.527	13531.64
528.959	13154.09
529.391	13141.41
529.823	12575.3
530.255	12709.96
530.687	12491.41
531.119	12178.5
531.551	12265.04
531.982	11847.33
532.414	11691.76
532.846	11500.35
533.277	11367.53
533.709	10909.7
534.14	10935.3
534.572	10884.09
535.003	10766.26
535.435	10479.05
535.866	10563.72
536.297	10119.43
536.728	10242.81
537.159	10075.72
537.59	9818.35
538.022	9751.37
538.452	9658.59
538.883	9395.43
539.314	9434.16
539.745	9206.84
540.176	9348.95
540.606	8759.01
541.037	8735.68
541.468	8689
541.898	8637.12
542.328	8551.48
542.759	8489.17
543.189	8213.63
543.619	8174.59
544.05	8007.93
544.48	7843.67
544.91	7744.5
545.34	7689.66
545.77	7446.54
546.2	7519.79
546.63	7451.78
547.06	7417.76
547.489	7307.79
547.919	6937.91
548.349	6974.68
548.778	7029.83
549.208	6756.5
549.637	6874.84
550.067	6767.03
550.496	6580.09
550.926	6408.69
551.355	6207.96
551.784	6540.56
552.213	6366.46
552.642	6149.79
553.071	6181.53
553.5	6065.13
553.929	5829.31
554.358	5773.59
554.787	5903.55
555.216	5887.65
555.645	5755.01
556.073	5598.3
556.502	5614.24
556.93	5310.82
557.359	5345.47
557.787	5422.71
558.216	5297.49
558.644	5268.16
559.072	5180.13
559.5	4918.24
559.929	5086.68
560.357	5108.04
560.785	5035.91
561.213	5006.5
561.641	4821.87
562.068	4773.64
562.496	4661.03
562.924	4741.48
563.352	4631.51
563.779	4720.03
564.207	4738.8
564.634	4516.05
565.062	4722.71
565.489	4534.85
565.917	4384.3
566.344	4416.58
566.771	4314.32
567.198	4403.13
567.625	4244.29
568.053	4421.96
568.48	4325.09
568.907	4128.35
569.333	4187.69
569.76	4082.47
570.187	4004.16
570.614	3987.95
571.04	3979.85
571.467	3966.33
571.894	3736.32
572.32	3760.7
572.747	3426.9
573.173	3380.66
573.599	3589.88
574.026	3416.02
574.452	3497.56
574.878	3516.58
575.304	3263.6
575.73	3228.18
576.156	3206.38
576.582	3094.55
577.008	2949.76
577.434	3004.43
577.86	2957.97
578.285	3023.55
578.711	2892.33
579.137	2922.42
579.562	2812.95
579.988	2823.9
580.413	2747.2
580.838	2802
581.264	2695.11
581.689	2689.63
582.114	2612.8
582.539	2607.31
582.964	2513.92
583.39	2522.16
583.814	2420.42
584.239	2376.39
584.664	2489.18
585.089	2321.31
585.514	2329.57
585.939	2208.28
586.363	2230.35
586.788	2241.38
587.212	2175.17
587.637	2100.62
588.061	2255.16
588.485	2271.71
588.91	2017.71
589.334	2050.88
589.758	2070.23
590.182	2026
590.606	1918.1
591.03	1934.71
591.454	1912.56
591.878	1793.41
592.302	1826.68
592.726	1873.79
593.15	1815.59
593.573	1909.79
593.997	1826.68
594.42	1782.32
594.844	1829.45
595.267	1687.96
595.691	1740.7
596.114	1671.3
596.537	1660.19
596.96	1651.86
597.384	1629.63
597.807	1635.19
598.23	1654.63
598.653	1565.69
599.076	1562.91
599.499	1562.91
599.921	1549
600.344	1557.35
600.767	1535.09
601.189	1451.58
601.612	1535.09
602.034	1443.23
602.457	1493.35
602.879	1487.78
603.302	1429.3
603.724	1493.35
604.146	1434.87
604.568	1476.65
604.991	1451.58
605.413	1440.44
605.835	1409.79
606.257	1482.21
606.678	1429.3
607.1	1401.43
607.522	1323.36
607.944	1289.88
608.365	1476.65
608.787	1278.71
609.209	1354.04
609.63	1287.08
610.051	1365.2
610.473	1340.1
610.894	1359.62
611.315	1250.79
611.737	1295.46
612.158	1250.79
612.579	1211.69
613	1236.83
613.421	1284.29
613.842	1234.04
614.263	1194.92
614.683	1220.07
615.104	1136.22
615.525	1127.83
615.945	1169.77
616.366	1183.74
616.787	1178.16
617.207	1041.08
617.627	1094.26
618.048	1136.22
618.468	1127.83
618.888	1091.46
619.308	1094.26
619.728	1066.27
620.148	1018.67
620.568	965.44
620.988	990.66
621.408	1004.67
621.828	1052.27
622.248	971.04
622.668	856.05
623.087	945.81
623.507	903.75
623.926	943.01
624.346	931.8
624.765	923.38
625.185	951.42
625.604	870.08
626.023	906.55
626.442	861.66
626.861	867.27
627.28	875.69
627.699	898.14
628.118	926.19
628.537	870.08
628.956	884.11
629.375	783.03
629.794	827.97
630.212	819.55
630.631	752.12
631.049	813.93
631.468	870.08
631.886	768.98
632.305	783.03
632.723	811.12
633.141	808.32
633.559	729.63
633.978	813.93
634.396	813.93
634.814	783.03
635.232	861.66
635.65	867.27
636.067	701.51
636.485	701.51
636.903	690.26
637.321	780.22
637.738	681.82
638.156	679.01
638.573	797.08
638.991	774.6
639.408	724.01
639.825	768.98
640.243	707.14
640.66	681.82
641.077	749.31
641.494	673.38
641.911	532.57
642.328	738.07
642.745	645.24
643.162	712.76
643.579	659.31
643.995	667.75
644.412	729.63
644.829	656.5
645.245	729.63
645.662	662.13
646.078	555.11
646.495	586.11
646.911	628.35
647.327	653.68
647.743	715.57
648.159	622.72
648.576	507.19
648.992	693.07
649.408	518.47
649.824	605.82
650.239	617.09
650.655	608.64
651.071	493.09
651.487	597.37
651.902	512.83
652.318	608.64
652.733	552.3
653.149	619.9
653.564	614.27
653.979	560.75
654.395	580.47
654.81	529.75
655.225	631.16
655.64	515.65
656.055	619.9
656.47	566.39
656.885	433.84
657.3	535.38
657.715	529.75
658.13	574.84
658.544	555.11
658.959	504.37
659.374	600.19
659.788	574.84
660.202	563.57
660.617	549.48
661.031	557.93
661.445	481.81
661.86	552.3
662.274	546.66
662.688	670.57
663.102	504.37
663.516	535.38
663.93	535.38
664.344	481.81
664.758	510.01
665.171	529.75
665.585	521.29
665.999	555.11
666.412	512.83
666.826	543.84
667.239	580.47
667.653	526.93
668.066	549.48
668.479	532.57
668.892	555.11
669.306	549.48
669.719	501.55
670.132	467.7
670.545	515.65
670.958	526.93
671.37	552.3
671.783	521.29
672.196	515.65
672.609	552.3
673.021	405.61
673.434	507.19
673.846	470.52
674.259	501.55
674.671	512.83
675.084	495.91
675.496	512.83
675.908	507.19
676.32	436.66
676.732	442.3
677.144	580.47
677.556	447.95
677.968	456.42
678.38	439.48
678.792	481.81
679.204	538.2
679.615	473.34
680.027	510.01
680.439	478.99
680.85	478.99
681.262	462.06
681.673	439.48
682.084	476.17
682.496	493.09
682.907	414.08
683.318	478.99
683.729	445.13
684.14	515.65
684.551	529.75
684.962	501.55
685.373	470.52
685.784	493.09
686.194	377.36
686.605	495.91
687.016	481.81
687.426	456.42
687.837	484.63
688.247	442.3
688.657	484.63
689.068	399.96
689.478	521.29
689.888	501.55
690.298	397.13
690.708	433.84
691.118	481.81
691.528	515.65
691.938	368.89
692.348	425.37
692.758	464.88
693.168	473.34
693.577	445.13
693.987	473.34
694.396	473.34
694.806	493.09
695.215	416.9
695.625	481.81
696.034	428.19
696.443	394.31
696.852	450.77
697.262	490.27
697.671	411.25
698.08	422.55
698.489	484.63
698.897	433.84
699.306	391.48
699.715	526.93
700.124	442.3
700.532	478.99
700.941	532.57
701.35	462.06
701.758	445.13
702.166	436.66
702.575	442.3
702.983	385.84
703.391	416.9
703.799	419.72
704.208	416.9
704.616	334.98
705.024	481.81
705.432	371.71
705.839	425.37
706.247	433.84
706.655	478.99
707.063	445.13
707.47	422.55
707.878	405.61
708.285	442.3
708.693	459.24
709.1	402.78
709.508	385.84
709.915	399.96
710.322	464.88
710.729	450.77
711.136	478.99
711.543	408.43
711.95	402.78
712.357	447.95
712.764	428.19
713.171	385.84
713.578	391.48
713.984	445.13
714.391	495.91
714.797	394.31
715.204	487.45
715.61	445.13
716.017	363.24
716.423	405.61
716.829	422.55
717.236	436.66
717.642	453.59
718.048	368.89
718.454	416.9
718.86	442.3
719.266	433.84
719.671	351.93
720.077	371.71
720.483	416.9
720.889	402.78
721.294	397.13
721.7	476.17
722.105	456.42
722.511	416.9
722.916	422.55
723.321	306.71
723.726	391.48
724.132	481.81
724.537	478.99
724.942	431.01
725.347	385.84
725.752	428.19
726.156	399.96
726.561	442.3
726.966	487.45
727.371	425.37
727.775	439.48
728.18	476.17
728.584	408.43
728.989	431.01
729.393	388.66
729.798	478.99
730.202	487.45
730.606	419.72
731.01	510.01
731.414	431.01
731.818	470.52
732.222	493.09
732.626	436.66
733.03	431.01
733.434	481.81
733.837	411.25
734.241	411.25
734.645	411.25
735.048	346.28
735.452	405.61
735.855	442.3
736.258	408.43
736.662	318.02
737.065	439.48
737.468	399.96
737.871	419.72
738.274	436.66
738.677	346.28
739.08	439.48
739.483	447.95
739.886	391.48
740.289	450.77
740.691	366.06
741.094	388.66
741.497	377.36
741.899	422.55
742.302	360.41
742.704	464.88
743.106	368.89
743.508	442.3
743.911	340.63
744.313	377.36
744.715	380.19
745.117	411.25
745.519	408.43
745.921	363.24
746.323	380.19
746.724	473.34
747.126	414.08
747.528	408.43
747.929	363.24
748.331	405.61
748.732	383.01
749.134	428.19
749.535	385.84
749.936	385.84
750.338	445.13
750.739	405.61
751.14	377.36
751.541	391.48
751.942	464.88
752.343	363.24
752.744	383.01
753.144	408.43
753.545	399.96
753.946	357.59
754.346	380.19
754.747	445.13
755.148	464.88
755.548	385.84
755.948	433.84
756.349	399.96
756.749	464.88
757.149	391.48
757.549	431.01
757.949	431.01
758.349	397.13
758.749	329.33
759.149	411.25
759.549	374.54
759.949	391.48
760.348	374.54
760.748	351.93
761.148	436.66
761.547	368.89
761.947	405.61
762.346	346.28
762.745	436.66
763.145	377.36
763.544	394.31
763.943	366.06
764.342	399.96
764.741	394.31
765.14	346.28
765.539	349.11
765.938	351.93
766.336	402.78
766.735	405.61
767.134	433.84
767.532	428.19
767.931	414.08
768.329	428.19
768.728	411.25
769.126	368.89
769.525	360.41
769.923	360.41
770.321	354.76
770.719	408.43
771.117	439.48
771.515	405.61
771.913	399.96
772.311	436.66
772.709	340.63
773.106	383.01
773.504	371.71
773.902	340.63
774.299	411.25
774.697	351.93
775.094	416.9
775.491	315.19
775.889	436.66
776.286	504.37
776.683	447.95
777.08	411.25
777.477	354.76
777.874	428.19
778.271	349.11
778.668	388.66
779.065	408.43
779.462	498.73
779.858	405.61
780.255	411.25
780.652	436.66
781.048	391.48
781.444	408.43
781.841	354.76
782.237	312.36
782.633	383.01
783.03	388.66
783.426	363.24
783.822	408.43
784.218	241.65
784.614	354.76
785.01	470.52
785.405	447.95
785.801	385.84
786.197	363.24
786.593	414.08
786.988	399.96
787.384	371.71
787.779	431.01
788.174	442.3
788.57	399.96
788.965	380.19
789.36	388.66
789.755	504.37
790.15	414.08
790.545	442.3
790.94	371.71
791.335	408.43
791.73	416.9
792.125	377.36
792.52	419.72
792.914	428.19
793.309	368.89
793.703	411.25
794.098	374.54
794.492	391.48
794.887	399.96
795.281	394.31
795.675	414.08
796.069	385.84
796.463	411.25
796.857	346.28
797.251	343.46
797.645	467.7
798.039	436.66
798.433	419.72
798.826	292.57
799.22	402.78
799.614	447.95
800.007	433.84
800.401	363.24
800.794	354.76
801.187	428.19
801.581	495.91
801.974	431.01
802.367	357.59
802.76	408.43
803.153	337.8
803.546	405.61
803.939	351.93
804.332	439.48
804.725	436.66
805.117	411.25
805.51	405.61
805.903	459.24
806.295	428.19
806.688	416.9
807.08	414.08
807.472	467.7
807.865	439.48
808.257	422.55
808.649	433.84
809.041	377.36
809.433	363.24
809.825	377.36
810.217	374.54
810.609	402.78
811.001	436.66
811.392	374.54
811.784	385.84
812.175	459.24
812.567	439.48
812.958	383.01
813.35	346.28
813.741	357.59
814.132	326.5
814.524	473.34
814.915	399.96
815.306	416.9
815.697	360.41
816.088	422.55
816.479	416.9
816.87	397.13
817.26	371.71
817.651	456.42
818.042	380.19
818.432	394.31
818.823	414.08
819.213	354.76
819.604	363.24
819.994	383.01
820.384	411.25
820.775	405.61
821.165	397.13
821.555	464.88
821.945	473.34
822.335	436.66
822.725	473.34
823.114	402.78
823.504	397.13
823.894	394.31
824.284	383.01
824.673	473.34
825.063	428.19
825.452	453.59
825.842	399.96
826.231	422.55
826.62	422.55
827.009	360.41
827.399	306.71
827.788	363.24
828.177	408.43
828.566	368.89
828.954	394.31
829.343	397.13
829.732	363.24
830.121	425.37
830.509	360.41
830.898	366.06
831.286	351.93
831.675	391.48
832.063	377.36
832.452	383.01
832.84	346.28
833.228	385.84
833.616	383.01
834.004	385.84
834.392	366.06
834.78	388.66
835.168	481.81
835.556	411.25
835.944	346.28
836.331	368.89
836.719	284.09
837.107	467.7
837.494	284.09
837.881	383.01
838.269	411.25
838.656	368.89
839.043	464.88
839.431	402.78
839.818	366.06
840.205	447.95
840.592	394.31
840.979	431.01
841.366	349.11
841.752	334.98
842.139	383.01
842.526	399.96
842.912	414.08
843.299	433.84
843.685	411.25
844.072	405.61
844.458	351.93
844.844	405.61
845.231	323.67
845.617	374.54
846.003	343.46
846.389	363.24
846.775	405.61
847.161	388.66
847.547	385.84
847.933	431.01
848.318	385.84
848.704	445.13
849.09	357.59
849.475	323.67
849.861	357.59
850.246	368.89
850.631	385.84
851.017	399.96
851.402	371.71
851.787	467.7
852.172	394.31
852.557	391.48
852.942	380.19
853.327	366.06
853.712	380.19
854.097	360.41
854.481	366.06
854.866	445.13
855.25	442.3
855.635	371.71
856.019	405.61
856.404	374.54
856.788	334.98
857.172	425.37
857.557	411.25
857.941	399.96
858.325	408.43
858.709	394.31
859.093	366.06
859.477	397.13
859.86	323.67
860.244	402.78
860.628	422.55
861.012	436.66
861.395	363.24
861.779	309.54
862.162	428.19
862.545	346.28
862.929	360.41
863.312	442.3
863.695	385.84
864.078	445.13
864.461	422.55
864.844	383.01
865.227	425.37
865.61	346.28
865.993	402.78
866.376	385.84
866.758	354.76
867.141	411.25
867.523	349.11
867.906	360.41
868.288	470.52
868.671	374.54
869.053	414.08
869.435	303.88
869.817	411.25
870.199	326.5
870.581	459.24
870.963	399.96
871.345	399.96
871.727	351.93
872.109	388.66
872.491	490.27
872.872	436.66
873.254	487.45
873.635	442.3
874.017	374.54
874.398	402.78
874.779	377.36
875.161	329.33
875.542	329.33
875.923	363.24
876.304	377.36
876.685	442.3
877.066	374.54
877.447	267.11
877.828	334.98
878.208	346.28
878.589	368.89
878.97	380.19
879.35	439.48
879.731	332.15
880.111	456.42
880.491	383.01
880.872	450.77
881.252	411.25
881.632	447.95
882.012	368.89
882.392	377.36
882.772	366.06
883.152	346.28
883.532	383.01
883.912	366.06
884.291	346.28
884.671	357.59
885.051	416.9
885.43	383.01
885.81	397.13
886.189	422.55
886.568	411.25
886.948	383.01
887.327	371.71
887.706	414.08
888.085	431.01
888.464	351.93
888.843	371.71
889.222	411.25
889.601	405.61
889.979	470.52
890.358	391.48
890.737	394.31
891.115	397.13
891.494	439.48
891.872	411.25
892.25	337.8
892.629	405.61
893.007	402.78
893.385	501.55
893.763	380.19
894.141	309.54
894.519	366.06
894.897	298.23
895.275	431.01
895.653	445.13
896.03	397.13
896.408	374.54
896.786	340.63
897.163	380.19
897.541	323.67
897.918	340.63
898.295	289.74
898.673	340.63
899.05	371.71
899.427	411.25
899.804	436.66
900.181	399.96
900.558	374.54
900.935	405.61
901.312	385.84
901.688	366.06
902.065	447.95
902.442	351.93
902.818	394.31
903.195	306.71
903.571	402.78
903.947	383.01
904.324	425.37
904.7	292.57
905.076	357.59
905.452	388.66
905.828	445.13
906.204	405.61
906.58	360.41
906.956	366.06
907.331	442.3
907.707	408.43
908.083	411.25
908.458	399.96
908.834	391.48
909.209	380.19
909.585	346.28
909.96	425.37
910.335	368.89
910.71	484.63
911.086	388.66
911.461	354.76
911.836	298.23
912.21	349.11
912.585	320.84
912.96	447.95
913.335	380.19
913.709	408.43
914.084	399.96
914.459	436.66
914.833	388.66
915.207	439.48
915.582	431.01
915.956	419.72
916.33	360.41
916.704	323.67
917.078	388.66
917.452	397.13
917.826	408.43
918.2	428.19
918.574	349.11
918.948	346.28
919.321	318.02
919.695	453.59
920.068	332.15
920.442	241.65
920.815	383.01
921.189	329.33
921.562	357.59
921.935	414.08
922.308	419.72
922.681	394.31
923.054	357.59
923.427	422.55
923.8	399.96
924.173	436.66
924.546	462.06
924.919	309.54
925.291	380.19
925.664	318.02
926.036	354.76
926.409	388.66
926.781	397.13
927.153	399.96
927.526	385.84
927.898	363.24
928.27	419.72
928.642	391.48
929.014	306.71
929.386	267.11
929.758	397.13
930.129	414.08
930.501	383.01
930.873	436.66
931.244	337.8
931.616	368.89
931.987	399.96
932.359	360.41
932.73	354.76
933.101	428.19
933.472	405.61
933.843	374.54
934.214	394.31
934.585	498.73
934.956	462.06
935.327	462.06
935.698	425.37
936.069	360.41
936.439	436.66
936.81	411.25
937.18	360.41
937.551	343.46
937.921	388.66
938.292	366.06
938.662	436.66
939.032	309.54
939.402	334.98
939.772	470.52
940.142	419.72
940.512	349.11
940.882	374.54
941.252	354.76
941.621	303.88
941.991	357.59
942.361	371.71
942.73	487.45
943.1	397.13
943.469	360.41
943.838	490.27
944.208	428.19
944.577	368.89
944.946	284.09
945.315	360.41
945.684	374.54
946.053	360.41
946.422	377.36
946.791	442.3
947.159	337.8
947.528	363.24
947.897	326.5
948.265	414.08
948.634	402.78
949.002	445.13
949.371	436.66
949.739	383.01
950.107	411.25
950.475	478.99
950.843	329.33
951.211	411.25
951.579	428.19
951.947	425.37
952.315	431.01
952.683	368.89
953.05	414.08
953.418	416.9
953.785	388.66
954.153	363.24
954.52	433.84
954.888	337.8
955.255	416.9
955.622	289.74
955.989	431.01
956.356	504.37
956.723	377.36
957.09	332.15
957.457	349.11
957.824	402.78
958.191	326.5
958.557	408.43
958.924	363.24
959.291	360.41
959.657	320.84
960.023	377.36
960.39	436.66
960.756	402.78
961.122	337.8
961.488	498.73
961.855	385.84
962.221	320.84
962.586	422.55
962.952	467.7
963.318	363.24
963.684	397.13
964.05	385.84
964.415	436.66
964.781	318.02
965.146	447.95
965.512	380.19
965.877	351.93
966.242	309.54
966.608	385.84
966.973	377.36
967.338	349.11
967.703	414.08
968.068	414.08
968.433	391.48
968.797	385.84
969.162	298.23
969.527	388.66
969.891	343.46
970.256	377.36
970.62	391.48
970.985	346.28
971.349	334.98
971.714	402.78
972.078	346.28
972.442	433.84
972.806	439.48
973.17	343.46
973.534	360.41
973.898	394.31
974.262	431.01
974.625	286.91
974.989	402.78
975.353	275.6
975.716	422.55
976.08	442.3
976.443	380.19
976.806	445.13
977.17	385.84
977.533	340.63
977.896	334.98
978.259	416.9
978.622	385.84
978.985	419.72
979.348	419.72
979.711	428.19
980.073	405.61
980.436	419.72
980.799	436.66
981.161	306.71
981.524	411.25
981.886	326.5
982.248	425.37
982.611	467.7
982.973	368.89
983.335	255.8
983.697	360.41
984.059	332.15
984.421	284.09
984.783	349.11
985.145	269.94
985.506	207.68
985.868	385.84
986.23	397.13
986.591	326.5
986.953	309.54
987.314	431.01
987.675	442.3
988.037	453.59
988.398	439.48
988.759	391.48
989.12	363.24
989.481	346.28
989.842	414.08
990.203	456.42
990.564	405.61
990.924	436.66
991.285	428.19
991.646	388.66
992.006	408.43
992.367	354.76
992.727	315.19
993.087	388.66
993.448	425.37
993.808	397.13
994.168	397.13
994.528	320.84
994.888	346.28
995.248	371.71
995.608	363.24
995.967	380.19
996.327	397.13
996.687	433.84
997.046	394.31
997.406	267.11
997.765	337.8
998.125	346.28
998.484	380.19
998.843	360.41
999.202	399.96
999.561	354.76
999.92	433.84
1000.279	411.25
1000.638	354.76
1000.997	346.28
1001.356	351.93
1001.715	374.54
1002.073	380.19
1002.432	351.93
1002.79	320.84
1003.149	261.45
1003.507	425.37
1003.865	349.11
1004.224	431.01
1004.582	380.19
1004.94	312.36
1005.298	433.84
1005.656	354.76
1006.014	391.48
1006.371	416.9
1006.729	383.01
1007.087	318.02
1007.445	351.93
1007.802	343.46
1008.16	303.88
1008.517	428.19
1008.874	340.63
1009.232	334.98
1009.589	402.78
1009.946	428.19
1010.303	439.48
1010.66	323.67
1011.017	354.76
1011.374	399.96
1011.731	388.66
1012.087	394.31
1012.444	439.48
1012.801	402.78
1013.157	368.89
1013.513	385.84
1013.87	371.71
1014.226	343.46
1014.582	377.36
1014.939	377.36
1015.295	487.45
1015.651	445.13
1016.007	295.4
1016.363	329.33
1016.719	391.48
1017.074	346.28
1017.43	402.78
1017.786	363.24
1018.141	402.78
1018.497	405.61
1018.852	399.96
1019.208	433.84
1019.563	363.24
1019.918	422.55
1020.273	366.06
1020.628	419.72
1020.983	380.19
1021.338	363.24
1021.693	380.19
1022.048	397.13
1022.403	312.36
1022.757	433.84
1023.112	346.28
1023.467	439.48
1023.821	301.05
1024.175	416.9
1024.53	385.84
1024.884	433.84
1025.238	388.66
1025.592	298.23
1025.946	360.41
1026.3	414.08
1026.654	402.78
1027.008	397.13
1027.362	397.13
1027.716	360.41
1028.069	337.8
1028.423	371.71
1028.777	408.43
1029.13	391.48
1029.483	377.36
1029.837	399.96
1030.19	433.84
1030.543	351.93
1030.896	366.06
1031.249	425.37
1031.602	453.59
1031.955	425.37
1032.308	385.84
1032.661	476.17
1033.013	388.66
1033.366	459.24
1033.719	399.96
1034.071	363.24
1034.424	363.24
1034.776	374.54
1035.128	445.13
1035.48	346.28
1035.833	374.54
1036.185	306.71
1036.537	306.71
1036.889	306.71
