Data from SCSF78-3R_FLMS019251_15-30-25-534.txt Node
Date: Fri Feb 15 15:30:25 CET 2019
User: luk
Spectrometer: FLMS01925
Trigger mode: 0
Integration Time (sec): 6.709000E-2
Scans to average: 10
Electric dark correction enabled: true
Nonlinearity correction enabled: true
Boxcar width: 0
XAxis mode: Wavelengths
Number of Pixels in Spectrum: 2048
>>>>>Begin Spectral Data<<<<<
187.103	-70.2
187.574	-70.2
188.045	-70.2
188.516	-136.44
188.987	-121.94
189.458	-146.4
189.929	-111.99
190.4	-125.07
190.871	-83.27
191.342	-59.97
191.813	-50.02
192.284	-9.97
192.754	-38.66
193.225	10.47
193.696	28.64
194.166	44.24
194.637	62.97
195.107	87.64
195.578	129.89
196.048	132.15
196.518	128.47
196.989	197.88
197.459	202.41
197.929	220.53
198.399	242.6
198.869	242.6
199.339	258.73
199.809	296.07
200.279	306.81
200.749	307.66
201.219	323.21
201.689	324.63
202.159	336.21
202.628	324.34
203.098	348.93
203.568	359.1
204.037	372.38
204.507	332.26
204.976	361.93
205.445	366.73
205.915	366.73
206.384	358.26
206.853	367.86
207.323	358.26
207.792	387.64
208.261	392.44
208.73	385.38
209.199	384.25
209.668	364.76
210.137	355.71
210.606	350.06
211.075	363.06
211.543	349.78
212.012	342.15
212.481	345.54
212.95	335.65
213.418	363.34
213.887	330.28
214.355	337.35
214.824	311.62
215.292	340.17
215.76	328.87
216.229	340.17
216.697	335.37
217.165	331.69
217.633	327.17
218.101	317.56
218.569	374.36
219.037	353.74
219.505	325.47
219.973	305.12
220.441	326.89
220.909	356.84
221.377	316.43
221.844	332.54
222.312	315.86
222.78	336.21
223.247	312.47
223.715	304.84
224.182	326.6
224.65	340.17
225.117	337.63
225.584	319.54
226.052	332.26
226.519	315.01
226.986	330.28
227.453	334.52
227.92	346.95
228.387	366.45
228.854	344.41
229.321	344.69
229.788	349.21
230.255	318.97
230.722	319.54
231.189	352.89
231.655	345.26
232.122	359.39
232.589	328.58
233.055	324.34
233.522	339.32
233.988	334.8
234.454	303.42
234.921	345.26
235.387	365.04
235.853	338.19
236.32	346.39
236.786	335.65
237.252	357.69
237.718	357.69
238.184	348.93
238.65	329.43
239.116	329.15
239.582	354.87
240.047	343.85
240.513	344.69
240.979	345.54
241.445	341.02
241.91	326.32
242.376	338.76
242.841	347.52
243.307	315.86
243.772	351.76
244.238	326.6
244.703	363.91
245.168	363.06
245.633	335.93
246.099	337.63
246.564	348.65
247.029	369.56
247.494	347.24
247.959	345.26
248.424	354.58
248.889	331.13
249.353	331.41
249.818	346.67
250.283	367.02
250.748	351.76
251.212	341.02
251.677	348.65
252.141	351.76
252.606	368.99
253.07	332.54
253.535	337.06
253.999	337.91
254.463	331.13
254.927	361.65
255.392	345.82
255.856	342.15
256.32	363.63
256.784	316.14
257.248	383.4
257.712	356
258.176	344.13
258.64	353.45
259.103	365.32
259.567	329.15
260.031	358.26
260.495	353.45
260.958	339.61
261.422	326.04
261.885	354.02
262.349	370.12
262.812	357.41
263.275	348.37
263.739	366.17
264.202	369.56
264.665	348.93
265.128	332.54
265.591	359.95
266.054	378.88
266.517	357.41
266.98	360.23
267.443	355.43
267.906	342.72
268.369	349.5
268.832	343.56
269.294	356.28
269.757	364.76
270.22	350.06
270.682	352.04
271.145	356.28
271.607	332.82
272.07	384.81
272.532	339.61
272.994	367.02
273.456	373.51
273.919	394.42
274.381	374.36
274.843	389.33
275.305	342.15
275.767	329.43
276.229	366.73
276.691	388.2
277.153	370.41
277.614	368.71
278.076	351.48
278.538	377.47
279	350.91
279.461	350.91
279.923	359.39
280.384	357.41
280.846	360.8
281.307	336.78
281.769	350.06
282.23	361.65
282.691	366.45
283.152	377.19
283.613	351.48
284.075	374.64
284.536	374.64
284.997	359.95
285.458	348.93
285.918	378.88
286.379	362.21
286.84	389.05
287.301	351.19
287.762	355.15
288.222	372.95
288.683	365.89
289.143	361.37
289.604	383.68
290.064	372.95
290.525	372.67
290.985	374.36
291.445	355.43
291.906	344.69
292.366	361.93
292.826	374.93
293.286	370.69
293.746	356
294.206	376.62
294.666	365.89
295.126	374.08
295.586	362.5
296.046	365.89
296.506	371.82
296.965	379.16
297.425	392.72
297.884	355.71
298.344	382.84
298.804	354.87
299.263	358.26
299.722	356
300.182	362.5
300.641	347.52
301.1	376.62
301.559	384.25
302.019	374.93
302.478	343.56
302.937	361.93
303.396	357.13
303.855	391.31
304.314	384.81
304.772	393.57
305.231	335.65
305.69	385.94
306.149	391.03
306.607	380.86
307.066	354.02
307.524	367.58
307.983	371.54
308.441	368.71
308.9	396.11
309.358	358.54
309.816	355.71
310.275	367.58
310.733	368.99
311.191	363.06
311.649	361.93
312.107	390.74
312.565	370.97
313.023	366.45
313.481	373.8
313.939	400.35
314.397	356.28
314.854	359.67
315.312	352.89
315.77	380.29
316.227	367.58
316.685	375.77
317.142	360.23
317.6	381.14
318.057	381.14
318.514	376.34
318.972	367.02
319.429	359.95
319.886	346.95
320.343	395.26
320.8	373.23
321.257	374.64
321.714	354.3
322.171	368.15
322.628	376.9
323.085	377.47
323.542	377.47
323.998	362.21
324.455	370.69
324.912	367.3
325.368	376.34
325.825	391.31
326.281	350.91
326.738	391.31
327.194	356.28
327.65	370.12
328.107	376.62
328.563	355.71
329.019	376.9
329.475	361.37
329.931	366.17
330.387	358.82
330.843	352.32
331.299	385.38
331.755	347.8
332.211	353.17
332.666	380.29
333.122	349.21
333.578	381.71
334.033	343.56
334.489	364.47
334.944	359.39
335.4	382.55
335.855	411.08
336.31	392.72
336.766	367.02
337.221	397.24
337.676	374.08
338.131	379.16
338.586	394.42
339.041	387.07
339.496	402.89
339.951	377.19
340.406	390.46
340.861	379.16
341.316	385.38
341.771	383.4
342.225	379.45
342.68	391.03
343.134	378.88
343.589	389.61
344.043	349.78
344.498	378.6
344.952	388.48
345.406	414.75
345.861	386.79
346.315	358.82
346.769	381.14
347.223	371.54
347.677	374.64
348.131	374.93
348.585	372.95
349.039	358.26
349.493	372.95
349.947	363.63
350.401	341.3
350.854	372.95
351.308	393
351.762	364.19
352.215	400.35
352.669	365.6
353.122	380.29
353.575	376.34
354.029	389.33
354.482	394.7
354.935	381.99
355.388	363.34
355.842	398.09
356.295	378.88
356.748	382.27
357.201	387.64
357.654	377.47
358.106	393.85
358.559	359.1
359.012	376.34
359.465	380.58
359.917	367.58
360.37	378.6
360.823	382.55
361.275	346.39
361.728	387.92
362.18	376.62
362.632	346.11
363.085	400.35
363.537	380.01
363.989	368.43
364.441	368.71
364.893	387.07
365.345	399.5
365.797	389.9
366.249	370.41
366.701	382.84
367.153	393
367.605	385.66
368.057	365.89
368.508	393
368.96	391.03
369.411	373.8
369.863	376.34
370.314	379.73
370.766	363.63
371.217	391.87
371.669	373.23
372.12	410.51
372.571	365.32
373.022	374.64
373.473	397.8
373.924	372.1
374.375	355.43
374.826	372.67
375.277	365.04
375.728	382.84
376.179	380.01
376.63	359.67
377.08	374.93
377.531	363.34
377.981	373.51
378.432	405.71
378.883	380.01
379.333	388.2
379.783	393.57
380.234	388.77
380.684	379.73
381.134	379.45
381.584	418.98
382.034	359.39
382.485	381.42
382.935	385.09
383.385	388.48
383.834	388.77
384.284	369.56
384.734	392.44
385.184	387.92
385.634	382.84
386.083	378.03
386.533	385.09
386.982	401.19
387.432	359.67
387.881	388.48
388.331	386.22
388.78	380.58
389.229	392.16
389.679	364.19
390.128	380.58
390.577	396.67
391.026	383.68
391.475	399.22
391.924	365.6
392.373	399.22
392.822	374.08
393.27	369.28
393.719	365.04
394.168	362.5
394.617	388.77
395.065	388.48
395.514	377.75
395.962	377.19
396.411	385.94
396.859	400.91
397.307	400.35
397.756	395.54
398.204	356.84
398.652	370.69
399.1	389.05
399.548	376.9
399.996	392.16
400.444	382.55
400.892	371.54
401.34	396.67
401.788	350.35
402.236	389.05
402.683	366.45
403.131	397.52
403.579	374.36
404.026	370.97
404.474	395.83
404.921	367.02
405.369	395.54
405.816	383.4
406.263	373.8
406.71	387.64
407.158	383.68
407.605	362.78
408.052	372.38
408.499	396.96
408.946	403.73
409.393	373.23
409.84	366.17
410.286	365.89
410.733	376.06
411.18	368.43
411.626	397.8
412.073	386.51
412.52	396.96
412.966	389.61
413.413	379.16
413.859	371.25
414.305	379.16
414.752	397.24
415.198	373.8
415.644	381.99
416.09	381.42
416.536	390.46
416.982	345.54
417.428	395.26
417.874	385.94
418.32	352.32
418.766	361.37
419.211	395.26
419.657	377.75
420.103	385.38
420.548	390.46
420.994	395.54
421.439	389.61
421.885	411.64
422.33	368.71
422.776	392.44
423.221	372.95
423.666	367.02
424.111	389.61
424.556	389.33
425.001	390.74
425.446	383.68
425.891	385.94
426.336	387.92
426.781	395.83
427.226	357.41
427.671	412.49
428.115	375.21
428.56	399.5
429.005	376.06
429.449	383.12
429.894	380.58
430.338	414.46
430.782	386.79
431.227	352.32
431.671	374.36
432.115	417.29
432.559	371.25
433.003	408.82
433.447	375.77
433.891	397.8
434.335	378.6
434.779	400.06
435.223	396.39
435.667	387.07
436.111	385.94
436.554	400.91
436.998	375.49
437.442	407.69
437.885	390.74
438.328	383.96
438.772	403.73
439.215	393.85
439.659	411.64
440.102	378.6
440.545	396.96
440.988	389.9
441.431	374.64
441.874	400.63
442.317	384.53
442.76	375.77
443.203	385.09
443.646	403.45
444.089	432.53
444.531	413.05
444.974	396.96
445.417	398.93
445.859	415.31
446.302	390.46
446.744	403.17
447.186	406.56
447.629	396.67
448.071	378.6
448.513	400.63
448.956	407.69
449.398	407.97
449.84	396.96
450.282	389.05
450.724	359.1
451.166	404.58
451.607	429.71
452.049	405.43
452.491	396.11
452.933	417.85
453.374	410.51
453.816	420.68
454.257	394.13
454.699	412.21
455.14	415.59
455.582	405.71
456.023	381.71
456.464	413.33
456.905	395.83
457.347	417.57
457.788	383.96
458.229	399.78
458.67	419.55
459.111	385.38
459.552	398.65
459.992	384.25
460.433	398.09
460.874	386.22
461.315	392.16
461.755	392.16
462.196	383.12
462.636	402.89
463.077	402.32
463.517	410.51
463.957	385.38
464.398	379.73
464.838	381.99
465.278	391.87
465.718	393.29
466.158	410.23
466.598	392.44
467.038	424.06
467.478	417
467.918	401.19
468.358	407.12
468.798	415.03
469.237	410.79
469.677	386.79
470.117	400.35
470.556	404.58
470.996	401.19
471.435	395.83
471.874	399.22
472.314	395.54
472.753	405.71
473.192	401.48
473.631	377.47
474.07	400.63
474.509	394.13
474.948	380.58
475.387	404.02
475.826	415.88
476.265	433.94
476.704	394.13
477.143	415.88
477.581	422.93
478.02	387.07
478.458	391.31
478.897	391.59
479.335	405.71
479.774	401.76
480.212	392.72
480.65	420.11
481.089	399.5
481.527	396.96
481.965	402.89
482.403	381.14
482.841	375.77
483.279	408.53
483.717	398.93
484.155	411.36
484.592	396.96
485.03	381.42
485.468	382.84
485.905	411.08
486.343	379.45
486.781	396.11
487.218	389.05
487.655	393
488.093	407.69
488.53	400.35
488.967	392.72
489.405	425.19
489.842	403.45
490.279	415.59
490.716	412.49
491.153	383.4
491.59	417.85
492.027	394.13
492.463	398.65
492.9	394.98
493.337	398.09
493.773	407.97
494.21	427.45
494.647	400.63
495.083	408.25
495.519	388.77
495.956	422.37
496.392	398.65
496.828	416.44
497.265	428.3
497.701	378.88
498.137	405.15
498.573	399.22
499.009	400.06
499.445	411.64
499.881	377.19
500.316	426.89
500.752	394.13
501.188	405.71
501.624	404.86
502.059	371.82
502.495	387.35
502.93	404.02
503.366	487.27
503.801	395.26
504.236	390.18
504.672	395.26
505.107	401.48
505.542	388.48
505.977	376.34
506.412	409.66
506.847	398.65
507.282	394.42
507.717	413.62
508.152	414.46
508.587	388.48
509.021	376.06
509.456	367.3
509.891	385.09
510.325	412.49
510.76	401.48
511.194	422.09
511.628	395.83
512.063	390.74
512.497	393.57
512.931	390.74
513.366	393.29
513.8	381.14
514.234	402.89
514.668	384.25
515.102	374.64
515.536	399.22
515.969	402.6
516.403	373.51
516.837	406.28
517.271	400.06
517.704	389.33
518.138	394.13
518.571	395.26
519.005	354.02
519.438	372.95
519.871	385.09
520.305	425.19
520.738	374.36
521.171	399.22
521.604	387.64
522.037	398.65
522.47	389.9
522.903	373.23
523.336	400.06
523.769	391.87
524.202	398.37
524.634	374.36
525.067	413.33
525.5	385.66
525.932	394.42
526.365	377.75
526.797	383.96
527.23	419.83
527.662	387.92
528.094	378.32
528.527	375.49
528.959	376.62
529.391	400.63
529.823	382.55
530.255	355.15
530.687	399.5
531.119	406.56
531.551	374.08
531.982	379.45
532.414	376.06
532.846	397.52
533.277	395.26
533.709	362.5
534.14	402.6
534.572	393.85
535.003	385.09
535.435	385.09
535.866	370.69
536.297	370.12
536.728	388.77
537.159	399.5
537.59	397.24
538.022	387.92
538.452	398.37
538.883	413.9
539.314	404.86
539.745	392.72
540.176	402.32
540.606	390.74
541.037	390.74
541.468	379.45
541.898	384.25
542.328	361.37
542.759	398.93
543.189	395.54
543.619	385.38
544.05	399.22
544.48	405.71
544.91	398.37
545.34	397.24
545.77	411.08
546.2	382.84
546.63	381.42
547.06	400.06
547.489	385.09
547.919	366.73
548.349	394.13
548.778	393.85
549.208	409.1
549.637	394.7
550.067	366.17
550.496	378.32
550.926	402.6
551.355	416.72
551.784	395.54
552.213	396.96
552.642	393.85
553.071	414.46
553.5	380.58
553.929	387.07
554.358	381.42
554.787	398.65
555.216	392.44
555.645	382.84
556.073	380.86
556.502	400.91
556.93	362.78
557.359	374.08
557.787	369.28
558.216	391.87
558.644	381.42
559.072	393.85
559.5	383.12
559.929	379.45
560.357	397.24
560.785	385.09
561.213	409.95
561.641	393.29
562.068	385.09
562.496	376.62
562.924	381.42
563.352	354.3
563.779	390.18
564.207	377.47
564.634	408.25
565.062	398.09
565.489	389.05
565.917	405.15
566.344	393.57
566.771	382.55
567.198	372.38
567.625	389.05
568.053	365.04
568.48	369.84
568.907	403.73
569.333	407.12
569.76	386.51
570.187	372.1
570.614	366.73
571.04	1676.96
571.467	427.73
571.894	386.51
572.32	394.98
572.747	346.11
573.173	366.73
573.599	367.86
574.026	373.8
574.452	374.64
574.878	386.22
575.304	398.65
575.73	379.73
576.156	386.22
576.582	387.07
577.008	366.73
577.434	382.55
577.86	370.97
578.285	350.91
578.711	375.49
579.137	386.22
579.562	398.37
579.988	382.84
580.413	407.97
580.838	385.09
581.264	392.72
581.689	396.67
582.114	397.52
582.539	491.5
582.964	409.1
583.39	420.39
583.814	402.32
584.239	385.09
584.664	361.65
585.089	349.21
585.514	404.58
585.939	354.02
586.363	364.47
586.788	365.32
587.212	382.84
587.637	417
588.061	384.53
588.485	376.34
588.91	365.04
589.334	389.9
589.758	389.05
590.182	381.71
590.606	352.89
591.03	388.2
591.454	391.03
591.878	383.68
592.302	378.6
592.726	410.51
593.15	385.94
593.573	387.35
593.997	391.03
594.42	371.25
594.844	377.19
595.267	369.84
595.691	344.69
596.114	388.48
596.537	362.21
596.96	392.16
597.384	383.12
597.807	375.49
598.23	390.46
598.653	383.96
599.076	403.17
599.499	369.84
599.921	379.45
600.344	382.84
600.767	380.58
601.189	372.67
601.612	385.94
602.034	375.49
602.457	390.46
602.879	420.11
603.302	404.86
603.724	385.94
604.146	375.77
604.568	382.84
604.991	380.86
605.413	378.6
605.835	413.9
606.257	357.13
606.678	387.92
607.1	404.3
607.522	372.95
607.944	397.52
608.365	379.73
608.787	360.8
609.209	374.64
609.63	389.9
610.051	387.07
610.473	368.99
610.894	367.58
611.315	405.15
611.737	367.02
612.158	389.61
612.579	376.34
613	391.59
613.421	380.58
613.842	385.94
614.263	370.69
614.683	388.77
615.104	374.08
615.525	402.89
615.945	376.62
616.366	370.69
616.787	391.03
617.207	357.13
617.627	378.88
618.048	372.1
618.468	374.36
618.888	393.85
619.308	382.27
619.728	407.97
620.148	391.31
620.568	378.6
620.988	405.99
621.408	379.73
621.828	368.99
622.248	361.93
622.668	417
623.087	385.38
623.507	382.55
623.926	385.09
624.346	366.17
624.765	400.06
625.185	389.61
625.604	381.42
626.023	366.17
626.442	409.38
626.861	394.7
627.28	384.53
627.699	372.1
628.118	380.58
628.537	374.08
628.956	392.44
629.375	379.45
629.794	380.01
630.212	389.05
630.631	363.06
631.049	370.12
631.468	405.71
631.886	370.12
632.305	366.73
632.723	398.09
633.141	381.14
633.559	365.04
633.978	372.38
634.396	389.9
634.814	386.51
635.232	398.37
635.65	388.2
636.067	365.32
636.485	396.39
636.903	365.04
637.321	397.8
637.738	371.54
638.156	407.97
638.573	353.17
638.991	381.14
639.408	419.83
639.825	398.37
640.243	395.83
640.66	365.89
641.077	393
641.494	395.54
641.911	397.52
642.328	371.54
642.745	365.6
643.162	381.71
643.579	374.93
643.995	380.29
644.412	395.54
644.829	370.12
645.245	385.66
645.662	376.06
646.078	389.33
646.495	388.48
646.911	371.82
647.327	389.33
647.743	372.95
648.159	381.42
648.576	391.03
648.992	398.37
649.408	381.42
649.824	389.05
650.239	393.57
650.655	367.02
651.071	388.77
651.487	381.99
651.902	372.38
652.318	387.07
652.733	379.73
653.149	384.25
653.564	400.35
653.979	375.49
654.395	378.88
654.81	377.75
655.225	376.9
655.64	381.42
656.055	364.19
656.47	380.29
656.885	375.49
657.3	388.2
657.715	392.72
658.13	392.16
658.544	389.33
658.959	365.32
659.374	389.61
659.788	387.35
660.202	372.1
660.617	403.17
661.031	391.87
661.445	374.64
661.86	360.52
662.274	378.03
662.688	367.58
663.102	368.15
663.516	416.72
663.93	409.66
664.344	383.4
664.758	398.65
665.171	392.72
665.585	372.95
665.999	361.93
666.412	368.15
666.826	375.21
667.239	394.7
667.653	393.29
668.066	418.42
668.479	390.18
668.892	420.68
669.306	365.6
669.719	380.29
670.132	362.78
670.545	376.06
670.958	332.54
671.37	387.92
671.783	382.27
672.196	392.44
672.609	360.8
673.021	359.67
673.434	376.9
673.846	373.51
674.259	375.21
674.671	372.1
675.084	380.86
675.496	356.28
675.908	391.03
676.32	395.54
676.732	399.78
677.144	370.97
677.556	368.99
677.968	425.76
678.38	389.61
678.792	379.45
679.204	373.8
679.615	396.96
680.027	339.89
680.439	333.67
680.85	393.29
681.262	393.29
681.673	364.47
682.084	368.99
682.496	399.22
682.907	381.71
683.318	378.32
683.729	368.15
684.14	399.5
684.551	376.62
684.962	360.23
685.373	375.77
685.784	374.64
686.194	400.35
686.605	402.89
687.016	378.6
687.426	373.51
687.837	378.88
688.247	385.38
688.657	389.9
689.068	361.65
689.478	389.33
689.888	388.48
690.298	376.62
690.708	381.71
691.118	377.47
691.528	398.09
691.938	405.99
692.348	386.22
692.758	366.17
693.168	370.41
693.577	375.21
693.987	396.11
694.396	392.16
694.806	385.09
695.215	379.73
695.625	366.17
696.034	376.9
696.443	366.45
696.852	387.35
697.262	368.43
697.671	395.54
698.08	387.92
698.489	372.95
698.897	378.32
699.306	385.66
699.715	380.01
700.124	378.88
700.532	380.29
700.941	401.19
701.35	374.36
701.758	391.31
702.166	370.12
702.575	387.92
702.983	378.03
703.391	393
703.799	368.71
704.208	366.17
704.616	369.56
705.024	374.93
705.432	360.23
705.839	389.05
706.247	384.25
706.655	398.65
707.063	376.9
707.47	388.2
707.878	378.88
708.285	385.38
708.693	389.61
709.1	363.34
709.508	378.32
709.915	369.28
710.322	379.16
710.729	364.76
711.136	357.13
711.543	375.77
711.95	381.14
712.357	381.71
712.764	375.21
713.171	372.95
713.578	402.6
713.984	378.6
714.391	392.44
714.797	347.24
715.204	388.48
715.61	356.56
716.017	384.53
716.423	397.8
716.829	379.16
717.236	373.51
717.642	373.23
718.048	389.61
718.454	383.96
718.86	410.23
719.266	389.33
719.671	375.21
720.077	395.83
720.483	363.34
720.889	387.07
721.294	364.19
721.7	362.21
722.105	368.15
722.511	371.82
722.916	381.42
723.321	385.09
723.726	379.73
724.132	367.58
724.537	387.35
724.942	388.77
725.347	396.96
725.752	367.3
726.156	382.27
726.561	386.22
726.966	378.32
727.371	381.71
727.775	365.89
728.18	385.66
728.584	393
728.989	366.45
729.393	398.37
729.798	379.16
730.202	380.86
730.606	354.87
731.01	376.62
731.414	386.22
731.818	367.3
732.222	352.04
732.626	383.12
733.03	383.96
733.434	388.77
733.837	367.86
734.241	358.26
734.645	382.27
735.048	393.57
735.452	406.28
735.855	369.28
736.258	380.86
736.662	404.58
737.065	400.63
737.468	397.8
737.871	398.93
738.274	370.41
738.677	368.71
739.08	364.76
739.483	360.52
739.886	380.58
740.289	373.23
740.691	387.64
741.094	361.93
741.497	373.23
741.899	384.53
742.302	392.72
742.704	372.38
743.106	378.88
743.508	356.84
743.911	383.4
744.313	351.48
744.715	388.2
745.117	385.66
745.519	362.78
745.921	371.54
746.323	387.64
746.724	344.13
747.126	383.4
747.528	386.79
747.929	347.24
748.331	393
748.732	366.73
749.134	380.86
749.535	362.78
749.936	374.08
750.338	373.51
750.739	388.48
751.14	393
751.541	381.14
751.942	384.25
752.343	364.76
752.744	400.35
753.144	377.75
753.545	378.32
753.946	395.54
754.346	378.03
754.747	378.88
755.148	394.13
755.548	377.47
755.948	368.43
756.349	374.93
756.749	389.05
757.149	387.64
757.549	378.32
757.949	396.96
758.349	365.32
758.749	384.81
759.149	393.29
759.549	370.97
759.949	379.45
760.348	393
760.748	372.1
761.148	366.17
761.547	363.91
761.947	372.67
762.346	353.17
762.745	398.09
763.145	397.52
763.544	388.2
763.943	391.31
764.342	361.65
764.741	383.96
765.14	365.6
765.539	381.71
765.938	379.16
766.336	385.94
766.735	361.65
767.134	370.41
767.532	365.89
767.931	363.63
768.329	387.64
768.728	391.87
769.126	381.14
769.525	378.03
769.923	370.41
770.321	381.14
770.719	375.21
771.117	369.56
771.515	383.96
771.913	402.32
772.311	358.82
772.709	378.6
773.106	364.19
773.504	385.09
773.902	392.44
774.299	381.14
774.697	435.92
775.094	423.22
775.491	380.01
775.889	407.12
776.286	371.54
776.683	374.36
777.08	377.75
777.477	362.21
777.874	369.56
778.271	365.04
778.668	375.21
779.065	358.26
779.462	356.56
779.858	381.71
780.255	367.3
780.652	411.36
781.048	379.16
781.444	347.24
781.841	368.15
782.237	360.8
782.633	361.93
783.03	375.21
783.426	369.56
783.822	385.09
784.218	383.68
784.614	386.51
785.01	380.01
785.405	370.12
785.801	367.86
786.197	389.05
786.593	395.83
786.988	368.15
787.384	361.65
787.779	363.91
788.174	367.3
788.57	385.66
788.965	382.55
789.36	362.78
789.755	357.97
790.15	382.84
790.545	411.08
790.94	353.45
791.335	363.34
791.73	377.75
792.125	404.3
792.52	388.77
792.914	368.43
793.309	372.95
793.703	354.3
794.098	371.82
794.492	381.99
794.887	365.6
795.281	391.31
795.675	387.92
796.069	376.62
796.463	356.84
796.857	360.8
797.251	390.18
797.645	362.78
798.039	370.12
798.433	401.19
798.826	359.67
799.22	363.06
799.614	404.02
800.007	351.19
800.401	384.81
800.794	376.34
801.187	386.51
801.581	347.24
801.974	368.15
802.367	411.36
802.76	371.25
803.153	369.56
803.546	331.69
803.939	378.32
804.332	402.6
804.725	352.89
805.117	367.3
805.51	370.69
805.903	357.69
806.295	356.28
806.688	389.61
807.08	370.41
807.472	387.35
807.865	402.04
808.257	396.11
808.649	403.45
809.041	374.93
809.433	403.45
809.825	385.66
810.217	371.54
810.609	361.37
811.001	378.03
811.392	397.52
811.784	378.32
812.175	359.39
812.567	396.96
812.958	417.29
813.35	387.35
813.741	365.89
814.132	396.96
814.524	386.22
814.915	403.17
815.306	344.98
815.697	369.84
816.088	375.77
816.479	376.34
816.87	369.28
817.26	367.02
817.651	375.21
818.042	409.66
818.432	379.45
818.823	373.51
819.213	375.49
819.604	385.09
819.994	377.47
820.384	368.43
820.775	371.82
821.165	379.73
821.555	396.67
821.945	372.1
822.335	378.6
822.725	371.25
823.114	359.95
823.504	386.51
823.894	369.56
824.284	388.77
824.673	386.79
825.063	368.71
825.452	374.08
825.842	333.11
826.231	388.77
826.62	386.22
827.009	393.29
827.399	387.64
827.788	376.06
828.177	378.03
828.566	387.64
828.954	405.43
829.343	404.3
829.732	384.25
830.121	383.68
830.509	394.13
830.898	392.16
831.286	372.38
831.675	397.52
832.063	384.25
832.452	377.47
832.84	426.04
833.228	389.61
833.616	374.93
834.004	370.12
834.392	378.03
834.78	392.44
835.168	368.71
835.556	386.79
835.944	367.3
836.331	375.77
836.719	379.16
837.107	362.78
837.494	381.99
837.881	386.79
838.269	409.1
838.656	376.06
839.043	374.64
839.431	383.12
839.818	363.34
840.205	370.69
840.592	380.29
840.979	389.9
841.366	364.19
841.752	372.67
842.139	376.06
842.526	385.38
842.912	351.19
843.299	370.12
843.685	387.35
844.072	368.71
844.458	399.78
844.844	366.45
845.231	394.13
845.617	391.03
846.003	387.07
846.389	378.88
846.775	385.38
847.161	354.02
847.547	363.06
847.933	381.42
848.318	390.74
848.704	394.42
849.09	380.29
849.475	350.91
849.861	368.71
850.246	391.31
850.631	389.61
851.017	372.1
851.402	357.69
851.787	354.02
852.172	369.28
852.557	375.77
852.942	376.62
853.327	369.56
853.712	362.21
854.097	377.19
854.481	377.19
854.866	397.8
855.25	377.47
855.635	381.14
856.019	350.91
856.404	388.77
856.788	368.99
857.172	382.27
857.557	374.08
857.941	383.4
858.325	378.88
858.709	396.96
859.093	384.53
859.477	362.21
859.86	400.91
860.244	384.25
860.628	396.67
861.012	388.77
861.395	381.42
861.779	387.35
862.162	380.86
862.545	378.6
862.929	345.54
863.312	386.51
863.695	374.36
864.078	383.12
864.461	363.91
864.844	363.91
865.227	383.96
865.61	384.53
865.993	361.65
866.376	408.82
866.758	378.6
867.141	381.71
867.523	370.12
867.906	376.06
868.288	384.25
868.671	342.72
869.053	366.73
869.435	368.15
869.817	349.78
870.199	369.84
870.581	367.3
870.963	368.43
871.345	366.73
871.727	382.55
872.109	348.93
872.491	374.36
872.872	376.34
873.254	389.61
873.635	391.31
874.017	404.86
874.398	379.16
874.779	374.64
875.161	363.63
875.542	358.54
875.923	400.91
876.304	386.22
876.685	386.22
877.066	359.67
877.447	364.19
877.828	387.35
878.208	385.09
878.589	366.45
878.97	378.32
879.35	378.6
879.731	353.45
880.111	371.25
880.491	368.15
880.872	370.41
881.252	360.52
881.632	374.64
882.012	401.19
882.392	387.35
882.772	362.5
883.152	377.19
883.532	366.17
883.912	389.05
884.291	357.41
884.671	369.56
885.051	354.3
885.43	356
885.81	376.34
886.189	358.82
886.568	376.34
886.948	376.9
887.327	378.03
887.706	352.89
888.085	386.51
888.464	387.35
888.843	373.8
889.222	397.8
889.601	381.99
889.979	375.49
890.358	345.54
890.737	390.18
891.115	384.53
891.494	370.97
891.872	375.49
892.25	338.48
892.629	380.86
893.007	394.98
893.385	381.14
893.763	380.01
894.141	385.94
894.519	361.08
894.897	375.77
895.275	396.11
895.653	385.94
896.03	396.39
896.408	380.29
896.786	406.56
897.163	365.04
897.541	367.86
897.918	368.71
898.295	366.73
898.673	367.58
899.05	354.02
899.427	413.05
899.804	358.26
900.181	364.47
900.558	380.01
900.935	400.91
901.312	389.05
901.688	378.88
902.065	382.84
902.442	372.38
902.818	377.75
903.195	332.54
903.571	405.15
903.947	371.82
904.324	365.89
904.7	368.43
905.076	385.09
905.452	356.84
905.828	384.81
906.204	389.33
906.58	362.21
906.956	393
907.331	398.93
907.707	368.43
908.083	377.19
908.458	399.78
908.834	377.19
909.209	395.83
909.585	394.7
909.96	397.8
910.335	372.95
910.71	368.71
911.086	376.34
911.461	395.54
911.836	383.68
912.21	361.93
912.585	401.76
912.96	384.81
913.335	373.23
913.709	353.74
914.084	400.63
914.459	354.58
914.833	365.89
915.207	383.4
915.582	368.43
915.956	386.51
916.33	383.12
916.704	397.52
917.078	372.67
917.452	394.42
917.826	381.99
918.2	380.58
918.574	374.36
918.948	370.69
919.321	362.21
919.695	388.2
920.068	350.06
920.442	383.4
920.815	385.38
921.189	374.08
921.562	385.38
921.935	376.34
922.308	375.21
922.681	369.56
923.054	353.45
923.427	373.8
923.8	368.71
924.173	385.09
924.546	378.88
924.919	368.15
925.291	393
925.664	383.12
926.036	382.84
926.409	363.34
926.781	350.06
927.153	363.34
927.526	403.17
927.898	361.37
928.27	376.62
928.642	352.89
929.014	389.33
929.386	360.8
929.758	359.67
930.129	354.3
930.501	378.03
930.873	361.08
931.244	390.18
931.616	381.14
931.987	361.37
932.359	398.37
932.73	381.99
933.101	379.16
933.472	371.82
933.843	386.79
934.214	371.25
934.585	331.97
934.956	379.45
935.327	399.22
935.698	366.45
936.069	358.26
936.439	386.22
936.81	375.77
937.18	389.05
937.551	383.12
937.921	392.72
938.292	382.55
938.662	369.28
939.032	383.4
939.402	369.28
939.772	353.45
940.142	402.6
940.512	392.44
940.882	369.84
941.252	387.35
941.621	369.56
941.991	373.23
942.361	369.56
942.73	385.09
943.1	386.51
943.469	364.76
943.838	367.86
944.208	378.88
944.577	368.43
944.946	378.32
945.315	373.8
945.684	385.66
946.053	393.85
946.422	386.22
946.791	367.58
947.159	377.19
947.528	365.89
947.897	385.38
948.265	367.86
948.634	364.47
949.002	341.3
949.371	362.78
949.739	366.45
950.107	377.47
950.475	329.71
950.843	396.39
951.211	376.06
951.579	394.7
951.947	344.98
952.315	354.58
952.683	368.71
953.05	364.19
953.418	370.69
953.785	376.62
954.153	377.75
954.52	371.82
954.888	367.86
955.255	351.19
955.622	379.73
955.989	348.37
956.356	369.84
956.723	369.28
957.09	368.99
957.457	378.03
957.824	365.89
958.191	370.69
958.557	362.5
958.924	367.3
959.291	375.49
959.657	390.46
960.023	384.81
960.39	389.9
960.756	390.46
961.122	384.25
961.488	377.75
961.855	392.72
962.221	378.03
962.586	352.61
962.952	392.44
963.318	359.39
963.684	394.98
964.05	372.1
964.415	377.47
964.781	394.7
965.146	379.45
965.512	365.89
965.877	391.59
966.242	381.99
966.608	361.93
966.973	383.4
967.338	366.45
967.703	383.96
968.068	387.07
968.433	363.06
968.797	402.89
969.162	374.08
969.527	385.66
969.891	389.9
970.256	359.95
970.62	365.89
970.985	369.28
971.349	360.52
971.714	398.93
972.078	361.65
972.442	364.47
972.806	382.27
973.17	335.65
973.534	391.87
973.898	381.71
974.262	390.74
974.625	389.33
974.989	398.09
975.353	360.8
975.716	368.99
976.08	382.84
976.443	365.04
976.806	364.76
977.17	383.12
977.533	374.64
977.896	352.04
978.259	370.69
978.622	392.72
978.985	355.15
979.348	397.8
979.711	372.67
980.073	370.41
980.436	373.51
980.799	357.41
981.161	388.2
981.524	386.22
981.886	366.73
982.248	362.5
982.611	379.45
982.973	357.13
983.335	383.68
983.697	413.62
984.059	392.16
984.421	379.45
984.783	354.02
985.145	382.84
985.506	376.9
985.868	355.15
986.23	363.34
986.591	368.43
986.953	373.8
987.314	374.08
987.675	361.37
988.037	1353.59
988.398	401.76
988.759	371.25
989.12	344.98
989.481	360.8
989.842	394.7
990.203	342.72
990.564	366.17
990.924	366.73
991.285	1164
991.646	386.22
992.006	383.68
992.367	373.23
992.727	374.36
993.087	367.02
993.448	361.37
993.808	358.26
994.168	354.02
994.528	360.52
994.888	355.43
995.248	392.16
995.608	365.32
995.967	379.45
996.327	369.56
996.687	361.37
997.046	363.63
997.406	339.32
997.765	356.28
998.125	354.3
998.484	380.01
998.843	375.49
999.202	377.47
999.561	383.96
999.92	357.69
1000.279	404.02
1000.638	353.74
1000.997	370.41
1001.356	378.03
1001.715	381.71
1002.073	376.9
1002.432	361.93
1002.79	372.38
1003.149	356.84
1003.507	381.14
1003.865	378.88
1004.224	370.69
1004.582	381.99
1004.94	367.86
1005.298	372.67
1005.656	369.56
1006.014	377.19
1006.371	407.41
1006.729	347.52
1007.087	405.71
1007.445	375.21
1007.802	370.97
1008.16	353.17
1008.517	368.15
1008.874	365.89
1009.232	333.39
1009.589	404.3
1009.946	368.71
1010.303	356.28
1010.66	391.31
1011.017	379.45
1011.374	397.8
1011.731	389.05
1012.087	377.75
1012.444	375.49
1012.801	370.97
1013.157	357.97
1013.513	374.64
1013.87	357.97
1014.226	371.54
1014.582	365.6
1014.939	376.06
1015.295	386.51
1015.651	347.8
1016.007	365.04
1016.363	363.06
1016.719	382.55
1017.074	373.51
1017.43	347.52
1017.786	363.91
1018.141	354.02
1018.497	345.82
1018.852	358.26
1019.208	393
1019.563	393.85
1019.918	364.47
1020.273	385.09
1020.628	377.47
1020.983	363.91
1021.338	339.89
1021.693	361.65
1022.048	326.6
1022.403	352.04
1022.757	364.47
1023.112	352.32
1023.467	352.89
1023.821	348.37
1024.175	367.02
1024.53	365.89
1024.884	366.73
1025.238	378.32
1025.592	371.25
1025.946	370.41
1026.3	387.64
1026.654	375.21
1027.008	366.73
1027.362	366.73
1027.716	369.56
1028.069	363.34
1028.423	377.47
1028.777	354.3
1029.13	388.2
1029.483	375.77
1029.837	369.56
1030.19	358.54
1030.543	383.12
1030.896	355.71
1031.249	385.66
1031.602	370.41
1031.955	348.65
1032.308	350.35
1032.661	367.02
1033.013	388.2
1033.366	365.89
1033.719	369.28
1034.071	383.4
1034.424	363.91
1034.776	380.01
1035.128	369.56
1035.48	359.39
1035.833	372.38
1036.185	374.08
1036.537	374.08
1036.889	374.08
