Data from SCSF78-3-370-irrad_FLMS019251_11-15-00-840.txt Node
Date: Fri Feb 15 11:15:00 CET 2019
User: luk
Spectrometer: FLMS01925
Trigger mode: 0
Integration Time (sec): 1.399000E-2
Scans to average: 1
Electric dark correction enabled: true
Nonlinearity correction enabled: true
Boxcar width: 0
XAxis mode: Wavelengths
Number of Pixels in Spectrum: 2048
>>>>>Begin Spectral Data<<<<<
187.103	-90.73
187.574	-90.73
188.045	-90.73
188.516	-176.06
188.987	-136.23
189.458	-87.89
189.929	-87.89
190.4	-70.84
190.871	-102.1
191.342	-82.21
191.813	-99.26
192.284	-42.42
192.754	-16.86
193.225	88.14
193.696	73.96
194.166	42.75
194.637	76.8
195.107	-11.18
195.578	45.59
196.048	102.32
196.518	170.33
196.989	176
197.459	212.81
197.929	178.83
198.399	303.35
198.869	371.18
199.339	283.55
199.809	362.71
200.279	357.06
200.749	255.27
201.219	374.01
201.689	427.66
202.159	405.08
202.628	486.92
203.098	306.18
203.568	450.24
204.037	515.12
204.507	419.19
204.976	399.43
205.445	382.48
205.915	368.36
206.384	481.28
206.853	354.23
207.323	472.82
207.792	413.55
208.261	481.28
208.73	385.31
209.199	512.3
209.668	368.36
210.137	402.25
210.606	385.31
211.075	472.82
211.543	388.13
212.012	396.6
212.481	362.71
212.95	354.23
213.418	379.66
213.887	320.31
214.355	427.66
214.824	365.53
215.292	337.27
215.76	441.78
216.229	382.48
216.697	424.84
217.165	382.48
217.633	407.9
218.101	354.23
218.569	424.84
219.037	469.99
219.505	436.13
219.973	320.31
220.441	461.53
220.909	306.18
221.377	419.19
221.844	345.75
222.312	376.83
222.78	379.66
223.247	444.6
223.715	348.58
224.182	441.78
224.65	438.95
225.117	368.36
225.584	359.88
226.052	334.45
226.519	427.66
226.986	317.49
227.453	379.66
227.92	368.36
228.387	413.55
228.854	441.78
229.321	371.18
229.788	379.66
230.255	436.13
230.722	407.9
231.189	337.27
231.655	419.19
232.122	419.19
232.589	317.49
233.055	427.66
233.522	357.06
233.988	472.82
234.454	405.08
234.921	371.18
235.387	351.4
235.853	357.06
236.32	362.71
236.786	396.6
237.252	390.96
237.718	342.93
238.184	385.31
238.65	405.08
239.116	416.37
239.582	385.31
240.047	331.62
240.513	382.48
240.979	424.84
241.445	351.4
241.91	393.78
242.376	399.43
242.841	357.06
243.307	390.96
243.772	393.78
244.238	458.71
244.703	376.83
245.168	464.35
245.633	413.55
246.099	419.19
246.564	379.66
247.029	455.89
247.494	376.83
247.959	385.31
248.424	410.72
248.889	486.92
249.353	416.37
249.818	422.02
250.283	438.95
250.748	410.72
251.212	382.48
251.677	374.01
252.141	422.02
252.606	390.96
253.07	416.37
253.535	351.4
253.999	416.37
254.463	388.13
254.927	424.84
255.392	469.99
255.856	399.43
256.32	407.9
256.784	427.66
257.248	402.25
257.712	453.06
258.176	438.95
258.64	410.72
259.103	340.1
259.567	357.06
260.031	354.23
260.495	436.13
260.958	438.95
261.422	416.37
261.885	436.13
262.349	422.02
262.812	396.6
263.275	458.71
263.739	419.19
264.202	396.6
264.665	416.37
265.128	461.53
265.591	475.64
266.054	410.72
266.517	348.58
266.98	441.78
267.443	447.42
267.906	444.6
268.369	399.43
268.832	436.13
269.294	410.72
269.757	374.01
270.22	410.72
270.682	359.88
271.145	441.78
271.607	371.18
272.07	422.02
272.532	472.82
272.994	424.84
273.456	444.6
273.919	351.4
274.381	422.02
274.843	419.19
275.305	379.66
275.767	455.89
276.229	337.27
276.691	399.43
277.153	376.83
277.614	447.42
278.076	337.27
278.538	374.01
279	444.6
279.461	422.02
279.923	385.31
280.384	481.28
280.846	382.48
281.307	354.23
281.769	495.38
282.23	427.66
282.691	357.06
283.152	396.6
283.613	433.31
284.075	424.84
284.536	413.55
284.997	351.4
285.458	472.82
285.918	489.74
286.379	436.13
286.84	503.84
287.301	410.72
287.762	453.06
288.222	438.95
288.683	419.19
289.143	436.13
289.604	427.66
290.064	478.46
290.525	515.12
290.985	416.37
291.445	475.64
291.906	441.78
292.366	376.83
292.826	492.56
293.286	469.99
293.746	438.95
294.206	489.74
294.666	472.82
295.126	396.6
295.586	362.71
296.046	503.84
296.506	371.18
296.965	430.49
297.425	376.83
297.884	359.88
298.344	441.78
298.804	430.49
299.263	405.08
299.722	444.6
300.182	486.92
300.641	512.3
301.1	433.31
301.559	419.19
302.019	416.37
302.478	461.53
302.937	427.66
303.396	450.24
303.855	484.1
304.314	334.45
304.772	362.71
305.231	390.96
305.69	441.78
306.149	453.06
306.607	424.84
307.066	501.02
307.524	436.13
307.983	478.46
308.441	422.02
308.9	475.64
309.358	444.6
309.816	419.19
310.275	512.3
310.733	382.48
311.191	399.43
311.649	410.72
312.107	416.37
312.565	438.95
313.023	458.71
313.481	422.02
313.939	467.17
314.397	430.49
314.854	481.28
315.312	419.19
315.77	371.18
316.227	399.43
316.685	410.72
317.142	430.49
317.6	405.08
318.057	402.25
318.514	501.02
318.972	450.24
319.429	422.02
319.886	419.19
320.343	407.9
320.8	472.82
321.257	351.4
321.714	478.46
322.171	376.83
322.628	438.95
323.085	503.84
323.542	517.94
323.998	461.53
324.455	427.66
324.912	436.13
325.368	419.19
325.825	458.71
326.281	481.28
326.738	475.64
327.194	413.55
327.65	416.37
328.107	413.55
328.563	419.19
329.019	410.72
329.475	413.55
329.931	464.35
330.387	379.66
330.843	416.37
331.299	376.83
331.755	509.48
332.211	393.78
332.666	458.71
333.122	447.42
333.578	438.95
334.033	433.31
334.489	464.35
334.944	498.2
335.4	424.84
335.855	385.31
336.31	410.72
336.766	444.6
337.221	478.46
337.676	441.78
338.131	472.82
338.586	484.1
339.041	450.24
339.496	399.43
339.951	478.46
340.406	402.25
340.861	441.78
341.316	486.92
341.771	472.82
342.225	467.17
342.68	436.13
343.134	450.24
343.589	523.58
344.043	481.28
344.498	461.53
344.952	447.42
345.406	447.42
345.861	444.6
346.315	407.9
346.769	436.13
347.223	419.19
347.677	385.31
348.131	484.1
348.585	359.88
349.039	469.99
349.493	427.66
349.947	382.48
350.401	396.6
350.854	464.35
351.308	407.9
351.762	464.35
352.215	464.35
352.669	450.24
353.122	399.43
353.575	433.31
354.029	455.89
354.482	433.31
354.935	447.42
355.388	455.89
355.842	416.37
356.295	405.08
356.748	444.6
357.201	486.92
357.654	444.6
358.106	374.01
358.559	447.42
359.012	393.78
359.465	444.6
359.917	433.31
360.37	359.88
360.823	379.66
361.275	390.96
361.728	501.02
362.18	433.31
362.632	424.84
363.085	486.92
363.537	464.35
363.989	517.94
364.441	433.31
364.893	368.36
365.345	489.74
365.797	438.95
366.249	407.9
366.701	444.6
367.153	469.99
367.605	472.82
368.057	396.6
368.508	382.48
368.96	438.95
369.411	509.48
369.863	402.25
370.314	422.02
370.766	436.13
371.217	436.13
371.669	472.82
372.12	503.84
372.571	422.02
373.022	407.9
373.473	475.64
373.924	498.2
374.375	430.49
374.826	517.94
375.277	461.53
375.728	393.78
376.179	371.18
376.63	399.43
377.08	407.9
377.531	402.25
377.981	486.92
378.432	441.78
378.883	376.83
379.333	444.6
379.783	543.31
380.234	393.78
380.684	405.08
381.134	410.72
381.584	461.53
382.034	501.02
382.485	413.55
382.935	458.71
383.385	484.1
383.834	430.49
384.284	512.3
384.734	402.25
385.184	402.25
385.634	447.42
386.083	422.02
386.533	438.95
386.982	469.99
387.432	498.2
387.881	453.06
388.331	467.17
388.78	390.96
389.229	419.19
389.679	444.6
390.128	472.82
390.577	517.94
391.026	475.64
391.475	422.02
391.924	416.37
392.373	402.25
392.822	419.19
393.27	393.78
393.719	461.53
394.168	515.12
394.617	385.31
395.065	461.53
395.514	481.28
395.962	447.42
396.411	486.92
396.859	467.17
397.307	419.19
397.756	379.66
398.204	515.12
398.652	517.94
399.1	568.67
399.548	399.43
399.996	385.31
400.444	503.84
400.892	441.78
401.34	517.94
401.788	489.74
402.236	484.1
402.683	486.92
403.131	546.13
403.579	543.31
404.026	405.08
404.474	436.13
404.921	433.31
405.369	568.67
405.816	382.48
406.263	492.56
406.71	537.67
407.158	529.22
407.605	574.31
408.052	537.67
408.499	571.49
408.946	469.99
409.393	548.95
409.84	515.12
410.286	481.28
410.733	498.2
411.18	515.12
411.626	582.76
412.073	458.71
412.52	526.4
412.966	546.13
413.413	503.84
413.859	492.56
414.305	469.99
414.752	577.13
415.198	653.15
415.644	734.73
416.09	684.11
416.536	819.02
416.982	906.03
417.428	1104.92
417.874	1431.56
418.32	1684.67
418.766	2061.42
419.211	2483.17
419.657	3118.6
420.103	3814.35
420.548	4735.62
420.994	5722.66
421.439	6874.35
421.885	8291.18
422.33	9611.7
422.776	10970.66
423.221	12295.1
423.666	13928.44
424.111	15635.46
424.556	16842.91
425.001	19243.57
425.446	20722.72
425.891	22812.08
426.336	23899.92
426.781	26033.98
427.226	28372.64
427.671	29503.76
428.115	30875.12
428.56	32750.16
429.005	34457.29
429.449	35372.63
429.894	36545.67
430.338	38719.44
430.782	38547.53
431.227	40339.04
431.671	41357.05
432.115	42826.18
432.559	44106.47
433.003	44359.44
433.447	45339.43
433.891	46147.72
434.335	46833.06
434.779	47580.75
435.223	48485.27
435.667	48570.46
436.111	49504.71
436.554	49236.45
436.998	48963.79
437.442	49489.06
437.885	51577.62
438.328	50486.17
438.772	51152.21
439.215	51588.37
439.659	51381.95
440.102	52187.55
440.545	51360.54
440.988	51424.78
441.431	52579.7
441.874	51987.12
442.317	52576.97
442.76	52535.98
443.203	51889.88
443.646	52184.83
444.089	52052.05
444.531	53032.76
444.974	51521.27
445.417	52645.34
445.859	51757.78
446.302	53495.71
446.744	52486.85
447.186	53988.88
447.629	53005.18
448.071	52930.8
448.513	53154.29
448.956	54734.19
449.398	53974.79
449.84	52364.2
450.282	52331.55
450.724	53691.18
451.166	53590.55
451.607	53465.07
452.049	53562.63
452.491	54084.81
452.933	54243.32
453.374	54368.3
453.816	54878.08
454.257	54081.99
454.699	56314.78
455.14	55109.49
455.582	54711.21
456.023	55071.79
456.464	55074.68
456.905	55597.53
457.347	55556.35
457.788	55109.49
458.229	54485.12
458.67	56468.69
459.111	54115.9
459.552	53938.18
459.992	53431.67
460.433	53504.07
460.874	52342.43
461.315	53378.84
461.755	52535.98
462.196	51406.04
462.636	50838.29
463.077	50963.15
463.517	51080.25
463.957	51307.06
464.398	51058.94
464.838	51149.54
465.278	49815.69
465.718	50319.97
466.158	48642.8
466.598	49142.88
467.038	49083.14
467.478	49410.86
467.918	49410.86
468.358	48813.52
468.798	48531.73
469.237	48119.49
469.677	48183.8
470.117	48979.35
470.556	46439.22
470.996	46297.2
471.435	47192.33
471.874	47744.67
472.314	47304.64
472.753	45844.13
473.192	46507.75
473.631	45601.68
474.07	46360.59
474.509	46142.65
474.948	46411.32
475.387	45392.35
475.826	44575.1
476.265	46731.32
476.704	46332.69
477.143	46391.02
477.581	46180.64
478.02	46909.42
478.458	45110.29
478.897	46089.48
479.335	47184.67
479.774	46866.15
480.212	47169.37
480.65	46749.12
481.089	46830.52
481.527	45975.61
481.965	45369.67
482.403	47611.47
482.841	47350.62
483.279	47376.17
483.717	47839.54
484.155	46939.98
484.592	47256.13
485.03	48016.68
485.468	46497.6
485.905	47138.76
486.343	47052.07
486.781	46178.11
487.218	45861.82
487.655	45786.01
488.093	44778.44
488.53	46228.77
488.967	45178.25
489.405	45475.55
489.842	44392.02
490.279	43966.34
490.716	43658.9
491.153	44309.32
491.59	43606.45
492.027	42910.81
492.463	42311.55
492.9	41542.73
493.337	41453.59
493.773	41527.87
494.21	40514.24
494.647	40035.74
495.083	39329.05
495.519	39329.05
495.956	39129.84
496.392	38464.06
496.828	38167.12
497.265	37128.05
497.701	37343.54
498.137	36888.18
498.573	36130
499.009	36809.87
499.445	35314.03
499.881	35250.54
500.316	35365.31
500.752	34088.91
501.188	34340.18
501.624	34496.33
502.059	32903.76
502.495	32316.19
502.93	32138.21
503.366	32759.91
503.801	31677.41
504.236	32052.88
504.672	31265.32
505.107	31192.17
505.542	30272.58
505.977	30467.76
506.412	29577
506.847	30096.89
507.282	29557.47
507.717	29037.32
508.152	29169.21
508.587	28802.79
509.021	28025.43
509.456	27516.52
509.891	27621.76
510.325	27227.64
510.76	26990.08
511.194	26723.02
511.628	27129.69
512.063	26129.66
512.497	26333.24
512.931	25759.11
513.366	25540.59
513.8	25474.28
514.234	24569.64
514.668	24672.96
515.102	25147.51
515.536	23899.92
515.969	24311.22
516.403	23803.82
516.837	23397.02
517.271	23599.23
517.704	23300.82
518.138	23046.64
518.571	22772.56
519.005	22144.77
519.438	22236.27
519.871	21971.59
520.305	21473.96
520.738	21667.14
521.171	20846.77
521.604	21092.31
522.037	20233.56
522.47	20273.31
522.903	19833.37
523.336	20067.07
523.769	19485.07
524.202	18924.66
524.634	19288.39
525.067	18797.53
525.5	18735.19
525.932	18652.9
526.365	18248.64
526.797	18036.36
527.23	18018.88
527.662	17093.43
528.094	17286.21
528.527	17148.52
528.959	16938.13
529.391	16426.67
529.823	15927.04
530.255	16100.36
530.687	15839.09
531.119	15597.74
531.551	15466.93
531.982	15101.91
532.414	14804.55
532.846	14552.33
533.277	14173.6
533.709	14158.45
534.14	13753.91
534.572	13726.08
535.003	13452.66
535.435	13409.6
535.866	13077.53
536.297	12813.61
536.728	12981.13
537.159	12727.26
537.59	12691.7
538.022	12152.57
538.452	12381.59
538.883	11548.38
539.314	11757.6
539.745	11688.73
540.176	11443.69
540.606	11016.74
541.037	11142.1
541.468	10750.4
541.898	10591.45
542.328	10735.02
542.759	10455.47
543.189	10414.4
543.619	10352.78
544.05	10077.81
544.48	9938.87
544.91	9859.07
545.34	9817.86
545.77	9622.01
546.2	9469.81
546.63	9276.14
547.06	9188.26
547.489	8976.13
547.919	8587.34
548.349	8792.22
548.778	8621.07
549.208	8597.72
549.637	8517.25
550.067	8259.97
550.496	8239.16
550.926	8215.74
551.355	7989.2
551.784	8049.12
552.213	7981.38
552.642	7736.18
553.071	7777.94
553.5	7600.34
553.929	7354.44
554.358	7419.88
554.787	7191.99
555.216	7186.75
555.645	7013.58
556.073	7100.19
556.502	6958.43
556.93	6734.96
557.359	6563.78
557.787	6734.96
558.216	6576.96
558.644	6621.75
559.072	6289.39
559.5	6207.47
559.929	6468.87
560.357	6231.26
560.785	6220.69
561.213	6175.74
561.641	6067.28
562.068	6186.32
562.496	5934.86
562.924	5844.73
563.352	5823.51
563.779	5852.68
564.207	5871.24
564.634	5913.66
565.062	5895.1
565.489	5560.58
565.917	5709.38
566.344	5632.35
566.771	5563.24
567.198	5411.56
567.625	5328.98
568.053	5184.97
568.48	5246.33
568.907	5382.26
569.333	5088.85
569.76	4907.04
570.187	4845.47
570.614	5022.04
571.04	5110.21
571.467	4888.3
571.894	4749.02
572.32	4440.28
572.747	4496.73
573.173	4356.89
573.599	4434.9
574.026	4197.96
574.452	4418.77
574.878	4211.44
575.304	4103.56
575.73	4103.56
576.156	4049.57
576.582	3976.64
577.008	4003.66
577.434	3873.89
577.86	3776.44
578.285	3771.03
578.711	3738.52
579.137	3583.95
579.562	3399.19
579.988	3616.51
580.413	3303.95
580.838	3412.79
581.264	3276.71
581.689	3200.42
582.114	3254.92
582.539	3298.5
582.964	3113.14
583.39	3094.03
583.814	3044.89
584.239	2979.32
584.664	2891.82
585.089	2951.99
585.514	2878.14
585.939	2787.79
586.363	2771.35
586.788	2749.43
587.212	2806.96
587.637	2730.24
588.061	2620.52
588.485	2584.83
588.91	2656.2
589.334	2535.39
589.758	2535.39
590.182	2469.42
590.606	2397.89
591.03	2356.6
591.454	2312.53
591.878	2251.89
592.302	2417.15
592.726	2309.77
593.15	2116.68
593.573	2216.04
593.997	2180.17
594.42	2180.17
594.844	2144.29
595.267	2136.01
595.691	2080.76
596.114	2000.6
596.537	2044.84
596.96	2017.19
597.384	1984
597.807	1884.35
598.23	2044.84
598.653	2022.72
599.076	1925.88
599.499	1831.7
599.921	1803.98
600.344	1967.4
600.767	1867.73
601.189	1834.47
601.612	1770.7
602.034	1740.18
602.457	1795.66
602.879	1706.88
603.302	1795.66
603.724	1790.12
604.146	1615.21
604.568	1698.55
604.991	1698.55
605.413	1776.25
605.835	1740.18
606.257	1656.89
606.678	1826.16
607.1	1715.2
607.522	1659.67
607.944	1526.22
608.365	1668
608.787	1579.07
609.209	1573.51
609.63	1551.26
610.051	1490.04
610.473	1473.34
610.894	1584.63
611.315	1470.55
611.737	1548.48
612.158	1556.83
612.579	1386.98
613	1559.61
613.421	1556.83
613.842	1439.92
614.263	1456.63
614.683	1459.42
615.104	1406.49
615.525	1334
615.945	1314.47
616.366	1367.46
616.787	1339.57
617.207	1286.56
617.627	1328.42
618.048	1272.6
618.468	1345.15
618.888	1225.13
619.308	1241.89
619.728	1118.91
620.148	1219.55
620.568	1227.93
620.988	1188.81
621.408	1269.81
621.828	1180.43
622.248	1130.1
622.668	1186.02
623.087	1093.73
623.507	1093.73
623.926	1127.3
624.346	1118.91
624.765	1051.75
625.185	984.53
625.604	990.13
626.023	1068.55
626.442	1057.35
626.861	967.71
627.28	1051.75
627.699	1043.35
628.118	1032.15
628.537	948.09
628.956	998.54
629.375	911.64
629.794	1004.14
630.212	998.54
630.631	945.29
631.049	976.12
631.468	931.27
631.886	978.92
632.305	942.49
632.723	1015.35
633.141	858.33
633.559	892
633.978	903.22
634.396	824.64
634.814	776.89
635.232	799.36
635.65	821.83
636.067	872.36
636.485	799.36
636.903	858.33
637.321	847.1
637.738	745.97
638.156	793.74
638.573	768.46
638.991	804.98
639.408	816.21
639.825	771.27
640.243	776.89
640.66	782.51
641.077	782.51
641.494	894.81
641.911	776.89
642.328	774.08
642.745	754.41
643.162	748.78
643.579	737.54
643.995	729.11
644.412	841.49
644.829	661.6
645.245	731.92
645.662	726.29
646.078	717.86
646.495	779.7
646.911	672.85
647.327	824.64
647.743	760.03
648.159	779.7
648.576	647.53
648.992	644.71
649.408	765.65
649.824	692.55
650.239	793.74
650.655	709.42
651.071	731.92
651.487	661.6
651.902	686.92
652.318	720.67
652.733	672.85
653.149	734.73
653.564	650.34
653.979	684.11
654.395	667.23
654.81	729.11
655.225	625.01
655.64	526.4
656.055	594.03
656.47	664.41
656.885	588.4
657.3	653.15
657.715	610.93
658.13	700.98
658.544	594.03
658.959	579.94
659.374	667.23
659.788	658.78
660.202	630.64
660.617	571.49
661.031	613.74
661.445	602.48
661.86	636.27
662.274	639.08
662.688	532.04
663.102	613.74
663.516	557.4
663.93	534.86
664.344	627.82
664.758	529.22
665.171	647.53
665.585	585.58
665.999	630.64
666.412	577.13
666.826	548.95
667.239	534.86
667.653	565.86
668.066	554.59
668.479	546.13
668.892	627.82
669.306	506.66
669.719	585.58
670.132	501.02
670.545	551.77
670.958	492.56
671.37	571.49
671.783	622.19
672.196	591.21
672.609	492.56
673.021	565.86
673.434	582.76
673.846	641.9
674.259	636.27
674.671	520.76
675.084	512.3
675.496	509.48
675.908	520.76
676.32	596.85
676.732	523.58
677.144	551.77
677.556	546.13
677.968	574.31
678.38	526.4
678.792	574.31
679.204	526.4
679.615	557.4
680.027	554.59
680.439	526.4
680.85	526.4
681.262	537.67
681.673	512.3
682.084	455.89
682.496	447.42
682.907	565.86
683.318	475.64
683.729	517.94
684.14	517.94
684.551	464.35
684.962	489.74
685.373	495.38
685.784	498.2
686.194	469.99
686.605	563.04
687.016	563.04
687.426	520.76
687.837	540.49
688.247	486.92
688.657	436.13
689.068	537.67
689.478	444.6
689.888	526.4
690.298	450.24
690.708	526.4
691.118	548.95
691.528	433.31
691.938	486.92
692.348	430.49
692.758	498.2
693.168	537.67
693.577	467.17
693.987	517.94
694.396	354.23
694.806	489.74
695.215	436.13
695.625	557.4
696.034	436.13
696.443	484.1
696.852	422.02
697.262	447.42
697.671	472.82
698.08	498.2
698.489	453.06
698.897	478.46
699.306	498.2
699.715	481.28
700.124	478.46
700.532	472.82
700.941	506.66
701.35	450.24
701.758	374.01
702.166	551.77
702.575	453.06
702.983	436.13
703.391	526.4
703.799	331.62
704.208	374.01
704.616	467.17
705.024	481.28
705.432	509.48
705.839	455.89
706.247	455.89
706.655	455.89
707.063	430.49
707.47	450.24
707.878	416.37
708.285	455.89
708.693	405.08
709.1	478.46
709.508	481.28
709.915	532.04
710.322	495.38
710.729	379.66
711.136	467.17
711.543	436.13
711.95	472.82
712.357	453.06
712.764	498.2
713.171	427.66
713.578	537.67
713.984	526.4
714.391	410.72
714.797	410.72
715.204	436.13
715.61	407.9
716.017	407.9
716.423	450.24
716.829	427.66
717.236	475.64
717.642	422.02
718.048	506.66
718.454	447.42
718.86	469.99
719.266	337.27
719.671	467.17
720.077	407.9
720.483	441.78
720.889	453.06
721.294	441.78
721.7	472.82
722.105	422.02
722.511	371.18
722.916	393.78
723.321	359.88
723.726	481.28
724.132	501.02
724.537	464.35
724.942	464.35
725.347	385.31
725.752	357.06
726.156	365.53
726.561	484.1
726.966	444.6
727.371	371.18
727.775	458.71
728.18	534.86
728.584	458.71
728.989	427.66
729.393	436.13
729.798	509.48
730.202	455.89
730.606	436.13
731.01	520.76
731.414	526.4
731.818	399.43
732.222	438.95
732.626	441.78
733.03	337.27
733.434	300.52
733.837	405.08
734.241	441.78
734.645	427.66
735.048	419.19
735.452	390.96
735.855	413.55
736.258	450.24
736.662	385.31
737.065	444.6
737.468	464.35
737.871	419.19
738.274	458.71
738.677	472.82
739.08	405.08
739.483	444.6
739.886	478.46
740.289	458.71
740.691	515.12
741.094	424.84
741.497	472.82
741.899	438.95
742.302	464.35
742.704	436.13
743.106	424.84
743.508	453.06
743.911	413.55
744.313	416.37
744.715	385.31
745.117	458.71
745.519	450.24
745.921	402.25
746.323	413.55
746.724	512.3
747.126	368.36
747.528	436.13
747.929	424.84
748.331	368.36
748.732	405.08
749.134	385.31
749.535	481.28
749.936	526.4
750.338	396.6
750.739	407.9
751.14	450.24
751.541	340.1
751.942	430.49
752.343	455.89
752.744	399.43
753.144	385.31
753.545	444.6
753.946	342.93
754.346	489.74
754.747	438.95
755.148	489.74
755.548	393.78
755.948	523.58
756.349	433.31
756.749	424.84
757.149	365.53
757.549	486.92
757.949	427.66
758.349	444.6
758.749	475.64
759.149	376.83
759.549	416.37
759.949	430.49
760.348	410.72
760.748	489.74
761.148	427.66
761.547	396.6
761.947	478.46
762.346	455.89
762.745	399.43
763.145	464.35
763.544	405.08
763.943	444.6
764.342	371.18
764.741	450.24
765.14	455.89
765.539	351.4
765.938	342.93
766.336	385.31
766.735	430.49
767.134	365.53
767.532	342.93
767.931	337.27
768.329	382.48
768.728	455.89
769.126	489.74
769.525	438.95
769.923	447.42
770.321	396.6
770.719	365.53
771.117	461.53
771.515	385.31
771.913	407.9
772.311	416.37
772.709	489.74
773.106	390.96
773.504	410.72
773.902	455.89
774.299	469.99
774.697	382.48
775.094	441.78
775.491	410.72
775.889	354.23
776.286	385.31
776.683	424.84
777.08	427.66
777.477	433.31
777.874	438.95
778.271	489.74
778.668	424.84
779.065	362.71
779.462	495.38
779.858	385.31
780.255	455.89
780.652	396.6
781.048	388.13
781.444	441.78
781.841	371.18
782.237	427.66
782.633	422.02
783.03	399.43
783.426	472.82
783.822	362.71
784.218	515.12
784.614	393.78
785.01	422.02
785.405	357.06
785.801	393.78
786.197	351.4
786.593	396.6
786.988	472.82
787.384	334.45
787.779	402.25
788.174	371.18
788.57	314.66
788.965	283.55
789.36	458.71
789.755	385.31
790.15	362.71
790.545	402.25
790.94	393.78
791.335	351.4
791.73	450.24
792.125	478.46
792.52	407.9
792.914	469.99
793.309	410.72
793.703	396.6
794.098	422.02
794.492	376.83
794.887	520.76
795.281	495.38
795.675	410.72
796.069	472.82
796.463	461.53
796.857	399.43
797.251	407.9
797.645	393.78
798.039	362.71
798.433	447.42
798.826	422.02
799.22	444.6
799.614	447.42
800.007	410.72
800.401	385.31
800.794	438.95
801.187	388.13
801.581	453.06
801.974	422.02
802.367	342.93
802.76	368.36
803.153	444.6
803.546	388.13
803.939	393.78
804.332	342.93
804.725	402.25
805.117	433.31
805.51	388.13
805.903	413.55
806.295	467.17
806.688	464.35
807.08	348.58
807.472	337.27
807.865	430.49
808.257	410.72
808.649	410.72
809.041	396.6
809.433	374.01
809.825	388.13
810.217	444.6
810.609	405.08
811.001	444.6
811.392	416.37
811.784	331.62
812.175	388.13
812.567	475.64
812.958	433.31
813.35	413.55
813.741	427.66
814.132	388.13
814.524	433.31
814.915	399.43
815.306	486.92
815.697	430.49
816.088	461.53
816.479	309.01
816.87	495.38
817.26	484.1
817.651	354.23
818.042	407.9
818.432	467.17
818.823	407.9
819.213	481.28
819.604	410.72
819.994	484.1
820.384	393.78
820.775	422.02
821.165	390.96
821.555	534.86
821.945	368.36
822.335	458.71
822.725	433.31
823.114	402.25
823.504	416.37
823.894	498.2
824.284	475.64
824.673	382.48
825.063	464.35
825.452	379.66
825.842	388.13
826.231	388.13
826.62	379.66
827.009	438.95
827.399	441.78
827.788	337.27
828.177	433.31
828.566	469.99
828.954	385.31
829.343	433.31
829.732	464.35
830.121	416.37
830.509	469.99
830.898	376.83
831.286	376.83
831.675	478.46
832.063	419.19
832.452	374.01
832.84	325.97
833.228	376.83
833.616	399.43
834.004	450.24
834.392	506.66
834.78	430.49
835.168	444.6
835.556	314.66
835.944	441.78
836.331	441.78
836.719	450.24
837.107	382.48
837.494	436.13
837.881	444.6
838.269	450.24
838.656	503.84
839.043	323.14
839.431	362.71
839.818	405.08
840.205	424.84
840.592	441.78
840.979	294.87
841.366	472.82
841.752	419.19
842.139	430.49
842.526	376.83
842.912	427.66
843.299	351.4
843.685	416.37
844.072	444.6
844.458	455.89
844.844	351.4
845.231	478.46
845.617	390.96
846.003	427.66
846.389	359.88
846.775	388.13
847.161	365.53
847.547	402.25
847.933	402.25
848.318	419.19
848.704	399.43
849.09	399.43
849.475	390.96
849.861	396.6
850.246	433.31
850.631	309.01
851.017	461.53
851.402	402.25
851.787	501.02
852.172	472.82
852.557	393.78
852.942	453.06
853.327	345.75
853.712	309.01
854.097	357.06
854.481	447.42
854.866	438.95
855.25	424.84
855.635	484.1
856.019	430.49
856.404	402.25
856.788	475.64
857.172	402.25
857.557	402.25
857.941	450.24
858.325	396.6
858.709	433.31
859.093	436.13
859.477	436.13
859.86	402.25
860.244	410.72
860.628	365.53
861.012	385.31
861.395	453.06
861.779	464.35
862.162	393.78
862.545	416.37
862.929	455.89
863.312	371.18
863.695	410.72
864.078	340.1
864.461	390.96
864.844	399.43
865.227	323.14
865.61	382.48
865.993	444.6
866.376	413.55
866.758	495.38
867.141	413.55
867.523	464.35
867.906	371.18
868.288	481.28
868.671	458.71
869.053	311.83
869.435	382.48
869.817	385.31
870.199	374.01
870.581	368.36
870.963	402.25
871.345	396.6
871.727	297.7
872.109	472.82
872.491	351.4
872.872	396.6
873.254	433.31
873.635	393.78
874.017	441.78
874.398	489.74
874.779	410.72
875.161	455.89
875.542	345.75
875.923	427.66
876.304	422.02
876.685	399.43
877.066	393.78
877.447	340.1
877.828	453.06
878.208	348.58
878.589	450.24
878.97	362.71
879.35	393.78
879.731	399.43
880.111	390.96
880.491	396.6
880.872	388.13
881.252	385.31
881.632	450.24
882.012	413.55
882.392	467.17
882.772	478.46
883.152	382.48
883.532	351.4
883.912	323.14
884.291	405.08
884.671	320.31
885.051	323.14
885.43	388.13
885.81	407.9
886.189	419.19
886.568	399.43
886.948	368.36
887.327	399.43
887.706	388.13
888.085	371.18
888.464	325.97
888.843	357.06
889.222	410.72
889.601	393.78
889.979	447.42
890.358	458.71
890.737	362.71
891.115	393.78
891.494	351.4
891.872	362.71
892.25	436.13
892.629	422.02
893.007	475.64
893.385	388.13
893.763	416.37
894.141	396.6
894.519	461.53
894.897	399.43
895.275	517.94
895.653	464.35
896.03	365.53
896.408	340.1
896.786	484.1
897.163	402.25
897.541	337.27
897.918	376.83
898.295	376.83
898.673	379.66
899.05	379.66
899.427	407.9
899.804	337.27
900.181	388.13
900.558	430.49
900.935	385.31
901.312	342.93
901.688	402.25
902.065	416.37
902.442	455.89
902.818	427.66
903.195	405.08
903.571	413.55
903.947	357.06
904.324	365.53
904.7	424.84
905.076	402.25
905.452	458.71
905.828	390.96
906.204	461.53
906.58	368.36
906.956	407.9
907.331	379.66
907.707	532.04
908.083	396.6
908.458	447.42
908.834	399.43
909.209	424.84
909.585	422.02
909.96	371.18
910.335	402.25
910.71	354.23
911.086	374.01
911.461	444.6
911.836	413.55
912.21	430.49
912.585	325.97
912.96	422.02
913.335	309.01
913.709	345.75
914.084	376.83
914.459	396.6
914.833	433.31
915.207	405.08
915.582	430.49
915.956	314.66
916.33	354.23
916.704	489.74
917.078	475.64
917.452	405.08
917.826	390.96
918.2	438.95
918.574	467.17
918.948	365.53
919.321	402.25
919.695	357.06
920.068	458.71
920.442	444.6
920.815	405.08
921.189	447.42
921.562	396.6
921.935	486.92
922.308	422.02
922.681	430.49
923.054	357.06
923.427	540.49
923.8	444.6
924.173	416.37
924.546	416.37
924.919	441.78
925.291	390.96
925.664	405.08
926.036	458.71
926.409	402.25
926.781	450.24
927.153	436.13
927.526	441.78
927.898	492.56
928.27	379.66
928.642	458.71
929.014	407.9
929.386	410.72
929.758	374.01
930.129	379.66
930.501	447.42
930.873	410.72
931.244	427.66
931.616	416.37
931.987	419.19
932.359	430.49
932.73	354.23
933.101	306.18
933.472	306.18
933.843	365.53
934.214	359.88
934.585	410.72
934.956	388.13
935.327	388.13
935.698	348.58
936.069	362.71
936.439	388.13
936.81	450.24
937.18	359.88
937.551	357.06
937.921	438.95
938.292	382.48
938.662	447.42
939.032	351.4
939.402	498.2
939.772	374.01
940.142	419.19
940.512	402.25
940.882	438.95
941.252	444.6
941.621	410.72
941.991	422.02
942.361	379.66
942.73	430.49
943.1	388.13
943.469	427.66
943.838	337.27
944.208	407.9
944.577	455.89
944.946	320.31
945.315	390.96
945.684	424.84
946.053	455.89
946.422	320.31
946.791	399.43
947.159	447.42
947.528	447.42
947.897	371.18
948.265	388.13
948.634	461.53
949.002	469.99
949.371	396.6
949.739	390.96
950.107	427.66
950.475	323.14
950.843	419.19
951.211	354.23
951.579	419.19
951.947	379.66
952.315	396.6
952.683	405.08
953.05	495.38
953.418	337.27
953.785	368.36
954.153	365.53
954.52	424.84
954.888	402.25
955.255	379.66
955.622	413.55
955.989	337.27
956.356	458.71
956.723	396.6
957.09	362.71
957.457	340.1
957.824	453.06
958.191	396.6
958.557	416.37
958.924	269.41
959.291	427.66
959.657	371.18
960.023	416.37
960.39	362.71
960.756	357.06
961.122	351.4
961.488	424.84
961.855	453.06
962.221	438.95
962.586	374.01
962.952	433.31
963.318	447.42
963.684	388.13
964.05	419.19
964.415	388.13
964.781	325.97
965.146	357.06
965.512	371.18
965.877	376.83
966.242	331.62
966.608	447.42
966.973	447.42
967.338	402.25
967.703	410.72
968.068	342.93
968.433	413.55
968.797	396.6
969.162	424.84
969.527	472.82
969.891	427.66
970.256	390.96
970.62	472.82
970.985	407.9
971.349	340.1
971.714	396.6
972.078	362.71
972.442	334.45
972.806	405.08
973.17	348.58
973.534	450.24
973.898	382.48
974.262	424.84
974.625	294.87
974.989	379.66
975.353	447.42
975.716	345.75
976.08	323.14
976.443	433.31
976.806	328.8
977.17	379.66
977.533	385.31
977.896	413.55
978.259	365.53
978.622	365.53
978.985	424.84
979.348	416.37
979.711	345.75
980.073	331.62
980.436	405.08
980.799	402.25
981.161	379.66
981.524	396.6
981.886	433.31
982.248	385.31
982.611	458.71
982.973	362.71
983.335	376.83
983.697	382.48
984.059	399.43
984.421	424.84
984.783	438.95
985.145	376.83
985.506	317.49
985.868	382.48
986.23	334.45
986.591	430.49
986.953	399.43
987.314	382.48
987.675	357.06
988.037	627.82
988.398	455.89
988.759	399.43
989.12	368.36
989.481	345.75
989.842	345.75
990.203	348.58
990.564	438.95
990.924	374.01
991.285	498.2
991.646	374.01
992.006	407.9
992.367	436.13
992.727	422.02
993.087	388.13
993.448	371.18
993.808	376.83
994.168	413.55
994.528	489.74
994.888	371.18
995.248	385.31
995.608	371.18
995.967	402.25
996.327	438.95
996.687	357.06
997.046	433.31
997.406	413.55
997.765	379.66
998.125	306.18
998.484	407.9
998.843	405.08
999.202	357.06
999.561	390.96
999.92	376.83
1000.279	472.82
1000.638	430.49
1000.997	453.06
1001.356	407.9
1001.715	444.6
1002.073	458.71
1002.432	416.37
1002.79	461.53
1003.149	405.08
1003.507	393.78
1003.865	351.4
1004.224	458.71
1004.582	430.49
1004.94	402.25
1005.298	351.4
1005.656	388.13
1006.014	441.78
1006.371	405.08
1006.729	328.8
1007.087	393.78
1007.445	427.66
1007.802	393.78
1008.16	317.49
1008.517	416.37
1008.874	453.06
1009.232	402.25
1009.589	385.31
1009.946	393.78
1010.303	492.56
1010.66	303.35
1011.017	453.06
1011.374	342.93
1011.731	447.42
1012.087	385.31
1012.444	345.75
1012.801	382.48
1013.157	438.95
1013.513	396.6
1013.87	427.66
1014.226	413.55
1014.582	407.9
1014.939	447.42
1015.295	489.74
1015.651	390.96
1016.007	334.45
1016.363	422.02
1016.719	413.55
1017.074	450.24
1017.43	402.25
1017.786	323.14
1018.141	365.53
1018.497	390.96
1018.852	458.71
1019.208	436.13
1019.563	351.4
1019.918	388.13
1020.273	469.99
1020.628	362.71
1020.983	357.06
1021.338	292.04
1021.693	342.93
1022.048	441.78
1022.403	422.02
1022.757	396.6
1023.112	413.55
1023.467	292.04
1023.821	376.83
1024.175	376.83
1024.53	388.13
1024.884	407.9
1025.238	436.13
1025.592	410.72
1025.946	405.08
1026.3	455.89
1026.654	410.72
1027.008	469.99
1027.362	405.08
1027.716	357.06
1028.069	388.13
1028.423	399.43
1028.777	323.14
1029.13	419.19
1029.483	430.49
1029.837	416.37
1030.19	461.53
1030.543	430.49
1030.896	371.18
1031.249	416.37
1031.602	340.1
1031.955	390.96
1032.308	461.53
1032.661	419.19
1033.013	447.42
1033.366	410.72
1033.719	289.21
1034.071	345.75
1034.424	489.74
1034.776	407.9
1035.128	371.18
1035.48	379.66
1035.833	368.36
1036.185	348.58
1036.537	348.58
1036.889	348.58
