Data from SCSF78-3-370-irrad_FLMS019251_11-14-58-842.txt Node
Date: Fri Feb 15 11:14:58 CET 2019
User: luk
Spectrometer: FLMS01925
Trigger mode: 0
Integration Time (sec): 1.399000E-2
Scans to average: 1
Electric dark correction enabled: true
Nonlinearity correction enabled: true
Boxcar width: 0
XAxis mode: Wavelengths
Number of Pixels in Spectrum: 2048
>>>>>Begin Spectral Data<<<<<
187.103	-12.96
187.574	-12.96
188.045	-12.96
188.516	-123.79
188.987	-75.46
189.458	-155.08
189.929	-143.7
190.4	-109.57
190.871	-78.3
191.342	-66.93
191.813	-95.35
192.284	-61.25
192.754	-32.84
193.225	29.63
193.696	-21.47
194.166	77.86
194.637	100.55
195.107	69.35
195.578	179.89
196.048	143.06
196.518	162.9
196.989	134.56
197.459	278.96
197.929	196.89
198.399	247.84
198.869	307.24
199.339	298.76
199.809	389.19
200.279	335.51
200.749	383.54
201.219	414.61
201.689	369.42
202.159	442.83
202.628	377.89
203.098	349.64
203.568	451.3
204.037	377.89
204.507	295.93
204.976	482.34
205.445	360.94
205.915	440.01
206.384	459.77
206.853	448.48
207.323	462.59
207.792	383.54
208.261	349.64
208.73	304.41
209.199	366.59
209.668	496.44
210.137	479.52
210.606	411.78
211.075	377.89
211.543	341.16
212.012	383.54
212.481	499.26
212.95	397.66
213.418	301.58
213.887	442.83
214.355	349.64
214.824	307.24
215.292	380.72
215.76	434.37
216.229	329.86
216.697	360.94
217.165	335.51
217.633	315.72
218.101	380.72
218.569	324.2
219.037	338.33
219.505	321.37
219.973	349.64
220.441	343.99
220.909	327.03
221.377	321.37
221.844	392.01
222.312	377.89
222.78	358.12
223.247	304.41
223.715	301.58
224.182	394.84
224.65	363.77
225.117	445.66
225.584	355.29
226.052	400.49
226.519	394.84
226.986	358.12
227.453	375.07
227.92	352.46
228.387	358.12
228.854	349.64
229.321	349.64
229.788	341.16
230.255	346.81
230.722	355.29
231.189	321.37
231.655	389.19
232.122	397.66
232.589	343.99
233.055	375.07
233.522	324.2
233.988	442.83
234.454	403.31
234.921	420.25
235.387	295.93
235.853	400.49
236.32	414.61
236.786	411.78
237.252	454.12
237.718	358.12
238.184	397.66
238.65	327.03
239.116	352.46
239.582	408.96
240.047	445.66
240.513	403.31
240.979	332.68
241.445	369.42
241.91	375.07
242.376	369.42
242.841	360.94
243.307	392.01
243.772	321.37
244.238	335.51
244.703	411.78
245.168	343.99
245.633	451.3
246.099	375.07
246.564	468.23
247.029	437.19
247.494	425.9
247.959	372.24
248.424	425.9
248.889	375.07
249.353	366.59
249.818	383.54
250.283	332.68
250.748	298.76
251.212	392.01
251.677	454.12
252.141	389.19
252.606	420.25
253.07	403.31
253.535	389.19
253.999	363.77
254.463	324.2
254.927	397.66
255.392	451.3
255.856	358.12
256.32	471.05
256.784	440.01
257.248	278.96
257.712	355.29
258.176	298.76
258.64	383.54
259.103	389.19
259.567	389.19
260.031	369.42
260.495	301.58
260.958	473.87
261.422	392.01
261.885	369.42
262.349	338.33
262.812	445.66
263.275	377.89
263.739	406.13
264.202	372.24
264.665	417.43
265.128	425.9
265.591	352.46
266.054	372.24
266.517	377.89
266.98	462.59
267.443	394.84
267.906	352.46
268.369	479.52
268.832	459.77
269.294	406.13
269.757	372.24
270.22	380.72
270.682	329.86
271.145	468.23
271.607	406.13
272.07	406.13
272.532	372.24
272.994	363.77
273.456	442.83
273.919	440.01
274.381	389.19
274.843	456.94
275.305	369.42
275.767	341.16
276.229	383.54
276.691	454.12
277.153	341.16
277.614	372.24
278.076	380.72
278.538	479.52
279	471.05
279.461	397.66
279.923	355.29
280.384	440.01
280.846	408.96
281.307	502.08
281.769	403.31
282.23	397.66
282.691	366.59
283.152	397.66
283.613	363.77
284.075	327.03
284.536	335.51
284.997	380.72
285.458	380.72
285.918	403.31
286.379	400.49
286.84	411.78
287.301	360.94
287.762	417.43
288.222	400.49
288.683	482.34
289.143	448.48
289.604	490.8
290.064	383.54
290.525	369.42
290.985	417.43
291.445	417.43
291.906	369.42
292.366	372.24
292.826	428.72
293.286	389.19
293.746	360.94
294.206	366.59
294.666	411.78
295.126	423.07
295.586	392.01
296.046	383.54
296.506	363.77
296.965	375.07
297.425	380.72
297.884	445.66
298.344	372.24
298.804	437.19
299.263	369.42
299.722	485.16
300.182	448.48
300.641	383.54
301.1	332.68
301.559	406.13
302.019	507.72
302.478	406.13
302.937	473.87
303.396	476.69
303.855	349.64
304.314	400.49
304.772	406.13
305.231	298.76
305.69	476.69
306.149	366.59
306.607	448.48
307.066	389.19
307.524	380.72
307.983	335.51
308.441	363.77
308.9	507.72
309.358	431.54
309.816	394.84
310.275	417.43
310.733	403.31
311.191	423.07
311.649	482.34
312.107	338.33
312.565	366.59
313.023	428.72
313.481	454.12
313.939	417.43
314.397	411.78
314.854	442.83
315.312	468.23
315.77	437.19
316.227	468.23
316.685	442.83
317.142	414.61
317.6	408.96
318.057	360.94
318.514	437.19
318.972	392.01
319.429	389.19
319.886	431.54
320.343	519
320.8	377.89
321.257	310.07
321.714	414.61
322.171	392.01
322.628	360.94
323.085	437.19
323.542	352.46
323.998	445.66
324.455	366.59
324.912	360.94
325.368	434.37
325.825	442.83
326.281	312.89
326.738	346.81
327.194	451.3
327.65	448.48
328.107	431.54
328.563	406.13
329.019	400.49
329.475	423.07
329.931	332.68
330.387	392.01
330.843	293.1
331.299	493.62
331.755	437.19
332.211	408.96
332.666	434.37
333.122	473.87
333.578	456.94
334.033	389.19
334.489	408.96
334.944	510.54
335.4	417.43
335.855	380.72
336.31	459.77
336.766	375.07
337.221	499.26
337.676	440.01
338.131	423.07
338.586	440.01
339.041	408.96
339.496	369.42
339.951	423.07
340.406	375.07
340.861	468.23
341.316	352.46
341.771	372.24
342.225	341.16
342.68	363.77
343.134	448.48
343.589	403.31
344.043	293.1
344.498	431.54
344.952	448.48
345.406	411.78
345.861	298.76
346.315	343.99
346.769	397.66
347.223	513.36
347.677	392.01
348.131	437.19
348.585	465.41
349.039	431.54
349.493	397.66
349.947	423.07
350.401	496.44
350.854	442.83
351.308	414.61
351.762	420.25
352.215	403.31
352.669	394.84
353.122	369.42
353.575	411.78
354.029	408.96
354.482	400.49
354.935	394.84
355.388	445.66
355.842	414.61
356.295	375.07
356.748	482.34
357.201	462.59
357.654	420.25
358.106	468.23
358.559	437.19
359.012	434.37
359.465	456.94
359.917	459.77
360.37	341.16
360.823	394.84
361.275	375.07
361.728	408.96
362.18	366.59
362.632	425.9
363.085	502.08
363.537	465.41
363.989	465.41
364.441	487.98
364.893	490.8
365.345	459.77
365.797	386.37
366.249	386.37
366.701	307.24
367.153	448.48
367.605	440.01
368.057	487.98
368.508	437.19
368.96	380.72
369.411	338.33
369.863	383.54
370.314	482.34
370.766	434.37
371.217	411.78
371.669	485.16
372.12	445.66
372.571	490.8
373.022	403.31
373.473	380.72
373.924	423.07
374.375	414.61
374.826	471.05
375.277	343.99
375.728	394.84
376.179	346.81
376.63	366.59
377.08	400.49
377.531	487.98
377.981	428.72
378.432	451.3
378.883	380.72
379.333	352.46
379.783	414.61
380.234	473.87
380.684	456.94
381.134	400.49
381.584	459.77
382.034	462.59
382.485	394.84
382.935	459.77
383.385	431.54
383.834	428.72
384.284	485.16
384.734	428.72
385.184	496.44
385.634	448.48
386.083	417.43
386.533	428.72
386.982	423.07
387.432	445.66
387.881	400.49
388.331	445.66
388.78	445.66
389.229	420.25
389.679	448.48
390.128	380.72
390.577	369.42
391.026	420.25
391.475	403.31
391.924	423.07
392.373	479.52
392.822	473.87
393.27	521.82
393.719	406.13
394.168	392.01
394.617	386.37
395.065	451.3
395.514	459.77
395.962	451.3
396.411	485.16
396.859	397.66
397.307	502.08
397.756	411.78
398.204	507.72
398.652	417.43
399.1	358.12
399.548	465.41
399.996	454.12
400.444	468.23
400.892	502.08
401.34	507.72
401.788	386.37
402.236	448.48
402.683	392.01
403.131	504.9
403.579	445.66
404.026	471.05
404.474	473.87
404.921	440.01
405.369	519
405.816	442.83
406.263	496.44
406.71	513.36
407.158	468.23
407.605	490.8
408.052	487.98
408.499	445.66
408.946	566.91
409.393	454.12
409.84	408.96
410.286	442.83
410.733	459.77
411.18	487.98
411.626	437.19
412.073	555.64
412.52	448.48
412.966	524.64
413.413	521.82
413.859	507.72
414.305	583.82
414.752	547.19
415.198	561.28
415.644	690.79
416.09	732.97
416.536	783.56
416.982	909.89
417.428	1075.19
417.874	1245.73
418.32	1638.49
418.766	2045.87
419.211	2544.66
419.657	3285.9
420.103	4047.88
420.548	4720.54
420.994	5707.72
421.439	6812.23
421.885	8037.08
422.33	9509.49
422.776	10628.32
423.221	12290.96
423.666	13577.69
424.111	15892.8
424.556	17081.85
425.001	18800.96
425.446	20837.78
425.891	22383.07
426.336	23723.41
426.781	25399.06
427.226	28534.89
427.671	29363.06
428.115	30432.08
428.56	32885.17
429.005	34441.13
429.449	35144.03
429.894	37373.85
430.338	38548.45
430.782	38678.6
431.227	40409.05
431.671	41046.29
432.115	42498.82
432.559	44087.38
433.003	44425.55
433.447	45267.32
433.891	46376.75
434.335	46933.29
434.779	47681.58
435.223	48089.6
435.667	48341.84
436.111	48954.39
436.554	49688.48
436.998	49208.82
437.442	49573.54
437.885	51382.95
438.328	50495.08
438.772	50863.17
439.215	51134.54
439.659	51171.88
440.102	51812.67
440.545	51273.32
440.988	51361.55
441.431	52324.41
441.874	51845.02
442.317	52299.93
442.76	52161.44
443.203	51420.43
443.646	52305.37
444.089	52126.19
444.531	52725.81
444.974	51570.58
445.417	52794.39
445.859	51664.61
446.302	52918.07
446.744	52365.22
447.186	54029.41
447.629	52791.64
448.071	52962.12
448.513	52498.78
448.956	53902.65
449.398	53277.17
449.84	52316.25
450.282	52340.73
450.724	53238.37
451.166	52896.06
451.607	53089
452.049	52876.81
452.491	54001.21
452.933	53647.48
453.374	54165.05
453.816	54841.69
454.257	53882.97
454.699	55578.04
455.14	54715.16
455.582	54669.26
456.023	55226.86
456.464	55492.84
456.905	55566.27
457.347	55337.68
457.788	54369.37
458.229	54706.55
458.67	55873.53
459.111	53569.26
459.552	54071.75
459.992	53277.17
460.433	53435.5
460.874	52373.39
461.315	52967.63
461.755	52654.58
462.196	51872
462.636	51057.28
463.077	51033.31
463.517	50400.06
463.957	51401.69
464.398	50873.79
464.838	50614.04
465.278	49712.01
465.718	49281.64
466.158	48773.08
466.598	48749.79
467.038	48261.98
467.478	48827.43
467.918	49437.9
468.358	48035.63
468.798	47968.84
469.237	47920.05
469.677	47602.19
470.117	48690.3
470.556	45569.82
470.996	46600.12
471.435	46359
471.874	47075.97
472.314	47287.72
472.753	46186.66
473.192	46163.86
473.631	45786.96
474.07	45779.38
474.509	45837.5
474.948	46176.52
475.387	45632.92
475.826	44540.92
476.265	46645.85
476.704	46037.28
477.143	46277.87
477.581	46110.68
478.02	46468.09
478.458	45086.08
478.897	46044.87
479.335	47075.97
479.774	46397.05
480.212	47241.77
480.65	46704.31
481.089	46389.44
481.527	45895.64
481.965	45259.77
482.403	47415.46
482.841	47137.16
483.279	47264.75
483.717	46989.33
484.155	47269.85
484.592	47512.63
485.03	46879.83
485.468	45766.75
485.905	46374.22
486.343	47017.35
486.781	46055
487.218	45206.89
487.655	45179.19
488.093	44500.78
488.53	45915.86
488.967	44408.01
489.405	44593.6
489.842	43952.27
490.279	44024.82
490.716	43282.99
491.153	44094.89
491.59	43317.9
492.027	42565.93
492.463	41761.69
492.9	41667.52
493.337	41108.1
493.773	41432.24
494.21	40342.43
494.647	40184.58
495.083	39044.71
495.519	38909.53
495.956	38794.05
496.392	38538.63
496.828	37822.26
497.265	36793.66
497.701	37026.16
498.137	37246.5
498.573	36360.73
499.009	36350.95
499.445	35339.36
499.881	34504.57
500.316	35263.66
500.752	34197.16
501.188	34241.07
501.624	33936.16
502.059	32529.21
502.495	32297.6
502.93	32375.62
503.366	32368.3
503.801	32005.04
504.236	31580.79
504.672	31029.69
505.107	30273.49
505.542	30192.97
505.977	29853.76
506.412	29524.21
506.847	29887.93
507.282	29113.95
507.717	28864.79
508.152	28674.2
508.587	28617.99
509.021	27483.17
509.456	27796.4
509.891	27534.57
510.325	27444.01
510.76	27013.05
511.194	26836.66
511.628	26993.45
512.063	26142.85
512.497	25895.03
512.931	25958.84
513.366	25610.27
513.8	25428.53
514.234	24659.13
514.668	24317.06
515.102	24909.99
515.536	23785.03
515.969	24275.21
516.403	23634.67
516.837	23101.87
517.271	23331.35
517.704	22672.21
518.138	22800.66
518.571	22380.6
519.005	21940.35
519.438	21796.81
519.871	21695.31
520.305	21229.58
520.738	21013.89
521.171	20922.12
521.604	20934.52
522.037	20515.14
522.47	20082.92
522.903	19752.23
523.336	19704.97
523.769	19558.17
524.202	18768.54
524.634	18915.63
525.067	18751.09
525.5	18132.21
525.932	18539.09
526.365	17982.34
526.797	17632.4
527.23	17799.91
527.662	17039.27
528.094	17121.91
528.527	16984.16
528.959	16658.36
529.391	16495.35
529.823	15998.32
530.255	15769.65
530.687	15518.19
531.119	15399.94
531.551	15188.48
531.982	15039.88
532.414	14802.98
532.846	14222.55
533.277	14401.84
533.709	14022.93
534.14	13668.82
534.572	13732.09
535.003	13582.76
535.435	13009.99
535.866	13093.7
536.297	12799.32
536.728	12860.26
537.159	12649.47
537.59	12189.16
538.022	12336.76
538.452	11852.9
538.883	11837.61
539.314	11707.55
539.745	11439.54
540.176	11375.68
540.606	11050.96
541.037	11089.34
541.468	10733.42
541.898	10812.85
542.328	10448.73
542.759	10459
543.189	10294.67
543.619	10402.53
544.05	9991.31
544.48	9664.23
544.91	9844.58
545.34	9617.82
545.77	9496.59
546.2	9305.53
546.63	9155.62
547.06	9194.4
547.489	8837.25
547.919	8730.98
548.349	8775.05
548.778	8886.47
549.208	8505.24
549.637	8247.94
550.067	8325.96
550.496	8299.95
550.926	8268.75
551.355	8008.42
551.784	8026.66
552.213	7805.02
552.642	7682.32
553.071	7650.97
553.5	7515.05
553.929	7292.56
554.358	7292.56
554.787	7166.75
555.216	7046.07
555.645	7067.06
556.073	7040.82
556.502	6946.28
556.93	6714.89
557.359	6701.73
557.787	6591.12
558.216	6593.76
558.644	6308.87
559.072	6472.5
559.5	6184.67
559.929	6293.02
560.357	6163.51
560.785	6137.06
561.213	6113.26
561.641	6126.48
562.068	6060.33
562.496	5962.35
562.924	5843.07
563.352	5821.85
563.779	5906.7
564.207	5896.1
564.634	5723.66
565.062	5744.89
565.489	5665.23
565.917	5553.6
566.344	5489.75
566.771	5476.45
567.198	5407.23
567.625	5297.99
568.053	5364.62
568.48	5289.99
568.907	5119.23
569.333	5105.87
569.76	4900.01
570.187	5009.68
570.614	4843.79
571.04	5041.75
571.467	4733.94
571.894	4642.75
572.32	4546.1
572.747	4527.3
573.173	4314.83
573.599	4263.65
574.026	4126.16
574.452	4201.67
574.878	4325.59
575.304	4026.28
575.73	4037.08
576.156	4018.18
576.582	3996.56
577.008	3723.28
577.434	3804.54
577.86	3766.62
578.285	3780.17
578.711	3639.23
579.137	3587.68
579.562	3400.21
579.988	3479.05
580.413	3329.47
580.838	3313.13
581.264	3313.13
581.689	3231.42
582.114	3160.54
582.539	3272.29
582.964	3127.8
583.39	3155.08
583.814	3054.11
584.239	2936.61
584.664	2909.26
585.089	2898.31
585.514	2835.37
585.939	2920.2
586.363	2753.2
586.788	2827.16
587.212	2799.77
587.637	2668.2
588.061	2431.94
588.485	2616.06
588.91	2511.69
589.334	2431.94
589.758	2591.35
590.182	2533.67
590.606	2387.91
591.03	2412.68
591.454	2269.47
591.878	2321.82
592.302	2330.09
592.726	2319.07
593.15	2137.04
593.573	2197.76
593.997	2020.99
594.42	2067.98
594.844	2128.76
595.267	1993.33
595.691	2172.93
596.114	2040.34
596.537	1993.33
596.96	2007.16
597.384	2059.69
597.807	1890.92
598.23	1985.04
598.653	1993.33
599.076	1913.08
599.499	1838.28
599.921	1816.11
600.344	1818.88
600.767	1860.45
601.189	1771.74
601.612	1699.59
602.034	1865.99
602.457	1713.47
602.879	1805.02
603.302	1705.14
603.724	1757.87
604.146	1768.97
604.568	1644.04
604.991	1644.04
605.413	1660.71
605.835	1682.93
606.257	1649.6
606.678	1552.31
607.1	1591.24
607.522	1571.77
607.944	1638.49
608.365	1638.49
608.787	1630.15
609.209	1449.32
609.63	1477.17
610.051	1527.27
610.473	1538.4
610.894	1524.49
611.315	1510.57
611.737	1513.35
612.158	1543.96
612.579	1477.17
613	1348.99
613.421	1290.4
613.842	1354.56
614.263	1429.82
614.683	1368.51
615.104	1376.87
615.525	1321.09
615.945	1362.93
616.366	1212.21
616.787	1259.69
617.207	1150.72
617.627	1100.38
618.048	1262.48
618.468	1304.35
618.888	1321.09
619.308	1295.98
619.728	1226.18
620.148	1240.14
620.568	1220.59
620.988	1100.38
621.408	1161.91
621.828	1192.65
622.248	1133.95
622.668	1161.91
623.087	1192.65
623.507	1139.54
623.926	1125.56
624.346	1136.74
624.765	988.38
625.185	1052.8
625.604	960.36
626.023	1007.99
626.442	1058.4
626.861	1058.4
627.28	1016.4
627.699	1016.4
628.118	949.14
628.537	923.91
628.956	968.77
629.375	977.17
629.794	988.38
630.212	999.59
630.631	935.13
631.049	918.3
631.468	935.13
631.886	968.77
632.305	879.03
632.723	806.03
633.141	926.71
633.559	845.35
633.978	907.08
634.396	850.96
634.814	836.92
635.232	870.61
635.65	839.73
636.067	780.75
636.485	853.77
636.903	870.61
637.321	769.51
637.738	870.61
638.156	791.99
638.573	828.5
638.991	763.89
639.408	763.89
639.825	741.41
640.243	758.27
640.66	808.84
641.077	845.35
641.494	794.8
641.911	704.85
642.328	780.75
642.745	766.7
643.162	822.88
643.579	707.66
643.995	657.02
644.412	673.91
644.829	687.98
645.245	687.98
645.662	727.35
646.078	662.65
646.495	710.48
646.911	772.32
647.327	665.47
647.743	651.4
648.159	637.32
648.576	682.35
648.992	657.02
649.408	682.35
649.824	665.47
650.239	628.88
650.655	685.16
651.071	623.25
651.487	690.79
651.902	648.58
652.318	671.09
652.733	637.32
653.149	611.98
653.564	640.14
653.979	651.4
654.395	600.72
654.81	566.91
655.225	640.14
655.64	631.69
656.055	676.72
656.47	662.65
656.885	595.08
657.3	597.9
657.715	558.46
658.13	659.84
658.544	676.72
658.959	547.19
659.374	558.46
659.788	645.77
660.202	544.37
660.617	569.73
661.031	589.45
661.445	572.55
661.86	561.28
662.274	628.88
662.688	702.04
663.102	555.64
663.516	530.27
663.93	603.53
664.344	586.63
664.758	611.98
665.171	589.45
665.585	519
665.999	606.35
666.412	564.1
666.826	533.09
667.239	533.09
667.653	507.72
668.066	519
668.479	631.69
668.892	566.91
669.306	572.55
669.719	552.82
670.132	507.72
670.545	569.73
670.958	544.37
671.37	569.73
671.783	468.23
672.196	535.91
672.609	538.73
673.021	550.01
673.434	487.98
673.846	408.96
674.259	527.46
674.671	451.3
675.084	614.8
675.496	555.64
675.908	566.91
676.32	569.73
676.732	462.59
677.144	533.09
677.556	578.18
677.968	487.98
678.38	493.62
678.792	496.44
679.204	600.72
679.615	521.82
680.027	544.37
680.439	614.8
680.85	485.16
681.262	471.05
681.673	487.98
682.084	521.82
682.496	538.73
682.907	547.19
683.318	530.27
683.729	465.41
684.14	516.18
684.551	535.91
684.962	533.09
685.373	507.72
685.784	465.41
686.194	519
686.605	504.9
687.016	476.69
687.426	490.8
687.837	476.69
688.247	485.16
688.657	513.36
689.068	566.91
689.478	459.77
689.888	476.69
690.298	445.66
690.708	504.9
691.118	521.82
691.528	485.16
691.938	459.77
692.348	555.64
692.758	389.19
693.168	533.09
693.577	434.37
693.987	440.01
694.396	425.9
694.806	471.05
695.215	454.12
695.625	493.62
696.034	485.16
696.443	456.94
696.852	423.07
697.262	544.37
697.671	428.72
698.08	451.3
698.489	516.18
698.897	482.34
699.306	550.01
699.715	462.59
700.124	440.01
700.532	400.49
700.941	485.16
701.35	383.54
701.758	479.52
702.166	513.36
702.575	471.05
702.983	445.66
703.391	400.49
703.799	476.69
704.208	431.54
704.616	496.44
705.024	369.42
705.432	414.61
705.839	465.41
706.247	521.82
706.655	400.49
707.063	434.37
707.47	490.8
707.878	403.31
708.285	437.19
708.693	448.48
709.1	437.19
709.508	397.66
709.915	496.44
710.322	406.13
710.729	440.01
711.136	434.37
711.543	403.31
711.95	462.59
712.357	462.59
712.764	445.66
713.171	471.05
713.578	434.37
713.984	411.78
714.391	355.29
714.797	352.46
715.204	456.94
715.61	442.83
716.017	414.61
716.423	403.31
716.829	442.83
717.236	465.41
717.642	386.37
718.048	417.43
718.454	434.37
718.86	369.42
719.266	538.73
719.671	431.54
720.077	468.23
720.483	437.19
720.889	406.13
721.294	411.78
721.7	397.66
722.105	358.12
722.511	389.19
722.916	406.13
723.321	408.96
723.726	471.05
724.132	440.01
724.537	380.72
724.942	423.07
725.347	375.07
725.752	315.72
726.156	490.8
726.561	434.37
726.966	386.37
727.371	459.77
727.775	456.94
728.18	380.72
728.584	425.9
728.989	476.69
729.393	428.72
729.798	476.69
730.202	406.13
730.606	389.19
731.01	448.48
731.414	428.72
731.818	420.25
732.222	377.89
732.626	397.66
733.03	338.33
733.434	423.07
733.837	431.54
734.241	397.66
734.645	437.19
735.048	349.64
735.452	516.18
735.855	442.83
736.258	397.66
736.662	383.54
737.065	434.37
737.468	417.43
737.871	414.61
738.274	425.9
738.677	423.07
739.08	442.83
739.483	411.78
739.886	423.07
740.289	451.3
740.691	380.72
741.094	408.96
741.497	363.77
741.899	442.83
742.302	440.01
742.704	372.24
743.106	442.83
743.508	386.37
743.911	476.69
744.313	423.07
744.715	423.07
745.117	454.12
745.519	448.48
745.921	358.12
746.323	363.77
746.724	392.01
747.126	386.37
747.528	513.36
747.929	445.66
748.331	397.66
748.732	451.3
749.134	397.66
749.535	386.37
749.936	369.42
750.338	487.98
750.739	456.94
751.14	397.66
751.541	420.25
751.942	428.72
752.343	397.66
752.744	397.66
753.144	324.2
753.545	346.81
753.946	417.43
754.346	341.16
754.747	397.66
755.148	406.13
755.548	383.54
755.948	366.59
756.349	414.61
756.749	363.77
757.149	428.72
757.549	411.78
757.949	437.19
758.349	440.01
758.749	425.9
759.149	428.72
759.549	414.61
759.949	389.19
760.348	338.33
760.748	389.19
761.148	383.54
761.547	417.43
761.947	392.01
762.346	343.99
762.745	442.83
763.145	389.19
763.544	389.19
763.943	406.13
764.342	454.12
764.741	482.34
765.14	380.72
765.539	442.83
765.938	411.78
766.336	420.25
766.735	400.49
767.134	293.1
767.532	431.54
767.931	448.48
768.329	448.48
768.728	431.54
769.126	383.54
769.525	397.66
769.923	456.94
770.321	462.59
770.719	397.66
771.117	445.66
771.515	442.83
771.913	431.54
772.311	417.43
772.709	352.46
773.106	403.31
773.504	363.77
773.902	392.01
774.299	372.24
774.697	431.54
775.094	468.23
775.491	437.19
775.889	411.78
776.286	485.16
776.683	442.83
777.08	414.61
777.477	417.43
777.874	425.9
778.271	423.07
778.668	403.31
779.065	440.01
779.462	440.01
779.858	315.72
780.255	363.77
780.652	451.3
781.048	355.29
781.444	394.84
781.841	400.49
782.237	363.77
782.633	377.89
783.03	358.12
783.426	417.43
783.822	420.25
784.218	392.01
784.614	312.89
785.01	434.37
785.405	445.66
785.801	420.25
786.197	383.54
786.593	355.29
786.988	442.83
787.384	392.01
787.779	392.01
788.174	321.37
788.57	380.72
788.965	431.54
789.36	360.94
789.755	490.8
790.15	284.62
790.545	411.78
790.94	448.48
791.335	366.59
791.73	329.86
792.125	397.66
792.52	448.48
792.914	406.13
793.309	425.9
793.703	403.31
794.098	487.98
794.492	400.49
794.887	411.78
795.281	496.44
795.675	406.13
796.069	437.19
796.463	307.24
796.857	414.61
797.251	372.24
797.645	298.76
798.039	366.59
798.433	375.07
798.826	372.24
799.22	423.07
799.614	375.07
800.007	346.81
800.401	414.61
800.794	355.29
801.187	408.96
801.581	397.66
801.974	389.19
802.367	349.64
802.76	454.12
803.153	363.77
803.546	375.07
803.939	329.86
804.332	400.49
804.725	363.77
805.117	408.96
805.51	459.77
805.903	392.01
806.295	346.81
806.688	454.12
807.08	420.25
807.472	456.94
807.865	406.13
808.257	349.64
808.649	369.42
809.041	454.12
809.433	346.81
809.825	377.89
810.217	423.07
810.609	406.13
811.001	454.12
811.392	406.13
811.784	392.01
812.175	386.37
812.567	372.24
812.958	414.61
813.35	360.94
813.741	247.84
814.132	476.69
814.524	434.37
814.915	434.37
815.306	389.19
815.697	343.99
816.088	363.77
816.479	442.83
816.87	408.96
817.26	250.67
817.651	465.41
818.042	414.61
818.432	375.07
818.823	403.31
819.213	392.01
819.604	437.19
819.994	423.07
820.384	425.9
820.775	462.59
821.165	440.01
821.555	428.72
821.945	352.46
822.335	383.54
822.725	400.49
823.114	411.78
823.504	456.94
823.894	380.72
824.284	440.01
824.673	414.61
825.063	380.72
825.452	358.12
825.842	372.24
826.231	406.13
826.62	434.37
827.009	383.54
827.399	423.07
827.788	383.54
828.177	366.59
828.566	397.66
828.954	372.24
829.343	414.61
829.732	490.8
830.121	448.48
830.509	386.37
830.898	327.03
831.286	423.07
831.675	358.12
832.063	366.59
832.452	375.07
832.84	400.49
833.228	397.66
833.616	394.84
834.004	527.46
834.392	358.12
834.78	312.89
835.168	318.55
835.556	428.72
835.944	343.99
836.331	355.29
836.719	355.29
837.107	369.42
837.494	304.41
837.881	295.93
838.269	392.01
838.656	425.9
839.043	343.99
839.431	389.19
839.818	352.46
840.205	411.78
840.592	400.49
840.979	437.19
841.366	420.25
841.752	346.81
842.139	408.96
842.526	431.54
842.912	355.29
843.299	358.12
843.685	456.94
844.072	403.31
844.458	386.37
844.844	471.05
845.231	456.94
845.617	363.77
846.003	400.49
846.389	312.89
846.775	451.3
847.161	403.31
847.547	425.9
847.933	375.07
848.318	411.78
848.704	406.13
849.09	406.13
849.475	434.37
849.861	459.77
850.246	408.96
850.631	456.94
851.017	338.33
851.402	408.96
851.787	411.78
852.172	414.61
852.557	341.16
852.942	377.89
853.327	386.37
853.712	408.96
854.097	338.33
854.481	454.12
854.866	363.77
855.25	307.24
855.635	363.77
856.019	349.64
856.404	375.07
856.788	420.25
857.172	437.19
857.557	442.83
857.941	372.24
858.325	380.72
858.709	329.86
859.093	372.24
859.477	346.81
859.86	406.13
860.244	293.1
860.628	482.34
861.012	349.64
861.395	496.44
861.779	400.49
862.162	417.43
862.545	355.29
862.929	360.94
863.312	440.01
863.695	442.83
864.078	485.16
864.461	397.66
864.844	236.52
865.227	315.72
865.61	425.9
865.993	394.84
866.376	386.37
866.758	394.84
867.141	440.01
867.523	406.13
867.906	462.59
868.288	352.46
868.671	462.59
869.053	360.94
869.435	338.33
869.817	428.72
870.199	375.07
870.581	451.3
870.963	310.07
871.345	310.07
871.727	383.54
872.109	312.89
872.491	383.54
872.872	386.37
873.254	329.86
873.635	315.72
874.017	377.89
874.398	473.87
874.779	386.37
875.161	290.27
875.542	372.24
875.923	386.37
876.304	372.24
876.685	408.96
877.066	394.84
877.447	428.72
877.828	352.46
878.208	394.84
878.589	408.96
878.97	406.13
879.35	445.66
879.731	448.48
880.111	383.54
880.491	397.66
880.872	456.94
881.252	375.07
881.632	343.99
882.012	327.03
882.392	335.51
882.772	329.86
883.152	329.86
883.532	363.77
883.912	349.64
884.291	360.94
884.671	437.19
885.051	363.77
885.43	386.37
885.81	383.54
886.189	349.64
886.568	462.59
886.948	454.12
887.327	420.25
887.706	343.99
888.085	377.89
888.464	394.84
888.843	369.42
889.222	397.66
889.601	386.37
889.979	324.2
890.358	389.19
890.737	468.23
891.115	324.2
891.494	420.25
891.872	400.49
892.25	420.25
892.629	341.16
893.007	445.66
893.385	375.07
893.763	442.83
894.141	301.58
894.519	386.37
894.897	386.37
895.275	273.3
895.653	375.07
896.03	310.07
896.408	392.01
896.786	375.07
897.163	352.46
897.541	403.31
897.918	318.55
898.295	428.72
898.673	403.31
899.05	392.01
899.427	394.84
899.804	403.31
900.181	406.13
900.558	434.37
900.935	372.24
901.312	440.01
901.688	383.54
902.065	451.3
902.442	431.54
902.818	473.87
903.195	383.54
903.571	355.29
903.947	315.72
904.324	380.72
904.7	366.59
905.076	372.24
905.452	290.27
905.828	417.43
906.204	440.01
906.58	352.46
906.956	349.64
907.331	400.49
907.707	394.84
908.083	417.43
908.458	380.72
908.834	366.59
909.209	380.72
909.585	428.72
909.96	389.19
910.335	417.43
910.71	454.12
911.086	372.24
911.461	394.84
911.836	459.77
912.21	349.64
912.585	392.01
912.96	417.43
913.335	304.41
913.709	372.24
914.084	366.59
914.459	360.94
914.833	389.19
915.207	383.54
915.582	355.29
915.956	318.55
916.33	428.72
916.704	284.62
917.078	377.89
917.452	425.9
917.826	369.42
918.2	462.59
918.574	290.27
918.948	329.86
919.321	287.44
919.695	281.79
920.068	321.37
920.442	383.54
920.815	448.48
921.189	369.42
921.562	372.24
921.935	392.01
922.308	423.07
922.681	394.84
923.054	456.94
923.427	434.37
923.8	400.49
924.173	346.81
924.546	394.84
924.919	425.9
925.291	380.72
925.664	380.72
926.036	411.78
926.409	321.37
926.781	440.01
927.153	310.07
927.526	343.99
927.898	392.01
928.27	392.01
928.642	389.19
929.014	301.58
929.386	386.37
929.758	338.33
930.129	349.64
930.501	329.86
930.873	383.54
931.244	442.83
931.616	406.13
931.987	355.29
932.359	386.37
932.73	310.07
933.101	329.86
933.472	451.3
933.843	312.89
934.214	341.16
934.585	341.16
934.956	324.2
935.327	327.03
935.698	428.72
936.069	358.12
936.439	341.16
936.81	293.1
937.18	315.72
937.551	423.07
937.921	423.07
938.292	437.19
938.662	338.33
939.032	428.72
939.402	397.66
939.772	476.69
940.142	411.78
940.512	383.54
940.882	343.99
941.252	392.01
941.621	408.96
941.991	295.93
942.361	349.64
942.73	386.37
943.1	360.94
943.469	375.07
943.838	408.96
944.208	406.13
944.577	375.07
944.946	327.03
945.315	425.9
945.684	358.12
946.053	423.07
946.422	403.31
946.791	332.68
947.159	343.99
947.528	343.99
947.897	408.96
948.265	411.78
948.634	397.66
949.002	403.31
949.371	408.96
949.739	375.07
950.107	358.12
950.475	380.72
950.843	360.94
951.211	431.54
951.579	329.86
951.947	417.43
952.315	338.33
952.683	417.43
953.05	295.93
953.418	358.12
953.785	321.37
954.153	321.37
954.52	394.84
954.888	363.77
955.255	428.72
955.622	442.83
955.989	437.19
956.356	281.79
956.723	278.96
957.09	434.37
957.457	324.2
957.824	451.3
958.191	383.54
958.557	400.49
958.924	397.66
959.291	411.78
959.657	479.52
960.023	417.43
960.39	386.37
960.756	375.07
961.122	420.25
961.488	380.72
961.855	445.66
962.221	437.19
962.586	392.01
962.952	425.9
963.318	423.07
963.684	442.83
964.05	298.76
964.415	428.72
964.781	434.37
965.146	386.37
965.512	335.51
965.877	414.61
966.242	343.99
966.608	375.07
966.973	318.55
967.338	366.59
967.703	428.72
968.068	352.46
968.433	346.81
968.797	358.12
969.162	442.83
969.527	343.99
969.891	358.12
970.256	411.78
970.62	383.54
970.985	431.54
971.349	397.66
971.714	377.89
972.078	408.96
972.442	411.78
972.806	369.42
973.17	448.48
973.534	369.42
973.898	375.07
974.262	324.2
974.625	445.66
974.989	377.89
975.353	338.33
975.716	442.83
976.08	349.64
976.443	341.16
976.806	414.61
977.17	383.54
977.533	397.66
977.896	462.59
978.259	380.72
978.622	445.66
978.985	400.49
979.348	380.72
979.711	389.19
980.073	406.13
980.436	312.89
980.799	408.96
981.161	366.59
981.524	352.46
981.886	479.52
982.248	383.54
982.611	397.66
982.973	437.19
983.335	380.72
983.697	425.9
984.059	377.89
984.421	386.37
984.783	332.68
985.145	406.13
985.506	462.59
985.868	380.72
986.23	346.81
986.591	346.81
986.953	355.29
987.314	327.03
987.675	462.59
988.037	535.91
988.398	349.64
988.759	380.72
989.12	298.76
989.481	389.19
989.842	414.61
990.203	321.37
990.564	338.33
990.924	408.96
991.285	572.55
991.646	411.78
992.006	341.16
992.367	332.68
992.727	284.62
993.087	389.19
993.448	352.46
993.808	363.77
994.168	335.51
994.528	380.72
994.888	352.46
995.248	267.64
995.608	358.12
995.967	360.94
996.327	394.84
996.687	403.31
997.046	372.24
997.406	411.78
997.765	440.01
998.125	360.94
998.484	411.78
998.843	423.07
999.202	363.77
999.561	377.89
999.92	417.43
1000.279	352.46
1000.638	290.27
1000.997	414.61
1001.356	346.81
1001.715	428.72
1002.073	397.66
1002.432	377.89
1002.79	360.94
1003.149	417.43
1003.507	406.13
1003.865	431.54
1004.224	358.12
1004.582	360.94
1004.94	394.84
1005.298	423.07
1005.656	403.31
1006.014	428.72
1006.371	349.64
1006.729	377.89
1007.087	295.93
1007.445	372.24
1007.802	343.99
1008.16	406.13
1008.517	375.07
1008.874	403.31
1009.232	377.89
1009.589	278.96
1009.946	332.68
1010.303	375.07
1010.66	394.84
1011.017	329.86
1011.374	456.94
1011.731	386.37
1012.087	403.31
1012.444	372.24
1012.801	397.66
1013.157	318.55
1013.513	414.61
1013.87	394.84
1014.226	400.49
1014.582	420.25
1014.939	431.54
1015.295	417.43
1015.651	406.13
1016.007	431.54
1016.363	375.07
1016.719	420.25
1017.074	377.89
1017.43	411.78
1017.786	408.96
1018.141	392.01
1018.497	335.51
1018.852	380.72
1019.208	369.42
1019.563	318.55
1019.918	366.59
1020.273	310.07
1020.628	372.24
1020.983	343.99
1021.338	425.9
1021.693	352.46
1022.048	324.2
1022.403	400.49
1022.757	363.77
1023.112	445.66
1023.467	397.66
1023.821	349.64
1024.175	386.37
1024.53	341.16
1024.884	403.31
1025.238	369.42
1025.592	360.94
1025.946	273.3
1026.3	318.55
1026.654	366.59
1027.008	451.3
1027.362	366.59
1027.716	375.07
1028.069	442.83
1028.423	408.96
1028.777	372.24
1029.13	363.77
1029.483	408.96
1029.837	363.77
1030.19	329.86
1030.543	304.41
1030.896	363.77
1031.249	346.81
1031.602	352.46
1031.955	324.2
1032.308	349.64
1032.661	380.72
1033.013	389.19
1033.366	318.55
1033.719	298.76
1034.071	332.68
1034.424	423.07
1034.776	329.86
1035.128	403.31
1035.48	425.9
1035.833	408.96
1036.185	380.72
1036.537	380.72
1036.889	380.72
