Data from SCSF78-3-370-irrad_FLMS019251_11-14-58-742.txt Node
Date: Fri Feb 15 11:14:58 CET 2019
User: luk
Spectrometer: FLMS01925
Trigger mode: 0
Integration Time (sec): 1.399000E-2
Scans to average: 1
Electric dark correction enabled: true
Nonlinearity correction enabled: true
Boxcar width: 0
XAxis mode: Wavelengths
Number of Pixels in Spectrum: 2048
>>>>>Begin Spectral Data<<<<<
187.103	-30.53
187.574	-30.53
188.045	-30.53
188.516	-107.26
188.987	-56.1
189.458	-33.37
189.929	-132.85
190.4	-144.23
190.871	-101.57
191.342	-144.23
191.813	-104.41
192.284	-73.15
192.754	-22.01
193.225	48.96
193.696	34.77
194.166	48.96
194.637	91.51
195.107	37.61
195.578	131.2
196.048	179.36
196.518	182.19
196.989	224.67
197.459	182.19
197.929	182.19
198.399	292.57
198.869	264.28
199.339	343.46
199.809	366.06
200.279	377.36
200.749	416.9
201.219	312.36
201.689	357.59
202.159	419.72
202.628	419.72
203.098	405.61
203.568	385.84
204.037	363.24
204.507	349.11
204.976	462.06
205.445	349.11
205.915	433.84
206.384	501.55
206.853	450.77
207.323	428.19
207.792	411.25
208.261	380.19
208.73	414.08
209.199	394.31
209.668	349.11
210.137	419.72
210.606	357.59
211.075	408.43
211.543	467.7
212.012	445.13
212.481	433.84
212.95	419.72
213.418	394.31
213.887	380.19
214.355	380.19
214.824	447.95
215.292	422.55
215.76	366.06
216.229	397.13
216.697	363.24
217.165	346.28
217.633	385.84
218.101	402.78
218.569	405.61
219.037	405.61
219.505	419.72
219.973	371.71
220.441	419.72
220.909	349.11
221.377	354.76
221.844	371.71
222.312	433.84
222.78	383.01
223.247	315.19
223.715	419.72
224.182	399.96
224.65	442.3
225.117	371.71
225.584	411.25
226.052	332.15
226.519	318.02
226.986	349.11
227.453	388.66
227.92	402.78
228.387	374.54
228.854	349.11
229.321	399.96
229.788	419.72
230.255	447.95
230.722	411.25
231.189	422.55
231.655	442.3
232.122	445.13
232.589	476.17
233.055	385.84
233.522	380.19
233.988	439.48
234.454	374.54
234.921	478.99
235.387	388.66
235.853	414.08
236.32	462.06
236.786	399.96
237.252	340.63
237.718	289.74
238.184	340.63
238.65	388.66
239.116	374.54
239.582	433.84
240.047	368.89
240.513	394.31
240.979	357.59
241.445	405.61
241.91	340.63
242.376	436.66
242.841	428.19
243.307	436.66
243.772	422.55
244.238	411.25
244.703	447.95
245.168	433.84
245.633	453.59
246.099	397.13
246.564	408.43
247.029	346.28
247.494	442.3
247.959	416.9
248.424	371.71
248.889	405.61
249.353	453.59
249.818	473.34
250.283	388.66
250.748	309.54
251.212	422.55
251.677	405.61
252.141	501.55
252.606	436.66
253.07	391.48
253.535	363.24
253.999	422.55
254.463	397.13
254.927	414.08
255.392	436.66
255.856	416.9
256.32	419.72
256.784	349.11
257.248	306.71
257.712	368.89
258.176	422.55
258.64	484.63
259.103	422.55
259.567	366.06
260.031	481.81
260.495	419.72
260.958	326.5
261.422	442.3
261.885	408.43
262.349	368.89
262.812	366.06
263.275	495.91
263.739	462.06
264.202	388.66
264.665	408.43
265.128	487.45
265.591	388.66
266.054	388.66
266.517	397.13
266.98	450.77
267.443	433.84
267.906	431.01
268.369	385.84
268.832	422.55
269.294	343.46
269.757	425.37
270.22	371.71
270.682	450.77
271.145	408.43
271.607	385.84
272.07	470.52
272.532	518.47
272.994	371.71
273.456	388.66
273.919	439.48
274.381	504.37
274.843	320.84
275.305	433.84
275.767	447.95
276.229	349.11
276.691	414.08
277.153	442.3
277.614	459.24
278.076	481.81
278.538	411.25
279	425.37
279.461	428.19
279.923	351.93
280.384	351.93
280.846	397.13
281.307	408.43
281.769	456.42
282.23	450.77
282.691	399.96
283.152	456.42
283.613	467.7
284.075	425.37
284.536	484.63
284.997	459.24
285.458	385.84
285.918	402.78
286.379	340.63
286.84	422.55
287.301	397.13
287.762	462.06
288.222	447.95
288.683	405.61
289.143	504.37
289.604	462.06
290.064	394.31
290.525	295.4
290.985	467.7
291.445	425.37
291.906	428.19
292.366	501.55
292.826	518.47
293.286	334.98
293.746	351.93
294.206	445.13
294.666	464.88
295.126	512.83
295.586	385.84
296.046	428.19
296.506	351.93
296.965	383.01
297.425	431.01
297.884	456.42
298.344	399.96
298.804	433.84
299.263	416.9
299.722	383.01
300.182	391.48
300.641	442.3
301.1	419.72
301.559	349.11
302.019	456.42
302.478	402.78
302.937	405.61
303.396	416.9
303.855	326.5
304.314	453.59
304.772	431.01
305.231	371.71
305.69	439.48
306.149	467.7
306.607	416.9
307.066	512.83
307.524	422.55
307.983	473.34
308.441	453.59
308.9	462.06
309.358	487.45
309.816	453.59
310.275	478.99
310.733	456.42
311.191	490.27
311.649	450.77
312.107	462.06
312.565	431.01
313.023	357.59
313.481	431.01
313.939	394.31
314.397	490.27
314.854	456.42
315.312	436.66
315.77	490.27
316.227	484.63
316.685	391.48
317.142	431.01
317.6	334.98
318.057	414.08
318.514	405.61
318.972	385.84
319.429	524.11
319.886	346.28
320.343	521.29
320.8	518.47
321.257	428.19
321.714	397.13
322.171	385.84
322.628	428.19
323.085	428.19
323.542	388.66
323.998	411.25
324.455	366.06
324.912	495.91
325.368	450.77
325.825	504.37
326.281	351.93
326.738	425.37
327.194	462.06
327.65	405.61
328.107	515.65
328.563	377.36
329.019	431.01
329.475	399.96
329.931	450.77
330.387	391.48
330.843	510.01
331.299	495.91
331.755	459.24
332.211	366.06
332.666	402.78
333.122	512.83
333.578	462.06
334.033	453.59
334.489	374.54
334.944	521.29
335.4	431.01
335.855	512.83
336.31	512.83
336.766	473.34
337.221	394.31
337.676	467.7
338.131	391.48
338.586	442.3
339.041	377.36
339.496	467.7
339.951	408.43
340.406	431.01
340.861	473.34
341.316	447.95
341.771	436.66
342.225	450.77
342.68	416.9
343.134	445.13
343.589	453.59
344.043	385.84
344.498	416.9
344.952	388.66
345.406	481.81
345.861	416.9
346.315	371.71
346.769	478.99
347.223	431.01
347.677	538.2
348.131	360.41
348.585	456.42
349.039	380.19
349.493	411.25
349.947	414.08
350.401	416.9
350.854	487.45
351.308	431.01
351.762	498.73
352.215	447.95
352.669	484.63
353.122	433.84
353.575	388.66
354.029	478.99
354.482	453.59
354.935	450.77
355.388	464.88
355.842	493.09
356.295	419.72
356.748	456.42
357.201	411.25
357.654	394.31
358.106	442.3
358.559	428.19
359.012	368.89
359.465	374.54
359.917	445.13
360.37	439.48
360.823	495.91
361.275	408.43
361.728	512.83
362.18	419.72
362.632	377.36
363.085	484.63
363.537	456.42
363.989	498.73
364.441	495.91
364.893	453.59
365.345	428.19
365.797	442.3
366.249	467.7
366.701	428.19
367.153	490.27
367.605	512.83
368.057	484.63
368.508	543.84
368.96	484.63
369.411	459.24
369.863	431.01
370.314	439.48
370.766	445.13
371.217	405.61
371.669	453.59
372.12	478.99
372.571	518.47
373.022	510.01
373.473	326.5
373.924	529.75
374.375	515.65
374.826	450.77
375.277	366.06
375.728	456.42
376.179	383.01
376.63	414.08
377.08	371.71
377.531	425.37
377.981	459.24
378.432	484.63
378.883	464.88
379.333	439.48
379.783	425.37
380.234	402.78
380.684	456.42
381.134	501.55
381.584	399.96
382.034	515.65
382.485	459.24
382.935	425.37
383.385	397.13
383.834	436.66
384.284	464.88
384.734	481.81
385.184	464.88
385.634	445.13
386.083	425.37
386.533	343.46
386.982	588.92
387.432	518.47
387.881	504.37
388.331	504.37
388.78	510.01
389.229	405.61
389.679	383.01
390.128	453.59
390.577	397.13
391.026	399.96
391.475	445.13
391.924	535.38
392.373	422.55
392.822	490.27
393.27	453.59
393.719	504.37
394.168	487.45
394.617	498.73
395.065	442.3
395.514	428.19
395.962	481.81
396.411	484.63
396.859	416.9
397.307	462.06
397.756	490.27
398.204	408.43
398.652	433.84
399.1	439.48
399.548	563.57
399.996	402.78
400.444	535.38
400.892	476.17
401.34	495.91
401.788	416.9
402.236	425.37
402.683	538.2
403.131	428.19
403.579	557.93
404.026	462.06
404.474	402.78
404.921	555.11
405.369	535.38
405.816	510.01
406.263	490.27
406.71	436.66
407.158	495.91
407.605	431.01
408.052	535.38
408.499	476.17
408.946	521.29
409.393	557.93
409.84	512.83
410.286	521.29
410.733	557.93
411.18	518.47
411.626	521.29
412.073	510.01
412.52	541.02
412.966	538.2
413.413	603.01
413.859	563.57
414.305	574.84
414.752	574.84
415.198	679.01
415.644	667.75
416.09	631.16
416.536	704.32
416.982	906.55
417.428	1024.27
417.874	1253.58
418.32	1621.29
418.766	1945.78
419.211	2607.31
419.657	3168.21
420.103	3871.69
420.548	4647.61
420.994	5773.59
421.439	6845.92
421.885	7947.98
422.33	9263.7
422.776	10709.87
423.221	12066.46
423.666	13769.57
424.111	15185.49
424.556	16855.91
425.001	18698.26
425.446	20221.61
425.891	22078.44
426.336	23927.49
426.781	25599.99
427.226	27930.49
427.671	28859.44
428.115	30080.27
428.56	32033.84
429.005	34350.4
429.449	35304.72
429.894	36472.75
430.338	38108.71
430.782	37959.1
431.227	40213.71
431.671	41342.66
432.115	42019.11
432.559	43901.79
433.003	44167.02
433.447	44899.52
433.891	45178.72
434.335	46208.98
434.779	47307.67
435.223	47806.68
435.667	48228.03
436.111	48599.36
436.554	48341.35
436.998	48501.24
437.442	48896.88
437.885	51240.77
438.328	49782.15
438.772	50365.28
439.215	50966.3
439.659	50953.01
440.102	51696.38
440.545	50730.05
440.988	50738
441.431	51486.91
441.874	51144.71
442.317	51920.08
442.76	51626.47
443.203	51019.51
443.646	52101.3
444.089	51567.39
444.531	52400.11
444.974	51390.48
445.417	52307.58
445.859	50974.28
446.302	52544.69
446.744	51543.24
447.186	53312.71
447.629	52020.08
448.071	52253.22
448.513	51984.93
448.956	53658.14
449.398	52972.62
449.84	51817.55
450.282	51976.82
450.724	52920.31
451.166	52506.46
451.607	52087.75
452.049	52582.95
452.491	53638.56
452.933	53135.45
453.374	54107.95
453.816	54559.92
454.257	53462.81
454.699	54852.68
455.14	54962.34
455.582	54105.12
456.023	54192.83
456.464	54289.25
456.905	55054.94
457.347	54884.39
457.788	53882.44
458.229	53730.91
458.67	55527.52
459.111	53630.18
459.552	53789.77
459.992	53005.7
460.433	52832.32
460.874	51747.51
461.315	53080.19
461.755	51556.65
462.196	50860.02
462.636	49965.56
463.077	50128.35
463.517	49763.84
463.957	50722.1
464.398	50133.61
464.838	50273.05
465.278	49005.77
465.718	48886.52
466.158	47906.74
466.598	48614.86
467.038	47704.15
467.478	48604.53
467.918	49192.74
468.358	47522.38
468.798	47376.65
469.237	47481.45
469.677	47310.23
470.117	48068.55
470.556	45463.41
470.996	46401.64
471.435	46368.67
471.874	47014.33
472.314	46637.75
472.753	45478.54
473.192	45624.87
473.631	45324.79
474.07	45266.85
474.509	45266.85
474.948	45516.37
475.387	45327.31
475.826	44169.53
476.265	45874.94
476.704	45188.79
477.143	46021.62
477.581	45481.07
478.02	46569.16
478.458	44623.25
478.897	45645.06
479.335	46777.57
479.774	45690.51
480.212	46269.79
480.65	46188.71
481.089	46480.3
481.527	45624.87
481.965	45078.06
482.403	47719.53
482.841	46576.78
483.279	46477.77
483.717	46708.92
484.155	46470.15
484.592	46312.89
485.03	47034.71
485.468	45632.44
485.905	45751.12
486.343	46508.23
486.781	45503.76
487.218	45130.9
487.655	44904.54
488.093	44034.36
488.53	45824.39
488.967	44502.82
489.405	44447.65
489.842	43654.37
490.279	43367.32
490.716	43247.61
491.153	43484.59
491.59	43197.75
492.027	42257.38
492.463	41914.93
492.9	40919.76
493.337	40796.21
493.773	40554.2
494.21	39851.4
494.647	39602.67
495.083	38985.26
495.519	38349.16
495.956	38297.62
496.392	38086.63
496.828	37642.88
497.265	37008.56
497.701	36949.82
498.137	36773.63
498.573	35651.52
499.009	36088.91
499.445	35016.62
499.881	34699.33
500.316	34753.02
500.752	33572.32
501.188	34011.32
501.624	33655.23
502.059	32389.79
502.495	32114.29
502.93	31919.25
503.366	32406.85
503.801	31599.84
504.236	31212.13
504.672	30692.64
505.107	30341.35
505.542	29877.71
505.977	29694.64
506.412	29035.33
506.847	29557.93
507.282	29113.5
507.717	28490.44
508.152	28817.91
508.587	28615.09
509.021	27438.65
509.456	27240.35
509.891	27428.86
510.325	27049.33
510.76	26730.83
511.194	26642.6
511.628	26439.14
512.063	25739.93
512.497	25823.39
512.931	25511.58
513.366	24843.13
513.8	25356.83
514.234	24764.44
514.668	24240.28
515.102	24705.4
515.536	23907.78
515.969	24080.22
516.403	23488.74
516.837	23071.79
517.271	22980.45
517.704	22773.03
518.138	22622.34
518.571	22330.69
519.005	22071.02
519.438	21442.22
519.871	21184.5
520.305	21286.12
520.738	20772.81
521.171	20450.12
521.604	20601.57
522.037	20268.81
522.47	19920.87
522.903	19833.84
523.336	19273.92
523.769	19338.66
524.202	19121.98
524.634	18807.97
525.067	18341.48
525.5	18478.74
525.932	18296.54
526.365	17669.44
526.797	17676.94
527.23	18026.84
527.662	16986.2
528.094	16778.22
528.527	16780.73
528.959	16497.39
529.391	16151.05
529.823	15588.15
530.255	15952.63
530.687	15434.69
531.119	15082.23
531.551	15371.78
531.982	14873.09
532.414	14757.12
532.846	14325.63
533.277	14148.81
533.709	13784.75
534.14	13741.73
534.572	13587.35
535.003	13329
535.435	13052.64
535.866	12935.93
536.297	12392.24
536.728	12775.99
537.159	12605.79
537.59	12229.41
538.022	12089.39
538.452	11944.18
538.883	11569.28
539.314	11627.98
539.745	11505.45
540.176	11270.42
540.606	10758.57
541.037	10922.5
541.468	10922.5
541.898	10527.8
542.328	10691.93
542.759	10250.52
543.189	10224.82
543.619	10235.1
544.05	9815.77
544.48	9913.62
544.91	9759.1
545.34	9467.71
545.77	9364.45
546.2	9162.89
546.63	9196.5
547.06	9118.93
547.489	8927.42
547.919	8600.8
548.349	8556.68
548.778	8795.3
549.208	8445.01
549.637	8151.17
550.067	8247.45
550.496	8226.64
550.926	8091.29
551.355	7741.89
551.784	8033.98
552.213	7794.09
552.642	7459.62
553.071	7501.48
553.5	7352.31
553.929	7289.45
554.358	7237.04
554.787	7016.7
555.216	7200.35
555.645	6964.18
556.073	6848.55
556.502	7042.95
556.93	6790.7
557.359	6651.21
557.787	6748.61
558.216	6406.05
558.644	6487.83
559.072	6477.28
559.5	6432.44
559.929	6213.25
560.357	6125.99
560.785	6091.59
561.213	6102.18
561.641	5847.88
562.068	5990.99
562.496	5853.18
562.924	5776.25
563.352	5850.53
563.779	5924.76
564.207	5598.3
564.634	5646.13
565.062	5768.29
565.489	5481.27
565.917	5545.12
566.344	5529.16
566.771	5467.97
567.198	5385.43
567.625	5262.83
568.053	5252.16
568.48	5222.82
568.907	5188.14
569.333	5065.3
569.76	5009.18
570.187	4971.74
570.614	4867.39
571.04	4854
571.467	4481.11
571.894	4652.98
572.32	4499.92
572.747	4591.25
573.173	4397.75
573.599	4311.63
574.026	4284.7
574.452	4225.42
574.878	4206.56
575.304	3920.38
575.73	4082.47
576.156	3998.76
576.582	3850.04
577.008	3795.91
577.434	3733.61
577.86	3684.82
578.285	3687.53
578.711	3660.42
579.137	3557.31
579.562	3413.3
579.988	3312.62
580.413	3356.17
580.838	3282.67
581.264	3470.39
581.689	3154.57
582.114	3190.02
582.539	3179.12
582.964	3160.03
583.39	3050.86
583.814	2968.9
584.239	2922.42
584.664	2933.36
585.089	2862.23
585.514	2823.9
585.939	2689.63
586.363	2667.68
586.788	2755.42
587.212	2626.52
587.637	2574.36
588.061	2626.52
588.485	2472.68
588.91	2538.65
589.334	2519.42
589.758	2524.91
590.182	2409.41
590.606	2370.88
591.03	2315.8
591.454	2304.78
591.878	2324.06
592.302	2238.62
592.726	2252.41
593.15	2302.02
593.573	2213.8
593.997	2235.86
594.42	2158.61
594.844	2067.47
595.267	2070.23
595.691	2086.81
596.114	2059.17
596.537	1970.68
596.96	2017.71
597.384	1937.48
597.807	1978.98
598.23	1965.15
598.653	1998.35
599.076	1882.1
599.499	1943.01
599.921	1840.54
600.344	1923.63
600.767	1851.62
601.189	1798.95
601.612	1857.16
602.034	1749.03
602.457	1724.05
602.879	1754.58
603.302	1785.09
603.724	1701.85
604.146	1704.62
604.568	1668.52
604.991	1696.29
605.413	1649.08
605.835	1635.19
606.257	1682.41
606.678	1657.41
607.1	1615.73
607.522	1682.41
607.944	1529.53
608.365	1549
608.787	1657.41
609.209	1593.5
609.63	1660.19
610.051	1549
610.473	1582.38
610.894	1434.87
611.315	1487.78
611.737	1465.51
612.158	1376.35
612.579	1454.37
613	1434.87
613.421	1407.01
613.842	1407.01
614.263	1362.41
614.683	1379.14
615.104	1367.98
615.525	1320.57
615.945	1359.62
616.366	1326.15
616.787	1289.88
617.207	1373.56
617.627	1356.83
618.048	1259.17
618.468	1309.41
618.888	1289.88
619.308	1270.34
619.728	1166.97
620.148	1192.13
620.568	1217.28
620.988	1172.56
621.408	1231.24
621.828	1245.21
622.248	1153
622.668	1180.95
623.087	1102.65
623.507	1150.2
623.926	1083.06
624.346	1116.64
624.765	1046.68
625.185	1113.84
625.604	1035.48
626.023	1097.06
626.442	1029.87
626.861	1046.68
627.28	968.24
627.699	1057.87
628.118	943.01
628.537	1010.27
628.956	951.42
629.375	889.72
629.794	962.63
630.212	1015.87
630.631	1027.07
631.049	937.4
631.468	934.6
631.886	870.08
632.305	912.16
632.723	889.72
633.141	996.26
633.559	872.89
633.978	940.21
634.396	850.43
634.814	940.21
635.232	858.85
635.65	903.75
636.067	886.92
636.485	802.7
636.903	780.22
637.321	878.5
637.738	957.03
638.156	735.26
638.573	878.5
638.991	861.66
639.408	766.17
639.825	783.03
640.243	878.5
640.66	794.27
641.077	718.39
641.494	850.43
641.911	740.88
642.328	811.12
642.745	802.7
643.162	780.22
643.579	785.84
643.995	763.36
644.412	766.17
644.829	743.69
645.245	816.74
645.662	695.89
646.078	707.14
646.495	822.36
646.911	648.05
647.327	729.63
647.743	639.61
648.159	622.72
648.576	670.57
648.992	712.76
649.408	724.01
649.824	724.01
650.239	659.31
650.655	645.24
651.071	648.05
651.487	676.19
651.902	563.57
652.318	701.51
652.733	709.95
653.149	701.51
653.564	681.82
653.979	642.42
654.395	580.47
654.81	642.42
655.225	608.64
655.64	712.76
656.055	659.31
656.47	639.61
656.885	653.68
657.3	664.94
657.715	591.74
658.13	679.01
658.544	583.29
658.959	653.68
659.374	664.94
659.788	572.02
660.202	721.2
660.617	543.84
661.031	659.31
661.445	664.94
661.86	572.02
662.274	614.27
662.688	631.16
663.102	617.09
663.516	608.64
663.93	588.92
664.344	707.14
664.758	586.11
665.171	588.92
665.585	631.16
665.999	557.93
666.412	555.11
666.826	557.93
667.239	591.74
667.653	619.9
668.066	588.92
668.479	614.27
668.892	628.35
669.306	583.29
669.719	591.74
670.132	557.93
670.545	493.09
670.958	600.19
671.37	662.13
671.783	538.2
672.196	605.82
672.609	532.57
673.021	603.01
673.434	560.75
673.846	583.29
674.259	493.09
674.671	563.57
675.084	464.88
675.496	594.56
675.908	543.84
676.32	493.09
676.732	524.11
677.144	563.57
677.556	549.48
677.968	552.3
678.38	510.01
678.792	481.81
679.204	512.83
679.615	549.48
680.027	586.11
680.439	501.55
680.85	549.48
681.262	622.72
681.673	566.39
682.084	614.27
682.496	583.29
682.907	566.39
683.318	546.66
683.729	507.19
684.14	464.88
684.551	526.93
684.962	557.93
685.373	543.84
685.784	569.2
686.194	546.66
686.605	515.65
687.016	476.17
687.426	535.38
687.837	459.24
688.247	476.17
688.657	521.29
689.068	428.19
689.478	470.52
689.888	436.66
690.298	433.84
690.708	541.02
691.118	456.42
691.528	543.84
691.938	493.09
692.348	526.93
692.758	563.57
693.168	504.37
693.577	467.7
693.987	521.29
694.396	493.09
694.806	456.42
695.215	493.09
695.625	543.84
696.034	518.47
696.443	526.93
696.852	391.48
697.262	425.37
697.671	473.34
698.08	315.19
698.489	487.45
698.897	476.17
699.306	521.29
699.715	507.19
700.124	478.99
700.532	473.34
700.941	462.06
701.35	535.38
701.758	422.55
702.166	447.95
702.575	524.11
702.983	433.84
703.391	414.08
703.799	493.09
704.208	532.57
704.616	431.01
705.024	487.45
705.432	447.95
705.839	442.3
706.247	529.75
706.655	450.77
707.063	371.71
707.47	464.88
707.878	512.83
708.285	411.25
708.693	411.25
709.1	439.48
709.508	456.42
709.915	481.81
710.322	470.52
710.729	431.01
711.136	450.77
711.543	493.09
711.95	414.08
712.357	515.65
712.764	456.42
713.171	439.48
713.578	408.43
713.984	374.54
714.391	476.17
714.797	572.02
715.204	366.06
715.61	439.48
716.017	467.7
716.423	433.84
716.829	408.43
717.236	464.88
717.642	439.48
718.048	442.3
718.454	459.24
718.86	467.7
719.266	462.06
719.671	484.63
720.077	428.19
720.483	436.66
720.889	431.01
721.294	507.19
721.7	467.7
722.105	450.77
722.511	510.01
722.916	371.71
723.321	490.27
723.726	363.24
724.132	484.63
724.537	343.46
724.942	422.55
725.347	425.37
725.752	512.83
726.156	473.34
726.561	442.3
726.966	459.24
727.371	306.71
727.775	453.59
728.18	411.25
728.584	462.06
728.989	464.88
729.393	450.77
729.798	411.25
730.202	447.95
730.606	467.7
731.01	433.84
731.414	512.83
731.818	419.72
732.222	385.84
732.626	425.37
733.03	380.19
733.434	425.37
733.837	416.9
734.241	416.9
734.645	402.78
735.048	464.88
735.452	397.13
735.855	445.13
736.258	422.55
736.662	436.66
737.065	501.55
737.468	433.84
737.871	425.37
738.274	408.43
738.677	487.45
739.08	431.01
739.483	374.54
739.886	346.28
740.289	377.36
740.691	383.01
741.094	394.31
741.497	377.36
741.899	419.72
742.302	385.84
742.704	405.61
743.106	371.71
743.508	414.08
743.911	411.25
744.313	399.96
744.715	366.06
745.117	484.63
745.519	419.72
745.921	391.48
746.323	312.36
746.724	481.81
747.126	383.01
747.528	416.9
747.929	419.72
748.331	481.81
748.732	374.54
749.134	416.9
749.535	467.7
749.936	439.48
750.338	481.81
750.739	467.7
751.14	433.84
751.541	487.45
751.942	456.42
752.343	419.72
752.744	351.93
753.144	397.13
753.545	388.66
753.946	419.72
754.346	360.41
754.747	366.06
755.148	462.06
755.548	385.84
755.948	303.88
756.349	394.31
756.749	487.45
757.149	462.06
757.549	467.7
757.949	411.25
758.349	433.84
758.749	377.36
759.149	405.61
759.549	459.24
759.949	408.43
760.348	476.17
760.748	368.89
761.148	484.63
761.547	447.95
761.947	462.06
762.346	473.34
762.745	380.19
763.145	422.55
763.544	436.66
763.943	445.13
764.342	422.55
764.741	431.01
765.14	380.19
765.539	425.37
765.938	493.09
766.336	453.59
766.735	371.71
767.134	442.3
767.532	346.28
767.931	487.45
768.329	411.25
768.728	495.91
769.126	467.7
769.525	414.08
769.923	377.36
770.321	521.29
770.719	394.31
771.117	447.95
771.515	380.19
771.913	419.72
772.311	439.48
772.709	478.99
773.106	459.24
773.504	306.71
773.902	456.42
774.299	456.42
774.697	442.3
775.094	419.72
775.491	394.31
775.889	419.72
776.286	464.88
776.683	478.99
777.08	405.61
777.477	416.9
777.874	405.61
778.271	377.36
778.668	397.13
779.065	462.06
779.462	405.61
779.858	399.96
780.255	363.24
780.652	411.25
781.048	495.91
781.444	467.7
781.841	476.17
782.237	512.83
782.633	470.52
783.03	433.84
783.426	436.66
783.822	428.19
784.218	351.93
784.614	380.19
785.01	334.98
785.405	476.17
785.801	433.84
786.197	478.99
786.593	419.72
786.988	408.43
787.384	501.55
787.779	425.37
788.174	385.84
788.57	360.41
788.965	501.55
789.36	476.17
789.755	442.3
790.15	428.19
790.545	450.77
790.94	476.17
791.335	501.55
791.73	518.47
792.125	399.96
792.52	428.19
792.914	371.71
793.309	380.19
793.703	473.34
794.098	368.89
794.492	388.66
794.887	422.55
795.281	368.89
795.675	394.31
796.069	380.19
796.463	374.54
796.857	493.09
797.251	453.59
797.645	422.55
798.039	402.78
798.433	377.36
798.826	453.59
799.22	433.84
799.614	470.52
800.007	363.24
800.401	391.48
800.794	439.48
801.187	374.54
801.581	481.81
801.974	512.83
802.367	459.24
802.76	405.61
803.153	478.99
803.546	453.59
803.939	425.37
804.332	464.88
804.725	456.42
805.117	363.24
805.51	428.19
805.903	385.84
806.295	484.63
806.688	425.37
807.08	428.19
807.472	484.63
807.865	456.42
808.257	399.96
808.649	436.66
809.041	343.46
809.433	416.9
809.825	414.08
810.217	447.95
810.609	510.01
811.001	442.3
811.392	450.77
811.784	402.78
812.175	363.24
812.567	484.63
812.958	383.01
813.35	371.71
813.741	453.59
814.132	422.55
814.524	450.77
814.915	467.7
815.306	462.06
815.697	388.66
816.088	402.78
816.479	399.96
816.87	397.13
817.26	349.11
817.651	425.37
818.042	363.24
818.432	414.08
818.823	422.55
819.213	467.7
819.604	476.17
819.994	450.77
820.384	374.54
820.775	459.24
821.165	447.95
821.555	428.19
821.945	422.55
822.335	411.25
822.725	431.01
823.114	447.95
823.504	428.19
823.894	464.88
824.284	442.3
824.673	456.42
825.063	464.88
825.452	439.48
825.842	462.06
826.231	399.96
826.62	526.93
827.009	371.71
827.399	377.36
827.788	428.19
828.177	431.01
828.566	408.43
828.954	473.34
829.343	419.72
829.732	416.9
830.121	411.25
830.509	411.25
830.898	366.06
831.286	456.42
831.675	433.84
832.063	385.84
832.452	402.78
832.84	397.13
833.228	408.43
833.616	402.78
834.004	411.25
834.392	431.01
834.78	394.31
835.168	326.5
835.556	447.95
835.944	447.95
836.331	394.31
836.719	399.96
837.107	405.61
837.494	447.95
837.881	414.08
838.269	478.99
838.656	340.63
839.043	439.48
839.431	453.59
839.818	481.81
840.205	436.66
840.592	416.9
840.979	366.06
841.366	450.77
841.752	414.08
842.139	436.66
842.526	462.06
842.912	391.48
843.299	405.61
843.685	419.72
844.072	351.93
844.458	473.34
844.844	481.81
845.231	411.25
845.617	405.61
846.003	439.48
846.389	366.06
846.775	408.43
847.161	442.3
847.547	529.75
847.933	428.19
848.318	397.13
848.704	416.9
849.09	445.13
849.475	433.84
849.861	462.06
850.246	450.77
850.631	388.66
851.017	323.67
851.402	391.48
851.787	394.31
852.172	332.15
852.557	374.54
852.942	380.19
853.327	385.84
853.712	439.48
854.097	425.37
854.481	473.34
854.866	447.95
855.25	366.06
855.635	411.25
856.019	431.01
856.404	366.06
856.788	278.43
857.172	459.24
857.557	363.24
857.941	450.77
858.325	391.48
858.709	431.01
859.093	459.24
859.477	405.61
859.86	439.48
860.244	374.54
860.628	366.06
861.012	397.13
861.395	428.19
861.779	371.71
862.162	377.36
862.545	346.28
862.929	445.13
863.312	462.06
863.695	512.83
864.078	374.54
864.461	487.45
864.844	380.19
865.227	377.36
865.61	487.45
865.993	303.88
866.376	450.77
866.758	334.98
867.141	425.37
867.523	416.9
867.906	428.19
868.288	456.42
868.671	431.01
869.053	374.54
869.435	354.76
869.817	343.46
870.199	442.3
870.581	405.61
870.963	439.48
871.345	419.72
871.727	464.88
872.109	388.66
872.491	450.77
872.872	343.46
873.254	422.55
873.635	416.9
874.017	380.19
874.398	394.31
874.779	385.84
875.161	431.01
875.542	371.71
875.923	436.66
876.304	394.31
876.685	422.55
877.066	422.55
877.447	411.25
877.828	515.65
878.208	371.71
878.589	425.37
878.97	329.33
879.35	351.93
879.731	368.89
880.111	445.13
880.491	431.01
880.872	388.66
881.252	484.63
881.632	357.59
882.012	402.78
882.392	422.55
882.772	510.01
883.152	490.27
883.532	397.13
883.912	538.2
884.291	476.17
884.671	354.76
885.051	351.93
885.43	388.66
885.81	397.13
886.189	388.66
886.568	419.72
886.948	399.96
887.327	363.24
887.706	377.36
888.085	436.66
888.464	371.71
888.843	526.93
889.222	399.96
889.601	374.54
889.979	408.43
890.358	478.99
890.737	351.93
891.115	431.01
891.494	366.06
891.872	394.31
892.25	419.72
892.629	450.77
893.007	394.31
893.385	385.84
893.763	439.48
894.141	371.71
894.519	405.61
894.897	428.19
895.275	462.06
895.653	439.48
896.03	450.77
896.408	366.06
896.786	478.99
897.163	399.96
897.541	388.66
897.918	478.99
898.295	385.84
898.673	357.59
899.05	436.66
899.427	402.78
899.804	368.89
900.181	366.06
900.558	346.28
900.935	464.88
901.312	334.98
901.688	425.37
902.065	334.98
902.442	470.52
902.818	399.96
903.195	436.66
903.571	436.66
903.947	481.81
904.324	481.81
904.7	431.01
905.076	318.02
905.452	374.54
905.828	402.78
906.204	368.89
906.58	416.9
906.956	388.66
907.331	490.27
907.707	453.59
908.083	391.48
908.458	445.13
908.834	414.08
909.209	397.13
909.585	445.13
909.96	334.98
910.335	329.33
910.71	402.78
911.086	388.66
911.461	301.05
911.836	380.19
912.21	354.76
912.585	436.66
912.96	464.88
913.335	363.24
913.709	419.72
914.084	385.84
914.459	385.84
914.833	366.06
915.207	388.66
915.582	456.42
915.956	512.83
916.33	320.84
916.704	391.48
917.078	340.63
917.452	397.13
917.826	436.66
918.2	414.08
918.574	481.81
918.948	411.25
919.321	411.25
919.695	397.13
920.068	436.66
920.442	357.59
920.815	391.48
921.189	476.17
921.562	394.31
921.935	397.13
922.308	380.19
922.681	515.65
923.054	439.48
923.427	473.34
923.8	405.61
924.173	425.37
924.546	414.08
924.919	320.84
925.291	349.11
925.664	371.71
926.036	402.78
926.409	431.01
926.781	329.33
927.153	478.99
927.526	411.25
927.898	408.43
928.27	467.7
928.642	343.46
929.014	408.43
929.386	408.43
929.758	439.48
930.129	476.17
930.501	408.43
930.873	394.31
931.244	422.55
931.616	416.9
931.987	383.01
932.359	428.19
932.73	416.9
933.101	487.45
933.472	416.9
933.843	416.9
934.214	354.76
934.585	332.15
934.956	445.13
935.327	332.15
935.698	428.19
936.069	368.89
936.439	357.59
936.81	368.89
937.18	368.89
937.551	371.71
937.921	363.24
938.292	414.08
938.662	357.59
939.032	368.89
939.402	495.91
939.772	422.55
940.142	425.37
940.512	408.43
940.882	380.19
941.252	411.25
941.621	368.89
941.991	470.52
942.361	371.71
942.73	408.43
943.1	374.54
943.469	414.08
943.838	408.43
944.208	445.13
944.577	298.23
944.946	450.77
945.315	357.59
945.684	337.8
946.053	306.71
946.422	334.98
946.791	394.31
947.159	385.84
947.528	439.48
947.897	445.13
948.265	402.78
948.634	411.25
949.002	467.7
949.371	399.96
949.739	374.54
950.107	459.24
950.475	464.88
950.843	419.72
951.211	442.3
951.579	428.19
951.947	391.48
952.315	383.01
952.683	411.25
953.05	320.84
953.418	366.06
953.785	442.3
954.153	366.06
954.52	425.37
954.888	391.48
955.255	357.59
955.622	507.19
955.989	385.84
956.356	487.45
956.723	442.3
957.09	346.28
957.457	422.55
957.824	383.01
958.191	399.96
958.557	371.71
958.924	391.48
959.291	408.43
959.657	422.55
960.023	385.84
960.39	343.46
960.756	431.01
961.122	411.25
961.488	419.72
961.855	326.5
962.221	402.78
962.586	478.99
962.952	419.72
963.318	388.66
963.684	462.06
964.05	442.3
964.415	385.84
964.781	399.96
965.146	408.43
965.512	450.77
965.877	388.66
966.242	399.96
966.608	453.59
966.973	383.01
967.338	428.19
967.703	408.43
968.068	442.3
968.433	428.19
968.797	405.61
969.162	450.77
969.527	349.11
969.891	433.84
970.256	467.7
970.62	383.01
970.985	433.84
971.349	399.96
971.714	431.01
972.078	391.48
972.442	428.19
972.806	351.93
973.17	459.24
973.534	388.66
973.898	470.52
974.262	337.8
974.625	343.46
974.989	442.3
975.353	374.54
975.716	447.95
976.08	422.55
976.443	459.24
976.806	377.36
977.17	467.7
977.533	414.08
977.896	363.24
978.259	543.84
978.622	425.37
978.985	414.08
979.348	380.19
979.711	388.66
980.073	478.99
980.436	431.01
980.799	436.66
981.161	368.89
981.524	340.63
981.886	363.24
982.248	337.8
982.611	357.59
982.973	431.01
983.335	366.06
983.697	456.42
984.059	405.61
984.421	385.84
984.783	411.25
985.145	493.09
985.506	391.48
985.868	416.9
986.23	439.48
986.591	391.48
986.953	442.3
987.314	385.84
987.675	422.55
988.037	557.93
988.398	408.43
988.759	388.66
989.12	343.46
989.481	414.08
989.842	442.3
990.203	416.9
990.564	442.3
990.924	391.48
991.285	510.01
991.646	388.66
992.006	377.36
992.367	394.31
992.727	414.08
993.087	405.61
993.448	363.24
993.808	351.93
994.168	450.77
994.528	481.81
994.888	309.54
995.248	411.25
995.608	354.76
995.967	371.71
996.327	323.67
996.687	357.59
997.046	425.37
997.406	476.17
997.765	462.06
998.125	453.59
998.484	408.43
998.843	408.43
999.202	275.6
999.561	473.34
999.92	422.55
1000.279	399.96
1000.638	275.6
1000.997	419.72
1001.356	309.54
1001.715	419.72
1002.073	391.48
1002.432	284.09
1002.79	371.71
1003.149	442.3
1003.507	478.99
1003.865	351.93
1004.224	332.15
1004.582	399.96
1004.94	416.9
1005.298	385.84
1005.656	495.91
1006.014	363.24
1006.371	459.24
1006.729	478.99
1007.087	462.06
1007.445	478.99
1007.802	394.31
1008.16	493.09
1008.517	397.13
1008.874	428.19
1009.232	368.89
1009.589	394.31
1009.946	284.09
1010.303	405.61
1010.66	343.46
1011.017	351.93
1011.374	349.11
1011.731	377.36
1012.087	383.01
1012.444	323.67
1012.801	377.36
1013.157	462.06
1013.513	431.01
1013.87	388.66
1014.226	329.33
1014.582	340.63
1014.939	411.25
1015.295	456.42
1015.651	397.13
1016.007	462.06
1016.363	428.19
1016.719	391.48
1017.074	402.78
1017.43	467.7
1017.786	456.42
1018.141	405.61
1018.497	431.01
1018.852	391.48
1019.208	436.66
1019.563	391.48
1019.918	377.36
1020.273	405.61
1020.628	436.66
1020.983	436.66
1021.338	431.01
1021.693	425.37
1022.048	399.96
1022.403	493.09
1022.757	312.36
1023.112	326.5
1023.467	391.48
1023.821	419.72
1024.175	431.01
1024.53	408.43
1024.884	349.11
1025.238	340.63
1025.592	343.46
1025.946	416.9
1026.3	326.5
1026.654	366.06
1027.008	360.41
1027.362	363.24
1027.716	445.13
1028.069	360.41
1028.423	436.66
1028.777	388.66
1029.13	366.06
1029.483	414.08
1029.837	433.84
1030.19	431.01
1030.543	380.19
1030.896	431.01
1031.249	414.08
1031.602	442.3
1031.955	411.25
1032.308	351.93
1032.661	366.06
1033.013	447.95
1033.366	428.19
1033.719	301.05
1034.071	422.55
1034.424	402.78
1034.776	380.19
1035.128	343.46
1035.48	425.37
1035.833	391.48
1036.185	476.17
1036.537	476.17
1036.889	476.17
