Data from SCSF78-3-385-irrad_FLMS019251_12-05-58-405.txt Node
Date: Fri Feb 15 12:05:58 CET 2019
User: luk
Spectrometer: FLMS01925
Trigger mode: 0
Integration Time (sec): 5.070000E-3
Scans to average: 1
Electric dark correction enabled: true
Nonlinearity correction enabled: true
Boxcar width: 0
XAxis mode: Wavelengths
Number of Pixels in Spectrum: 2048
>>>>>Begin Spectral Data<<<<<
187.103	-111.7
187.574	-111.7
188.045	-111.7
188.516	-108.86
188.987	-171.44
189.458	-80.43
189.929	-142.99
190.4	-123.08
190.871	-43.49
191.342	-125.92
191.813	-57.69
192.284	-43.49
192.754	44.53
193.225	-12.25
193.696	-63.38
194.166	-6.57
194.637	89.91
195.107	55.88
195.578	101.26
196.048	189.1
196.518	217.41
196.989	186.27
197.459	191.93
197.929	231.57
198.399	319.25
198.869	282.49
199.339	290.98
199.809	293.81
200.279	381.42
200.749	174.94
201.219	378.6
201.689	330.56
202.159	356
202.628	392.72
203.098	404.02
203.568	392.72
204.037	406.84
204.507	454.83
204.976	460.47
205.445	398.37
205.915	353.17
206.384	350.35
206.853	468.94
207.323	409.66
207.792	372.95
208.261	361.65
208.73	463.29
209.199	381.42
209.668	344.69
210.137	412.49
210.606	406.84
211.075	446.36
211.543	420.96
212.012	409.66
212.481	302.29
212.95	367.3
213.418	364.47
213.887	254.2
214.355	406.84
214.824	432.25
215.292	370.12
215.76	322.08
216.229	302.29
216.697	372.95
217.165	406.84
217.633	370.12
218.101	370.12
218.569	387.07
219.037	310.77
219.505	361.65
219.973	409.66
220.441	443.54
220.909	361.65
221.377	358.82
221.844	418.13
222.312	333.39
222.78	389.9
223.247	361.65
223.715	290.98
224.182	333.39
224.65	364.47
225.117	381.42
225.584	389.9
226.052	375.77
226.519	364.47
226.986	418.13
227.453	319.25
227.92	279.67
228.387	406.84
228.854	412.49
229.321	299.46
229.788	429.43
230.255	381.42
230.722	327.74
231.189	392.72
231.655	341.87
232.122	356
232.589	285.32
233.055	389.9
233.522	370.12
233.988	333.39
234.454	370.12
234.921	356
235.387	392.72
235.853	358.82
236.32	426.6
236.786	319.25
237.252	398.37
237.718	392.72
238.184	375.77
238.65	404.02
239.116	372.95
239.582	310.77
240.047	370.12
240.513	367.3
240.979	375.77
241.445	418.13
241.91	341.87
242.376	353.17
242.841	353.17
243.307	327.74
243.772	322.08
244.238	372.95
244.703	344.69
245.168	378.6
245.633	389.9
246.099	415.31
246.564	389.9
247.029	375.77
247.494	420.96
247.959	336.21
248.424	415.31
248.889	466.11
249.353	384.25
249.818	395.54
250.283	404.02
250.748	353.17
251.212	271.18
251.677	327.74
252.141	350.35
252.606	381.42
253.07	367.3
253.535	423.78
253.999	406.84
254.463	389.9
254.927	319.25
255.392	370.12
255.856	353.17
256.32	435.07
256.784	437.89
257.248	440.72
257.712	375.77
258.176	367.3
258.64	364.47
259.103	347.52
259.567	440.72
260.031	361.65
260.495	375.77
260.958	423.78
261.422	381.42
261.885	372.95
262.349	401.19
262.812	406.84
263.275	420.96
263.739	454.83
264.202	350.35
264.665	370.12
265.128	372.95
265.591	361.65
266.054	440.72
266.517	384.25
266.98	347.52
267.443	367.3
267.906	372.95
268.369	389.9
268.832	378.6
269.294	387.07
269.757	364.47
270.22	389.9
270.682	420.96
271.145	375.77
271.607	316.43
272.07	367.3
272.532	471.76
272.994	440.72
273.456	322.08
273.919	395.54
274.381	324.91
274.843	398.37
275.305	468.94
275.767	313.6
276.229	350.35
276.691	347.52
277.153	384.25
277.614	387.07
278.076	460.47
278.538	423.78
279	392.72
279.461	378.6
279.923	406.84
280.384	392.72
280.846	437.89
281.307	404.02
281.769	387.07
282.23	418.13
282.691	420.96
283.152	358.82
283.613	471.76
284.075	350.35
284.536	350.35
284.997	384.25
285.458	387.07
285.918	426.6
286.379	502.78
286.84	389.9
287.301	429.43
287.762	367.3
288.222	460.47
288.683	432.25
289.143	375.77
289.604	401.19
290.064	420.96
290.525	404.02
290.985	423.78
291.445	316.43
291.906	420.96
292.366	497.14
292.826	454.83
293.286	499.96
293.746	339.04
294.206	480.22
294.666	463.29
295.126	429.43
295.586	423.78
296.046	452.01
296.506	443.54
296.965	429.43
297.425	474.58
297.884	449.18
298.344	378.6
298.804	435.07
299.263	463.29
299.722	389.9
300.182	370.12
300.641	307.95
301.1	449.18
301.559	367.3
302.019	375.77
302.478	466.11
302.937	333.39
303.396	437.89
303.855	483.04
304.314	452.01
304.772	401.19
305.231	437.89
305.69	483.04
306.149	449.18
306.607	378.6
307.066	375.77
307.524	449.18
307.983	499.96
308.441	364.47
308.9	454.83
309.358	293.81
309.816	415.31
310.275	401.19
310.733	446.36
311.191	435.07
311.649	401.19
312.107	449.18
312.565	432.25
313.023	426.6
313.481	488.68
313.939	409.66
314.397	420.96
314.854	514.06
315.312	358.82
315.77	440.72
316.227	378.6
316.685	356
317.142	375.77
317.6	381.42
318.057	384.25
318.514	381.42
318.972	454.83
319.429	378.6
319.886	364.47
320.343	497.14
320.8	319.25
321.257	412.49
321.714	392.72
322.171	468.94
322.628	474.58
323.085	412.49
323.542	398.37
323.998	449.18
324.455	420.96
324.912	350.35
325.368	353.17
325.825	412.49
326.281	494.32
326.738	435.07
327.194	389.9
327.65	446.36
328.107	443.54
328.563	398.37
329.019	466.11
329.475	353.17
329.931	398.37
330.387	547.89
330.843	384.25
331.299	429.43
331.755	429.43
332.211	452.01
332.666	398.37
333.122	423.78
333.578	384.25
334.033	474.58
334.489	406.84
334.944	401.19
335.4	420.96
335.855	406.84
336.31	418.13
336.766	372.95
337.221	313.6
337.676	446.36
338.131	395.54
338.586	440.72
339.041	395.54
339.496	437.89
339.951	336.21
340.406	418.13
340.861	344.69
341.316	356
341.771	375.77
342.225	437.89
342.68	401.19
343.134	432.25
343.589	358.82
344.043	367.3
344.498	364.47
344.952	364.47
345.406	435.07
345.861	324.91
346.315	432.25
346.769	446.36
347.223	463.29
347.677	375.77
348.131	449.18
348.585	497.14
349.039	375.77
349.493	452.01
349.947	395.54
350.401	358.82
350.854	446.36
351.308	525.34
351.762	333.39
352.215	480.22
352.669	347.52
353.122	336.21
353.575	437.89
354.029	370.12
354.482	415.31
354.935	454.83
355.388	381.42
355.842	364.47
356.295	460.47
356.748	483.04
357.201	418.13
357.654	449.18
358.106	423.78
358.559	415.31
359.012	426.6
359.465	474.58
359.917	437.89
360.37	466.11
360.823	353.17
361.275	432.25
361.728	457.65
362.18	460.47
362.632	401.19
363.085	378.6
363.537	333.39
363.989	370.12
364.441	358.82
364.893	499.96
365.345	437.89
365.797	443.54
366.249	443.54
366.701	449.18
367.153	446.36
367.605	358.82
368.057	412.49
368.508	418.13
368.96	471.76
369.411	387.07
369.863	471.76
370.314	364.47
370.766	457.65
371.217	387.07
371.669	474.58
372.12	420.96
372.571	384.25
373.022	404.02
373.473	491.5
373.924	423.78
374.375	401.19
374.826	384.25
375.277	460.47
375.728	420.96
376.179	415.31
376.63	449.18
377.08	452.01
377.531	398.37
377.981	457.65
378.432	409.66
378.883	404.02
379.333	452.01
379.783	485.86
380.234	398.37
380.684	327.74
381.134	364.47
381.584	446.36
382.034	440.72
382.485	389.9
382.935	508.42
383.385	474.58
383.834	499.96
384.284	446.36
384.734	375.77
385.184	344.69
385.634	474.58
386.083	429.43
386.533	381.42
386.982	457.65
387.432	375.77
387.881	412.49
388.331	468.94
388.78	499.96
389.229	477.4
389.679	457.65
390.128	375.77
390.577	437.89
391.026	468.94
391.475	429.43
391.924	381.42
392.373	485.86
392.822	432.25
393.27	415.31
393.719	485.86
394.168	296.63
394.617	356
395.065	384.25
395.514	443.54
395.962	502.78
396.411	480.22
396.859	477.4
397.307	401.19
397.756	423.78
398.204	437.89
398.652	415.31
399.1	406.84
399.548	381.42
399.996	483.04
400.444	443.54
400.892	516.88
401.34	480.22
401.788	494.32
402.236	375.77
402.683	344.69
403.131	415.31
403.579	426.6
404.026	449.18
404.474	502.78
404.921	449.18
405.369	471.76
405.816	437.89
406.263	443.54
406.71	415.31
407.158	460.47
407.605	471.76
408.052	499.96
408.499	401.19
408.946	454.83
409.393	471.76
409.84	437.89
410.286	502.78
410.733	471.76
411.18	480.22
411.626	420.96
412.073	488.68
412.52	584.52
412.966	550.71
413.413	556.35
413.859	525.34
414.305	592.97
414.752	629.58
415.198	640.84
415.644	761.78
416.09	949.84
416.536	1145.83
416.982	1291.1
417.428	1675.29
417.874	2085.25
418.32	2506.88
418.766	2909.94
419.211	3672.45
419.657	4452.72
420.103	5229.33
420.548	5949.77
420.994	7149.05
421.439	8095.03
421.885	9249.33
422.33	10508.4
422.776	11672.47
423.221	12929.42
423.666	14324.21
424.111	15624.46
424.556	16566.2
425.001	18150.32
425.446	19319.83
425.891	20706.89
426.336	21653.83
426.781	23213.54
427.226	24841.75
427.671	25230.15
428.115	26057.6
428.56	27853.28
429.005	29163.41
429.449	29495.52
429.894	30732.74
430.338	31315.62
430.782	31934.94
431.227	32988.18
431.671	33305.15
432.115	34959.11
432.559	35523.13
433.003	35491.38
433.447	36385.79
433.891	36867.68
434.335	36928.86
434.779	37903.78
435.223	38283.97
435.667	37844.94
436.111	39148.59
436.554	38617.82
436.998	38114.69
437.442	38517.15
437.885	40619.47
438.328	39298.61
438.772	39746.56
439.215	40478.76
439.659	40024.96
440.102	40347.98
440.545	39958.42
440.988	40251.78
441.431	40639.22
441.874	40994.99
442.317	41002.41
442.76	40422
443.203	40185.2
443.646	40624.41
444.089	40619.47
444.531	41212.6
444.974	40170.41
445.417	41009.82
445.859	40271.52
446.302	41559.14
446.744	40594.78
447.186	42226.19
447.629	41121.09
448.071	40782.47
448.513	40945.55
448.956	42380.17
449.398	41804.45
449.84	40570.09
450.282	40913.42
450.724	41618.59
451.166	41366.02
451.607	41687.96
452.049	41588.86
452.491	42064.85
452.933	41777.18
453.374	42663.53
453.816	42989.56
454.257	42740.64
454.699	43897.88
455.14	42715.77
455.582	42588.93
456.023	42964.65
456.464	43059.3
456.905	43862.87
457.347	43415.81
457.788	42989.56
458.229	43440.76
458.67	43967.91
459.111	41819.32
459.552	42332.97
459.992	41678.05
460.433	41497.23
460.874	40733.07
461.315	41299.2
461.755	40866.47
462.196	40693.55
462.636	39633.29
463.077	39862.33
463.517	39899.28
463.957	40333.18
464.398	39556.98
464.838	39874.64
465.278	38843.8
465.718	38949.47
466.158	37536.14
466.598	38662.02
467.038	37808.17
467.478	38335.5
467.918	38421.41
468.358	37528.79
468.798	37416.1
469.237	37357.31
469.677	37482.24
470.117	38330.6
470.556	35921.35
470.996	36970.47
471.435	36853
471.874	37345.07
472.314	37097.76
472.753	35772.3
473.192	35755.2
473.631	36053.32
474.07	36385.79
474.509	36273.32
474.948	36080.2
475.387	35923.79
475.826	34441.74
476.265	36596.11
476.704	36060.65
477.143	36517.85
477.581	36165.75
478.02	36723.32
478.458	35498.71
478.897	36420.02
479.335	36853
479.774	36207.31
480.212	36833.43
480.65	36745.34
481.089	36486.05
481.527	35462.08
481.965	35818.72
482.403	37477.34
482.841	37614.55
483.279	37176.1
483.717	37318.13
484.155	36757.57
484.592	37019.42
485.03	37274.05
485.468	36253.76
485.905	36280.65
486.343	36532.52
486.781	36077.76
487.218	35789.4
487.655	35870.03
488.093	35044.54
488.53	36297.77
488.967	35684.35
489.405	35266.72
489.842	34375.86
490.279	34812.66
490.716	34280.72
491.153	34668.67
491.59	34263.64
492.027	33863.6
492.463	33310.03
492.9	32439.61
493.337	32741.93
493.773	32817.51
494.21	31827.66
494.647	32115.36
495.083	30798.6
495.519	30593.7
495.956	30781.52
496.392	29954.43
496.828	29878.77
497.265	29654.21
497.701	29185.4
498.137	29124.34
498.573	28254.38
499.009	28755.45
499.445	28237.26
499.881	27816.59
500.316	27765.21
500.752	26923.02
501.188	26822.57
501.624	27092.04
502.059	25493.01
502.495	25598.61
502.93	25362.82
503.366	25495.46
503.801	24878.64
504.236	24942.57
504.672	24162.56
505.107	24039.42
505.542	24046.81
505.977	23852.18
506.412	23065.46
506.847	23635.29
507.282	22724.71
507.717	22823.5
508.152	22675.3
508.587	22583.88
509.021	22032.52
509.456	21844.46
509.891	21735.54
510.325	21577.06
510.76	21381.37
511.194	21299.6
511.628	21200.46
512.063	20808.63
512.497	20575.35
512.931	20471.07
513.366	20232.63
513.8	20108.39
514.234	19494.09
514.668	19372.12
515.102	19509.02
515.536	19125.56
515.969	19103.14
516.403	18739.25
516.837	18170.3
517.271	18357.54
517.704	18200.26
518.138	18145.33
518.571	17713.04
519.005	17252.73
519.438	17395.39
519.871	17192.65
520.305	16869.54
520.738	16852
521.171	16450.82
521.604	16714.14
522.037	16380.57
522.47	16104.44
522.903	15998.95
523.336	15747.66
523.769	15619.43
524.202	15148.82
524.634	15126.15
525.067	15143.78
525.5	14760.74
525.932	14758.22
526.365	14541.29
526.797	14081.69
527.23	14316.63
527.662	13573.26
528.094	13471.97
528.527	13717.54
528.959	13497.3
529.391	13041.07
529.823	12835.5
530.255	12678.05
530.687	12421.33
531.119	12161.79
531.551	11952.94
531.982	12080.31
532.414	11639.3
532.846	11544.87
533.277	11378.87
533.709	11171.83
534.14	11179.5
534.572	10759.69
535.003	10659.72
535.435	10587.92
535.866	10441.68
536.297	10189.97
536.728	9973.94
537.159	10056.27
537.59	9855.53
538.022	9716.42
538.452	9507.55
538.883	9600.41
539.314	9306.17
539.745	9339.75
540.176	9037.28
540.606	8718.66
541.037	8780.88
541.468	8524.06
541.898	8713.48
542.328	8508.48
542.759	8292.8
543.189	8329.21
543.619	8063.78
544.05	7993.43
544.48	7842.2
544.91	7891.76
545.34	7779.58
545.77	7667.3
546.2	7531.39
546.63	7335.13
547.06	7377.02
547.489	7298.46
547.919	6986.34
548.349	6928.55
548.778	7023.1
549.208	6928.55
549.637	6536.44
550.067	6744.5
550.496	6457.33
550.926	6483.71
551.355	6399.29
551.784	6459.97
552.213	6211.76
552.642	6119.21
553.071	6174.75
553.5	6053.05
553.929	5872.9
554.358	5933.87
554.787	5689.8
555.216	5729.63
555.645	5721.66
556.073	5519.69
556.502	5405.24
556.93	5325.31
557.359	5277.33
557.787	5272
558.216	5341.3
558.644	5093.19
559.072	5175.96
559.5	5199.98
559.929	5021.04
560.357	4970.24
560.785	5138.59
561.213	4801.61
561.641	4801.61
562.068	4911.38
562.496	4777.49
562.924	4734.61
563.352	4699.75
563.779	4774.81
564.207	4737.29
564.634	4739.97
565.062	4412.38
565.489	4648.79
565.917	4493.04
566.344	4398.93
566.771	4404.31
567.198	4460.78
567.625	4363.95
568.053	4361.26
568.48	4315.5
568.907	4221.21
569.333	4091.75
569.76	3832.28
570.187	3962.11
570.614	3932.37
571.04	3799.8
571.467	3918.86
571.894	3691.43
572.32	3637.2
572.747	3669.74
573.173	3631.77
573.599	3398.17
574.026	3496.03
574.452	3447.12
574.878	3517.76
575.304	3330.15
575.73	3251.17
576.156	3093.01
576.582	3166.68
577.008	3180.31
577.434	3057.52
577.86	3019.28
578.285	3087.55
578.711	2991.96
579.137	2896.26
579.562	2860.69
579.988	2759.36
580.413	2805.93
580.838	2696.31
581.264	2660.65
581.689	2641.45
582.114	2674.37
582.539	2603.02
582.964	2487.63
583.39	2553.59
583.814	2443.63
584.239	2388.6
584.664	2402.36
585.089	2410.62
585.514	2443.63
585.939	2256.37
586.363	2184.66
586.788	2281.18
587.212	2217.76
587.637	2261.88
588.061	2256.37
588.485	2165.34
588.91	2088.02
589.334	2054.86
589.758	2115.64
590.182	2090.78
590.606	2057.62
591.03	1935.92
591.454	1946.99
591.878	1916.54
592.302	1891.62
592.726	1858.37
593.15	1930.38
593.573	1836.21
593.997	1838.98
594.42	1791.85
594.844	1714.16
595.267	1716.94
595.691	1753.02
596.114	1683.62
596.537	1719.72
596.96	1714.16
597.384	1739.14
597.807	1561.35
598.23	1650.29
598.653	1555.78
599.076	1630.85
599.499	1611.39
599.921	1678.07
600.344	1516.83
600.767	1547.44
601.189	1450.02
601.612	1536.31
602.034	1536.31
602.457	1411.01
602.879	1447.23
603.302	1516.83
603.724	1419.37
604.146	1580.81
604.568	1279.93
604.991	1486.22
605.413	1438.87
605.835	1377.57
606.257	1374.78
606.678	1447.23
607.1	1422.16
607.522	1427.73
607.944	1319
608.365	1355.26
608.787	1218.5
609.209	1313.42
609.63	1321.79
610.051	1321.79
610.473	1274.35
610.894	1316.21
611.315	1268.77
611.737	1184.97
612.158	1224.08
612.579	1282.72
613	1204.53
613.421	1190.56
613.842	1293.89
614.263	1212.91
614.683	1182.17
615.104	1254.81
615.525	1190.56
615.945	1316.21
616.366	1134.64
616.787	1154.22
617.207	1229.67
617.627	1089.89
618.048	1087.09
618.468	1184.97
618.888	1011.49
619.308	1070.3
619.728	961.06
620.148	1106.67
620.568	1098.28
620.988	944.24
621.408	1003.09
621.828	1059.1
622.248	1064.7
622.668	989.08
623.087	1011.49
623.507	958.25
623.926	868.5
624.346	938.63
624.765	820.78
625.185	1033.9
625.604	784.26
626.023	896.56
626.442	919
626.861	820.78
627.28	798.31
627.699	910.59
628.118	809.54
628.537	927.41
628.956	933.02
629.375	904.98
629.794	860.08
630.212	871.31
630.631	773.02
631.049	803.93
631.468	817.97
631.886	756.16
632.305	789.88
632.723	837.63
633.141	823.59
633.559	770.21
633.978	801.12
634.396	744.92
634.814	722.43
635.232	795.5
635.65	739.3
636.067	716.8
636.485	784.26
636.903	784.26
637.321	787.07
637.738	736.49
638.156	674.61
638.573	702.74
638.991	742.11
639.408	680.24
639.825	744.92
640.243	652.1
640.66	733.67
641.077	680.24
641.494	694.3
641.911	722.43
642.328	685.87
642.745	671.8
643.162	683.05
643.579	629.58
643.995	604.24
644.412	635.21
644.829	668.98
645.245	635.21
645.662	708.37
646.078	674.61
646.495	581.7
646.911	677.43
647.327	649.28
647.743	646.47
648.159	556.35
648.576	635.21
648.992	649.28
649.408	516.88
649.824	728.05
650.239	660.54
650.655	570.44
651.071	595.79
651.487	713.99
651.902	561.98
652.318	623.95
652.733	663.36
653.149	607.05
653.564	564.8
653.979	567.62
654.395	621.13
654.81	590.16
655.225	567.62
655.64	508.42
656.055	587.34
656.47	592.97
656.885	654.91
657.3	570.44
657.715	564.8
658.13	564.8
658.544	522.52
658.959	587.34
659.374	629.58
659.788	525.34
660.202	559.16
660.617	542.25
661.031	536.62
661.445	466.11
661.86	556.35
662.274	561.98
662.688	525.34
663.102	545.07
663.516	519.7
663.93	559.16
664.344	584.52
664.758	449.18
665.171	547.89
665.585	553.53
665.999	483.04
666.412	590.16
666.826	612.69
667.239	539.44
667.653	564.8
668.066	550.71
668.479	474.58
668.892	497.14
669.306	488.68
669.719	485.86
670.132	528.16
670.545	485.86
670.958	514.06
671.37	547.89
671.783	553.53
672.196	550.71
672.609	508.42
673.021	528.16
673.434	499.96
673.846	485.86
674.259	449.18
674.671	587.34
675.084	561.98
675.496	519.7
675.908	423.78
676.32	483.04
676.732	457.65
677.144	511.24
677.556	418.13
677.968	550.71
678.38	443.54
678.792	505.6
679.204	530.98
679.615	536.62
680.027	499.96
680.439	514.06
680.85	483.04
681.262	446.36
681.673	466.11
682.084	497.14
682.496	488.68
682.907	437.89
683.318	449.18
683.729	435.07
684.14	553.53
684.551	474.58
684.962	375.77
685.373	449.18
685.784	443.54
686.194	508.42
686.605	485.86
687.016	514.06
687.426	471.76
687.837	497.14
688.247	553.53
688.657	542.25
689.068	454.83
689.478	488.68
689.888	468.94
690.298	485.86
690.708	429.43
691.118	530.98
691.528	418.13
691.938	443.54
692.348	418.13
692.758	508.42
693.168	474.58
693.577	350.35
693.987	474.58
694.396	452.01
694.806	468.94
695.215	401.19
695.625	418.13
696.034	530.98
696.443	418.13
696.852	437.89
697.262	375.77
697.671	418.13
698.08	468.94
698.489	446.36
698.897	466.11
699.306	401.19
699.715	457.65
700.124	466.11
700.532	437.89
700.941	468.94
701.35	505.6
701.758	505.6
702.166	435.07
702.575	381.42
702.983	336.21
703.391	358.82
703.799	477.4
704.208	375.77
704.616	460.47
705.024	454.83
705.432	341.87
705.839	440.72
706.247	412.49
706.655	460.47
707.063	401.19
707.47	429.43
707.878	389.9
708.285	358.82
708.693	426.6
709.1	370.12
709.508	401.19
709.915	494.32
710.322	353.17
710.729	516.88
711.136	494.32
711.543	449.18
711.95	381.42
712.357	378.6
712.764	387.07
713.171	387.07
713.578	426.6
713.984	437.89
714.391	471.76
714.797	452.01
715.204	497.14
715.61	466.11
716.017	387.07
716.423	443.54
716.829	344.69
717.236	435.07
717.642	406.84
718.048	435.07
718.454	446.36
718.86	358.82
719.266	420.96
719.671	446.36
720.077	392.72
720.483	454.83
720.889	347.52
721.294	322.08
721.7	443.54
722.105	432.25
722.511	389.9
722.916	353.17
723.321	454.83
723.726	440.72
724.132	406.84
724.537	398.37
724.942	480.22
725.347	367.3
725.752	418.13
726.156	418.13
726.561	446.36
726.966	324.91
727.371	437.89
727.775	418.13
728.18	350.35
728.584	358.82
728.989	437.89
729.393	471.76
729.798	457.65
730.202	378.6
730.606	471.76
731.01	398.37
731.414	426.6
731.818	358.82
732.222	347.52
732.626	341.87
733.03	356
733.434	415.31
733.837	432.25
734.241	454.83
734.645	480.22
735.048	454.83
735.452	437.89
735.855	361.65
736.258	452.01
736.662	477.4
737.065	463.29
737.468	483.04
737.871	452.01
738.274	440.72
738.677	367.3
739.08	491.5
739.483	370.12
739.886	463.29
740.289	412.49
740.691	358.82
741.094	432.25
741.497	420.96
741.899	435.07
742.302	426.6
742.704	336.21
743.106	384.25
743.508	401.19
743.911	460.47
744.313	488.68
744.715	432.25
745.117	401.19
745.519	409.66
745.921	483.04
746.323	452.01
746.724	468.94
747.126	381.42
747.528	468.94
747.929	511.24
748.331	418.13
748.732	420.96
749.134	449.18
749.535	358.82
749.936	378.6
750.338	361.65
750.739	412.49
751.14	341.87
751.541	454.83
751.942	341.87
752.343	367.3
752.744	437.89
753.144	491.5
753.545	395.54
753.946	435.07
754.346	358.82
754.747	420.96
755.148	443.54
755.548	508.42
755.948	426.6
756.349	353.17
756.749	406.84
757.149	361.65
757.549	384.25
757.949	398.37
758.349	372.95
758.749	350.35
759.149	372.95
759.549	344.69
759.949	429.43
760.348	378.6
760.748	372.95
761.148	429.43
761.547	454.83
761.947	440.72
762.346	420.96
762.745	389.9
763.145	480.22
763.544	423.78
763.943	395.54
764.342	406.84
764.741	443.54
765.14	460.47
765.539	404.02
765.938	350.35
766.336	423.78
766.735	401.19
767.134	381.42
767.532	392.72
767.931	378.6
768.329	432.25
768.728	381.42
769.126	387.07
769.525	432.25
769.923	381.42
770.321	384.25
770.719	392.72
771.117	378.6
771.515	418.13
771.913	387.07
772.311	395.54
772.709	375.77
773.106	353.17
773.504	384.25
773.902	418.13
774.299	452.01
774.697	480.22
775.094	378.6
775.491	401.19
775.889	395.54
776.286	423.78
776.683	392.72
777.08	307.95
777.477	347.52
777.874	440.72
778.271	404.02
778.668	370.12
779.065	378.6
779.462	319.25
779.858	367.3
780.255	347.52
780.652	409.66
781.048	488.68
781.444	389.9
781.841	449.18
782.237	460.47
782.633	333.39
783.03	423.78
783.426	466.11
783.822	432.25
784.218	443.54
784.614	398.37
785.01	460.47
785.405	401.19
785.801	367.3
786.197	412.49
786.593	372.95
786.988	466.11
787.384	415.31
787.779	364.47
788.174	432.25
788.57	401.19
788.965	333.39
789.36	426.6
789.755	418.13
790.15	412.49
790.545	466.11
790.94	420.96
791.335	324.91
791.73	333.39
792.125	409.66
792.52	542.25
792.914	440.72
793.309	471.76
793.703	409.66
794.098	395.54
794.492	429.43
794.887	468.94
795.281	375.77
795.675	440.72
796.069	446.36
796.463	446.36
796.857	370.12
797.251	423.78
797.645	316.43
798.039	432.25
798.433	454.83
798.826	279.67
799.22	454.83
799.614	435.07
800.007	423.78
800.401	327.74
800.794	426.6
801.187	372.95
801.581	387.07
801.974	409.66
802.367	322.08
802.76	449.18
803.153	372.95
803.546	361.65
803.939	401.19
804.332	381.42
804.725	324.91
805.117	361.65
805.51	452.01
805.903	358.82
806.295	454.83
806.688	432.25
807.08	395.54
807.472	429.43
807.865	415.31
808.257	406.84
808.649	367.3
809.041	412.49
809.433	468.94
809.825	454.83
810.217	468.94
810.609	319.25
811.001	387.07
811.392	409.66
811.784	423.78
812.175	409.66
812.567	412.49
812.958	395.54
813.35	361.65
813.741	364.47
814.132	395.54
814.524	370.12
814.915	423.78
815.306	435.07
815.697	429.43
816.088	367.3
816.479	488.68
816.87	404.02
817.26	477.4
817.651	378.6
818.042	364.47
818.432	372.95
818.823	415.31
819.213	418.13
819.604	426.6
819.994	474.58
820.384	440.72
820.775	483.04
821.165	339.04
821.555	409.66
821.945	491.5
822.335	418.13
822.725	358.82
823.114	418.13
823.504	440.72
823.894	330.56
824.284	485.86
824.673	392.72
825.063	429.43
825.452	384.25
825.842	361.65
826.231	406.84
826.62	420.96
827.009	435.07
827.399	254.2
827.788	356
828.177	293.81
828.566	406.84
828.954	483.04
829.343	358.82
829.732	415.31
830.121	435.07
830.509	344.69
830.898	392.72
831.286	375.77
831.675	341.87
832.063	336.21
832.452	375.77
832.84	381.42
833.228	406.84
833.616	389.9
834.004	324.91
834.392	361.65
834.78	392.72
835.168	480.22
835.556	432.25
835.944	409.66
836.331	384.25
836.719	387.07
837.107	488.68
837.494	423.78
837.881	406.84
838.269	395.54
838.656	412.49
839.043	446.36
839.431	381.42
839.818	350.35
840.205	406.84
840.592	449.18
840.979	392.72
841.366	488.68
841.752	350.35
842.139	395.54
842.526	415.31
842.912	483.04
843.299	423.78
843.685	423.78
844.072	412.49
844.458	432.25
844.844	466.11
845.231	392.72
845.617	392.72
846.003	488.68
846.389	378.6
846.775	401.19
847.161	392.72
847.547	364.47
847.933	395.54
848.318	443.54
848.704	364.47
849.09	460.47
849.475	418.13
849.861	367.3
850.246	440.72
850.631	418.13
851.017	387.07
851.402	406.84
851.787	409.66
852.172	423.78
852.557	367.3
852.942	316.43
853.327	429.43
853.712	412.49
854.097	466.11
854.481	426.6
854.866	367.3
855.25	412.49
855.635	364.47
856.019	463.29
856.404	364.47
856.788	375.77
857.172	426.6
857.557	474.58
857.941	412.49
858.325	350.35
858.709	293.81
859.093	392.72
859.477	418.13
859.86	324.91
860.244	378.6
860.628	474.58
861.012	432.25
861.395	367.3
861.779	375.77
862.162	336.21
862.545	389.9
862.929	384.25
863.312	381.42
863.695	418.13
864.078	409.66
864.461	409.66
864.844	429.43
865.227	437.89
865.61	418.13
865.993	446.36
866.376	440.72
866.758	327.74
867.141	370.12
867.523	491.5
867.906	415.31
868.288	395.54
868.671	401.19
869.053	347.52
869.435	398.37
869.817	415.31
870.199	389.9
870.581	330.56
870.963	392.72
871.345	299.46
871.727	392.72
872.109	398.37
872.491	378.6
872.872	341.87
873.254	358.82
873.635	387.07
874.017	356
874.398	341.87
874.779	384.25
875.161	404.02
875.542	367.3
875.923	341.87
876.304	440.72
876.685	418.13
877.066	392.72
877.447	347.52
877.828	401.19
878.208	468.94
878.589	389.9
878.97	381.42
879.35	415.31
879.731	324.91
880.111	375.77
880.491	432.25
880.872	370.12
881.252	353.17
881.632	307.95
882.012	395.54
882.392	485.86
882.772	364.47
883.152	333.39
883.532	412.49
883.912	372.95
884.291	401.19
884.671	361.65
885.051	398.37
885.43	364.47
885.81	350.35
886.189	409.66
886.568	412.49
886.948	389.9
887.327	401.19
887.706	322.08
888.085	401.19
888.464	398.37
888.843	511.24
889.222	324.91
889.601	381.42
889.979	347.52
890.358	395.54
890.737	412.49
891.115	437.89
891.494	387.07
891.872	353.17
892.25	344.69
892.629	392.72
893.007	387.07
893.385	367.3
893.763	440.72
894.141	392.72
894.519	415.31
894.897	418.13
895.275	409.66
895.653	282.49
896.03	415.31
896.408	471.76
896.786	350.35
897.163	429.43
897.541	423.78
897.918	398.37
898.295	409.66
898.673	339.04
899.05	344.69
899.427	437.89
899.804	299.46
900.181	395.54
900.558	389.9
900.935	375.77
901.312	437.89
901.688	358.82
902.065	406.84
902.442	375.77
902.818	389.9
903.195	415.31
903.571	466.11
903.947	384.25
904.324	384.25
904.7	387.07
905.076	313.6
905.452	406.84
905.828	423.78
906.204	322.08
906.58	378.6
906.956	353.17
907.331	384.25
907.707	319.25
908.083	387.07
908.458	353.17
908.834	401.19
909.209	350.35
909.585	429.43
909.96	310.77
910.335	412.49
910.71	387.07
911.086	412.49
911.461	372.95
911.836	358.82
912.21	353.17
912.585	361.65
912.96	460.47
913.335	452.01
913.709	313.6
914.084	452.01
914.459	356
914.833	432.25
915.207	350.35
915.582	454.83
915.956	406.84
916.33	449.18
916.704	457.65
917.078	372.95
917.452	333.39
917.826	276.84
918.2	483.04
918.574	375.77
918.948	389.9
919.321	358.82
919.695	398.37
920.068	454.83
920.442	350.35
920.815	370.12
921.189	302.29
921.562	344.69
921.935	327.74
922.308	429.43
922.681	409.66
923.054	307.95
923.427	381.42
923.8	440.72
924.173	367.3
924.546	452.01
924.919	395.54
925.291	336.21
925.664	412.49
926.036	381.42
926.409	350.35
926.781	497.14
927.153	426.6
927.526	347.52
927.898	358.82
928.27	395.54
928.642	395.54
929.014	341.87
929.386	353.17
929.758	364.47
930.129	395.54
930.501	406.84
930.873	350.35
931.244	378.6
931.616	406.84
931.987	344.69
932.359	384.25
932.73	361.65
933.101	415.31
933.472	412.49
933.843	274.01
934.214	406.84
934.585	418.13
934.956	387.07
935.327	415.31
935.698	452.01
936.069	372.95
936.439	327.74
936.81	474.58
937.18	375.77
937.551	401.19
937.921	389.9
938.292	356
938.662	378.6
939.032	389.9
939.402	364.47
939.772	324.91
940.142	341.87
940.512	375.77
940.882	358.82
941.252	401.19
941.621	387.07
941.991	333.39
942.361	372.95
942.73	398.37
943.1	392.72
943.469	361.65
943.838	370.12
944.208	423.78
944.577	372.95
944.946	426.6
945.315	389.9
945.684	375.77
946.053	420.96
946.422	361.65
946.791	426.6
947.159	336.21
947.528	429.43
947.897	389.9
948.265	429.43
948.634	358.82
949.002	381.42
949.371	452.01
949.739	381.42
950.107	378.6
950.475	341.87
950.843	336.21
951.211	468.94
951.579	404.02
951.947	375.77
952.315	367.3
952.683	381.42
953.05	426.6
953.418	347.52
953.785	288.15
954.153	330.56
954.52	387.07
954.888	330.56
955.255	443.54
955.622	381.42
955.989	423.78
956.356	452.01
956.723	519.7
957.09	333.39
957.457	279.67
957.824	381.42
958.191	389.9
958.557	389.9
958.924	426.6
959.291	381.42
959.657	409.66
960.023	330.56
960.39	426.6
960.756	347.52
961.122	409.66
961.488	423.78
961.855	389.9
962.221	398.37
962.586	353.17
962.952	406.84
963.318	381.42
963.684	420.96
964.05	339.04
964.415	378.6
964.781	361.65
965.146	437.89
965.512	406.84
965.877	350.35
966.242	324.91
966.608	412.49
966.973	302.29
967.338	367.3
967.703	429.43
968.068	409.66
968.433	381.42
968.797	387.07
969.162	437.89
969.527	356
969.891	435.07
970.256	347.52
970.62	429.43
970.985	387.07
971.349	375.77
971.714	437.89
972.078	449.18
972.442	446.36
972.806	389.9
973.17	339.04
973.534	387.07
973.898	392.72
974.262	426.6
974.625	307.95
974.989	440.72
975.353	356
975.716	375.77
976.08	432.25
976.443	423.78
976.806	412.49
977.17	375.77
977.533	401.19
977.896	452.01
978.259	415.31
978.622	454.83
978.985	418.13
979.348	409.66
979.711	418.13
980.073	319.25
980.436	440.72
980.799	344.69
981.161	384.25
981.524	384.25
981.886	412.49
982.248	440.72
982.611	370.12
982.973	339.04
983.335	367.3
983.697	381.42
984.059	468.94
984.421	358.82
984.783	327.74
985.145	313.6
985.506	324.91
985.868	353.17
986.23	375.77
986.591	406.84
986.953	336.21
987.314	387.07
987.675	322.08
988.037	367.3
988.398	423.78
988.759	432.25
989.12	401.19
989.481	347.52
989.842	437.89
990.203	392.72
990.564	305.12
990.924	432.25
991.285	432.25
991.646	347.52
992.006	409.66
992.367	333.39
992.727	440.72
993.087	322.08
993.448	426.6
993.808	378.6
994.168	375.77
994.528	418.13
994.888	420.96
995.248	426.6
995.608	364.47
995.967	401.19
996.327	418.13
996.687	372.95
997.046	370.12
997.406	389.9
997.765	274.01
998.125	356
998.484	384.25
998.843	409.66
999.202	353.17
999.561	350.35
999.92	392.72
1000.279	372.95
1000.638	293.81
1000.997	305.12
1001.356	423.78
1001.715	387.07
1002.073	440.72
1002.432	350.35
1002.79	350.35
1003.149	319.25
1003.507	401.19
1003.865	361.65
1004.224	305.12
1004.582	344.69
1004.94	378.6
1005.298	398.37
1005.656	333.39
1006.014	333.39
1006.371	409.66
1006.729	381.42
1007.087	350.35
1007.445	415.31
1007.802	330.56
1008.16	412.49
1008.517	381.42
1008.874	259.86
1009.232	364.47
1009.589	480.22
1009.946	370.12
1010.303	296.63
1010.66	356
1011.017	378.6
1011.374	330.56
1011.731	358.82
1012.087	389.9
1012.444	392.72
1012.801	432.25
1013.157	356
1013.513	358.82
1013.87	324.91
1014.226	392.72
1014.582	356
1014.939	341.87
1015.295	319.25
1015.651	341.87
1016.007	454.83
1016.363	415.31
1016.719	322.08
1017.074	372.95
1017.43	378.6
1017.786	361.65
1018.141	358.82
1018.497	392.72
1018.852	356
1019.208	370.12
1019.563	389.9
1019.918	426.6
1020.273	364.47
1020.628	409.66
1020.983	381.42
1021.338	437.89
1021.693	319.25
1022.048	401.19
1022.403	423.78
1022.757	319.25
1023.112	398.37
1023.467	384.25
1023.821	415.31
1024.175	364.47
1024.53	440.72
1024.884	412.49
1025.238	356
1025.592	353.17
1025.946	384.25
1026.3	356
1026.654	353.17
1027.008	449.18
1027.362	322.08
1027.716	378.6
1028.069	443.54
1028.423	350.35
1028.777	370.12
1029.13	330.56
1029.483	324.91
1029.837	401.19
1030.19	378.6
1030.543	437.89
1030.896	361.65
1031.249	364.47
1031.602	420.96
1031.955	370.12
1032.308	381.42
1032.661	299.46
1033.013	429.43
1033.366	356
1033.719	375.77
1034.071	381.42
1034.424	358.82
1034.776	474.58
1035.128	381.42
1035.48	361.65
1035.833	387.07
1036.185	387.07
1036.537	387.07
1036.889	387.07
