Data from SCSF78-3-385-irrad_FLMS019251_12-05-49-509.txt Node
Date: Fri Feb 15 12:05:49 CET 2019
User: luk
Spectrometer: FLMS01925
Trigger mode: 0
Integration Time (sec): 5.070000E-3
Scans to average: 1
Electric dark correction enabled: true
Nonlinearity correction enabled: true
Boxcar width: 0
XAxis mode: Wavelengths
Number of Pixels in Spectrum: 2048
>>>>>Begin Spectral Data<<<<<
187.103	-70.48
187.574	-70.48
188.045	-70.48
188.516	-81.85
188.987	-110.28
189.458	-104.59
189.929	-127.34
190.4	-90.38
190.871	-104.59
191.342	-135.87
191.813	-47.75
192.284	-104.59
192.754	-30.71
193.225	-13.66
193.696	94.17
194.166	48.78
194.637	122.52
195.107	68.64
195.578	99.84
196.048	159.36
196.518	165.02
196.989	190.51
197.459	230.15
197.929	275.42
198.399	303.7
198.869	266.94
199.339	337.63
199.809	216
200.279	346.11
200.749	281.08
201.219	300.88
201.689	264.11
202.159	309.36
202.628	447.77
203.098	348.93
203.568	380.01
204.037	329.15
204.507	323.49
204.976	368.71
205.445	416.72
205.915	317.84
206.384	399.78
206.853	430.84
207.323	357.41
207.792	371.54
208.261	411.08
208.73	278.25
209.199	354.58
209.668	396.96
210.137	478.81
210.606	368.71
211.075	447.77
211.543	408.25
212.012	354.58
212.481	317.84
212.95	323.49
213.418	317.84
213.887	377.19
214.355	363.06
214.824	371.54
215.292	334.8
215.76	320.67
216.229	295.22
216.697	388.48
217.165	320.67
217.633	329.15
218.101	295.22
218.569	281.08
219.037	357.41
219.505	374.36
219.973	269.77
220.441	309.36
220.909	354.58
221.377	317.84
221.844	337.63
222.312	320.67
222.78	351.76
223.247	329.15
223.715	315.01
224.182	281.08
224.65	396.96
225.117	343.28
225.584	286.74
226.052	371.54
226.519	377.19
226.986	275.42
227.453	323.49
227.92	402.6
228.387	360.23
228.854	283.91
229.321	374.36
229.788	357.41
230.255	312.19
230.722	331.97
231.189	337.63
231.655	343.28
232.122	295.22
232.589	323.49
233.055	312.19
233.522	331.97
233.988	363.06
234.454	377.19
234.921	425.19
235.387	419.55
235.853	329.15
236.32	399.78
236.786	380.01
237.252	413.9
237.718	405.43
238.184	354.58
238.65	317.84
239.116	317.84
239.582	329.15
240.047	337.63
240.513	340.45
240.979	348.93
241.445	337.63
241.91	343.28
242.376	213.17
242.841	292.39
243.307	377.19
243.772	360.23
244.238	442.13
244.703	298.05
245.168	320.67
245.633	425.19
246.099	303.7
246.564	399.78
247.029	396.96
247.494	329.15
247.959	374.36
248.424	331.97
248.889	430.84
249.353	309.36
249.818	371.54
250.283	320.67
250.748	300.88
251.212	343.28
251.677	334.8
252.141	348.93
252.606	402.6
253.07	289.56
253.535	380.01
253.999	380.01
254.463	388.48
254.927	334.8
255.392	329.15
255.856	317.84
256.32	385.66
256.784	391.31
257.248	351.76
257.712	411.08
258.176	348.93
258.64	292.39
259.103	368.71
259.567	360.23
260.031	340.45
260.495	315.01
260.958	399.78
261.422	396.96
261.885	354.58
262.349	428.02
262.812	422.37
263.275	413.9
263.739	348.93
264.202	391.31
264.665	411.08
265.128	368.71
265.591	396.96
266.054	461.88
266.517	374.36
266.98	329.15
267.443	346.11
267.906	394.13
268.369	360.23
268.832	433.66
269.294	320.67
269.757	481.63
270.22	331.97
270.682	348.93
271.145	374.36
271.607	368.71
272.07	283.91
272.532	374.36
272.994	450.59
273.456	354.58
273.919	425.19
274.381	411.08
274.843	365.89
275.305	394.13
275.767	408.25
276.229	329.15
276.691	340.45
277.153	357.41
277.614	405.43
278.076	444.95
278.538	388.48
279	501.37
279.461	419.55
279.923	360.23
280.384	357.41
280.846	498.55
281.307	396.96
281.769	354.58
282.23	411.08
282.691	413.9
283.152	405.43
283.613	507.01
284.075	363.06
284.536	329.15
284.997	368.71
285.458	303.7
285.918	450.59
286.379	348.93
286.84	399.78
287.301	306.53
287.762	377.19
288.222	371.54
288.683	399.78
289.143	396.96
289.604	382.84
290.064	363.06
290.525	275.42
290.985	425.19
291.445	399.78
291.906	354.58
292.366	371.54
292.826	363.06
293.286	351.76
293.746	385.66
294.206	351.76
294.666	433.66
295.126	303.7
295.586	478.81
296.046	377.19
296.506	439.31
296.965	363.06
297.425	309.36
297.884	329.15
298.344	430.84
298.804	303.7
299.263	360.23
299.722	402.6
300.182	428.02
300.641	450.59
301.1	428.02
301.559	371.54
302.019	492.91
302.478	348.93
302.937	371.54
303.396	371.54
303.855	377.19
304.314	368.71
304.772	382.84
305.231	422.37
305.69	450.59
306.149	380.01
306.607	368.71
307.066	473.17
307.524	380.01
307.983	433.66
308.441	481.63
308.9	419.55
309.358	343.28
309.816	340.45
310.275	357.41
310.733	413.9
311.191	371.54
311.649	346.11
312.107	416.72
312.565	413.9
313.023	459.06
313.481	371.54
313.939	340.45
314.397	405.43
314.854	391.31
315.312	436.48
315.77	405.43
316.227	337.63
316.685	377.19
317.142	447.77
317.6	334.8
318.057	422.37
318.514	416.72
318.972	396.96
319.429	436.48
319.886	430.84
320.343	363.06
320.8	365.89
321.257	377.19
321.714	425.19
322.171	405.43
322.628	348.93
323.085	436.48
323.542	447.77
323.998	442.13
324.455	416.72
324.912	281.08
325.368	385.66
325.825	357.41
326.281	416.72
326.738	320.67
327.194	337.63
327.65	315.01
328.107	312.19
328.563	382.84
329.019	385.66
329.475	399.78
329.931	422.37
330.387	425.19
330.843	433.66
331.299	360.23
331.755	396.96
332.211	283.91
332.666	453.42
333.122	346.11
333.578	473.17
334.033	309.36
334.489	416.72
334.944	371.54
335.4	334.8
335.855	337.63
336.31	357.41
336.766	292.39
337.221	348.93
337.676	425.19
338.131	433.66
338.586	402.6
339.041	478.81
339.496	320.67
339.951	464.7
340.406	374.36
340.861	368.71
341.316	430.84
341.771	419.55
342.225	292.39
342.68	377.19
343.134	340.45
343.589	286.74
344.043	348.93
344.498	450.59
344.952	391.31
345.406	411.08
345.861	402.6
346.315	382.84
346.769	315.01
347.223	312.19
347.677	391.31
348.131	419.55
348.585	371.54
349.039	422.37
349.493	447.77
349.947	351.76
350.401	405.43
350.854	411.08
351.308	402.6
351.762	380.01
352.215	416.72
352.669	360.23
353.122	368.71
353.575	374.36
354.029	374.36
354.482	354.58
354.935	365.89
355.388	317.84
355.842	371.54
356.295	371.54
356.748	363.06
357.201	425.19
357.654	382.84
358.106	399.78
358.559	326.32
359.012	365.89
359.465	306.53
359.917	490.09
360.37	385.66
360.823	354.58
361.275	363.06
361.728	461.88
362.18	374.36
362.632	439.31
363.085	402.6
363.537	422.37
363.989	490.09
364.441	422.37
364.893	416.72
365.345	391.31
365.797	363.06
366.249	351.76
366.701	436.48
367.153	405.43
367.605	402.6
368.057	507.01
368.508	405.43
368.96	453.42
369.411	416.72
369.863	363.06
370.314	428.02
370.766	337.63
371.217	394.13
371.669	354.58
372.12	281.08
372.571	343.28
373.022	439.31
373.473	360.23
373.924	385.66
374.375	343.28
374.826	396.96
375.277	399.78
375.728	495.73
376.179	399.78
376.63	402.6
377.08	399.78
377.531	340.45
377.981	428.02
378.432	334.8
378.883	306.53
379.333	334.8
379.783	354.58
380.234	444.95
380.684	380.01
381.134	365.89
381.584	453.42
382.034	346.11
382.485	475.99
382.935	374.36
383.385	391.31
383.834	439.31
384.284	351.76
384.734	388.48
385.184	382.84
385.634	408.25
386.083	371.54
386.533	377.19
386.982	385.66
387.432	416.72
387.881	382.84
388.331	433.66
388.78	346.11
389.229	416.72
389.679	399.78
390.128	405.43
390.577	323.49
391.026	346.11
391.475	405.43
391.924	368.71
392.373	450.59
392.822	492.91
393.27	402.6
393.719	422.37
394.168	436.48
394.617	422.37
395.065	470.35
395.514	413.9
395.962	340.45
396.411	385.66
396.859	413.9
397.307	459.06
397.756	396.96
398.204	450.59
398.652	326.32
399.1	436.48
399.548	323.49
399.996	461.88
400.444	439.31
400.892	388.48
401.34	380.01
401.788	391.31
402.236	382.84
402.683	382.84
403.131	334.8
403.579	430.84
404.026	346.11
404.474	377.19
404.921	422.37
405.369	447.77
405.816	382.84
406.263	363.06
406.71	413.9
407.158	453.42
407.605	357.41
408.052	360.23
408.499	394.13
408.946	351.76
409.393	348.93
409.84	312.19
410.286	382.84
410.733	343.28
411.18	371.54
411.626	281.08
412.073	430.84
412.52	461.88
412.966	436.48
413.413	331.97
413.859	394.13
414.305	343.28
414.752	405.43
415.198	425.19
415.644	475.99
416.09	450.59
416.536	357.41
416.982	388.48
417.428	442.13
417.874	360.23
418.32	456.24
418.766	442.13
419.211	402.6
419.657	473.17
420.103	411.08
420.548	419.55
420.994	428.02
421.439	413.9
421.885	428.02
422.33	380.01
422.776	371.54
423.221	326.32
423.666	346.11
424.111	444.95
424.556	351.76
425.001	416.72
425.446	348.93
425.891	357.41
426.336	413.9
426.781	428.02
427.226	365.89
427.671	371.54
428.115	436.48
428.56	413.9
429.005	473.17
429.449	453.42
429.894	337.63
430.338	408.25
430.782	402.6
431.227	365.89
431.671	354.58
432.115	484.45
432.559	405.43
433.003	470.35
433.447	312.19
433.891	363.06
434.335	444.95
434.779	439.31
435.223	475.99
435.667	385.66
436.111	360.23
436.554	357.41
436.998	535.21
437.442	360.23
437.885	428.02
438.328	411.08
438.772	447.77
439.215	396.96
439.659	394.13
440.102	422.37
440.545	419.55
440.988	419.55
441.431	337.63
441.874	382.84
442.317	453.42
442.76	388.48
443.203	461.88
443.646	422.37
444.089	320.67
444.531	382.84
444.974	425.19
445.417	382.84
445.859	368.71
446.302	430.84
446.744	405.43
447.186	289.56
447.629	450.59
448.071	470.35
448.513	405.43
448.956	478.81
449.398	340.45
449.84	411.08
450.282	436.48
450.724	365.89
451.166	396.96
451.607	467.53
452.049	447.77
452.491	385.66
452.933	380.01
453.374	394.13
453.816	380.01
454.257	391.31
454.699	365.89
455.14	340.45
455.582	371.54
456.023	396.96
456.464	323.49
456.905	402.6
457.347	399.78
457.788	450.59
458.229	405.43
458.67	363.06
459.111	363.06
459.552	363.06
459.992	320.67
460.433	348.93
460.874	450.59
461.315	399.78
461.755	411.08
462.196	391.31
462.636	377.19
463.077	416.72
463.517	453.42
463.957	380.01
464.398	329.15
464.838	340.45
465.278	371.54
465.718	416.72
466.158	363.06
466.598	371.54
467.038	348.93
467.478	360.23
467.918	382.84
468.358	360.23
468.798	343.28
469.237	444.95
469.677	450.59
470.117	433.66
470.556	422.37
470.996	447.77
471.435	363.06
471.874	450.59
472.314	402.6
472.753	295.22
473.192	363.06
473.631	388.48
474.07	388.48
474.509	380.01
474.948	394.13
475.387	444.95
475.826	470.35
476.265	413.9
476.704	425.19
477.143	444.95
477.581	368.71
478.02	346.11
478.458	351.76
478.897	396.96
479.335	300.88
479.774	425.19
480.212	380.01
480.65	416.72
481.089	337.63
481.527	396.96
481.965	504.19
482.403	436.48
482.841	399.78
483.279	320.67
483.717	371.54
484.155	419.55
484.592	419.55
485.03	447.77
485.468	346.11
485.905	394.13
486.343	478.81
486.781	433.66
487.218	447.77
487.655	425.19
488.093	405.43
488.53	374.36
488.967	413.9
489.405	374.36
489.842	363.06
490.279	461.88
490.716	450.59
491.153	329.15
491.59	348.93
492.027	428.02
492.463	382.84
492.9	286.74
493.337	405.43
493.773	416.72
494.21	405.43
494.647	450.59
495.083	442.13
495.519	444.95
495.956	411.08
496.392	343.28
496.828	394.13
497.265	422.37
497.701	419.55
498.137	408.25
498.573	402.6
499.009	456.24
499.445	413.9
499.881	360.23
500.316	343.28
500.752	391.31
501.188	334.8
501.624	413.9
502.059	444.95
502.495	396.96
502.93	391.31
503.366	492.91
503.801	329.15
504.236	413.9
504.672	433.66
505.107	442.13
505.542	396.96
505.977	371.54
506.412	430.84
506.847	391.31
507.282	450.59
507.717	444.95
508.152	422.37
508.587	416.72
509.021	453.42
509.456	439.31
509.891	436.48
510.325	357.41
510.76	484.45
511.194	422.37
511.628	433.66
512.063	374.36
512.497	425.19
512.931	411.08
513.366	436.48
513.8	368.71
514.234	399.78
514.668	413.9
515.102	385.66
515.536	453.42
515.969	368.71
516.403	317.84
516.837	312.19
517.271	439.31
517.704	444.95
518.138	425.19
518.571	315.01
519.005	430.84
519.438	382.84
519.871	419.55
520.305	334.8
520.738	411.08
521.171	343.28
521.604	422.37
522.037	377.19
522.47	413.9
522.903	498.55
523.336	481.63
523.769	334.8
524.202	481.63
524.634	385.66
525.067	416.72
525.5	436.48
525.932	368.71
526.365	261.28
526.797	405.43
527.23	382.84
527.662	391.31
528.094	357.41
528.527	439.31
528.959	326.32
529.391	388.48
529.823	340.45
530.255	408.25
530.687	439.31
531.119	343.28
531.551	436.48
531.982	365.89
532.414	405.43
532.846	422.37
533.277	380.01
533.709	396.96
534.14	329.15
534.572	337.63
535.003	289.56
535.435	453.42
535.866	354.58
536.297	360.23
536.728	348.93
537.159	419.55
537.59	371.54
538.022	357.41
538.452	450.59
538.883	411.08
539.314	388.48
539.745	422.37
540.176	396.96
540.606	428.02
541.037	374.36
541.468	442.13
541.898	419.55
542.328	411.08
542.759	399.78
543.189	467.53
543.619	473.17
544.05	439.31
544.48	374.36
544.91	425.19
545.34	430.84
545.77	315.01
546.2	354.58
546.63	337.63
547.06	447.77
547.489	371.54
547.919	365.89
548.349	464.7
548.778	411.08
549.208	442.13
549.637	371.54
550.067	363.06
550.496	405.43
550.926	413.9
551.355	331.97
551.784	450.59
552.213	337.63
552.642	382.84
553.071	419.55
553.5	396.96
553.929	428.02
554.358	337.63
554.787	422.37
555.216	523.93
555.645	399.78
556.073	331.97
556.502	394.13
556.93	363.06
557.359	464.7
557.787	453.42
558.216	385.66
558.644	439.31
559.072	388.48
559.5	371.54
559.929	377.19
560.357	450.59
560.785	428.02
561.213	380.01
561.641	360.23
562.068	385.66
562.496	557.76
562.924	422.37
563.352	380.01
563.779	365.89
564.207	337.63
564.634	363.06
565.062	430.84
565.489	380.01
565.917	408.25
566.344	394.13
566.771	484.45
567.198	444.95
567.625	402.6
568.053	433.66
568.48	371.54
568.907	444.95
569.333	396.96
569.76	363.06
570.187	413.9
570.614	456.24
571.04	526.75
571.467	490.09
571.894	388.48
572.32	408.25
572.747	295.22
573.173	368.71
573.599	351.76
574.026	396.96
574.452	348.93
574.878	450.59
575.304	413.9
575.73	467.53
576.156	394.13
576.582	394.13
577.008	394.13
577.434	385.66
577.86	385.66
578.285	388.48
578.711	405.43
579.137	422.37
579.562	399.78
579.988	405.43
580.413	396.96
580.838	422.37
581.264	368.71
581.689	363.06
582.114	337.63
582.539	365.89
582.964	300.88
583.39	368.71
583.814	439.31
584.239	320.67
584.664	442.13
585.089	521.11
585.514	402.6
585.939	484.45
586.363	453.42
586.788	478.81
587.212	422.37
587.637	329.15
588.061	422.37
588.485	394.13
588.91	436.48
589.334	425.19
589.758	416.72
590.182	492.91
590.606	337.63
591.03	278.25
591.454	464.7
591.878	399.78
592.302	498.55
592.726	315.01
593.15	329.15
593.573	343.28
593.997	408.25
594.42	422.37
594.844	388.48
595.267	456.24
595.691	323.49
596.114	343.28
596.537	430.84
596.96	357.41
597.384	447.77
597.807	306.53
598.23	453.42
598.653	354.58
599.076	402.6
599.499	459.06
599.921	416.72
600.344	405.43
600.767	430.84
601.189	363.06
601.612	363.06
602.034	444.95
602.457	405.43
602.879	371.54
603.302	399.78
603.724	394.13
604.146	413.9
604.568	382.84
604.991	444.95
605.413	380.01
605.835	394.13
606.257	492.91
606.678	331.97
607.1	334.8
607.522	374.36
607.944	456.24
608.365	396.96
608.787	396.96
609.209	419.55
609.63	382.84
610.051	329.15
610.473	467.53
610.894	343.28
611.315	269.77
611.737	320.67
612.158	354.58
612.579	447.77
613	391.31
613.421	416.72
613.842	442.13
614.263	396.96
614.683	402.6
615.104	357.41
615.525	467.53
615.945	343.28
616.366	382.84
616.787	453.42
617.207	334.8
617.627	419.55
618.048	481.63
618.468	394.13
618.888	411.08
619.308	447.77
619.728	394.13
620.148	340.45
620.568	467.53
620.988	289.56
621.408	425.19
621.828	416.72
622.248	444.95
622.668	419.55
623.087	396.96
623.507	329.15
623.926	348.93
624.346	385.66
624.765	428.02
625.185	377.19
625.604	337.63
626.023	382.84
626.442	433.66
626.861	377.19
627.28	374.36
627.699	371.54
628.118	405.43
628.537	425.19
628.956	470.35
629.375	382.84
629.794	343.28
630.212	428.02
630.631	453.42
631.049	385.66
631.468	388.48
631.886	374.36
632.305	422.37
632.723	484.45
633.141	478.81
633.559	391.31
633.978	467.53
634.396	475.99
634.814	444.95
635.232	346.11
635.65	368.71
636.067	419.55
636.485	501.37
636.903	408.25
637.321	374.36
637.738	363.06
638.156	428.02
638.573	368.71
638.991	433.66
639.408	405.43
639.825	444.95
640.243	348.93
640.66	351.76
641.077	368.71
641.494	394.13
641.911	430.84
642.328	450.59
642.745	456.24
643.162	419.55
643.579	394.13
643.995	411.08
644.412	365.89
644.829	340.45
645.245	360.23
645.662	433.66
646.078	419.55
646.495	447.77
646.911	428.02
647.327	365.89
647.743	363.06
648.159	428.02
648.576	413.9
648.992	422.37
649.408	396.96
649.824	399.78
650.239	388.48
650.655	346.11
651.071	380.01
651.487	281.08
651.902	430.84
652.318	470.35
652.733	413.9
653.149	425.19
653.564	416.72
653.979	444.95
654.395	385.66
654.81	357.41
655.225	413.9
655.64	382.84
656.055	442.13
656.47	360.23
656.885	374.36
657.3	368.71
657.715	388.48
658.13	394.13
658.544	388.48
658.959	377.19
659.374	391.31
659.788	430.84
660.202	377.19
660.617	419.55
661.031	385.66
661.445	368.71
661.86	416.72
662.274	272.59
662.688	428.02
663.102	478.81
663.516	385.66
663.93	394.13
664.344	399.78
664.758	444.95
665.171	453.42
665.585	439.31
665.999	388.48
666.412	340.45
666.826	385.66
667.239	377.19
667.653	433.66
668.066	459.06
668.479	348.93
668.892	507.01
669.306	368.71
669.719	396.96
670.132	425.19
670.545	399.78
670.958	377.19
671.37	413.9
671.783	360.23
672.196	374.36
672.609	380.01
673.021	402.6
673.434	492.91
673.846	382.84
674.259	343.28
674.671	442.13
675.084	425.19
675.496	402.6
675.908	433.66
676.32	323.49
676.732	394.13
677.144	396.96
677.556	453.42
677.968	430.84
678.38	425.19
678.792	354.58
679.204	439.31
679.615	422.37
680.027	461.88
680.439	357.41
680.85	475.99
681.262	416.72
681.673	391.31
682.084	292.39
682.496	419.55
682.907	439.31
683.318	377.19
683.729	430.84
684.14	405.43
684.551	467.53
684.962	439.31
685.373	436.48
685.784	405.43
686.194	439.31
686.605	351.76
687.016	411.08
687.426	430.84
687.837	473.17
688.247	388.48
688.657	456.24
689.068	396.96
689.478	428.02
689.888	360.23
690.298	368.71
690.708	266.94
691.118	490.09
691.528	365.89
691.938	315.01
692.348	453.42
692.758	425.19
693.168	380.01
693.577	357.41
693.987	354.58
694.396	405.43
694.806	430.84
695.215	402.6
695.625	464.7
696.034	385.66
696.443	377.19
696.852	422.37
697.262	391.31
697.671	382.84
698.08	422.37
698.489	442.13
698.897	408.25
699.306	363.06
699.715	439.31
700.124	396.96
700.532	331.97
700.941	394.13
701.35	416.72
701.758	388.48
702.166	394.13
702.575	317.84
702.983	354.58
703.391	394.13
703.799	487.27
704.208	467.53
704.616	354.58
705.024	425.19
705.432	399.78
705.839	439.31
706.247	408.25
706.655	374.36
707.063	391.31
707.47	306.53
707.878	399.78
708.285	337.63
708.693	433.66
709.1	391.31
709.508	405.43
709.915	346.11
710.322	411.08
710.729	436.48
711.136	368.71
711.543	343.28
711.95	436.48
712.357	391.31
712.764	346.11
713.171	425.19
713.578	419.55
713.984	464.7
714.391	402.6
714.797	306.53
715.204	351.76
715.61	326.32
716.017	439.31
716.423	357.41
716.829	405.43
717.236	315.01
717.642	461.88
718.048	399.78
718.454	413.9
718.86	377.19
719.266	411.08
719.671	394.13
720.077	447.77
720.483	402.6
720.889	436.48
721.294	346.11
721.7	478.81
722.105	402.6
722.511	408.25
722.916	453.42
723.321	357.41
723.726	380.01
724.132	492.91
724.537	450.59
724.942	456.24
725.347	385.66
725.752	436.48
726.156	459.06
726.561	394.13
726.966	487.27
727.371	337.63
727.775	374.36
728.18	413.9
728.584	394.13
728.989	320.67
729.393	388.48
729.798	405.43
730.202	402.6
730.606	377.19
731.01	436.48
731.414	464.7
731.818	450.59
732.222	413.9
732.626	351.76
733.03	351.76
733.434	394.13
733.837	365.89
734.241	340.45
734.645	416.72
735.048	365.89
735.452	388.48
735.855	385.66
736.258	348.93
736.662	422.37
737.065	408.25
737.468	447.77
737.871	382.84
738.274	422.37
738.677	334.8
739.08	365.89
739.483	413.9
739.886	461.88
740.289	385.66
740.691	442.13
741.094	380.01
741.497	323.49
741.899	422.37
742.302	382.84
742.704	382.84
743.106	391.31
743.508	425.19
743.911	492.91
744.313	394.13
744.715	365.89
745.117	340.45
745.519	300.88
745.921	346.11
746.323	360.23
746.724	317.84
747.126	382.84
747.528	459.06
747.929	385.66
748.331	501.37
748.732	405.43
749.134	360.23
749.535	396.96
749.936	416.72
750.338	396.96
750.739	337.63
751.14	315.01
751.541	394.13
751.942	433.66
752.343	326.32
752.744	371.54
753.144	360.23
753.545	354.58
753.946	396.96
754.346	348.93
754.747	399.78
755.148	422.37
755.548	442.13
755.948	416.72
756.349	382.84
756.749	391.31
757.149	396.96
757.549	416.72
757.949	399.78
758.349	439.31
758.749	391.31
759.149	467.53
759.549	354.58
759.949	470.35
760.348	467.53
760.748	464.7
761.148	368.71
761.547	425.19
761.947	408.25
762.346	396.96
762.745	320.67
763.145	346.11
763.544	334.8
763.943	405.43
764.342	320.67
764.741	419.55
765.14	374.36
765.539	453.42
765.938	433.66
766.336	346.11
766.735	377.19
767.134	377.19
767.532	292.39
767.931	459.06
768.329	351.76
768.728	425.19
769.126	221.66
769.525	348.93
769.923	380.01
770.321	411.08
770.719	492.91
771.117	374.36
771.515	399.78
771.913	419.55
772.311	385.66
772.709	453.42
773.106	365.89
773.504	408.25
773.902	444.95
774.299	360.23
774.697	371.54
775.094	396.96
775.491	405.43
775.889	413.9
776.286	382.84
776.683	456.24
777.08	360.23
777.477	461.88
777.874	380.01
778.271	388.48
778.668	380.01
779.065	388.48
779.462	428.02
779.858	385.66
780.255	425.19
780.652	396.96
781.048	413.9
781.444	281.08
781.841	394.13
782.237	470.35
782.633	348.93
783.03	374.36
783.426	399.78
783.822	461.88
784.218	391.31
784.614	326.32
785.01	411.08
785.405	363.06
785.801	405.43
786.197	402.6
786.593	411.08
786.988	396.96
787.384	428.02
787.779	331.97
788.174	430.84
788.57	430.84
788.965	444.95
789.36	411.08
789.755	306.53
790.15	439.31
790.545	399.78
790.94	402.6
791.335	413.9
791.73	343.28
792.125	365.89
792.52	470.35
792.914	340.45
793.309	475.99
793.703	329.15
794.098	430.84
794.492	425.19
794.887	388.48
795.281	473.17
795.675	422.37
796.069	360.23
796.463	436.48
796.857	459.06
797.251	422.37
797.645	300.88
798.039	416.72
798.433	447.77
798.826	340.45
799.22	425.19
799.614	453.42
800.007	337.63
800.401	368.71
800.794	422.37
801.187	413.9
801.581	405.43
801.974	337.63
802.367	385.66
802.76	425.19
803.153	453.42
803.546	360.23
803.939	343.28
804.332	444.95
804.725	442.13
805.117	360.23
805.51	388.48
805.903	396.96
806.295	357.41
806.688	348.93
807.08	411.08
807.472	374.36
807.865	405.43
808.257	374.36
808.649	388.48
809.041	357.41
809.433	348.93
809.825	439.31
810.217	405.43
810.609	374.36
811.001	430.84
811.392	382.84
811.784	309.36
812.175	388.48
812.567	399.78
812.958	405.43
813.35	354.58
813.741	363.06
814.132	380.01
814.524	436.48
814.915	439.31
815.306	396.96
815.697	428.02
816.088	442.13
816.479	391.31
816.87	450.59
817.26	416.72
817.651	405.43
818.042	309.36
818.432	419.55
818.823	461.88
819.213	411.08
819.604	399.78
819.994	380.01
820.384	461.88
820.775	416.72
821.165	408.25
821.555	453.42
821.945	447.77
822.335	416.72
822.725	405.43
823.114	501.37
823.504	433.66
823.894	430.84
824.284	326.32
824.673	456.24
825.063	396.96
825.452	413.9
825.842	377.19
826.231	394.13
826.62	317.84
827.009	422.37
827.399	391.31
827.788	402.6
828.177	405.43
828.566	360.23
828.954	317.84
829.343	385.66
829.732	498.55
830.121	444.95
830.509	337.63
830.898	331.97
831.286	354.58
831.675	399.78
832.063	374.36
832.452	399.78
832.84	419.55
833.228	323.49
833.616	368.71
834.004	405.43
834.392	436.48
834.78	422.37
835.168	374.36
835.556	368.71
835.944	439.31
836.331	351.76
836.719	396.96
837.107	416.72
837.494	374.36
837.881	343.28
838.269	444.95
838.656	394.13
839.043	354.58
839.431	382.84
839.818	425.19
840.205	453.42
840.592	428.02
840.979	368.71
841.366	428.02
841.752	385.66
842.139	388.48
842.526	388.48
842.912	346.11
843.299	388.48
843.685	478.81
844.072	368.71
844.458	430.84
844.844	459.06
845.231	329.15
845.617	470.35
846.003	357.41
846.389	416.72
846.775	317.84
847.161	478.81
847.547	368.71
847.933	340.45
848.318	450.59
848.704	439.31
849.09	459.06
849.475	368.71
849.861	365.89
850.246	444.95
850.631	422.37
851.017	385.66
851.402	306.53
851.787	346.11
852.172	447.77
852.557	391.31
852.942	428.02
853.327	399.78
853.712	385.66
854.097	385.66
854.481	413.9
854.866	365.89
855.25	363.06
855.635	490.09
856.019	326.32
856.404	346.11
856.788	408.25
857.172	371.54
857.557	475.99
857.941	495.73
858.325	363.06
858.709	343.28
859.093	388.48
859.477	382.84
859.86	281.08
860.244	354.58
860.628	430.84
861.012	329.15
861.395	450.59
861.779	309.36
862.162	306.53
862.545	365.89
862.929	264.11
863.312	382.84
863.695	391.31
864.078	467.53
864.461	385.66
864.844	464.7
865.227	394.13
865.61	368.71
865.993	430.84
866.376	422.37
866.758	422.37
867.141	382.84
867.523	329.15
867.906	456.24
868.288	396.96
868.671	425.19
869.053	411.08
869.435	444.95
869.817	340.45
870.199	360.23
870.581	470.35
870.963	475.99
871.345	425.19
871.727	354.58
872.109	422.37
872.491	357.41
872.872	422.37
873.254	442.13
873.635	385.66
874.017	408.25
874.398	334.8
874.779	408.25
875.161	422.37
875.542	433.66
875.923	416.72
876.304	402.6
876.685	411.08
877.066	408.25
877.447	380.01
877.828	461.88
878.208	340.45
878.589	419.55
878.97	433.66
879.35	402.6
879.731	416.72
880.111	365.89
880.491	371.54
880.872	413.9
881.252	391.31
881.632	416.72
882.012	475.99
882.392	371.54
882.772	453.42
883.152	380.01
883.532	461.88
883.912	377.19
884.291	286.74
884.671	343.28
885.051	413.9
885.43	331.97
885.81	391.31
886.189	464.7
886.568	368.71
886.948	317.84
887.327	453.42
887.706	453.42
888.085	444.95
888.464	425.19
888.843	326.32
889.222	371.54
889.601	411.08
889.979	312.19
890.358	408.25
890.737	371.54
891.115	365.89
891.494	374.36
891.872	346.11
892.25	315.01
892.629	343.28
893.007	363.06
893.385	411.08
893.763	368.71
894.141	399.78
894.519	419.55
894.897	331.97
895.275	396.96
895.653	459.06
896.03	329.15
896.408	303.7
896.786	442.13
897.163	478.81
897.541	396.96
897.918	512.65
898.295	428.02
898.673	354.58
899.05	385.66
899.427	433.66
899.804	413.9
900.181	382.84
900.558	430.84
900.935	405.43
901.312	374.36
901.688	374.36
902.065	467.53
902.442	394.13
902.818	416.72
903.195	354.58
903.571	394.13
903.947	363.06
904.324	416.72
904.7	433.66
905.076	363.06
905.452	405.43
905.828	399.78
906.204	450.59
906.58	396.96
906.956	382.84
907.331	337.63
907.707	363.06
908.083	399.78
908.458	354.58
908.834	405.43
909.209	382.84
909.585	411.08
909.96	357.41
910.335	374.36
910.71	422.37
911.086	399.78
911.461	492.91
911.836	481.63
912.21	377.19
912.585	351.76
912.96	385.66
913.335	402.6
913.709	391.31
914.084	402.6
914.459	399.78
914.833	365.89
915.207	317.84
915.582	346.11
915.956	380.01
916.33	396.96
916.704	453.42
917.078	331.97
917.452	317.84
917.826	402.6
918.2	348.93
918.574	456.24
918.948	380.01
919.321	433.66
919.695	329.15
920.068	354.58
920.442	402.6
920.815	464.7
921.189	385.66
921.562	422.37
921.935	317.84
922.308	363.06
922.681	388.48
923.054	320.67
923.427	396.96
923.8	422.37
924.173	354.58
924.546	425.19
924.919	374.36
925.291	422.37
925.664	413.9
926.036	374.36
926.409	396.96
926.781	326.32
927.153	346.11
927.526	363.06
927.898	348.93
928.27	422.37
928.642	343.28
929.014	346.11
929.386	416.72
929.758	320.67
930.129	436.48
930.501	470.35
930.873	459.06
931.244	394.13
931.616	402.6
931.987	413.9
932.359	425.19
932.73	374.36
933.101	484.45
933.472	323.49
933.843	492.91
934.214	380.01
934.585	461.88
934.956	315.01
935.327	306.53
935.698	289.56
936.069	447.77
936.439	411.08
936.81	461.88
937.18	428.02
937.551	419.55
937.921	323.49
938.292	368.71
938.662	360.23
939.032	354.58
939.402	405.43
939.772	334.8
940.142	391.31
940.512	416.72
940.882	317.84
941.252	348.93
941.621	380.01
941.991	408.25
942.361	405.43
942.73	450.59
943.1	439.31
943.469	374.36
943.838	371.54
944.208	461.88
944.577	348.93
944.946	405.43
945.315	382.84
945.684	416.72
946.053	394.13
946.422	473.17
946.791	411.08
947.159	365.89
947.528	461.88
947.897	281.08
948.265	298.05
948.634	380.01
949.002	351.76
949.371	337.63
949.739	394.13
950.107	391.31
950.475	380.01
950.843	394.13
951.211	331.97
951.579	343.28
951.947	346.11
952.315	346.11
952.683	422.37
953.05	380.01
953.418	380.01
953.785	323.49
954.153	357.41
954.52	481.63
954.888	351.76
955.255	306.53
955.622	334.8
955.989	329.15
956.356	300.88
956.723	360.23
957.09	354.58
957.457	351.76
957.824	371.54
958.191	317.84
958.557	382.84
958.924	380.01
959.291	399.78
959.657	309.36
960.023	337.63
960.39	354.58
960.756	323.49
961.122	436.48
961.488	334.8
961.855	422.37
962.221	425.19
962.586	413.9
962.952	442.13
963.318	340.45
963.684	391.31
964.05	380.01
964.415	374.36
964.781	416.72
965.146	315.01
965.512	374.36
965.877	459.06
966.242	382.84
966.608	422.37
966.973	428.02
967.338	439.31
967.703	408.25
968.068	461.88
968.433	368.71
968.797	365.89
969.162	473.17
969.527	388.48
969.891	388.48
970.256	357.41
970.62	380.01
970.985	360.23
971.349	306.53
971.714	425.19
972.078	408.25
972.442	413.9
972.806	337.63
973.17	428.02
973.534	334.8
973.898	371.54
974.262	289.56
974.625	428.02
974.989	428.02
975.353	368.71
975.716	326.32
976.08	334.8
976.443	450.59
976.806	337.63
977.17	334.8
977.533	388.48
977.896	391.31
978.259	371.54
978.622	422.37
978.985	363.06
979.348	340.45
979.711	391.31
980.073	343.28
980.436	351.76
980.799	371.54
981.161	456.24
981.524	413.9
981.886	368.71
982.248	382.84
982.611	348.93
982.973	470.35
983.335	278.25
983.697	334.8
984.059	394.13
984.421	326.32
984.783	380.01
985.145	346.11
985.506	385.66
985.868	360.23
986.23	348.93
986.591	368.71
986.953	396.96
987.314	343.28
987.675	411.08
988.037	416.72
988.398	368.71
988.759	405.43
989.12	436.48
989.481	419.55
989.842	428.02
990.203	442.13
990.564	394.13
990.924	380.01
991.285	461.88
991.646	360.23
992.006	315.01
992.367	405.43
992.727	380.01
993.087	394.13
993.448	399.78
993.808	348.93
994.168	439.31
994.528	453.42
994.888	422.37
995.248	419.55
995.608	444.95
995.967	422.37
996.327	422.37
996.687	340.45
997.046	416.72
997.406	351.76
997.765	436.48
998.125	385.66
998.484	433.66
998.843	428.02
999.202	331.97
999.561	391.31
999.92	348.93
1000.279	312.19
1000.638	405.43
1000.997	470.35
1001.356	464.7
1001.715	394.13
1002.073	312.19
1002.432	326.32
1002.79	408.25
1003.149	399.78
1003.507	461.88
1003.865	357.41
1004.224	428.02
1004.582	360.23
1004.94	419.55
1005.298	382.84
1005.656	351.76
1006.014	331.97
1006.371	382.84
1006.729	371.54
1007.087	416.72
1007.445	422.37
1007.802	357.41
1008.16	365.89
1008.517	405.43
1008.874	450.59
1009.232	249.96
1009.589	391.31
1009.946	300.88
1010.303	411.08
1010.66	377.19
1011.017	320.67
1011.374	346.11
1011.731	385.66
1012.087	475.99
1012.444	380.01
1012.801	419.55
1013.157	334.8
1013.513	422.37
1013.87	348.93
1014.226	391.31
1014.582	377.19
1014.939	363.06
1015.295	453.42
1015.651	518.29
1016.007	408.25
1016.363	385.66
1016.719	416.72
1017.074	416.72
1017.43	382.84
1017.786	416.72
1018.141	394.13
1018.497	365.89
1018.852	388.48
1019.208	399.78
1019.563	382.84
1019.918	348.93
1020.273	380.01
1020.628	413.9
1020.983	306.53
1021.338	377.19
1021.693	433.66
1022.048	346.11
1022.403	425.19
1022.757	388.48
1023.112	363.06
1023.467	340.45
1023.821	436.48
1024.175	357.41
1024.53	402.6
1024.884	490.09
1025.238	411.08
1025.592	391.31
1025.946	391.31
1026.3	408.25
1026.654	340.45
1027.008	453.42
1027.362	430.84
1027.716	351.76
1028.069	377.19
1028.423	303.7
1028.777	388.48
1029.13	343.28
1029.483	331.97
1029.837	306.53
1030.19	343.28
1030.543	391.31
1030.896	408.25
1031.249	351.76
1031.602	388.48
1031.955	374.36
1032.308	408.25
1032.661	399.78
1033.013	365.89
1033.366	380.01
1033.719	320.67
1034.071	405.43
1034.424	419.55
1034.776	396.96
1035.128	357.41
1035.48	459.06
1035.833	348.93
1036.185	456.24
1036.537	456.24
1036.889	456.24
