Data from SCSF78-3-370-irrad_FLMS019251_11-15-04-240.txt Node
Date: Fri Feb 15 11:15:04 CET 2019
User: luk
Spectrometer: FLMS01925
Trigger mode: 0
Integration Time (sec): 1.399000E-2
Scans to average: 1
Electric dark correction enabled: true
Nonlinearity correction enabled: true
Boxcar width: 0
XAxis mode: Wavelengths
Number of Pixels in Spectrum: 2048
>>>>>Begin Spectral Data<<<<<
187.103	-80.61
187.574	-80.61
188.045	-80.61
188.516	-111.88
188.987	-20.94
189.458	-109.04
189.929	-83.45
190.4	-137.47
190.871	-100.51
191.342	-37.98
191.813	-60.71
192.284	-46.51
192.754	50.02
193.225	-9.58
193.696	-91.98
194.166	95.41
194.637	55.7
195.107	109.58
195.578	58.54
196.048	89.74
196.518	217.24
196.989	118.09
197.459	174.76
197.929	336.04
198.399	321.9
198.869	352.99
199.339	290.8
199.809	239.88
200.279	321.9
200.749	386.9
201.219	313.42
201.689	361.47
202.159	449.01
202.628	375.6
203.098	443.36
203.568	355.82
204.037	384.07
204.507	395.37
204.976	420.78
205.445	336.04
205.915	381.25
206.384	429.25
206.853	434.9
207.323	358.65
207.792	446.19
208.261	401.02
208.73	372.77
209.199	324.73
209.668	451.83
210.137	437.72
210.606	369.95
211.075	355.82
211.543	367.12
212.012	321.9
212.481	367.12
212.95	344.52
213.418	409.49
213.887	375.6
214.355	341.69
214.824	375.6
215.292	392.54
215.76	415.13
216.229	290.8
216.697	398.19
217.165	330.39
217.633	338.86
218.101	321.9
218.569	293.63
219.037	336.04
219.505	398.19
219.973	355.82
220.441	336.04
220.909	350.17
221.377	412.31
221.844	341.69
222.312	307.77
222.78	338.86
223.247	350.17
223.715	302.11
224.182	392.54
224.65	268.17
225.117	338.86
225.584	401.02
226.052	367.12
226.519	310.6
226.986	355.82
227.453	299.29
227.92	279.49
228.387	369.95
228.854	409.49
229.321	369.95
229.788	369.95
230.255	412.31
230.722	372.77
231.189	420.78
231.655	417.96
232.122	310.6
232.589	352.99
233.055	310.6
233.522	375.6
233.988	367.12
234.454	302.11
234.921	381.25
235.387	336.04
235.853	398.19
236.32	352.99
236.786	378.42
237.252	395.37
237.718	451.83
238.184	296.46
238.65	364.3
239.116	347.34
239.582	372.77
240.047	406.66
240.513	358.65
240.979	369.95
241.445	299.29
241.91	378.42
242.376	355.82
242.841	451.83
243.307	287.97
243.772	392.54
244.238	313.42
244.703	386.9
245.168	321.9
245.633	432.07
246.099	389.72
246.564	389.72
247.029	341.69
247.494	319.08
247.959	364.3
248.424	256.86
248.889	364.3
249.353	358.65
249.818	386.9
250.283	330.39
250.748	429.25
251.212	347.34
251.677	401.02
252.141	364.3
252.606	364.3
253.07	389.72
253.535	361.47
253.999	454.65
254.463	415.13
254.927	324.73
255.392	341.69
255.856	389.72
256.32	415.13
256.784	384.07
257.248	338.86
257.712	369.95
258.176	347.34
258.64	367.12
259.103	327.56
259.567	355.82
260.031	389.72
260.495	429.25
260.958	449.01
261.422	333.21
261.885	437.72
262.349	330.39
262.812	344.52
263.275	338.86
263.739	465.94
264.202	406.66
264.665	386.9
265.128	336.04
265.591	463.12
266.054	432.07
266.517	384.07
266.98	364.3
267.443	412.31
267.906	440.54
268.369	381.25
268.832	321.9
269.294	369.95
269.757	398.19
270.22	384.07
270.682	395.37
271.145	499.79
271.607	463.12
272.07	460.29
272.532	355.82
272.994	350.17
273.456	460.29
273.919	384.07
274.381	355.82
274.843	386.9
275.305	355.82
275.767	440.54
276.229	304.94
276.691	403.84
277.153	443.36
277.614	369.95
278.076	463.12
278.538	378.42
279	395.37
279.461	471.58
279.923	423.6
280.384	344.52
280.846	381.25
281.307	338.86
281.769	350.17
282.23	369.95
282.691	358.65
283.152	384.07
283.613	361.47
284.075	355.82
284.536	276.66
284.997	344.52
285.458	389.72
285.918	310.6
286.379	319.08
286.84	296.46
287.301	386.9
287.762	381.25
288.222	415.13
288.683	392.54
289.143	426.43
289.604	403.84
290.064	429.25
290.525	367.12
290.985	361.47
291.445	457.47
291.906	367.12
292.366	338.86
292.826	268.17
293.286	384.07
293.746	449.01
294.206	465.94
294.666	401.02
295.126	446.19
295.586	395.37
296.046	417.96
296.506	403.84
296.965	494.15
297.425	347.34
297.884	321.9
298.344	367.12
298.804	344.52
299.263	384.07
299.722	384.07
300.182	426.43
300.641	386.9
301.1	392.54
301.559	367.12
302.019	384.07
302.478	417.96
302.937	364.3
303.396	355.82
303.855	324.73
304.314	389.72
304.772	367.12
305.231	364.3
305.69	398.19
306.149	333.21
306.607	432.07
307.066	336.04
307.524	426.43
307.983	319.08
308.441	432.07
308.9	454.65
309.358	344.52
309.816	378.42
310.275	465.94
310.733	409.49
311.191	392.54
311.649	420.78
312.107	477.22
312.565	347.34
313.023	392.54
313.481	355.82
313.939	426.43
314.397	415.13
314.854	361.47
315.312	367.12
315.77	426.43
316.227	395.37
316.685	327.56
317.142	389.72
317.6	454.65
318.057	293.63
318.514	457.47
318.972	367.12
319.429	403.84
319.886	324.73
320.343	350.17
320.8	403.84
321.257	352.99
321.714	395.37
322.171	440.54
322.628	361.47
323.085	434.9
323.542	324.73
323.998	338.86
324.455	384.07
324.912	412.31
325.368	307.77
325.825	384.07
326.281	395.37
326.738	378.42
327.194	465.94
327.65	341.69
328.107	429.25
328.563	474.4
329.019	336.04
329.475	336.04
329.931	352.99
330.387	355.82
330.843	429.25
331.299	423.6
331.755	451.83
332.211	471.58
332.666	364.3
333.122	412.31
333.578	369.95
334.033	395.37
334.489	446.19
334.944	511.07
335.4	296.46
335.855	384.07
336.31	389.72
336.766	358.65
337.221	443.36
337.676	454.65
338.131	367.12
338.586	285.15
339.041	457.47
339.496	449.01
339.951	465.94
340.406	386.9
340.861	369.95
341.316	381.25
341.771	389.72
342.225	302.11
342.68	415.13
343.134	333.21
343.589	440.54
344.043	398.19
344.498	293.63
344.952	423.6
345.406	432.07
345.861	491.33
346.315	449.01
346.769	446.19
347.223	420.78
347.677	449.01
348.131	398.19
348.585	384.07
349.039	369.95
349.493	443.36
349.947	440.54
350.401	460.29
350.854	406.66
351.308	446.19
351.762	460.29
352.215	361.47
352.669	395.37
353.122	429.25
353.575	381.25
354.029	389.72
354.482	412.31
354.935	367.12
355.388	406.66
355.842	389.72
356.295	386.9
356.748	369.95
357.201	482.86
357.654	417.96
358.106	403.84
358.559	386.9
359.012	474.4
359.465	395.37
359.917	417.96
360.37	474.4
360.823	364.3
361.275	412.31
361.728	384.07
362.18	429.25
362.632	434.9
363.085	381.25
363.537	482.86
363.989	468.76
364.441	355.82
364.893	432.07
365.345	434.9
365.797	474.4
366.249	313.42
366.701	426.43
367.153	341.69
367.605	465.94
368.057	350.17
368.508	355.82
368.96	406.66
369.411	358.65
369.863	443.36
370.314	496.97
370.766	398.19
371.217	423.6
371.669	384.07
372.12	364.3
372.571	350.17
373.022	347.34
373.473	403.84
373.924	361.47
374.375	465.94
374.826	468.76
375.277	417.96
375.728	457.47
376.179	525.17
376.63	375.6
377.08	386.9
377.531	412.31
377.981	415.13
378.432	347.34
378.883	443.36
379.333	347.34
379.783	426.43
380.234	395.37
380.684	434.9
381.134	347.34
381.584	440.54
382.034	474.4
382.485	513.89
382.935	437.72
383.385	355.82
383.834	384.07
384.284	389.72
384.734	409.49
385.184	384.07
385.634	482.86
386.083	406.66
386.533	465.94
386.982	313.42
387.432	406.66
387.881	412.31
388.331	434.9
388.78	381.25
389.229	417.96
389.679	361.47
390.128	454.65
390.577	398.19
391.026	429.25
391.475	463.12
391.924	310.6
392.373	352.99
392.822	403.84
393.27	344.52
393.719	367.12
394.168	420.78
394.617	426.43
395.065	372.77
395.514	409.49
395.962	499.79
396.411	488.51
396.859	429.25
397.307	384.07
397.756	403.84
398.204	432.07
398.652	336.04
399.1	457.47
399.548	423.6
399.996	434.9
400.444	386.9
400.892	406.66
401.34	465.94
401.788	403.84
402.236	409.49
402.683	426.43
403.131	406.66
403.579	392.54
404.026	446.19
404.474	420.78
404.921	457.47
405.369	519.53
405.816	468.76
406.263	454.65
406.71	511.07
407.158	556.17
407.605	401.02
408.052	443.36
408.499	437.72
408.946	556.17
409.393	415.13
409.84	511.07
410.286	381.25
410.733	491.33
411.18	561.81
411.626	457.47
412.073	511.07
412.52	423.6
412.966	494.15
413.413	502.61
413.859	544.9
414.305	454.65
414.752	533.62
415.198	671.62
415.644	685.69
416.09	651.92
416.536	781.28
416.982	843.06
417.428	1134.47
417.874	1282.55
418.32	1477.69
418.766	1891.44
419.211	2462.71
419.657	2956.26
420.103	3599.04
420.548	4535.86
420.994	5415.72
421.439	6557.36
421.885	7350.67
422.33	9062.99
422.776	10207.8
423.221	11503.86
423.666	13233.64
424.111	14989.96
424.556	16008.84
425.001	17982.81
425.446	19297.26
425.891	21314.31
426.336	22504.65
426.781	24558.72
427.226	26572.44
427.671	27711.23
428.115	28513.35
428.56	30942.34
429.005	32654.01
429.449	33312.31
429.894	35022.42
430.338	36092.27
430.782	36887.11
431.227	38168.5
431.671	39118.93
432.115	40530.44
432.559	41531.74
433.003	41938.18
433.447	42867.4
433.891	43857.72
434.335	44330.78
434.779	45416.46
435.223	45688.93
435.667	46035.22
436.111	46570.12
436.554	47043.31
436.998	46565.04
437.442	46727.67
437.885	49284.73
438.328	47559.16
438.772	48162.09
439.215	48538.35
439.659	48218.7
440.102	48921.18
440.545	48298.52
440.988	48159.52
441.431	49357.62
441.874	49206.71
442.317	49665.45
442.76	49069.03
443.203	48776.15
443.646	49487.92
444.089	49094.99
444.531	49809.31
444.974	48357.78
445.417	49545.32
445.859	48980.81
446.302	50492.94
446.744	49331.58
447.186	50715.14
447.629	49969.16
448.071	49756.97
448.513	50342.54
448.956	51252.45
449.398	50163.51
449.84	49058.64
450.282	49649.77
450.724	50411.1
451.166	50318.82
451.607	49623.64
452.049	50585.44
452.491	51549.61
452.933	50693.95
453.374	51735.06
453.816	51999.46
454.257	51463.8
454.699	52723.58
455.14	52474.74
455.582	52042.74
456.023	51683.94
456.464	52042.74
456.905	52444.74
457.347	52474.74
457.788	51554.98
458.229	52110.44
458.67	52633.2
459.111	50633.06
459.552	50993.9
459.992	50226.65
460.433	50471.81
460.874	49454.02
461.315	50842.43
461.755	49412.32
462.196	49529.66
462.636	48198.11
463.077	47817.9
463.517	47643.64
463.957	48373.25
464.398	47682.06
464.838	47802.52
465.278	46491.41
465.718	47050.96
466.158	45908.75
466.598	46742.92
467.038	45749.54
467.478	46415.28
467.918	46887.94
468.358	45896.11
468.798	45391.25
469.237	45255.2
469.677	45119.26
470.117	46268.21
470.556	43203.67
470.996	44228.06
471.435	44040.3
471.874	45197.29
472.314	44498.74
472.753	43507.99
473.192	43895.22
473.631	43530.45
474.07	43882.72
474.509	43256.03
474.948	44200.51
475.387	43004.34
475.826	41720.02
476.265	44152.94
476.704	43503
477.143	44070.33
477.581	43632.83
478.02	44195.51
478.458	42576.34
478.897	43423.14
479.335	45023.66
479.774	44147.93
480.212	43982.76
480.65	43962.75
481.089	44193
481.527	43530.45
481.965	43221.12
482.403	45051.33
482.841	44649.29
483.279	44298.2
483.717	44877.84
484.155	43980.26
484.592	44040.3
485.03	44571.49
485.468	43495.51
485.905	43912.73
486.343	44400.96
486.781	43590.37
487.218	42912.21
487.655	42670.84
488.093	42387.46
488.53	43500.5
488.967	43136.38
489.405	42718.1
489.842	41660.55
490.279	41534.22
490.716	41398.04
491.153	41484.69
491.59	41098.68
492.027	40370.03
492.463	39780.89
492.9	39259.1
493.337	39106.64
493.773	39426.39
494.21	38021.33
494.647	37783.5
495.083	37440.44
495.519	36967.87
495.956	37014.38
496.392	35913.86
496.828	35706.18
497.265	35027.3
497.701	35159.13
498.137	34785.66
498.573	33880.52
499.009	34568.47
499.445	33868.33
499.881	33446.43
500.316	32961.21
500.752	32378.51
501.188	32200.54
501.624	32103.02
502.059	30908.2
502.495	30820.39
502.93	30832.59
503.366	30532.56
503.801	30181.23
504.236	29807.84
504.672	29148.61
505.107	29131.51
505.542	28330.01
505.977	28471.8
506.412	28109.95
506.847	28371.58
507.282	27813.99
507.717	27388.16
508.152	26832.22
508.587	26930.22
509.021	26199.73
509.456	26322.36
509.891	25765.4
510.325	26241.42
510.76	25559.16
511.194	25129.24
511.628	25460.92
512.063	24356.91
512.497	24566.1
512.931	24248.59
513.366	23903.77
513.8	23849.57
514.234	23437.87
514.668	23321.94
515.102	23664.72
515.536	22598.55
515.969	22689.97
516.403	22351.4
516.837	21911.12
517.271	22094.21
517.704	21539.76
518.138	21638.82
518.571	21301.92
519.005	21140.81
519.438	20845.69
519.871	20786.15
520.305	20369.1
520.738	19847.21
521.171	19625.83
521.604	19673.1
522.037	19309.71
522.47	18995.85
522.903	18933.54
523.336	18581.96
523.769	18472.19
524.202	17995.3
524.634	18167.65
525.067	17925.34
525.5	17355.19
525.932	17605.36
526.365	17119.88
526.797	16881.91
527.23	16884.42
527.662	16408.01
528.094	16141.95
528.527	15893.27
528.959	16061.59
529.391	15669.56
529.823	15078.14
530.255	15221.69
530.687	14841.26
531.119	14389.69
531.551	14561.32
531.982	14417.46
532.414	14139.65
532.846	13357.82
533.277	13585.76
533.709	13185.47
534.14	13119.54
534.572	12634.7
535.003	12505.08
535.435	12202.37
535.866	12499.99
536.297	12125.99
536.728	12179.46
537.159	11934.94
537.59	11830.44
538.022	11539.6
538.452	11440.02
538.883	11107.73
539.314	11169.11
539.745	10877.37
540.176	10828.7
540.606	10341.39
541.037	10415.85
541.468	10153.82
541.898	10187.24
542.328	10030.38
542.759	9868.24
543.189	9806.44
543.619	9747.18
544.05	9404.15
544.48	9422.22
544.91	9306.01
545.34	9011.24
545.77	8923.21
546.2	8876.6
546.63	8588.8
547.06	8759.99
547.489	8430.4
547.919	8349.84
548.349	8227.61
548.778	8388.83
549.208	8198.99
549.637	7779.41
550.067	7774.19
550.496	8042.78
550.926	7539.07
551.355	7583.52
551.784	7536.46
552.213	7418.74
552.642	7175.11
553.071	7106.92
553.5	7101.67
553.929	6978.3
554.358	6925.76
554.787	6723.28
555.216	6657.47
555.645	6581.08
556.073	6604.79
556.502	6509.91
556.93	6544.18
557.359	6195.74
557.787	6298.8
558.216	6174.59
558.644	6137.56
559.072	6026.41
559.5	5909.85
559.929	6015.82
560.357	5931.05
560.785	5848.87
561.213	5734.77
561.641	5554.1
562.068	5782.55
562.496	5570.05
562.924	5562.07
563.352	5508.88
563.779	5471.62
564.207	5527.5
564.634	5479.61
565.062	5439.68
565.489	5258.5
565.917	5175.79
566.344	5298.49
566.771	5237.16
567.198	5175.79
567.625	5175.79
568.053	4988.79
568.48	4927.27
568.907	4983.44
569.333	4892.48
569.76	4565.41
570.187	4804.12
570.614	4721.04
571.04	4849.65
571.467	4482.12
571.894	4441.79
572.32	4326.1
572.747	4277.63
573.173	4132.06
573.599	4148.24
574.026	4132.06
574.452	4069.99
574.878	4024.08
575.304	3826.7
575.73	3737.33
576.156	3767.13
576.582	3723.78
577.008	3674.99
577.434	3574.62
577.86	3438.79
578.285	3484.99
578.711	3615.32
579.137	3275.52
579.562	3270.07
579.988	3201.95
580.413	3120.13
580.838	3310.92
581.264	3212.85
581.689	2986.32
582.114	3103.76
582.539	3073.73
582.964	3021.84
583.39	2945.32
583.814	2805.76
584.239	2901.56
584.664	2778.37
585.089	2887.88
585.514	2750.97
585.939	2748.23
586.363	2696.14
586.788	2481.96
587.212	2619.32
587.637	2440.71
588.061	2580.88
588.485	2534.19
588.91	2448.96
589.334	2435.21
589.758	2294.79
590.182	2371.91
590.606	2292.03
591.03	2256.2
591.454	2269.98
591.878	2294.79
592.302	2223.11
592.726	2087.84
593.15	2120.99
593.573	2093.37
593.997	2057.45
594.42	2010.45
594.844	2007.68
595.267	1924.67
595.691	1988.32
596.114	2010.45
596.537	1919.14
596.96	1852.66
597.384	1960.65
597.807	1802.77
598.23	1758.39
598.653	1819.4
599.076	1808.31
599.499	1783.36
599.921	1727.87
600.344	1799.99
600.767	1697.33
601.189	1752.84
601.612	1761.17
602.034	1733.42
602.457	1636.23
602.879	1669.56
603.302	1597.32
603.724	1650.12
604.146	1619.56
604.568	1605.66
604.991	1616.78
605.413	1636.23
605.835	1600.1
606.257	1558.39
606.678	1544.48
607.1	1633.45
607.522	1588.98
607.944	1552.83
608.365	1533.35
608.787	1391.33
609.209	1486.04
609.63	1424.77
610.051	1408.05
610.473	1385.76
610.894	1421.99
611.315	1435.91
611.737	1455.41
612.158	1458.2
612.579	1290.92
613	1435.91
613.421	1377.39
613.842	1396.91
614.263	1260.22
614.683	1299.29
615.104	1310.46
615.525	1369.03
615.945	1396.91
616.366	1293.71
616.787	1195.97
617.207	1290.92
617.627	1193.18
618.048	1229.5
618.468	1249.05
618.888	1274.17
619.308	1198.77
619.728	1103.7
620.148	1162.43
620.568	1165.23
620.988	1134.47
621.408	1117.69
621.828	1070.12
622.248	1128.88
622.668	1084.11
623.087	1075.72
623.507	1056.12
623.926	1036.53
624.346	1067.32
624.765	1112.09
625.185	899.19
625.604	941.26
626.023	986.1
626.442	997.31
626.861	969.29
627.28	969.29
627.699	955.28
628.118	859.91
628.537	1011.32
628.956	958.08
629.375	902
629.794	857.1
630.212	910.41
630.631	946.87
631.049	930.04
631.468	784.09
631.886	890.77
632.305	930.04
632.723	817.79
633.141	927.24
633.559	792.52
633.978	834.64
634.396	876.75
634.814	814.99
635.232	848.68
635.65	848.68
636.067	784.09
636.485	873.94
636.903	770.04
637.321	859.91
637.738	786.9
638.156	753.18
638.573	713.82
638.991	708.19
639.408	798.13
639.825	812.18
640.243	772.85
640.66	635.03
641.077	677.25
641.494	722.25
641.911	665.99
642.328	758.8
642.745	606.88
643.162	772.85
643.579	671.62
643.995	722.25
644.412	623.77
644.829	784.09
645.245	651.92
645.662	708.19
646.078	800.94
646.495	696.94
646.911	713.82
647.327	592.8
647.743	654.74
648.159	643.48
648.576	699.75
648.992	691.32
649.408	668.81
649.824	784.09
650.239	677.25
650.655	694.13
651.071	646.29
651.487	612.51
651.902	663.18
652.318	581.53
652.733	640.66
653.149	629.4
653.564	606.88
653.979	609.69
654.395	606.88
654.81	502.61
655.225	592.8
655.64	564.62
656.055	637.85
656.47	592.8
656.885	606.88
657.3	657.55
657.715	615.33
658.13	544.9
658.544	601.25
658.959	525.17
659.374	601.25
659.788	595.61
660.202	584.35
660.617	635.03
661.031	589.98
661.445	618.14
661.86	570.26
662.274	643.48
662.688	623.77
663.102	505.43
663.516	553.35
663.93	544.9
664.344	547.72
664.758	437.72
665.171	508.25
665.585	485.69
665.999	471.58
666.412	482.86
666.826	598.43
667.239	592.8
667.653	542.08
668.066	474.4
668.479	620.96
668.892	581.53
669.306	477.22
669.719	406.66
670.132	502.61
670.545	429.25
670.958	539.26
671.37	567.44
671.783	491.33
672.196	544.9
672.609	496.97
673.021	463.12
673.434	544.9
673.846	494.15
674.259	511.07
674.671	547.72
675.084	485.69
675.496	550.53
675.908	440.54
676.32	511.07
676.732	482.86
677.144	508.25
677.556	536.44
677.968	480.04
678.38	544.9
678.792	440.54
679.204	440.54
679.615	454.65
680.027	381.25
680.439	460.29
680.85	480.04
681.262	412.31
681.673	488.51
682.084	570.26
682.496	440.54
682.907	494.15
683.318	499.79
683.729	471.58
684.14	482.86
684.551	423.6
684.962	446.19
685.373	477.22
685.784	474.4
686.194	429.25
686.605	426.43
687.016	578.71
687.426	432.07
687.837	423.6
688.247	434.9
688.657	451.83
689.068	403.84
689.478	449.01
689.888	471.58
690.298	511.07
690.708	468.76
691.118	474.4
691.528	434.9
691.938	457.47
692.348	494.15
692.758	381.25
693.168	372.77
693.577	550.53
693.987	477.22
694.396	513.89
694.806	457.47
695.215	434.9
695.625	344.52
696.034	465.94
696.443	386.9
696.852	477.22
697.262	482.86
697.671	432.07
698.08	375.6
698.489	522.35
698.897	437.72
699.306	446.19
699.715	454.65
700.124	494.15
700.532	437.72
700.941	474.4
701.35	516.71
701.758	432.07
702.166	412.31
702.575	485.69
702.983	457.47
703.391	355.82
703.799	398.19
704.208	403.84
704.616	429.25
705.024	403.84
705.432	516.71
705.839	392.54
706.247	446.19
706.655	429.25
707.063	384.07
707.47	480.04
707.878	378.42
708.285	449.01
708.693	451.83
709.1	474.4
709.508	477.22
709.915	454.65
710.322	429.25
710.729	491.33
711.136	423.6
711.543	505.43
711.95	437.72
712.357	451.83
712.764	330.39
713.171	443.36
713.578	344.52
713.984	401.02
714.391	496.97
714.797	426.43
715.204	398.19
715.61	437.72
716.017	426.43
716.423	395.37
716.829	378.42
717.236	403.84
717.642	513.89
718.048	434.9
718.454	434.9
718.86	352.99
719.266	406.66
719.671	437.72
720.077	403.84
720.483	460.29
720.889	364.3
721.294	389.72
721.7	434.9
722.105	412.31
722.511	423.6
722.916	471.58
723.321	398.19
723.726	409.49
724.132	482.86
724.537	358.65
724.942	372.77
725.347	409.49
725.752	488.51
726.156	417.96
726.561	389.72
726.966	451.83
727.371	488.51
727.775	403.84
728.18	446.19
728.584	477.22
728.989	446.19
729.393	415.13
729.798	333.21
730.202	420.78
730.606	375.6
731.01	426.43
731.414	395.37
731.818	488.51
732.222	460.29
732.626	324.73
733.03	304.94
733.434	446.19
733.837	375.6
734.241	434.9
734.645	468.76
735.048	440.54
735.452	336.04
735.855	432.07
736.258	499.79
736.662	499.79
737.065	333.21
737.468	451.83
737.871	488.51
738.274	432.07
738.677	347.34
739.08	426.43
739.483	344.52
739.886	319.08
740.289	499.79
740.691	417.96
741.094	406.66
741.497	347.34
741.899	352.99
742.302	364.3
742.704	367.12
743.106	401.02
743.508	361.47
743.911	432.07
744.313	420.78
744.715	415.13
745.117	398.19
745.519	378.42
745.921	415.13
746.323	432.07
746.724	384.07
747.126	392.54
747.528	415.13
747.929	401.02
748.331	426.43
748.732	434.9
749.134	367.12
749.535	412.31
749.936	420.78
750.338	310.6
750.739	386.9
751.14	386.9
751.541	454.65
751.942	494.15
752.343	454.65
752.744	460.29
753.144	369.95
753.545	460.29
753.946	406.66
754.346	403.84
754.747	384.07
755.148	429.25
755.548	401.02
755.948	417.96
756.349	310.6
756.749	378.42
757.149	440.54
757.549	398.19
757.949	316.25
758.349	409.49
758.749	415.13
759.149	417.96
759.549	426.43
759.949	361.47
760.348	426.43
760.748	480.04
761.148	304.94
761.547	389.72
761.947	406.66
762.346	344.52
762.745	336.04
763.145	417.96
763.544	369.95
763.943	406.66
764.342	330.39
764.741	316.25
765.14	378.42
765.539	440.54
765.938	350.17
766.336	403.84
766.735	434.9
767.134	273.83
767.532	468.76
767.931	463.12
768.329	423.6
768.728	392.54
769.126	426.43
769.525	386.9
769.923	406.66
770.321	465.94
770.719	378.42
771.117	389.72
771.515	307.77
771.913	384.07
772.311	352.99
772.709	381.25
773.106	307.77
773.504	381.25
773.902	344.52
774.299	454.65
774.697	384.07
775.094	398.19
775.491	401.02
775.889	443.36
776.286	386.9
776.683	367.12
777.08	358.65
777.477	398.19
777.874	313.42
778.271	415.13
778.668	392.54
779.065	355.82
779.462	426.43
779.858	423.6
780.255	338.86
780.652	355.82
781.048	347.34
781.444	412.31
781.841	398.19
782.237	310.6
782.633	319.08
783.03	417.96
783.426	437.72
783.822	347.34
784.218	392.54
784.614	420.78
785.01	350.17
785.405	327.56
785.801	367.12
786.197	361.47
786.593	432.07
786.988	395.37
787.384	434.9
787.779	398.19
788.174	384.07
788.57	454.65
788.965	378.42
789.36	409.49
789.755	432.07
790.15	367.12
790.545	369.95
790.94	341.69
791.335	381.25
791.73	352.99
792.125	443.36
792.52	367.12
792.914	336.04
793.309	367.12
793.703	437.72
794.098	403.84
794.492	505.43
794.887	485.69
795.281	364.3
795.675	333.21
796.069	367.12
796.463	429.25
796.857	350.17
797.251	437.72
797.645	313.42
798.039	330.39
798.433	417.96
798.826	395.37
799.22	367.12
799.614	316.25
800.007	273.83
800.401	389.72
800.794	372.77
801.187	364.3
801.581	355.82
801.974	415.13
802.367	364.3
802.76	304.94
803.153	398.19
803.546	302.11
803.939	412.31
804.332	386.9
804.725	378.42
805.117	375.6
805.51	378.42
805.903	375.6
806.295	460.29
806.688	352.99
807.08	392.54
807.472	381.25
807.865	403.84
808.257	304.94
808.649	432.07
809.041	395.37
809.433	350.17
809.825	384.07
810.217	327.56
810.609	336.04
811.001	304.94
811.392	389.72
811.784	367.12
812.175	468.76
812.567	310.6
812.958	338.86
813.35	352.99
813.741	324.73
814.132	426.43
814.524	369.95
814.915	367.12
815.306	415.13
815.697	412.31
816.088	384.07
816.479	446.19
816.87	415.13
817.26	367.12
817.651	426.43
818.042	372.77
818.432	319.08
818.823	417.96
819.213	369.95
819.604	429.25
819.994	401.02
820.384	319.08
820.775	367.12
821.165	429.25
821.555	333.21
821.945	392.54
822.335	319.08
822.725	415.13
823.114	378.42
823.504	341.69
823.894	451.83
824.284	432.07
824.673	389.72
825.063	420.78
825.452	398.19
825.842	401.02
826.231	285.15
826.62	347.34
827.009	313.42
827.399	437.72
827.788	369.95
828.177	319.08
828.566	401.02
828.954	367.12
829.343	401.02
829.732	310.6
830.121	392.54
830.509	398.19
830.898	499.79
831.286	307.77
831.675	409.49
832.063	372.77
832.452	415.13
832.84	336.04
833.228	347.34
833.616	330.39
834.004	429.25
834.392	350.17
834.78	406.66
835.168	265.35
835.556	420.78
835.944	401.02
836.331	338.86
836.719	367.12
837.107	386.9
837.494	375.6
837.881	336.04
838.269	429.25
838.656	398.19
839.043	279.49
839.431	471.58
839.818	299.29
840.205	361.47
840.592	364.3
840.979	378.42
841.366	389.72
841.752	392.54
842.139	333.21
842.526	369.95
842.912	324.73
843.299	398.19
843.685	389.72
844.072	465.94
844.458	378.42
844.844	457.47
845.231	347.34
845.617	347.34
846.003	330.39
846.389	398.19
846.775	432.07
847.161	316.25
847.547	395.37
847.933	403.84
848.318	392.54
848.704	358.65
849.09	344.52
849.475	361.47
849.861	378.42
850.246	355.82
850.631	361.47
851.017	375.6
851.402	350.17
851.787	415.13
852.172	285.15
852.557	412.31
852.942	403.84
853.327	395.37
853.712	389.72
854.097	443.36
854.481	415.13
854.866	333.21
855.25	480.04
855.635	432.07
856.019	352.99
856.404	389.72
856.788	381.25
857.172	347.34
857.557	330.39
857.941	369.95
858.325	375.6
858.709	395.37
859.093	248.37
859.477	358.65
859.86	389.72
860.244	403.84
860.628	406.66
861.012	367.12
861.395	372.77
861.779	443.36
862.162	395.37
862.545	401.02
862.929	392.54
863.312	372.77
863.695	449.01
864.078	389.72
864.461	369.95
864.844	395.37
865.227	355.82
865.61	367.12
865.993	336.04
866.376	395.37
866.758	457.47
867.141	386.9
867.523	369.95
867.906	434.9
868.288	344.52
868.671	302.11
869.053	268.17
869.435	372.77
869.817	313.42
870.199	398.19
870.581	389.72
870.963	401.02
871.345	367.12
871.727	395.37
872.109	364.3
872.491	364.3
872.872	471.58
873.254	415.13
873.635	361.47
874.017	330.39
874.398	426.43
874.779	321.9
875.161	429.25
875.542	333.21
875.923	403.84
876.304	451.83
876.685	369.95
877.066	485.69
877.447	375.6
877.828	378.42
878.208	338.86
878.589	333.21
878.97	412.31
879.35	307.77
879.731	347.34
880.111	412.31
880.491	324.73
880.872	381.25
881.252	279.49
881.632	401.02
882.012	386.9
882.392	401.02
882.772	417.96
883.152	457.47
883.532	364.3
883.912	386.9
884.291	330.39
884.671	293.63
885.051	386.9
885.43	347.34
885.81	330.39
886.189	398.19
886.568	395.37
886.948	415.13
887.327	259.69
887.706	386.9
888.085	330.39
888.464	406.66
888.843	367.12
889.222	384.07
889.601	375.6
889.979	364.3
890.358	401.02
890.737	375.6
891.115	355.82
891.494	381.25
891.872	347.34
892.25	398.19
892.629	302.11
893.007	330.39
893.385	384.07
893.763	378.42
894.141	398.19
894.519	440.54
894.897	381.25
895.275	434.9
895.653	364.3
896.03	352.99
896.408	412.31
896.786	372.77
897.163	415.13
897.541	330.39
897.918	499.79
898.295	347.34
898.673	355.82
899.05	361.47
899.427	358.65
899.804	386.9
900.181	367.12
900.558	369.95
900.935	372.77
901.312	367.12
901.688	409.49
902.065	477.22
902.442	282.32
902.818	384.07
903.195	341.69
903.571	449.01
903.947	386.9
904.324	401.02
904.7	361.47
905.076	364.3
905.452	401.02
905.828	336.04
906.204	307.77
906.58	372.77
906.956	324.73
907.331	409.49
907.707	406.66
908.083	381.25
908.458	333.21
908.834	361.47
909.209	341.69
909.585	440.54
909.96	344.52
910.335	341.69
910.71	265.35
911.086	454.65
911.461	361.47
911.836	369.95
912.21	432.07
912.585	392.54
912.96	415.13
913.335	372.77
913.709	395.37
914.084	369.95
914.459	271
914.833	378.42
915.207	350.17
915.582	338.86
915.956	327.56
916.33	372.77
916.704	369.95
917.078	451.83
917.452	287.97
917.826	412.31
918.2	310.6
918.574	327.56
918.948	378.42
919.321	460.29
919.695	443.36
920.068	386.9
920.442	350.17
920.815	324.73
921.189	384.07
921.562	398.19
921.935	347.34
922.308	395.37
922.681	338.86
923.054	434.9
923.427	381.25
923.8	417.96
924.173	378.42
924.546	395.37
924.919	403.84
925.291	395.37
925.664	412.31
926.036	341.69
926.409	389.72
926.781	367.12
927.153	384.07
927.526	409.49
927.898	352.99
928.27	369.95
928.642	347.34
929.014	378.42
929.386	409.49
929.758	330.39
930.129	350.17
930.501	361.47
930.873	375.6
931.244	398.19
931.616	313.42
931.987	338.86
932.359	395.37
932.73	279.49
933.101	256.86
933.472	423.6
933.843	401.02
934.214	401.02
934.585	287.97
934.956	451.83
935.327	432.07
935.698	392.54
936.069	449.01
936.439	437.72
936.81	401.02
937.18	347.34
937.551	310.6
937.921	434.9
938.292	389.72
938.662	409.49
939.032	316.25
939.402	409.49
939.772	403.84
940.142	352.99
940.512	352.99
940.882	338.86
941.252	358.65
941.621	367.12
941.991	296.46
942.361	341.69
942.73	282.32
943.1	389.72
943.469	313.42
943.838	319.08
944.208	449.01
944.577	367.12
944.946	307.77
945.315	338.86
945.684	352.99
946.053	395.37
946.422	319.08
946.791	290.8
947.159	276.66
947.528	369.95
947.897	412.31
948.265	341.69
948.634	440.54
949.002	358.65
949.371	389.72
949.739	279.49
950.107	307.77
950.475	310.6
950.843	423.6
951.211	426.43
951.579	446.19
951.947	398.19
952.315	352.99
952.683	364.3
953.05	271
953.418	403.84
953.785	336.04
954.153	341.69
954.52	386.9
954.888	378.42
955.255	378.42
955.622	355.82
955.989	386.9
956.356	324.73
956.723	336.04
957.09	386.9
957.457	426.43
957.824	449.01
958.191	378.42
958.557	361.47
958.924	386.9
959.291	401.02
959.657	293.63
960.023	347.34
960.39	321.9
960.756	392.54
961.122	341.69
961.488	378.42
961.855	412.31
962.221	341.69
962.586	344.52
962.952	307.77
963.318	369.95
963.684	347.34
964.05	256.86
964.415	375.6
964.781	420.78
965.146	327.56
965.512	384.07
965.877	350.17
966.242	324.73
966.608	369.95
966.973	355.82
967.338	304.94
967.703	350.17
968.068	355.82
968.433	406.66
968.797	426.43
969.162	355.82
969.527	463.12
969.891	364.3
970.256	440.54
970.62	451.83
970.985	392.54
971.349	310.6
971.714	386.9
972.078	401.02
972.442	321.9
972.806	333.21
973.17	392.54
973.534	375.6
973.898	330.39
974.262	347.34
974.625	336.04
974.989	355.82
975.353	313.42
975.716	369.95
976.08	406.66
976.443	327.56
976.806	336.04
977.17	338.86
977.533	350.17
977.896	423.6
978.259	367.12
978.622	395.37
978.985	389.72
979.348	423.6
979.711	398.19
980.073	352.99
980.436	350.17
980.799	392.54
981.161	341.69
981.524	369.95
981.886	347.34
982.248	440.54
982.611	434.9
982.973	358.65
983.335	372.77
983.697	417.96
984.059	434.9
984.421	415.13
984.783	406.66
985.145	304.94
985.506	372.77
985.868	296.46
986.23	480.04
986.591	316.25
986.953	406.66
987.314	384.07
987.675	409.49
988.037	449.01
988.398	367.12
988.759	378.42
989.12	395.37
989.481	313.42
989.842	316.25
990.203	386.9
990.564	319.08
990.924	316.25
991.285	530.8
991.646	446.19
992.006	398.19
992.367	403.84
992.727	384.07
993.087	355.82
993.448	369.95
993.808	296.46
994.168	344.52
994.528	304.94
994.888	352.99
995.248	401.02
995.608	420.78
995.967	381.25
996.327	389.72
996.687	426.43
997.046	381.25
997.406	330.39
997.765	355.82
998.125	420.78
998.484	434.9
998.843	384.07
999.202	364.3
999.561	437.72
999.92	341.69
1000.279	381.25
1000.638	389.72
1000.997	256.86
1001.356	384.07
1001.715	352.99
1002.073	350.17
1002.432	347.34
1002.79	395.37
1003.149	361.47
1003.507	375.6
1003.865	355.82
1004.224	304.94
1004.582	355.82
1004.94	395.37
1005.298	358.65
1005.656	375.6
1006.014	468.76
1006.371	324.73
1006.729	446.19
1007.087	361.47
1007.445	341.69
1007.802	262.52
1008.16	367.12
1008.517	285.15
1008.874	355.82
1009.232	369.95
1009.589	358.65
1009.946	358.65
1010.303	324.73
1010.66	477.22
1011.017	417.96
1011.374	355.82
1011.731	457.47
1012.087	271
1012.444	426.43
1012.801	401.02
1013.157	403.84
1013.513	358.65
1013.87	333.21
1014.226	372.77
1014.582	449.01
1014.939	344.52
1015.295	389.72
1015.651	381.25
1016.007	412.31
1016.363	372.77
1016.719	415.13
1017.074	375.6
1017.43	378.42
1017.786	341.69
1018.141	372.77
1018.497	310.6
1018.852	290.8
1019.208	364.3
1019.563	347.34
1019.918	361.47
1020.273	364.3
1020.628	350.17
1020.983	426.43
1021.338	372.77
1021.693	451.83
1022.048	358.65
1022.403	384.07
1022.757	361.47
1023.112	299.29
1023.467	271
1023.821	316.25
1024.175	423.6
1024.53	350.17
1024.884	403.84
1025.238	389.72
1025.592	299.29
1025.946	375.6
1026.3	406.66
1026.654	333.21
1027.008	319.08
1027.362	409.49
1027.716	358.65
1028.069	350.17
1028.423	369.95
1028.777	290.8
1029.13	443.36
1029.483	406.66
1029.837	338.86
1030.19	406.66
1030.543	282.32
1030.896	398.19
1031.249	406.66
1031.602	384.07
1031.955	327.56
1032.308	406.66
1032.661	369.95
1033.013	406.66
1033.366	321.9
1033.719	344.52
1034.071	389.72
1034.424	417.96
1034.776	372.77
1035.128	352.99
1035.48	409.49
1035.833	420.78
1036.185	389.72
1036.537	389.72
1036.889	389.72
