Data from SCSF78-3-385-irrad_FLMS019251_12-05-57-505.txt Node
Date: Fri Feb 15 12:05:57 CET 2019
User: luk
Spectrometer: FLMS01925
Trigger mode: 0
Integration Time (sec): 5.070000E-3
Scans to average: 1
Electric dark correction enabled: true
Nonlinearity correction enabled: true
Boxcar width: 0
XAxis mode: Wavelengths
Number of Pixels in Spectrum: 2048
>>>>>Begin Spectral Data<<<<<
187.103	-82.56
187.574	-82.56
188.045	-82.56
188.516	-62.67
188.987	-93.93
189.458	-119.52
189.929	-88.25
190.4	-110.99
190.871	-116.68
191.342	-108.15
191.813	-14.37
192.284	-25.73
192.754	-37.1
193.225	-22.89
193.696	25.37
194.166	39.56
194.637	113.3
195.107	73.61
195.578	96.29
196.048	155.81
196.518	138.81
196.989	158.65
197.459	138.81
197.929	263.4
198.399	283.2
198.869	365.18
199.339	334.09
199.809	189.81
200.279	325.62
200.749	345.4
201.219	365.18
201.689	416.02
202.159	492.21
202.628	373.65
203.098	365.18
203.568	404.72
204.037	424.49
204.507	410.37
204.976	441.42
205.445	382.13
205.915	486.57
206.384	404.72
206.853	359.53
207.323	447.07
207.792	492.21
208.261	317.13
208.73	430.13
209.199	430.13
209.668	370.83
210.137	382.13
210.606	379.3
211.075	430.13
211.543	447.07
212.012	407.55
212.481	452.71
212.95	387.78
213.418	311.48
213.887	432.95
214.355	345.4
214.824	339.75
215.292	416.02
215.76	387.78
216.229	308.65
216.697	359.53
217.165	384.95
217.633	390.6
218.101	432.95
218.569	382.13
219.037	368
219.505	311.48
219.973	325.62
220.441	404.72
220.909	345.4
221.377	449.89
221.844	353.88
222.312	356.7
222.78	373.65
223.247	314.31
223.715	368
224.182	342.57
224.65	370.83
225.117	424.49
225.584	401.9
226.052	336.92
226.519	353.88
226.986	328.44
227.453	353.88
227.92	393.43
228.387	424.49
228.854	336.92
229.321	362.35
229.788	416.02
230.255	418.84
230.722	365.18
231.189	396.25
231.655	373.65
232.122	322.79
232.589	384.95
233.055	483.75
233.522	345.4
233.988	418.84
234.454	410.37
234.921	407.55
235.387	384.95
235.853	393.43
236.32	362.35
236.786	348.23
237.252	368
237.718	311.48
238.184	345.4
238.65	322.79
239.116	390.6
239.582	393.43
240.047	376.48
240.513	382.13
240.979	297.34
241.445	370.83
241.91	317.13
242.376	483.75
242.841	384.95
243.307	291.69
243.772	317.13
244.238	396.25
244.703	379.3
245.168	345.4
245.633	328.44
246.099	413.19
246.564	407.55
247.029	348.23
247.494	353.88
247.959	322.79
248.424	365.18
248.889	418.84
249.353	317.13
249.818	387.78
250.283	382.13
250.748	342.57
251.212	334.09
251.677	424.49
252.141	438.6
252.606	413.19
253.07	382.13
253.535	359.53
253.999	370.83
254.463	441.42
254.927	365.18
255.392	458.36
255.856	396.25
256.32	486.57
256.784	334.09
257.248	382.13
257.712	461.18
258.176	401.9
258.64	458.36
259.103	387.78
259.567	345.4
260.031	384.95
260.495	348.23
260.958	455.53
261.422	427.31
261.885	421.66
262.349	379.3
262.812	407.55
263.275	421.66
263.739	328.44
264.202	387.78
264.665	303
265.128	435.78
265.591	511.95
266.054	351.05
266.517	365.18
266.98	441.42
267.443	416.02
267.906	348.23
268.369	475.28
268.832	466.82
269.294	447.07
269.757	452.71
270.22	368
270.682	413.19
271.145	393.43
271.607	359.53
272.07	345.4
272.532	314.31
272.994	359.53
273.456	396.25
273.919	356.7
274.381	410.37
274.843	311.48
275.305	334.09
275.767	384.95
276.229	348.23
276.691	393.43
277.153	331.27
277.614	416.02
278.076	447.07
278.538	430.13
279	379.3
279.461	399.07
279.923	362.35
280.384	382.13
280.846	362.35
281.307	370.83
281.769	353.88
282.23	317.13
282.691	430.13
283.152	373.65
283.613	390.6
284.075	410.37
284.536	424.49
284.997	368
285.458	418.84
285.918	331.27
286.379	365.18
286.84	421.66
287.301	297.34
287.762	430.13
288.222	410.37
288.683	376.48
289.143	421.66
289.604	370.83
290.064	362.35
290.525	376.48
290.985	410.37
291.445	472.46
291.906	458.36
292.366	351.05
292.826	370.83
293.286	421.66
293.746	435.78
294.206	466.82
294.666	503.49
295.126	430.13
295.586	421.66
296.046	438.6
296.506	393.43
296.965	410.37
297.425	441.42
297.884	444.24
298.344	452.71
298.804	407.55
299.263	387.78
299.722	424.49
300.182	466.82
300.641	373.65
301.1	368
301.559	483.75
302.019	382.13
302.478	421.66
302.937	407.55
303.396	449.89
303.855	413.19
304.314	413.19
304.772	528.87
305.231	424.49
305.69	396.25
306.149	319.96
306.607	404.72
307.066	305.82
307.524	472.46
307.983	447.07
308.441	387.78
308.9	351.05
309.358	441.42
309.816	345.4
310.275	410.37
310.733	376.48
311.191	418.84
311.649	413.19
312.107	438.6
312.565	416.02
313.023	348.23
313.481	384.95
313.939	472.46
314.397	379.3
314.854	475.28
315.312	464
315.77	401.9
316.227	390.6
316.685	432.95
317.142	452.71
317.6	424.49
318.057	410.37
318.514	365.18
318.972	461.18
319.429	401.9
319.886	359.53
320.343	410.37
320.8	421.66
321.257	401.9
321.714	438.6
322.171	447.07
322.628	483.75
323.085	399.07
323.542	393.43
323.998	373.65
324.455	466.82
324.912	351.05
325.368	382.13
325.825	441.42
326.281	492.21
326.738	432.95
327.194	401.9
327.65	407.55
328.107	452.71
328.563	376.48
329.019	399.07
329.475	461.18
329.931	424.49
330.387	345.4
330.843	416.02
331.299	410.37
331.755	345.4
332.211	382.13
332.666	353.88
333.122	447.07
333.578	387.78
334.033	348.23
334.489	418.84
334.944	370.83
335.4	517.59
335.855	432.95
336.31	334.09
336.766	379.3
337.221	469.64
337.676	435.78
338.131	432.95
338.586	382.13
339.041	376.48
339.496	393.43
339.951	438.6
340.406	438.6
340.861	418.84
341.316	461.18
341.771	418.84
342.225	351.05
342.68	396.25
343.134	441.42
343.589	413.19
344.043	424.49
344.498	469.64
344.952	413.19
345.406	430.13
345.861	274.72
346.315	421.66
346.769	432.95
347.223	404.72
347.677	441.42
348.131	427.31
348.585	399.07
349.039	382.13
349.493	447.07
349.947	430.13
350.401	401.9
350.854	382.13
351.308	339.75
351.762	348.23
352.215	441.42
352.669	483.75
353.122	441.42
353.575	390.6
354.029	345.4
354.482	503.49
354.935	441.42
355.388	401.9
355.842	438.6
356.295	393.43
356.748	410.37
357.201	447.07
357.654	432.95
358.106	447.07
358.559	435.78
359.012	495.03
359.465	432.95
359.917	455.53
360.37	489.39
360.823	421.66
361.275	452.71
361.728	432.95
362.18	359.53
362.632	416.02
363.085	461.18
363.537	458.36
363.989	410.37
364.441	469.64
364.893	435.78
365.345	351.05
365.797	455.53
366.249	438.6
366.701	472.46
367.153	421.66
367.605	424.49
368.057	359.53
368.508	475.28
368.96	401.9
369.411	461.18
369.863	393.43
370.314	368
370.766	441.42
371.217	410.37
371.669	452.71
372.12	379.3
372.571	483.75
373.022	458.36
373.473	466.82
373.924	413.19
374.375	432.95
374.826	407.55
375.277	353.88
375.728	359.53
376.179	399.07
376.63	449.89
377.08	452.71
377.531	387.78
377.981	441.42
378.432	511.95
378.883	486.57
379.333	373.65
379.783	404.72
380.234	441.42
380.684	393.43
381.134	413.19
381.584	401.9
382.034	424.49
382.485	413.19
382.935	413.19
383.385	449.89
383.834	444.24
384.284	427.31
384.734	432.95
385.184	348.23
385.634	458.36
386.083	500.67
386.533	593.68
386.982	404.72
387.432	441.42
387.881	438.6
388.331	421.66
388.78	500.67
389.229	418.84
389.679	469.64
390.128	452.71
390.577	404.72
391.026	489.39
391.475	458.36
391.924	455.53
392.373	430.13
392.822	441.42
393.27	432.95
393.719	495.03
394.168	500.67
394.617	413.19
395.065	458.36
395.514	523.23
395.962	441.42
396.411	399.07
396.859	410.37
397.307	410.37
397.756	421.66
398.204	458.36
398.652	500.67
399.1	416.02
399.548	449.89
399.996	489.39
400.444	506.31
400.892	427.31
401.34	458.36
401.788	424.49
402.236	478.1
402.683	447.07
403.131	464
403.579	472.46
404.026	387.78
404.474	483.75
404.921	478.1
405.369	475.28
405.816	469.64
406.263	483.75
406.71	407.55
407.158	444.24
407.605	452.71
408.052	517.59
408.499	542.96
408.946	503.49
409.393	613.39
409.84	475.28
410.286	531.68
410.733	542.96
411.18	483.75
411.626	579.59
412.073	458.36
412.52	441.42
412.966	413.19
413.413	559.87
413.859	573.96
414.305	607.76
414.752	695.01
415.198	680.94
415.644	815.86
416.09	908.48
416.536	1037.4
416.982	1291.79
417.428	1625.98
417.874	2157.75
418.32	2471.82
418.766	2935.24
419.211	3708.37
419.657	4340.4
420.103	5352.63
420.548	5966.32
420.994	7099.87
421.439	8129.53
421.885	9262.89
422.33	10491.08
422.776	11627.18
423.221	12749.8
423.666	14236.44
424.111	15682.92
424.556	16303.4
425.001	18051.04
425.446	19477.29
425.891	20695.11
426.336	21391.9
426.781	23105.57
427.226	25250.42
427.671	25530.46
428.115	26038.58
428.56	27574.95
429.005	29207.99
429.449	29530.31
429.894	31050.42
430.338	31760
430.782	31681.98
431.227	33203.35
431.671	33252.12
432.115	34679.04
432.559	35328.37
433.003	35680.08
433.447	36232.37
433.891	36599.17
434.335	37299.15
434.779	37742.6
435.223	38120.21
435.667	38348.39
436.111	38522.67
436.554	38829.68
436.998	38812.48
437.442	39139.37
437.885	40750.97
438.328	39744.71
438.772	39493.6
439.215	40363.4
439.659	40210.48
440.102	40449.76
440.545	40114.32
440.988	40067.48
441.431	41007.97
441.874	40373.27
442.317	41406.24
442.76	40723.8
443.203	40217.87
443.646	40770.73
444.089	41062.36
444.531	40822.61
444.974	39609.29
445.417	40958.53
445.859	40360.94
446.302	41639.03
446.744	40921.46
447.186	41842.25
447.629	40988.19
448.071	40941.23
448.513	40879.44
448.956	41777.8
449.398	41356.74
449.84	40178.42
450.282	41129.13
450.724	41577.1
451.166	40874.5
451.607	41277.55
452.049	41765.4
452.491	42239.22
452.933	41976.16
453.374	42646.74
453.816	42512.49
454.257	42716.39
454.699	43433.9
455.14	43376.51
455.582	43030.03
456.023	42480.18
456.464	42965.28
456.905	43708.54
457.347	44048.59
457.788	42893.07
458.229	42547.29
458.67	43648.59
459.111	41919.12
459.552	42326.14
459.992	42201.98
460.433	42303.79
460.874	41092.03
461.315	41433.47
461.755	41057.41
462.196	40629.96
462.636	39552.67
463.077	40383.14
463.517	39927
463.957	39936.86
464.398	39685.61
464.838	39560.05
465.278	38746.15
465.718	38955
466.158	37806.33
466.598	38711.76
467.038	37987.76
467.478	38694.57
467.918	38805.11
468.358	38142.28
468.798	37740.15
469.237	37438.76
469.677	37477.95
470.117	38110.39
470.556	35748.48
470.996	36628.53
471.435	36542.92
471.874	37066.55
472.314	36912.35
472.753	36151.7
473.192	36303.27
473.631	36115.03
474.07	35897.52
474.509	35965.95
474.948	36369.28
475.387	35809.56
475.826	35103.74
476.265	36061.26
476.704	36266.59
477.143	36618.74
477.581	35562.82
478.02	36469.54
478.458	35404.07
478.897	35731.38
479.335	36929.48
479.774	36494
480.212	36699.47
480.65	36963.74
481.089	36721.49
481.527	35643.43
481.965	35763.14
482.403	37220.79
482.841	37191.4
483.279	36824.25
483.717	37162.02
484.155	36677.45
484.592	36887.87
485.03	37446.11
485.468	36577.16
485.905	36775.31
486.343	36958.85
486.781	36163.92
487.218	35684.96
487.655	36014.82
488.093	35252.68
488.53	36225.03
488.967	35587.25
489.405	35660.53
489.842	34679.04
490.279	34391.11
490.716	34364.27
491.153	34747.37
491.59	34217.9
492.027	33566.68
492.463	32949.78
492.9	32547.5
493.337	32415.84
493.773	32606.01
494.21	31455.22
494.647	31391.82
495.083	31291.84
495.519	30323.51
495.956	30799.21
496.392	30340.59
496.828	30001.41
497.265	29767.11
497.701	29779.31
498.137	29159.14
498.573	28118.05
499.009	28914.87
499.445	27956.63
499.881	27988.43
500.316	27731.57
500.752	26994.67
501.188	26693.31
501.624	26864.83
502.059	25697.43
502.495	25692.52
502.93	25640.96
503.366	25505.9
503.801	25169.33
504.236	24687.42
504.672	24748.91
505.107	24382.3
505.542	23734.51
505.977	23441.11
506.412	23317.78
506.847	23492.9
507.282	23243.76
507.717	22959.93
508.152	22619.09
508.587	22552.38
509.021	21884.67
509.456	22114.77
509.891	22181.56
510.325	21500.9
510.76	21495.95
511.194	21384.47
511.628	21059.76
512.063	20714.96
512.497	20801.81
512.931	20471.69
513.366	19823.12
513.8	20059.31
514.234	19362.78
514.668	19402.61
515.102	19355.31
515.536	18911.89
515.969	19223.33
516.403	18610.18
516.837	18385.62
517.271	18393.11
517.704	17991.08
518.138	18066.03
518.571	17773.67
519.005	17345.96
519.438	17571.13
519.871	17278.39
520.305	16850.12
520.738	16689.7
521.171	16197.97
521.604	16461.48
522.037	16185.42
522.47	15944.31
522.903	15622.57
523.336	15848.83
523.769	15423.84
524.202	14998.31
524.634	15230.03
525.067	15013.42
525.5	14683.2
525.932	14610.04
526.365	14276.86
526.797	14206.13
527.23	14148.02
527.662	13814.31
528.094	13601.74
528.527	13606.81
528.959	13089.9
529.391	13049.31
529.823	12541.46
530.255	12404.16
530.687	12472.82
531.119	12304.96
531.551	12289.69
531.982	11861.83
532.414	11573.58
532.846	11491.89
533.277	11238.95
533.709	10995.94
534.14	11011.3
534.572	10793.64
535.003	10742.39
535.435	10416.65
535.866	10657.8
536.297	10038.9
536.728	10193.18
537.159	10069.77
537.59	9760.87
538.022	9634.58
538.452	9613.95
538.883	9469.49
539.314	9515.94
539.745	9252.56
540.176	9001.69
540.606	8716.72
541.037	8872.22
541.468	8802.27
541.898	8581.82
542.328	8472.78
542.759	8428.62
543.189	8132.13
543.619	8054.01
544.05	7777.62
544.48	7743.68
544.91	7761.96
545.34	7691.46
545.77	7631.37
546.2	7639.21
546.63	7445.72
547.06	7448.34
547.489	7377.67
547.919	7063.13
548.349	6979.12
548.778	6876.65
549.208	6713.57
549.637	6689.88
550.067	6658.29
550.496	6863.51
550.926	6537.1
551.355	6344.52
551.784	6328.67
552.213	6270.56
552.642	6146.32
553.071	6104
553.5	6074.89
553.929	5982.22
554.358	5847.05
554.787	5992.81
555.216	5918.63
555.645	5594.81
556.073	5501.73
556.502	5480.44
556.93	5581.52
557.359	5352.63
557.787	5403.24
558.216	5259.33
558.644	5211.32
559.072	5246
559.5	5008.34
559.929	5061.8
560.357	4957.53
560.785	4821.03
561.213	4949.51
561.641	4740.64
562.068	4729.92
562.496	4906.7
562.924	4807.63
563.352	4646.77
563.779	4762.08
564.207	4611.89
564.634	4619.94
565.062	4676.29
565.489	4493.71
565.917	4568.93
566.344	4504.46
566.771	4480.27
567.198	4402.29
567.625	4273.08
568.053	4370.01
568.48	4456.08
568.907	4227.28
569.333	4308.09
569.76	3995.21
570.187	4022.23
570.614	3989.81
571.04	3981.7
571.467	3762.56
571.894	3702.95
572.32	3646.01
572.747	3580.89
573.173	3599.89
573.599	3537.45
574.026	3523.88
574.452	3366.21
574.878	3377.09
575.304	3227.33
575.73	3213.71
576.156	3303.6
576.582	3066.39
577.008	3120.98
577.434	3080.05
577.86	3006.31
578.285	3052.74
578.711	2883.27
579.137	2927.03
579.562	2896.95
579.988	2847.69
580.413	2631.16
580.838	2666.83
581.264	2650.37
581.689	2666.83
582.114	2625.67
582.539	2639.39
582.964	2655.85
583.39	2603.71
583.814	2518.56
584.239	2488.32
584.664	2389.29
585.089	2458.07
585.514	2449.82
585.939	2378.28
586.363	2298.4
586.788	2353.5
587.212	2309.43
587.637	2279.11
588.061	2193.62
588.485	2168.79
588.91	2108.04
589.334	2152.23
589.758	2016.84
590.182	1972.59
590.606	2016.84
591.03	2003.02
591.454	1908.93
591.878	1939.38
592.302	1895.08
592.726	1994.72
593.15	1917.23
593.573	1836.9
593.997	1900.62
594.42	1789.77
594.844	1723.18
595.267	1795.31
595.691	1700.98
596.114	1770.35
596.537	1598.19
596.96	1675.99
597.384	1667.66
597.807	1620.42
598.23	1534.22
598.653	1631.54
599.076	1592.63
599.499	1598.19
599.921	1609.31
600.344	1503.61
600.767	1531.44
601.189	1539.79
601.612	1481.34
602.034	1453.5
602.457	1495.26
602.879	1425.64
603.302	1445.14
603.724	1434
604.146	1564.82
604.568	1445.14
604.991	1406.14
605.413	1498.05
605.835	1509.18
606.257	1369.9
606.678	1386.63
607.1	1350.38
607.522	1492.48
607.944	1358.75
608.365	1378.26
608.787	1403.35
609.209	1294.58
609.63	1383.84
610.051	1361.54
610.473	1330.86
610.894	1272.26
611.315	1227.58
611.737	1272.26
612.158	1227.58
612.579	1191.26
613	1333.65
613.421	1277.84
613.842	1160.51
614.263	1233.16
614.683	1238.75
615.104	1090.59
615.525	1269.46
615.945	1115.77
616.366	1263.88
616.787	1149.33
617.207	1166.1
617.627	1110.17
618.048	1104.58
618.468	1112.97
618.888	1087.79
619.308	1012.19
619.728	939.33
620.148	1026.2
620.568	970.17
620.988	995.39
621.408	1048.6
621.828	978.57
622.248	964.56
622.668	1020.6
623.087	1057
623.507	869.2
623.926	874.82
624.346	1012.19
624.765	894.46
625.185	902.87
625.604	919.7
626.023	877.62
626.442	897.26
626.861	911.29
627.28	768.11
627.699	928.11
628.118	914.09
628.537	944.94
628.956	841.13
629.375	829.9
629.794	888.85
630.212	835.52
630.631	768.11
631.049	810.25
631.468	799.01
631.886	807.44
632.305	666.87
632.723	807.44
633.141	768.11
633.559	745.62
633.978	838.33
634.396	784.97
634.814	838.33
635.232	829.9
635.65	784.97
636.067	737.19
636.485	742.81
636.903	754.05
637.321	675.31
637.738	664.06
638.156	810.25
638.573	784.97
638.991	723.13
639.408	807.44
639.825	728.75
640.243	700.63
640.66	686.57
641.077	728.75
641.494	664.06
641.911	725.94
642.328	638.73
642.745	633.1
643.162	641.54
643.579	706.26
643.995	658.43
644.412	686.57
644.829	655.62
645.245	644.36
645.662	680.94
646.078	613.39
646.495	638.73
646.911	689.38
647.327	599.31
647.743	647.17
648.159	630.28
648.576	635.91
648.992	610.57
649.408	610.57
649.824	647.17
650.239	655.62
650.655	664.06
651.071	661.25
651.487	599.31
651.902	630.28
652.318	548.6
652.733	576.77
653.149	602.13
653.564	599.31
653.979	548.6
654.395	534.5
654.81	480.93
655.225	602.13
655.64	571.14
656.055	557.05
656.47	703.45
656.885	664.06
657.3	630.28
657.715	557.05
658.13	557.05
658.544	607.76
658.959	497.85
659.374	542.96
659.788	619.02
660.202	630.28
660.617	565.5
661.031	599.31
661.445	554.23
661.86	610.57
662.274	526.05
662.688	571.14
663.102	604.94
663.516	509.13
663.93	548.6
664.344	585.23
664.758	585.23
665.171	573.96
665.585	576.77
665.999	568.32
666.412	593.68
666.826	520.41
667.239	458.36
667.653	531.68
668.066	557.05
668.479	557.05
668.892	452.71
669.306	528.87
669.719	486.57
670.132	472.46
670.545	551.41
670.958	621.84
671.37	458.36
671.783	582.41
672.196	480.93
672.609	537.32
673.021	509.13
673.434	444.24
673.846	528.87
674.259	421.66
674.671	483.75
675.084	480.93
675.496	557.05
675.908	497.85
676.32	585.23
676.732	526.05
677.144	500.67
677.556	562.69
677.968	497.85
678.38	469.64
678.792	511.95
679.204	573.96
679.615	531.68
680.027	464
680.439	511.95
680.85	534.5
681.262	526.05
681.673	486.57
682.084	435.78
682.496	461.18
682.907	478.1
683.318	444.24
683.729	582.41
684.14	523.23
684.551	509.13
684.962	506.31
685.373	478.1
685.784	449.89
686.194	399.07
686.605	430.13
687.016	447.07
687.426	540.14
687.837	401.9
688.247	449.89
688.657	514.77
689.068	511.95
689.478	447.07
689.888	399.07
690.298	390.6
690.708	432.95
691.118	461.18
691.528	478.1
691.938	376.48
692.348	427.31
692.758	511.95
693.168	430.13
693.577	455.53
693.987	500.67
694.396	441.42
694.806	483.75
695.215	458.36
695.625	523.23
696.034	432.95
696.443	424.49
696.852	480.93
697.262	410.37
697.671	489.39
698.08	449.89
698.489	478.1
698.897	449.89
699.306	438.6
699.715	427.31
700.124	537.32
700.532	506.31
700.941	407.55
701.35	475.28
701.758	384.95
702.166	489.39
702.575	469.64
702.983	452.71
703.391	396.25
703.799	413.19
704.208	449.89
704.616	455.53
705.024	390.6
705.432	441.42
705.839	438.6
706.247	475.28
706.655	461.18
707.063	455.53
707.47	430.13
707.878	390.6
708.285	452.71
708.693	480.93
709.1	444.24
709.508	464
709.915	427.31
710.322	435.78
710.729	449.89
711.136	432.95
711.543	435.78
711.95	384.95
712.357	455.53
712.764	396.25
713.171	461.18
713.578	455.53
713.984	317.13
714.391	280.37
714.797	447.07
715.204	469.64
715.61	461.18
716.017	435.78
716.423	396.25
716.829	489.39
717.236	432.95
717.642	390.6
718.048	438.6
718.454	441.42
718.86	353.88
719.266	449.89
719.671	461.18
720.077	458.36
720.483	452.71
720.889	438.6
721.294	452.71
721.7	401.9
722.105	404.72
722.511	418.84
722.916	396.25
723.321	396.25
723.726	427.31
724.132	368
724.537	475.28
724.942	396.25
725.347	447.07
725.752	469.64
726.156	404.72
726.561	447.07
726.966	390.6
727.371	432.95
727.775	472.46
728.18	464
728.584	472.46
728.989	404.72
729.393	438.6
729.798	407.55
730.202	401.9
730.606	492.21
731.01	430.13
731.414	441.42
731.818	401.9
732.222	528.87
732.626	416.02
733.03	469.64
733.434	418.84
733.837	370.83
734.241	464
734.645	413.19
735.048	404.72
735.452	464
735.855	362.35
736.258	435.78
736.662	466.82
737.065	322.79
737.468	492.21
737.871	373.65
738.274	461.18
738.677	393.43
739.08	399.07
739.483	421.66
739.886	452.71
740.289	435.78
740.691	475.28
741.094	461.18
741.497	517.59
741.899	497.85
742.302	495.03
742.704	441.42
743.106	379.3
743.508	447.07
743.911	362.35
744.313	430.13
744.715	480.93
745.117	523.23
745.519	421.66
745.921	503.49
746.323	452.71
746.724	365.18
747.126	432.95
747.528	432.95
747.929	410.37
748.331	401.9
748.732	427.31
749.134	427.31
749.535	432.95
749.936	325.62
750.338	455.53
750.739	430.13
751.14	396.25
751.541	416.02
751.942	435.78
752.343	365.18
752.744	384.95
753.144	447.07
753.545	418.84
753.946	410.37
754.346	478.1
754.747	407.55
755.148	421.66
755.548	486.57
755.948	370.83
756.349	432.95
756.749	396.25
757.149	359.53
757.549	424.49
757.949	447.07
758.349	404.72
758.749	407.55
759.149	492.21
759.549	353.88
759.949	427.31
760.348	322.79
760.748	424.49
761.148	399.07
761.547	472.46
761.947	407.55
762.346	455.53
762.745	444.24
763.145	404.72
763.544	384.95
763.943	486.57
764.342	331.27
764.741	382.13
765.14	418.84
765.539	464
765.938	430.13
766.336	416.02
766.735	390.6
767.134	464
767.532	458.36
767.931	430.13
768.329	480.93
768.728	427.31
769.126	418.84
769.525	393.43
769.923	390.6
770.321	353.88
770.719	458.36
771.117	396.25
771.515	368
771.913	404.72
772.311	387.78
772.709	387.78
773.106	356.7
773.504	449.89
773.902	418.84
774.299	387.78
774.697	449.89
775.094	449.89
775.491	503.49
775.889	430.13
776.286	466.82
776.683	368
777.08	435.78
777.477	399.07
777.874	373.65
778.271	455.53
778.668	421.66
779.065	399.07
779.462	331.27
779.858	401.9
780.255	449.89
780.652	387.78
781.048	410.37
781.444	449.89
781.841	410.37
782.237	390.6
782.633	387.78
783.03	449.89
783.426	362.35
783.822	427.31
784.218	359.53
784.614	427.31
785.01	401.9
785.405	475.28
785.801	379.3
786.197	373.65
786.593	435.78
786.988	382.13
787.384	396.25
787.779	365.18
788.174	384.95
788.57	449.89
788.965	435.78
789.36	475.28
789.755	404.72
790.15	418.84
790.545	418.84
790.94	336.92
791.335	401.9
791.73	368
792.125	322.79
792.52	424.49
792.914	430.13
793.309	393.43
793.703	455.53
794.098	449.89
794.492	478.1
794.887	401.9
795.281	390.6
795.675	331.27
796.069	339.75
796.463	438.6
796.857	416.02
797.251	551.41
797.645	461.18
798.039	452.71
798.433	441.42
798.826	435.78
799.22	317.13
799.614	351.05
800.007	413.19
800.401	334.09
800.794	410.37
801.187	509.13
801.581	413.19
801.974	421.66
802.367	404.72
802.76	393.43
803.153	435.78
803.546	404.72
803.939	444.24
804.332	271.89
804.725	458.36
805.117	466.82
805.51	390.6
805.903	449.89
806.295	351.05
806.688	416.02
807.08	427.31
807.472	399.07
807.865	407.55
808.257	407.55
808.649	441.42
809.041	424.49
809.433	444.24
809.825	334.09
810.217	339.75
810.609	430.13
811.001	404.72
811.392	342.57
811.784	359.53
812.175	407.55
812.567	379.3
812.958	401.9
813.35	421.66
813.741	396.25
814.132	413.19
814.524	353.88
814.915	274.72
815.306	410.37
815.697	351.05
816.088	365.18
816.479	370.83
816.87	404.72
817.26	365.18
817.651	458.36
818.042	365.18
818.432	435.78
818.823	413.19
819.213	365.18
819.604	444.24
819.994	444.24
820.384	404.72
820.775	303
821.165	393.43
821.555	478.1
821.945	432.95
822.335	322.79
822.725	351.05
823.114	418.84
823.504	421.66
823.894	348.23
824.284	376.48
824.673	441.42
825.063	447.07
825.452	336.92
825.842	351.05
826.231	365.18
826.62	322.79
827.009	416.02
827.399	373.65
827.788	464
828.177	348.23
828.566	438.6
828.954	345.4
829.343	401.9
829.732	379.3
830.121	435.78
830.509	368
830.898	376.48
831.286	376.48
831.675	387.78
832.063	404.72
832.452	416.02
832.84	387.78
833.228	342.57
833.616	455.53
834.004	401.9
834.392	396.25
834.78	404.72
835.168	410.37
835.556	393.43
835.944	399.07
836.331	311.48
836.719	407.55
837.107	382.13
837.494	390.6
837.881	410.37
838.269	365.18
838.656	418.84
839.043	384.95
839.431	438.6
839.818	461.18
840.205	382.13
840.592	413.19
840.979	390.6
841.366	407.55
841.752	424.49
842.139	390.6
842.526	382.13
842.912	444.24
843.299	390.6
843.685	427.31
844.072	438.6
844.458	480.93
844.844	348.23
845.231	449.89
845.617	401.9
846.003	407.55
846.389	353.88
846.775	288.86
847.161	390.6
847.547	387.78
847.933	435.78
848.318	404.72
848.704	314.31
849.09	410.37
849.475	376.48
849.861	404.72
850.246	384.95
850.631	373.65
851.017	393.43
851.402	336.92
851.787	328.44
852.172	441.42
852.557	368
852.942	464
853.327	407.55
853.712	373.65
854.097	441.42
854.481	370.83
854.866	368
855.25	452.71
855.635	322.79
856.019	418.84
856.404	351.05
856.788	365.18
857.172	401.9
857.557	416.02
857.941	390.6
858.325	452.71
858.709	444.24
859.093	432.95
859.477	418.84
859.86	370.83
860.244	407.55
860.628	348.23
861.012	421.66
861.395	396.25
861.779	464
862.162	368
862.545	294.51
862.929	382.13
863.312	345.4
863.695	430.13
864.078	353.88
864.461	345.4
864.844	430.13
865.227	269.06
865.61	368
865.993	348.23
866.376	348.23
866.758	334.09
867.141	413.19
867.523	404.72
867.906	373.65
868.288	424.49
868.671	399.07
869.053	416.02
869.435	401.9
869.817	339.75
870.199	370.83
870.581	359.53
870.963	396.25
871.345	404.72
871.727	452.71
872.109	362.35
872.491	345.4
872.872	441.42
873.254	362.35
873.635	435.78
874.017	373.65
874.398	427.31
874.779	441.42
875.161	384.95
875.542	353.88
875.923	373.65
876.304	424.49
876.685	418.84
877.066	424.49
877.447	370.83
877.828	362.35
878.208	387.78
878.589	407.55
878.97	421.66
879.35	373.65
879.731	396.25
880.111	449.89
880.491	328.44
880.872	353.88
881.252	396.25
881.632	384.95
882.012	452.71
882.392	373.65
882.772	449.89
883.152	424.49
883.532	430.13
883.912	390.6
884.291	430.13
884.671	379.3
885.051	444.24
885.43	345.4
885.81	308.65
886.189	384.95
886.568	348.23
886.948	314.31
887.327	421.66
887.706	421.66
888.085	418.84
888.464	368
888.843	384.95
889.222	410.37
889.601	359.53
889.979	362.35
890.358	432.95
890.737	373.65
891.115	427.31
891.494	447.07
891.872	464
892.25	399.07
892.629	435.78
893.007	435.78
893.385	325.62
893.763	322.79
894.141	438.6
894.519	489.39
894.897	376.48
895.275	300.17
895.653	432.95
896.03	390.6
896.408	382.13
896.786	393.43
897.163	399.07
897.541	342.57
897.918	387.78
898.295	396.25
898.673	339.75
899.05	336.92
899.427	472.46
899.804	348.23
900.181	351.05
900.558	401.9
900.935	430.13
901.312	503.49
901.688	379.3
902.065	384.95
902.442	421.66
902.818	401.9
903.195	438.6
903.571	410.37
903.947	339.75
904.324	359.53
904.7	421.66
905.076	356.7
905.452	370.83
905.828	356.7
906.204	368
906.58	353.88
906.956	376.48
907.331	368
907.707	348.23
908.083	359.53
908.458	506.31
908.834	410.37
909.209	370.83
909.585	458.36
909.96	430.13
910.335	305.82
910.71	348.23
911.086	418.84
911.461	393.43
911.836	452.71
912.21	356.7
912.585	384.95
912.96	407.55
913.335	322.79
913.709	441.42
914.084	427.31
914.459	339.75
914.833	401.9
915.207	336.92
915.582	373.65
915.956	401.9
916.33	390.6
916.704	399.07
917.078	424.49
917.452	418.84
917.826	410.37
918.2	421.66
918.574	438.6
918.948	376.48
919.321	362.35
919.695	404.72
920.068	393.43
920.442	413.19
920.815	461.18
921.189	464
921.562	396.25
921.935	328.44
922.308	382.13
922.681	368
923.054	537.32
923.427	384.95
923.8	441.42
924.173	362.35
924.546	421.66
924.919	421.66
925.291	373.65
925.664	379.3
926.036	407.55
926.409	404.72
926.781	348.23
927.153	362.35
927.526	353.88
927.898	373.65
928.27	424.49
928.642	311.48
929.014	373.65
929.386	314.31
929.758	368
930.129	404.72
930.501	382.13
930.873	413.19
931.244	447.07
931.616	382.13
931.987	379.3
932.359	311.48
932.73	274.72
933.101	331.27
933.472	362.35
933.843	303
934.214	365.18
934.585	348.23
934.956	399.07
935.327	373.65
935.698	322.79
936.069	393.43
936.439	356.7
936.81	393.43
937.18	396.25
937.551	387.78
937.921	430.13
938.292	427.31
938.662	430.13
939.032	452.71
939.402	331.27
939.772	396.25
940.142	418.84
940.512	294.51
940.882	345.4
941.252	370.83
941.621	458.36
941.991	345.4
942.361	475.28
942.73	348.23
943.1	379.3
943.469	331.27
943.838	478.1
944.208	390.6
944.577	379.3
944.946	444.24
945.315	269.06
945.684	416.02
946.053	438.6
946.422	427.31
946.791	376.48
947.159	328.44
947.528	401.9
947.897	373.65
948.265	384.95
948.634	342.57
949.002	322.79
949.371	370.83
949.739	469.64
950.107	362.35
950.475	382.13
950.843	353.88
951.211	362.35
951.579	432.95
951.947	379.3
952.315	362.35
952.683	303
953.05	407.55
953.418	342.57
953.785	365.18
954.153	345.4
954.52	362.35
954.888	322.79
955.255	336.92
955.622	399.07
955.989	410.37
956.356	430.13
956.723	461.18
957.09	424.49
957.457	336.92
957.824	336.92
958.191	447.07
958.557	384.95
958.924	382.13
959.291	351.05
959.657	401.9
960.023	393.43
960.39	418.84
960.756	424.49
961.122	413.19
961.488	410.37
961.855	390.6
962.221	368
962.586	376.48
962.952	382.13
963.318	421.66
963.684	455.53
964.05	382.13
964.415	393.43
964.781	413.19
965.146	382.13
965.512	370.83
965.877	407.55
966.242	464
966.608	461.18
966.973	328.44
967.338	413.19
967.703	368
968.068	430.13
968.433	418.84
968.797	396.25
969.162	319.96
969.527	421.66
969.891	362.35
970.256	418.84
970.62	260.57
970.985	319.96
971.349	449.89
971.714	373.65
972.078	294.51
972.442	322.79
972.806	416.02
973.17	452.71
973.534	328.44
973.898	379.3
974.262	359.53
974.625	373.65
974.989	396.25
975.353	379.3
975.716	466.82
976.08	407.55
976.443	390.6
976.806	334.09
977.17	432.95
977.533	432.95
977.896	407.55
978.259	432.95
978.622	432.95
978.985	432.95
979.348	404.72
979.711	362.35
980.073	410.37
980.436	444.24
980.799	404.72
981.161	384.95
981.524	435.78
981.886	376.48
982.248	427.31
982.611	396.25
982.973	469.64
983.335	376.48
983.697	421.66
984.059	396.25
984.421	317.13
984.783	314.31
985.145	331.27
985.506	370.83
985.868	458.36
986.23	362.35
986.591	351.05
986.953	489.39
987.314	368
987.675	376.48
988.037	486.57
988.398	458.36
988.759	438.6
989.12	410.37
989.481	427.31
989.842	435.78
990.203	336.92
990.564	368
990.924	438.6
991.285	334.09
991.646	444.24
992.006	424.49
992.367	421.66
992.727	345.4
993.087	376.48
993.448	461.18
993.808	421.66
994.168	353.88
994.528	370.83
994.888	404.72
995.248	447.07
995.608	432.95
995.967	365.18
996.327	362.35
996.687	334.09
997.046	376.48
997.406	399.07
997.765	410.37
998.125	334.09
998.484	319.96
998.843	376.48
999.202	353.88
999.561	303
999.92	466.82
1000.279	427.31
1000.638	348.23
1000.997	461.18
1001.356	447.07
1001.715	472.46
1002.073	407.55
1002.432	328.44
1002.79	435.78
1003.149	370.83
1003.507	311.48
1003.865	368
1004.224	447.07
1004.582	314.31
1004.94	418.84
1005.298	432.95
1005.656	336.92
1006.014	303
1006.371	452.71
1006.729	441.42
1007.087	416.02
1007.445	390.6
1007.802	407.55
1008.16	447.07
1008.517	418.84
1008.874	458.36
1009.232	365.18
1009.589	430.13
1009.946	449.89
1010.303	379.3
1010.66	342.57
1011.017	348.23
1011.374	458.36
1011.731	384.95
1012.087	444.24
1012.444	387.78
1012.801	368
1013.157	438.6
1013.513	373.65
1013.87	438.6
1014.226	365.18
1014.582	382.13
1014.939	351.05
1015.295	334.09
1015.651	396.25
1016.007	353.88
1016.363	379.3
1016.719	311.48
1017.074	404.72
1017.43	396.25
1017.786	387.78
1018.141	416.02
1018.497	399.07
1018.852	351.05
1019.208	362.35
1019.563	421.66
1019.918	334.09
1020.273	427.31
1020.628	424.49
1020.983	311.48
1021.338	387.78
1021.693	297.34
1022.048	413.19
1022.403	404.72
1022.757	359.53
1023.112	348.23
1023.467	348.23
1023.821	376.48
1024.175	373.65
1024.53	401.9
1024.884	368
1025.238	401.9
1025.592	404.72
1025.946	441.42
1026.3	410.37
1026.654	331.27
1027.008	495.03
1027.362	396.25
1027.716	356.7
1028.069	393.43
1028.423	393.43
1028.777	373.65
1029.13	401.9
1029.483	370.83
1029.837	328.44
1030.19	379.3
1030.543	345.4
1030.896	455.53
1031.249	305.82
1031.602	356.7
1031.955	359.53
1032.308	387.78
1032.661	359.53
1033.013	368
1033.366	399.07
1033.719	345.4
1034.071	461.18
1034.424	345.4
1034.776	348.23
1035.128	376.48
1035.48	438.6
1035.833	452.71
1036.185	336.92
1036.537	336.92
1036.889	336.92
