Data from SCSF78-3-370-irrad_FLMS019251_11-15-06-338.txt Node
Date: Fri Feb 15 11:15:06 CET 2019
User: luk
Spectrometer: FLMS01925
Trigger mode: 0
Integration Time (sec): 1.399000E-2
Scans to average: 1
Electric dark correction enabled: true
Nonlinearity correction enabled: true
Boxcar width: 0
XAxis mode: Wavelengths
Number of Pixels in Spectrum: 2048
>>>>>Begin Spectral Data<<<<<
187.103	6.57
187.574	6.57
188.045	6.57
188.516	-109.92
188.987	-95.71
189.458	-200.97
189.929	9.4
190.4	-78.65
190.871	0.89
191.342	-155.43
191.813	-90.02
192.284	-7.63
192.754	-67.28
193.225	-10.47
193.696	-33.19
194.166	40.63
194.637	-21.83
195.107	51.97
195.578	131.37
196.048	176.71
196.518	253.14
196.989	216.35
197.459	230.5
197.929	236.16
198.399	292.75
198.869	250.31
199.339	301.23
199.809	267.29
200.279	445.3
200.749	332.33
201.219	312.54
201.689	377.54
202.159	371.89
202.628	402.96
203.098	357.76
203.568	439.66
204.037	380.36
204.507	388.84
204.976	394.49
205.445	388.84
205.915	417.08
206.384	388.84
206.853	465.06
207.323	456.59
207.792	363.41
208.261	524.28
208.73	363.41
209.199	425.55
209.668	414.25
210.137	481.98
210.606	425.55
211.075	431.19
211.543	405.78
212.012	473.52
212.481	422.72
212.95	439.66
213.418	419.9
213.887	337.98
214.355	394.49
214.824	431.19
215.292	360.59
215.76	408.61
216.229	445.3
216.697	332.33
217.165	369.06
217.633	354.94
218.101	357.76
218.569	459.41
219.037	369.06
219.505	400.13
219.973	329.5
220.441	377.54
220.909	417.08
221.377	388.84
221.844	481.98
222.312	357.76
222.78	335.15
223.247	349.29
223.715	340.81
224.182	332.33
224.65	349.29
225.117	473.52
225.584	394.49
226.052	352.11
226.519	369.06
226.986	377.54
227.453	332.33
227.92	349.29
228.387	397.31
228.854	439.66
229.321	498.91
229.788	431.19
230.255	411.43
230.722	374.71
231.189	411.43
231.655	436.84
232.122	295.57
232.589	436.84
233.055	374.71
233.522	414.25
233.988	388.84
234.454	386.01
234.921	394.49
235.387	408.61
235.853	388.84
236.32	397.31
236.786	391.66
237.252	343.63
237.718	323.85
238.184	380.36
238.65	425.55
239.116	366.24
239.582	431.19
240.047	428.37
240.513	388.84
240.979	383.19
241.445	402.96
241.91	374.71
242.376	428.37
242.841	397.31
243.307	422.72
243.772	434.01
244.238	408.61
244.703	450.95
245.168	391.66
245.633	380.36
246.099	335.15
246.564	408.61
247.029	388.84
247.494	439.66
247.959	366.24
248.424	417.08
248.889	386.01
249.353	408.61
249.818	422.72
250.283	335.15
250.748	462.23
251.212	386.01
251.677	425.55
252.141	346.46
252.606	349.29
253.07	411.43
253.535	436.84
253.999	377.54
254.463	428.37
254.927	434.01
255.392	431.19
255.856	422.72
256.32	414.25
256.784	400.13
257.248	374.71
257.712	515.83
258.176	380.36
258.64	366.24
259.103	352.11
259.567	301.23
260.031	445.3
260.495	332.33
260.958	374.71
261.422	380.36
261.885	428.37
262.349	425.55
262.812	318.19
263.275	419.9
263.739	462.23
264.202	388.84
264.665	467.88
265.128	340.81
265.591	448.13
266.054	411.43
266.517	397.31
266.98	414.25
267.443	459.41
267.906	337.98
268.369	408.61
268.832	369.06
269.294	422.72
269.757	383.19
270.22	371.89
270.682	380.36
271.145	411.43
271.607	453.77
272.07	400.13
272.532	354.94
272.994	434.01
273.456	374.71
273.919	425.55
274.381	448.13
274.843	357.76
275.305	397.31
275.767	397.31
276.229	439.66
276.691	360.59
277.153	417.08
277.614	408.61
278.076	431.19
278.538	377.54
279	529.92
279.461	400.13
279.923	419.9
280.384	606
280.846	329.5
281.307	366.24
281.769	408.61
282.23	442.48
282.691	496.09
283.152	402.96
283.613	481.98
284.075	363.41
284.536	408.61
284.997	332.33
285.458	434.01
285.918	332.33
286.379	391.66
286.84	386.01
287.301	419.9
287.762	408.61
288.222	465.06
288.683	422.72
289.143	386.01
289.604	380.36
290.064	436.84
290.525	380.36
290.985	369.06
291.445	414.25
291.906	366.24
292.366	473.52
292.826	377.54
293.286	388.84
293.746	400.13
294.206	453.77
294.666	400.13
295.126	487.62
295.586	470.7
296.046	436.84
296.506	374.71
296.965	504.55
297.425	335.15
297.884	411.43
298.344	496.09
298.804	414.25
299.263	371.89
299.722	422.72
300.182	453.77
300.641	422.72
301.1	304.06
301.559	496.09
302.019	408.61
302.478	402.96
302.937	442.48
303.396	405.78
303.855	388.84
304.314	402.96
304.772	371.89
305.231	436.84
305.69	411.43
306.149	397.31
306.607	405.78
307.066	405.78
307.524	394.49
307.983	414.25
308.441	402.96
308.9	439.66
309.358	422.72
309.816	422.72
310.275	366.24
310.733	411.43
311.191	422.72
311.649	386.01
312.107	380.36
312.565	493.27
313.023	431.19
313.481	465.06
313.939	442.48
314.397	422.72
314.854	360.59
315.312	465.06
315.77	374.71
316.227	419.9
316.685	402.96
317.142	513.01
317.6	442.48
318.057	346.46
318.514	448.13
318.972	462.23
319.429	465.06
319.886	442.48
320.343	524.28
320.8	450.95
321.257	394.49
321.714	436.84
322.171	442.48
322.628	397.31
323.085	360.59
323.542	400.13
323.998	490.45
324.455	448.13
324.912	465.06
325.368	496.09
325.825	323.85
326.281	408.61
326.738	467.88
327.194	357.76
327.65	417.08
328.107	371.89
328.563	442.48
329.019	442.48
329.475	411.43
329.931	513.01
330.387	343.63
330.843	487.62
331.299	352.11
331.755	465.06
332.211	397.31
332.666	453.77
333.122	481.98
333.578	402.96
334.033	459.41
334.489	436.84
334.944	425.55
335.4	422.72
335.855	349.29
336.31	439.66
336.766	422.72
337.221	405.78
337.676	431.19
338.131	434.01
338.586	456.59
339.041	555.29
339.496	400.13
339.951	369.06
340.406	391.66
340.861	357.76
341.316	357.76
341.771	448.13
342.225	371.89
342.68	484.8
343.134	490.45
343.589	434.01
344.043	366.24
344.498	439.66
344.952	450.95
345.406	442.48
345.861	402.96
346.315	481.98
346.769	473.52
347.223	383.19
347.677	397.31
348.131	428.37
348.585	377.54
349.039	417.08
349.493	394.49
349.947	532.74
350.401	422.72
350.854	453.77
351.308	417.08
351.762	394.49
352.215	481.98
352.669	425.55
353.122	386.01
353.575	434.01
354.029	445.3
354.482	467.88
354.935	434.01
355.388	459.41
355.842	504.55
356.295	414.25
356.748	453.77
357.201	459.41
357.654	445.3
358.106	552.47
358.559	400.13
359.012	487.62
359.465	428.37
359.917	504.55
360.37	388.84
360.823	386.01
361.275	431.19
361.728	377.54
362.18	422.72
362.632	448.13
363.085	465.06
363.537	408.61
363.989	442.48
364.441	470.7
364.893	417.08
365.345	465.06
365.797	386.01
366.249	465.06
366.701	456.59
367.153	484.8
367.605	329.5
368.057	386.01
368.508	442.48
368.96	369.06
369.411	360.59
369.863	465.06
370.314	425.55
370.766	397.31
371.217	388.84
371.669	484.8
372.12	504.55
372.571	343.63
373.022	414.25
373.473	527.1
373.924	411.43
374.375	366.24
374.826	476.34
375.277	428.37
375.728	535.56
376.179	352.11
376.63	436.84
377.08	476.34
377.531	518.65
377.981	448.13
378.432	419.9
378.883	411.43
379.333	397.31
379.783	450.95
380.234	371.89
380.684	521.46
381.134	380.36
381.584	470.7
382.034	434.01
382.485	394.49
382.935	448.13
383.385	394.49
383.834	439.66
384.284	442.48
384.734	501.73
385.184	366.24
385.634	496.09
386.083	383.19
386.533	425.55
386.982	357.76
387.432	419.9
387.881	428.37
388.331	473.52
388.78	467.88
389.229	501.73
389.679	431.19
390.128	400.13
390.577	450.95
391.026	504.55
391.475	459.41
391.924	425.55
392.373	470.7
392.822	337.98
393.27	400.13
393.719	450.95
394.168	366.24
394.617	490.45
395.065	513.01
395.514	498.91
395.962	456.59
396.411	442.48
396.859	493.27
397.307	453.77
397.756	448.13
398.204	493.27
398.652	448.13
399.1	354.94
399.548	442.48
399.996	439.66
400.444	524.28
400.892	513.01
401.34	386.01
401.788	448.13
402.236	394.49
402.683	436.84
403.131	397.31
403.579	493.27
404.026	490.45
404.474	529.92
404.921	479.16
405.369	459.41
405.816	496.09
406.263	515.83
406.71	467.88
407.158	527.1
407.605	535.56
408.052	507.37
408.499	445.3
408.946	510.19
409.393	501.73
409.84	402.96
410.286	496.09
410.733	538.38
411.18	476.34
411.626	566.56
412.073	580.65
412.52	524.28
412.966	580.65
413.413	493.27
413.859	566.56
414.305	532.74
414.752	600.37
415.198	600.37
415.644	563.74
416.09	712.94
416.536	847.8
416.982	875.87
417.428	1105.62
417.874	1331.9
418.32	1551.96
418.766	1912.73
419.211	2351.78
419.657	2930.79
420.103	3671.43
420.548	4395.23
420.994	5393.58
421.439	6429.97
421.885	7334.14
422.33	8787.69
422.776	10027.01
423.221	11365.14
423.666	13029.97
424.111	14457.06
424.556	15965.35
425.001	17904.57
425.446	19403.55
425.891	20931.73
426.336	22348.16
426.781	24033.57
427.226	26022.33
427.671	27157.24
428.115	28573.69
428.56	30204.87
429.005	31858.45
429.449	32911.68
429.894	34555.5
430.338	35778.71
430.782	35729.85
431.227	37581.77
431.671	38219.26
432.115	40041.29
432.559	41149.84
433.003	41204.26
433.447	42374.27
433.891	42951.27
434.335	43387.43
434.779	44317.47
435.223	44937.38
435.667	45178.88
436.111	45738.65
436.554	46178.74
436.998	45698.24
437.442	45796.75
437.885	48331.21
438.328	46991.55
438.772	47208.27
439.215	47973.65
439.659	47241.45
440.102	48480.76
440.545	47894.07
440.988	47624.91
441.431	48977.41
441.874	48436.9
442.317	48767.58
442.76	48400.8
443.203	47755.57
443.646	48436.9
444.089	48398.22
444.531	48956.66
444.974	47994.2
445.417	48827.11
445.859	48470.44
446.302	49866.11
446.744	48715.84
447.186	49790.17
447.629	48811.58
448.071	49078.6
448.513	48876.32
448.956	50547.6
449.398	49641.11
449.84	48617.6
450.282	49513.19
450.724	49401.09
451.166	49552.33
451.607	49294.33
452.049	49177.3
452.491	50823.03
452.933	50452.5
453.374	50645.46
453.816	51495.12
454.257	50746.12
454.699	51626.64
455.14	51353.19
455.582	51187.55
456.023	51728.83
456.464	51355.86
456.905	52307.75
457.347	51839.29
457.788	50974.45
458.229	51184.88
458.67	52188.23
459.111	49792.79
459.552	49792.79
459.992	49955.23
460.433	49635.89
460.874	48627.94
461.315	49866.11
461.755	48912.59
462.196	47935.14
462.636	47870.97
463.077	47855.58
463.517	47241.45
463.957	46968.63
464.398	46925.34
464.838	47244.01
465.278	46016.72
465.718	46239.54
466.158	44462.85
466.598	46001.54
467.038	45085.76
467.478	45786.64
467.918	45332.5
468.358	44779.07
468.798	44932.35
469.237	44829.31
469.677	44615.87
470.117	44992.69
470.556	42811.87
470.996	43704.48
471.435	44084.57
471.874	44037.02
472.314	43704.48
472.753	43045.91
473.192	42570.6
473.631	42849.2
474.07	42642.7
474.509	42973.68
474.948	43168
475.387	41972.13
475.826	41719.25
476.265	43006.06
476.704	42590.48
477.143	43245.27
477.581	42580.54
478.02	43464.78
478.458	42272.43
478.897	42801.91
479.335	44172.19
479.774	43190.43
480.212	43397.41
480.65	43429.84
481.089	43145.57
481.527	43058.36
481.965	42543.25
482.403	44269.86
482.841	43569.62
483.279	44232.29
483.717	44034.52
484.155	43684.5
484.592	43889.44
485.03	44395.16
485.468	43043.42
485.905	43272.7
486.343	43801.94
486.781	43095.73
487.218	42436.38
487.655	42466.2
488.093	41513.63
488.53	42719.81
488.967	41696.94
489.405	42222.77
489.842	41142.42
490.279	40880.37
490.716	40438.35
491.153	41125.11
491.59	40265.66
492.027	39610.21
492.463	39632.37
492.9	38751.98
493.337	38391.03
493.773	38008.3
494.21	37623.43
494.647	37405.38
495.083	36482.69
495.519	36810.49
495.956	36316.41
496.392	35436.74
496.828	35321.96
497.265	34550.62
497.701	34987.48
498.137	34467.66
498.573	33296.92
499.009	33921.22
499.445	32892.18
499.881	32428.95
500.316	33216.46
500.752	32041.3
501.188	31909.65
501.624	31556.11
502.059	30226.83
502.495	30251.23
502.93	30434.21
503.366	30397.62
503.801	29624
504.236	29355.43
504.672	28864.48
505.107	28607.91
505.542	27871.94
505.977	27893.95
506.412	27837.69
506.847	27901.29
507.282	27502.45
507.717	27076.42
508.152	26988.24
508.587	26593.73
509.021	26301.97
509.456	25413.49
509.891	25636.97
510.325	25951.17
510.76	25469.98
511.194	25042.44
511.628	24803.94
512.063	24429.98
512.497	24479.2
512.931	23804.44
513.366	24048.35
513.8	23636.83
514.234	22842.33
514.668	23247.15
515.102	23091.69
515.536	22439.62
515.969	22241.84
516.403	22130.54
516.837	21685.09
517.271	21751.94
517.704	21182.17
518.138	21221.83
518.571	21120.2
519.005	20599.24
519.438	20609.17
519.871	20199.4
520.305	19955.83
520.738	19724.56
521.171	19338.81
521.604	19557.86
522.037	19204.34
522.47	18678.46
522.903	18616.11
523.336	18568.71
523.769	18558.73
524.202	17637.09
524.634	17812.1
525.067	17587.07
525.5	17346.9
525.932	17156.66
526.365	16685.63
526.797	16698.16
527.23	16705.68
527.662	16203.93
528.094	15857.31
528.527	15967.86
528.959	15666.26
529.391	15470.08
529.823	14946.34
530.255	15054.68
530.687	14525.2
531.119	14499.97
531.551	14345.98
531.982	14047.89
532.414	13848.14
532.846	13607.76
533.277	13387.43
533.709	12799.01
534.14	12760.91
534.572	12877.71
535.003	12616.12
535.435	12489.03
535.866	12036.06
536.297	12043.7
536.728	11770.99
537.159	11821.99
537.59	11395.79
538.022	11398.35
538.452	11418.78
538.883	11060.88
539.314	10927.78
539.745	10622.87
540.176	10633.12
540.606	10237.83
541.037	10366.26
541.468	10253.25
541.898	9983.27
542.328	9926.65
542.759	9651.02
543.189	9694.84
543.619	9705.15
544.05	9387.85
544.48	9152.71
544.91	9232.85
545.34	9046.66
545.77	9077.7
546.2	8805.83
546.63	8696.95
547.06	8536.07
547.489	8286.63
547.919	8328.23
548.349	8133.11
548.778	8073.22
549.208	8086.24
549.637	8054.99
550.067	7663.7
550.496	7645.42
550.926	7478.1
551.355	7506.87
551.784	7402.22
552.213	7273.89
552.642	7205.75
553.071	7211
553.5	6959.09
553.929	6769.82
554.358	7113.97
554.787	6743.51
555.216	6614.5
555.645	6556.54
556.073	6456.35
556.502	6440.52
556.93	6099.7
557.359	6009.7
557.787	6176.4
558.216	6041.47
558.644	5991.16
559.072	6009.7
559.5	5810.91
559.929	5773.76
560.357	5964.67
560.785	5856
561.213	5694.11
561.641	5723.32
562.068	5768.45
562.496	5412.23
562.924	5526.67
563.352	5606.44
563.779	5428.2
564.207	5340.3
564.634	5476.12
565.062	5249.66
565.489	5289.66
565.917	5265.66
566.344	5166.95
566.771	5198.98
567.198	5100.2
567.625	5041.42
568.053	5209.65
568.48	4915.73
568.907	4888.97
569.333	4784.53
569.76	4755.05
570.187	4690.7
570.614	4580.68
571.04	4744.33
571.467	4443.64
571.894	4397.92
572.32	4290.25
572.747	4201.33
573.173	4085.34
573.599	4117.73
574.026	4174.37
574.452	3915.14
574.878	3952.99
575.304	3752.74
575.73	3833.98
576.156	3750.03
576.582	3706.68
577.008	3503.16
577.434	3538.47
577.86	3459.69
578.285	3503.16
578.711	3383.55
579.137	3375.39
579.562	3217.45
579.988	3342.74
580.413	3113.82
580.838	3255.6
581.264	3179.29
581.689	3051.04
582.114	3162.93
582.539	3081.07
582.964	2960.87
583.39	3010.06
583.814	2656.88
584.239	2761.07
584.664	2741.89
585.089	2725.44
585.514	2684.31
585.939	2678.83
586.363	2615.72
586.788	2593.75
587.212	2645.91
587.637	2445.35
588.061	2464.61
588.485	2365.55
588.91	2536.07
589.334	2453.6
589.758	2379.31
590.182	2296.68
590.606	2456.35
591.03	2216.73
591.454	2197.42
591.878	2125.65
592.302	2238.79
592.726	2092.51
593.15	2150.5
593.573	2100.79
593.997	2197.42
594.42	2034.47
594.844	1915.5
595.267	1973.62
595.691	1970.86
596.114	1995.75
596.537	1937.65
596.96	1898.89
597.384	1984.69
597.807	1854.56
598.23	1896.12
598.653	1837.94
599.076	1746.43
599.499	1746.43
599.921	1812.99
600.344	1818.54
600.767	1671.47
601.189	1638.14
601.612	1704.8
602.034	1788.04
602.457	1663.14
602.879	1732.55
603.302	1621.47
603.724	1599.23
604.146	1568.65
604.568	1635.36
604.991	1602.01
605.413	1551.96
605.835	1674.25
606.257	1576.99
606.678	1571.43
607.1	1532.48
607.522	1546.39
607.944	1451.76
608.365	1507.44
608.787	1510.22
609.209	1490.74
609.63	1443.4
610.051	1390.46
610.473	1457.33
610.894	1485.17
611.315	1387.67
611.737	1351.43
612.158	1320.74
612.579	1460.11
613	1267.72
613.421	1384.88
613.842	1451.76
614.263	1384.88
614.683	1276.09
615.104	1242.59
615.525	1239.8
615.945	1284.47
616.366	1223.04
616.787	1273.3
617.207	1306.79
617.627	1301.21
618.048	1217.45
618.468	1175.53
618.888	1189.51
619.308	1183.92
619.728	1192.3
620.148	1144.78
620.568	1083.24
620.988	1153.17
621.408	1155.97
621.828	1086.04
622.248	1153.17
622.668	1088.84
623.087	1094.43
623.507	1141.99
623.926	1100.03
624.346	1100.03
624.765	1013.25
625.185	1055.25
625.604	960.01
626.023	979.62
626.442	990.83
626.861	1013.25
627.28	979.62
627.699	999.24
628.118	968.41
628.537	1058.05
628.956	940.38
629.375	934.77
629.794	923.56
630.212	884.29
630.631	934.77
631.049	875.87
631.468	856.22
631.886	889.9
632.305	830.96
632.723	889.9
633.141	766.35
633.559	873.06
633.978	906.73
634.396	901.12
634.814	816.92
635.232	844.99
635.65	797.26
636.067	780.4
636.485	833.76
636.903	898.31
637.321	867.45
637.738	788.83
638.156	814.11
638.573	833.76
638.991	788.83
639.408	721.37
639.825	710.13
640.243	797.26
640.66	771.97
641.077	822.53
641.494	822.53
641.911	755.11
642.328	743.87
642.745	645.41
643.162	771.97
643.579	766.35
643.995	710.13
644.412	682
644.829	718.56
645.245	628.52
645.662	698.88
646.078	743.87
646.495	701.69
646.911	665.12
647.327	738.24
647.743	710.13
648.159	710.13
648.576	679.18
648.992	653.86
649.408	628.52
649.824	648.23
650.239	710.13
650.655	617.26
651.071	682
651.487	608.81
651.902	690.44
652.318	682
652.733	710.13
653.149	634.15
653.564	766.35
653.979	651.04
654.395	527.1
654.81	648.23
655.225	594.73
655.64	659.49
656.055	608.81
656.47	558.11
656.885	667.93
657.3	653.86
657.715	662.3
658.13	563.74
658.544	651.04
658.959	583.47
659.374	597.55
659.788	676.37
660.202	586.28
660.617	563.74
661.031	591.92
661.445	608.81
661.86	575.01
662.274	586.28
662.688	636.97
663.102	628.52
663.516	636.97
663.93	591.92
664.344	518.65
664.758	532.74
665.171	591.92
665.585	510.19
665.999	684.81
666.412	575.01
666.826	589.1
667.239	589.1
667.653	504.55
668.066	620.08
668.479	597.55
668.892	538.38
669.306	504.55
669.719	552.47
670.132	513.01
670.545	507.37
670.958	507.37
671.37	614.45
671.783	490.45
672.196	617.26
672.609	558.11
673.021	450.95
673.434	628.52
673.846	617.26
674.259	507.37
674.671	600.37
675.084	569.38
675.496	546.83
675.908	563.74
676.32	490.45
676.732	549.65
677.144	544.02
677.556	566.56
677.968	507.37
678.38	594.73
678.792	450.95
679.204	532.74
679.615	527.1
680.027	541.2
680.439	529.92
680.85	535.56
681.262	572.2
681.673	563.74
682.084	501.73
682.496	507.37
682.907	487.62
683.318	529.92
683.729	479.16
684.14	431.19
684.551	569.38
684.962	544.02
685.373	575.01
685.784	465.06
686.194	532.74
686.605	538.38
687.016	504.55
687.426	490.45
687.837	465.06
688.247	532.74
688.657	541.2
689.068	541.2
689.478	498.91
689.888	419.9
690.298	527.1
690.708	496.09
691.118	575.01
691.528	572.2
691.938	465.06
692.348	456.59
692.758	490.45
693.168	428.37
693.577	422.72
693.987	414.25
694.396	487.62
694.806	493.27
695.215	484.8
695.625	481.98
696.034	467.88
696.443	515.83
696.852	445.3
697.262	456.59
697.671	434.01
698.08	386.01
698.489	529.92
698.897	465.06
699.306	470.7
699.715	487.62
700.124	487.62
700.532	529.92
700.941	442.48
701.35	535.56
701.758	431.19
702.166	465.06
702.575	496.09
702.983	487.62
703.391	419.9
703.799	465.06
704.208	527.1
704.616	411.43
705.024	397.31
705.432	493.27
705.839	487.62
706.247	383.19
706.655	498.91
707.063	414.25
707.47	434.01
707.878	504.55
708.285	535.56
708.693	419.9
709.1	473.52
709.508	448.13
709.915	450.95
710.322	470.7
710.729	487.62
711.136	462.23
711.543	321.02
711.95	417.08
712.357	450.95
712.764	442.48
713.171	366.24
713.578	436.84
713.984	417.08
714.391	473.52
714.797	391.66
715.204	431.19
715.61	388.84
716.017	467.88
716.423	388.84
716.829	513.01
717.236	374.71
717.642	448.13
718.048	414.25
718.454	419.9
718.86	397.31
719.266	357.76
719.671	524.28
720.077	405.78
720.483	487.62
720.889	397.31
721.294	450.95
721.7	436.84
722.105	411.43
722.511	425.55
722.916	453.77
723.321	467.88
723.726	383.19
724.132	352.11
724.537	321.02
724.942	408.61
725.347	470.7
725.752	507.37
726.156	380.36
726.561	431.19
726.966	465.06
727.371	394.49
727.775	422.72
728.18	405.78
728.584	470.7
728.989	431.19
729.393	422.72
729.798	391.66
730.202	450.95
730.606	434.01
731.01	414.25
731.414	380.36
731.818	388.84
732.222	383.19
732.626	391.66
733.03	439.66
733.434	417.08
733.837	498.91
734.241	434.01
734.645	434.01
735.048	411.43
735.452	400.13
735.855	419.9
736.258	436.84
736.662	470.7
737.065	510.19
737.468	414.25
737.871	436.84
738.274	422.72
738.677	439.66
739.08	386.01
739.483	405.78
739.886	360.59
740.289	425.55
740.691	383.19
741.094	346.46
741.497	462.23
741.899	388.84
742.302	439.66
742.704	422.72
743.106	411.43
743.508	388.84
743.911	436.84
744.313	360.59
744.715	380.36
745.117	397.31
745.519	397.31
745.921	394.49
746.323	450.95
746.724	417.08
747.126	414.25
747.528	380.36
747.929	479.16
748.331	411.43
748.732	462.23
749.134	388.84
749.535	428.37
749.936	391.66
750.338	380.36
750.739	366.24
751.14	301.23
751.541	400.13
751.942	462.23
752.343	400.13
752.744	408.61
753.144	456.59
753.545	340.81
753.946	388.84
754.346	329.5
754.747	414.25
755.148	284.26
755.548	397.31
755.948	402.96
756.349	380.36
756.749	366.24
757.149	408.61
757.549	493.27
757.949	428.37
758.349	411.43
758.749	459.41
759.149	386.01
759.549	445.3
759.949	383.19
760.348	386.01
760.748	456.59
761.148	442.48
761.547	414.25
761.947	422.72
762.346	391.66
762.745	504.55
763.145	369.06
763.544	366.24
763.943	402.96
764.342	337.98
764.741	417.08
765.14	479.16
765.539	380.36
765.938	354.94
766.336	450.95
766.735	411.43
767.134	470.7
767.532	462.23
767.931	419.9
768.329	383.19
768.728	436.84
769.126	473.52
769.525	383.19
769.923	419.9
770.321	411.43
770.719	439.66
771.117	467.88
771.515	394.49
771.913	408.61
772.311	419.9
772.709	405.78
773.106	391.66
773.504	490.45
773.902	465.06
774.299	470.7
774.697	445.3
775.094	332.33
775.491	465.06
775.889	442.48
776.286	326.68
776.683	357.76
777.08	481.98
777.477	402.96
777.874	397.31
778.271	371.89
778.668	332.33
779.065	400.13
779.462	326.68
779.858	448.13
780.255	411.43
780.652	419.9
781.048	357.76
781.444	394.49
781.841	388.84
782.237	391.66
782.633	442.48
783.03	439.66
783.426	462.23
783.822	448.13
784.218	400.13
784.614	448.13
785.01	434.01
785.405	434.01
785.801	366.24
786.197	470.7
786.593	434.01
786.988	448.13
787.384	476.34
787.779	402.96
788.174	371.89
788.57	374.71
788.965	371.89
789.36	442.48
789.755	462.23
790.15	400.13
790.545	470.7
790.94	394.49
791.335	476.34
791.73	388.84
792.125	414.25
792.52	467.88
792.914	400.13
793.309	380.36
793.703	374.71
794.098	518.65
794.492	386.01
794.887	397.31
795.281	360.59
795.675	374.71
796.069	479.16
796.463	465.06
796.857	481.98
797.251	371.89
797.645	357.76
798.039	442.48
798.433	386.01
798.826	377.54
799.22	411.43
799.614	292.75
800.007	436.84
800.401	476.34
800.794	414.25
801.187	459.41
801.581	371.89
801.974	360.59
802.367	369.06
802.76	434.01
803.153	467.88
803.546	417.08
803.939	417.08
804.332	371.89
804.725	493.27
805.117	386.01
805.51	445.3
805.903	388.84
806.295	388.84
806.688	309.71
807.08	397.31
807.472	431.19
807.865	369.06
808.257	408.61
808.649	397.31
809.041	448.13
809.433	391.66
809.825	473.52
810.217	453.77
810.609	470.7
811.001	371.89
811.392	354.94
811.784	434.01
812.175	369.06
812.567	343.63
812.958	422.72
813.35	470.7
813.741	340.81
814.132	321.02
814.524	408.61
814.915	323.85
815.306	371.89
815.697	448.13
816.088	380.36
816.479	408.61
816.87	484.8
817.26	394.49
817.651	518.65
818.042	434.01
818.432	419.9
818.823	388.84
819.213	462.23
819.604	484.8
819.994	402.96
820.384	295.57
820.775	414.25
821.165	428.37
821.555	371.89
821.945	371.89
822.335	391.66
822.725	383.19
823.114	422.72
823.504	422.72
823.894	467.88
824.284	434.01
824.673	394.49
825.063	431.19
825.452	448.13
825.842	391.66
826.231	431.19
826.62	400.13
827.009	397.31
827.399	434.01
827.788	354.94
828.177	397.31
828.566	419.9
828.954	374.71
829.343	425.55
829.732	459.41
830.121	374.71
830.509	504.55
830.898	448.13
831.286	417.08
831.675	400.13
832.063	397.31
832.452	332.33
832.84	371.89
833.228	434.01
833.616	414.25
834.004	386.01
834.392	459.41
834.78	439.66
835.168	363.41
835.556	377.54
835.944	357.76
836.331	462.23
836.719	349.29
837.107	391.66
837.494	391.66
837.881	445.3
838.269	434.01
838.656	394.49
839.043	473.52
839.431	428.37
839.818	453.77
840.205	397.31
840.592	467.88
840.979	343.63
841.366	377.54
841.752	414.25
842.139	374.71
842.526	363.41
842.912	431.19
843.299	346.46
843.685	450.95
844.072	397.31
844.458	391.66
844.844	352.11
845.231	309.71
845.617	304.06
846.003	448.13
846.389	366.24
846.775	419.9
847.161	414.25
847.547	434.01
847.933	377.54
848.318	397.31
848.704	408.61
849.09	343.63
849.475	402.96
849.861	414.25
850.246	340.81
850.631	380.36
851.017	335.15
851.402	377.54
851.787	456.59
852.172	431.19
852.557	439.66
852.942	394.49
853.327	352.11
853.712	414.25
854.097	380.36
854.481	377.54
854.866	417.08
855.25	386.01
855.635	405.78
856.019	405.78
856.404	459.41
856.788	479.16
857.172	402.96
857.557	405.78
857.941	309.71
858.325	445.3
858.709	289.92
859.093	371.89
859.477	360.59
859.86	425.55
860.244	408.61
860.628	388.84
861.012	377.54
861.395	445.3
861.779	371.89
862.162	414.25
862.545	301.23
862.929	391.66
863.312	369.06
863.695	377.54
864.078	434.01
864.461	383.19
864.844	434.01
865.227	388.84
865.61	346.46
865.993	369.06
866.376	428.37
866.758	431.19
867.141	436.84
867.523	343.63
867.906	366.24
868.288	518.65
868.671	386.01
869.053	321.02
869.435	397.31
869.817	414.25
870.199	321.02
870.581	352.11
870.963	453.77
871.345	380.36
871.727	304.06
872.109	453.77
872.491	419.9
872.872	425.55
873.254	405.78
873.635	450.95
874.017	414.25
874.398	386.01
874.779	479.16
875.161	366.24
875.542	462.23
875.923	456.59
876.304	391.66
876.685	402.96
877.066	346.46
877.447	428.37
877.828	453.77
878.208	434.01
878.589	450.95
878.97	315.37
879.35	400.13
879.731	453.77
880.111	408.61
880.491	428.37
880.872	456.59
881.252	391.66
881.632	386.01
882.012	476.34
882.392	394.49
882.772	465.06
883.152	366.24
883.532	306.89
883.912	408.61
884.291	360.59
884.671	408.61
885.051	357.76
885.43	306.89
885.81	448.13
886.189	422.72
886.568	408.61
886.948	371.89
887.327	374.71
887.706	394.49
888.085	431.19
888.464	340.81
888.843	411.43
889.222	323.85
889.601	400.13
889.979	408.61
890.358	335.15
890.737	402.96
891.115	405.78
891.494	369.06
891.872	453.77
892.25	439.66
892.629	411.43
893.007	439.66
893.385	411.43
893.763	453.77
894.141	411.43
894.519	408.61
894.897	337.98
895.275	346.46
895.653	402.96
896.03	408.61
896.408	431.19
896.786	360.59
897.163	422.72
897.541	411.43
897.918	414.25
898.295	391.66
898.673	405.78
899.05	442.48
899.427	476.34
899.804	371.89
900.181	388.84
900.558	417.08
900.935	352.11
901.312	453.77
901.688	332.33
902.065	481.98
902.442	400.13
902.818	380.36
903.195	374.71
903.571	431.19
903.947	377.54
904.324	442.48
904.7	388.84
905.076	414.25
905.452	380.36
905.828	402.96
906.204	481.98
906.58	419.9
906.956	411.43
907.331	354.94
907.707	422.72
908.083	405.78
908.458	369.06
908.834	352.11
909.209	431.19
909.585	448.13
909.96	411.43
910.335	400.13
910.71	481.98
911.086	386.01
911.461	343.63
911.836	391.66
912.21	442.48
912.585	394.49
912.96	301.23
913.335	397.31
913.709	388.84
914.084	442.48
914.459	383.19
914.833	354.94
915.207	408.61
915.582	363.41
915.956	391.66
916.33	377.54
916.704	419.9
917.078	402.96
917.452	386.01
917.826	405.78
918.2	357.76
918.574	402.96
918.948	304.06
919.321	470.7
919.695	360.59
920.068	473.52
920.442	326.68
920.815	366.24
921.189	371.89
921.562	326.68
921.935	400.13
922.308	411.43
922.681	306.89
923.054	529.92
923.427	383.19
923.8	419.9
924.173	465.06
924.546	402.96
924.919	337.98
925.291	383.19
925.664	414.25
926.036	397.31
926.409	417.08
926.781	411.43
927.153	349.29
927.526	394.49
927.898	402.96
928.27	371.89
928.642	436.84
929.014	388.84
929.386	450.95
929.758	371.89
930.129	383.19
930.501	377.54
930.873	408.61
931.244	388.84
931.616	434.01
931.987	292.75
932.359	306.89
932.73	346.46
933.101	386.01
933.472	329.5
933.843	304.06
934.214	386.01
934.585	326.68
934.956	352.11
935.327	431.19
935.698	405.78
936.069	329.5
936.439	371.89
936.81	414.25
937.18	329.5
937.551	417.08
937.921	402.96
938.292	422.72
938.662	377.54
939.032	374.71
939.402	343.63
939.772	383.19
940.142	352.11
940.512	459.41
940.882	374.71
941.252	363.41
941.621	428.37
941.991	402.96
942.361	473.52
942.73	431.19
943.1	386.01
943.469	417.08
943.838	394.49
944.208	337.98
944.577	397.31
944.946	255.97
945.315	326.68
945.684	349.29
946.053	292.75
946.422	369.06
946.791	411.43
947.159	332.33
947.528	360.59
947.897	456.59
948.265	371.89
948.634	386.01
949.002	329.5
949.371	371.89
949.739	357.76
950.107	411.43
950.475	431.19
950.843	487.62
951.211	411.43
951.579	394.49
951.947	374.71
952.315	363.41
952.683	352.11
953.05	346.46
953.418	473.52
953.785	374.71
954.153	391.66
954.52	402.96
954.888	377.54
955.255	354.94
955.622	436.84
955.989	428.37
956.356	411.43
956.723	487.62
957.09	402.96
957.457	371.89
957.824	366.24
958.191	425.55
958.557	397.31
958.924	388.84
959.291	496.09
959.657	352.11
960.023	360.59
960.39	369.06
960.756	340.81
961.122	400.13
961.488	352.11
961.855	349.29
962.221	326.68
962.586	436.84
962.952	402.96
963.318	419.9
963.684	394.49
964.05	366.24
964.415	428.37
964.781	422.72
965.146	346.46
965.512	434.01
965.877	481.98
966.242	428.37
966.608	442.48
966.973	450.95
967.338	380.36
967.703	439.66
968.068	411.43
968.433	459.41
968.797	394.49
969.162	422.72
969.527	321.02
969.891	386.01
970.256	343.63
970.62	388.84
970.985	323.85
971.349	431.19
971.714	380.36
972.078	431.19
972.442	340.81
972.806	411.43
973.17	419.9
973.534	343.63
973.898	431.19
974.262	323.85
974.625	346.46
974.989	346.46
975.353	481.98
975.716	386.01
976.08	298.4
976.443	417.08
976.806	394.49
977.17	360.59
977.533	318.19
977.896	340.81
978.259	405.78
978.622	371.89
978.985	388.84
979.348	425.55
979.711	329.5
980.073	321.02
980.436	371.89
980.799	431.19
981.161	439.66
981.524	425.55
981.886	436.84
982.248	411.43
982.611	374.71
982.973	411.43
983.335	439.66
983.697	524.28
984.059	352.11
984.421	402.96
984.783	374.71
985.145	354.94
985.506	408.61
985.868	408.61
986.23	371.89
986.591	306.89
986.953	470.7
987.314	425.55
987.675	295.57
988.037	586.28
988.398	470.7
988.759	326.68
989.12	377.54
989.481	369.06
989.842	422.72
990.203	388.84
990.564	343.63
990.924	386.01
991.285	524.28
991.646	335.15
992.006	380.36
992.367	335.15
992.727	425.55
993.087	391.66
993.448	377.54
993.808	360.59
994.168	456.59
994.528	349.29
994.888	434.01
995.248	323.85
995.608	349.29
995.967	323.85
996.327	394.49
996.687	397.31
997.046	400.13
997.406	383.19
997.765	321.02
998.125	417.08
998.484	397.31
998.843	346.46
999.202	417.08
999.561	352.11
999.92	366.24
1000.279	340.81
1000.638	462.23
1000.997	462.23
1001.356	476.34
1001.715	380.36
1002.073	318.19
1002.432	377.54
1002.79	411.43
1003.149	442.48
1003.507	417.08
1003.865	363.41
1004.224	414.25
1004.582	476.34
1004.94	386.01
1005.298	439.66
1005.656	402.96
1006.014	479.16
1006.371	431.19
1006.729	419.9
1007.087	405.78
1007.445	394.49
1007.802	352.11
1008.16	329.5
1008.517	453.77
1008.874	366.24
1009.232	405.78
1009.589	357.76
1009.946	408.61
1010.303	493.27
1010.66	419.9
1011.017	337.98
1011.374	434.01
1011.731	369.06
1012.087	501.73
1012.444	340.81
1012.801	473.52
1013.157	391.66
1013.513	298.4
1013.87	369.06
1014.226	363.41
1014.582	400.13
1014.939	332.33
1015.295	397.31
1015.651	371.89
1016.007	431.19
1016.363	397.31
1016.719	436.84
1017.074	261.63
1017.43	411.43
1017.786	380.36
1018.141	391.66
1018.497	422.72
1018.852	431.19
1019.208	318.19
1019.563	388.84
1019.918	366.24
1020.273	527.1
1020.628	369.06
1020.983	498.91
1021.338	459.41
1021.693	459.41
1022.048	366.24
1022.403	394.49
1022.757	431.19
1023.112	405.78
1023.467	377.54
1023.821	391.66
1024.175	428.37
1024.53	346.46
1024.884	383.19
1025.238	459.41
1025.592	360.59
1025.946	456.59
1026.3	394.49
1026.654	434.01
1027.008	445.3
1027.362	428.37
1027.716	357.76
1028.069	298.4
1028.423	363.41
1028.777	459.41
1029.13	394.49
1029.483	394.49
1029.837	425.55
1030.19	369.06
1030.543	332.33
1030.896	321.02
1031.249	354.94
1031.602	264.46
1031.955	371.89
1032.308	386.01
1032.661	369.06
1033.013	425.55
1033.366	357.76
1033.719	400.13
1034.071	335.15
1034.424	354.94
1034.776	360.59
1035.128	417.08
1035.48	442.48
1035.833	405.78
1036.185	419.9
1036.537	419.9
1036.889	419.9
