Data from SCSF78-3-370-irrad_FLMS019251_11-15-00-743.txt Node
Date: Fri Feb 15 11:15:00 CET 2019
User: luk
Spectrometer: FLMS01925
Trigger mode: 0
Integration Time (sec): 1.399000E-2
Scans to average: 1
Electric dark correction enabled: true
Nonlinearity correction enabled: true
Boxcar width: 0
XAxis mode: Wavelengths
Number of Pixels in Spectrum: 2048
>>>>>Begin Spectral Data<<<<<
187.103	-0.35
187.574	-0.35
188.045	-0.35
188.516	-74.21
188.987	-133.92
189.458	-114.01
189.929	-45.8
190.4	-131.08
190.871	-37.27
191.342	-145.3
191.813	-62.84
192.284	-17.39
192.754	-116.86
193.225	33.71
193.696	19.52
194.166	30.87
194.637	42.22
195.107	90.44
195.578	135.8
196.048	158.47
196.518	158.47
196.989	141.47
197.459	220.77
197.929	226.44
198.399	266.05
198.869	333.92
199.339	217.94
199.809	291.51
200.279	379.13
200.749	302.82
201.219	348.05
201.689	387.6
202.159	328.27
202.628	410.19
203.098	322.61
203.568	356.53
204.037	387.6
204.507	384.78
204.976	449.71
205.445	472.29
205.915	348.05
206.384	359.35
206.853	441.25
207.323	458.18
207.792	379.13
208.261	373.48
208.73	407.37
209.199	384.78
209.668	410.19
210.137	365
210.606	452.53
211.075	413.02
211.543	328.27
212.012	381.95
212.481	404.55
212.95	401.72
213.418	381.95
213.887	401.72
214.355	362.18
214.824	413.02
215.292	365
215.76	356.53
216.229	381.95
216.697	429.96
217.165	381.95
217.633	331.09
218.101	297.17
218.569	260.39
219.037	435.6
219.505	299.99
219.973	342.4
220.441	365
220.909	396.07
221.377	325.44
221.844	331.09
222.312	370.65
222.78	376.3
223.247	458.18
223.715	384.78
224.182	297.17
224.65	379.13
225.117	331.09
225.584	302.82
226.052	311.3
226.519	353.7
226.986	297.17
227.453	398.9
227.92	299.99
228.387	398.9
228.854	393.25
229.321	415.84
229.788	359.35
230.255	319.78
230.722	325.44
231.189	435.6
231.655	435.6
232.122	305.65
232.589	348.05
233.055	311.3
233.522	370.65
233.988	348.05
234.454	328.27
234.921	316.96
235.387	376.3
235.853	367.83
236.32	373.48
236.786	373.48
237.252	311.3
237.718	234.93
238.184	404.55
238.65	339.57
239.116	390.43
239.582	365
240.047	311.3
240.513	379.13
240.979	316.96
241.445	353.7
241.91	325.44
242.376	427.13
242.841	376.3
243.307	339.57
243.772	449.71
244.238	305.65
244.703	379.13
245.168	280.2
245.633	390.43
246.099	390.43
246.564	328.27
247.029	466.64
247.494	328.27
247.959	404.55
248.424	415.84
248.889	345.22
249.353	342.4
249.818	299.99
250.283	333.92
250.748	362.18
251.212	387.6
251.677	359.35
252.141	342.4
252.606	291.51
253.07	339.57
253.535	461
253.999	396.07
254.463	398.9
254.927	333.92
255.392	316.96
255.856	345.22
256.32	316.96
256.784	427.13
257.248	415.84
257.712	299.99
258.176	415.84
258.64	413.02
259.103	322.61
259.567	424.31
260.031	398.9
260.495	418.66
260.958	421.49
261.422	348.05
261.885	342.4
262.349	387.6
262.812	379.13
263.275	427.13
263.739	356.53
264.202	359.35
264.665	421.49
265.128	410.19
265.591	418.66
266.054	393.25
266.517	390.43
266.98	472.29
267.443	410.19
267.906	480.75
268.369	441.25
268.832	376.3
269.294	328.27
269.757	432.78
270.22	404.55
270.682	379.13
271.145	404.55
271.607	390.43
272.07	432.78
272.532	350.87
272.994	387.6
273.456	379.13
273.919	348.05
274.381	342.4
274.843	390.43
275.305	415.84
275.767	404.55
276.229	390.43
276.691	314.13
277.153	348.05
277.614	401.72
278.076	452.53
278.538	404.55
279	362.18
279.461	379.13
279.923	342.4
280.384	413.02
280.846	356.53
281.307	322.61
281.769	353.7
282.23	336.74
282.691	359.35
283.152	393.25
283.613	393.25
284.075	393.25
284.536	350.87
284.997	475.11
285.458	407.37
285.918	367.83
286.379	396.07
286.84	418.66
287.301	350.87
287.762	328.27
288.222	314.13
288.683	463.82
289.143	401.72
289.604	333.92
290.064	322.61
290.525	379.13
290.985	384.78
291.445	438.42
291.906	359.35
292.366	421.49
292.826	398.9
293.286	413.02
293.746	316.96
294.206	384.78
294.666	438.42
295.126	494.85
295.586	438.42
296.046	299.99
296.506	350.87
296.965	429.96
297.425	345.22
297.884	384.78
298.344	348.05
298.804	407.37
299.263	446.89
299.722	387.6
300.182	424.31
300.641	350.87
301.1	401.72
301.559	432.78
302.019	444.07
302.478	432.78
302.937	333.92
303.396	444.07
303.855	365
304.314	410.19
304.772	398.9
305.231	359.35
305.69	348.05
306.149	308.48
306.607	348.05
307.066	359.35
307.524	452.53
307.983	418.66
308.441	393.25
308.9	424.31
309.358	413.02
309.816	480.75
310.275	401.72
310.733	311.3
311.191	325.44
311.649	336.74
312.107	387.6
312.565	336.74
313.023	427.13
313.481	328.27
313.939	350.87
314.397	461
314.854	418.66
315.312	492.03
315.77	458.18
316.227	350.87
316.685	384.78
317.142	373.48
317.6	421.49
318.057	483.57
318.514	429.96
318.972	446.89
319.429	424.31
319.886	387.6
320.343	429.96
320.8	407.37
321.257	421.49
321.714	365
322.171	438.42
322.628	418.66
323.085	452.53
323.542	365
323.998	461
324.455	373.48
324.912	384.78
325.368	356.53
325.825	342.4
326.281	486.39
326.738	356.53
327.194	379.13
327.65	365
328.107	404.55
328.563	452.53
329.019	348.05
329.475	353.7
329.931	376.3
330.387	379.13
330.843	311.3
331.299	418.66
331.755	353.7
332.211	348.05
332.666	432.78
333.122	444.07
333.578	367.83
334.033	483.57
334.489	452.53
334.944	444.07
335.4	444.07
335.855	466.64
336.31	441.25
336.766	418.66
337.221	393.25
337.676	421.49
338.131	365
338.586	469.46
339.041	401.72
339.496	469.46
339.951	455.36
340.406	365
340.861	370.65
341.316	353.7
341.771	348.05
342.225	398.9
342.68	466.64
343.134	384.78
343.589	432.78
344.043	390.43
344.498	477.93
344.952	280.2
345.406	367.83
345.861	319.78
346.315	398.9
346.769	455.36
347.223	333.92
347.677	432.78
348.131	365
348.585	331.09
349.039	381.95
349.493	393.25
349.947	370.65
350.401	472.29
350.854	398.9
351.308	452.53
351.762	333.92
352.215	311.3
352.669	429.96
353.122	370.65
353.575	418.66
354.029	427.13
354.482	319.78
354.935	356.53
355.388	350.87
355.842	373.48
356.295	446.89
356.748	404.55
357.201	393.25
357.654	384.78
358.106	452.53
358.559	415.84
359.012	446.89
359.465	458.18
359.917	401.72
360.37	429.96
360.823	379.13
361.275	381.95
361.728	285.85
362.18	291.51
362.632	384.78
363.085	466.64
363.537	424.31
363.989	404.55
364.441	401.72
364.893	299.99
365.345	404.55
365.797	376.3
366.249	407.37
366.701	370.65
367.153	483.57
367.605	322.61
368.057	404.55
368.508	452.53
368.96	458.18
369.411	413.02
369.863	421.49
370.314	446.89
370.766	441.25
371.217	455.36
371.669	466.64
372.12	421.49
372.571	336.74
373.022	384.78
373.473	421.49
373.924	427.13
374.375	517.41
374.826	407.37
375.277	350.87
375.728	438.42
376.179	390.43
376.63	407.37
377.08	401.72
377.531	446.89
377.981	508.95
378.432	359.35
378.883	441.25
379.333	331.09
379.783	308.48
380.234	441.25
380.684	413.02
381.134	441.25
381.584	404.55
382.034	387.6
382.485	480.75
382.935	376.3
383.385	441.25
383.834	418.66
384.284	415.84
384.734	432.78
385.184	415.84
385.634	384.78
386.083	446.89
386.533	429.96
386.982	444.07
387.432	384.78
387.881	384.78
388.331	398.9
388.78	458.18
389.229	387.6
389.679	379.13
390.128	475.11
390.577	348.05
391.026	342.4
391.475	449.71
391.924	528.69
392.373	480.75
392.822	446.89
393.27	455.36
393.719	356.53
394.168	322.61
394.617	477.93
395.065	393.25
395.514	427.13
395.962	404.55
396.411	449.71
396.859	477.93
397.307	503.31
397.756	429.96
398.204	452.53
398.652	480.75
399.1	489.21
399.548	472.29
399.996	458.18
400.444	413.02
400.892	472.29
401.34	461
401.788	384.78
402.236	461
402.683	398.9
403.131	480.75
403.579	362.18
404.026	373.48
404.474	452.53
404.921	444.07
405.369	511.77
405.816	469.46
406.263	441.25
406.71	401.72
407.158	523.05
407.605	404.55
408.052	455.36
408.499	407.37
408.946	387.6
409.393	506.13
409.84	429.96
410.286	483.57
410.733	452.53
411.18	477.93
411.626	503.31
412.073	520.23
412.52	537.15
412.966	537.15
413.413	596.32
413.859	511.77
414.305	492.03
414.752	613.21
415.198	590.68
415.644	627.29
416.09	613.21
416.536	776.36
416.982	888.67
417.428	1034.43
417.874	1280.46
418.32	1664.7
418.766	2077.48
419.211	2463.4
419.657	3257.13
420.103	3892.32
420.548	4692.21
420.994	5955.56
421.439	6810.76
421.885	8022.58
422.33	9544.15
422.776	10883.13
423.221	12442.15
423.666	13993.7
424.111	15831.08
424.556	17080.44
425.001	18934.17
425.446	20923.21
425.891	22656
426.336	24140.86
426.781	25908.38
427.226	28144.8
427.671	29361.68
428.115	30830.76
428.56	32944.75
429.005	35032.8
429.449	35384.38
429.894	36887.72
430.338	38380.14
430.782	38448.87
431.227	40659.44
431.671	41351.63
432.115	42649.08
432.559	44624.82
433.003	44840.77
433.447	45487.69
433.891	46225.76
434.335	46573.29
434.779	47536.77
435.223	48083.01
435.667	48675.92
436.111	49757.62
436.554	49514.66
436.998	49475.53
437.442	49820.44
437.885	51657.72
438.328	50644.31
438.772	50639.01
439.215	51550.28
439.659	51405.54
440.102	52124.67
440.545	51703.44
440.988	51496.63
441.431	52412.71
441.874	52415.44
442.317	52751.68
442.76	52157.2
443.203	51859.69
443.646	52759.91
444.089	52054.25
444.531	52677.69
444.974	51445.71
445.417	53029.48
445.859	51759.96
446.302	53322.77
446.744	52592.86
447.186	53957.36
447.629	53037.76
448.071	52628.41
448.513	53051.55
448.956	54444.66
449.398	53548.16
449.84	52040.71
450.282	52853.27
450.724	53181.43
451.166	52993.64
451.607	52985.37
452.049	53422.81
452.491	54359.23
452.933	53948.91
453.374	54739.39
453.816	54759.51
454.257	54618.93
454.699	55901.55
455.14	55056.75
455.582	54840.07
456.023	54768.13
456.464	54831.43
456.905	56176.05
457.347	55765.18
457.788	54848.71
458.229	54419.01
458.67	56480.22
459.111	54010.9
459.552	54053.22
459.992	54180.44
460.433	53710.25
460.874	52252.2
461.315	54194.6
461.755	52426.34
462.196	52124.67
462.636	50874.96
463.077	50928.09
463.517	50890.89
463.957	51146.37
464.398	50440.79
464.838	50930.75
465.278	50085.32
465.718	49846.63
466.158	48831.16
466.598	49009.99
467.038	49028.15
467.478	49194.36
467.918	49433.82
468.358	48508.02
468.798	47954.55
469.237	47972.53
469.677	48322.35
470.117	48523.5
470.556	46177.63
470.996	46456.51
471.435	47138.28
471.874	47782.64
472.314	47207.16
472.753	46278.98
473.192	46448.9
473.631	46230.83
474.07	46043.45
474.509	46405.77
474.948	46355.04
475.387	45815.86
475.826	44745.32
476.265	46824.95
476.704	46352.5
477.143	46886.03
477.581	46157.37
478.02	47097.48
478.458	45386.84
478.897	45868.93
479.335	47610.99
479.774	46573.29
480.212	46743.56
480.65	46393.08
481.089	46479.35
481.527	46018.14
481.965	45954.9
482.403	47718.57
482.841	47250.55
483.279	47467.71
483.717	47500.96
484.155	47454.92
484.592	46949.69
485.03	47810.85
485.468	46291.66
485.905	46436.21
486.343	47151.03
486.781	46349.97
487.218	45803.22
487.655	45439.78
488.093	44903.6
488.53	46048.51
488.967	45394.4
489.405	45379.28
489.842	44018.41
490.279	44456.74
490.716	43873.34
491.153	44216.17
491.59	43688.4
492.027	42330.95
492.463	42010.74
492.9	41742.94
493.337	41064.68
493.773	41621.53
494.21	40555.74
494.647	40560.68
495.083	39372.87
495.519	39513.13
495.956	39355.65
496.392	38286.88
496.828	38313.88
497.265	36890.17
497.701	37546.4
498.137	37090.87
498.573	36080.66
499.009	36479.17
499.445	36039.11
499.881	35257.41
500.316	35352.64
500.752	34144.56
501.188	34027.48
501.624	34315.33
502.059	32705.82
502.495	32586.35
502.93	32866.73
503.366	32652.18
503.801	32162.14
504.236	31811.05
504.672	31003.93
505.107	31135.62
505.542	30028.1
505.977	30489.26
506.412	29576.55
506.847	29964.65
507.282	29151.66
507.717	29022.2
508.152	29036.86
508.587	28570.18
509.021	28193.71
509.456	27442.63
509.891	27711.84
510.325	27719.18
510.76	27356.95
511.194	26766.67
511.628	26823.03
512.063	26178.26
512.497	26381.82
512.931	25724.28
513.366	25537.67
513.8	25574.51
514.234	24756.14
514.668	24871.72
515.102	24837.29
515.536	24113.77
515.969	24103.92
516.403	23677.66
516.837	23534.66
517.271	23399.03
517.704	22922.74
518.138	22957.31
518.571	22614
519.005	22092.36
519.438	22361.91
519.871	21958.76
520.305	21515.61
520.738	21126.55
521.171	20868.64
521.604	21198.44
522.037	20339.92
522.47	20555.95
522.903	19922.43
523.336	19837.88
523.769	19546.82
524.202	19026.37
524.634	19173.36
525.067	18792.08
525.5	18724.75
525.932	18263.15
526.365	18273.14
526.797	17741.01
527.23	17701.01
527.662	17170.58
528.094	17100.47
528.527	17295.75
528.959	16661.96
529.391	16536.58
529.823	15959.23
530.255	16240.49
530.687	15730.53
531.119	15307.91
531.551	15214.76
531.982	14799.04
532.414	14788.95
532.846	14486.25
533.277	14223.66
533.709	14208.5
534.14	13862.21
534.572	13745.85
535.003	13695.24
535.435	13092.27
535.866	13094.81
536.297	13069.45
536.728	12772.5
537.159	12701.39
537.59	12495.54
538.022	12470.12
538.452	12314.97
538.883	11831.07
539.314	11749.48
539.745	11680.6
540.176	11233.68
540.606	11085.34
541.037	11077.67
541.468	11000.9
541.898	10724.29
542.328	10762.73
542.759	10565.32
543.189	10447.29
543.619	10198.16
544.05	10079.9
544.48	9868.89
544.91	9866.31
545.34	9611.21
545.77	9719.48
546.2	9345.4
546.63	9094.68
547.06	9107.61
547.489	9037.76
547.919	8750.26
548.349	9006.71
548.778	8908.32
549.208	8669.88
549.637	8537.53
550.067	8334.89
550.496	8386.88
550.926	8217.86
551.355	8160.61
551.784	7879.21
552.213	7881.82
552.642	7605.08
553.071	7625.98
553.5	7393.22
553.929	7277.99
554.358	7492.65
554.787	7306.81
555.216	7296.33
555.645	7055.09
556.073	6881.74
556.502	6936.92
556.93	6737.1
557.359	6821.27
557.787	6663.39
558.216	6613.35
558.644	6473.65
559.072	6315.3
559.5	6262.47
559.929	6442
560.357	6273.04
560.785	6050.9
561.213	6135.58
561.641	6008.54
562.068	5849.53
562.496	5817.7
562.924	5891.96
563.352	5865.44
563.779	5934.36
564.207	5796.48
564.634	5700.92
565.062	5844.23
565.489	5692.95
565.917	5568.06
566.344	5536.14
566.771	5584.01
567.198	5666.39
567.625	5429.7
568.053	5421.71
568.48	5058.96
568.907	5227.16
569.333	5144.43
569.76	4877.09
570.187	5091.02
570.614	4952.02
571.04	5144.43
571.467	4694.89
571.894	4780.68
572.32	4694.89
572.747	4614.4
573.173	4394.05
573.599	4544.59
574.026	4280.99
574.452	4140.83
574.878	4154.31
575.304	4140.83
575.73	4016.66
576.156	3970.73
576.582	4035.56
577.008	3811.14
577.434	3813.84
577.86	3616
578.285	3648.55
578.711	3572.58
579.137	3561.72
579.562	3504.69
579.988	3442.19
580.413	3311.6
580.838	3224.44
581.264	3257.13
581.689	3311.6
582.114	3142.64
582.539	3224.44
582.964	3049.84
583.39	3180.82
583.814	2858.47
584.239	2959.67
584.664	2929.6
585.089	2869.41
585.514	2962.41
585.939	2790.01
586.363	2699.57
586.788	2726.99
587.212	2587.06
587.637	2666.66
588.061	2526.63
588.485	2633.73
588.91	2466.15
589.334	2534.87
589.758	2534.87
590.182	2389.12
590.606	2380.86
591.03	2369.85
591.454	2254.13
591.878	2270.67
592.302	2336.8
592.726	2221.04
593.15	2320.27
593.573	2245.86
593.997	2182.41
594.42	2171.37
594.844	2168.61
595.267	2085.77
595.691	2011.14
596.114	1989.01
596.537	1966.88
596.96	1828.41
597.384	2069.19
597.807	1958.58
598.23	1869.98
598.653	1897.68
599.076	2016.67
599.499	1872.75
599.921	1861.67
600.344	1861.67
600.767	1908.75
601.189	1772.95
601.612	1828.41
602.034	1817.32
602.457	1822.87
602.879	1781.28
603.302	1734.11
603.724	1711.91
604.146	1839.5
604.568	1698.03
604.991	1589.67
605.413	1720.24
605.835	1747.99
606.257	1567.43
606.678	1631.37
607.1	1686.92
607.522	1692.47
607.944	1611.91
608.365	1536.83
608.787	1603.57
609.209	1509.01
609.63	1461.68
610.051	1609.13
610.473	1539.61
610.894	1472.82
611.315	1397.6
611.737	1467.25
612.158	1425.47
612.579	1534.05
613	1372.51
613.421	1425.47
613.842	1458.89
614.263	1405.96
614.683	1397.6
615.104	1422.68
615.525	1272.08
615.945	1383.67
616.366	1355.78
616.787	1419.9
617.207	1235.78
617.627	1232.99
618.048	1361.36
618.468	1235.78
618.888	1269.29
619.308	1344.63
619.728	1163.13
620.148	1272.08
620.568	1238.57
620.988	1076.42
621.408	1123.98
621.828	1068.02
622.248	1121.18
622.668	1014.82
623.087	1096.01
623.507	1048.43
623.926	1020.42
624.346	1062.42
624.765	1093.21
625.185	984
625.604	1104.4
626.023	1107.2
626.442	1023.22
626.861	1003.62
627.28	972.79
627.699	958.78
628.118	939.16
628.537	1031.62
628.956	919.53
629.375	1056.82
629.794	840.96
630.212	978.4
630.631	911.11
631.049	888.67
631.468	869.03
631.886	798.84
632.305	874.64
632.723	930.74
633.141	885.86
633.559	880.25
633.978	913.92
634.396	866.22
634.814	804.45
635.232	781.98
635.65	852.19
636.067	790.41
636.485	835.34
636.903	888.67
637.321	871.83
637.738	810.07
638.156	728.58
638.573	762.31
638.991	779.17
639.408	793.22
639.825	779.17
640.243	793.22
640.66	742.64
641.077	779.17
641.494	703.27
641.911	818.5
642.328	737.01
642.745	728.58
643.162	751.07
643.579	770.74
643.995	725.77
644.412	703.27
644.829	692.02
645.245	669.51
645.662	737.01
646.078	725.77
646.495	725.77
646.911	686.39
647.327	624.48
647.743	652.63
648.159	641.37
648.576	652.63
648.992	739.82
649.408	635.74
649.824	627.29
650.239	689.21
650.655	565.33
651.071	725.77
651.487	624.48
651.902	585.05
652.318	655.44
652.733	644.18
653.149	753.88
653.564	562.51
653.979	666.7
654.395	565.33
654.81	666.7
655.225	644.18
655.64	599.13
656.055	627.29
656.47	632.92
656.885	627.29
657.3	587.87
657.715	616.03
658.13	568.15
658.544	616.03
658.959	534.33
659.374	582.23
659.788	601.95
660.202	551.24
660.617	511.77
661.031	562.51
661.445	579.42
661.86	601.95
662.274	655.44
662.688	539.96
663.102	644.18
663.516	652.63
663.93	641.37
664.344	542.78
664.758	554.06
665.171	649.81
665.585	576.6
665.999	548.42
666.412	627.29
666.826	627.29
667.239	562.51
667.653	570.96
668.066	573.78
668.479	506.13
668.892	506.13
669.306	548.42
669.719	517.41
670.132	458.18
670.545	503.31
670.958	463.82
671.37	483.57
671.783	492.03
672.196	511.77
672.609	539.96
673.021	542.78
673.434	531.51
673.846	483.57
674.259	534.33
674.671	407.37
675.084	446.89
675.496	554.06
675.908	525.87
676.32	568.15
676.732	497.67
677.144	568.15
677.556	475.11
677.968	545.6
678.38	511.77
678.792	497.67
679.204	534.33
679.615	520.23
680.027	404.55
680.439	534.33
680.85	362.18
681.262	410.19
681.673	475.11
682.084	480.75
682.496	466.64
682.907	610.4
683.318	376.3
683.729	576.6
684.14	568.15
684.551	545.6
684.962	446.89
685.373	585.05
685.784	475.11
686.194	539.96
686.605	500.49
687.016	489.21
687.426	531.51
687.837	508.95
688.247	463.82
688.657	477.93
689.068	381.95
689.478	441.25
689.888	441.25
690.298	446.89
690.708	477.93
691.118	458.18
691.528	418.66
691.938	475.11
692.348	438.42
692.758	500.49
693.168	489.21
693.577	452.53
693.987	469.46
694.396	345.22
694.806	477.93
695.215	489.21
695.625	435.6
696.034	500.49
696.443	472.29
696.852	455.36
697.262	455.36
697.671	444.07
698.08	494.85
698.489	497.67
698.897	455.36
699.306	410.19
699.715	455.36
700.124	413.02
700.532	492.03
700.941	432.78
701.35	500.49
701.758	331.09
702.166	477.93
702.575	404.55
702.983	472.29
703.391	404.55
703.799	410.19
704.208	427.13
704.616	429.96
705.024	475.11
705.432	424.31
705.839	404.55
706.247	418.66
706.655	390.43
707.063	413.02
707.47	398.9
707.878	452.53
708.285	446.89
708.693	387.6
709.1	438.42
709.508	404.55
709.915	463.82
710.322	336.74
710.729	381.95
711.136	452.53
711.543	446.89
711.95	458.18
712.357	390.43
712.764	435.6
713.171	542.78
713.578	461
713.984	421.49
714.391	353.7
714.797	461
715.204	429.96
715.61	396.07
716.017	466.64
716.423	477.93
716.829	401.72
717.236	407.37
717.642	373.48
718.048	359.35
718.454	365
718.86	477.93
719.266	362.18
719.671	384.78
720.077	429.96
720.483	398.9
720.889	387.6
721.294	435.6
721.7	396.07
722.105	333.92
722.511	444.07
722.916	291.51
723.321	432.78
723.726	362.18
724.132	444.07
724.537	432.78
724.942	469.46
725.347	376.3
725.752	413.02
726.156	365
726.561	556.87
726.966	376.3
727.371	353.7
727.775	365
728.18	381.95
728.584	477.93
728.989	331.09
729.393	489.21
729.798	489.21
730.202	367.83
730.606	477.93
731.01	427.13
731.414	314.13
731.818	359.35
732.222	393.25
732.626	444.07
733.03	401.72
733.434	396.07
733.837	379.13
734.241	384.78
734.645	449.71
735.048	381.95
735.452	362.18
735.855	393.25
736.258	407.37
736.662	362.18
737.065	413.02
737.468	475.11
737.871	497.67
738.274	458.18
738.677	441.25
739.08	359.35
739.483	384.78
739.886	458.18
740.289	523.05
740.691	537.15
741.094	384.78
741.497	379.13
741.899	387.6
742.302	381.95
742.704	415.84
743.106	379.13
743.508	359.35
743.911	274.54
744.313	441.25
744.715	373.48
745.117	415.84
745.519	418.66
745.921	466.64
746.323	475.11
746.724	452.53
747.126	384.78
747.528	362.18
747.929	449.71
748.331	424.31
748.732	458.18
749.134	492.03
749.535	367.83
749.936	322.61
750.338	404.55
750.739	381.95
751.14	381.95
751.541	398.9
751.942	404.55
752.343	463.82
752.744	424.31
753.144	469.46
753.545	427.13
753.946	435.6
754.346	441.25
754.747	410.19
755.148	404.55
755.548	384.78
755.948	455.36
756.349	373.48
756.749	359.35
757.149	458.18
757.549	390.43
757.949	398.9
758.349	396.07
758.749	328.27
759.149	387.6
759.549	387.6
759.949	410.19
760.348	424.31
760.748	384.78
761.148	370.65
761.547	393.25
761.947	387.6
762.346	370.65
762.745	328.27
763.145	492.03
763.544	469.46
763.943	477.93
764.342	407.37
764.741	452.53
765.14	393.25
765.539	404.55
765.938	472.29
766.336	446.89
766.735	345.22
767.134	356.53
767.532	435.6
767.931	362.18
768.329	398.9
768.728	297.17
769.126	449.71
769.525	410.19
769.923	379.13
770.321	444.07
770.719	376.3
771.117	305.65
771.515	404.55
771.913	370.65
772.311	410.19
772.709	319.78
773.106	413.02
773.504	401.72
773.902	401.72
774.299	370.65
774.697	404.55
775.094	387.6
775.491	353.7
775.889	444.07
776.286	362.18
776.683	367.83
777.08	393.25
777.477	348.05
777.874	404.55
778.271	350.87
778.668	393.25
779.065	379.13
779.462	429.96
779.858	424.31
780.255	333.92
780.652	446.89
781.048	274.54
781.444	390.43
781.841	444.07
782.237	314.13
782.633	325.44
783.03	365
783.426	398.9
783.822	381.95
784.218	367.83
784.614	413.02
785.01	387.6
785.405	325.44
785.801	390.43
786.197	438.42
786.593	376.3
786.988	404.55
787.384	407.37
787.779	387.6
788.174	396.07
788.57	240.59
788.965	362.18
789.36	356.53
789.755	404.55
790.15	384.78
790.545	472.29
790.94	424.31
791.335	398.9
791.73	316.96
792.125	367.83
792.52	407.37
792.914	348.05
793.309	336.74
793.703	424.31
794.098	398.9
794.492	452.53
794.887	401.72
795.281	390.43
795.675	319.78
796.069	438.42
796.463	350.87
796.857	336.74
797.251	421.49
797.645	421.49
798.039	333.92
798.433	390.43
798.826	350.87
799.22	387.6
799.614	421.49
800.007	398.9
800.401	415.84
800.794	373.48
801.187	421.49
801.581	370.65
801.974	376.3
802.367	458.18
802.76	379.13
803.153	415.84
803.546	339.57
803.939	359.35
804.332	376.3
804.725	376.3
805.117	458.18
805.51	367.83
805.903	322.61
806.295	376.3
806.688	432.78
807.08	336.74
807.472	297.17
807.865	404.55
808.257	336.74
808.649	432.78
809.041	390.43
809.433	387.6
809.825	486.39
810.217	429.96
810.609	365
811.001	427.13
811.392	387.6
811.784	435.6
812.175	333.92
812.567	398.9
812.958	401.72
813.35	353.7
813.741	421.49
814.132	336.74
814.524	359.35
814.915	415.84
815.306	381.95
815.697	376.3
816.088	396.07
816.479	299.99
816.87	362.18
817.26	407.37
817.651	376.3
818.042	367.83
818.432	421.49
818.823	345.22
819.213	373.48
819.604	404.55
819.994	387.6
820.384	449.71
820.775	398.9
821.165	384.78
821.555	350.87
821.945	483.57
822.335	396.07
822.725	432.78
823.114	367.83
823.504	390.43
823.894	384.78
824.284	413.02
824.673	381.95
825.063	432.78
825.452	342.4
825.842	339.57
826.231	359.35
826.62	333.92
827.009	398.9
827.399	393.25
827.788	367.83
828.177	446.89
828.566	336.74
828.954	359.35
829.343	435.6
829.732	398.9
830.121	280.2
830.509	367.83
830.898	396.07
831.286	387.6
831.675	353.7
832.063	435.6
832.452	410.19
832.84	373.48
833.228	466.64
833.616	376.3
834.004	404.55
834.392	348.05
834.78	390.43
835.168	370.65
835.556	319.78
835.944	350.87
836.331	362.18
836.719	291.51
837.107	339.57
837.494	432.78
837.881	407.37
838.269	356.53
838.656	362.18
839.043	396.07
839.431	455.36
839.818	379.13
840.205	438.42
840.592	299.99
840.979	418.66
841.366	331.09
841.752	427.13
842.139	350.87
842.526	404.55
842.912	345.22
843.299	404.55
843.685	350.87
844.072	446.89
844.458	424.31
844.844	359.35
845.231	356.53
845.617	373.48
846.003	444.07
846.389	325.44
846.775	379.13
847.161	331.09
847.547	429.96
847.933	404.55
848.318	356.53
848.704	381.95
849.09	415.84
849.475	356.53
849.861	413.02
850.246	421.49
850.631	384.78
851.017	333.92
851.402	398.9
851.787	472.29
852.172	393.25
852.557	407.37
852.942	365
853.327	280.2
853.712	373.48
854.097	413.02
854.481	401.72
854.866	342.4
855.25	424.31
855.635	373.48
856.019	302.82
856.404	365
856.788	359.35
857.172	415.84
857.557	384.78
857.941	452.53
858.325	376.3
858.709	401.72
859.093	367.83
859.477	384.78
859.86	429.96
860.244	415.84
860.628	365
861.012	410.19
861.395	424.31
861.779	362.18
862.162	305.65
862.545	472.29
862.929	421.49
863.312	365
863.695	407.37
864.078	367.83
864.461	401.72
864.844	325.44
865.227	427.13
865.61	350.87
865.993	365
866.376	381.95
866.758	458.18
867.141	356.53
867.523	458.18
867.906	421.49
868.288	333.92
868.671	353.7
869.053	398.9
869.435	410.19
869.817	251.91
870.199	342.4
870.581	477.93
870.963	342.4
871.345	421.49
871.727	342.4
872.109	314.13
872.491	359.35
872.872	348.05
873.254	370.65
873.635	331.09
874.017	322.61
874.398	435.6
874.779	396.07
875.161	356.53
875.542	359.35
875.923	376.3
876.304	461
876.685	328.27
877.066	336.74
877.447	441.25
877.828	483.57
878.208	407.37
878.589	339.57
878.97	418.66
879.35	407.37
879.731	362.18
880.111	362.18
880.491	401.72
880.872	209.45
881.252	333.92
881.632	407.37
882.012	413.02
882.392	353.7
882.772	398.9
883.152	353.7
883.532	362.18
883.912	376.3
884.291	353.7
884.671	365
885.051	280.2
885.43	311.3
885.81	348.05
886.189	359.35
886.568	336.74
886.948	362.18
887.327	415.84
887.706	396.07
888.085	339.57
888.464	463.82
888.843	356.53
889.222	379.13
889.601	390.43
889.979	424.31
890.358	362.18
890.737	393.25
891.115	342.4
891.494	348.05
891.872	342.4
892.25	384.78
892.629	339.57
893.007	444.07
893.385	367.83
893.763	359.35
894.141	322.61
894.519	384.78
894.897	376.3
895.275	302.82
895.653	362.18
896.03	325.44
896.408	396.07
896.786	291.51
897.163	322.61
897.541	424.31
897.918	435.6
898.295	396.07
898.673	333.92
899.05	376.3
899.427	359.35
899.804	404.55
900.181	299.99
900.558	353.7
900.935	223.6
901.312	441.25
901.688	356.53
902.065	381.95
902.442	438.42
902.818	277.37
903.195	446.89
903.571	353.7
903.947	362.18
904.324	390.43
904.7	302.82
905.076	348.05
905.452	398.9
905.828	356.53
906.204	376.3
906.58	299.99
906.956	362.18
907.331	246.25
907.707	314.13
908.083	387.6
908.458	404.55
908.834	322.61
909.209	328.27
909.585	333.92
909.96	427.13
910.335	384.78
910.71	359.35
911.086	328.27
911.461	365
911.836	333.92
912.21	413.02
912.585	441.25
912.96	356.53
913.335	393.25
913.709	359.35
914.084	308.48
914.459	356.53
914.833	370.65
915.207	390.43
915.582	424.31
915.956	410.19
916.33	308.48
916.704	384.78
917.078	365
917.452	353.7
917.826	240.59
918.2	331.09
918.574	316.96
918.948	376.3
919.321	370.65
919.695	297.17
920.068	353.7
920.442	356.53
920.815	398.9
921.189	339.57
921.562	331.09
921.935	314.13
922.308	404.55
922.681	421.49
923.054	429.96
923.427	348.05
923.8	429.96
924.173	356.53
924.546	427.13
924.919	367.83
925.291	362.18
925.664	350.87
926.036	353.7
926.409	396.07
926.781	432.78
927.153	362.18
927.526	390.43
927.898	319.78
928.27	452.53
928.642	376.3
929.014	373.48
929.386	421.49
929.758	359.35
930.129	379.13
930.501	427.13
930.873	362.18
931.244	381.95
931.616	328.27
931.987	308.48
932.359	379.13
932.73	362.18
933.101	446.89
933.472	458.18
933.843	393.25
934.214	427.13
934.585	362.18
934.956	376.3
935.327	365
935.698	401.72
936.069	339.57
936.439	362.18
936.81	314.13
937.18	342.4
937.551	308.48
937.921	435.6
938.292	379.13
938.662	379.13
939.032	336.74
939.402	353.7
939.772	336.74
940.142	421.49
940.512	331.09
940.882	362.18
941.252	291.51
941.621	339.57
941.991	415.84
942.361	331.09
942.73	333.92
943.1	413.02
943.469	356.53
943.838	435.6
944.208	353.7
944.577	319.78
944.946	398.9
945.315	297.17
945.684	376.3
946.053	398.9
946.422	348.05
946.791	348.05
947.159	331.09
947.528	404.55
947.897	365
948.265	288.68
948.634	350.87
949.002	381.95
949.371	299.99
949.739	297.17
950.107	359.35
950.475	288.68
950.843	356.53
951.211	342.4
951.579	325.44
951.947	475.11
952.315	325.44
952.683	461
953.05	336.74
953.418	407.37
953.785	384.78
954.153	362.18
954.52	413.02
954.888	435.6
955.255	429.96
955.622	418.66
955.989	356.53
956.356	427.13
956.723	370.65
957.09	367.83
957.457	328.27
957.824	331.09
958.191	373.48
958.557	396.07
958.924	325.44
959.291	390.43
959.657	398.9
960.023	345.22
960.39	288.68
960.756	384.78
961.122	427.13
961.488	415.84
961.855	404.55
962.221	291.51
962.586	288.68
962.952	401.72
963.318	294.34
963.684	311.3
964.05	305.65
964.415	325.44
964.781	427.13
965.146	396.07
965.512	257.56
965.877	322.61
966.242	390.43
966.608	441.25
966.973	390.43
967.338	345.22
967.703	319.78
968.068	421.49
968.433	396.07
968.797	365
969.162	285.85
969.527	376.3
969.891	325.44
970.256	350.87
970.62	421.49
970.985	376.3
971.349	359.35
971.714	339.57
972.078	322.61
972.442	404.55
972.806	353.7
973.17	384.78
973.534	396.07
973.898	365
974.262	390.43
974.625	336.74
974.989	316.96
975.353	384.78
975.716	432.78
976.08	404.55
976.443	345.22
976.806	463.82
977.17	362.18
977.533	274.54
977.896	345.22
978.259	353.7
978.622	441.25
978.985	288.68
979.348	381.95
979.711	365
980.073	302.82
980.436	328.27
980.799	410.19
981.161	367.83
981.524	348.05
981.886	396.07
982.248	299.99
982.611	348.05
982.973	466.64
983.335	458.18
983.697	345.22
984.059	393.25
984.421	401.72
984.783	376.3
985.145	393.25
985.506	314.13
985.868	379.13
986.23	387.6
986.591	398.9
986.953	362.18
987.314	345.22
987.675	365
988.037	511.77
988.398	348.05
988.759	384.78
989.12	353.7
989.481	359.35
989.842	398.9
990.203	441.25
990.564	407.37
990.924	466.64
991.285	508.95
991.646	353.7
992.006	299.99
992.367	328.27
992.727	381.95
993.087	373.48
993.448	410.19
993.808	370.65
994.168	435.6
994.528	435.6
994.888	390.43
995.248	438.42
995.608	373.48
995.967	308.48
996.327	398.9
996.687	432.78
997.046	362.18
997.406	339.57
997.765	319.78
998.125	353.7
998.484	370.65
998.843	418.66
999.202	362.18
999.561	376.3
999.92	393.25
1000.279	362.18
1000.638	401.72
1000.997	379.13
1001.356	319.78
1001.715	452.53
1002.073	367.83
1002.432	348.05
1002.79	387.6
1003.149	365
1003.507	333.92
1003.865	359.35
1004.224	322.61
1004.582	319.78
1004.94	365
1005.298	365
1005.656	441.25
1006.014	308.48
1006.371	381.95
1006.729	376.3
1007.087	387.6
1007.445	379.13
1007.802	404.55
1008.16	316.96
1008.517	370.65
1008.874	319.78
1009.232	365
1009.589	356.53
1009.946	294.34
1010.303	413.02
1010.66	353.7
1011.017	325.44
1011.374	331.09
1011.731	435.6
1012.087	370.65
1012.444	370.65
1012.801	322.61
1013.157	336.74
1013.513	353.7
1013.87	328.27
1014.226	424.31
1014.582	365
1014.939	328.27
1015.295	365
1015.651	333.92
1016.007	387.6
1016.363	365
1016.719	390.43
1017.074	342.4
1017.43	353.7
1017.786	342.4
1018.141	404.55
1018.497	415.84
1018.852	314.13
1019.208	415.84
1019.563	325.44
1019.918	384.78
1020.273	413.02
1020.628	429.96
1020.983	384.78
1021.338	311.3
1021.693	322.61
1022.048	365
1022.403	508.95
1022.757	294.34
1023.112	359.35
1023.467	370.65
1023.821	319.78
1024.175	407.37
1024.53	373.48
1024.884	373.48
1025.238	396.07
1025.592	336.74
1025.946	413.02
1026.3	401.72
1026.654	333.92
1027.008	418.66
1027.362	384.78
1027.716	325.44
1028.069	365
1028.423	370.65
1028.777	384.78
1029.13	362.18
1029.483	356.53
1029.837	398.9
1030.19	401.72
1030.543	311.3
1030.896	311.3
1031.249	348.05
1031.602	432.78
1031.955	370.65
1032.308	381.95
1032.661	365
1033.013	452.53
1033.366	438.42
1033.719	379.13
1034.071	367.83
1034.424	297.17
1034.776	413.02
1035.128	379.13
1035.48	398.9
1035.833	353.7
1036.185	212.28
1036.537	212.28
1036.889	212.28
