Data from BCF12_Round-2_FLMS019251_10-20-24-853.txt Node
Date: Wed Feb 20 10:20:24 CET 2019
User: luk
Spectrometer: FLMS01925
Trigger mode: 0
Integration Time (sec): 3.764000E-2
Scans to average: 1
Electric dark correction enabled: true
Nonlinearity correction enabled: true
Boxcar width: 0
XAxis mode: Wavelengths
Number of Pixels in Spectrum: 2048
>>>>>Begin Spectral Data<<<<<
187.103	-27.69
187.574	-27.69
188.045	-27.69
188.516	-198.3
188.987	-104.41
189.458	-104.41
189.929	-138.54
190.4	-75.99
190.871	-110.1
191.342	-101.57
191.813	-101.57
192.284	-84.51
192.754	54.63
193.225	-13.49
193.696	17.74
194.166	102.85
194.637	117.02
195.107	108.52
195.578	80.16
196.048	88.67
196.518	159.53
196.989	241.65
197.459	185.03
197.929	255.8
198.399	250.14
198.869	318.02
199.339	332.15
199.809	309.54
200.279	366.06
200.749	255.8
201.219	346.28
201.689	349.11
202.159	275.6
202.628	303.88
203.098	439.48
203.568	383.01
204.037	306.71
204.507	416.9
204.976	391.48
205.445	464.88
205.915	351.93
206.384	368.89
206.853	312.36
207.323	343.46
207.792	414.08
208.261	357.59
208.73	445.13
209.199	377.36
209.668	405.61
210.137	343.46
210.606	433.84
211.075	383.01
211.543	394.31
212.012	414.08
212.481	473.34
212.95	388.66
213.418	374.54
213.887	380.19
214.355	405.61
214.824	363.24
215.292	332.15
215.76	431.01
216.229	315.19
216.697	329.33
217.165	323.67
217.633	411.25
218.101	374.54
218.569	408.43
219.037	431.01
219.505	337.8
219.973	343.46
220.441	385.84
220.909	385.84
221.377	272.77
221.844	346.28
222.312	315.19
222.78	408.43
223.247	301.05
223.715	323.67
224.182	366.06
224.65	312.36
225.117	385.84
225.584	326.5
226.052	337.8
226.519	315.19
226.986	433.84
227.453	391.48
227.92	391.48
228.387	261.45
228.854	357.59
229.321	320.84
229.788	349.11
230.255	309.54
230.722	340.63
231.189	405.61
231.655	366.06
232.122	380.19
232.589	326.5
233.055	261.45
233.522	329.33
233.988	343.46
234.454	332.15
234.921	318.02
235.387	334.98
235.853	357.59
236.32	309.54
236.786	337.8
237.252	323.67
237.718	399.96
238.184	309.54
238.65	320.84
239.116	351.93
239.582	360.41
240.047	371.71
240.513	360.41
240.979	332.15
241.445	227.5
241.91	351.93
242.376	380.19
242.841	397.13
243.307	377.36
243.772	380.19
244.238	334.98
244.703	377.36
245.168	385.84
245.633	405.61
246.099	360.41
246.564	366.06
247.029	354.76
247.494	306.71
247.959	408.43
248.424	380.19
248.889	360.41
249.353	298.23
249.818	346.28
250.283	312.36
250.748	383.01
251.212	425.37
251.677	383.01
252.141	383.01
252.606	383.01
253.07	397.13
253.535	377.36
253.999	238.82
254.463	368.89
254.927	351.93
255.392	368.89
255.856	445.13
256.32	357.59
256.784	433.84
257.248	289.74
257.712	303.88
258.176	399.96
258.64	303.88
259.103	383.01
259.567	411.25
260.031	340.63
260.495	332.15
260.958	380.19
261.422	363.24
261.885	298.23
262.349	374.54
262.812	354.76
263.275	416.9
263.739	357.59
264.202	371.71
264.665	425.37
265.128	411.25
265.591	380.19
266.054	383.01
266.517	459.24
266.98	349.11
267.443	439.48
267.906	433.84
268.369	374.54
268.832	388.66
269.294	397.13
269.757	397.13
270.22	394.31
270.682	391.48
271.145	450.77
271.607	442.3
272.07	363.24
272.532	391.48
272.994	377.36
273.456	493.09
273.919	346.28
274.381	357.59
274.843	366.06
275.305	405.61
275.767	399.96
276.229	411.25
276.691	383.01
277.153	320.84
277.614	419.72
278.076	439.48
278.538	292.57
279	323.67
279.461	377.36
279.923	340.63
280.384	436.66
280.846	368.89
281.307	371.71
281.769	371.71
282.23	368.89
282.691	377.36
283.152	456.42
283.613	357.59
284.075	374.54
284.536	405.61
284.997	371.71
285.458	309.54
285.918	462.06
286.379	419.72
286.84	397.13
287.301	340.63
287.762	399.96
288.222	329.33
288.683	357.59
289.143	425.37
289.604	380.19
290.064	405.61
290.525	397.13
290.985	326.5
291.445	416.9
291.906	366.06
292.366	329.33
292.826	380.19
293.286	391.48
293.746	318.02
294.206	298.23
294.666	481.81
295.126	388.66
295.586	399.96
296.046	431.01
296.506	371.71
296.965	388.66
297.425	326.5
297.884	275.6
298.344	374.54
298.804	323.67
299.263	349.11
299.722	425.37
300.182	354.76
300.641	380.19
301.1	286.91
301.559	442.3
302.019	399.96
302.478	292.57
302.937	445.13
303.396	326.5
303.855	318.02
304.314	394.31
304.772	476.17
305.231	467.7
305.69	374.54
306.149	323.67
306.607	357.59
307.066	329.33
307.524	360.41
307.983	391.48
308.441	354.76
308.9	411.25
309.358	380.19
309.816	334.98
310.275	337.8
310.733	354.76
311.191	428.19
311.649	366.06
312.107	484.63
312.565	459.24
313.023	399.96
313.481	391.48
313.939	428.19
314.397	334.98
314.854	269.94
315.312	343.46
315.77	349.11
316.227	391.48
316.685	349.11
317.142	397.13
317.6	332.15
318.057	318.02
318.514	445.13
318.972	414.08
319.429	397.13
319.886	315.19
320.343	402.78
320.8	394.31
321.257	467.7
321.714	414.08
322.171	402.78
322.628	433.84
323.085	442.3
323.542	354.76
323.998	433.84
324.455	416.9
324.912	320.84
325.368	481.81
325.825	298.23
326.281	388.66
326.738	481.81
327.194	405.61
327.65	416.9
328.107	349.11
328.563	320.84
329.019	349.11
329.475	397.13
329.931	380.19
330.387	397.13
330.843	326.5
331.299	436.66
331.755	385.84
332.211	354.76
332.666	329.33
333.122	346.28
333.578	405.61
334.033	419.72
334.489	349.11
334.944	408.43
335.4	439.48
335.855	380.19
336.31	419.72
336.766	374.54
337.221	357.59
337.676	346.28
338.131	456.42
338.586	391.48
339.041	385.84
339.496	371.71
339.951	394.31
340.406	416.9
340.861	383.01
341.316	397.13
341.771	431.01
342.225	402.78
342.68	323.67
343.134	447.95
343.589	391.48
344.043	363.24
344.498	445.13
344.952	383.01
345.406	383.01
345.861	490.27
346.315	476.17
346.769	371.71
347.223	397.13
347.677	357.59
348.131	399.96
348.585	329.33
349.039	447.95
349.493	436.66
349.947	456.42
350.401	473.34
350.854	374.54
351.308	371.71
351.762	416.9
352.215	433.84
352.669	402.78
353.122	436.66
353.575	351.93
354.029	436.66
354.482	349.11
354.935	422.55
355.388	383.01
355.842	329.33
356.295	416.9
356.748	340.63
357.201	411.25
357.654	357.59
358.106	368.89
358.559	385.84
359.012	464.88
359.465	360.41
359.917	467.7
360.37	388.66
360.823	391.48
361.275	380.19
361.728	340.63
362.18	445.13
362.632	478.99
363.085	422.55
363.537	399.96
363.989	363.24
364.441	445.13
364.893	422.55
365.345	377.36
365.797	394.31
366.249	425.37
366.701	394.31
367.153	366.06
367.605	366.06
368.057	368.89
368.508	456.42
368.96	425.37
369.411	309.54
369.863	377.36
370.314	411.25
370.766	320.84
371.217	450.77
371.669	354.76
372.12	371.71
372.571	484.63
373.022	332.15
373.473	419.72
373.924	411.25
374.375	306.71
374.826	329.33
375.277	433.84
375.728	425.37
376.179	473.34
376.63	380.19
377.08	391.48
377.531	383.01
377.981	320.84
378.432	419.72
378.883	360.41
379.333	439.48
379.783	363.24
380.234	450.77
380.684	431.01
381.134	368.89
381.584	408.43
382.034	436.66
382.485	397.13
382.935	374.54
383.385	394.31
383.834	414.08
384.284	388.66
384.734	397.13
385.184	363.24
385.634	402.78
386.083	439.48
386.533	383.01
386.982	442.3
387.432	453.59
387.881	405.61
388.331	334.98
388.78	385.84
389.229	312.36
389.679	363.24
390.128	408.43
390.577	383.01
391.026	425.37
391.475	484.63
391.924	357.59
392.373	402.78
392.822	385.84
393.27	399.96
393.719	380.19
394.168	433.84
394.617	428.19
395.065	391.48
395.514	371.71
395.962	450.77
396.411	383.01
396.859	391.48
397.307	337.8
397.756	419.72
398.204	402.78
398.652	419.72
399.1	411.25
399.548	346.28
399.996	385.84
400.444	411.25
400.892	368.89
401.34	326.5
401.788	388.66
402.236	431.01
402.683	428.19
403.131	462.06
403.579	374.54
404.026	422.55
404.474	380.19
404.921	397.13
405.369	391.48
405.816	374.54
406.263	388.66
406.71	456.42
407.158	374.54
407.605	428.19
408.052	408.43
408.499	394.31
408.946	467.7
409.393	442.3
409.84	374.54
410.286	453.59
410.733	442.3
411.18	371.71
411.626	374.54
412.073	402.78
412.52	374.54
412.966	380.19
413.413	431.01
413.859	357.59
414.305	433.84
414.752	408.43
415.198	416.9
415.644	334.98
416.09	399.96
416.536	371.71
416.982	442.3
417.428	425.37
417.874	411.25
418.32	360.41
418.766	436.66
419.211	397.13
419.657	371.71
420.103	524.11
420.548	419.72
420.994	439.48
421.439	363.24
421.885	402.78
422.33	371.71
422.776	380.19
423.221	380.19
423.666	380.19
424.111	495.91
424.556	431.01
425.001	388.66
425.446	416.9
425.891	388.66
426.336	397.13
426.781	414.08
427.226	394.31
427.671	414.08
428.115	394.31
428.56	340.63
429.005	445.13
429.449	453.59
429.894	405.61
430.338	374.54
430.782	272.77
431.227	399.96
431.671	368.89
432.115	385.84
432.559	459.24
433.003	374.54
433.447	422.55
433.891	467.7
434.335	334.98
434.779	326.5
435.223	363.24
435.667	343.46
436.111	422.55
436.554	388.66
436.998	380.19
437.442	436.66
437.885	388.66
438.328	349.11
438.772	394.31
439.215	383.01
439.659	303.88
440.102	320.84
440.545	363.24
440.988	447.95
441.431	380.19
441.874	453.59
442.317	315.19
442.76	414.08
443.203	422.55
443.646	360.41
444.089	414.08
444.531	526.93
444.974	399.96
445.417	349.11
445.859	425.37
446.302	388.66
446.744	349.11
447.186	462.06
447.629	363.24
448.071	411.25
448.513	456.42
448.956	391.48
449.398	408.43
449.84	436.66
450.282	439.48
450.724	433.84
451.166	371.71
451.607	397.13
452.049	388.66
452.491	340.63
452.933	298.23
453.374	374.54
453.816	397.13
454.257	371.71
454.699	470.52
455.14	366.06
455.582	340.63
456.023	408.43
456.464	476.17
456.905	422.55
457.347	354.76
457.788	380.19
458.229	357.59
458.67	425.37
459.111	354.76
459.552	371.71
459.992	399.96
460.433	366.06
460.874	445.13
461.315	394.31
461.755	498.73
462.196	473.34
462.636	343.46
463.077	388.66
463.517	419.72
463.957	346.28
464.398	357.59
464.838	422.55
465.278	529.75
465.718	436.66
466.158	343.46
466.598	332.15
467.038	343.46
467.478	447.95
467.918	394.31
468.358	439.48
468.798	405.61
469.237	512.83
469.677	416.9
470.117	397.13
470.556	323.67
470.996	447.95
471.435	377.36
471.874	459.24
472.314	459.24
472.753	411.25
473.192	349.11
473.631	360.41
474.07	416.9
474.509	343.46
474.948	399.96
475.387	453.59
475.826	340.63
476.265	391.48
476.704	416.9
477.143	269.94
477.581	346.28
478.02	504.37
478.458	399.96
478.897	459.24
479.335	351.93
479.774	394.31
480.212	405.61
480.65	411.25
481.089	467.7
481.527	431.01
481.965	385.84
482.403	431.01
482.841	445.13
483.279	478.99
483.717	402.78
484.155	436.66
484.592	368.89
485.03	394.31
485.468	377.36
485.905	349.11
486.343	450.77
486.781	450.77
487.218	408.43
487.655	411.25
488.093	357.59
488.53	318.02
488.967	425.37
489.405	402.78
489.842	399.96
490.279	445.13
490.716	402.78
491.153	450.77
491.59	399.96
492.027	422.55
492.463	433.84
492.9	445.13
493.337	334.98
493.773	462.06
494.21	428.19
494.647	366.06
495.083	371.71
495.519	399.96
495.956	476.17
496.392	289.74
496.828	394.31
497.265	391.48
497.701	422.55
498.137	385.84
498.573	450.77
499.009	419.72
499.445	456.42
499.881	337.8
500.316	351.93
500.752	357.59
501.188	374.54
501.624	484.63
502.059	357.59
502.495	431.01
502.93	360.41
503.366	346.28
503.801	312.36
504.236	405.61
504.672	374.54
505.107	346.28
505.542	377.36
505.977	433.84
506.412	425.37
506.847	368.89
507.282	462.06
507.717	371.71
508.152	445.13
508.587	366.06
509.021	478.99
509.456	431.01
509.891	397.13
510.325	371.71
510.76	383.01
511.194	337.8
511.628	397.13
512.063	318.02
512.497	329.33
512.931	318.02
513.366	391.48
513.8	351.93
514.234	380.19
514.668	363.24
515.102	346.28
515.536	377.36
515.969	385.84
516.403	450.77
516.837	380.19
517.271	399.96
517.704	337.8
518.138	391.48
518.571	357.59
519.005	433.84
519.438	354.76
519.871	323.67
520.305	360.41
520.738	416.9
521.171	416.9
521.604	394.31
522.037	383.01
522.47	397.13
522.903	334.98
523.336	431.01
523.769	312.36
524.202	436.66
524.634	368.89
525.067	349.11
525.5	385.84
525.932	399.96
526.365	337.8
526.797	377.36
527.23	340.63
527.662	431.01
528.094	337.8
528.527	391.48
528.959	394.31
529.391	397.13
529.823	414.08
530.255	414.08
530.687	343.46
531.119	431.01
531.551	385.84
531.982	383.01
532.414	399.96
532.846	371.71
533.277	447.95
533.709	329.33
534.14	380.19
534.572	490.27
535.003	391.48
535.435	462.06
535.866	385.84
536.297	377.36
536.728	456.42
537.159	428.19
537.59	346.28
538.022	459.24
538.452	360.41
538.883	371.71
539.314	363.24
539.745	411.25
540.176	332.15
540.606	459.24
541.037	357.59
541.468	380.19
541.898	524.11
542.328	416.9
542.759	501.55
543.189	433.84
543.619	366.06
544.05	416.9
544.48	459.24
544.91	411.25
545.34	433.84
545.77	428.19
546.2	414.08
546.63	462.06
547.06	416.9
547.489	371.71
547.919	363.24
548.349	332.15
548.778	391.48
549.208	368.89
549.637	402.78
550.067	391.48
550.496	428.19
550.926	360.41
551.355	439.48
551.784	422.55
552.213	383.01
552.642	487.45
553.071	402.78
553.5	470.52
553.929	450.77
554.358	408.43
554.787	414.08
555.216	456.42
555.645	495.91
556.073	436.66
556.502	464.88
556.93	422.55
557.359	360.41
557.787	470.52
558.216	366.06
558.644	436.66
559.072	428.19
559.5	431.01
559.929	467.7
560.357	388.66
560.785	366.06
561.213	447.95
561.641	363.24
562.068	349.11
562.496	462.06
562.924	354.76
563.352	360.41
563.779	470.52
564.207	351.93
564.634	380.19
565.062	371.71
565.489	374.54
565.917	399.96
566.344	380.19
566.771	445.13
567.198	391.48
567.625	442.3
568.053	399.96
568.48	411.25
568.907	354.76
569.333	439.48
569.76	425.37
570.187	456.42
570.614	462.06
571.04	906.55
571.467	414.08
571.894	478.99
572.32	411.25
572.747	351.93
573.173	433.84
573.599	377.36
574.026	411.25
574.452	467.7
574.878	419.72
575.304	292.57
575.73	309.54
576.156	366.06
576.582	405.61
577.008	368.89
577.434	408.43
577.86	495.91
578.285	377.36
578.711	346.28
579.137	439.48
579.562	385.84
579.988	363.24
580.413	416.9
580.838	416.9
581.264	402.78
581.689	351.93
582.114	402.78
582.539	566.39
582.964	385.84
583.39	332.15
583.814	374.54
584.239	388.66
584.664	380.19
585.089	408.43
585.514	354.76
585.939	453.59
586.363	439.48
586.788	320.84
587.212	397.13
587.637	416.9
588.061	425.37
588.485	442.3
588.91	343.46
589.334	470.52
589.758	397.13
590.182	326.5
590.606	346.28
591.03	416.9
591.454	343.46
591.878	334.98
592.302	408.43
592.726	315.19
593.15	419.72
593.573	377.36
593.997	439.48
594.42	340.63
594.844	408.43
595.267	368.89
595.691	303.88
596.114	363.24
596.537	306.71
596.96	419.72
597.384	383.01
597.807	431.01
598.23	436.66
598.653	340.63
599.076	363.24
599.499	493.09
599.921	374.54
600.344	371.71
600.767	414.08
601.189	329.33
601.612	439.48
602.034	402.78
602.457	346.28
602.879	478.99
603.302	442.3
603.724	431.01
604.146	411.25
604.568	411.25
604.991	360.41
605.413	363.24
605.835	414.08
606.257	450.77
606.678	450.77
607.1	363.24
607.522	334.98
607.944	383.01
608.365	464.88
608.787	408.43
609.209	408.43
609.63	394.31
610.051	363.24
610.473	464.88
610.894	385.84
611.315	385.84
611.737	357.59
612.158	368.89
612.579	391.48
613	391.48
613.421	374.54
613.842	388.66
614.263	337.8
614.683	399.96
615.104	428.19
615.525	363.24
615.945	371.71
616.366	380.19
616.787	422.55
617.207	498.73
617.627	419.72
618.048	357.59
618.468	405.61
618.888	326.5
619.308	408.43
619.728	453.59
620.148	383.01
620.568	408.43
620.988	402.78
621.408	414.08
621.828	414.08
622.248	363.24
622.668	334.98
623.087	405.61
623.507	332.15
623.926	411.25
624.346	368.89
624.765	473.34
625.185	425.37
625.604	411.25
626.023	422.55
626.442	439.48
626.861	402.78
627.28	315.19
627.699	473.34
628.118	405.61
628.537	346.28
628.956	416.9
629.375	419.72
629.794	351.93
630.212	380.19
630.631	377.36
631.049	402.78
631.468	425.37
631.886	419.72
632.305	388.66
632.723	388.66
633.141	416.9
633.559	445.13
633.978	436.66
634.396	416.9
634.814	473.34
635.232	425.37
635.65	422.55
636.067	383.01
636.485	414.08
636.903	408.43
637.321	433.84
637.738	433.84
638.156	385.84
638.573	383.01
638.991	368.89
639.408	320.84
639.825	377.36
640.243	368.89
640.66	397.13
641.077	366.06
641.494	394.31
641.911	450.77
642.328	462.06
642.745	408.43
643.162	428.19
643.579	397.13
643.995	368.89
644.412	442.3
644.829	425.37
645.245	521.29
645.662	408.43
646.078	332.15
646.495	447.95
646.911	349.11
647.327	397.13
647.743	447.95
648.159	473.34
648.576	478.99
648.992	402.78
649.408	385.84
649.824	388.66
650.239	453.59
650.655	298.23
651.071	258.63
651.487	425.37
651.902	383.01
652.318	442.3
652.733	439.48
653.149	459.24
653.564	416.9
653.979	312.36
654.395	447.95
654.81	397.13
655.225	394.31
655.64	414.08
656.055	405.61
656.47	433.84
656.885	374.54
657.3	397.13
657.715	388.66
658.13	397.13
658.544	416.9
658.959	408.43
659.374	380.19
659.788	366.06
660.202	368.89
660.617	391.48
661.031	391.48
661.445	484.63
661.86	433.84
662.274	343.46
662.688	416.9
663.102	411.25
663.516	385.84
663.93	303.88
664.344	411.25
664.758	397.13
665.171	383.01
665.585	414.08
665.999	459.24
666.412	360.41
666.826	408.43
667.239	351.93
667.653	428.19
668.066	411.25
668.479	380.19
668.892	391.48
669.306	380.19
669.719	419.72
670.132	337.8
670.545	411.25
670.958	383.01
671.37	383.01
671.783	363.24
672.196	419.72
672.609	467.7
673.021	385.84
673.434	363.24
673.846	464.88
674.259	431.01
674.671	337.8
675.084	267.11
675.496	374.54
675.908	391.48
676.32	357.59
676.732	408.43
677.144	399.96
677.556	301.05
677.968	388.66
678.38	439.48
678.792	414.08
679.204	399.96
679.615	383.01
680.027	349.11
680.439	306.71
680.85	433.84
681.262	383.01
681.673	346.28
682.084	532.57
682.496	351.93
682.907	399.96
683.318	397.13
683.729	405.61
684.14	368.89
684.551	408.43
684.962	456.42
685.373	431.01
685.784	442.3
686.194	416.9
686.605	453.59
687.016	490.27
687.426	436.66
687.837	385.84
688.247	431.01
688.657	453.59
689.068	354.76
689.478	366.06
689.888	368.89
690.298	464.88
690.708	380.19
691.118	411.25
691.528	394.31
691.938	360.41
692.348	431.01
692.758	326.5
693.168	428.19
693.577	521.29
693.987	380.19
694.396	414.08
694.806	340.63
695.215	380.19
695.625	363.24
696.034	501.55
696.443	332.15
696.852	476.17
697.262	467.7
697.671	312.36
698.08	366.06
698.489	399.96
698.897	402.78
699.306	478.99
699.715	405.61
700.124	394.31
700.532	518.47
700.941	501.55
701.35	286.91
701.758	340.63
702.166	397.13
702.575	351.93
702.983	332.15
703.391	366.06
703.799	374.54
704.208	284.09
704.616	436.66
705.024	422.55
705.432	383.01
705.839	408.43
706.247	397.13
706.655	405.61
707.063	366.06
707.47	408.43
707.878	397.13
708.285	295.4
708.693	323.67
709.1	343.46
709.508	402.78
709.915	459.24
710.322	380.19
710.729	337.8
711.136	399.96
711.543	309.54
711.95	422.55
712.357	411.25
712.764	340.63
713.171	411.25
713.578	235.99
713.984	354.76
714.391	383.01
714.797	436.66
715.204	422.55
715.61	431.01
716.017	422.55
716.423	351.93
716.829	383.01
717.236	478.99
717.642	470.52
718.048	456.42
718.454	346.28
718.86	340.63
719.266	383.01
719.671	445.13
720.077	360.41
720.483	462.06
720.889	380.19
721.294	363.24
721.7	388.66
722.105	464.88
722.511	380.19
722.916	399.96
723.321	357.59
723.726	309.54
724.132	363.24
724.537	416.9
724.942	383.01
725.347	343.46
725.752	337.8
726.156	419.72
726.561	368.89
726.966	425.37
727.371	462.06
727.775	301.05
728.18	368.89
728.584	371.71
728.989	416.9
729.393	374.54
729.798	360.41
730.202	383.01
730.606	289.74
731.01	357.59
731.414	334.98
731.818	397.13
732.222	380.19
732.626	360.41
733.03	433.84
733.434	512.83
733.837	346.28
734.241	354.76
734.645	385.84
735.048	416.9
735.452	416.9
735.855	388.66
736.258	337.8
736.662	363.24
737.065	419.72
737.468	431.01
737.871	433.84
738.274	414.08
738.677	351.93
739.08	385.84
739.483	380.19
739.886	433.84
740.289	399.96
740.691	391.48
741.094	385.84
741.497	433.84
741.899	388.66
742.302	383.01
742.704	388.66
743.106	498.73
743.508	399.96
743.911	456.42
744.313	334.98
744.715	467.7
745.117	397.13
745.519	371.71
745.921	411.25
746.323	383.01
746.724	388.66
747.126	368.89
747.528	374.54
747.929	399.96
748.331	374.54
748.732	343.46
749.134	433.84
749.535	351.93
749.936	445.13
750.338	363.24
750.739	383.01
751.14	326.5
751.541	363.24
751.942	399.96
752.343	368.89
752.744	419.72
753.144	323.67
753.545	363.24
753.946	388.66
754.346	388.66
754.747	340.63
755.148	337.8
755.548	346.28
755.948	450.77
756.349	371.71
756.749	487.45
757.149	459.24
757.549	298.23
757.949	329.33
758.349	419.72
758.749	385.84
759.149	366.06
759.549	371.71
759.949	368.89
760.348	419.72
760.748	414.08
761.148	377.36
761.547	487.45
761.947	371.71
762.346	346.28
762.745	264.28
763.145	439.48
763.544	351.93
763.943	289.74
764.342	349.11
764.741	383.01
765.14	408.43
765.539	402.78
765.938	388.66
766.336	391.48
766.735	363.24
767.134	357.59
767.532	343.46
767.931	433.84
768.329	450.77
768.728	357.59
769.126	433.84
769.525	445.13
769.923	416.9
770.321	419.72
770.719	433.84
771.117	371.71
771.515	411.25
771.913	419.72
772.311	334.98
772.709	405.61
773.106	419.72
773.504	439.48
773.902	414.08
774.299	377.36
774.697	380.19
775.094	323.67
775.491	380.19
775.889	394.31
776.286	450.77
776.683	467.7
777.08	433.84
777.477	416.9
777.874	408.43
778.271	323.67
778.668	366.06
779.065	433.84
779.462	442.3
779.858	408.43
780.255	377.36
780.652	320.84
781.048	343.46
781.444	334.98
781.841	385.84
782.237	399.96
782.633	433.84
783.03	422.55
783.426	366.06
783.822	397.13
784.218	495.91
784.614	343.46
785.01	399.96
785.405	405.61
785.801	414.08
786.197	419.72
786.593	377.36
786.988	337.8
787.384	459.24
787.779	433.84
788.174	357.59
788.57	298.23
788.965	318.02
789.36	445.13
789.755	388.66
790.15	383.01
790.545	411.25
790.94	431.01
791.335	416.9
791.73	377.36
792.125	431.01
792.52	332.15
792.914	346.28
793.309	374.54
793.703	411.25
794.098	284.09
794.492	394.31
794.887	399.96
795.281	447.95
795.675	388.66
796.069	447.95
796.463	329.33
796.857	343.46
797.251	303.88
797.645	478.99
798.039	405.61
798.433	374.54
798.826	416.9
799.22	419.72
799.614	320.84
800.007	419.72
800.401	464.88
800.794	329.33
801.187	414.08
801.581	383.01
801.974	431.01
802.367	351.93
802.76	346.28
803.153	349.11
803.546	351.93
803.939	470.52
804.332	481.81
804.725	394.31
805.117	391.48
805.51	442.3
805.903	422.55
806.295	309.54
806.688	470.52
807.08	371.71
807.472	357.59
807.865	281.26
808.257	332.15
808.649	383.01
809.041	431.01
809.433	490.27
809.825	459.24
810.217	439.48
810.609	408.43
811.001	414.08
811.392	366.06
811.784	405.61
812.175	419.72
812.567	431.01
812.958	332.15
813.35	383.01
813.741	431.01
814.132	391.48
814.524	402.78
814.915	405.61
815.306	447.95
815.697	481.81
816.088	394.31
816.479	377.36
816.87	391.48
817.26	422.55
817.651	360.41
818.042	431.01
818.432	433.84
818.823	394.31
819.213	399.96
819.604	306.71
819.994	436.66
820.384	349.11
820.775	402.78
821.165	456.42
821.555	346.28
821.945	326.5
822.335	397.13
822.725	326.5
823.114	354.76
823.504	371.71
823.894	351.93
824.284	419.72
824.673	340.63
825.063	405.61
825.452	385.84
825.842	526.93
826.231	368.89
826.62	414.08
827.009	385.84
827.399	318.02
827.788	388.66
828.177	354.76
828.566	377.36
828.954	380.19
829.343	357.59
829.732	416.9
830.121	366.06
830.509	478.99
830.898	377.36
831.286	422.55
831.675	380.19
832.063	349.11
832.452	405.61
832.84	456.42
833.228	371.71
833.616	371.71
834.004	351.93
834.392	357.59
834.78	399.96
835.168	425.37
835.556	368.89
835.944	447.95
836.331	405.61
836.719	332.15
837.107	309.54
837.494	281.26
837.881	371.71
838.269	414.08
838.656	416.9
839.043	405.61
839.431	391.48
839.818	261.45
840.205	394.31
840.592	402.78
840.979	436.66
841.366	394.31
841.752	442.3
842.139	408.43
842.526	332.15
842.912	411.25
843.299	402.78
843.685	504.37
844.072	306.71
844.458	326.5
844.844	388.66
845.231	416.9
845.617	383.01
846.003	408.43
846.389	380.19
846.775	405.61
847.161	442.3
847.547	385.84
847.933	306.71
848.318	495.91
848.704	385.84
849.09	374.54
849.475	414.08
849.861	453.59
850.246	414.08
850.631	470.52
851.017	368.89
851.402	445.13
851.787	357.59
852.172	360.41
852.557	411.25
852.942	411.25
853.327	405.61
853.712	383.01
854.097	385.84
854.481	377.36
854.866	399.96
855.25	329.33
855.635	374.54
856.019	346.28
856.404	416.9
856.788	439.48
857.172	397.13
857.557	351.93
857.941	467.7
858.325	363.24
858.709	346.28
859.093	397.13
859.477	357.59
859.86	394.31
860.244	385.84
860.628	467.7
861.012	408.43
861.395	428.19
861.779	385.84
862.162	391.48
862.545	377.36
862.929	436.66
863.312	391.48
863.695	397.13
864.078	388.66
864.461	394.31
864.844	383.01
865.227	383.01
865.61	334.98
865.993	383.01
866.376	346.28
866.758	374.54
867.141	436.66
867.523	354.76
867.906	357.59
868.288	411.25
868.671	374.54
869.053	405.61
869.435	507.19
869.817	416.9
870.199	411.25
870.581	334.98
870.963	470.52
871.345	391.48
871.727	453.59
872.109	332.15
872.491	371.71
872.872	366.06
873.254	315.19
873.635	425.37
874.017	354.76
874.398	340.63
874.779	411.25
875.161	391.48
875.542	467.7
875.923	473.34
876.304	346.28
876.685	360.41
877.066	399.96
877.447	399.96
877.828	470.52
878.208	371.71
878.589	402.78
878.97	366.06
879.35	388.66
879.731	371.71
880.111	312.36
880.491	405.61
880.872	388.66
881.252	433.84
881.632	357.59
882.012	388.66
882.392	453.59
882.772	349.11
883.152	405.61
883.532	371.71
883.912	411.25
884.291	357.59
884.671	340.63
885.051	414.08
885.43	447.95
885.81	349.11
886.189	377.36
886.568	334.98
886.948	360.41
887.327	462.06
887.706	402.78
888.085	332.15
888.464	383.01
888.843	402.78
889.222	402.78
889.601	360.41
889.979	445.13
890.358	351.93
890.737	377.36
891.115	422.55
891.494	414.08
891.872	371.71
892.25	436.66
892.629	399.96
893.007	337.8
893.385	416.9
893.763	385.84
894.141	428.19
894.519	416.9
894.897	363.24
895.275	351.93
895.653	391.48
896.03	351.93
896.408	447.95
896.786	464.88
897.163	442.3
897.541	495.91
897.918	431.01
898.295	394.31
898.673	436.66
899.05	402.78
899.427	510.01
899.804	447.95
900.181	357.59
900.558	462.06
900.935	405.61
901.312	374.54
901.688	433.84
902.065	467.7
902.442	442.3
902.818	385.84
903.195	431.01
903.571	360.41
903.947	320.84
904.324	295.4
904.7	425.37
905.076	312.36
905.452	431.01
905.828	433.84
906.204	431.01
906.58	394.31
906.956	377.36
907.331	515.65
907.707	405.61
908.083	329.33
908.458	408.43
908.834	484.63
909.209	388.66
909.585	334.98
909.96	334.98
910.335	323.67
910.71	340.63
911.086	366.06
911.461	411.25
911.836	439.48
912.21	354.76
912.585	385.84
912.96	377.36
913.335	428.19
913.709	431.01
914.084	405.61
914.459	380.19
914.833	383.01
915.207	340.63
915.582	312.36
915.956	340.63
916.33	411.25
916.704	368.89
917.078	340.63
917.452	490.27
917.826	402.78
918.2	399.96
918.574	405.61
918.948	323.67
919.321	383.01
919.695	416.9
920.068	416.9
920.442	431.01
920.815	332.15
921.189	368.89
921.562	436.66
921.935	476.17
922.308	402.78
922.681	388.66
923.054	518.47
923.427	315.19
923.8	351.93
924.173	394.31
924.546	445.13
924.919	408.43
925.291	363.24
925.664	476.17
926.036	442.3
926.409	433.84
926.781	414.08
927.153	408.43
927.526	414.08
927.898	340.63
928.27	422.55
928.642	450.77
929.014	402.78
929.386	388.66
929.758	312.36
930.129	377.36
930.501	442.3
930.873	450.77
931.244	349.11
931.616	411.25
931.987	309.54
932.359	363.24
932.73	380.19
933.101	419.72
933.472	416.9
933.843	264.28
934.214	431.01
934.585	501.55
934.956	425.37
935.327	408.43
935.698	349.11
936.069	459.24
936.439	366.06
936.81	422.55
937.18	425.37
937.551	431.01
937.921	456.42
938.292	383.01
938.662	377.36
939.032	433.84
939.402	414.08
939.772	377.36
940.142	447.95
940.512	416.9
940.882	495.91
941.252	377.36
941.621	405.61
941.991	337.8
942.361	464.88
942.73	391.48
943.1	405.61
943.469	408.43
943.838	357.59
944.208	363.24
944.577	411.25
944.946	391.48
945.315	431.01
945.684	399.96
946.053	351.93
946.422	467.7
946.791	252.97
947.159	363.24
947.528	366.06
947.897	385.84
948.265	405.61
948.634	456.42
949.002	493.09
949.371	326.5
949.739	340.63
950.107	374.54
950.475	433.84
950.843	354.76
951.211	363.24
951.579	374.54
951.947	408.43
952.315	450.77
952.683	377.36
953.05	419.72
953.418	374.54
953.785	431.01
954.153	380.19
954.52	411.25
954.888	363.24
955.255	442.3
955.622	464.88
955.989	354.76
956.356	405.61
956.723	419.72
957.09	267.11
957.457	374.54
957.824	456.42
958.191	391.48
958.557	357.59
958.924	354.76
959.291	419.72
959.657	433.84
960.023	366.06
960.39	439.48
960.756	411.25
961.122	374.54
961.488	383.01
961.855	411.25
962.221	391.48
962.586	354.76
962.952	374.54
963.318	334.98
963.684	399.96
964.05	411.25
964.415	405.61
964.781	397.13
965.146	383.01
965.512	360.41
965.877	366.06
966.242	453.59
966.608	380.19
966.973	431.01
967.338	481.81
967.703	360.41
968.068	431.01
968.433	428.19
968.797	306.71
969.162	354.76
969.527	363.24
969.891	397.13
970.256	447.95
970.62	346.28
970.985	411.25
971.349	431.01
971.714	340.63
972.078	411.25
972.442	377.36
972.806	456.42
973.17	357.59
973.534	385.84
973.898	411.25
974.262	235.99
974.625	433.84
974.989	377.36
975.353	459.24
975.716	422.55
976.08	453.59
976.443	354.76
976.806	371.71
977.17	332.15
977.533	371.71
977.896	318.02
978.259	439.48
978.622	402.78
978.985	388.66
979.348	447.95
979.711	368.89
980.073	363.24
980.436	332.15
980.799	309.54
981.161	405.61
981.524	456.42
981.886	374.54
982.248	490.27
982.611	399.96
982.973	374.54
983.335	354.76
983.697	306.71
984.059	354.76
984.421	416.9
984.783	436.66
985.145	399.96
985.506	368.89
985.868	405.61
986.23	312.36
986.591	445.13
986.953	343.46
987.314	354.76
987.675	397.13
988.037	648.05
988.398	349.11
988.759	439.48
989.12	326.5
989.481	453.59
989.842	388.66
990.203	447.95
990.564	351.93
990.924	363.24
991.285	757.74
991.646	456.42
992.006	411.25
992.367	323.67
992.727	368.89
993.087	374.54
993.448	399.96
993.808	411.25
994.168	315.19
994.528	337.8
994.888	436.66
995.248	349.11
995.608	433.84
995.967	340.63
996.327	368.89
996.687	394.31
997.046	402.78
997.406	349.11
997.765	459.24
998.125	433.84
998.484	408.43
998.843	399.96
999.202	368.89
999.561	411.25
999.92	399.96
1000.279	368.89
1000.638	416.9
1000.997	320.84
1001.356	337.8
1001.715	360.41
1002.073	416.9
1002.432	380.19
1002.79	450.77
1003.149	385.84
1003.507	312.36
1003.865	425.37
1004.224	399.96
1004.582	346.28
1004.94	380.19
1005.298	377.36
1005.656	343.46
1006.014	360.41
1006.371	371.71
1006.729	416.9
1007.087	416.9
1007.445	456.42
1007.802	453.59
1008.16	408.43
1008.517	391.48
1008.874	363.24
1009.232	422.55
1009.589	397.13
1009.946	414.08
1010.303	422.55
1010.66	397.13
1011.017	383.01
1011.374	329.33
1011.731	399.96
1012.087	366.06
1012.444	374.54
1012.801	408.43
1013.157	419.72
1013.513	450.77
1013.87	422.55
1014.226	515.65
1014.582	459.24
1014.939	385.84
1015.295	368.89
1015.651	383.01
1016.007	405.61
1016.363	326.5
1016.719	431.01
1017.074	388.66
1017.43	402.78
1017.786	368.89
1018.141	340.63
1018.497	453.59
1018.852	377.36
1019.208	354.76
1019.563	388.66
1019.918	357.59
1020.273	397.13
1020.628	456.42
1020.983	354.76
1021.338	383.01
1021.693	422.55
1022.048	391.48
1022.403	286.91
1022.757	467.7
1023.112	397.13
1023.467	366.06
1023.821	405.61
1024.175	422.55
1024.53	281.26
1024.884	447.95
1025.238	422.55
1025.592	380.19
1025.946	320.84
1026.3	436.66
1026.654	473.34
1027.008	388.66
1027.362	366.06
1027.716	360.41
1028.069	411.25
1028.423	397.13
1028.777	371.71
1029.13	337.8
1029.483	453.59
1029.837	349.11
1030.19	334.98
1030.543	318.02
1030.896	346.28
1031.249	397.13
1031.602	312.36
1031.955	354.76
1032.308	402.78
1032.661	433.84
1033.013	272.77
1033.366	399.96
1033.719	383.01
1034.071	394.31
1034.424	422.55
1034.776	340.63
1035.128	394.31
1035.48	431.01
1035.833	419.72
1036.185	377.36
1036.537	377.36
1036.889	377.36
