Data from BCF12_Round-2_FLMS019251_10-21-31-142.txt Node
Date: Wed Feb 20 10:21:31 CET 2019
User: luk
Spectrometer: FLMS01925
Trigger mode: 0
Integration Time (sec): 4.810000E-2
Scans to average: 1
Electric dark correction enabled: true
Nonlinearity correction enabled: true
Boxcar width: 0
XAxis mode: Wavelengths
Number of Pixels in Spectrum: 2048
>>>>>Begin Spectral Data<<<<<
187.103	-47.04
187.574	-47.04
188.045	-47.04
188.516	-98.2
188.987	-109.57
189.458	-189.23
189.929	-115.26
190.4	-123.79
190.871	-123.79
191.342	-89.67
191.813	-21.47
192.284	-98.2
192.754	-32.84
193.225	18.28
193.696	35.3
194.166	18.28
194.637	148.73
195.107	69.35
195.578	191.22
196.048	143.06
196.518	168.56
196.989	211.04
197.459	194.05
197.929	213.87
198.399	219.54
198.869	253.5
199.339	287.44
199.809	335.51
200.279	264.81
200.749	346.81
201.219	324.2
201.689	318.55
202.159	383.54
202.628	358.12
203.098	383.54
203.568	389.19
204.037	471.05
204.507	411.78
204.976	456.94
205.445	338.33
205.915	403.31
206.384	411.78
206.853	386.37
207.323	448.48
207.792	366.59
208.261	293.1
208.73	329.86
209.199	346.81
209.668	310.07
210.137	352.46
210.606	293.1
211.075	352.46
211.543	293.1
212.012	290.27
212.481	346.81
212.95	315.72
213.418	420.25
213.887	298.76
214.355	338.33
214.824	445.66
215.292	349.64
215.76	256.33
216.229	420.25
216.697	417.43
217.165	352.46
217.633	349.64
218.101	338.33
218.569	261.99
219.037	242.18
219.505	329.86
219.973	264.81
220.441	440.01
220.909	380.72
221.377	312.89
221.844	397.66
222.312	369.42
222.78	321.37
223.247	304.41
223.715	298.76
224.182	295.93
224.65	293.1
225.117	312.89
225.584	321.37
226.052	346.81
226.519	335.51
226.986	383.54
227.453	298.76
227.92	375.07
228.387	349.64
228.854	293.1
229.321	343.99
229.788	363.77
230.255	335.51
230.722	298.76
231.189	423.07
231.655	341.16
232.122	318.55
232.589	372.24
233.055	261.99
233.522	397.66
233.988	375.07
234.454	278.96
234.921	293.1
235.387	363.77
235.853	312.89
236.32	346.81
236.786	315.72
237.252	355.29
237.718	318.55
238.184	343.99
238.65	315.72
239.116	287.44
239.582	324.2
240.047	250.67
240.513	380.72
240.979	406.13
241.445	278.96
241.91	332.68
242.376	245.01
242.841	310.07
243.307	349.64
243.772	327.03
244.238	375.07
244.703	343.99
245.168	397.66
245.633	349.64
246.099	327.03
246.564	346.81
247.029	273.3
247.494	363.77
247.959	310.07
248.424	366.59
248.889	287.44
249.353	335.51
249.818	329.86
250.283	318.55
250.748	318.55
251.212	392.01
251.677	321.37
252.141	386.37
252.606	346.81
253.07	397.66
253.535	366.59
253.999	448.48
254.463	392.01
254.927	490.8
255.392	352.46
255.856	386.37
256.32	366.59
256.784	366.59
257.248	307.24
257.712	375.07
258.176	329.86
258.64	324.2
259.103	335.51
259.567	318.55
260.031	324.2
260.495	448.48
260.958	321.37
261.422	423.07
261.885	312.89
262.349	304.41
262.812	383.54
263.275	324.2
263.739	369.42
264.202	315.72
264.665	355.29
265.128	281.79
265.591	366.59
266.054	411.78
266.517	417.43
266.98	335.51
267.443	406.13
267.906	346.81
268.369	312.89
268.832	355.29
269.294	366.59
269.757	428.72
270.22	360.94
270.682	383.54
271.145	448.48
271.607	329.86
272.07	372.24
272.532	355.29
272.994	411.78
273.456	327.03
273.919	504.9
274.381	259.16
274.843	352.46
275.305	403.31
275.767	355.29
276.229	372.24
276.691	315.72
277.153	408.96
277.614	310.07
278.076	358.12
278.538	304.41
279	366.59
279.461	397.66
279.923	346.81
280.384	377.89
280.846	434.37
281.307	358.12
281.769	386.37
282.23	406.13
282.691	329.86
283.152	369.42
283.613	327.03
284.075	465.41
284.536	366.59
284.997	352.46
285.458	383.54
285.918	434.37
286.379	386.37
286.84	403.31
287.301	369.42
287.762	456.94
288.222	312.89
288.683	363.77
289.143	406.13
289.604	400.49
290.064	324.2
290.525	372.24
290.985	346.81
291.445	406.13
291.906	482.34
292.366	377.89
292.826	445.66
293.286	400.49
293.746	383.54
294.206	304.41
294.666	386.37
295.126	386.37
295.586	341.16
296.046	406.13
296.506	417.43
296.965	358.12
297.425	420.25
297.884	392.01
298.344	349.64
298.804	389.19
299.263	400.49
299.722	341.16
300.182	502.08
300.641	360.94
301.1	431.54
301.559	369.42
302.019	392.01
302.478	284.62
302.937	411.78
303.396	352.46
303.855	445.66
304.314	411.78
304.772	414.61
305.231	375.07
305.69	363.77
306.149	397.66
306.607	375.07
307.066	355.29
307.524	329.86
307.983	380.72
308.441	380.72
308.9	312.89
309.358	408.96
309.816	341.16
310.275	360.94
310.733	321.37
311.191	338.33
311.649	341.16
312.107	403.31
312.565	372.24
313.023	295.93
313.481	400.49
313.939	358.12
314.397	327.03
314.854	377.89
315.312	369.42
315.77	459.77
316.227	377.89
316.685	394.84
317.142	346.81
317.6	372.24
318.057	400.49
318.514	442.83
318.972	411.78
319.429	434.37
319.886	321.37
320.343	369.42
320.8	324.2
321.257	420.25
321.714	341.16
322.171	397.66
322.628	360.94
323.085	293.1
323.542	397.66
323.998	346.81
324.455	408.96
324.912	315.72
325.368	406.13
325.825	392.01
326.281	360.94
326.738	437.19
327.194	338.33
327.65	389.19
328.107	355.29
328.563	298.76
329.019	355.29
329.475	394.84
329.931	425.9
330.387	397.66
330.843	408.96
331.299	346.81
331.755	355.29
332.211	400.49
332.666	341.16
333.122	420.25
333.578	417.43
334.033	369.42
334.489	375.07
334.944	386.37
335.4	358.12
335.855	377.89
336.31	440.01
336.766	403.31
337.221	369.42
337.676	411.78
338.131	420.25
338.586	332.68
339.041	406.13
339.496	366.59
339.951	386.37
340.406	425.9
340.861	341.16
341.316	372.24
341.771	403.31
342.225	358.12
342.68	276.13
343.134	358.12
343.589	287.44
344.043	445.66
344.498	338.33
344.952	341.16
345.406	406.13
345.861	369.42
346.315	386.37
346.769	394.84
347.223	363.77
347.677	321.37
348.131	434.37
348.585	431.54
349.039	434.37
349.493	425.9
349.947	380.72
350.401	346.81
350.854	414.61
351.308	408.96
351.762	383.54
352.215	434.37
352.669	411.78
353.122	485.16
353.575	397.66
354.029	338.33
354.482	324.2
354.935	324.2
355.388	377.89
355.842	425.9
356.295	360.94
356.748	281.79
357.201	355.29
357.654	335.51
358.106	366.59
358.559	372.24
359.012	372.24
359.465	397.66
359.917	343.99
360.37	431.54
360.823	383.54
361.275	332.68
361.728	448.48
362.18	420.25
362.632	380.72
363.085	304.41
363.537	278.96
363.989	355.29
364.441	369.42
364.893	411.78
365.345	411.78
365.797	327.03
366.249	403.31
366.701	445.66
367.153	352.46
367.605	301.58
368.057	468.23
368.508	343.99
368.96	358.12
369.411	290.27
369.863	400.49
370.314	408.96
370.766	408.96
371.217	349.64
371.669	355.29
372.12	386.37
372.571	431.54
373.022	425.9
373.473	377.89
373.924	375.07
374.375	380.72
374.826	442.83
375.277	372.24
375.728	425.9
376.179	307.24
376.63	383.54
377.08	329.86
377.531	428.72
377.981	372.24
378.432	414.61
378.883	349.64
379.333	352.46
379.783	440.01
380.234	389.19
380.684	434.37
381.134	434.37
381.584	335.51
382.034	338.33
382.485	386.37
382.935	420.25
383.385	425.9
383.834	406.13
384.284	451.3
384.734	403.31
385.184	408.96
385.634	372.24
386.083	428.72
386.533	338.33
386.982	411.78
387.432	420.25
387.881	315.72
388.331	423.07
388.78	338.33
389.229	420.25
389.679	437.19
390.128	366.59
390.577	346.81
391.026	434.37
391.475	352.46
391.924	389.19
392.373	403.31
392.822	411.78
393.27	392.01
393.719	397.66
394.168	431.54
394.617	372.24
395.065	397.66
395.514	372.24
395.962	346.81
396.411	386.37
396.859	343.99
397.307	375.07
397.756	383.54
398.204	383.54
398.652	386.37
399.1	397.66
399.548	352.46
399.996	310.07
400.444	400.49
400.892	318.55
401.34	324.2
401.788	295.93
402.236	363.77
402.683	403.31
403.131	386.37
403.579	434.37
404.026	459.77
404.474	437.19
404.921	394.84
405.369	386.37
405.816	324.2
406.263	304.41
406.71	411.78
407.158	456.94
407.605	397.66
408.052	377.89
408.499	417.43
408.946	465.41
409.393	375.07
409.84	346.81
410.286	448.48
410.733	338.33
411.18	341.16
411.626	358.12
412.073	417.43
412.52	383.54
412.966	327.03
413.413	346.81
413.859	293.1
414.305	343.99
414.752	423.07
415.198	377.89
415.644	428.72
416.09	394.84
416.536	437.19
416.982	375.07
417.428	454.12
417.874	451.3
418.32	400.49
418.766	383.54
419.211	392.01
419.657	437.19
420.103	332.68
420.548	420.25
420.994	411.78
421.439	383.54
421.885	394.84
422.33	408.96
422.776	459.77
423.221	369.42
423.666	394.84
424.111	400.49
424.556	397.66
425.001	434.37
425.446	377.89
425.891	423.07
426.336	307.24
426.781	442.83
427.226	375.07
427.671	324.2
428.115	392.01
428.56	363.77
429.005	425.9
429.449	465.41
429.894	479.52
430.338	400.49
430.782	465.41
431.227	355.29
431.671	341.16
432.115	380.72
432.559	290.27
433.003	414.61
433.447	375.07
433.891	408.96
434.335	389.19
434.779	355.29
435.223	338.33
435.667	437.19
436.111	493.62
436.554	369.42
436.998	369.42
437.442	264.81
437.885	389.19
438.328	406.13
438.772	383.54
439.215	355.29
439.659	380.72
440.102	408.96
440.545	406.13
440.988	372.24
441.431	403.31
441.874	411.78
442.317	375.07
442.76	389.19
443.203	377.89
443.646	400.49
444.089	442.83
444.531	392.01
444.974	329.86
445.417	454.12
445.859	442.83
446.302	369.42
446.744	383.54
447.186	397.66
447.629	510.54
448.071	335.51
448.513	389.19
448.956	394.84
449.398	459.77
449.84	352.46
450.282	389.19
450.724	358.12
451.166	377.89
451.607	479.52
452.049	329.86
452.491	420.25
452.933	383.54
453.374	425.9
453.816	358.12
454.257	408.96
454.699	369.42
455.14	327.03
455.582	423.07
456.023	389.19
456.464	363.77
456.905	406.13
457.347	366.59
457.788	482.34
458.229	392.01
458.67	352.46
459.111	451.3
459.552	392.01
459.992	411.78
460.433	417.43
460.874	493.62
461.315	349.64
461.755	411.78
462.196	369.42
462.636	343.99
463.077	355.29
463.517	355.29
463.957	397.66
464.398	406.13
464.838	425.9
465.278	369.42
465.718	375.07
466.158	363.77
466.598	445.66
467.038	349.64
467.478	366.59
467.918	425.9
468.358	380.72
468.798	369.42
469.237	383.54
469.677	403.31
470.117	383.54
470.556	428.72
470.996	445.66
471.435	411.78
471.874	406.13
472.314	445.66
472.753	406.13
473.192	386.37
473.631	380.72
474.07	389.19
474.509	386.37
474.948	400.49
475.387	408.96
475.826	434.37
476.265	375.07
476.704	341.16
477.143	425.9
477.581	352.46
478.02	392.01
478.458	352.46
478.897	335.51
479.335	428.72
479.774	403.31
480.212	394.84
480.65	431.54
481.089	456.94
481.527	394.84
481.965	428.72
482.403	389.19
482.841	465.41
483.279	397.66
483.717	434.37
484.155	383.54
484.592	397.66
485.03	324.2
485.468	471.05
485.905	380.72
486.343	360.94
486.781	431.54
487.218	383.54
487.655	343.99
488.093	456.94
488.53	400.49
488.967	414.61
489.405	310.07
489.842	346.81
490.279	352.46
490.716	408.96
491.153	440.01
491.59	442.83
492.027	315.72
492.463	420.25
492.9	307.24
493.337	394.84
493.773	454.12
494.21	451.3
494.647	375.07
495.083	369.42
495.519	389.19
495.956	324.2
496.392	377.89
496.828	414.61
497.265	366.59
497.701	425.9
498.137	411.78
498.573	352.46
499.009	383.54
499.445	408.96
499.881	434.37
500.316	414.61
500.752	414.61
501.188	428.72
501.624	329.86
502.059	341.16
502.495	372.24
502.93	428.72
503.366	451.3
503.801	375.07
504.236	397.66
504.672	389.19
505.107	332.68
505.542	389.19
505.977	386.37
506.412	318.55
506.847	261.99
507.282	442.83
507.717	250.67
508.152	392.01
508.587	358.12
509.021	414.61
509.456	448.48
509.891	403.31
510.325	377.89
510.76	434.37
511.194	445.66
511.628	389.19
512.063	496.44
512.497	465.41
512.931	329.86
513.366	431.54
513.8	341.16
514.234	389.19
514.668	380.72
515.102	301.58
515.536	380.72
515.969	369.42
516.403	380.72
516.837	394.84
517.271	406.13
517.704	366.59
518.138	366.59
518.571	400.49
519.005	440.01
519.438	383.54
519.871	363.77
520.305	397.66
520.738	397.66
521.171	428.72
521.604	355.29
522.037	369.42
522.47	335.51
522.903	476.69
523.336	327.03
523.769	403.31
524.202	366.59
524.634	355.29
525.067	363.77
525.5	360.94
525.932	394.84
526.365	425.9
526.797	290.27
527.23	431.54
527.662	377.89
528.094	310.07
528.527	310.07
528.959	423.07
529.391	358.12
529.823	386.37
530.255	307.24
530.687	442.83
531.119	425.9
531.551	389.19
531.982	459.77
532.414	403.31
532.846	392.01
533.277	349.64
533.709	425.9
534.14	434.37
534.572	400.49
535.003	377.89
535.435	400.49
535.866	411.78
536.297	414.61
536.728	431.54
537.159	307.24
537.59	352.46
538.022	392.01
538.452	338.33
538.883	420.25
539.314	358.12
539.745	369.42
540.176	423.07
540.606	366.59
541.037	358.12
541.468	400.49
541.898	451.3
542.328	352.46
542.759	312.89
543.189	473.87
543.619	465.41
544.05	400.49
544.48	363.77
544.91	372.24
545.34	406.13
545.77	431.54
546.2	425.9
546.63	414.61
547.06	355.29
547.489	423.07
547.919	386.37
548.349	417.43
548.778	473.87
549.208	380.72
549.637	403.31
550.067	329.86
550.496	417.43
550.926	360.94
551.355	332.68
551.784	343.99
552.213	397.66
552.642	360.94
553.071	372.24
553.5	363.77
553.929	408.96
554.358	476.69
554.787	366.59
555.216	360.94
555.645	425.9
556.073	437.19
556.502	403.31
556.93	476.69
557.359	355.29
557.787	366.59
558.216	389.19
558.644	321.37
559.072	425.9
559.5	352.46
559.929	380.72
560.357	312.89
560.785	369.42
561.213	332.68
561.641	341.16
562.068	456.94
562.496	321.37
562.924	428.72
563.352	375.07
563.779	454.12
564.207	312.89
564.634	273.3
565.062	456.94
565.489	465.41
565.917	392.01
566.344	343.99
566.771	397.66
567.198	420.25
567.625	392.01
568.053	270.47
568.48	363.77
568.907	358.12
569.333	352.46
569.76	338.33
570.187	332.68
570.614	386.37
571.04	985.58
571.467	386.37
571.894	338.33
572.32	375.07
572.747	380.72
573.173	358.12
573.599	369.42
574.026	327.03
574.452	301.58
574.878	445.66
575.304	242.18
575.73	327.03
576.156	372.24
576.582	355.29
577.008	408.96
577.434	363.77
577.86	406.13
578.285	360.94
578.711	397.66
579.137	397.66
579.562	363.77
579.988	406.13
580.413	343.99
580.838	414.61
581.264	386.37
581.689	425.9
582.114	434.37
582.539	482.34
582.964	389.19
583.39	346.81
583.814	349.64
584.239	341.16
584.664	355.29
585.089	459.77
585.514	468.23
585.939	406.13
586.363	329.86
586.788	375.07
587.212	276.13
587.637	408.96
588.061	349.64
588.485	341.16
588.91	454.12
589.334	465.41
589.758	380.72
590.182	377.89
590.606	431.54
591.03	375.07
591.454	341.16
591.878	389.19
592.302	341.16
592.726	375.07
593.15	414.61
593.573	392.01
593.997	363.77
594.42	358.12
594.844	380.72
595.267	377.89
595.691	400.49
596.114	403.31
596.537	343.99
596.96	372.24
597.384	420.25
597.807	403.31
598.23	327.03
598.653	307.24
599.076	400.49
599.499	380.72
599.921	247.84
600.344	355.29
600.767	358.12
601.189	459.77
601.612	451.3
602.034	451.3
602.457	363.77
602.879	355.29
603.302	360.94
603.724	304.41
604.146	406.13
604.568	414.61
604.991	329.86
605.413	394.84
605.835	417.43
606.257	377.89
606.678	389.19
607.1	454.12
607.522	360.94
607.944	417.43
608.365	375.07
608.787	369.42
609.209	397.66
609.63	394.84
610.051	417.43
610.473	392.01
610.894	377.89
611.315	425.9
611.737	411.78
612.158	400.49
612.579	360.94
613	431.54
613.421	411.78
613.842	324.2
614.263	420.25
614.683	315.72
615.104	392.01
615.525	425.9
615.945	411.78
616.366	352.46
616.787	355.29
617.207	389.19
617.627	327.03
618.048	369.42
618.468	375.07
618.888	487.98
619.308	392.01
619.728	389.19
620.148	310.07
620.568	380.72
620.988	431.54
621.408	372.24
621.828	392.01
622.248	335.51
622.668	383.54
623.087	369.42
623.507	360.94
623.926	389.19
624.346	406.13
624.765	423.07
625.185	343.99
625.604	332.68
626.023	341.16
626.442	304.41
626.861	397.66
627.28	386.37
627.699	392.01
628.118	386.37
628.537	293.1
628.956	459.77
629.375	369.42
629.794	406.13
630.212	324.2
630.631	366.59
631.049	372.24
631.468	332.68
631.886	451.3
632.305	451.3
632.723	335.51
633.141	400.49
633.559	346.81
633.978	389.19
634.396	507.72
634.814	400.49
635.232	448.48
635.65	456.94
636.067	346.81
636.485	338.33
636.903	448.48
637.321	462.59
637.738	442.83
638.156	417.43
638.573	389.19
638.991	372.24
639.408	360.94
639.825	454.12
640.243	406.13
640.66	431.54
641.077	377.89
641.494	406.13
641.911	431.54
642.328	321.37
642.745	290.27
643.162	375.07
643.579	366.59
643.995	352.46
644.412	363.77
644.829	355.29
645.245	352.46
645.662	437.19
646.078	375.07
646.495	380.72
646.911	408.96
647.327	448.48
647.743	355.29
648.159	341.16
648.576	383.54
648.992	425.9
649.408	372.24
649.824	363.77
650.239	358.12
650.655	327.03
651.071	417.43
651.487	428.72
651.902	392.01
652.318	372.24
652.733	349.64
653.149	377.89
653.564	338.33
653.979	394.84
654.395	428.72
654.81	389.19
655.225	346.81
655.64	343.99
656.055	355.29
656.47	310.07
656.885	442.83
657.3	394.84
657.715	414.61
658.13	431.54
658.544	386.37
658.959	375.07
659.374	338.33
659.788	349.64
660.202	386.37
660.617	380.72
661.031	346.81
661.445	338.33
661.86	428.72
662.274	408.96
662.688	394.84
663.102	281.79
663.516	366.59
663.93	321.37
664.344	290.27
664.758	321.37
665.171	383.54
665.585	397.66
665.999	425.9
666.412	411.78
666.826	375.07
667.239	417.43
667.653	341.16
668.066	434.37
668.479	363.77
668.892	487.98
669.306	428.72
669.719	392.01
670.132	324.2
670.545	465.41
670.958	335.51
671.37	400.49
671.783	360.94
672.196	372.24
672.609	425.9
673.021	400.49
673.434	403.31
673.846	372.24
674.259	411.78
674.671	411.78
675.084	408.96
675.496	355.29
675.908	440.01
676.32	346.81
676.732	392.01
677.144	459.77
677.556	352.46
677.968	383.54
678.38	355.29
678.792	400.49
679.204	310.07
679.615	431.54
680.027	372.24
680.439	318.55
680.85	386.37
681.262	414.61
681.673	431.54
682.084	400.49
682.496	369.42
682.907	324.2
683.318	360.94
683.729	408.96
684.14	352.46
684.551	451.3
684.962	377.89
685.373	343.99
685.784	273.3
686.194	290.27
686.605	321.37
687.016	369.42
687.426	397.66
687.837	392.01
688.247	400.49
688.657	369.42
689.068	400.49
689.478	369.42
689.888	349.64
690.298	392.01
690.708	383.54
691.118	414.61
691.528	327.03
691.938	445.66
692.348	332.68
692.758	355.29
693.168	332.68
693.577	327.03
693.987	414.61
694.396	380.72
694.806	352.46
695.215	363.77
695.625	383.54
696.034	389.19
696.443	423.07
696.852	386.37
697.262	397.66
697.671	377.89
698.08	363.77
698.489	420.25
698.897	312.89
699.306	329.86
699.715	369.42
700.124	369.42
700.532	346.81
700.941	411.78
701.35	454.12
701.758	468.23
702.166	406.13
702.575	321.37
702.983	408.96
703.391	386.37
703.799	465.41
704.208	400.49
704.616	403.31
705.024	403.31
705.432	380.72
705.839	375.07
706.247	380.72
706.655	372.24
707.063	383.54
707.47	428.72
707.878	408.96
708.285	428.72
708.693	400.49
709.1	372.24
709.508	355.29
709.915	307.24
710.322	355.29
710.729	431.54
711.136	411.78
711.543	403.31
711.95	459.77
712.357	397.66
712.764	448.48
713.171	459.77
713.578	366.59
713.984	423.07
714.391	397.66
714.797	423.07
715.204	428.72
715.61	380.72
716.017	386.37
716.423	358.12
716.829	352.46
717.236	338.33
717.642	411.78
718.048	408.96
718.454	411.78
718.86	403.31
719.266	377.89
719.671	358.12
720.077	335.51
720.483	375.07
720.889	377.89
721.294	425.9
721.7	349.64
722.105	338.33
722.511	425.9
722.916	397.66
723.321	434.37
723.726	372.24
724.132	355.29
724.537	343.99
724.942	335.51
725.347	369.42
725.752	400.49
726.156	431.54
726.561	352.46
726.966	417.43
727.371	434.37
727.775	352.46
728.18	414.61
728.584	408.96
728.989	406.13
729.393	414.61
729.798	352.46
730.202	304.41
730.606	386.37
731.01	377.89
731.414	440.01
731.818	375.07
732.222	445.66
732.626	358.12
733.03	301.58
733.434	394.84
733.837	301.58
734.241	408.96
734.645	236.52
735.048	434.37
735.452	343.99
735.855	411.78
736.258	448.48
736.662	462.59
737.065	358.12
737.468	380.72
737.871	341.16
738.274	406.13
738.677	417.43
739.08	349.64
739.483	366.59
739.886	403.31
740.289	338.33
740.691	360.94
741.094	349.64
741.497	403.31
741.899	343.99
742.302	355.29
742.704	338.33
743.106	355.29
743.508	372.24
743.911	408.96
744.313	437.19
744.715	343.99
745.117	352.46
745.519	423.07
745.921	363.77
746.323	327.03
746.724	375.07
747.126	346.81
747.528	369.42
747.929	465.41
748.331	411.78
748.732	425.9
749.134	406.13
749.535	377.89
749.936	335.51
750.338	380.72
750.739	468.23
751.14	400.49
751.541	301.58
751.942	440.01
752.343	434.37
752.744	352.46
753.144	431.54
753.545	423.07
753.946	383.54
754.346	397.66
754.747	380.72
755.148	397.66
755.548	380.72
755.948	400.49
756.349	437.19
756.749	417.43
757.149	386.37
757.549	406.13
757.949	375.07
758.349	383.54
758.749	507.72
759.149	369.42
759.549	349.64
759.949	386.37
760.348	360.94
760.748	389.19
761.148	394.84
761.547	366.59
761.947	386.37
762.346	360.94
762.745	375.07
763.145	372.24
763.544	431.54
763.943	375.07
764.342	411.78
764.741	375.07
765.14	389.19
765.539	301.58
765.938	301.58
766.336	358.12
766.735	295.93
767.134	386.37
767.532	338.33
767.931	400.49
768.329	394.84
768.728	386.37
769.126	392.01
769.525	355.29
769.923	386.37
770.321	456.94
770.719	380.72
771.117	417.43
771.515	335.51
771.913	408.96
772.311	408.96
772.709	327.03
773.106	321.37
773.504	394.84
773.902	414.61
774.299	386.37
774.697	366.59
775.094	375.07
775.491	366.59
775.889	343.99
776.286	471.05
776.683	380.72
777.08	397.66
777.477	284.62
777.874	341.16
778.271	343.99
778.668	360.94
779.065	408.96
779.462	408.96
779.858	465.41
780.255	318.55
780.652	377.89
781.048	397.66
781.444	380.72
781.841	312.89
782.237	352.46
782.633	392.01
783.03	403.31
783.426	445.66
783.822	366.59
784.218	403.31
784.614	360.94
785.01	423.07
785.405	329.86
785.801	324.2
786.197	366.59
786.593	400.49
786.988	414.61
787.384	431.54
787.779	372.24
788.174	369.42
788.57	431.54
788.965	383.54
789.36	425.9
789.755	270.47
790.15	355.29
790.545	386.37
790.94	360.94
791.335	349.64
791.73	394.84
792.125	369.42
792.52	375.07
792.914	428.72
793.309	343.99
793.703	383.54
794.098	321.37
794.492	369.42
794.887	394.84
795.281	425.9
795.675	360.94
796.069	414.61
796.463	377.89
796.857	349.64
797.251	349.64
797.645	394.84
798.039	372.24
798.433	397.66
798.826	377.89
799.22	355.29
799.614	281.79
800.007	423.07
800.401	375.07
800.794	380.72
801.187	363.77
801.581	360.94
801.974	375.07
802.367	454.12
802.76	434.37
803.153	386.37
803.546	304.41
803.939	431.54
804.332	471.05
804.725	324.2
805.117	363.77
805.51	406.13
805.903	437.19
806.295	423.07
806.688	383.54
807.08	431.54
807.472	389.19
807.865	445.66
808.257	408.96
808.649	406.13
809.041	471.05
809.433	403.31
809.825	358.12
810.217	465.41
810.609	366.59
811.001	406.13
811.392	355.29
811.784	293.1
812.175	329.86
812.567	335.51
812.958	411.78
813.35	312.89
813.741	315.72
814.132	346.81
814.524	338.33
814.915	414.61
815.306	394.84
815.697	332.68
816.088	473.87
816.479	389.19
816.87	394.84
817.26	377.89
817.651	420.25
818.042	434.37
818.432	369.42
818.823	355.29
819.213	363.77
819.604	369.42
819.994	437.19
820.384	445.66
820.775	363.77
821.165	363.77
821.555	366.59
821.945	377.89
822.335	437.19
822.725	420.25
823.114	414.61
823.504	448.48
823.894	301.58
824.284	377.89
824.673	312.89
825.063	332.68
825.452	310.07
825.842	343.99
826.231	471.05
826.62	400.49
827.009	397.66
827.399	471.05
827.788	358.12
828.177	349.64
828.566	363.77
828.954	335.51
829.343	400.49
829.732	287.44
830.121	394.84
830.509	437.19
830.898	411.78
831.286	403.31
831.675	341.16
832.063	281.79
832.452	389.19
832.84	375.07
833.228	327.03
833.616	408.96
834.004	406.13
834.392	363.77
834.78	386.37
835.168	428.72
835.556	392.01
835.944	383.54
836.331	408.96
836.719	363.77
837.107	343.99
837.494	394.84
837.881	411.78
838.269	358.12
838.656	459.77
839.043	397.66
839.431	372.24
839.818	403.31
840.205	253.5
840.592	411.78
840.979	375.07
841.366	349.64
841.752	451.3
842.139	312.89
842.526	352.46
842.912	352.46
843.299	349.64
843.685	372.24
844.072	332.68
844.458	397.66
844.844	397.66
845.231	411.78
845.617	332.68
846.003	408.96
846.389	380.72
846.775	420.25
847.161	392.01
847.547	414.61
847.933	380.72
848.318	394.84
848.704	335.51
849.09	377.89
849.475	366.59
849.861	423.07
850.246	332.68
850.631	332.68
851.017	408.96
851.402	375.07
851.787	324.2
852.172	476.69
852.557	324.2
852.942	329.86
853.327	375.07
853.712	428.72
854.097	358.12
854.481	440.01
854.866	408.96
855.25	290.27
855.635	411.78
856.019	315.72
856.404	377.89
856.788	346.81
857.172	383.54
857.557	397.66
857.941	468.23
858.325	420.25
858.709	428.72
859.093	338.33
859.477	414.61
859.86	335.51
860.244	363.77
860.628	349.64
861.012	479.52
861.395	310.07
861.779	338.33
862.162	335.51
862.545	411.78
862.929	295.93
863.312	442.83
863.695	417.43
864.078	389.19
864.461	386.37
864.844	352.46
865.227	363.77
865.61	406.13
865.993	369.42
866.376	352.46
866.758	307.24
867.141	521.82
867.523	389.19
867.906	389.19
868.288	380.72
868.671	329.86
869.053	335.51
869.435	375.07
869.817	459.77
870.199	349.64
870.581	397.66
870.963	383.54
871.345	375.07
871.727	366.59
872.109	355.29
872.491	358.12
872.872	462.59
873.254	397.66
873.635	358.12
874.017	420.25
874.398	389.19
874.779	349.64
875.161	363.77
875.542	321.37
875.923	358.12
876.304	425.9
876.685	411.78
877.066	324.2
877.447	420.25
877.828	321.37
878.208	355.29
878.589	392.01
878.97	372.24
879.35	358.12
879.731	476.69
880.111	324.2
880.491	445.66
880.872	355.29
881.252	332.68
881.632	346.81
882.012	270.47
882.392	363.77
882.772	380.72
883.152	403.31
883.532	360.94
883.912	383.54
884.291	482.34
884.671	423.07
885.051	327.03
885.43	293.1
885.81	298.76
886.189	406.13
886.568	318.55
886.948	434.37
887.327	389.19
887.706	363.77
888.085	389.19
888.464	369.42
888.843	397.66
889.222	425.9
889.601	397.66
889.979	408.96
890.358	343.99
890.737	380.72
891.115	451.3
891.494	392.01
891.872	375.07
892.25	380.72
892.629	473.87
893.007	434.37
893.385	315.72
893.763	324.2
894.141	417.43
894.519	349.64
894.897	454.12
895.275	417.43
895.653	366.59
896.03	394.84
896.408	372.24
896.786	454.12
897.163	394.84
897.541	386.37
897.918	445.66
898.295	360.94
898.673	352.46
899.05	423.07
899.427	363.77
899.804	318.55
900.181	400.49
900.558	358.12
900.935	380.72
901.312	380.72
901.688	392.01
902.065	369.42
902.442	411.78
902.818	360.94
903.195	389.19
903.571	360.94
903.947	400.49
904.324	352.46
904.7	327.03
905.076	482.34
905.452	327.03
905.828	442.83
906.204	392.01
906.58	406.13
906.956	383.54
907.331	349.64
907.707	397.66
908.083	394.84
908.458	406.13
908.834	366.59
909.209	502.08
909.585	363.77
909.96	473.87
910.335	383.54
910.71	397.66
911.086	324.2
911.461	397.66
911.836	355.29
912.21	321.37
912.585	358.12
912.96	372.24
913.335	375.07
913.709	352.46
914.084	341.16
914.459	338.33
914.833	315.72
915.207	375.07
915.582	425.9
915.956	352.46
916.33	372.24
916.704	372.24
917.078	369.42
917.452	423.07
917.826	386.37
918.2	321.37
918.574	389.19
918.948	406.13
919.321	324.2
919.695	329.86
920.068	301.58
920.442	375.07
920.815	400.49
921.189	377.89
921.562	335.51
921.935	321.37
922.308	375.07
922.681	352.46
923.054	442.83
923.427	360.94
923.8	358.12
924.173	386.37
924.546	341.16
924.919	380.72
925.291	389.19
925.664	400.49
926.036	375.07
926.409	363.77
926.781	360.94
927.153	363.77
927.526	386.37
927.898	346.81
928.27	403.31
928.642	423.07
929.014	380.72
929.386	341.16
929.758	479.52
930.129	394.84
930.501	369.42
930.873	366.59
931.244	369.42
931.616	510.54
931.987	332.68
932.359	394.84
932.73	408.96
933.101	406.13
933.472	312.89
933.843	403.31
934.214	343.99
934.585	335.51
934.956	377.89
935.327	338.33
935.698	406.13
936.069	403.31
936.439	377.89
936.81	403.31
937.18	417.43
937.551	389.19
937.921	519
938.292	346.81
938.662	400.49
939.032	406.13
939.402	425.9
939.772	332.68
940.142	394.84
940.512	335.51
940.882	338.33
941.252	423.07
941.621	369.42
941.991	411.78
942.361	400.49
942.73	428.72
943.1	363.77
943.469	400.49
943.838	380.72
944.208	408.96
944.577	434.37
944.946	425.9
945.315	425.9
945.684	473.87
946.053	346.81
946.422	369.42
946.791	372.24
947.159	383.54
947.528	315.72
947.897	315.72
948.265	428.72
948.634	372.24
949.002	343.99
949.371	445.66
949.739	338.33
950.107	332.68
950.475	327.03
950.843	324.2
951.211	358.12
951.579	473.87
951.947	335.51
952.315	383.54
952.683	327.03
953.05	428.72
953.418	366.59
953.785	332.68
954.153	394.84
954.52	428.72
954.888	462.59
955.255	403.31
955.622	380.72
955.989	327.03
956.356	315.72
956.723	406.13
957.09	321.37
957.457	321.37
957.824	338.33
958.191	349.64
958.557	445.66
958.924	425.9
959.291	329.86
959.657	338.33
960.023	394.84
960.39	358.12
960.756	360.94
961.122	414.61
961.488	479.52
961.855	400.49
962.221	440.01
962.586	377.89
962.952	377.89
963.318	414.61
963.684	425.9
964.05	383.54
964.415	346.81
964.781	369.42
965.146	287.44
965.512	332.68
965.877	394.84
966.242	366.59
966.608	394.84
966.973	459.77
967.338	329.86
967.703	355.29
968.068	403.31
968.433	423.07
968.797	417.43
969.162	380.72
969.527	386.37
969.891	456.94
970.256	369.42
970.62	428.72
970.985	372.24
971.349	392.01
971.714	375.07
972.078	298.76
972.442	338.33
972.806	327.03
973.17	343.99
973.534	318.55
973.898	358.12
974.262	417.43
974.625	389.19
974.989	369.42
975.353	267.64
975.716	389.19
976.08	349.64
976.443	358.12
976.806	355.29
977.17	327.03
977.533	380.72
977.896	411.78
978.259	349.64
978.622	352.46
978.985	400.49
979.348	360.94
979.711	408.96
980.073	332.68
980.436	425.9
980.799	499.26
981.161	360.94
981.524	420.25
981.886	335.51
982.248	389.19
982.611	392.01
982.973	406.13
983.335	403.31
983.697	394.84
984.059	346.81
984.421	338.33
984.783	349.64
985.145	394.84
985.506	406.13
985.868	440.01
986.23	372.24
986.591	310.07
986.953	327.03
987.314	428.72
987.675	338.33
988.037	800.42
988.398	380.72
988.759	406.13
989.12	434.37
989.481	355.29
989.842	400.49
990.203	377.89
990.564	389.19
990.924	380.72
991.285	713.29
991.646	414.61
992.006	380.72
992.367	403.31
992.727	327.03
993.087	425.9
993.448	383.54
993.808	406.13
994.168	428.72
994.528	310.07
994.888	338.33
995.248	473.87
995.608	456.94
995.967	338.33
996.327	414.61
996.687	473.87
997.046	321.37
997.406	341.16
997.765	366.59
998.125	383.54
998.484	372.24
998.843	420.25
999.202	437.19
999.561	363.77
999.92	338.33
1000.279	423.07
1000.638	392.01
1000.997	349.64
1001.356	471.05
1001.715	372.24
1002.073	392.01
1002.432	321.37
1002.79	406.13
1003.149	383.54
1003.507	349.64
1003.865	372.24
1004.224	380.72
1004.582	445.66
1004.94	400.49
1005.298	400.49
1005.656	389.19
1006.014	366.59
1006.371	420.25
1006.729	369.42
1007.087	437.19
1007.445	375.07
1007.802	408.96
1008.16	307.24
1008.517	434.37
1008.874	394.84
1009.232	420.25
1009.589	346.81
1009.946	392.01
1010.303	341.16
1010.66	360.94
1011.017	301.58
1011.374	445.66
1011.731	406.13
1012.087	425.9
1012.444	332.68
1012.801	468.23
1013.157	363.77
1013.513	394.84
1013.87	360.94
1014.226	437.19
1014.582	431.54
1014.939	386.37
1015.295	406.13
1015.651	343.99
1016.007	434.37
1016.363	403.31
1016.719	375.07
1017.074	327.03
1017.43	329.86
1017.786	437.19
1018.141	338.33
1018.497	425.9
1018.852	406.13
1019.208	403.31
1019.563	360.94
1019.918	417.43
1020.273	372.24
1020.628	287.44
1020.983	434.37
1021.338	400.49
1021.693	423.07
1022.048	366.59
1022.403	341.16
1022.757	386.37
1023.112	392.01
1023.467	346.81
1023.821	346.81
1024.175	403.31
1024.53	414.61
1024.884	355.29
1025.238	423.07
1025.592	479.52
1025.946	327.03
1026.3	411.78
1026.654	459.77
1027.008	414.61
1027.362	448.48
1027.716	394.84
1028.069	335.51
1028.423	377.89
1028.777	377.89
1029.13	332.68
1029.483	383.54
1029.837	417.43
1030.19	358.12
1030.543	346.81
1030.896	397.66
1031.249	400.49
1031.602	298.76
1031.955	327.03
1032.308	315.72
1032.661	352.46
1033.013	307.24
1033.366	307.24
1033.719	411.78
1034.071	315.72
1034.424	375.07
1034.776	448.48
1035.128	352.46
1035.48	369.42
1035.833	406.13
1036.185	431.54
1036.537	431.54
1036.889	431.54
