Data from BCF12_new_2_FLMS019251_16-25-40-941.txt Node
Date: Wed Jun 12 16:25:40 CEST 2019
User: luk
Spectrometer: FLMS01925
Trigger mode: 0
Integration Time (sec): 2.084000E-2
Scans to average: 10
Electric dark correction enabled: true
Nonlinearity correction enabled: true
Boxcar width: 0
XAxis mode: Wavelengths
Number of Pixels in Spectrum: 2048
>>>>>Begin Spectral Data<<<<<
187.103	-75.85
187.574	-75.85
188.045	-75.85
188.516	-130.15
188.987	-116.22
189.458	-105.98
189.929	-146.08
190.4	-112.52
190.871	-76.7
191.342	-80.39
191.813	-59.93
192.284	-42.32
192.754	-2.27
193.225	3.41
193.696	36.05
194.166	51.66
194.637	67.83
195.107	84.56
195.578	96.75
196.048	119.43
196.518	165.62
196.989	149.76
197.459	194.51
197.929	230.75
198.399	274.61
198.869	272.35
199.339	306
199.809	291.01
200.279	332.01
200.749	328.9
201.219	356.6
201.689	343.03
202.159	365.07
202.628	369.59
203.098	376.37
203.568	371.85
204.037	378.35
204.507	403.77
204.976	384.28
205.445	400.66
205.915	387.11
206.384	422.4
206.853	387.95
207.323	408.57
207.792	387.11
208.261	403.77
208.73	378.07
209.199	391.63
209.668	406.59
210.137	393.04
210.606	389.93
211.075	376.37
211.543	394.17
212.012	406.88
212.481	404.9
212.95	378.35
213.418	380.05
213.887	380.61
214.355	372.42
214.824	368.46
215.292	378.35
215.76	343.03
216.229	350.95
216.697	380.33
217.165	343.6
217.633	350.1
218.101	368.46
218.569	374.4
219.037	363.66
219.505	358.01
219.973	345.58
220.441	350.95
220.909	357.44
221.377	387.11
221.844	380.05
222.312	371.01
222.78	371.85
223.247	348.4
223.715	411.39
224.182	335.4
224.65	371.85
225.117	338.51
225.584	345.01
226.052	354.05
226.519	372.14
226.986	345.29
227.453	374.96
227.92	352.08
228.387	367.05
228.854	345.86
229.321	368.18
229.788	379.2
230.255	367.05
230.722	380.89
231.189	377.79
231.655	366.77
232.122	348.12
232.589	385.13
233.055	375.53
233.522	384
233.988	364.51
234.454	371.85
234.921	363.94
235.387	360.84
235.853	365.92
236.32	376.37
236.786	394.45
237.252	372.98
237.718	385.69
238.184	391.06
238.65	371.29
239.116	365.07
239.582	395.02
240.047	387.11
240.513	367.33
240.979	397.27
241.445	368.46
241.91	366.77
242.376	373.27
242.841	367.62
243.307	375.81
243.772	385.98
244.238	354.34
244.703	371.85
245.168	376.37
245.633	376.37
246.099	380.89
246.564	356.31
247.029	391.63
247.494	357.16
247.959	392.19
248.424	364.79
248.889	389.65
249.353	370.72
249.818	384.57
250.283	407.16
250.748	380.61
251.212	382.31
251.677	396.43
252.141	385.69
252.606	380.33
253.07	388.24
253.535	387.95
253.999	393.89
254.463	369.03
254.927	383.44
255.392	398.12
255.856	380.05
256.32	368.75
256.784	372.98
257.248	400.38
257.712	398.12
258.176	385.98
258.64	375.24
259.103	403.49
259.567	442.16
260.031	369.31
260.495	380.05
260.958	368.46
261.422	398.12
261.885	385.69
262.349	359.14
262.812	408.57
263.275	407.44
263.739	381.74
264.202	397.56
264.665	382.87
265.128	379.48
265.591	410.26
266.054	404.05
266.517	382.31
266.98	372.98
267.443	392.47
267.906	399.25
268.369	386.26
268.832	396.14
269.294	387.11
269.757	380.89
270.22	353.77
270.682	402.36
271.145	418.73
271.607	382.87
272.07	399.25
272.532	383.15
272.994	385.98
273.456	406.88
273.919	415.06
274.381	393.32
274.843	386.54
275.305	419.58
275.767	409.13
276.229	367.9
276.691	415.06
277.153	394.17
277.614	387.11
278.076	398.12
278.538	389.93
279	374.11
279.461	410.83
279.923	435.67
280.384	420.71
280.846	420.15
281.307	386.82
281.769	385.98
282.23	413.09
282.691	383.44
283.152	388.24
283.613	413.65
284.075	404.05
284.536	404.33
284.997	409.42
285.458	417.32
285.918	395.3
286.379	409.42
286.84	375.53
287.301	388.24
287.762	406.03
288.222	384
288.683	397.84
289.143	385.69
289.604	388.8
290.064	381.18
290.525	405.75
290.985	410.83
291.445	403.49
291.906	419.86
292.366	399.53
292.826	390.78
293.286	376.66
293.746	395.86
294.206	422.12
294.666	379.2
295.126	414.78
295.586	371.85
296.046	401.51
296.506	389.08
296.965	428.05
297.425	401.79
297.884	402.08
298.344	399.25
298.804	378.92
299.263	424.1
299.722	397.27
300.182	395.02
300.641	418.17
301.1	446.68
301.559	421.56
302.019	411.11
302.478	409.42
302.937	392.19
303.396	393.89
303.855	424.95
304.314	408.01
304.772	420.99
305.231	397.84
305.69	417.89
306.149	404.62
306.607	385.41
307.066	413.65
307.524	428.33
307.983	430.31
308.441	408.29
308.9	409.7
309.358	431.44
309.816	428.9
310.275	389.93
310.733	398.97
311.191	435.11
311.649	408.29
312.107	392.19
312.565	421.28
313.023	430.31
313.481	414.22
313.939	402.92
314.397	429.18
314.854	410.55
315.312	405.46
315.77	413.65
316.227	409.42
316.685	415.06
317.142	424.95
317.6	422.4
318.057	413.09
318.514	431.16
318.972	398.12
319.429	409.42
319.886	437.93
320.343	402.08
320.8	389.37
321.257	401.51
321.714	404.62
322.171	432
322.628	407.44
323.085	412.24
323.542	407.16
323.998	406.88
324.455	390.78
324.912	414.22
325.368	402.92
325.825	410.83
326.281	430.87
326.738	396.99
327.194	382.31
327.65	401.51
328.107	413.09
328.563	395.86
329.019	427.49
329.475	431.16
329.931	394.17
330.387	434.26
330.843	403.49
331.299	430.59
331.755	404.62
332.211	439.62
332.666	418.73
333.122	406.88
333.578	410.55
334.033	416.19
334.489	431.44
334.944	413.65
335.4	392.47
335.855	429.46
336.31	400.1
336.766	387.67
337.221	408.57
337.676	416.19
338.131	391.63
338.586	381.18
339.041	404.33
339.496	429.74
339.951	429.18
340.406	428.61
340.861	415.06
341.316	395.02
341.771	426.07
342.225	434.83
342.68	416.19
343.134	409.42
343.589	377.5
344.043	419.86
344.498	444.7
344.952	420.99
345.406	460.22
345.861	426.64
346.315	406.03
346.769	431.16
347.223	417.89
347.677	442.45
348.131	424.66
348.585	411.39
349.039	423.53
349.493	440.19
349.947	411.68
350.401	412.81
350.854	412.24
351.308	431.72
351.762	418.73
352.215	422.4
352.669	419.3
353.122	445.27
353.575	391.63
354.029	427.2
354.482	444.14
354.935	420.15
355.388	432.85
355.842	428.61
356.295	402.36
356.748	429.46
357.201	422.12
357.654	410.83
358.106	424.38
358.559	400.66
359.012	420.99
359.465	425.51
359.917	397.27
360.37	391.34
360.823	407.44
361.275	444.7
361.728	404.62
362.18	409.98
362.632	423.53
363.085	442.73
363.537	425.51
363.989	407.16
364.441	393.04
364.893	418.17
365.345	439.34
365.797	431.72
366.249	403.49
366.701	420.71
367.153	441.88
367.605	438.78
368.057	399.82
368.508	433.13
368.96	436.52
369.411	425.23
369.863	430.31
370.314	427.2
370.766	413.37
371.217	442.73
371.669	435.67
372.12	422.12
372.571	435.11
373.022	454.86
373.473	421.56
373.924	404.9
374.375	449.5
374.826	439.34
375.277	448.37
375.728	419.86
376.179	463.61
376.63	425.23
377.08	391.91
377.531	423.82
377.981	422.4
378.432	435.11
378.883	422.97
379.333	438.21
379.783	441.6
380.234	429.46
380.684	399.25
381.134	422.97
381.584	413.93
382.034	420.43
382.485	430.03
382.935	413.37
383.385	426.92
383.834	433.41
384.284	444.14
384.734	437.37
385.184	429.74
385.634	435.11
386.083	413.93
386.533	452.32
386.982	444.14
387.432	441.32
387.881	444.42
388.331	427.77
388.78	422.12
389.229	454.02
389.679	431.16
390.128	430.03
390.577	428.05
391.026	460.79
391.475	439.62
391.924	444.14
392.373	437.37
392.822	454.58
393.27	447.53
393.719	450.07
394.168	456.56
394.617	440.75
395.065	454.86
395.514	448.37
395.962	458.25
396.411	446.68
396.859	447.24
397.307	418.73
397.756	481.67
398.204	467
398.652	475.46
399.1	469.82
399.548	456.27
399.996	476.59
400.444	462.48
400.892	489.85
401.34	483.36
401.788	453.17
402.236	469.54
402.683	464.46
403.131	473.2
403.579	476.87
404.026	490.41
404.474	514.94
404.921	510.72
405.369	506.2
405.816	520.02
406.263	533.27
406.71	543.14
407.158	571.88
407.605	641.16
408.052	696.31
408.499	774.75
408.946	892.39
409.393	1079.57
409.84	1317.08
410.286	1581.12
410.733	1942.6
411.18	2381.2
411.626	2930.21
412.073	3516.98
412.52	4214.78
412.966	5028.02
413.413	5930.99
413.859	6909.4
414.305	7841.97
414.752	9112.08
415.198	10226.75
415.644	11440.46
416.09	12825.63
416.536	14008.42
416.982	15369.14
417.428	16710.66
417.874	18114.64
418.32	19500.59
418.766	20734.47
419.211	22496.68
419.657	23495.27
420.103	25202.41
420.548	25850.03
420.994	27520.28
421.439	28753.03
421.885	29637.15
422.33	31457.08
422.776	32224.86
423.221	33014.78
423.666	34339.3
424.111	35701.48
424.556	35842.94
425.001	37364.45
425.446	38592.07
425.891	39320.53
426.336	39886.99
426.781	40785.22
427.226	42842.2
427.671	42730.72
428.115	43127.6
428.56	44535.05
429.005	45681.8
429.449	45552.07
429.894	46583.26
430.338	47188.85
430.782	46590.63
431.227	47843.23
431.671	47920.98
432.115	48818.79
432.559	49486.55
433.003	48830.7
433.447	49699.89
433.891	49470.39
434.335	49324.75
434.779	49946.28
435.223	49632.72
435.667	49463.87
436.111	49857.17
436.554	49534.81
436.998	48654.79
437.442	48418.04
437.885	50556.02
438.328	48577.53
438.772	48779.45
439.215	49274
439.659	48618.61
440.102	49044.3
440.545	47965.92
440.988	47817.58
441.431	48499.3
441.874	48040.15
442.317	48273.73
442.76	47475.44
443.203	46839.78
443.646	47556.54
444.089	47242.44
444.531	47573.17
444.974	46487.79
445.417	47437.86
445.859	46443.12
446.302	47556.28
446.744	46924.79
447.186	48185.44
447.629	46898.82
448.071	46978.28
448.513	46978.79
448.956	48595.61
449.398	47531.21
449.84	46116.16
450.282	46870.06
450.724	47390.83
451.166	47080.46
451.607	47050.64
452.049	47103.66
452.491	48037.07
452.933	47689.93
453.374	48179.01
453.816	48779.19
454.257	48314.94
454.699	49406.53
455.14	49025.1
455.582	48707.01
456.023	48674.43
456.464	48755.12
456.905	49370.32
457.347	49506.64
457.788	48496.98
458.229	48690.72
458.67	49653.1
459.111	47728.11
459.552	47991.08
459.992	47650.23
460.433	47352.76
460.874	46394.41
461.315	47514.32
461.755	46696.33
462.196	46149.58
462.636	45106.11
463.077	44987.63
463.517	44928.04
463.957	45148.64
464.398	44921.51
464.838	44780.54
465.278	43745.93
465.718	44048
466.158	42832
466.598	43540.88
467.038	42912.4
467.478	43467.24
467.918	43806.41
468.358	42697.89
468.798	42488.29
469.237	42376.22
469.677	42320.58
470.117	43120.12
470.556	40599.75
470.996	41221.54
471.435	41294.53
471.874	42016.01
472.314	41721.2
472.753	40691.85
473.192	40859.83
473.631	40587.9
474.07	40750.88
474.509	40610.61
474.948	40903.82
475.387	40331.73
475.826	39466.43
476.265	40933.72
476.704	40417.84
477.143	41064.74
477.581	40714.82
478.02	41257.41
478.458	39910.65
478.897	40591.6
479.335	41728.88
479.774	41104.8
480.212	41288.59
480.65	41430.16
481.089	41202.25
481.527	40562.72
481.965	40184
482.403	42146.04
482.841	41637.7
483.279	41780.43
483.717	41719.21
484.155	41325.46
484.592	41806.95
485.03	42008.57
485.468	41044.71
485.905	41147.33
486.343	41657.27
486.781	41008.12
487.218	40557.53
487.655	40467.69
488.093	39538.05
488.53	41007.38
488.967	40104.11
489.405	40091.3
489.842	39249.2
490.279	39222.15
490.716	38955.15
491.153	39231.74
491.59	38632.34
492.027	37872.43
492.463	37544.5
492.9	36775.95
493.337	36804.58
493.773	36811.43
494.21	35915.03
494.647	35757.67
495.083	34895.67
495.519	34687
495.956	34586.71
496.392	33917.05
496.828	33819.24
497.265	33074.03
497.701	33153.76
498.137	32845.82
498.573	32087.35
499.009	32482.31
499.445	31703.84
499.881	31294.92
500.316	31350.52
500.752	30523.96
501.188	30328.05
501.624	30312.2
502.059	29051.82
502.495	29009.81
502.93	28763.54
503.366	28985.38
503.801	28414.29
504.236	28231.67
504.672	27579.51
505.107	27290.42
505.542	26853.72
505.977	26710.86
506.412	26271.53
506.847	26538.06
507.282	26057.87
507.717	25724.1
508.152	25699.3
508.587	25453
509.021	24736.27
509.456	24481.88
509.891	24535.53
510.325	24461.21
510.76	24117.53
511.194	23825.6
511.628	23825.6
512.063	23178.28
512.497	23463.21
512.931	22853.91
513.366	22605.66
513.8	22739.8
514.234	22009.05
514.668	21984.8
515.102	22150.55
515.536	21369.51
515.969	21472.32
516.403	21074.3
516.837	20725.79
517.271	20778.89
517.704	20408.53
518.138	20184.71
518.571	20168.31
519.005	19794.17
519.438	19654.62
519.871	19411.23
520.305	19004.26
520.738	18942.2
521.171	18497.33
521.604	18626.8
522.037	18418.22
522.47	18041.45
522.903	17741.57
523.336	17648.56
523.769	17568.29
524.202	17037.42
524.634	17076.74
525.067	16861.55
525.5	16727.96
525.932	16666.29
526.365	16248.84
526.797	16037.67
527.23	16168.75
527.662	15514.32
528.094	15347.75
528.527	15250.83
528.959	15217.6
529.391	14978.31
529.823	14463.59
530.255	14391.9
530.687	14087.79
531.119	13886.3
531.551	13846.59
531.982	13581.14
532.414	13364.6
532.846	13050.74
533.277	12924.38
533.709	12579.74
534.14	12526.11
534.572	12299.26
535.003	12207.65
535.435	12007.75
535.866	11811.76
536.297	11516.82
536.728	11572.47
537.159	11431.52
537.59	11173.14
538.022	10989.19
538.452	10833
538.883	10598.22
539.314	10611.04
539.745	10317.44
540.176	10131.39
540.606	9991.47
541.037	9871.27
541.468	9818.48
541.898	9700.48
542.328	9575.95
542.759	9354.76
543.189	9223
543.619	9161.73
544.05	9001.85
544.48	8815.65
544.91	8833.27
545.34	8658.79
545.77	8564.33
546.2	8408.77
546.63	8249.92
547.06	8226.25
547.489	8092.2
547.919	7835.19
548.349	7835.45
548.778	7906.66
549.208	7675.95
549.637	7533.25
550.067	7409.77
550.496	7382.29
550.926	7269.93
551.355	7063.29
551.784	7134.66
552.213	6979.28
552.642	6950.91
553.071	6899.94
553.5	6794.51
553.929	6611.05
554.358	6608.68
554.787	6480.31
555.216	6456.31
555.645	6299.79
556.073	6249.06
556.502	6108.13
556.93	6038.26
557.359	6033.23
557.787	5996.16
558.216	5886.99
558.644	5813.26
559.072	5730.73
559.5	5693.82
559.929	5676.02
560.357	5611.45
560.785	5475.82
561.213	5529.83
561.641	5400.74
562.068	5424.71
562.496	5311.22
562.924	5304.56
563.352	5255.23
563.779	5234.69
564.207	5200.54
564.634	5159.98
565.062	5145.03
565.489	5066.24
565.917	5032.57
566.344	4997.01
566.771	4991.93
567.198	4868.59
567.625	4901.25
568.053	4782.62
568.48	4759.3
568.907	4729.55
569.333	4594.61
569.76	4521.02
570.187	4497.1
570.614	4373.4
571.04	4741.88
571.467	4291.03
571.894	4256.82
572.32	4149.53
572.747	4092.6
573.173	4066.95
573.599	4019.16
574.026	3911.32
574.452	3889.95
574.878	3799.83
575.304	3731.03
575.73	3698.24
576.156	3613.63
576.582	3576.45
577.008	3454.49
577.434	3440.9
577.86	3348.96
578.285	3424.31
578.711	3281.72
579.137	3268.92
579.562	3148.44
579.988	3147.62
580.413	3048.82
580.838	3041.99
581.264	3008.94
581.689	2947.17
582.114	2928.3
582.539	2933.22
582.964	2873.31
583.39	2764.33
583.814	2781.31
584.239	2713.9
584.664	2697.72
585.089	2593.45
585.514	2574.5
585.939	2535.22
586.363	2565.98
586.788	2519.28
587.212	2494.27
587.637	2418.91
588.061	2446.97
588.485	2353.67
588.91	2355.05
589.334	2317.31
589.758	2319.79
590.182	2313.46
590.606	2228.55
591.03	2167.86
591.454	2191.04
591.878	2113.46
592.302	2147.43
592.726	2062.08
593.15	2086.39
593.573	1994.89
593.997	2017.29
594.42	1988.53
594.844	1942.32
595.267	1931.8
595.691	1927.37
596.114	1899.96
596.537	1865.61
596.96	1847.33
597.384	1860.07
597.807	1811.85
598.23	1789.39
598.653	1781.34
599.076	1763.59
599.499	1718.08
599.921	1727.8
600.344	1731.96
600.767	1720.03
601.189	1708.65
601.612	1693.38
602.034	1690.32
602.457	1672.27
602.879	1672.83
603.302	1647.83
603.724	1645.05
604.146	1604.48
604.568	1603.09
604.991	1601.98
605.413	1609.76
605.835	1603.64
606.257	1586.41
606.678	1580.01
607.1	1556.65
607.522	1556.93
607.944	1543.86
608.365	1582.79
608.787	1553.04
609.209	1520.76
609.63	1524.38
610.051	1547.47
610.473	1477.9
610.894	1486.25
611.315	1448.94
611.737	1441.7
612.158	1396.84
612.579	1393.21
613	1391.26
613.421	1360.59
613.842	1363.1
614.263	1296.15
614.683	1335.77
615.104	1280.8
615.525	1306.48
615.945	1282.76
616.366	1245.9
616.787	1238.92
617.207	1227.19
617.627	1207.08
618.048	1183.61
618.468	1212.39
618.888	1129.93
619.308	1165.72
619.728	1133.28
620.148	1120.7
620.568	1134.96
620.988	1105.87
621.408	1090.48
621.828	1104.75
622.248	1079.85
622.668	1077.89
623.087	1056.61
623.507	1059.13
623.926	1059.13
624.346	1051.86
624.765	1014.33
625.185	1004.53
625.604	1010.97
626.023	1000.6
626.442	966.14
626.861	980.15
627.28	951.28
627.699	939.23
628.118	947.92
628.537	939.51
628.956	921.28
629.375	902.21
629.794	896.32
630.212	898
630.631	876.11
631.049	874.43
631.468	896.04
631.886	875.83
632.305	877.8
632.723	862.08
633.141	838.22
633.559	842.15
633.978	847.49
634.396	823.06
634.814	818.85
635.232	842.71
635.65	847.21
636.067	789.64
636.485	794.13
636.903	795.82
637.321	818.57
637.738	782.89
638.156	824.46
638.573	781.49
638.991	751.42
639.408	757.88
639.825	750.58
640.243	756.48
640.66	758.45
641.077	756.76
641.494	730.05
641.911	733.15
642.328	741.3
642.745	721.34
643.162	722.74
643.579	709.81
643.995	702.78
644.412	707.28
644.829	706.43
645.245	674.37
645.662	693.78
646.078	659.45
646.495	663.39
646.911	675.49
647.327	668.18
647.743	698.56
648.159	665.36
648.576	650.45
648.992	666.49
649.408	670.99
649.824	661.42
650.239	612.44
650.655	671.55
651.071	643.41
651.487	650.45
651.902	631.87
652.318	670.71
652.733	639.47
653.149	627.08
653.564	594.7
653.979	607.37
654.395	619.48
654.81	595.54
655.225	620.04
655.64	629.62
656.055	610.47
656.47	604.84
656.885	600.33
657.3	585.4
657.715	598.64
658.13	593.29
658.544	587.09
658.959	609.91
659.374	591.04
659.788	611.88
660.202	597.8
660.617	544.54
661.031	591.32
661.445	584.56
661.86	576.67
662.274	585.12
662.688	567.37
663.102	572.44
663.516	564.84
663.93	568.78
664.344	562.58
664.758	547.08
665.171	586.81
665.585	591.04
665.999	561.74
666.412	541.16
666.826	543.14
667.239	533.83
667.653	535.81
668.066	544.83
668.479	537.5
668.892	533.55
669.306	549.05
669.719	540.6
670.132	515.23
670.545	517.48
670.958	522.28
671.37	531.3
671.783	533.83
672.196	517.48
672.609	525.09
673.021	520.87
673.434	541.73
673.846	507.9
674.259	531.3
674.671	510.72
675.084	534.68
675.496	521.15
675.908	509.87
676.32	502.82
676.732	503.95
677.144	524.53
677.556	481.95
677.968	496.9
678.38	508.46
678.792	502.26
679.204	519.74
679.615	510.43
680.027	514.1
680.439	491.54
680.85	470.95
681.262	495.49
681.673	525.09
682.084	515.51
682.496	506.49
682.907	467.84
683.318	503.38
683.729	487.87
684.14	452.61
684.551	482.23
684.962	483.08
685.373	465.02
685.784	457.68
686.194	477.15
686.605	518.33
687.016	503.95
687.426	487.03
687.837	495.77
688.247	479.69
688.657	449.22
689.068	477.15
689.478	485.62
689.888	481.67
690.298	457.4
690.708	484.2
691.118	478.28
691.528	461.07
691.938	467.28
692.348	468.97
692.758	472.64
693.168	484.49
693.577	487.59
693.987	433.98
694.396	478.28
694.806	467.28
695.215	471.79
695.625	441.32
696.034	449.5
696.443	456.56
696.852	458.53
697.262	457.4
697.671	447.24
698.08	478.85
698.489	468.97
698.897	467.84
699.306	477.15
699.715	469.54
700.124	463.05
700.532	462.2
700.941	457.97
701.35	458.25
701.758	452.61
702.166	435.67
702.575	437.08
702.983	447.53
703.391	456.84
703.799	448.37
704.208	422.4
704.616	440.19
705.024	432.85
705.432	460.79
705.839	444.14
706.247	444.99
706.655	422.69
707.063	450.63
707.47	448.65
707.878	453.17
708.285	453.45
708.693	413.93
709.1	426.07
709.508	432.28
709.915	435.11
710.322	439.06
710.729	432
711.136	437.93
711.543	457.68
711.95	429.18
712.357	446.4
712.764	437.65
713.171	431.72
713.578	427.2
713.984	461.64
714.391	428.05
714.797	414.5
715.204	417.04
715.61	432.28
716.017	449.22
716.423	421.56
716.829	415.06
717.236	433.7
717.642	419.3
718.048	434.26
718.454	414.78
718.86	415.35
719.266	384.57
719.671	440.19
720.077	430.87
720.483	415.06
720.889	412.81
721.294	433.7
721.7	437.93
722.105	419.86
722.511	419.02
722.916	420.99
723.321	423.25
723.726	413.09
724.132	424.66
724.537	457.12
724.942	397.84
725.347	412.81
725.752	387.11
726.156	435.67
726.561	425.23
726.966	444.42
727.371	401.23
727.775	438.21
728.18	406.03
728.584	431.44
728.989	401.79
729.393	398.69
729.798	408.01
730.202	434.26
730.606	400.1
731.01	444.7
731.414	405.46
731.818	408.85
732.222	416.19
732.626	394.45
733.03	443.57
733.434	416.76
733.837	411.11
734.241	406.03
734.645	436.52
735.048	419.02
735.452	417.89
735.855	415.91
736.258	421.28
736.662	419.02
737.065	427.49
737.468	408.01
737.871	405.18
738.274	409.98
738.677	405.75
739.08	424.95
739.483	414.22
739.886	395.3
740.289	420.15
740.691	439.62
741.094	412.52
741.497	414.22
741.899	409.13
742.302	380.61
742.704	417.04
743.106	424.38
743.508	415.63
743.911	409.98
744.313	420.71
744.715	395.02
745.117	412.81
745.519	433.13
745.921	406.31
746.323	449.78
746.724	417.6
747.126	434.83
747.528	418.45
747.929	425.79
748.331	396.14
748.732	398.4
749.134	435.67
749.535	416.19
749.936	404.05
750.338	403.49
750.739	427.49
751.14	395.02
751.541	425.23
751.942	424.1
752.343	422.4
752.744	393.32
753.144	416.48
753.545	417.04
753.946	420.71
754.346	425.23
754.747	415.06
755.148	400.1
755.548	387.11
755.948	422.69
756.349	422.69
756.749	393.89
757.149	391.63
757.549	431.72
757.949	445.83
758.349	414.78
758.749	410.55
759.149	400.38
759.549	394.17
759.949	369.88
760.348	415.91
760.748	397.56
761.148	391.06
761.547	388.8
761.947	397.84
762.346	398.97
762.745	419.86
763.145	410.83
763.544	400.1
763.943	414.22
764.342	408.57
764.741	397.84
765.14	400.95
765.539	391.91
765.938	408.85
766.336	421.28
766.735	395.86
767.134	416.19
767.532	410.26
767.931	398.4
768.329	403.49
768.728	413.93
769.126	423.82
769.525	393.6
769.923	408.01
770.321	420.71
770.719	388.24
771.117	416.76
771.515	391.91
771.913	403.77
772.311	399.25
772.709	416.76
773.106	413.37
773.504	391.91
773.902	402.36
774.299	397.84
774.697	420.43
775.094	403.2
775.491	400.38
775.889	404.33
776.286	385.41
776.683	393.89
777.08	401.79
777.477	420.99
777.874	396.99
778.271	415.91
778.668	415.35
779.065	393.89
779.462	387.11
779.858	396.71
780.255	379.48
780.652	372.42
781.048	398.12
781.444	403.2
781.841	396.99
782.237	391.91
782.633	379.2
783.03	384.85
783.426	410.26
783.822	414.78
784.218	408.57
784.614	388.24
785.01	382.59
785.405	392.19
785.801	420.99
786.197	393.04
786.593	404.62
786.988	401.51
787.384	364.79
787.779	409.7
788.174	402.08
788.57	388.52
788.965	391.63
789.36	405.46
789.755	364.51
790.15	408.29
790.545	386.54
790.94	399.82
791.335	387.11
791.73	396.71
792.125	387.11
792.52	402.08
792.914	370.44
793.309	404.33
793.703	394.73
794.098	387.95
794.492	384
794.887	384.85
795.281	373.27
795.675	401.23
796.069	410.55
796.463	395.86
796.857	384.57
797.251	391.91
797.645	373.83
798.039	394.73
798.433	400.66
798.826	404.62
799.22	391.63
799.614	390.5
800.007	406.88
800.401	387.95
800.794	418.17
801.187	411.39
801.581	392.19
801.974	404.05
802.367	400.95
802.76	382.87
803.153	402.08
803.546	394.45
803.939	377.79
804.332	420.99
804.725	404.05
805.117	386.26
805.51	392.19
805.903	428.61
806.295	378.92
806.688	403.2
807.08	415.35
807.472	392.76
807.865	381.46
808.257	406.59
808.649	390.78
809.041	399.53
809.433	383.44
809.825	413.37
810.217	385.41
810.609	405.46
811.001	405.18
811.392	370.16
811.784	369.03
812.175	420.43
812.567	399.82
812.958	396.71
813.35	365.92
813.741	374.4
814.132	402.08
814.524	406.88
814.915	411.11
815.306	372.98
815.697	405.18
816.088	405.18
816.479	394.45
816.87	409.7
817.26	398.97
817.651	400.95
818.042	403.77
818.432	407.16
818.823	396.43
819.213	406.59
819.604	372.42
819.994	396.99
820.384	388.8
820.775	397.56
821.165	408.57
821.555	381.18
821.945	438.49
822.335	373.83
822.725	417.6
823.114	404.05
823.504	390.21
823.894	375.81
824.284	407.72
824.673	380.33
825.063	379.48
825.452	389.08
825.842	402.08
826.231	380.33
826.62	392.19
827.009	388.8
827.399	390.21
827.788	379.48
828.177	383.15
828.566	405.46
828.954	413.09
829.343	393.32
829.732	398.97
830.121	376.94
830.509	383.72
830.898	385.98
831.286	383.72
831.675	397.56
832.063	419.02
832.452	387.95
832.84	395.02
833.228	397.84
833.616	381.46
834.004	397.56
834.392	392.19
834.78	363.38
835.168	392.76
835.556	392.76
835.944	384.85
836.331	408.57
836.719	394.17
837.107	393.6
837.494	402.36
837.881	373.27
838.269	373.55
838.656	390.78
839.043	389.08
839.431	384.57
839.818	390.78
840.205	362.25
840.592	408.01
840.979	366.77
841.366	391.63
841.752	378.63
842.139	391.63
842.526	397.27
842.912	396.99
843.299	397.56
843.685	379.2
844.072	396.99
844.458	384.57
844.844	387.39
845.231	366.2
845.617	400.66
846.003	379.48
846.389	365.92
846.775	368.46
847.161	392.19
847.547	391.34
847.933	402.36
848.318	371.01
848.704	363.38
849.09	391.63
849.475	408.01
849.861	385.13
850.246	384
850.631	402.08
851.017	411.68
851.402	384.85
851.787	404.62
852.172	380.05
852.557	383.44
852.942	397.56
853.327	413.09
853.712	385.41
854.097	401.79
854.481	395.3
854.866	388.24
855.25	404.9
855.635	396.14
856.019	375.53
856.404	424.1
856.788	393.32
857.172	398.4
857.557	385.69
857.941	403.49
858.325	401.23
858.709	388.8
859.093	370.72
859.477	402.08
859.86	394.45
860.244	397.27
860.628	373.83
861.012	397.84
861.395	394.45
861.779	391.06
862.162	403.49
862.545	393.89
862.929	378.63
863.312	359.71
863.695	373.55
864.078	398.4
864.461	397.84
864.844	385.69
865.227	404.9
865.61	392.76
865.993	384.57
866.376	365.36
866.758	377.79
867.141	406.88
867.523	389.08
867.906	392.19
868.288	377.22
868.671	369.88
869.053	389.08
869.435	387.39
869.817	389.65
870.199	386.54
870.581	380.61
870.963	393.6
871.345	377.22
871.727	385.41
872.109	377.79
872.491	403.77
872.872	380.33
873.254	401.23
873.635	391.06
874.017	376.09
874.398	394.73
874.779	399.25
875.161	383.72
875.542	404.05
875.923	394.17
876.304	372.98
876.685	396.71
877.066	385.69
877.447	372.42
877.828	382.87
878.208	385.69
878.589	384.85
878.97	409.98
879.35	350.66
879.731	389.93
880.111	388.24
880.491	382.31
880.872	393.04
881.252	392.47
881.632	383.15
882.012	408.57
882.392	392.76
882.772	377.5
883.152	388.24
883.532	400.66
883.912	364.51
884.291	404.9
884.671	386.26
885.051	400.95
885.43	384.57
885.81	366.49
886.189	376.37
886.568	386.82
886.948	385.13
887.327	379.48
887.706	398.12
888.085	376.09
888.464	363.94
888.843	402.08
889.222	369.03
889.601	381.46
889.979	363.38
890.358	375.81
890.737	405.75
891.115	378.92
891.494	400.38
891.872	396.43
892.25	382.87
892.629	383.72
893.007	368.46
893.385	370.72
893.763	374.4
894.141	367.05
894.519	398.4
894.897	374.96
895.275	342.19
895.653	371.85
896.03	376.09
896.408	395.3
896.786	388.8
897.163	395.86
897.541	401.79
897.918	405.46
898.295	365.07
898.673	378.92
899.05	371.01
899.427	416.48
899.804	391.63
900.181	346.42
900.558	389.65
900.935	389.93
901.312	393.32
901.688	402.92
902.065	357.16
902.442	383.72
902.818	367.62
903.195	388.52
903.571	382.87
903.947	377.79
904.324	384
904.7	384
905.076	409.98
905.452	384.57
905.828	384.28
906.204	375.81
906.58	376.94
906.956	400.66
907.331	381.18
907.707	368.18
908.083	366.77
908.458	362.25
908.834	370.72
909.209	392.47
909.585	376.66
909.96	370.72
910.335	380.61
910.71	389.08
911.086	365.64
911.461	396.14
911.836	396.14
912.21	380.61
912.585	393.04
912.96	400.38
913.335	377.79
913.709	392.47
914.084	392.19
914.459	395.02
914.833	389.93
915.207	372.7
915.582	372.98
915.956	365.64
916.33	379.48
916.704	388.24
917.078	390.5
917.452	353.21
917.826	383.15
918.2	379.48
918.574	357.44
918.948	365.92
919.321	402.64
919.695	363.38
920.068	404.05
920.442	398.4
920.815	374.11
921.189	393.32
921.562	386.26
921.935	378.35
922.308	373.55
922.681	393.32
923.054	390.5
923.427	398.97
923.8	363.66
924.173	370.44
924.546	354.05
924.919	398.12
925.291	396.99
925.664	397.84
926.036	385.69
926.409	435.11
926.781	375.24
927.153	371.29
927.526	384
927.898	375.24
928.27	377.5
928.642	379.2
929.014	389.65
929.386	384.57
929.758	359.99
930.129	382.02
930.501	386.82
930.873	378.63
931.244	366.2
931.616	402.08
931.987	379.2
932.359	367.33
932.73	400.1
933.101	379.48
933.472	387.39
933.843	393.32
934.214	360.27
934.585	382.02
934.956	377.79
935.327	376.94
935.698	369.59
936.069	393.04
936.439	395.86
936.81	369.03
937.18	397.84
937.551	356.6
937.921	367.05
938.292	362.81
938.662	378.92
939.032	363.66
939.402	396.99
939.772	369.88
940.142	399.25
940.512	395.86
940.882	393.32
941.252	400.1
941.621	366.2
941.991	369.31
942.361	389.08
942.73	384.28
943.1	401.79
943.469	380.89
943.838	376.09
944.208	352.36
944.577	377.5
944.946	390.78
945.315	370.16
945.684	376.94
946.053	397.27
946.422	369.31
946.791	367.9
947.159	403.2
947.528	370.72
947.897	374.4
948.265	381.74
948.634	371.01
949.002	379.2
949.371	403.49
949.739	361.68
950.107	366.2
950.475	387.11
950.843	359.71
951.211	371.29
951.579	357.73
951.947	369.03
952.315	366.77
952.683	355.18
953.05	368.75
953.418	406.31
953.785	384
954.153	385.98
954.52	389.93
954.888	384
955.255	396.71
955.622	362.81
955.989	404.05
956.356	393.04
956.723	362.81
957.09	358.86
957.457	372.98
957.824	391.63
958.191	398.69
958.557	396.43
958.924	388.8
959.291	398.12
959.657	367.62
960.023	402.36
960.39	378.92
960.756	376.94
961.122	394.45
961.488	353.49
961.855	356.31
962.221	362.25
962.586	385.69
962.952	412.24
963.318	396.99
963.684	355.75
964.05	346.99
964.415	337.95
964.781	383.44
965.146	373.27
965.512	378.07
965.877	359.14
966.242	361.12
966.608	375.81
966.973	376.09
967.338	366.49
967.703	382.31
968.068	380.61
968.433	363.66
968.797	385.41
969.162	356.88
969.527	351.79
969.891	384.28
970.256	372.14
970.62	367.05
970.985	404.33
971.349	382.59
971.714	390.78
972.078	365.07
972.442	359.42
972.806	372.7
973.17	372.42
973.534	369.88
973.898	373.83
974.262	392.76
974.625	372.14
974.989	368.18
975.353	378.07
975.716	359.42
976.08	335.97
976.443	376.09
976.806	374.68
977.17	360.84
977.533	379.48
977.896	357.44
978.259	365.92
978.622	357.44
978.985	378.07
979.348	398.97
979.711	368.75
980.073	375.24
980.436	390.78
980.799	343.88
981.161	356.88
981.524	396.71
981.886	377.22
982.248	376.09
982.611	389.08
982.973	372.14
983.335	364.23
983.697	335.68
984.059	343.32
984.421	374.68
984.783	372.7
985.145	377.22
985.506	369.31
985.868	376.37
986.23	402.08
986.591	348.4
986.953	373.55
987.314	337.38
987.675	364.23
988.037	585.4
988.398	384.85
988.759	375.53
989.12	357.73
989.481	384.28
989.842	387.39
990.203	351.23
990.564	389.93
990.924	358.57
991.285	607.93
991.646	361.12
992.006	402.64
992.367	375.81
992.727	374.11
993.087	364.79
993.448	374.68
993.808	381.46
994.168	351.79
994.528	390.21
994.888	381.18
995.248	377.5
995.608	374.4
995.967	355.47
996.327	363.66
996.687	364.23
997.046	384.28
997.406	359.14
997.765	372.7
998.125	357.16
998.484	377.22
998.843	376.09
999.202	361.97
999.561	350.1
999.92	367.62
1000.279	384.28
1000.638	399.25
1000.997	381.74
1001.356	355.18
1001.715	346.71
1002.073	369.88
1002.432	375.81
1002.79	374.68
1003.149	371.29
1003.507	376.09
1003.865	378.63
1004.224	374.68
1004.582	397.56
1004.94	380.05
1005.298	379.48
1005.656	358.57
1006.014	379.48
1006.371	363.1
1006.729	372.14
1007.087	367.9
1007.445	398.12
1007.802	363.1
1008.16	332.29
1008.517	354.62
1008.874	351.79
1009.232	363.94
1009.589	373.83
1009.946	386.26
1010.303	378.07
1010.66	353.21
1011.017	356.6
1011.374	384.28
1011.731	365.92
1012.087	391.34
1012.444	384.57
1012.801	366.2
1013.157	377.5
1013.513	381.74
1013.87	374.4
1014.226	371.57
1014.582	364.23
1014.939	376.37
1015.295	368.18
1015.651	399.82
1016.007	371.01
1016.363	361.97
1016.719	387.95
1017.074	352.92
1017.43	367.05
1017.786	372.7
1018.141	377.22
1018.497	385.98
1018.852	376.37
1019.208	373.83
1019.563	372.42
1019.918	383.72
1020.273	382.02
1020.628	352.08
1020.983	386.54
1021.338	374.4
1021.693	391.63
1022.048	363.38
1022.403	348.4
1022.757	378.07
1023.112	384.57
1023.467	387.95
1023.821	379.76
1024.175	390.78
1024.53	338.79
1024.884	363.66
1025.238	385.69
1025.592	402.64
1025.946	394.17
1026.3	365.64
1026.654	396.71
1027.008	375.53
1027.362	368.18
1027.716	356.31
1028.069	414.78
1028.423	364.79
1028.777	343.88
1029.13	383.15
1029.483	387.39
1029.837	375.53
1030.19	369.88
1030.543	391.91
1030.896	388.8
1031.249	394.17
1031.602	377.22
1031.955	360.84
1032.308	374.96
1032.661	348.68
1033.013	371.57
1033.366	381.18
1033.719	370.44
1034.071	337.38
1034.424	355.47
1034.776	410.55
1035.128	365.07
1035.48	388.8
1035.833	374.68
1036.185	372.14
1036.537	372.14
1036.889	372.14
