Data from BCF12_new_2_FLMS019251_16-27-31-997.txt Node
Date: Wed Jun 12 16:27:31 CEST 2019
User: luk
Spectrometer: FLMS01925
Trigger mode: 0
Integration Time (sec): 4.080000E-2
Scans to average: 10
Electric dark correction enabled: true
Nonlinearity correction enabled: true
Boxcar width: 0
XAxis mode: Wavelengths
Number of Pixels in Spectrum: 2048
>>>>>Begin Spectral Data<<<<<
187.103	-66.49
187.574	-66.49
188.045	-66.49
188.516	-118.22
188.987	-127.89
189.458	-115.1
189.929	-102.02
190.4	-112.82
190.871	-82.4
191.342	-89.22
191.813	-49.15
192.284	-39.21
192.754	-27.28
193.225	-15.07
193.696	10.2
194.166	79.72
194.637	44.26
195.107	100.14
195.578	111.48
196.048	127.64
196.518	157.96
196.989	176.37
197.459	188.27
197.929	225.07
198.399	293.26
198.869	300.89
199.339	321.82
199.809	322.66
200.279	339.62
200.749	340.75
201.219	352.62
201.689	396.13
202.159	361.95
202.628	389.07
203.098	411.66
203.568	411.09
204.037	380.03
204.507	409.68
204.976	399.52
205.445	402.34
205.915	422.95
206.384	398.1
206.853	408.27
207.323	435.09
207.792	424.08
208.261	403.47
208.73	393.3
209.199	401.49
209.668	395.28
210.137	409.4
210.606	406.29
211.075	405.16
211.543	415.61
212.012	411.09
212.481	418.15
212.95	366.75
213.418	409.68
213.887	391.89
214.355	370.99
214.824	393.87
215.292	398.95
215.76	375.79
216.229	371.84
216.697	380.88
217.165	363.93
217.633	350.36
218.101	375.51
218.569	369.58
219.037	361.38
219.505	401.49
219.973	370.71
220.441	366.75
220.909	393.87
221.377	353.75
221.844	394.15
222.312	355.45
222.78	362.51
223.247	375.79
223.715	362.23
224.182	370.14
224.65	380.88
225.117	360.82
225.584	342.45
226.052	349.8
226.519	382.29
226.986	372.68
227.453	388.5
227.92	383.98
228.387	387.65
228.854	380.03
229.321	387.65
229.788	388.5
230.255	380.03
230.722	382.57
231.189	358.84
231.655	406.58
232.122	390.48
232.589	381.72
233.055	387.65
233.522	375.79
233.988	380.59
234.454	365.62
234.921	394.72
235.387	394.43
235.853	389.07
236.32	396.41
236.786	383.98
237.252	354.32
237.718	372.97
238.184	380.59
238.65	374.66
239.116	371.55
239.582	357.71
240.047	370.71
240.513	406.58
240.979	391.89
241.445	383.7
241.91	385.68
242.376	383.98
242.841	367.32
243.307	392.74
243.772	402.62
244.238	403.19
244.703	389.07
245.168	379.75
245.633	402.34
246.099	370.14
246.564	377.77
247.029	380.88
247.494	376.92
247.959	409.68
248.424	401.49
248.889	380.03
249.353	385.96
249.818	385.96
250.283	393.59
250.748	390.76
251.212	395.56
251.677	373.25
252.141	381.72
252.606	377.2
253.07	376.64
253.535	392.17
253.999	394.15
254.463	369.01
254.927	389.91
255.392	384.83
255.856	405.73
256.32	395.56
256.784	381.44
257.248	369.86
257.712	391.33
258.176	391.04
258.64	396.69
259.103	402.9
259.567	380.59
260.031	387.65
260.495	408.83
260.958	407.42
261.422	386.81
261.885	387.37
262.349	410.53
262.812	400.65
263.275	387.94
263.739	390.48
264.202	389.63
264.665	382.01
265.128	402.62
265.591	393.87
266.054	369.29
266.517	413.92
266.98	391.89
267.443	378.05
267.906	397.82
268.369	400.93
268.832	416.46
269.294	406.86
269.757	400.65
270.22	398.1
270.682	393.3
271.145	423.23
271.607	403.47
272.07	409.96
272.532	387.65
272.994	379.18
273.456	403.75
273.919	425.49
274.381	400.65
274.843	408.55
275.305	406.29
275.767	430.01
276.229	425.49
276.691	396.41
277.153	414.76
277.614	417.59
278.076	390.48
278.538	409.96
279	361.38
279.461	384.55
279.923	418.72
280.384	411.94
280.846	414.48
281.307	412.79
281.769	370.14
282.23	423.23
282.691	408.83
283.152	415.05
283.613	380.03
284.075	406.01
284.536	376.64
284.997	411.38
285.458	409.96
285.918	403.19
286.379	396.97
286.84	405.73
287.301	398.67
287.762	391.89
288.222	402.9
288.683	417.59
289.143	400.65
289.604	371.27
290.064	406.86
290.525	410.25
290.985	426.34
291.445	421.54
291.906	419
292.366	408.55
292.826	378.33
293.286	431.14
293.746	412.51
294.206	426.34
294.666	408.27
295.126	379.18
295.586	370.42
296.046	415.61
296.506	421.54
296.965	425.49
297.425	415.61
297.884	412.79
298.344	424.65
298.804	406.29
299.263	417.02
299.722	426.9
300.182	394.72
300.641	404.32
301.1	422.67
301.559	397.54
302.019	417.59
302.478	389.91
302.937	393.87
303.396	420.98
303.855	421.26
304.314	443.27
304.772	421.54
305.231	405.45
305.69	393.59
306.149	397.54
306.607	409.4
307.066	407.99
307.524	399.23
307.983	389.91
308.441	445.81
308.9	386.52
309.358	411.94
309.816	426.34
310.275	408.55
310.733	413.07
311.191	396.69
311.649	386.24
312.107	414.2
312.565	408.83
313.023	426.06
313.481	407.14
313.939	413.07
314.397	415.33
314.854	426.34
315.312	415.61
315.77	428.03
316.227	421.54
316.685	416.74
317.142	411.38
317.6	422.95
318.057	409.12
318.514	398.67
318.972	413.07
319.429	429.16
319.886	409.12
320.343	435.94
320.8	406.01
321.257	406.86
321.714	422.67
322.171	404.88
322.628	435.65
323.085	412.51
323.542	412.51
323.998	395
324.455	419.56
324.912	429.73
325.368	423.23
325.825	447.51
326.281	411.94
326.738	438.19
327.194	395
327.65	395
328.107	393.87
328.563	418.72
329.019	422.1
329.475	408.55
329.931	419.28
330.387	417.02
330.843	420.69
331.299	429.73
331.755	402.9
332.211	411.66
332.666	419.56
333.122	418.43
333.578	413.63
334.033	441.02
334.489	452.59
334.944	442.99
335.4	395.28
335.855	429.44
336.31	422.1
336.766	402.34
337.221	437.07
337.676	398.1
338.131	445.81
338.586	415.61
339.041	414.48
339.496	432.55
339.951	441.02
340.406	418.43
340.861	399.52
341.316	426.62
341.771	425.77
342.225	396.97
342.68	447.79
343.134	400.65
343.589	422.67
344.043	424.65
344.498	408.55
344.952	420.69
345.406	459.08
345.861	438.76
346.315	437.63
346.769	419.28
347.223	445.81
347.677	428.32
348.131	422.39
348.585	425.77
349.039	414.48
349.493	399.52
349.947	408.27
350.401	432.55
350.854	453.72
351.308	462.75
351.762	432.55
352.215	422.67
352.669	420.98
353.122	439.04
353.575	428.88
354.029	438.76
354.482	433.68
354.935	412.51
355.388	448.35
355.842	418.15
356.295	416.18
356.748	452.02
357.201	427.75
357.654	427.19
358.106	424.36
358.559	410.25
359.012	442.99
359.465	445.25
359.917	450.05
360.37	406.58
360.823	404.88
361.275	398.39
361.728	418.43
362.18	425.77
362.632	422.95
363.085	442.43
363.537	417.87
363.989	422.1
364.441	425.49
364.893	429.73
365.345	404.32
365.797	424.93
366.249	439.04
366.701	415.89
367.153	432.55
367.605	391.61
368.057	434.24
368.508	430.29
368.96	443.84
369.411	460.77
369.863	422.67
370.314	434.53
370.766	430.01
371.217	412.51
371.669	444.97
372.12	434.24
372.571	439.61
373.022	420.98
373.473	429.73
373.924	443.56
374.375	460.21
374.826	436.5
375.277	428.32
375.728	442.71
376.179	431.7
376.63	440.73
377.08	433.96
377.531	442.71
377.981	432.27
378.432	459.64
378.883	414.2
379.333	420.69
379.783	426.06
380.234	437.91
380.684	457.1
381.134	451.74
381.584	439.04
382.034	433.4
382.485	419.56
382.935	424.36
383.385	443.84
383.834	446.66
384.284	459.92
384.734	444.97
385.184	433.11
385.634	439.89
386.083	451.46
386.533	436.5
386.982	447.51
387.432	435.65
387.881	457.95
388.331	442.43
388.78	428.32
389.229	468.39
389.679	426.62
390.128	446.66
390.577	424.36
391.026	465
391.475	434.81
391.924	390.2
392.373	428.6
392.822	443.84
393.27	446.94
393.719	434.24
394.168	444.97
394.617	442.15
395.065	452.87
395.514	463.31
395.962	421.54
396.411	437.07
396.859	436.78
397.307	465.29
397.756	445.53
398.204	453.43
398.652	446.66
399.1	456.54
399.548	448.92
399.996	475.16
400.444	467.54
400.892	479.96
401.34	436.5
401.788	454.28
402.236	452.59
402.683	451.18
403.131	481.37
403.579	480.52
404.026	446.66
404.474	461.05
404.921	465.29
405.369	472.34
405.816	473.47
406.263	460.21
406.71	489.55
407.158	487.01
407.605	466.98
408.052	499.42
408.499	472.06
408.946	454.28
409.393	507.6
409.84	476.29
410.286	494.91
410.733	485.6
411.18	515.77
411.626	508.44
412.073	501.67
412.52	495.19
412.966	531.84
413.413	557.49
413.859	544.81
414.305	568.48
414.752	645.64
415.198	707.26
415.644	804.23
416.09	944.54
416.536	1110.05
416.982	1347.75
417.428	1662.81
417.874	1969.7
418.32	2416.14
418.766	2918.16
419.211	3593.8
419.657	4187.8
420.103	5027.2
420.548	5762.3
420.994	6748.99
421.439	7740.7
421.885	8761.2
422.33	9955.43
422.776	11177.98
423.221	12142.21
423.666	13590.24
424.111	14889.08
424.556	15971.33
425.001	17331.84
425.446	18887.1
425.891	20165.81
426.336	21185.85
426.781	22655.3
427.226	24700.84
427.671	25440.22
428.115	26383.34
428.56	27990.77
429.005	29569.51
429.449	30162.61
429.894	31537.04
430.338	32754.62
430.782	32823.38
431.227	34355.14
431.671	34994.27
432.115	36184.35
432.559	37454.33
433.003	37482.75
433.447	38307.05
433.891	38850.7
434.335	39269.6
434.779	40180.28
435.223	40377.36
435.667	40634.3
436.111	41408.61
436.554	41421.24
436.998	41140.64
437.442	41108
437.885	43286.62
438.328	41885.28
438.772	42436.08
439.215	43053.83
439.659	42753.84
440.102	43164.96
440.545	42719.26
440.988	43052.84
441.431	43792.15
441.874	43412.08
442.317	43953.41
442.76	43583.3
443.203	43152.25
443.646	44036.22
444.089	43789.15
444.531	44480.61
444.974	43332.51
445.417	44544.82
445.859	43794.15
446.302	45123.21
446.744	44532.53
447.186	45999.98
447.629	45055.52
448.071	45209.54
448.513	45421.92
448.956	46960.69
449.398	46170.08
449.84	45103.83
450.282	45947.61
450.724	46570.29
451.166	46438.29
451.607	46410.89
452.049	46750.47
452.491	47870.67
452.933	47418.41
453.374	48172.04
453.816	48998.88
454.257	48569.25
454.699	49866.58
455.14	49599.01
455.582	49358.58
456.023	49524.62
456.464	49705.88
456.905	50565
457.347	50820.32
457.788	49731.25
458.229	50216.31
458.67	51406.66
459.111	49520.71
459.552	49901.17
459.992	49646.55
460.433	49360.66
460.874	48631.25
461.315	49926.86
461.755	48916.69
462.196	48592.24
462.636	47781.15
463.077	47709.9
463.517	47707.6
463.957	48154.29
464.398	47952.8
464.838	48036.03
465.278	46863.94
465.718	47361.68
466.158	46273.45
466.598	46642.95
467.038	46311.73
467.478	47103.65
467.918	47166.64
468.358	46432.96
468.798	46332.01
469.237	46092.85
469.677	46147.29
470.117	47155.93
470.556	44576.68
470.996	45288.12
471.435	45440.83
471.874	46164.51
472.314	45835.36
472.753	45071.37
473.192	45233.21
473.631	45003.21
474.07	45185.88
474.509	45245.55
474.948	45777.25
475.387	44895.86
475.826	43942.41
476.265	45827.53
476.704	45435.03
477.143	45981
477.581	45733.55
478.02	46592.39
478.458	44928.78
478.897	45899.57
479.335	47164.34
479.774	46533.98
480.212	47093.45
480.65	46962.21
481.089	46698.86
481.527	46422.81
481.965	45898.81
482.403	48112.89
482.841	47858.35
483.279	47947.41
483.717	47951.01
484.155	47523
484.592	48200.35
485.03	48582.94
485.468	47447.3
485.905	47714.51
486.343	48211.41
486.781	47414.07
487.218	47083.51
487.655	47132.97
488.093	46215.68
488.53	47923.79
488.967	46827.04
489.405	46800.07
489.842	46022.75
490.279	46024.26
490.716	45673.45
491.153	46150.33
491.59	45412.09
492.027	44680.84
492.463	44294.12
492.9	43545.35
493.337	43486.94
493.773	43627
494.21	42543.95
494.647	42356.58
495.083	41514.33
495.519	41181.2
495.956	41316.04
496.392	40529.87
496.828	40345.53
497.265	39449.93
497.701	39490.78
498.137	39311.91
498.573	38314.91
499.009	38966.44
499.445	37995.26
499.881	37396.76
500.316	37668.23
500.752	36678.08
501.188	36520.55
501.624	36529.11
502.059	35141.23
502.495	35028.94
502.93	34990.61
503.366	35162.72
503.801	34387.35
504.236	34126.31
504.672	33593.4
505.107	33279.56
505.542	32565.43
505.977	32670.51
506.412	32091.97
506.847	32488.39
507.282	31803.54
507.717	31513.88
508.152	31518.51
508.587	31178.34
509.021	30364.39
509.456	30047.19
509.891	30158.22
510.325	30059.14
510.76	29651.05
511.194	29455
511.628	29535.09
512.063	28686.06
512.497	28894.24
512.931	28228.23
513.366	28075.39
513.8	28047.27
514.234	27390.54
514.668	27268.61
515.102	27537.65
515.536	26681.92
515.969	26793.67
516.403	26425.76
516.837	25926.34
517.271	25978.11
517.704	25555.16
518.138	25440.22
518.571	25155.46
519.005	24920.7
519.438	24643.77
519.871	24496.88
520.305	23957.65
520.738	23756.58
521.171	23349.25
521.604	23605.72
522.037	23230.58
522.47	22831.91
522.903	22397.3
523.336	22219.04
523.769	22093.64
524.202	21586.99
524.634	21564.7
525.067	21285.73
525.5	21160.81
525.932	20870.67
526.365	20458.18
526.797	20279.6
527.23	20366.04
527.662	19608.33
528.094	19407.73
528.527	19327.56
528.959	19009.72
529.391	18714.57
529.823	18199.78
530.255	18254.21
530.687	17762.81
531.119	17550.26
531.551	17455.45
531.982	17189.41
532.414	16913.65
532.846	16613.37
533.277	16398.15
533.709	15937.17
534.14	15925.36
534.572	15735.61
535.003	15531.16
535.435	15217.58
535.866	15079.57
536.297	14796.06
536.728	14799.08
537.159	14607.92
537.59	14447.17
538.022	14162.31
538.452	14001.58
538.883	13759.81
539.314	13647.7
539.745	13293.63
540.176	13112.87
540.606	12707.02
541.037	12884.01
541.468	12655.45
541.898	12558.63
542.328	12399.22
542.759	12165.37
543.189	12007.74
543.619	11870.38
544.05	11609.97
544.48	11477.48
544.91	11380.16
545.34	11219.41
545.77	11069.53
546.2	10971.26
546.63	10794.04
547.06	10718.19
547.489	10567.93
547.919	10256.8
548.349	10333.6
548.778	10241.89
549.208	9993
549.637	9873.31
550.067	9722.88
550.496	9778.79
550.926	9546.01
551.355	9338.99
551.784	9349.84
552.213	9128.35
552.642	9095.25
553.071	8982.94
553.5	8881.44
553.929	8586.9
554.358	8636.72
554.787	8459.67
555.216	8514.99
555.645	8279.82
556.073	8215.04
556.502	8076.56
556.93	7884.74
557.359	7901.95
557.787	7841.7
558.216	7692.65
558.644	7684.81
559.072	7576.11
559.5	7452.94
559.929	7376.25
560.357	7391.96
560.785	7317.59
561.213	7257.6
561.641	7120.21
562.068	7093.98
562.496	6981.1
562.924	6975.06
563.352	6905.71
563.779	6916.74
564.207	6873.64
564.634	6785.55
565.062	6782.14
565.489	6627.1
565.917	6632.1
566.344	6592.33
566.771	6488.74
567.198	6510.09
567.625	6438.62
568.053	6287.09
568.48	6203.85
568.907	6235.57
569.333	6118.96
569.76	5932.03
570.187	5993.76
570.614	5869.74
571.04	6451.55
571.467	5758.85
571.894	5669.89
572.32	5468.08
572.747	5448.39
573.173	5313.07
573.599	5192.26
574.026	5141.27
574.452	5119.64
574.878	5080.38
575.304	4913.01
575.73	4869.11
576.156	4685.29
576.582	4714.25
577.008	4652.02
577.434	4559.95
577.86	4436.87
578.285	4427.46
578.711	4347.55
579.137	4279.43
579.562	4156.79
579.988	4212.6
580.413	4074.49
580.838	4034.26
581.264	4001.58
581.689	3919.14
582.114	3911.57
582.539	3948.61
582.964	3794.94
583.39	3752.42
583.814	3637.21
584.239	3535.71
584.664	3649.42
585.089	3511.26
585.514	3452.84
585.939	3385.4
586.363	3373.98
586.788	3302.4
587.212	3274.07
587.637	3188.23
588.061	3198.59
588.485	3096.85
588.91	3076.65
589.334	3042.79
589.758	3013.56
590.182	2978.04
590.606	2954.53
591.03	2877.13
591.454	2839.63
591.878	2817.73
592.302	2797.73
592.726	2760.75
593.15	2686.18
593.573	2683.44
593.997	2642.29
594.42	2572.56
594.844	2572.83
595.267	2514.31
595.691	2558
596.114	2482.15
596.537	2443.65
596.96	2452.73
597.384	2400.73
597.807	2318.4
598.23	2373.75
598.653	2322.53
599.076	2292.77
599.499	2259.14
599.921	2261.35
600.344	2228.26
600.767	2207.57
601.189	2193.78
601.612	2222.47
602.034	2151.83
602.457	2143.55
602.879	2129.46
603.302	2147.41
603.724	2102.12
604.146	2067.03
604.568	2042.99
604.991	2023.36
605.413	2068.42
605.835	2034.97
606.257	2020.59
606.678	1978.83
607.1	1989.06
607.522	1974.68
607.944	1954.48
608.365	1976.34
608.787	1963.89
609.209	1870.86
609.63	1900.22
610.051	1903.27
610.473	1826.24
610.894	1853.4
611.315	1823.75
611.737	1798.8
612.158	1801.29
612.579	1716.68
613	1758.3
613.421	1749.43
613.842	1704.47
614.263	1688.08
614.683	1674.2
615.104	1677.53
615.525	1630.58
615.945	1655.59
616.366	1617.25
616.787	1638.92
617.207	1573.32
617.627	1547.73
618.048	1532.43
618.468	1544.4
618.888	1511.28
619.308	1487.35
619.728	1449.48
620.148	1455.05
620.568	1465.63
620.988	1387.62
621.408	1421.9
621.828	1399.05
622.248	1395.15
622.668	1356.95
623.087	1351.65
623.507	1316.79
623.926	1362.53
624.346	1306.18
624.765	1290
625.185	1272.13
625.604	1245.89
626.023	1278.55
626.442	1225.5
626.861	1229.97
627.28	1190.57
627.699	1197
628.118	1162.62
628.537	1210.41
628.956	1170.45
629.375	1176.32
629.794	1142.21
630.212	1158.43
630.631	1112.29
631.049	1111.17
631.468	1105.01
631.886	1126.83
632.305	1082.91
632.723	1053.52
633.141	1053.8
633.559	1066.39
633.978	1078.43
634.396	1023.56
634.814	994.42
635.232	1007.03
635.65	1033.36
636.067	971.16
636.485	987.42
636.903	980.41
637.321	992.46
637.738	961.64
638.156	942.01
638.573	962.2
638.991	928.83
639.408	933.04
639.825	915.65
640.243	927.43
640.66	903.31
641.077	882.83
641.494	887.04
641.911	896.86
642.328	904.99
642.745	889.28
643.162	866.27
643.579	872.17
643.995	876.94
644.412	838.77
644.829	847.19
645.245	810.12
645.662	839.61
646.078	840.45
646.495	813.77
646.911	791.3
647.327	814.62
647.743	802.54
648.159	774.17
648.576	785.12
648.992	784.56
649.408	790.46
649.824	783.44
650.239	775.85
650.655	740.16
651.071	755.06
651.487	780.35
651.902	751.4
652.318	752.25
652.733	742.69
653.149	778.94
653.564	732.29
653.979	726.94
654.395	750.28
654.81	723.57
655.225	712.6
655.64	717.38
656.055	754.77
656.47	702.48
656.885	708.67
657.3	712.88
657.715	699.38
658.13	729.47
658.544	717.67
658.959	703.04
659.374	692.63
659.788	688.13
660.202	679.69
660.617	690.67
661.031	658.03
661.445	668.16
661.86	660.28
662.274	655.21
662.688	672.94
663.102	677.72
663.516	654.65
663.93	670.13
664.344	652.68
664.758	663.94
665.171	622.84
665.585	642.83
665.999	648.74
666.412	606.51
666.826	616.65
667.239	639.45
667.653	630.72
668.066	608.2
668.479	615.52
668.892	643.67
669.306	609.89
669.719	618.9
670.132	632.41
670.545	645.36
670.958	616.36
671.37	588.2
671.783	617.21
672.196	597.78
672.609	588.76
673.021	562.28
673.434	590.17
673.846	575.52
674.259	597.21
674.671	571.58
675.084	582
675.496	580.88
675.908	593.55
676.32	592.43
676.732	566.79
677.144	576.37
677.556	585.67
677.968	588.76
678.38	542.55
678.792	569.04
679.204	560.03
679.615	545.37
680.027	571.58
680.439	538.33
680.85	534.66
681.262	558.9
681.673	552.14
682.084	537.2
682.496	542.84
682.907	537.2
683.318	530.15
683.729	544.25
684.14	559.75
684.551	561.15
684.962	512.67
685.373	545.09
685.784	536.92
686.194	556.93
686.605	540.86
687.016	522.26
687.426	537.48
687.837	537.76
688.247	520
688.657	506.47
689.068	527.05
689.478	519.16
689.888	518.87
690.298	528.74
690.708	507.31
691.118	507.88
691.528	487.01
691.938	519.72
692.348	529.87
692.758	518.59
693.168	492.37
693.577	507.03
693.987	477.13
694.396	487.29
694.806	473.19
695.215	493.21
695.625	495.47
696.034	474.31
696.443	493.78
696.852	473.47
697.262	488.98
697.671	509.85
698.08	457.39
698.489	497.16
698.897	500.83
699.306	477.7
699.715	485.6
700.124	466.7
700.532	473.75
700.941	492.93
701.35	488.42
701.758	468.67
702.166	463.87
702.575	444.12
702.983	494.34
703.391	487.85
703.799	491.24
704.208	468.95
704.616	495.47
705.024	487.29
705.432	472.06
705.839	462.46
706.247	494.62
706.655	454.85
707.063	472.34
707.47	470.65
707.878	458.51
708.285	462.46
708.693	447.51
709.1	468.39
709.508	482.21
709.915	479.96
710.322	472.9
710.729	441.58
711.136	455.41
711.543	444.69
711.95	462.75
712.357	424.36
712.764	460.49
713.171	443.84
713.578	441.3
713.984	431.98
714.391	428.32
714.797	422.67
715.204	463.59
715.61	441.3
716.017	438.48
716.423	448.07
716.829	437.35
717.236	436.22
717.642	424.65
718.048	457.1
718.454	419
718.86	437.91
719.266	448.92
719.671	438.19
720.077	435.09
720.483	424.08
720.889	458.8
721.294	441.02
721.7	445.53
722.105	405.73
722.511	409.4
722.916	439.61
723.321	426.62
723.726	451.18
724.132	417.3
724.537	422.39
724.942	472.06
725.347	463.87
725.752	437.63
726.156	454.56
726.561	461.62
726.966	456.82
727.371	449.77
727.775	440.73
728.18	426.62
728.584	415.05
728.989	439.89
729.393	433.11
729.798	416.46
730.202	432.27
730.606	400.36
731.01	426.34
731.414	441.02
731.818	416.46
732.222	448.92
732.626	422.95
733.03	441.86
733.434	424.36
733.837	429.73
734.241	444.12
734.645	423.52
735.048	412.22
735.452	458.51
735.855	436.5
736.258	418.72
736.662	433.68
737.065	464.44
737.468	465
737.871	469.52
738.274	444.69
738.677	417.59
739.08	429.44
739.483	442.15
739.886	426.62
740.289	426.06
740.691	449.2
741.094	436.5
741.497	415.61
741.899	431.98
742.302	435.09
742.704	382.85
743.106	457.39
743.508	436.22
743.911	437.07
744.313	410.25
744.715	426.9
745.117	402.9
745.519	433.68
745.921	433.4
746.323	424.08
746.724	418.72
747.126	426.9
747.528	442.71
747.929	420.13
748.331	432.27
748.732	425.77
749.134	431.98
749.535	402.34
749.936	439.04
750.338	434.53
750.739	441.3
751.14	422.1
751.541	424.08
751.942	441.58
752.343	399.23
752.744	426.34
753.144	392.74
753.545	395.56
753.946	460.49
754.346	411.38
754.747	404.03
755.148	424.93
755.548	418.72
755.948	409.12
756.349	395.28
756.749	428.88
757.149	414.2
757.549	411.09
757.949	419.56
758.349	418.43
758.749	426.06
759.149	405.73
759.549	404.32
759.949	422.95
760.348	417.59
760.748	410.81
761.148	419.85
761.547	398.1
761.947	404.6
762.346	432.27
762.745	450.33
763.145	409.4
763.544	417.87
763.943	421.26
764.342	407.14
764.741	420.13
765.14	427.19
765.539	420.13
765.938	425.77
766.336	411.09
766.735	424.36
767.134	445.25
767.532	411.38
767.931	410.25
768.329	428.6
768.728	397.82
769.126	433.68
769.525	413.07
769.923	411.38
770.321	426.06
770.719	395.84
771.117	381.72
771.515	400.65
771.913	389.91
772.311	434.53
772.709	422.67
773.106	407.71
773.504	438.76
773.902	404.03
774.299	408.27
774.697	429.16
775.094	415.89
775.491	428.32
775.889	395.56
776.286	391.61
776.683	430.29
777.08	393.3
777.477	435.37
777.874	409.68
778.271	443.56
778.668	401.49
779.065	411.94
779.462	420.98
779.858	394.43
780.255	404.88
780.652	405.73
781.048	400.08
781.444	417.87
781.841	402.34
782.237	402.9
782.633	397.54
783.03	395.84
783.426	403.19
783.822	407.71
784.218	417.02
784.614	420.98
785.01	415.05
785.405	437.91
785.801	406.58
786.197	419.28
786.593	407.42
786.988	420.13
787.384	428.6
787.779	429.73
788.174	438.76
788.57	415.89
788.965	409.12
789.36	399.8
789.755	400.93
790.15	400.93
790.545	385.68
790.94	392.46
791.335	400.93
791.73	402.9
792.125	388.22
792.52	414.48
792.914	423.23
793.309	405.16
793.703	411.66
794.098	414.48
794.492	410.81
794.887	402.9
795.281	394.15
795.675	443.27
796.069	417.02
796.463	430.57
796.857	394.72
797.251	399.52
797.645	404.6
798.039	402.06
798.433	389.91
798.826	409.68
799.22	408.27
799.614	385.68
800.007	397.54
800.401	408.55
800.794	383.7
801.187	396.41
801.581	405.45
801.974	405.45
802.367	424.08
802.76	433.4
803.153	411.66
803.546	370.71
803.939	398.67
804.332	412.51
804.725	400.36
805.117	417.59
805.51	382.85
805.903	416.74
806.295	393.02
806.688	406.58
807.08	382.85
807.472	415.05
807.865	416.74
808.257	409.12
808.649	384.83
809.041	396.69
809.433	417.02
809.825	409.96
810.217	368.45
810.609	392.74
811.001	429.16
811.392	395
811.784	409.96
812.175	372.97
812.567	393.3
812.958	407.99
813.35	402.9
813.741	389.91
814.132	400.08
814.524	381.72
814.915	413.63
815.306	396.41
815.697	378.9
816.088	403.19
816.479	400.36
816.87	398.39
817.26	389.91
817.651	426.62
818.042	423.52
818.432	421.54
818.823	405.45
819.213	407.71
819.604	389.07
819.994	408.27
820.384	400.08
820.775	392.17
821.165	399.8
821.555	401.21
821.945	393.59
822.335	404.32
822.725	390.76
823.114	367.88
823.504	418.43
823.894	419.28
824.284	426.9
824.673	387.65
825.063	422.39
825.452	407.42
825.842	401.21
826.231	397.26
826.62	411.94
827.009	403.19
827.399	405.16
827.788	393.59
828.177	416.46
828.566	420.69
828.954	405.73
829.343	374.66
829.732	399.23
830.121	381.16
830.509	390.48
830.898	435.94
831.286	413.07
831.675	418.15
832.063	389.07
832.452	415.89
832.84	371.27
833.228	424.36
833.616	418.72
834.004	413.63
834.392	405.45
834.78	381.44
835.168	409.96
835.556	407.42
835.944	381.72
836.331	405.73
836.719	400.08
837.107	395.56
837.494	382.57
837.881	390.76
838.269	410.53
838.656	384.27
839.043	411.09
839.431	429.73
839.818	421.54
840.205	395.28
840.592	407.14
840.979	404.32
841.366	394.15
841.752	408.55
842.139	395.84
842.526	407.14
842.912	409.12
843.299	408.83
843.685	405.73
844.072	407.99
844.458	433.4
844.844	391.04
845.231	389.63
845.617	397.82
846.003	408.27
846.389	374.66
846.775	405.73
847.161	416.18
847.547	389.07
847.933	397.54
848.318	386.81
848.704	390.2
849.09	409.4
849.475	398.39
849.861	398.1
850.246	362.23
850.631	420.13
851.017	408.27
851.402	376.64
851.787	414.48
852.172	387.65
852.557	402.06
852.942	401.78
853.327	412.79
853.712	401.21
854.097	387.94
854.481	416.46
854.866	413.63
855.25	398.1
855.635	407.71
856.019	398.39
856.404	401.21
856.788	391.33
857.172	393.59
857.557	393.59
857.941	389.91
858.325	379.46
858.709	396.69
859.093	370.14
859.477	418.43
859.86	384.27
860.244	400.93
860.628	411.38
861.012	415.05
861.395	386.52
861.779	424.36
862.162	398.39
862.545	406.29
862.929	415.89
863.312	402.62
863.695	384.55
864.078	405.73
864.461	400.36
864.844	405.73
865.227	419
865.61	399.52
865.993	406.86
866.376	421.54
866.758	403.75
867.141	390.48
867.523	391.89
867.906	385.68
868.288	370.99
868.671	421.54
869.053	411.94
869.435	400.65
869.817	395
870.199	400.93
870.581	407.99
870.963	393.59
871.345	393.02
871.727	383.7
872.109	395.56
872.491	410.53
872.872	417.87
873.254	397.82
873.635	393.87
874.017	427.75
874.398	383.42
874.779	392.17
875.161	406.29
875.542	393.02
875.923	401.21
876.304	387.94
876.685	388.22
877.066	374.66
877.447	387.65
877.828	402.9
878.208	408.27
878.589	392.74
878.97	400.36
879.35	366.75
879.731	398.67
880.111	406.01
880.491	395
880.872	398.1
881.252	397.26
881.632	394.72
882.012	418.15
882.392	406.86
882.772	392.74
883.152	402.62
883.532	374.94
883.912	398.67
884.291	384.55
884.671	379.18
885.051	407.99
885.43	392.46
885.81	364.49
886.189	398.1
886.568	426.62
886.948	402.62
887.327	376.92
887.706	406.29
888.085	381.44
888.464	416.74
888.843	429.73
889.222	400.93
889.601	387.09
889.979	395
890.358	388.22
890.737	387.94
891.115	382.01
891.494	393.87
891.872	349.23
892.25	399.52
892.629	385.68
893.007	411.94
893.385	413.07
893.763	374.38
894.141	399.23
894.519	376.92
894.897	406.29
895.275	401.78
895.653	401.78
896.03	428.6
896.408	408.55
896.786	376.92
897.163	380.31
897.541	405.16
897.918	411.38
898.295	387.65
898.673	430.57
899.05	367.32
899.427	392.46
899.804	366.47
900.181	374.1
900.558	393.59
900.935	389.91
901.312	398.67
901.688	375.51
902.065	385.11
902.442	400.08
902.818	384.55
903.195	372.97
903.571	381.44
903.947	381.72
904.324	387.65
904.7	386.81
905.076	412.79
905.452	395.56
905.828	391.89
906.204	385.11
906.58	367.03
906.956	394.72
907.331	398.1
907.707	395.56
908.083	418.72
908.458	398.1
908.834	386.81
909.209	380.88
909.585	389.91
909.96	382.85
910.335	400.08
910.71	418.15
911.086	412.22
911.461	398.39
911.836	382.85
912.21	376.07
912.585	399.23
912.96	407.42
913.335	377.2
913.709	383.42
914.084	400.36
914.459	413.35
914.833	372.4
915.207	370.42
915.582	379.46
915.956	370.71
916.33	372.97
916.704	403.19
917.078	387.65
917.452	390.2
917.826	393.87
918.2	401.49
918.574	401.49
918.948	378.33
919.321	396.41
919.695	411.66
920.068	393.3
920.442	382.29
920.815	382.57
921.189	387.09
921.562	418.43
921.935	407.14
922.308	368.45
922.681	393.02
923.054	396.69
923.427	367.6
923.8	399.8
924.173	389.63
924.546	382.01
924.919	393.59
925.291	387.37
925.664	355.45
926.036	391.04
926.409	387.09
926.781	374.38
927.153	387.09
927.526	400.36
927.898	393.02
928.27	397.26
928.642	358.56
929.014	382.57
929.386	385.11
929.758	372.68
930.129	389.35
930.501	378.9
930.873	374.38
931.244	362.23
931.616	376.92
931.987	406.01
932.359	388.78
932.73	392.17
933.101	424.08
933.472	370.42
933.843	403.19
934.214	388.22
934.585	406.86
934.956	381.44
935.327	367.6
935.698	387.65
936.069	380.59
936.439	403.19
936.81	397.54
937.18	391.04
937.551	382.01
937.921	384.55
938.292	386.24
938.662	385.68
939.032	388.5
939.402	382.85
939.772	378.05
940.142	374.94
940.512	386.81
940.882	400.36
941.252	379.46
941.621	383.14
941.991	360.54
942.361	404.6
942.73	354.88
943.1	370.14
943.469	384.27
943.838	394.72
944.208	384.27
944.577	394.15
944.946	374.1
945.315	378.05
945.684	377.49
946.053	370.99
946.422	370.71
946.791	385.96
947.159	379.46
947.528	378.33
947.897	395.56
948.265	378.33
948.634	404.32
949.002	404.03
949.371	362.51
949.739	389.35
950.107	395
950.475	400.65
950.843	374.38
951.211	359.69
951.579	377.2
951.947	372.4
952.315	374.94
952.683	364.49
953.05	379.75
953.418	378.33
953.785	348.67
954.153	381.44
954.52	386.24
954.888	374.38
955.255	406.01
955.622	387.65
955.989	382.29
956.356	374.94
956.723	409.96
957.09	392.46
957.457	401.49
957.824	391.04
958.191	382.29
958.557	387.09
958.924	387.09
959.291	379.18
959.657	381.44
960.023	404.6
960.39	374.94
960.756	396.69
961.122	390.76
961.488	397.54
961.855	407.14
962.221	387.94
962.586	395.84
962.952	361.67
963.318	405.73
963.684	390.48
964.05	403.75
964.415	377.77
964.781	383.7
965.146	392.46
965.512	396.41
965.877	386.52
966.242	381.16
966.608	393.3
966.973	386.24
967.338	379.18
967.703	397.54
968.068	382.85
968.433	419.28
968.797	415.61
969.162	371.84
969.527	398.1
969.891	375.23
970.256	379.46
970.62	376.64
970.985	396.13
971.349	398.39
971.714	397.26
972.078	391.04
972.442	376.36
972.806	386.81
973.17	395.84
973.534	356.3
973.898	391.33
974.262	391.33
974.625	398.39
974.989	383.7
975.353	367.32
975.716	396.69
976.08	390.76
976.443	375.51
976.806	375.51
977.17	374.66
977.533	388.78
977.896	423.8
978.259	362.8
978.622	404.88
978.985	374.94
979.348	385.96
979.711	385.39
980.073	387.94
980.436	397.54
980.799	375.79
981.161	377.49
981.524	373.53
981.886	393.59
982.248	383.98
982.611	402.34
982.973	394.43
983.335	399.52
983.697	385.68
984.059	368.45
984.421	392.17
984.783	374.66
985.145	368.45
985.506	383.14
985.868	362.8
986.23	404.88
986.591	379.75
986.953	389.91
987.314	398.67
987.675	395.56
988.037	711.48
988.398	425.49
988.759	377.2
989.12	380.88
989.481	373.53
989.842	379.18
990.203	401.21
990.564	382.29
990.924	382.57
991.285	837.08
991.646	382.57
992.006	382.29
992.367	409.4
992.727	362.8
993.087	377.2
993.448	383.98
993.808	393.59
994.168	378.62
994.528	386.24
994.888	374.94
995.248	395.84
995.608	389.63
995.967	411.38
996.327	391.61
996.687	390.48
997.046	393.3
997.406	382.29
997.765	388.22
998.125	401.49
998.484	380.88
998.843	424.08
999.202	357.99
999.561	363.93
999.92	393.3
1000.279	370.14
1000.638	364.77
1000.997	380.59
1001.356	379.46
1001.715	397.82
1002.073	371.27
1002.432	387.37
1002.79	382.85
1003.149	380.88
1003.507	384.55
1003.865	380.31
1004.224	420.98
1004.582	401.78
1004.94	396.41
1005.298	374.66
1005.656	375.51
1006.014	379.18
1006.371	376.36
1006.729	385.39
1007.087	391.33
1007.445	362.51
1007.802	375.23
1008.16	408.55
1008.517	401.78
1008.874	391.61
1009.232	376.92
1009.589	392.17
1009.946	387.09
1010.303	383.42
1010.66	383.14
1011.017	408.27
1011.374	411.09
1011.731	392.17
1012.087	383.98
1012.444	388.22
1012.801	389.35
1013.157	373.25
1013.513	388.78
1013.87	375.79
1014.226	392.46
1014.582	375.23
1014.939	378.62
1015.295	396.69
1015.651	386.81
1016.007	390.48
1016.363	365.06
1016.719	408.83
1017.074	370.99
1017.43	351.78
1017.786	363.08
1018.141	374.1
1018.497	376.64
1018.852	372.97
1019.208	381.16
1019.563	376.07
1019.918	391.89
1020.273	370.14
1020.628	370.99
1020.983	389.63
1021.338	372.12
1021.693	378.9
1022.048	392.46
1022.403	365.9
1022.757	394.15
1023.112	368.45
1023.467	362.23
1023.821	398.67
1024.175	384.55
1024.53	362.51
1024.884	380.31
1025.238	369.58
1025.592	359.69
1025.946	387.65
1026.3	374.94
1026.654	380.31
1027.008	353.75
1027.362	404.32
1027.716	375.23
1028.069	393.3
1028.423	395.28
1028.777	407.14
1029.13	383.14
1029.483	385.68
1029.837	387.37
1030.19	387.94
1030.543	376.64
1030.896	378.05
1031.249	363.36
1031.602	404.32
1031.955	396.13
1032.308	375.79
1032.661	392.74
1033.013	377.49
1033.366	374.38
1033.719	381.16
1034.071	380.88
1034.424	378.62
1034.776	410.53
1035.128	385.68
1035.48	382.29
1035.833	394.72
1036.185	404.88
1036.537	404.88
1036.889	404.88
