Data from SCSF78-405_irradiation_FLMS019251_04-16-11-313.txt Node
Date: Fri Feb 22 04:16:11 PST 2019
User: mu3e
Spectrometer: FLMS01925
Trigger mode: 0
Integration Time (sec): 3.659600E-1
Scans to average: 10
Electric dark correction enabled: true
Nonlinearity correction enabled: true
Boxcar width: 0
XAxis mode: Wavelengths
Number of Pixels in Spectrum: 2048
>>>>>Begin Spectral Data<<<<<
187.103	-103.49
187.574	-103.49
188.045	-103.49
188.516	-167.49
188.987	-81.6
189.458	-132.5
189.929	-122.54
190.4	-117.42
190.871	-106.9
191.342	-79.61
191.813	-71.94
192.284	-9.16
192.754	-36.14
193.225	0.21
193.696	17.81
194.166	42.5
194.637	79.95
195.107	120.21
195.578	126.73
196.048	140.62
196.518	147.14
196.989	189.35
197.459	212.56
197.929	209.73
198.399	326.29
198.869	308.19
199.339	336.46
199.809	350.03
200.279	371.22
200.749	349.74
201.219	358.79
201.689	349.46
202.159	389.86
202.628	375.74
203.098	378.85
203.568	375.17
204.037	403.7
204.507	405.39
204.976	426.85
205.445	411.61
205.915	403.13
206.384	380.82
206.853	389.58
207.323	391.84
207.792	384.78
208.261	404.26
208.73	384.21
209.199	439.55
209.668	419.79
210.137	420.92
210.606	414.99
211.075	405.96
211.543	402
212.012	387.32
212.481	332.79
212.95	372.35
213.418	445.2
213.887	371.22
214.355	419.51
214.824	398.9
215.292	364.72
215.76	335.05
216.229	366.13
216.697	390.71
217.165	379.13
217.633	397.2
218.101	364.44
218.569	440.12
219.037	377.72
219.505	420.36
219.973	382.8
220.441	347.48
220.909	377.72
221.377	373.76
221.844	381.67
222.312	392.69
222.78	356.24
223.247	375.46
223.715	355.11
224.182	362.74
224.65	387.32
225.117	380.82
225.584	356.81
226.052	374.89
226.519	371.22
226.986	350.31
227.453	387.6
227.92	378
228.387	405.96
228.854	365
229.321	371.5
229.788	371.78
230.255	390.71
230.722	392.97
231.189	392.4
231.655	359.92
232.122	357.94
232.589	377.15
233.055	358.22
233.522	407.37
233.988	357.37
234.454	383.93
234.921	379.13
235.387	410.48
235.853	400.88
236.32	370.09
236.786	396.64
237.252	355.11
237.718	418.95
238.184	359.92
238.65	361.89
239.116	387.6
239.582	387.88
240.047	363.02
240.513	382.23
240.979	377.43
241.445	374.89
241.91	386.75
242.376	353.7
242.841	414.71
243.307	376.3
243.772	377.72
244.238	394.94
244.703	404.26
245.168	365.57
245.633	363.87
246.099	388.17
246.564	371.22
247.029	398.62
247.494	360.48
247.959	406.52
248.424	392.12
248.889	380.26
249.353	373.76
249.818	352.85
250.283	377.43
250.748	383.36
251.212	392.4
251.677	392.69
252.141	388.73
252.606	375.74
253.07	396.36
253.535	370.37
253.999	376.02
254.463	381.95
254.927	359.07
255.392	412.73
255.856	409.06
256.32	398.05
256.784	368.96
257.248	374.33
257.712	420.92
258.176	450.56
258.64	366.98
259.103	376.87
259.567	384.21
260.031	367.55
260.495	401.16
260.958	424.31
261.422	385.34
261.885	385.34
262.349	372.07
262.812	373.76
263.275	364.16
263.739	402
264.202	407.09
264.665	392.97
265.128	404.55
265.591	397.2
266.054	388.73
266.517	403.42
266.98	410.48
267.443	387.32
267.906	401.44
268.369	370.94
268.832	383.65
269.294	376.87
269.757	392.97
270.22	367.26
270.682	391.56
271.145	410.19
271.607	392.4
272.07	463.82
272.532	398.62
272.994	379.41
273.456	396.36
273.919	455.36
274.381	382.52
274.843	421.49
275.305	435.32
275.767	399.75
276.229	408.22
276.691	411.89
277.153	382.8
277.614	421.2
278.076	380.54
278.538	402.85
279	373.2
279.461	410.48
279.923	455.36
280.384	355.4
280.846	397.77
281.307	364.72
281.769	391.27
282.23	407.93
282.691	411.04
283.152	409.63
283.613	375.46
284.075	398.05
284.536	404.26
284.997	370.94
285.458	396.36
285.918	385.62
286.379	406.52
286.84	431.37
287.301	378
287.762	385.34
288.222	383.93
288.683	401.44
289.143	396.64
289.604	404.55
290.064	401.16
290.525	368.68
290.985	444.92
291.445	408.78
291.906	392.97
292.366	400.59
292.826	376.87
293.286	422.9
293.746	415.56
294.206	433.91
294.666	383.36
295.126	403.98
295.586	389.3
296.046	395.51
296.506	427.7
296.965	396.64
297.425	391.84
297.884	424.03
298.344	398.33
298.804	407.65
299.263	381.95
299.722	419.51
300.182	392.4
300.641	407.65
301.1	386.19
301.559	412.17
302.019	391.56
302.478	387.88
302.937	421.77
303.396	412.45
303.855	475.95
304.314	432.78
304.772	560.82
305.231	391.84
305.69	410.19
306.149	420.64
306.607	385.91
307.066	394.38
307.524	415.56
307.983	403.13
308.441	408.5
308.9	437.29
309.358	426.85
309.816	483.29
310.275	409.63
310.733	378.28
311.191	422.05
311.649	422.62
312.107	417.82
312.565	398.9
313.023	383.08
313.481	409.06
313.939	434.47
314.397	410.48
314.854	429.39
315.312	407.93
315.77	418.66
316.227	392.97
316.685	424.03
317.142	383.08
317.6	438.99
318.057	427.42
318.514	390.99
318.972	407.09
319.429	441.81
319.886	404.26
320.343	389.3
320.8	420.36
321.257	402.57
321.714	432.78
322.171	476.8
322.628	407.37
323.085	395.51
323.542	392.4
323.998	409.63
324.455	384.49
324.912	421.49
325.368	387.6
325.825	442.09
326.281	396.92
326.738	426.85
327.194	387.6
327.65	424.03
328.107	388.73
328.563	402.85
329.019	446.61
329.475	404.83
329.931	391.84
330.387	426.85
330.843	397.77
331.299	432.78
331.755	413.58
332.211	423.75
332.666	390.14
333.122	385.91
333.578	429.11
334.033	403.42
334.489	419.51
334.944	374.89
335.4	473.98
335.855	427.7
336.31	405.39
336.766	431.93
337.221	409.35
337.676	408.5
338.131	427.42
338.586	426.57
339.041	409.63
339.496	450
339.951	417.25
340.406	441.25
340.861	407.65
341.316	406.52
341.771	414.99
342.225	414.71
342.68	406.52
343.134	419.23
343.589	425.16
344.043	424.03
344.498	439.84
344.952	442.38
345.406	620.54
345.861	422.33
346.315	429.96
346.769	444.92
347.223	409.91
347.677	434.75
348.131	407.37
348.585	408.22
349.039	418.66
349.493	436.17
349.947	396.92
350.401	416.97
350.854	397.2
351.308	429.39
351.762	396.36
352.215	443.79
352.669	406.81
353.122	393.53
353.575	399.18
354.029	434.47
354.482	369.24
354.935	401.44
355.388	439.84
355.842	432.21
356.295	442.38
356.748	402.57
357.201	430.52
357.654	434.19
358.106	417.25
358.559	414.71
359.012	428.54
359.465	397.2
359.917	449.71
360.37	403.98
360.823	411.89
361.275	451.12
361.728	403.7
362.18	412.17
362.632	436.73
363.085	436.73
363.537	427.7
363.989	432.21
364.441	425.44
364.893	408.5
365.345	393.53
365.797	421.2
366.249	435.88
366.701	424.31
367.153	441.25
367.605	417.82
368.057	406.24
368.508	398.33
368.96	379.69
369.411	403.13
369.863	441.25
370.314	427.98
370.766	417.53
371.217	427.42
371.669	435.88
372.12	444.92
372.571	448.87
373.022	429.11
373.473	435.88
373.924	458.74
374.375	444.63
374.826	442.94
375.277	450.56
375.728	409.91
376.179	402
376.63	423.46
377.08	414.99
377.531	395.51
377.981	403.42
378.432	439.55
378.883	430.8
379.333	422.33
379.783	416.97
380.234	436.45
380.684	421.2
381.134	446.61
381.584	444.07
382.034	453.95
382.485	438.42
382.935	407.37
383.385	447.46
383.834	404.26
384.284	431.93
384.734	391.84
385.184	435.32
385.634	403.7
386.083	426.29
386.533	437.86
386.982	441.81
387.432	453.38
387.881	428.54
388.331	409.91
388.78	417.82
389.229	435.32
389.679	407.93
390.128	462.69
390.577	422.62
391.026	412.73
391.475	420.64
391.924	438.99
392.373	397.49
392.822	410.76
393.27	454.51
393.719	442.66
394.168	410.48
394.617	431.37
395.065	443.5
395.514	482.44
395.962	467.21
396.411	438.14
396.859	442.09
397.307	498.8
397.756	459.03
398.204	435.32
398.652	497.11
399.1	483.57
399.548	439.84
399.996	484.98
400.444	472.57
400.892	459.59
401.34	454.51
401.788	470.03
402.236	448.02
402.683	448.3
403.131	487.24
403.579	485.83
404.026	442.09
404.474	466.64
404.921	469.18
405.369	466.36
405.816	488.37
406.263	489.49
406.71	477.65
407.158	467.21
407.605	487.52
408.052	469.46
408.499	532.64
408.946	501.9
409.393	516.85
409.84	499.65
410.286	502.47
410.733	554.06
411.18	563.64
411.626	595.47
412.073	634.33
412.52	700.46
412.966	838.99
413.413	957.1
413.859	1130.14
414.305	1314.22
414.752	1653.87
415.198	1985.14
415.644	2510.41
416.09	2982.09
416.536	3631.74
416.982	4360.96
417.428	5209.82
417.874	6209.88
418.32	7206.7
418.766	8343.99
419.211	9685.46
419.657	10822.43
420.103	12343.98
420.548	13544.87
420.994	15211.99
421.439	16683.02
421.885	18029.15
422.33	20038.27
422.776	21407.6
423.221	22842.98
423.666	24479.11
424.111	26178.26
424.556	27218.61
425.001	29106.72
425.446	30761
425.891	32010.74
426.336	33071.53
426.781	34433.41
427.226	36707.88
427.671	37140.57
428.115	37919.69
428.56	39728.3
429.005	41043.66
429.449	41294.47
429.894	42501.65
430.338	43502.12
430.782	43053.79
431.227	44563.59
431.671	44604.99
432.115	46062.94
432.559	46836.15
433.003	46327.15
433.447	47044.46
433.891	47144.4
434.335	47301.61
434.779	47949.42
435.223	48056.79
435.667	47901.16
436.111	48777.31
436.554	48220.89
436.998	47590
437.442	47514.51
437.885	49597.92
438.328	47889.61
438.772	48135.47
439.215	48530.21
439.659	48251.01
440.102	48541.83
440.545	47880.37
440.988	47676.29
441.431	48470.6
441.874	48183.06
442.317	48277.02
442.76	47747.01
443.203	47234.47
443.646	48028.53
444.089	47621.23
444.531	48034.18
444.974	46789.85
445.417	48012.08
445.859	47080.65
446.302	48320.8
446.744	47565.94
447.186	48770.33
447.629	47894.74
448.071	47896.79
448.513	47975.35
448.956	49505.01
449.398	48625.78
449.84	47445.46
450.282	48220.12
450.724	48771.1
451.166	48315.14
451.607	48609.24
452.049	48588.83
452.491	49965.1
452.933	49372.86
453.374	50118.43
453.816	50600.65
454.257	50316.05
454.699	51405
455.14	51089.87
455.582	50965.31
456.023	51060.57
456.464	51288.38
456.905	51989.05
457.347	52017.72
457.788	50816.82
458.229	51207.2
458.67	52399.09
459.111	50279.17
459.552	50492.01
459.992	50426.01
460.433	50336.35
460.874	49248.18
461.315	50634.51
461.755	49686.75
462.196	49234.92
462.636	48408.44
463.077	48174.31
463.517	48203.13
463.957	48675.14
464.398	48406.37
464.838	48583.15
465.278	47342.73
465.718	47622.77
466.158	46543.33
466.598	47210.99
467.038	46704.66
467.478	47286.03
467.918	47473.08
468.358	46907.67
468.798	46512.35
469.237	46431.64
469.677	46477.32
470.117	47442.4
470.556	44771.69
470.996	45486.93
471.435	45932.39
471.874	46462.35
472.314	46198.15
472.753	45191.37
473.192	45477.85
473.631	45288.32
474.07	45385.08
474.509	45537.63
474.948	45850.23
475.387	45272.96
475.826	44282.54
476.265	46117.36
476.704	45759.52
477.143	46221.96
477.581	45926.07
478.02	46687.63
478.458	45076.36
478.897	46012.33
479.335	47204.86
479.774	46668.56
480.212	46976.94
480.65	46822.16
481.089	46558.56
481.527	46189.79
481.965	45654.72
482.403	47934.27
482.841	47728.82
483.279	47786.75
483.717	47969.7
484.155	47486.89
484.592	47822.9
485.03	48264.4
485.468	47086.01
485.905	47229.62
486.343	48034.44
486.781	47178.07
487.218	46532.66
487.655	46482.14
488.093	45550.24
488.53	47337.11
488.967	46436.46
489.405	46159.9
489.842	45252.81
490.279	45391.88
490.716	44997.88
491.153	45538.38
491.59	44819.92
492.027	44102.75
492.463	43673.41
492.9	43037.84
493.337	42834.67
493.773	42967.86
494.21	42002.05
494.647	41808.88
495.083	40994.46
495.519	40613.27
495.956	40519.7
496.392	39910.83
496.828	39617.01
497.265	38894.39
497.701	39159.87
498.137	38774.25
498.573	37630.69
499.009	38382.1
499.445	37512.83
499.881	36843.92
500.316	37190.03
500.752	36275.98
501.188	36049.13
501.624	35923.27
502.059	34603.97
502.495	34355.1
502.93	34278.49
503.366	34952.48
503.801	33808.21
504.236	33547.02
504.672	32864.53
505.107	32650.23
505.542	31977.82
505.977	32029.75
506.412	31492.86
506.847	31838.85
507.282	31187.08
507.717	30790.03
508.152	31007.83
508.587	30581.47
509.021	29849.94
509.456	29445.44
509.891	29514.78
510.325	29518.44
510.76	29133.59
511.194	28844.6
511.628	28868.3
512.063	27964.8
512.497	28118.63
512.931	27610.53
513.366	27452.42
513.8	27529.52
514.234	26629.92
514.668	26715.94
515.102	27068
515.536	26012.42
515.969	26167.23
516.403	25628.04
516.837	25288.6
517.271	25391.78
517.704	24837.79
518.138	24691.44
518.571	24460.16
519.005	24170.17
519.438	24037.17
519.871	23810.26
520.305	23368.69
520.738	23195.25
521.171	22679.72
521.604	22870.39
522.037	22556.67
522.47	22185.85
522.903	21743.43
523.336	21674.6
523.769	21467.55
524.202	20880.3
524.634	20967.6
525.067	20671.62
525.5	20524.17
525.932	20392.57
526.365	19884.13
526.797	19756.55
527.23	19858.27
527.662	19183.57
528.094	18867.61
528.527	18834.71
528.959	18476.3
529.391	18275.39
529.823	17658.5
530.255	17679.26
530.687	17328.79
531.119	17064.66
531.551	17072.42
531.982	16586.24
532.414	16409.64
532.846	16210.87
533.277	15934.61
533.709	15577.4
534.14	15449.6
534.572	15327.55
535.003	15188.83
535.435	14849.71
535.866	14605.85
536.297	14215.32
536.728	14311.04
537.159	14124.37
537.59	13863.22
538.022	13655.5
538.452	13428.12
538.883	13171.4
539.314	13086.95
539.745	12785.45
540.176	12642.7
540.606	12311.67
541.037	12277.57
541.468	12026.28
541.898	12009.22
542.328	11860.14
542.759	11653.05
543.189	11484.32
543.619	11428.14
544.05	11176.91
544.48	10978.38
544.91	10864.69
545.34	10673.54
545.77	10549.42
546.2	10450.11
546.63	10331.5
547.06	10258.55
547.489	10071.92
547.919	9760.71
548.349	9857.56
548.778	9762.77
549.208	9542.09
549.637	9393.18
550.067	9281.85
550.496	9279.27
550.926	9130.12
551.355	8908.84
551.784	8847.97
552.213	8666.76
552.642	8619.03
553.071	8565.83
553.5	8490.27
553.929	8143.69
554.358	8219.16
554.787	8070.52
555.216	7999.65
555.645	7912.33
556.073	7799.64
556.502	7668.05
556.93	7539.2
557.359	7414.94
557.787	7434.31
558.216	7328.02
558.644	7225.05
559.072	7132.49
559.5	7082.38
559.929	7045.64
560.357	6989.98
560.785	6855.46
561.213	6804.71
561.641	6710.51
562.068	6739.73
562.496	6585.95
562.924	6537.99
563.352	6545.11
563.779	6477.87
564.207	6515.84
564.634	6460.2
565.062	6416.15
565.489	6309.23
565.917	6264.32
566.344	6187.15
566.771	6151.98
567.198	6125
567.625	5996.62
568.053	5925.62
568.48	5939.66
568.907	5859.35
569.333	5798.6
569.76	5575.77
570.187	5629.73
570.614	5469.9
571.04	11357.12
571.467	5462.18
571.894	5271.16
572.32	5144.16
572.747	5086.48
573.173	4965.93
573.599	4962.72
574.026	4799.97
574.452	4774.24
574.878	4700.52
575.304	4567.69
575.73	4562.59
576.156	4435.21
576.582	4395.94
577.008	4334.85
577.434	4235.46
577.86	4128.42
578.285	4128.96
578.711	4008.82
579.137	4018.01
579.562	3915.85
579.988	3874.73
580.413	3804.64
580.838	3725
581.264	3711.45
581.689	3674.59
582.114	3648.28
582.539	4002.34
582.964	3508.22
583.39	3494.64
583.814	3387.8
584.239	3325.49
584.664	3259.31
585.089	3199.63
585.514	3197.18
585.939	3145.09
586.363	3088.88
586.788	3074.41
587.212	3016.79
587.637	2969.52
588.061	2930.69
588.485	2877.9
588.91	2901.43
589.334	2856.82
589.758	2863.12
590.182	2745.35
590.606	2695.45
591.03	2661.17
591.454	2644.43
591.878	2594.48
592.302	2551.63
592.726	2566.74
593.15	2490.62
593.573	2440.85
593.997	2443.32
594.42	2366.82
594.844	2353.05
595.267	2361.86
595.691	2310.91
596.114	2251.92
596.537	2245.86
596.96	2236.76
597.384	2201.73
597.807	2157.57
598.23	2153.43
598.653	2163.65
599.076	2118.92
599.499	2150.4
599.921	2078.31
600.344	2070.02
600.767	2066.43
601.189	2083.01
601.612	2014.18
602.034	2039.62
602.457	1985.14
602.879	2123.06
603.302	1959.96
603.724	1970.2
604.146	1961.62
604.568	1922.04
604.991	1921.21
605.413	1936.16
605.835	1930.62
606.257	1887.98
606.678	1887.7
607.1	1864.99
607.522	1883.83
607.944	1891.58
608.365	1864.44
608.787	1779.33
609.209	1810.39
609.63	1772.12
610.051	1785.16
610.473	1732.73
610.894	1731.34
611.315	1716.07
611.737	1723.01
612.158	1651.37
612.579	1615.25
613	1718.02
613.421	1571.32
613.842	1603.3
614.263	1541
614.683	1534.05
615.104	1548.24
615.525	1520.14
615.945	1500.38
616.366	1440.79
616.787	1485.35
617.207	1418.78
617.627	1388.68
618.048	1383.39
618.468	1333.19
618.888	1341.56
619.308	1325.94
619.728	1308.36
620.148	1274.03
620.568	1271.8
620.988	1290.78
621.408	1278.78
621.828	1273.48
622.248	1242.48
622.668	1236.34
623.087	1196.95
623.507	1201.42
623.926	1184.93
624.346	1173.19
624.765	1176.27
625.185	1137.13
625.604	1139.64
626.023	1128.18
626.442	1115.87
626.861	1114.19
627.28	1056.82
627.699	1078.94
628.118	1057.1
628.537	1085.93
628.956	1050.39
629.375	1102.72
629.794	1053.46
630.212	1047.59
630.631	1027.42
631.049	1010.9
631.468	1022.38
631.886	974.48
632.305	1018.74
632.723	966.35
633.141	920.09
633.559	934.39
633.978	931.3
634.396	959.62
634.814	935.79
635.232	881.94
635.65	929.62
636.067	922.61
636.485	886.15
636.903	881.38
637.321	861.73
637.738	931.87
638.156	869.03
638.573	842.36
638.991	935.79
639.408	869.03
639.825	795.75
640.243	811.76
640.66	827.48
641.077	855.28
641.494	846.01
641.911	833.66
642.328	800.52
642.745	789.57
643.162	813.16
643.579	821.59
643.995	750.22
644.412	851.63
644.829	781.14
645.245	774.96
645.662	727.17
646.078	731.95
646.495	747.41
646.911	724.92
647.327	746.01
647.743	734.48
648.159	730.27
648.576	676.26
648.992	722.39
649.408	718.46
649.824	675.7
650.239	711.71
650.655	679.64
651.071	720.71
651.487	732.8
651.902	709.18
652.318	646.72
652.733	655.72
653.149	659.94
653.564	642.21
653.979	658.82
654.395	627.86
654.81	643.34
655.225	642.21
655.64	686.39
656.055	688.08
656.47	635.74
656.885	667.26
657.3	620.82
657.715	674.58
658.13	634.89
658.544	644.18
658.959	645.87
659.374	633.49
659.788	648.12
660.202	643.62
660.617	663.04
661.031	601.1
661.445	624.76
661.86	613.21
662.274	639.96
662.688	657.13
663.102	580.26
663.516	629.54
663.93	601.39
664.344	588.15
664.758	605.89
665.171	570.68
665.585	568.99
665.999	567.58
666.412	577.44
666.826	600.26
667.239	594.91
667.653	563.92
668.066	540.53
668.479	554.34
668.892	560.26
669.306	586.74
669.719	578.01
670.132	587.02
670.545	565.61
670.958	571.25
671.37	550.67
671.783	508.11
672.196	580.82
672.609	550.96
673.021	520.8
673.434	546.73
673.846	538.84
674.259	510.93
674.671	513.46
675.084	537.15
675.496	511.77
675.908	527.28
676.32	516.57
676.732	508.39
677.144	542.22
677.556	514.59
677.968	539.68
678.38	537.15
678.792	503.88
679.204	532.92
679.615	521.64
680.027	523.05
680.439	506.42
680.85	509.52
681.262	550.11
681.673	496.83
682.084	525.02
682.496	487.24
682.907	523.33
683.318	517.69
683.729	492.6
684.14	462.69
684.551	491.19
684.962	508.11
685.373	484.42
685.784	489.21
686.194	477.65
686.605	508.11
687.016	499.65
687.426	494.85
687.837	468.9
688.247	462.13
688.657	472.57
689.068	508.95
689.478	488.08
689.888	472.57
690.298	489.78
690.708	481.88
691.118	465.8
691.528	444.92
691.938	470.59
692.348	477.36
692.758	459.03
693.168	461.28
693.577	485.26
693.987	439.84
694.396	447.17
694.806	442.09
695.215	480.19
695.625	474.54
696.034	481.03
696.443	447.17
696.852	494.57
697.262	457.9
697.671	441.53
698.08	471.16
698.489	445.2
698.897	424.87
699.306	460.44
699.715	431.08
700.124	463.26
700.532	429.67
700.941	437.86
701.35	446.04
701.758	458.74
702.166	422.9
702.575	440.68
702.983	434.47
703.391	447.46
703.799	462.98
704.208	441.53
704.616	433.06
705.024	464.95
705.432	469.75
705.839	443.79
706.247	459.31
706.655	525.31
707.063	416.12
707.47	445.48
707.878	435.88
708.285	414.71
708.693	425.44
709.1	437.86
709.508	420.08
709.915	444.63
710.322	484.42
710.729	539.12
711.136	426.85
711.543	402.57
711.95	415.84
712.357	433.63
712.764	427.42
713.171	427.98
713.578	423.46
713.984	421.77
714.391	446.33
714.797	418.1
715.204	417.53
715.61	472.57
716.017	441.25
716.423	433.06
716.829	418.95
717.236	424.03
717.642	398.62
718.048	445.48
718.454	446.61
718.86	407.93
719.266	498.52
719.671	403.42
720.077	432.5
720.483	408.5
720.889	470.88
721.294	408.5
721.7	413.02
722.105	422.33
722.511	425.44
722.916	430.52
723.321	441.53
723.726	450
724.132	416.69
724.537	426.29
724.942	428.26
725.347	413.86
725.752	428.26
726.156	418.95
726.561	421.49
726.966	423.18
727.371	425.44
727.775	452.82
728.18	380.26
728.584	416.12
728.989	425.72
729.393	496.26
729.798	398.62
730.202	447.74
730.606	422.05
731.01	425.44
731.414	401.16
731.818	400.03
732.222	450.84
732.626	415.56
733.03	422.33
733.434	394.94
733.837	450.56
734.241	441.25
734.645	413.3
735.048	397.49
735.452	414.43
735.855	388.17
736.258	429.67
736.662	475.95
737.065	476.24
737.468	442.66
737.871	424.31
738.274	423.46
738.677	401.72
739.08	399.46
739.483	430.8
739.886	432.5
740.289	439.84
740.691	416.41
741.094	393.25
741.497	411.04
741.899	442.66
742.302	387.04
742.704	389.3
743.106	415.56
743.508	387.88
743.911	397.2
744.313	426.29
744.715	394.66
745.117	424.87
745.519	401.16
745.921	396.64
746.323	392.69
746.724	371.5
747.126	411.04
747.528	452.25
747.929	375.74
748.331	384.78
748.732	408.22
749.134	413.3
749.535	412.73
749.936	442.66
750.338	388.73
750.739	463.54
751.14	398.33
751.541	422.33
751.942	406.81
752.343	407.09
752.744	394.38
753.144	390.43
753.545	396.07
753.946	417.53
754.346	392.97
754.747	428.54
755.148	498.8
755.548	396.92
755.948	387.88
756.349	421.2
756.749	438.14
757.149	374.89
757.549	402.29
757.949	446.61
758.349	403.7
758.749	394.94
759.149	374.89
759.549	387.04
759.949	399.18
760.348	465.8
760.748	415.56
761.148	374.89
761.547	391.27
761.947	355.4
762.346	434.19
762.745	434.47
763.145	390.14
763.544	396.36
763.943	420.36
764.342	362.18
764.741	394.38
765.14	400.88
765.539	379.69
765.938	454.23
766.336	368.11
766.735	380.26
767.134	406.81
767.532	396.64
767.931	433.91
768.329	467.49
768.728	368.11
769.126	412.45
769.525	459.59
769.923	411.89
770.321	410.19
770.719	417.25
771.117	394.38
771.515	381.11
771.913	386.19
772.311	381.39
772.709	393.25
773.106	391.84
773.504	370.37
773.902	382.8
774.299	393.81
774.697	517.41
775.094	420.92
775.491	403.42
775.889	388.17
776.286	398.05
776.683	402.29
777.08	373.76
777.477	403.7
777.874	400.59
778.271	399.46
778.668	386.19
779.065	386.47
779.462	380.82
779.858	378
780.255	425.72
780.652	396.07
781.048	434.47
781.444	377.15
781.841	427.7
782.237	385.62
782.633	362.46
783.03	409.35
783.426	386.75
783.822	403.13
784.218	399.46
784.614	382.52
785.01	386.19
785.405	409.06
785.801	387.32
786.197	385.91
786.593	408.5
786.988	399.75
787.384	400.59
787.779	405.68
788.174	402.85
788.57	382.23
788.965	383.36
789.36	383.65
789.755	377.43
790.15	383.65
790.545	407.93
790.94	400.31
791.335	383.08
791.73	379.41
792.125	420.92
792.52	410.76
792.914	412.73
793.309	372.63
793.703	394.38
794.098	365.57
794.492	416.12
794.887	387.32
795.281	442.38
795.675	423.18
796.069	404.55
796.463	407.93
796.857	365.29
797.251	402.57
797.645	357.37
798.039	389.86
798.433	381.11
798.826	373.76
799.22	374.61
799.614	418.38
800.007	384.21
800.401	397.49
800.794	381.11
801.187	375.74
801.581	403.98
801.974	407.09
802.367	412.45
802.76	382.23
803.153	379.13
803.546	377.15
803.939	410.19
804.332	370.37
804.725	389.01
805.117	381.39
805.51	414.43
805.903	398.05
806.295	393.53
806.688	362.46
807.08	379.69
807.472	367.83
807.865	410.19
808.257	397.77
808.649	407.09
809.041	365.85
809.433	401.72
809.825	396.07
810.217	381.67
810.609	422.62
811.001	409.63
811.392	372.07
811.784	422.33
812.175	398.62
812.567	371.5
812.958	398.05
813.35	389.86
813.741	376.87
814.132	386.47
814.524	387.04
814.915	364.16
815.306	369.52
815.697	382.8
816.088	393.53
816.479	404.83
816.87	409.63
817.26	387.88
817.651	457.33
818.042	392.12
818.432	399.75
818.823	400.03
819.213	383.65
819.604	386.47
819.994	413.58
820.384	348.33
820.775	406.52
821.165	374.61
821.555	387.04
821.945	385.62
822.335	368.68
822.725	389.58
823.114	393.81
823.504	372.07
823.894	378
824.284	413.3
824.673	388.17
825.063	405.96
825.452	379.41
825.842	378.56
826.231	438.42
826.62	396.07
827.009	390.43
827.399	379.41
827.788	365.57
828.177	408.22
828.566	392.12
828.954	482.16
829.343	393.53
829.732	392.69
830.121	456.2
830.509	427.13
830.898	363.02
831.286	356.81
831.675	366.98
832.063	398.33
832.452	395.23
832.84	373.76
833.228	430.24
833.616	383.36
834.004	392.12
834.392	387.04
834.78	425.72
835.168	374.89
835.556	409.06
835.944	370.94
836.331	416.41
836.719	399.18
837.107	380.54
837.494	386.75
837.881	374.61
838.269	386.47
838.656	367.83
839.043	397.49
839.431	468.05
839.818	393.25
840.205	378.28
840.592	384.49
840.979	372.35
841.366	354.83
841.752	333.64
842.139	347.48
842.526	377.15
842.912	407.09
843.299	390.99
843.685	403.7
844.072	383.08
844.458	396.64
844.844	402.57
845.231	364.72
845.617	376.3
846.003	394.66
846.389	379.41
846.775	373.2
847.161	420.64
847.547	385.62
847.933	363.02
848.318	390.43
848.704	380.82
849.09	363.31
849.475	363.87
849.861	437.58
850.246	385.34
850.631	422.05
851.017	398.05
851.402	385.91
851.787	410.19
852.172	418.66
852.557	396.92
852.942	370.65
853.327	371.78
853.712	408.22
854.097	405.68
854.481	373.48
854.866	383.08
855.25	365.29
855.635	407.37
856.019	380.26
856.404	357.66
856.788	364.72
857.172	354.55
857.557	402.57
857.941	413.02
858.325	375.46
858.709	385.34
859.093	346.35
859.477	385.91
859.86	421.49
860.244	380.26
860.628	430.8
861.012	392.4
861.395	357.66
861.779	392.69
862.162	380.82
862.545	352.57
862.929	403.98
863.312	392.97
863.695	343.24
864.078	379.13
864.461	363.87
864.844	389.01
865.227	389.01
865.61	352.29
865.993	370.94
866.376	389.58
866.758	373.48
867.141	412.17
867.523	392.12
867.906	376.59
868.288	409.06
868.671	378.56
869.053	347.2
869.435	385.06
869.817	408.5
870.199	384.49
870.581	375.46
870.963	383.08
871.345	409.06
871.727	374.33
872.109	351.16
872.491	371.22
872.872	380.54
873.254	401.16
873.635	373.2
874.017	425.16
874.398	393.81
874.779	405.68
875.161	391.27
875.542	383.65
875.923	381.67
876.304	375.46
876.685	371.5
877.066	410.76
877.447	363.87
877.828	366.42
878.208	402.85
878.589	405.11
878.97	429.96
879.35	363.87
879.731	369.81
880.111	374.04
880.491	373.2
880.872	395.51
881.252	365.57
881.632	372.07
882.012	404.83
882.392	413.58
882.772	389.3
883.152	391.27
883.532	376.3
883.912	436.17
884.291	371.5
884.671	393.81
885.051	383.93
885.43	391.27
885.81	379.98
886.189	384.78
886.568	375.17
886.948	389.3
887.327	421.77
887.706	356.53
888.085	444.35
888.464	375.74
888.843	429.67
889.222	427.98
889.601	388.17
889.979	368.96
890.358	383.93
890.737	407.37
891.115	387.32
891.494	365
891.872	388.73
892.25	365
892.629	396.64
893.007	457.05
893.385	370.37
893.763	350.87
894.141	398.05
894.519	403.13
894.897	377.15
895.275	386.75
895.653	366.98
896.03	400.59
896.408	397.49
896.786	362.46
897.163	389.01
897.541	367.26
897.918	402.29
898.295	363.02
898.673	382.52
899.05	396.64
899.427	562.79
899.804	377.15
900.181	377.43
900.558	394.1
900.935	382.52
901.312	368.39
901.688	378.28
902.065	406.24
902.442	409.35
902.818	356.53
903.195	370.94
903.571	375.17
903.947	355.4
904.324	383.93
904.7	370.09
905.076	423.75
905.452	353.98
905.828	387.88
906.204	396.92
906.58	380.26
906.956	383.65
907.331	407.93
907.707	379.69
908.083	394.66
908.458	375.17
908.834	384.21
909.209	375.46
909.585	378
909.96	373.48
910.335	352.57
910.71	335.9
911.086	368.11
911.461	383.93
911.836	388.45
912.21	379.13
912.585	378
912.96	392.12
913.335	380.26
913.709	404.55
914.084	370.37
914.459	389.01
914.833	396.36
915.207	370.37
915.582	376.02
915.956	351.44
916.33	387.32
916.704	374.04
917.078	401.72
917.452	387.6
917.826	358.22
918.2	366.13
918.574	376.02
918.948	368.68
919.321	376.59
919.695	344.94
920.068	371.78
920.442	379.41
920.815	374.33
921.189	356.24
921.562	415.28
921.935	367.26
922.308	373.2
922.681	399.75
923.054	411.04
923.427	409.06
923.8	404.55
924.173	355.11
924.546	345.22
924.919	385.62
925.291	366.7
925.664	363.59
926.036	374.61
926.409	374.61
926.781	351.16
927.153	364.72
927.526	404.83
927.898	359.92
928.27	370.37
928.642	398.33
929.014	397.77
929.386	365.29
929.758	353.42
930.129	369.81
930.501	392.69
930.873	383.93
931.244	396.36
931.616	379.41
931.987	390.14
932.359	409.06
932.73	379.69
933.101	368.68
933.472	368.68
933.843	409.91
934.214	391.27
934.585	367.83
934.956	400.59
935.327	469.75
935.698	352.85
936.069	375.46
936.439	384.21
936.81	359.07
937.18	364.44
937.551	377.43
937.921	423.46
938.292	408.22
938.662	383.36
939.032	383.65
939.402	354.27
939.772	389.01
940.142	368.96
940.512	375.46
940.882	356.81
941.252	384.21
941.621	385.06
941.991	373.76
942.361	419.23
942.73	383.36
943.1	365.29
943.469	388.73
943.838	420.08
944.208	405.39
944.577	373.2
944.946	372.91
945.315	374.89
945.684	375.74
946.053	365
946.422	369.24
946.791	375.46
947.159	379.98
947.528	357.37
947.897	381.39
948.265	365.57
948.634	397.49
949.002	349.18
949.371	358.22
949.739	367.26
950.107	387.04
950.475	343.53
950.843	367.83
951.211	406.24
951.579	395.51
951.947	340.14
952.315	355.4
952.683	363.59
953.05	373.76
953.418	406.81
953.785	352.29
954.153	372.35
954.52	354.83
954.888	385.06
955.255	364.72
955.622	353.14
955.989	367.55
956.356	421.2
956.723	381.95
957.09	385.34
957.457	394.94
957.824	340.98
958.191	366.7
958.557	391.56
958.924	387.6
959.291	370.65
959.657	366.13
960.023	467.77
960.39	357.09
960.756	352.29
961.122	404.26
961.488	363.87
961.855	392.12
962.221	350.59
962.586	353.7
962.952	423.18
963.318	391.84
963.684	452.53
964.05	393.25
964.415	389.86
964.781	381.39
965.146	366.98
965.512	402.57
965.877	352.85
966.242	370.09
966.608	389.86
966.973	389.58
967.338	362.18
967.703	376.3
968.068	354.27
968.433	397.2
968.797	426.29
969.162	377.72
969.527	353.14
969.891	370.94
970.256	352.01
970.62	358.22
970.985	383.08
971.349	379.69
971.714	372.91
972.078	393.81
972.442	378.28
972.806	396.64
973.17	348.9
973.534	361.89
973.898	383.36
974.262	367.55
974.625	401.44
974.989	370.09
975.353	407.37
975.716	392.12
976.08	367.55
976.443	369.52
976.806	374.89
977.17	377.72
977.533	369.52
977.896	395.51
978.259	370.37
978.622	501.06
978.985	382.23
979.348	382.52
979.711	378
980.073	366.7
980.436	385.06
980.799	387.6
981.161	382.23
981.524	340.14
981.886	359.63
982.248	361.61
982.611	374.61
982.973	332.5
983.335	350.59
983.697	379.41
984.059	354.55
984.421	335.05
984.783	372.63
985.145	377.43
985.506	387.04
985.868	391.27
986.23	349.74
986.591	374.61
986.953	384.49
987.314	335.9
987.675	350.31
988.037	3484.32
988.398	457.9
988.759	383.08
989.12	391.27
989.481	396.92
989.842	382.23
990.203	374.33
990.564	341.83
990.924	383.08
991.285	3678.11
991.646	447.74
992.006	368.39
992.367	383.93
992.727	366.13
993.087	371.5
993.448	350.31
993.808	368.96
994.168	345.22
994.528	382.52
994.888	383.65
995.248	382.8
995.608	364.44
995.967	355.4
996.327	338.44
996.687	378.56
997.046	359.35
997.406	352.57
997.765	376.59
998.125	368.96
998.484	348.33
998.843	436.45
999.202	402.85
999.561	339.29
999.92	348.61
1000.279	376.87
1000.638	337.59
1000.997	359.07
1001.356	376.59
1001.715	354.83
1002.073	381.11
1002.432	396.64
1002.79	374.61
1003.149	348.33
1003.507	372.91
1003.865	346.92
1004.224	354.55
1004.582	402.85
1004.94	392.12
1005.298	358.22
1005.656	361.33
1006.014	340.7
1006.371	366.42
1006.729	332.79
1007.087	408.5
1007.445	378.56
1007.802	399.75
1008.16	375.17
1008.517	349.18
1008.874	407.65
1009.232	355.11
1009.589	412.17
1009.946	368.39
1010.303	373.2
1010.66	355.4
1011.017	370.09
1011.374	390.99
1011.731	378
1012.087	378
1012.444	368.96
1012.801	393.25
1013.157	338.72
1013.513	346.64
1013.87	360.48
1014.226	384.49
1014.582	380.54
1014.939	364.44
1015.295	373.76
1015.651	383.36
1016.007	348.05
1016.363	405.68
1016.719	349.74
1017.074	421.77
1017.43	331.94
1017.786	382.8
1018.141	366.7
1018.497	340.42
1018.852	362.74
1019.208	370.94
1019.563	369.52
1019.918	349.18
1020.273	379.13
1020.628	354.83
1020.983	405.96
1021.338	347.77
1021.693	362.74
1022.048	353.7
1022.403	371.22
1022.757	364.44
1023.112	369.52
1023.467	361.61
1023.821	375.17
1024.175	386.75
1024.53	340.42
1024.884	321.76
1025.238	374.33
1025.592	360.2
1025.946	343.81
1026.3	372.91
1026.654	369.24
1027.008	343.81
1027.362	338.16
1027.716	342.96
1028.069	347.77
1028.423	367.83
1028.777	328.55
1029.13	352.29
1029.483	365
1029.837	369.81
1030.19	348.33
1030.543	357.66
1030.896	370.09
1031.249	386.47
1031.602	359.92
1031.955	325.16
1032.308	369.81
1032.661	405.39
1033.013	332.22
1033.366	363.31
1033.719	375.17
1034.071	359.07
1034.424	377.43
1034.776	361.05
1035.128	354.55
1035.48	363.02
1035.833	392.69
1036.185	382.8
1036.537	382.8
1036.889	382.8
