Data from SCSF78-405_irradiation_FLMS019251_03-35-12-305.txt Node
Date: Fri Feb 22 03:35:12 PST 2019
User: mu3e
Spectrometer: FLMS01925
Trigger mode: 0
Integration Time (sec): 3.659600E-1
Scans to average: 10
Electric dark correction enabled: true
Nonlinearity correction enabled: true
Boxcar width: 0
XAxis mode: Wavelengths
Number of Pixels in Spectrum: 2048
>>>>>Begin Spectral Data<<<<<
187.103	-111.61
187.574	-111.61
188.045	-111.61
188.516	-203.23
188.987	-103.08
189.458	-124.41
189.929	-141.48
190.4	-95.69
190.871	-106.21
191.342	-82.33
191.813	-73.52
192.284	0.62
192.754	-44.82
193.225	-24.65
193.696	29.86
194.166	59.37
194.637	71.85
195.107	94.54
195.578	127.14
196.048	141.88
196.518	166.81
196.989	176.44
197.459	198.53
197.929	224.01
198.399	315.38
198.869	286.26
199.339	310.01
199.809	325.84
200.279	379.25
200.749	350.72
201.219	359.19
201.689	345.63
202.159	358.63
202.628	371.06
203.098	394.79
203.568	390.83
204.037	418.22
204.507	391.11
204.976	390.27
205.445	394.79
205.915	394.5
206.384	368.52
206.853	387.73
207.323	416.81
207.792	381.79
208.261	395.92
208.73	399.02
209.199	411.16
209.668	423.59
210.137	414.83
210.606	388.85
211.075	404.39
211.543	405.52
212.012	399.02
212.481	354.67
212.95	370.49
213.418	402.69
213.887	375.58
214.355	394.5
214.824	391.68
215.292	349.02
215.76	341.39
216.229	357.5
216.697	354.39
217.165	356.08
217.633	349.3
218.101	388.85
218.569	448.71
219.037	373.6
219.505	392.53
219.973	397.05
220.441	346.76
220.909	355.52
221.377	369.36
221.844	358.35
222.312	357.5
222.78	341.11
223.247	378.4
223.715	327.82
224.182	339.41
224.65	379.25
225.117	391.11
225.584	342.24
226.052	355.24
226.519	349.87
226.986	354.39
227.453	352.98
227.92	356.65
228.387	393.66
228.854	380.66
229.321	359.19
229.788	366.26
230.255	365.13
230.722	400.15
231.189	385.47
231.655	364.28
232.122	369.65
232.589	356.65
233.055	361.45
233.522	397.33
233.988	362.3
234.454	407.78
234.921	392.81
235.387	429.8
235.853	372.75
236.32	388.85
236.786	360.32
237.252	365.13
237.718	432.62
238.184	376.71
238.65	391.11
239.116	363.71
239.582	400.72
240.047	355.52
240.513	392.24
240.979	375.86
241.445	370.49
241.91	379.25
242.376	362.58
242.841	397.05
243.307	346.19
243.772	355.8
244.238	350.15
244.703	382.92
245.168	383.49
245.633	376.99
246.099	346.76
246.564	379.53
247.029	385.75
247.494	345.91
247.959	377.56
248.424	395.92
248.889	381.79
249.353	374.45
249.818	343.09
250.283	367.67
250.748	368.52
251.212	389.14
251.677	364
252.141	380.66
252.606	391.68
253.07	365.41
253.535	370.78
253.999	375.01
254.463	371.06
254.927	355.8
255.392	377.84
255.856	375.3
256.32	374.45
256.784	398.74
257.248	387.16
257.712	371.91
258.176	412.58
258.64	364.84
259.103	390.55
259.567	377.56
260.031	386.03
260.495	372.19
260.958	386.03
261.422	386.6
261.885	399.02
262.349	421.05
262.812	358.91
263.275	343.09
263.739	371.34
264.202	401.28
264.665	384.62
265.128	385.47
265.591	393.66
266.054	410.32
266.517	400.43
266.98	388.57
267.443	376.71
267.906	370.78
268.369	363.43
268.832	394.5
269.294	399.3
269.757	389.7
270.22	377.56
270.682	366.82
271.145	410.03
271.607	363.15
272.07	492.72
272.532	386.88
272.994	383.49
273.456	397.61
273.919	445.04
274.381	380.66
274.843	434.6
275.305	443.91
275.767	399.02
276.229	393.94
276.691	381.51
277.153	399.3
277.614	416.53
278.076	341.96
278.538	380.95
279	402.41
279.461	397.33
279.923	462.82
280.384	358.63
280.846	385.47
281.307	400.43
281.769	409.19
282.23	392.53
282.691	436.57
283.152	378.97
283.613	387.73
284.075	354.67
284.536	422.46
284.997	408.06
285.458	388.01
285.918	364
286.379	407.21
286.84	438.55
287.301	396.76
287.762	379.53
288.222	385.18
288.683	378.12
289.143	391.96
289.604	394.79
290.064	365.41
290.525	384.34
290.985	478.33
291.445	387.16
291.906	362.87
292.366	380.38
292.826	373.32
293.286	391.11
293.746	384.9
294.206	403.82
294.666	386.31
295.126	382.36
295.586	397.61
296.046	396.2
296.506	407.49
296.965	423.87
297.425	376.14
297.884	425.28
298.344	375.3
298.804	410.6
299.263	388.57
299.722	380.1
300.182	378.12
300.641	388.85
301.1	394.79
301.559	384.9
302.019	386.31
302.478	395.63
302.937	390.55
303.396	399.3
303.855	476.64
304.314	390.83
304.772	557.56
305.231	399.59
305.69	364.28
306.149	412.58
306.607	380.38
307.066	422.74
307.524	400.72
307.983	419.92
308.441	436.01
308.9	448.43
309.358	421.33
309.816	463.38
310.275	385.47
310.733	395.07
311.191	416.81
311.649	391.96
312.107	434.6
312.565	383.21
313.023	391.4
313.481	385.75
313.939	388.85
314.397	412.01
314.854	389.42
315.312	364.56
315.77	422.46
316.227	360.89
316.685	385.18
317.142	369.65
317.6	407.21
318.057	408.91
318.514	392.81
318.972	392.24
319.429	418.79
319.886	409.75
320.343	401.85
320.8	388.85
321.257	434.6
321.714	437.42
322.171	434.31
322.628	417.09
323.085	385.18
323.542	397.33
323.998	363.71
324.455	396.76
324.912	421.05
325.368	425.84
325.825	444.76
326.281	434.03
326.738	419.35
327.194	397.33
327.65	427.54
328.107	377.27
328.563	418.5
329.019	429.51
329.475	409.75
329.931	396.48
330.387	402.69
330.843	380.66
331.299	418.5
331.755	363.15
332.211	374.17
332.666	372.75
333.122	388.85
333.578	431.21
334.033	386.6
334.489	419.92
334.944	373.88
335.4	487.36
335.855	436.57
336.31	364.28
336.766	426.69
337.221	434.31
337.676	380.95
338.131	436.29
338.586	434.6
339.041	393.94
339.496	444.76
339.951	410.03
340.406	403.54
340.861	404.1
341.316	403.26
341.771	402.69
342.225	400.72
342.68	423.02
343.134	376.99
343.589	422.46
344.043	448.71
344.498	424.15
344.952	435.72
345.406	647.68
345.861	418.22
346.315	406.08
346.769	374.17
347.223	384.62
347.677	419.35
348.131	404.95
348.585	378.69
349.039	390.83
349.493	407.78
349.947	430.64
350.401	403.82
350.854	421.89
351.308	476.08
351.762	405.23
352.215	445.04
352.669	426.41
353.122	395.63
353.575	381.51
354.029	409.75
354.482	381.51
354.935	436.85
355.388	418.5
355.842	413.14
356.295	428.39
356.748	415.12
357.201	405.8
357.654	430.08
358.106	415.4
358.559	415.4
359.012	400.72
359.465	420.2
359.917	421.33
360.37	381.79
360.823	401.56
361.275	433.47
361.728	440.81
362.18	412.86
362.632	437.7
363.085	401
363.537	396.76
363.989	392.24
364.441	413.42
364.893	399.3
365.345	410.88
365.797	417.94
366.249	406.65
366.701	436.01
367.153	410.03
367.605	389.7
368.057	408.06
368.508	426.97
368.96	410.6
369.411	395.63
369.863	444.76
370.314	435.72
370.766	425.28
371.217	418.22
371.669	439.11
372.12	456.33
372.571	433.47
373.022	408.06
373.473	436.29
373.924	422.74
374.375	417.38
374.826	436.85
375.277	422.46
375.728	418.5
376.179	416.81
376.63	421.05
377.08	413.99
377.531	412.29
377.981	396.76
378.432	438.83
378.883	442.22
379.333	425.84
379.783	415.96
380.234	418.22
380.684	427.26
381.134	441.65
381.584	448.43
382.034	447.86
382.485	434.31
382.935	454.63
383.385	447.58
383.834	399.3
384.284	426.69
384.734	404.95
385.184	423.3
385.634	402.69
386.083	430.64
386.533	443.06
386.982	414.55
387.432	450.12
387.881	391.4
388.331	443.35
388.78	447.86
389.229	431.77
389.679	412.01
390.128	436.29
390.577	457.17
391.026	446.45
391.475	409.19
391.924	412.58
392.373	420.2
392.822	428.1
393.27	426.69
393.719	435.44
394.168	428.39
394.617	429.51
395.065	419.35
395.514	452.09
395.962	440.24
396.411	421.33
396.859	425.28
397.307	475.79
397.756	436.85
398.204	413.42
398.652	456.89
399.1	452.66
399.548	457.74
399.996	516.97
400.444	468.74
400.892	467.05
401.34	447.86
401.788	430.36
402.236	471.28
402.683	461.12
403.131	490.75
403.579	462.53
404.026	434.6
404.474	443.35
404.921	450.97
405.369	473.82
405.816	477.77
406.263	436.85
406.71	510.77
407.158	463.66
407.605	478.05
408.052	474.95
408.499	514.72
408.946	505.41
409.393	518.1
409.84	522.05
410.286	527.12
410.733	543.47
411.18	562.63
411.626	617
412.073	642.62
412.52	709.58
412.966	807.67
413.413	946.01
413.859	1116.55
414.305	1334.43
414.752	1617.04
415.198	2027.85
415.644	2473.15
416.09	2996.69
416.536	3585.73
416.982	4364.84
417.428	5234.48
417.874	6173.25
418.32	7182.7
418.766	8291.32
419.211	9590.7
419.657	10735.42
420.103	12392.42
420.548	13470.28
420.994	15209.59
421.439	16636.5
421.885	17965.3
422.33	19978.97
422.776	21423.81
423.221	22820.37
423.666	24380.77
424.111	26185.49
424.556	27179.54
425.001	29030.13
425.446	30532.06
425.891	32100.32
426.336	32868.05
426.781	34442.06
427.226	36601.33
427.671	37053.04
428.115	37791.58
428.56	39461.56
429.005	40961.7
429.449	41175.58
429.894	42344.72
430.338	43369.48
430.782	43086.03
431.227	44390.41
431.671	44501.24
432.115	45835.43
432.559	46662.83
433.003	46257.04
433.447	46790.47
433.891	47057.06
434.335	47334.16
434.779	47905.12
435.223	47981.12
435.667	47831.99
436.111	48723.61
436.554	47961.6
436.998	47441.74
437.442	47469.1
437.885	49385.99
438.328	47653.61
438.772	48004.75
439.215	48616.85
439.659	48197.32
440.102	48498.32
440.545	47946.96
440.988	47715.86
441.431	48507.1
441.874	47963.65
442.317	48343.08
442.76	47794.29
443.203	47044.57
443.646	47782.24
444.089	47352.04
444.531	47984.97
444.974	46705.79
445.417	47885.87
445.859	46897.34
446.302	48142.52
446.744	47443.02
447.186	48682.75
447.629	47714.58
448.071	47583.2
448.513	47947.22
448.956	49470.96
449.398	48584.81
449.84	47397.78
450.282	48054.34
450.724	48689.48
451.166	48380.45
451.607	48302.37
452.049	48378.13
452.491	49831.55
452.933	49110.29
453.374	49884.73
453.816	50658.45
454.257	50010.6
454.699	51321.11
455.14	51019.16
455.582	50932.19
456.023	50778.21
456.464	51085.72
456.905	51746.89
457.347	51888.41
457.788	50875.34
458.229	50995.21
458.67	52080.63
459.111	50198.22
459.552	50421.38
459.992	50389.98
460.433	50051.82
460.874	49067.19
461.315	50528.85
461.755	49665.95
462.196	49082.25
462.636	48252.67
463.077	48080.04
463.517	48231.81
463.957	48563.89
464.398	48225.63
464.838	48373.49
465.278	47294.32
465.718	47491.35
466.158	46655.46
466.598	46920
467.038	46687.23
467.478	47064.45
467.918	47386.53
468.358	46775.2
468.798	46346.27
469.237	46327.51
469.677	46314.33
470.117	47393.18
470.556	44772.8
470.996	45344.87
471.435	45525.12
471.874	46471.09
472.314	46131.4
472.753	45168.82
473.192	45289.44
473.631	45125.03
474.07	45396.28
474.509	45463.34
474.948	45797.27
475.387	45071.44
475.826	44326
476.265	46148.62
476.704	45754.07
477.143	46083.04
477.581	45852.87
478.02	46604.65
478.458	44975.11
478.897	45936.8
479.335	47157.27
479.774	46575.94
480.212	46909.82
480.65	46824.3
481.089	46775.97
481.527	46082.79
481.965	45559.18
482.403	47980.6
482.841	47717.4
483.279	47637.73
483.717	47811.48
484.155	47435.35
484.592	47829.17
485.03	48199.13
485.468	46966.61
485.905	47303.25
486.343	47928.73
486.781	47222.84
487.218	46451.04
487.655	46490.38
488.093	45640.95
488.53	47344.89
488.967	46260.84
489.405	46281.37
489.842	45190.47
490.279	45202.56
490.716	44887.62
491.153	45374.1
491.59	44831.08
492.027	43858.7
492.463	43395.68
492.9	42706.39
493.337	42691.47
493.773	42893.77
494.21	41792.62
494.647	41683.08
495.083	41003.97
495.519	40488.71
495.956	40540.3
496.392	39736.29
496.828	39587.33
497.265	38763.05
497.701	38990.59
498.137	38514.77
498.573	37687.65
499.009	38291.16
499.445	37336.33
499.881	36925.76
500.316	37314.78
500.752	36096.9
501.188	35889.66
501.624	35878.42
502.059	34434.74
502.495	34254.93
502.93	34274.45
503.366	34680.7
503.801	33625.89
504.236	33462.99
504.672	32951.19
505.107	32635.95
505.542	31973.05
505.977	31930.39
506.412	31362.03
506.847	31812.38
507.282	31181.09
507.717	30751.35
508.152	30914.28
508.587	30610.61
509.021	29663.32
509.456	29455.07
509.891	29507.8
510.325	29359.59
510.76	29035.5
511.194	28680.99
511.628	28823.45
512.063	27960.26
512.497	28130.97
512.931	27613.82
513.366	27402.59
513.8	27394.27
514.234	26611.4
514.668	26675.37
515.102	26818.24
515.536	25817.67
515.969	26269.12
516.403	25513.71
516.837	25165.35
517.271	25379.85
517.704	24829.04
518.138	24654.9
518.571	24608.65
519.005	24102.8
519.438	23925.19
519.871	23797.8
520.305	23184.74
520.738	23153.9
521.171	22705.02
521.604	22839.38
522.037	22455.21
522.47	22058.33
522.903	21732.15
523.336	21616.27
523.769	21375
524.202	20867.26
524.634	20863.54
525.067	20722.11
525.5	20425.46
525.932	20340.77
526.365	19965.55
526.797	19571.81
527.23	19796.46
527.662	19020.75
528.094	18880.44
528.527	18751.29
528.959	18501.61
529.391	18238.29
529.823	17611.35
530.255	17697.87
530.687	17363.94
531.119	17054.5
531.551	16938.27
531.982	16695.42
532.414	16375.38
532.846	16128.12
533.277	15953.06
533.709	15490.97
534.14	15384.54
534.572	15261.2
535.003	15153.18
535.435	14835.7
535.866	14570.39
536.297	14252.81
536.728	14297.26
537.159	14151.77
537.59	13797.32
538.022	13623.47
538.452	13484.97
538.883	13131.7
539.314	13081.23
539.745	12746.96
540.176	12613.34
540.606	12326.79
541.037	12401.06
541.468	12039.13
541.898	12002.96
542.328	11917.09
542.759	11620.24
543.189	11569.71
543.619	11409.86
544.05	11165.26
544.48	10978.74
544.91	10791.03
545.34	10705.44
545.77	10472.81
546.2	10399.91
546.63	10270.99
547.06	10230.91
547.489	10012.1
547.919	9726.55
548.349	9765.72
548.778	9770.87
549.208	9512.53
549.637	9341.12
550.067	9326.66
550.496	9336.22
550.926	9043.57
551.355	8868.29
551.784	8907.4
552.213	8613.95
552.642	8510.12
553.071	8485.45
553.5	8443.11
553.929	8154.73
554.358	8201.32
554.787	8009.93
555.216	7950.51
555.645	7872.54
556.073	7782.27
556.502	7570.43
556.93	7440.44
557.359	7437.04
557.787	7446.46
558.216	7270.77
558.644	7202.36
559.072	7176.67
559.5	7051.27
559.929	7059.93
560.357	7007.43
560.785	6905.77
561.213	6843.74
561.641	6733.79
562.068	6736.16
562.496	6642.44
562.924	6573.68
563.352	6545.48
563.779	6463.75
564.207	6506.47
564.634	6442.38
565.062	6436.58
565.489	6287.42
565.917	6251.76
566.344	6229.03
566.771	6151.03
567.198	6095.21
567.625	6031.16
568.053	5888.63
568.48	5918.84
568.907	5804.03
569.333	5765.28
569.76	5579.87
570.187	5615.22
570.614	5495.29
571.04	11306.89
571.467	5426.62
571.894	5259.81
572.32	5117.04
572.747	5052.93
573.173	4980.75
573.599	4932.87
574.026	4769.54
574.452	4756.14
574.878	4685.62
575.304	4569.15
575.73	4497.69
576.156	4459.52
576.582	4418.11
577.008	4299.7
577.434	4245.55
577.86	4089.95
578.285	4110.19
578.711	4028.12
579.137	3974.09
579.562	3905.96
579.988	3836.43
580.413	3815.86
580.838	3724.58
581.264	3739.48
581.689	3670.91
582.114	3586.27
582.539	4013.53
582.964	3514.59
583.39	3480.9
583.814	3379.22
584.239	3307.37
584.664	3285.04
585.089	3222.92
585.514	3234.64
585.939	3167.03
586.363	3109.74
586.788	3047.23
587.212	3045.32
587.637	2943.94
588.061	2944.21
588.485	2882.12
588.91	2855.57
589.334	2795.06
589.758	2803.83
590.182	2768.49
590.606	2665.4
591.03	2705.17
591.454	2631.93
591.878	2578.39
592.302	2577.57
592.726	2592.4
593.15	2488.54
593.573	2417.03
593.997	2428.04
594.42	2331.14
594.844	2369.42
595.267	2320.95
595.691	2327.56
596.114	2234.4
596.537	2261.14
596.96	2276.86
597.384	2251.49
597.807	2124.56
598.23	2154.93
598.653	2137.82
599.076	2104.95
599.499	2104.4
599.921	2079.81
600.344	2075.12
600.767	2039.19
601.189	2069.31
601.612	2007.94
602.034	2017.62
602.457	2019.56
602.879	2081.2
603.302	2002.69
603.724	1958.98
604.146	1938.77
604.568	1907.77
604.991	1940.43
605.413	1947.91
605.835	1948.18
606.257	1875.92
606.678	1882.56
607.1	1919.95
607.522	1875.36
607.944	1889.76
608.365	1839.06
608.787	1835.74
609.209	1846.55
609.63	1792.21
610.051	1747.83
610.473	1763.92
610.894	1715.36
611.315	1668.44
611.737	1711.2
612.158	1668.16
612.579	1623.98
613	1715.92
613.421	1620.93
613.842	1585.9
614.263	1563.66
614.683	1534.17
615.104	1503.28
615.525	1524.15
615.945	1477.67
616.366	1443.7
616.787	1470.99
617.207	1379.61
617.627	1398.56
618.048	1396.05
618.468	1360.09
618.888	1340.85
619.308	1310.72
619.728	1323.27
620.148	1273.32
620.568	1322.16
620.988	1316.58
621.408	1238.98
621.828	1237.86
622.248	1226.97
622.668	1233.39
623.087	1218.59
623.507	1184.22
623.926	1170.24
624.346	1173.87
624.765	1152.91
625.185	1139.77
625.604	1112.64
626.023	1119.07
626.442	1086.34
626.861	1113.2
627.28	1063.11
627.699	1077.38
628.118	1026.15
628.537	1061.15
628.956	1053.31
629.375	1041.55
629.794	1022.79
630.212	1030.35
630.631	1021.11
631.049	966.47
631.468	1015.5
631.886	977.68
632.305	967.87
632.723	937.6
633.141	946.85
633.559	960.3
633.978	954.7
634.396	951.61
634.814	906.19
635.232	902.82
635.65	893.84
636.067	901.98
636.485	869.99
636.903	859.89
637.321	852.87
637.738	922.45
638.156	872.24
638.573	838.27
638.991	913.48
639.408	905.91
639.825	833.78
640.243	845.01
640.66	830.97
641.077	832.1
641.494	826.48
641.911	810.47
642.328	823.95
642.745	784.91
643.162	801.21
643.579	780.42
643.995	750.07
644.412	805.14
644.829	754.85
645.245	757.94
645.662	728.7
646.078	730.95
646.495	725.89
646.911	726.45
647.327	753.72
647.743	738.54
648.159	726.17
648.576	697.49
648.992	755.41
649.408	698.61
649.824	727.01
650.239	703.67
650.655	708.17
651.071	655.56
651.487	718.02
651.902	666.54
652.318	635.3
652.733	647.12
653.149	660.91
653.564	666.54
653.979	646
654.395	642.34
654.81	681.17
655.225	635.86
655.64	647.97
656.055	686.8
656.47	656.69
656.885	631.36
657.3	590.24
657.715	671.04
658.13	650.22
658.544	641.21
658.959	628.54
659.374	627.7
659.788	644.59
660.202	595.03
660.617	673.57
661.031	623.76
661.445	624.32
661.86	580.95
662.274	628.26
662.688	629.11
663.102	553.9
663.516	617.56
663.93	577.57
664.344	595.03
664.758	598.98
665.171	602.35
665.585	587.15
665.999	589.68
666.412	571.65
666.826	587.99
667.239	575.59
667.653	567.14
668.066	576.72
668.479	561.23
668.892	540.93
669.306	564.32
669.719	551.93
670.132	566.3
670.545	552.21
670.958	564.32
671.37	544.88
671.783	549.11
672.196	549.95
672.609	526.28
673.021	553.62
673.434	540.37
673.846	504.85
674.259	502.59
674.671	536.99
675.084	540.09
675.496	524.3
675.908	513.59
676.32	527.97
676.732	502.59
677.144	529.09
677.556	525.43
677.968	533.32
678.38	524.58
678.792	562.63
679.204	543.75
679.615	569.96
680.027	512.18
680.439	514.43
680.85	524.87
681.262	553.05
681.673	502.59
682.084	497.51
682.496	478.33
682.907	507.1
683.318	489.33
683.729	481.15
684.14	522.05
684.551	500.05
684.962	497.23
685.373	488.21
685.784	500.05
686.194	474.1
686.605	474.1
687.016	474.67
687.426	493.57
687.837	472.69
688.247	465.64
688.657	485.95
689.068	490.46
689.478	460.84
689.888	500.9
690.298	454.92
690.708	451.81
691.118	492.16
691.528	479.74
691.938	481.15
692.348	483.69
692.758	460.28
693.168	471.28
693.577	490.18
693.987	478.05
694.396	459.15
694.806	452.94
695.215	464.23
695.625	489.05
696.034	475.51
696.443	454.35
696.852	498.92
697.262	461.41
697.671	431.77
698.08	471.85
698.489	455.48
698.897	456.61
699.306	437.14
699.715	468.74
700.124	459.43
700.532	426.97
700.941	458.58
701.35	464.23
701.758	462.25
702.166	423.87
702.575	458.87
702.983	414.27
703.391	453.79
703.799	460.84
704.208	425
704.616	414.55
705.024	467.05
705.432	466.2
705.839	421.05
706.247	458.58
706.655	527.4
707.063	425.28
707.47	442.5
707.878	426.41
708.285	422.17
708.693	419.92
709.1	429.8
709.508	439.39
709.915	429.8
710.322	426.13
710.729	523.74
711.136	451.53
711.543	412.01
711.95	422.46
712.357	443.35
712.764	412.58
713.171	410.6
713.578	408.06
713.984	429.23
714.391	385.75
714.797	387.73
715.204	423.59
715.61	431.21
716.017	418.22
716.423	449.84
716.829	429.8
717.236	380.38
717.642	403.82
718.048	486.8
718.454	445.89
718.86	408.06
719.266	472.97
719.671	418.22
720.077	399.02
720.483	425.28
720.889	443.06
721.294	398.46
721.7	389.14
722.105	428.1
722.511	404.1
722.916	428.39
723.321	433.18
723.726	447.86
724.132	440.52
724.537	434.03
724.942	421.89
725.347	408.06
725.752	398.46
726.156	423.59
726.561	401.28
726.966	401.56
727.371	436.01
727.775	433.47
728.18	365.13
728.584	402.13
728.989	407.78
729.393	522.61
729.798	433.18
730.202	437.14
730.606	410.6
731.01	405.8
731.414	451.81
731.818	385.47
732.222	426.41
732.626	400.72
733.03	406.93
733.434	399.02
733.837	433.18
734.241	396.2
734.645	404.39
735.048	417.38
735.452	421.89
735.855	389.42
736.258	396.48
736.662	432.06
737.065	436.29
737.468	430.93
737.871	412.58
738.274	419.07
738.677	425.28
739.08	414.55
739.483	402.41
739.886	391.11
740.289	441.09
740.691	441.37
741.094	383.21
741.497	412.01
741.899	448.99
742.302	395.63
742.704	410.32
743.106	427.54
743.508	422.74
743.911	399.3
744.313	404.1
744.715	410.88
745.117	384.05
745.519	404.39
745.921	393.66
746.323	406.65
746.724	390.55
747.126	396.76
747.528	459.15
747.929	391.68
748.331	421.61
748.732	382.64
749.134	391.4
749.535	408.34
749.936	451.81
750.338	397.33
750.739	431.77
751.14	391.4
751.541	385.75
751.942	401
752.343	373.32
752.744	387.73
753.144	389.42
753.545	404.95
753.946	411.16
754.346	402.98
754.747	474.1
755.148	493
755.548	384.34
755.948	388.29
756.349	406.65
756.749	401
757.149	382.36
757.549	424.43
757.949	416.53
758.349	373.6
758.749	384.34
759.149	359.48
759.549	397.33
759.949	391.96
760.348	463.38
760.748	399.59
761.148	390.83
761.547	389.98
761.947	395.07
762.346	410.6
762.745	465.64
763.145	410.6
763.544	376.99
763.943	410.03
764.342	377.84
764.741	393.66
765.14	391.96
765.539	395.07
765.938	429.51
766.336	396.2
766.735	386.03
767.134	395.63
767.532	384.05
767.931	369.93
768.329	433.18
768.728	396.76
769.126	395.92
769.525	456.33
769.923	395.92
770.321	385.18
770.719	423.59
771.117	400.43
771.515	412.29
771.913	379.82
772.311	393.37
772.709	379.25
773.106	379.53
773.504	406.36
773.902	371.06
774.299	414.83
774.697	509.64
775.094	413.71
775.491	384.05
775.889	409.47
776.286	392.81
776.683	400.15
777.08	376.43
777.477	360.61
777.874	445.6
778.271	401.56
778.668	372.47
779.065	377.84
779.462	377.84
779.858	373.32
780.255	451.81
780.652	424.43
781.048	414.83
781.444	391.11
781.841	370.78
782.237	414.55
782.633	371.34
783.03	369.65
783.426	381.79
783.822	393.37
784.218	364.56
784.614	387.16
785.01	387.44
785.405	398.46
785.801	405.8
786.197	382.92
786.593	396.76
786.988	404.1
787.384	416.81
787.779	367.67
788.174	401.56
788.57	393.94
788.965	381.23
789.36	393.94
789.755	372.47
790.15	354.39
790.545	367.67
790.94	371.91
791.335	343.93
791.73	365.97
792.125	408.91
792.52	408.34
792.914	393.66
793.309	382.08
793.703	392.24
794.098	352.98
794.492	395.35
794.887	397.61
795.281	443.35
795.675	389.7
796.069	434.31
796.463	409.19
796.857	385.47
797.251	391.11
797.645	368.8
798.039	385.47
798.433	383.49
798.826	370.78
799.22	384.34
799.614	380.66
800.007	373.04
800.401	410.03
800.794	360.61
801.187	372.19
801.581	380.66
801.974	402.41
802.367	395.63
802.76	385.75
803.153	382.64
803.546	381.51
803.939	397.61
804.332	386.31
804.725	376.71
805.117	365.69
805.51	415.4
805.903	385.47
806.295	407.49
806.688	354.67
807.08	387.73
807.472	404.67
807.865	410.6
808.257	401
808.649	413.42
809.041	367.39
809.433	415.96
809.825	400.72
810.217	410.03
810.609	389.14
811.001	412.01
811.392	387.44
811.784	392.53
812.175	387.44
812.567	377.27
812.958	392.81
813.35	396.2
813.741	373.04
814.132	395.63
814.524	365.13
814.915	382.92
815.306	347.61
815.697	356.37
816.088	389.14
816.479	394.22
816.87	407.49
817.26	400.15
817.651	458.3
818.042	399.59
818.432	386.03
818.823	393.94
819.213	387.73
819.604	381.79
819.994	380.66
820.384	371.06
820.775	371.91
821.165	350.72
821.555	384.34
821.945	343.65
822.335	349.87
822.725	403.82
823.114	373.32
823.504	399.59
823.894	394.79
824.284	380.38
824.673	362.58
825.063	387.73
825.452	376.43
825.842	373.04
826.231	431.77
826.62	384.62
827.009	408.34
827.399	396.48
827.788	364.84
828.177	373.6
828.566	407.49
828.954	483.69
829.343	402.41
829.732	394.22
830.121	454.92
830.509	441.65
830.898	376.99
831.286	402.41
831.675	413.14
832.063	410.03
832.452	391.96
832.84	383.21
833.228	397.33
833.616	385.47
834.004	398.17
834.392	397.33
834.78	407.21
835.168	395.07
835.556	401.85
835.944	379.25
836.331	385.75
836.719	404.1
837.107	408.62
837.494	382.08
837.881	364.84
838.269	370.78
838.656	382.92
839.043	358.35
839.431	440.81
839.818	401
840.205	343.09
840.592	361.74
840.979	399.59
841.366	382.92
841.752	366.26
842.139	370.21
842.526	370.21
842.912	383.49
843.299	395.63
843.685	411.45
844.072	362.02
844.458	386.6
844.844	387.73
845.231	349.02
845.617	381.23
846.003	379.82
846.389	371.34
846.775	376.71
847.161	385.47
847.547	369.65
847.933	389.14
848.318	388.57
848.704	338.28
849.09	365.41
849.475	355.52
849.861	398.46
850.246	384.62
850.631	409.47
851.017	394.5
851.402	373.6
851.787	388.57
852.172	442.22
852.557	398.74
852.942	378.4
853.327	367.67
853.712	391.96
854.097	370.78
854.481	339.98
854.866	386.6
855.25	379.53
855.635	374.45
856.019	380.66
856.404	358.06
856.788	362.3
857.172	370.78
857.557	378.4
857.941	399.59
858.325	379.82
858.709	386.31
859.093	390.55
859.477	367.1
859.86	410.88
860.244	369.93
860.628	443.06
861.012	386.03
861.395	394.79
861.779	389.7
862.162	365.41
862.545	382.08
862.929	376.71
863.312	384.34
863.695	365.69
864.078	378.97
864.461	355.52
864.844	400.43
865.227	408.62
865.61	371.91
865.993	390.83
866.376	384.05
866.758	390.83
867.141	409.47
867.523	421.33
867.906	389.42
868.288	384.34
868.671	374.17
869.053	370.21
869.435	356.37
869.817	425.28
870.199	371.91
870.581	385.47
870.963	403.54
871.345	396.48
871.727	397.33
872.109	333.19
872.491	344.5
872.872	378.97
873.254	347.61
873.635	386.03
874.017	424.72
874.398	388.57
874.779	409.75
875.161	370.78
875.542	416.25
875.923	378.4
876.304	392.81
876.685	379.25
877.066	384.34
877.447	384.62
877.828	388.85
878.208	395.63
878.589	384.62
878.97	435.72
879.35	349.3
879.731	374.17
880.111	387.44
880.491	360.61
880.872	378.97
881.252	389.42
881.632	384.34
882.012	417.66
882.392	384.05
882.772	396.2
883.152	404.95
883.532	370.21
883.912	403.82
884.291	386.6
884.671	383.49
885.051	383.21
885.43	361.74
885.81	387.16
886.189	375.58
886.568	373.88
886.948	381.79
887.327	403.26
887.706	389.14
888.085	397.89
888.464	382.64
888.843	478.9
889.222	392.81
889.601	390.55
889.979	362.58
890.358	382.64
890.737	399.59
891.115	374.45
891.494	378.12
891.872	351.56
892.25	389.42
892.629	413.14
893.007	427.26
893.385	369.08
893.763	382.36
894.141	391.11
894.519	397.89
894.897	368.52
895.275	357.78
895.653	392.53
896.03	393.09
896.408	371.91
896.786	363.43
897.163	381.79
897.541	383.49
897.918	406.65
898.295	387.44
898.673	375.01
899.05	364.84
899.427	552.21
899.804	385.18
900.181	368.23
900.558	408.06
900.935	408.91
901.312	359.19
901.688	368.8
902.065	391.11
902.442	367.67
902.818	379.53
903.195	349.3
903.571	399.87
903.947	372.47
904.324	392.81
904.7	393.09
905.076	379.25
905.452	352.98
905.828	423.3
906.204	377.56
906.58	383.49
906.956	385.75
907.331	415.12
907.707	395.35
908.083	379.53
908.458	370.49
908.834	352.69
909.209	362.58
909.585	394.22
909.96	358.91
910.335	345.35
910.71	368.8
911.086	396.48
911.461	429.8
911.836	380.1
912.21	370.78
912.585	375.58
912.96	369.36
913.335	378.97
913.709	375.3
914.084	355.52
914.459	380.66
914.833	362.02
915.207	362.3
915.582	344.78
915.956	384.62
916.33	357.5
916.704	350.72
917.078	361.17
917.452	398.74
917.826	363.15
918.2	342.8
918.574	362.3
918.948	361.45
919.321	369.65
919.695	356.08
920.068	394.79
920.442	368.52
920.815	368.23
921.189	369.36
921.562	413.14
921.935	360.61
922.308	357.22
922.681	376.14
923.054	370.21
923.427	410.03
923.8	371.34
924.173	368.8
924.546	357.22
924.919	371.91
925.291	364
925.664	360.89
926.036	370.49
926.409	360.61
926.781	351.56
927.153	359.76
927.526	417.66
927.898	349.02
928.27	362.02
928.642	371.06
929.014	386.03
929.386	377.27
929.758	338.28
930.129	380.38
930.501	382.08
930.873	359.48
931.244	376.14
931.616	381.51
931.987	360.61
932.359	392.81
932.73	382.64
933.101	370.49
933.472	374.73
933.843	400.15
934.214	423.3
934.585	365.97
934.956	383.77
935.327	441.65
935.698	364.84
936.069	381.51
936.439	365.41
936.81	345.35
937.18	421.61
937.551	372.19
937.921	416.25
938.292	406.08
938.662	354.95
939.032	410.88
939.402	382.64
939.772	391.4
940.142	401
940.512	368.52
940.882	332.06
941.252	356.65
941.621	370.49
941.991	387.44
942.361	386.6
942.73	377.56
943.1	347.89
943.469	379.82
943.838	430.93
944.208	412.86
944.577	365.97
944.946	341.39
945.315	362.02
945.684	363.71
946.053	357.78
946.422	366.26
946.791	375.3
947.159	379.25
947.528	368.52
947.897	387.73
948.265	380.95
948.634	385.18
949.002	346.19
949.371	367.95
949.739	373.04
950.107	396.48
950.475	368.23
950.843	380.95
951.211	378.97
951.579	365.41
951.947	361.74
952.315	381.23
952.683	366.26
953.05	371.34
953.418	395.92
953.785	362.02
954.153	356.37
954.52	371.91
954.888	404.1
955.255	339.98
955.622	385.18
955.989	368.23
956.356	438.27
956.723	368.52
957.09	380.95
957.457	382.92
957.824	361.17
958.191	383.49
958.557	410.88
958.924	362.02
959.291	351.28
959.657	357.5
960.023	480.03
960.39	351.28
960.756	360.04
961.122	399.87
961.488	350.15
961.855	375.3
962.221	344.22
962.586	382.08
962.952	418.79
963.318	384.05
963.684	467.9
964.05	402.41
964.415	393.09
964.781	374.73
965.146	387.16
965.512	397.05
965.877	363.71
966.242	341.39
966.608	378.69
966.973	375.3
967.338	354.67
967.703	372.47
968.068	368.23
968.433	393.66
968.797	439.68
969.162	350.72
969.527	361.45
969.891	364.28
970.256	360.04
970.62	370.78
970.985	357.5
971.349	376.43
971.714	372.75
972.078	368.8
972.442	389.14
972.806	378.4
973.17	382.92
973.534	343.93
973.898	360.04
974.262	382.92
974.625	387.16
974.989	350.43
975.353	388.85
975.716	390.27
976.08	365.69
976.443	338.28
976.806	373.88
977.17	385.18
977.533	381.79
977.896	362.3
978.259	369.65
978.622	459.43
978.985	364.28
979.348	362.02
979.711	348.74
980.073	365.41
980.436	376.43
980.799	345.06
981.161	376.71
981.524	399.3
981.886	374.17
982.248	369.93
982.611	350.43
982.973	356.37
983.335	360.04
983.697	362.3
984.059	369.36
984.421	359.48
984.783	367.67
985.145	352.13
985.506	341.67
985.868	355.52
986.23	368.52
986.591	384.9
986.953	370.21
987.314	369.65
987.675	345.63
988.037	4080.77
988.398	472.41
988.759	378.12
989.12	387.44
989.481	380.95
989.842	382.64
990.203	369.93
990.564	354.39
990.924	361.74
991.285	4367.8
991.646	446.17
992.006	364.28
992.367	377.84
992.727	371.34
993.087	381.51
993.448	382.08
993.808	371.34
994.168	360.89
994.528	339.69
994.888	384.62
995.248	370.49
995.608	348.17
995.967	365.13
996.327	365.97
996.687	393.37
997.046	346.76
997.406	365.41
997.765	355.24
998.125	363.15
998.484	375.58
998.843	399.3
999.202	349.3
999.561	377.56
999.92	340.83
1000.279	375.3
1000.638	347.61
1000.997	367.95
1001.356	346.48
1001.715	337.72
1002.073	364
1002.432	392.53
1002.79	352.69
1003.149	342.24
1003.507	401
1003.865	348.74
1004.224	356.93
1004.582	383.49
1004.94	358.35
1005.298	368.8
1005.656	341.39
1006.014	351.28
1006.371	341.11
1006.729	359.19
1007.087	400.15
1007.445	392.81
1007.802	376.43
1008.16	346.19
1008.517	364.84
1008.874	372.19
1009.232	380.66
1009.589	379.82
1009.946	393.66
1010.303	360.61
1010.66	352.69
1011.017	361.17
1011.374	404.39
1011.731	356.37
1012.087	358.06
1012.444	364.84
1012.801	371.06
1013.157	333.19
1013.513	336.3
1013.87	353.82
1014.226	359.19
1014.582	355.52
1014.939	369.08
1015.295	361.17
1015.651	360.61
1016.007	323.3
1016.363	396.76
1016.719	338
1017.074	367.1
1017.43	347.04
1017.786	382.92
1018.141	340.83
1018.497	354.67
1018.852	360.61
1019.208	370.21
1019.563	365.13
1019.918	336.87
1020.273	365.97
1020.628	349.02
1020.983	394.79
1021.338	353.82
1021.693	392.24
1022.048	372.19
1022.403	354.67
1022.757	381.79
1023.112	360.61
1023.467	362.02
1023.821	360.32
1024.175	342.8
1024.53	323.58
1024.884	343.09
1025.238	365.41
1025.592	376.99
1025.946	356.65
1026.3	363.43
1026.654	346.48
1027.008	341.11
1027.362	374.17
1027.716	344.5
1028.069	343.65
1028.423	374.73
1028.777	365.69
1029.13	359.48
1029.483	384.34
1029.837	391.4
1030.19	366.26
1030.543	356.65
1030.896	345.35
1031.249	345.63
1031.602	383.49
1031.955	358.91
1032.308	357.5
1032.661	380.95
1033.013	362.58
1033.366	341.96
1033.719	365.41
1034.071	356.08
1034.424	367.67
1034.776	360.04
1035.128	352.41
1035.48	338
1035.833	413.71
1036.185	345.06
1036.537	345.06
1036.889	345.06
