Data from SCSF78-405_irradiation_FLMS019251_04-05-12-648.txt Node
Date: Fri Feb 22 04:05:12 PST 2019
User: mu3e
Spectrometer: FLMS01925
Trigger mode: 0
Integration Time (sec): 3.659600E-1
Scans to average: 10
Electric dark correction enabled: true
Nonlinearity correction enabled: true
Boxcar width: 0
XAxis mode: Wavelengths
Number of Pixels in Spectrum: 2048
>>>>>Begin Spectral Data<<<<<
187.103	-109
187.574	-109
188.045	-109
188.516	-139.43
188.987	-78.3
189.458	-136.87
189.929	-149.39
190.4	-103.6
190.871	-100.19
191.342	-69.77
191.813	-62.38
192.284	-25.17
192.754	-28.58
193.225	7.77
193.696	15.72
194.166	37.57
194.637	81.83
195.107	112.17
195.578	107.92
196.048	162.9
196.518	149.01
196.989	181.59
197.459	192.07
197.929	227.46
198.399	342.57
198.869	290.55
199.339	315.72
199.809	338.9
200.279	356.7
200.749	358.4
201.219	387.21
201.689	367.16
202.159	355.01
202.628	376.2
203.098	400.2
203.568	408.68
204.037	438.32
204.507	391.73
204.976	428.44
205.445	392.01
205.915	382.98
206.384	405.57
206.853	421.38
207.323	433.8
207.792	395.12
208.261	400.77
208.73	399.07
209.199	443.96
209.668	405.57
210.137	400.77
210.606	381.85
211.075	417.71
211.543	407.55
212.012	444.81
212.481	378.46
212.95	369.7
213.418	456.1
213.887	410.65
214.355	394.84
214.824	356.42
215.292	383.54
215.76	379.59
216.229	354.44
216.697	369.7
217.165	376.2
217.633	370.55
218.101	368.57
218.569	468.51
219.037	370.26
219.505	415.45
219.973	390.6
220.441	362.07
220.909	359.25
221.377	369.13
221.844	350.77
222.312	360.09
222.78	355.01
223.247	389.19
223.715	343.42
224.182	354.73
224.65	385.52
225.117	377.04
225.584	389.19
226.052	373.37
226.519	366.87
226.986	390.6
227.453	355.29
227.92	370.26
228.387	407.26
228.854	355.01
229.321	344.27
229.788	388.63
230.255	405.57
230.722	382.69
231.189	375.35
231.655	382.41
232.122	392.01
232.589	391.73
233.055	379.02
233.522	445.09
233.988	381
234.454	396.82
234.921	392.3
235.387	419.4
235.853	390.88
236.32	360.66
236.786	381.85
237.252	378.17
237.718	414.04
238.184	401.62
238.65	386.08
239.116	370.26
239.582	391.45
240.047	356.99
240.513	393.99
240.979	379.02
241.445	362.35
241.91	363.2
242.376	362.35
242.841	390.88
243.307	379.02
243.772	375.07
244.238	356.99
244.703	391.17
245.168	394.56
245.633	386.93
246.099	381.56
246.564	387.5
247.029	400.2
247.494	357.83
247.959	410.37
248.424	370.55
248.889	390.32
249.353	419.4
249.818	367.72
250.283	373.09
250.748	358.68
251.212	388.63
251.677	387.78
252.141	382.69
252.606	385.52
253.07	390.04
253.535	392.58
253.999	410.37
254.463	379.02
254.927	376.48
255.392	383.26
255.856	393.71
256.32	378.46
256.784	358.96
257.248	406.42
257.712	412.35
258.176	455.53
258.64	397.95
259.103	388.91
259.567	384.11
260.031	414.04
260.495	393.43
260.958	426.74
261.422	384.67
261.885	390.88
262.349	393.99
262.812	393.43
263.275	366.59
263.739	380.43
264.202	392.58
264.665	398.51
265.128	397.95
265.591	400.49
266.054	377.33
266.517	400.2
266.98	395.97
267.443	394.56
267.906	368.85
268.369	354.16
268.832	407.26
269.294	371.39
269.757	396.25
270.22	409.24
270.682	401.62
271.145	406.42
271.607	360.94
272.07	448.76
272.532	389.19
272.994	388.34
273.456	402.75
273.919	460.33
274.381	392.86
274.843	426.74
275.305	419.12
275.767	386.37
276.229	404.72
276.691	399.92
277.153	384.11
277.614	409.81
278.076	377.61
278.538	390.88
279	404.16
279.461	384.39
279.923	447.63
280.384	390.04
280.846	375.35
281.307	377.33
281.769	398.51
282.23	399.64
282.691	419.97
283.152	376.48
283.613	368.57
284.075	384.11
284.536	375.63
284.997	400.77
285.458	381.85
285.918	416.58
286.379	400.49
286.84	433.8
287.301	380.72
287.762	392.58
288.222	394.56
288.683	408.96
289.143	400.49
289.604	391.45
290.064	378.17
290.525	405
290.985	450.74
291.445	404.16
291.906	404.44
292.366	382.98
292.826	391.17
293.286	421.38
293.746	420.82
294.206	415.45
294.666	408.11
295.126	390.88
295.586	403.88
296.046	377.61
296.506	427.31
296.965	411.22
297.425	399.64
297.884	430.98
298.344	399.64
298.804	432.11
299.263	391.45
299.722	436.91
300.182	398.51
300.641	401.62
301.1	392.01
301.559	434.37
302.019	402.75
302.478	401.05
302.937	384.67
303.396	386.37
303.855	483.46
304.314	450.74
304.772	523.79
305.231	373.37
305.69	413.19
306.149	421.95
306.607	404.16
307.066	436.06
307.524	414.04
307.983	410.37
308.441	427.87
308.9	484.87
309.358	408.96
309.816	486.29
310.275	400.77
310.733	391.45
311.191	417.15
311.649	413.76
312.107	422.51
312.565	394.27
313.023	397.66
313.481	404.44
313.939	408.96
314.397	393.14
314.854	408.68
315.312	405
315.77	439.73
316.227	395.69
316.685	404.72
317.142	399.07
317.6	433.8
318.057	430.41
318.514	402.46
318.972	391.73
319.429	421.1
319.886	405.29
320.343	392.01
320.8	407.83
321.257	411.5
321.714	436.06
322.171	454.69
322.628	422.79
323.085	395.12
323.542	388.63
323.998	374.5
324.455	402.75
324.912	419.97
325.368	399.36
325.825	453.28
326.281	387.5
326.738	408.11
327.194	390.32
327.65	425.62
328.107	384.95
328.563	407.83
329.019	448.2
329.475	417.15
329.931	398.23
330.387	432.39
330.843	414.89
331.299	440.58
331.755	425.9
332.211	414.61
332.666	416.3
333.122	408.68
333.578	411.78
334.033	397.95
334.489	426.74
334.944	397.38
335.4	500.95
335.855	454.97
336.31	392.86
336.766	385.52
337.221	423.36
337.676	413.76
338.131	441.14
338.586	432.11
339.041	438.32
339.496	441.14
339.951	411.22
340.406	419.12
340.861	401.62
341.316	433.8
341.771	397.38
342.225	409.81
342.68	438.32
343.134	411.5
343.589	439.45
344.043	410.93
344.498	426.46
344.952	418.28
345.406	628.59
345.861	410.09
346.315	372.24
346.769	417.71
347.223	415.73
347.677	397.66
348.131	405.29
348.585	410.37
349.039	423.92
349.493	417.99
349.947	417.99
350.401	401.05
350.854	422.51
351.308	481.21
351.762	401.9
352.215	444.24
352.669	402.18
353.122	377.89
353.575	413.76
354.029	418.84
354.482	418.84
354.935	432.39
355.388	423.07
355.842	425.9
356.295	413.76
356.748	424.2
357.201	434.37
357.654	430.98
358.106	436.06
358.559	388.91
359.012	394.56
359.465	414.32
359.917	447.07
360.37	414.89
360.823	443.4
361.275	431.54
361.728	437.47
362.18	430.7
362.632	446.78
363.085	416.02
363.537	411.22
363.989	442.55
364.441	429.57
364.893	397.1
365.345	421.66
365.797	413.19
366.249	430.98
366.701	425.33
367.153	405
367.605	405.85
368.057	412.91
368.508	406.98
368.96	419.97
369.411	409.24
369.863	451.86
370.314	458.64
370.766	430.7
371.217	440.86
371.669	443.96
372.12	478.1
372.571	433.8
373.022	421.38
373.473	435.78
373.924	461.74
374.375	430.98
374.826	439.45
375.277	421.38
375.728	430.98
376.179	421.95
376.63	395.12
377.08	429.57
377.531	420.53
377.981	403.31
378.432	436.91
378.883	435.5
379.333	429.57
379.783	425.05
380.234	444.24
380.684	440.01
381.134	469.08
381.584	421.95
382.034	455.25
382.485	479.23
382.935	433.24
383.385	471.62
383.834	419.97
384.284	452.99
384.734	399.64
385.184	425.05
385.634	409.52
386.083	406.7
386.533	421.1
386.982	444.81
387.432	458.92
387.881	414.89
388.331	440.01
388.78	433.52
389.229	431.26
389.679	443.96
390.128	441.42
390.577	443.68
391.026	436.62
391.475	454.4
391.924	441.14
392.373	412.35
392.822	443.96
393.27	451.86
393.719	431.54
394.168	449.61
394.617	461.74
395.065	435.5
395.514	484.03
395.962	449.89
396.411	426.46
396.859	419.97
397.307	492.77
397.756	439.45
398.204	453.84
398.652	478.39
399.1	472.74
399.548	447.35
399.996	485.16
400.444	460.89
400.892	468.79
401.34	475.57
401.788	465.69
402.236	456.94
402.683	445.37
403.131	477.26
403.579	456.38
404.026	442.83
404.474	438.04
404.921	470.49
405.369	447.91
405.816	485.16
406.263	493.05
406.71	488.82
407.158	493.05
407.605	478.39
408.052	493.62
408.499	533.94
408.946	518.43
409.393	513.08
409.84	524.07
410.286	538.73
410.733	573.68
411.18	553.39
411.626	614.52
412.073	651.96
412.52	707.95
412.966	856.29
413.413	942.98
413.859	1105.69
414.305	1365.44
414.752	1661.27
415.198	2031.5
415.644	2456.42
416.09	2988.55
416.536	3602.6
416.982	4335.29
417.428	5201.98
417.874	6212.43
418.32	7233.6
418.766	8301.51
419.211	9640.25
419.657	10817.72
420.103	12339.3
420.548	13549.08
420.994	15263.01
421.439	16693.21
421.885	18074.77
422.33	19949.43
422.776	21480.34
423.221	22808.56
423.666	24434.72
424.111	26239.98
424.556	27317.2
425.001	29092.22
425.446	30582.36
425.891	32046.97
426.336	33083.88
426.781	34446.74
427.226	36633.66
427.671	37111.34
428.115	37878.4
428.56	39588.85
429.005	41126.9
429.449	41433.72
429.894	42543.56
430.338	43417.68
430.782	43177.03
431.227	44540.66
431.671	44576.29
432.115	46001.6
432.559	46742.19
433.003	46312.35
433.447	46953.92
433.891	47202.98
434.335	47366.39
434.779	47827.42
435.223	48036.14
435.667	47814.34
436.111	48692.89
436.554	48188.11
436.998	47368.44
437.442	47685.42
437.885	49537.52
438.328	47882.07
438.772	48220.28
439.215	48652.81
439.659	48154.4
440.102	48551.29
440.545	47776.14
440.988	47666.98
441.431	48547.42
441.874	48154.4
442.317	48439.8
442.76	47899.26
443.203	47318.37
443.646	47813.58
444.089	47607.31
444.531	48011.47
444.974	46868.12
445.417	47935.97
445.859	46994.17
446.302	48227.23
446.744	47404.72
447.186	48587.19
447.629	47806.91
448.071	47841.53
448.513	48043.59
448.956	49548.74
449.398	48506.37
449.84	47407.79
450.282	48108.63
450.724	48743.84
451.166	48433.87
451.607	48505.08
452.049	48548.96
452.491	49823.48
452.933	49190.1
453.374	50098.62
453.816	50645.53
454.257	50195.64
454.699	51474.28
455.14	51055.15
455.582	51062.34
456.023	51033.58
456.464	51388.31
456.905	51895.21
457.347	51874.16
457.788	50962.02
458.229	51156.41
458.67	52249.92
459.111	50336.25
459.552	50394.52
459.992	50263.8
460.433	50275.39
460.874	49265.25
461.315	50601.61
461.755	49698.42
462.196	49093.72
462.636	48319.42
463.077	48145.66
463.517	48251.94
463.957	48719.78
464.398	48346.99
464.838	48546.9
465.278	47327.31
465.718	47634.96
466.158	46411.25
466.598	47132.83
467.038	46701
467.478	47349.53
467.918	47396.04
468.358	46627.05
468.798	46421.4
469.237	46413.54
469.677	46583.61
470.117	47350.81
470.556	44802.49
470.996	45569.32
471.435	45665.98
471.874	46444.74
472.314	46205.91
472.753	45180.2
473.192	45523.91
473.631	45223.76
474.07	45289.99
474.509	45567.81
474.948	45835.22
475.387	45229.04
475.826	44242.37
476.265	46033.74
476.704	45752.35
477.143	46148.67
477.581	45974.28
478.02	46572.94
478.458	45035.76
478.897	45925.72
479.335	47131.3
479.774	46615.62
480.212	46991.62
480.65	47046.15
481.089	46655
481.527	46061.07
481.965	45709.67
482.403	47995.29
482.841	47900.03
483.279	47843.84
483.717	47951.38
484.155	47497.28
484.592	47899.01
485.03	48228
485.468	47052.77
485.905	47404.47
486.343	47941.88
486.781	47245.09
487.218	46520.63
487.655	46696.68
488.093	45592.53
488.53	47327.56
488.967	46399.58
489.405	46349.62
489.842	45352.98
490.279	45277.4
490.716	45047.58
491.153	45402.12
491.59	44802.74
492.027	44039.58
492.463	43605.39
492.9	42751.22
493.337	42755.7
493.773	42824.12
494.21	41989.56
494.647	41883.66
495.083	40933.32
495.519	40561.33
495.956	40555.9
496.392	39854.32
496.828	39592.3
497.265	38915.19
497.701	39011.53
498.137	38789.38
498.573	37833.05
499.009	38494.68
499.445	37499.76
499.881	36980.14
500.316	37243.07
500.752	36253.88
501.188	35897.52
501.624	35869.91
502.059	34512.13
502.495	34422.59
502.93	34326.95
503.366	35011.71
503.801	33771.29
504.236	33601.31
504.672	32970.74
505.107	32727.18
505.542	32059.4
505.977	32037.46
506.412	31503.01
506.847	31868.5
507.282	31142.11
507.717	30950.91
508.152	30785.55
508.587	30618.95
509.021	29706.57
509.456	29519.32
509.891	29534.22
510.325	29365.74
510.76	29153.28
511.194	28837.42
511.628	28929.28
512.063	28053
512.497	28278.21
512.931	27595.51
513.366	27476.81
513.8	27484.4
514.234	26582.03
514.668	26723.94
515.102	26884.19
515.536	25992.21
515.969	26224.53
516.403	25572.7
516.837	25244.28
517.271	25380.88
517.704	24832.53
518.138	24707.59
518.571	24501.66
519.005	24049.4
519.438	24009.99
519.871	23759.89
520.305	23281.76
520.738	23140.62
521.171	22637.38
521.604	22858.94
522.037	22513.09
522.47	22166.22
522.903	21755.96
523.336	21651.98
523.769	21469.94
524.202	20900.3
524.634	20938.74
525.067	20710
525.5	20385.27
525.932	20379.31
526.365	19877.58
526.797	19752.48
527.23	19760.69
527.662	19035
528.094	18860.79
528.527	18846.33
528.959	18545.57
529.391	18377.39
529.823	17709.92
530.255	17758.92
530.687	17348.97
531.119	17020.98
531.551	17003.95
531.982	16600.19
532.414	16473.02
532.846	16133.7
533.277	15934.26
533.709	15487.25
534.14	15428.62
534.572	15247.15
535.003	15152.47
535.435	14861.97
535.866	14612.57
536.297	14316.5
536.728	14344.03
537.159	14130.34
537.59	13860.85
538.022	13752.84
538.452	13494.39
538.883	13179.41
539.314	13064.79
539.745	12838.42
540.176	12688.34
540.606	12308.01
541.037	12327.34
541.468	12052.93
541.898	11987.47
542.328	11855.96
542.759	11633.3
543.189	11575.37
543.619	11360.6
544.05	11158.4
544.48	10982.38
544.91	10853.84
545.34	10708.3
545.77	10615.75
546.2	10512.63
546.63	10282.86
547.06	10234.3
547.489	10085.2
547.919	9765.77
548.349	9840.21
548.778	9744.64
549.208	9536.58
549.637	9417.86
550.067	9326.97
550.496	9332.13
550.926	9095.1
551.355	8897.61
551.784	8844.76
552.213	8750.17
552.642	8617.89
553.071	8536.14
553.5	8462.91
553.929	8163.63
554.358	8201.89
554.787	7974.02
555.216	7988.87
555.645	7805.28
556.073	7730.89
556.502	7668.73
556.93	7476.86
557.359	7391.03
557.787	7450.7
558.216	7262.43
558.644	7204.25
559.072	7170.95
559.5	7099.34
559.929	7046.59
560.357	7057.88
560.785	6923.16
561.213	6869.55
561.641	6705.41
562.068	6739.89
562.496	6615.36
562.924	6627.74
563.352	6614.83
563.779	6490.43
564.207	6547.64
564.634	6481.73
565.062	6452.45
565.489	6342.14
565.917	6270.56
566.344	6257.35
566.771	6228.55
567.198	6147.12
567.625	6029.36
568.053	5921.81
568.48	5908.82
568.907	5863.22
569.333	5772.23
569.76	5620.32
570.187	5604.38
570.614	5491.88
571.04	11615.44
571.467	5415.49
571.894	5358.22
572.32	5155.81
572.747	5068.74
573.173	5029.46
573.599	4922.49
574.026	4809.24
574.452	4743.59
574.878	4681.65
575.304	4606.79
575.73	4527.03
576.156	4417.62
576.582	4410.36
577.008	4291.13
577.434	4228.89
577.86	4086.76
578.285	4150.17
578.711	4071.1
579.137	3998.46
579.562	3887.62
579.988	3878.42
580.413	3814.82
580.838	3715.69
581.264	3725.99
581.689	3650.62
582.114	3618.07
582.539	4023.04
582.964	3518.99
583.39	3480.14
583.814	3378.45
584.239	3283.45
584.664	3292.71
585.089	3262.75
585.514	3210.98
585.939	3195.71
586.363	3110.61
586.788	3069.67
587.212	3014.5
587.637	2932.5
588.061	2941.8
588.485	2868.49
588.91	2825.51
589.334	2781.42
589.758	2818.67
590.182	2760.05
590.606	2693.16
591.03	2655.58
591.454	2631.98
591.878	2567.73
592.302	2575.7
592.726	2556.75
593.15	2544.11
593.573	2436.89
593.997	2472.37
594.42	2394.24
594.844	2366.99
595.267	2304.74
595.691	2317.97
596.114	2304.19
596.537	2230.86
596.96	2273.88
597.384	2207.14
597.807	2160.23
598.23	2195.28
598.653	2160.23
599.076	2104.45
599.499	2126.82
599.921	2099.48
600.344	2078.21
600.767	2082.63
601.189	2061.63
601.612	2045.04
602.034	2030.39
602.457	2004.4
602.879	2101.41
603.302	2017.4
603.724	1965.95
604.146	1956.81
604.568	1865.72
604.991	1938.82
605.413	1895.91
605.835	1949.07
606.257	1886.49
606.678	1902
607.1	1898.68
607.522	1861.84
607.944	1894.25
608.365	1877.63
608.787	1817.22
609.209	1828.86
609.63	1758.7
610.051	1771.74
610.473	1768.14
610.894	1754.54
611.315	1706.53
611.737	1696.54
612.158	1637.93
612.579	1625.43
613	1693.2
613.421	1586.51
613.842	1619.03
614.263	1524.49
614.683	1570.66
615.104	1524.21
615.525	1553.14
615.945	1488.3
616.366	1452.66
616.787	1477.45
617.207	1421.46
617.627	1385.23
618.048	1397.22
618.468	1395.83
618.888	1362.65
619.308	1335.6
619.728	1330.86
620.148	1275.05
620.568	1283.98
620.988	1319.98
621.408	1231.21
621.828	1263.6
622.248	1232.88
622.668	1265.56
623.087	1218.08
623.507	1216.96
623.926	1181.19
624.346	1170.01
624.765	1162.19
625.185	1157.99
625.604	1125.84
626.023	1108.21
626.442	1099.82
626.861	1133.39
627.28	1080.79
627.699	1069.04
628.118	1049.72
628.537	1060.92
628.956	1045.24
629.375	1067.92
629.794	1043.56
630.212	1018.92
630.631	1026.76
631.049	980.26
631.468	1018.08
631.886	982.5
632.305	993.71
632.723	946.62
633.141	959.8
633.559	936.81
633.978	902.03
634.396	956.15
634.814	924.47
635.232	948.3
635.65	931.2
636.067	905.68
636.485	891.37
636.903	878.46
637.321	854.61
637.738	937.09
638.156	861.91
638.573	854.61
638.991	895.86
639.408	873.97
639.825	847.87
640.243	856.01
640.66	838.33
641.077	844.78
641.494	820.64
641.911	843.94
642.328	811.37
642.745	789.46
643.162	827.66
643.579	802.94
643.995	765.02
644.412	819.8
644.829	750.68
645.245	773.73
645.662	733.82
646.078	741.97
646.495	744.22
646.911	746.75
647.327	740.56
647.743	723.41
648.159	742.25
648.576	692.76
648.992	739.72
649.408	707.66
649.824	707.95
650.239	692.19
650.655	704.85
651.071	690.23
651.487	704.01
651.902	719.76
652.318	654.77
652.733	672.22
653.149	680.38
653.564	684.6
653.979	660.4
654.395	678.13
654.81	655.9
655.225	659.56
655.64	643.23
656.055	701.48
656.47	673.06
656.885	648.02
657.3	639.01
657.715	697.54
658.13	633.38
658.544	636.48
658.959	599.59
659.374	616.21
659.788	637.88
660.202	620.71
660.617	670.53
661.031	633.1
661.445	622.12
661.86	591.42
662.274	643.51
662.688	644.08
663.102	589.45
663.516	637.32
663.93	602.41
664.344	613.95
664.758	595.08
665.171	586.07
665.585	574.24
665.999	553.11
666.412	569.73
666.826	611.14
667.239	620.99
667.653	575.65
668.066	557.33
668.479	557.61
668.892	564.94
669.306	569.45
669.719	544.09
670.132	553.67
670.545	537.32
670.958	541.83
671.37	535.07
671.783	549.44
672.196	567.76
672.609	548.88
673.021	543.24
673.434	507.44
673.846	534.79
674.259	531.4
674.671	553.67
675.084	534.5
675.496	520.13
675.908	546.91
676.32	516.46
676.732	533.38
677.144	540.14
677.556	499.54
677.968	512.79
678.38	536.19
678.792	531.4
679.204	513.36
679.615	542.11
680.027	524.64
680.439	507.16
680.85	523.79
681.262	538.73
681.673	498.98
682.084	524.07
682.496	526.89
682.907	507.72
683.318	512.79
683.729	521.25
684.14	510.82
684.551	494.75
684.962	521.82
685.373	534.22
685.784	508.57
686.194	485.72
686.605	502.64
687.016	474.16
687.426	497.57
687.837	479.8
688.247	487.98
688.657	478.1
689.068	436.06
689.478	466.54
689.888	484.87
690.298	479.52
690.708	452.71
691.118	492.77
691.528	477.82
691.938	452.71
692.348	468.23
692.758	454.12
693.168	487.13
693.577	473.87
693.987	463.15
694.396	474.72
694.806	450.45
695.215	471.05
695.625	470.49
696.034	470.49
696.443	441.14
696.852	517.02
697.262	456.1
697.671	443.68
698.08	483.18
698.489	470.49
698.897	452.99
699.306	446.22
699.715	456.66
700.124	449.04
700.532	421.38
700.941	437.75
701.35	437.47
701.758	469.36
702.166	477.82
702.575	469.36
702.983	398.23
703.391	440.01
703.799	475.85
704.208	445.09
704.616	406.42
705.024	487.13
705.432	463.15
705.839	443.68
706.247	483.18
706.655	510.26
707.063	456.38
707.47	440.86
707.878	419.97
708.285	449.89
708.693	430.13
709.1	442.27
709.508	435.5
709.915	435.21
710.322	464.56
710.729	524.07
711.136	432.67
711.543	437.47
711.95	431.54
712.357	478.39
712.764	412.63
713.171	452.99
713.578	430.13
713.984	407.26
714.391	455.82
714.797	432.11
715.204	429.85
715.61	452.15
716.017	441.42
716.423	444.53
716.829	414.04
717.236	401.9
717.642	420.82
718.048	450.45
718.454	444.81
718.86	415.73
719.266	501.23
719.671	398.23
720.077	449.89
720.483	416.86
720.889	460.33
721.294	380.15
721.7	439.45
722.105	442.27
722.511	401.9
722.916	409.24
723.321	442.83
723.726	467.95
724.132	420.82
724.537	425.62
724.942	436.34
725.347	438.32
725.752	444.81
726.156	408.96
726.561	459.77
726.966	417.15
727.371	455.25
727.775	465.41
728.18	418.56
728.584	422.23
728.989	431.26
729.393	469.64
729.798	426.46
730.202	441.99
730.606	395.97
731.01	439.45
731.414	421.66
731.818	403.59
732.222	456.38
732.626	389.76
733.03	419.97
733.434	421.66
733.837	460.89
734.241	421.95
734.645	407.26
735.048	413.19
735.452	428.16
735.855	384.11
736.258	420.82
736.662	451.86
737.065	463.43
737.468	435.21
737.871	417.15
738.274	441.42
738.677	419.4
739.08	396.53
739.483	435.21
739.886	433.8
740.289	460.89
740.691	427.31
741.094	395.97
741.497	410.93
741.899	437.19
742.302	387.21
742.704	394.84
743.106	410.93
743.508	391.17
743.911	417.71
744.313	406.13
744.715	411.22
745.117	362.92
745.519	427.03
745.921	405.85
746.323	393.99
746.724	400.2
747.126	386.93
747.528	443.96
747.929	401.33
748.331	454.69
748.732	393.99
749.134	405.57
749.535	394.27
749.936	431.54
750.338	412.63
750.739	460.05
751.14	387.78
751.541	423.36
751.942	412.63
752.343	410.65
752.744	406.42
753.144	413.76
753.545	425.05
753.946	414.61
754.346	401.62
754.747	448.2
755.148	490.23
755.548	401.33
755.948	416.58
756.349	397.95
756.749	409.52
757.149	402.18
757.549	426.74
757.949	422.79
758.349	408.39
758.749	413.76
759.149	423.92
759.549	389.47
759.949	393.43
760.348	476.69
760.748	397.1
761.148	376.48
761.547	415.73
761.947	408.96
762.346	428.44
762.745	440.29
763.145	395.12
763.544	388.63
763.943	401.62
764.342	406.42
764.741	381.85
765.14	368.57
765.539	409.24
765.938	453.84
766.336	392.01
766.735	394.56
767.134	395.4
767.532	404.44
767.931	381.85
768.329	467.95
768.728	379.59
769.126	423.36
769.525	450.45
769.923	411.78
770.321	403.88
770.719	445.66
771.117	397.66
771.515	392.3
771.913	445.37
772.311	398.51
772.709	405.29
773.106	369.98
773.504	393.14
773.902	406.98
774.299	417.43
774.697	486.57
775.094	401.9
775.491	381.28
775.889	402.46
776.286	376.76
776.683	376.48
777.08	353.31
777.477	381.85
777.874	448.76
778.271	398.23
778.668	391.45
779.065	397.38
779.462	399.07
779.858	411.78
780.255	404.72
780.652	407.55
781.048	409.81
781.444	392.01
781.841	401.33
782.237	400.77
782.633	401.62
783.03	385.24
783.426	400.2
783.822	366.59
784.218	390.32
784.614	367.72
785.01	381
785.405	408.68
785.801	382.41
786.197	382.98
786.593	392.58
786.988	389.47
787.384	414.04
787.779	417.99
788.174	400.2
788.57	412.35
788.965	402.75
789.36	400.49
789.755	391.17
790.15	374.22
790.545	387.5
790.94	362.64
791.335	370.55
791.73	391.73
792.125	440.58
792.52	408.96
792.914	411.22
793.309	390.04
793.703	430.13
794.098	395.12
794.492	416.86
794.887	392.86
795.281	453.28
795.675	438.6
796.069	402.75
796.463	397.1
796.857	401.05
797.251	419.12
797.645	373.37
798.039	402.46
798.433	392.3
798.826	396.25
799.22	410.65
799.614	371.96
800.007	409.24
800.401	392.86
800.794	386.37
801.187	384.11
801.581	374.22
801.974	430.7
802.367	387.21
802.76	381
803.153	380.43
803.546	338.9
803.939	396.53
804.332	377.04
804.725	353.31
805.117	381.56
805.51	429.57
805.903	372.81
806.295	407.83
806.688	386.08
807.08	364.61
807.472	399.64
807.865	416.02
808.257	410.65
808.649	417.99
809.041	403.59
809.433	396.25
809.825	416.58
810.217	398.23
810.609	384.39
811.001	404.72
811.392	393.14
811.784	426.46
812.175	391.73
812.567	400.2
812.958	411.22
813.35	397.95
813.741	372.52
814.132	388.06
814.524	360.09
814.915	374.22
815.306	399.36
815.697	381.56
816.088	399.64
816.479	417.99
816.87	396.82
817.26	417.71
817.651	449.04
818.042	413.76
818.432	381
818.823	401.33
819.213	394.27
819.604	366.59
819.994	386.37
820.384	408.68
820.775	405.57
821.165	399.07
821.555	420.25
821.945	416.86
822.335	358.12
822.725	406.7
823.114	374.5
823.504	394.27
823.894	377.33
824.284	397.1
824.673	402.75
825.063	379.02
825.452	347.94
825.842	371.68
826.231	426.46
826.62	398.23
827.009	419.12
827.399	405.29
827.788	364.05
828.177	399.64
828.566	406.98
828.954	488.26
829.343	417.99
829.732	386.08
830.121	465.69
830.509	434.93
830.898	373.09
831.286	379.02
831.675	385.8
832.063	409.52
832.452	390.32
832.84	381.28
833.228	443.96
833.616	373.37
834.004	389.76
834.392	401.62
834.78	406.13
835.168	382.98
835.556	428.72
835.944	398.51
836.331	417.15
836.719	425.05
837.107	402.18
837.494	406.7
837.881	379.87
838.269	394.84
838.656	390.32
839.043	342.86
839.431	427.03
839.818	379.87
840.205	387.5
840.592	412.06
840.979	387.5
841.366	375.07
841.752	359.25
842.139	375.63
842.526	398.23
842.912	375.63
843.299	386.93
843.685	378.46
844.072	395.97
844.458	398.51
844.844	401.9
845.231	390.04
845.617	378.74
846.003	392.86
846.389	355.29
846.775	377.33
847.161	397.66
847.547	374.78
847.933	377.89
848.318	397.38
848.704	354.16
849.09	349.92
849.475	358.4
849.861	417.43
850.246	414.89
850.631	404.44
851.017	392.01
851.402	374.5
851.787	386.37
852.172	441.7
852.557	403.31
852.942	388.91
853.327	365.74
853.712	375.35
854.097	408.96
854.481	347.38
854.866	374.22
855.25	360.09
855.635	370.26
856.019	398.51
856.404	386.93
856.788	371.39
857.172	392.3
857.557	386.08
857.941	385.8
858.325	356.42
858.709	386.37
859.093	388.91
859.477	364.33
859.86	421.1
860.244	385.8
860.628	444.53
861.012	403.88
861.395	391.17
861.779	386.65
862.162	358.4
862.545	388.91
862.929	379.3
863.312	381.85
863.695	383.82
864.078	408.11
864.461	337.2
864.844	391.17
865.227	429.29
865.61	372.81
865.993	371.39
866.376	396.25
866.758	404.16
867.141	434.08
867.523	415.45
867.906	386.93
868.288	386.65
868.671	381.56
869.053	373.94
869.435	379.3
869.817	418.84
870.199	378.17
870.581	362.35
870.963	399.92
871.345	421.38
871.727	390.6
872.109	363.2
872.491	408.39
872.872	385.8
873.254	381.85
873.635	381.56
874.017	426.46
874.398	379.02
874.779	406.42
875.161	378.74
875.542	406.7
875.923	383.54
876.304	380.43
876.685	386.37
877.066	400.49
877.447	360.38
877.828	378.46
878.208	366.03
878.589	435.78
878.97	468.23
879.35	387.21
879.731	371.96
880.111	366.59
880.491	390.88
880.872	408.39
881.252	390.04
881.632	388.06
882.012	387.21
882.392	419.12
882.772	417.99
883.152	401.62
883.532	381
883.912	394.27
884.291	386.08
884.671	377.33
885.051	394.84
885.43	375.63
885.81	380.43
886.189	342.86
886.568	367.72
886.948	353.88
887.327	395.97
887.706	378.74
888.085	405
888.464	391.45
888.843	471.33
889.222	416.02
889.601	408.68
889.979	364.33
890.358	387.21
890.737	391.73
891.115	402.18
891.494	369.13
891.872	386.65
892.25	371.11
892.629	413.76
893.007	416.58
893.385	352.46
893.763	380.43
894.141	384.39
894.519	413.48
894.897	371.11
895.275	383.54
895.653	382.41
896.03	401.33
896.408	379.3
896.786	373.94
897.163	357.55
897.541	394.56
897.918	392.3
898.295	351.62
898.673	379.02
899.05	390.88
899.427	539.86
899.804	386.93
900.181	362.07
900.558	385.8
900.935	386.37
901.312	377.89
901.688	381.28
902.065	379.59
902.442	418.56
902.818	382.98
903.195	375.35
903.571	393.99
903.947	381.85
904.324	387.21
904.7	395.12
905.076	420.82
905.452	371.39
905.828	417.99
906.204	377.04
906.58	395.69
906.956	393.99
907.331	419.97
907.707	390.04
908.083	414.61
908.458	395.97
908.834	398.79
909.209	384.67
909.585	377.33
909.96	373.94
910.335	369.42
910.71	371.68
911.086	349.64
911.461	404.72
911.836	389.47
912.21	373.94
912.585	380.72
912.96	394.84
913.335	376.2
913.709	387.5
914.084	373.09
914.459	384.39
914.833	392.01
915.207	348.79
915.582	375.07
915.956	373.94
916.33	358.4
916.704	380.43
917.078	390.6
917.452	418.56
917.826	363.77
918.2	345.68
918.574	389.76
918.948	361.51
919.321	375.07
919.695	378.17
920.068	386.65
920.442	381.85
920.815	397.95
921.189	384.39
921.562	403.88
921.935	388.63
922.308	356.14
922.681	376.48
923.054	370.55
923.427	396.53
923.8	365.74
924.173	362.07
924.546	346.81
924.919	370.83
925.291	371.96
925.664	367.44
926.036	361.79
926.409	354.44
926.781	350.2
927.153	379.02
927.526	377.33
927.898	358.96
928.27	397.38
928.642	389.76
929.014	383.54
929.386	372.24
929.758	366.59
930.129	404.16
930.501	406.13
930.873	365.74
931.244	419.69
931.616	387.78
931.987	348.51
932.359	413.48
932.73	391.45
933.101	381.28
933.472	413.19
933.843	415.45
934.214	406.13
934.585	390.88
934.956	355.57
935.327	470.21
935.698	386.65
936.069	383.26
936.439	365.18
936.81	367.72
937.18	370.26
937.551	401.33
937.921	428.72
938.292	400.2
938.662	352.46
939.032	416.58
939.402	357.83
939.772	366.87
940.142	373.09
940.512	384.67
940.882	359.53
941.252	361.51
941.621	367.44
941.991	399.64
942.361	402.75
942.73	382.69
943.1	370.55
943.469	379.87
943.838	440.86
944.208	397.66
944.577	359.25
944.946	391.17
945.315	373.37
945.684	347.94
946.053	349.64
946.422	388.06
946.791	364.05
947.159	370.83
947.528	363.77
947.897	390.6
948.265	354.16
948.634	374.22
949.002	343.42
949.371	363.48
949.739	387.21
950.107	378.46
950.475	382.98
950.843	384.67
951.211	376.48
951.579	391.17
951.947	373.94
952.315	389.19
952.683	366.87
953.05	383.54
953.418	384.67
953.785	376.76
954.153	381.56
954.52	371.11
954.888	397.38
955.255	356.14
955.622	377.89
955.989	359.25
956.356	393.99
956.723	384.39
957.09	374.22
957.457	392.86
957.824	364.9
958.191	368.85
958.557	413.76
958.924	360.09
959.291	368
959.657	362.35
960.023	478.95
960.39	405.29
960.756	378.46
961.122	381.28
961.488	347.94
961.855	361.22
962.221	375.35
962.586	346.81
962.952	414.32
963.318	381.28
963.684	461.46
964.05	430.13
964.415	380.72
964.781	346.53
965.146	362.92
965.512	419.12
965.877	367.44
966.242	366.87
966.608	359.81
966.973	379.87
967.338	375.35
967.703	393.14
968.068	378.74
968.433	385.8
968.797	476.41
969.162	367.16
969.527	374.78
969.891	382.13
970.256	343.7
970.62	358.68
970.985	356.99
971.349	377.04
971.714	379.59
972.078	377.33
972.442	348.51
972.806	394.56
973.17	366.59
973.534	392.58
973.898	381.85
974.262	382.98
974.625	404.44
974.989	374.5
975.353	402.18
975.716	395.97
976.08	376.76
976.443	361.79
976.806	392.3
977.17	383.26
977.533	367.44
977.896	358.12
978.259	384.95
978.622	499.54
978.985	395.69
979.348	342.86
979.711	358.12
980.073	407.83
980.436	399.64
980.799	395.12
981.161	382.98
981.524	350.77
981.886	393.99
982.248	395.4
982.611	383.54
982.973	376.2
983.335	377.89
983.697	387.5
984.059	389.19
984.421	347.66
984.783	361.79
985.145	395.12
985.506	356.99
985.868	391.17
986.23	397.1
986.591	369.98
986.953	412.63
987.314	351.62
987.675	372.52
988.037	3596.09
988.398	447.07
988.759	382.69
989.12	386.37
989.481	387.78
989.842	392.58
990.203	379.02
990.564	366.03
990.924	364.05
991.285	4421.39
991.646	463.15
992.006	375.63
992.367	391.17
992.727	381.56
993.087	385.52
993.448	352.75
993.808	365.46
994.168	368
994.528	343.42
994.888	363.77
995.248	368.57
995.608	358.4
995.967	359.81
996.327	371.68
996.687	367.72
997.046	362.35
997.406	389.76
997.765	373.65
998.125	387.5
998.484	360.66
998.843	424.49
999.202	382.41
999.561	380.15
999.92	349.36
1000.279	338.05
1000.638	349.92
1000.997	339.18
1001.356	360.38
1001.715	358.96
1002.073	375.63
1002.432	393.43
1002.79	372.81
1003.149	357.55
1003.507	396.82
1003.865	367.16
1004.224	387.21
1004.582	383.26
1004.94	389.47
1005.298	337.77
1005.656	369.13
1006.014	393.99
1006.371	347.1
1006.729	343.99
1007.087	409.52
1007.445	380.43
1007.802	366.03
1008.16	355.57
1008.517	410.93
1008.874	392.58
1009.232	380.43
1009.589	385.8
1009.946	379.87
1010.303	365.18
1010.66	376.48
1011.017	368.85
1011.374	388.06
1011.731	384.11
1012.087	376.48
1012.444	355.86
1012.801	361.79
1013.157	381
1013.513	356.99
1013.87	371.68
1014.226	345.4
1014.582	378.74
1014.939	376.48
1015.295	361.51
1015.651	366.03
1016.007	370.26
1016.363	387.5
1016.719	359.25
1017.074	383.54
1017.43	378.74
1017.786	369.13
1018.141	366.03
1018.497	358.4
1018.852	352.18
1019.208	396.82
1019.563	353.31
1019.918	372.52
1020.273	379.02
1020.628	355.01
1020.983	386.37
1021.338	335.51
1021.693	385.52
1022.048	366.59
1022.403	374.22
1022.757	378.17
1023.112	379.3
1023.467	352.75
1023.821	365.46
1024.175	384.67
1024.53	374.5
1024.884	353.31
1025.238	321.66
1025.592	371.96
1025.946	355.29
1026.3	359.81
1026.654	362.64
1027.008	357.27
1027.362	381.85
1027.716	361.51
1028.069	348.79
1028.423	371.68
1028.777	374.22
1029.13	360.94
1029.483	408.96
1029.837	368.85
1030.19	361.79
1030.543	360.38
1030.896	380.43
1031.249	386.37
1031.602	340.31
1031.955	382.69
1032.308	357.83
1032.661	391.17
1033.013	374.22
1033.366	335.23
1033.719	358.96
1034.071	361.79
1034.424	388.91
1034.776	341.44
1035.128	357.55
1035.48	362.07
1035.833	406.7
1036.185	377.33
1036.537	377.33
1036.889	377.33
