Data from SCSF78-405_irradiation_FLMS019251_02-59-13-359.txt Node
Date: Fri Feb 22 02:59:13 PST 2019
User: mu3e
Spectrometer: FLMS01925
Trigger mode: 0
Integration Time (sec): 3.659600E-1
Scans to average: 10
Electric dark correction enabled: true
Nonlinearity correction enabled: true
Boxcar width: 0
XAxis mode: Wavelengths
Number of Pixels in Spectrum: 2048
>>>>>Begin Spectral Data<<<<<
187.103	-136.87
187.574	-136.87
188.045	-136.87
188.516	-147.4
188.987	-97.34
189.458	-121.51
189.929	-112.7
190.4	-91.94
190.871	-124.07
191.342	-108.43
191.813	-95.07
192.284	-0.75
192.754	-26.02
193.225	-2.45
193.696	31.33
194.166	45.52
194.637	77.01
195.107	110.19
195.578	121.81
196.048	144.76
196.518	151.28
196.989	178.19
197.459	227.18
197.929	223.78
198.399	347.94
198.869	293.67
199.339	318.27
199.809	328.44
200.279	354.44
200.749	366.03
201.219	366.03
201.689	354.16
202.159	357.55
202.628	370.26
203.098	395.12
203.568	371.39
204.037	373.37
204.507	403.03
204.976	399.64
205.445	414.32
205.915	405
206.384	375.07
206.853	392.01
207.323	401.62
207.792	414.04
208.261	374.22
208.73	373.09
209.199	429.85
209.668	422.79
210.137	402.18
210.606	370.55
211.075	364.9
211.543	416.3
212.012	379.02
212.481	355.01
212.95	367.72
213.418	434.37
213.887	391.45
214.355	393.71
214.824	377.61
215.292	369.7
215.76	341.73
216.229	345.68
216.697	376.76
217.165	359.81
217.633	349.92
218.101	383.82
218.569	446.22
219.037	384.67
219.505	423.92
219.973	384.39
220.441	362.07
220.909	368
221.377	364.33
221.844	379.3
222.312	360.09
222.78	349.07
223.247	365.74
223.715	372.52
224.182	367.72
224.65	383.26
225.117	377.89
225.584	355.86
226.052	339.75
226.519	371.68
226.986	351.33
227.453	382.69
227.92	388.06
228.387	366.03
228.854	347.66
229.321	364.33
229.788	367.44
230.255	369.42
230.722	381.56
231.189	382.13
231.655	380.72
232.122	349.64
232.589	371.96
233.055	358.96
233.522	402.46
233.988	353.88
234.454	416.58
234.921	388.34
235.387	397.1
235.853	395.69
236.32	370.26
236.786	360.66
237.252	405.29
237.718	396.82
238.184	371.39
238.65	361.79
239.116	369.13
239.582	362.35
240.047	350.2
240.513	371.68
240.979	400.49
241.445	357.27
241.91	362.92
242.376	389.19
242.841	401.9
243.307	359.25
243.772	368.85
244.238	383.26
244.703	359.53
245.168	368
245.633	394.84
246.099	348.23
246.564	375.35
247.029	394.84
247.494	390.04
247.959	374.78
248.424	363.48
248.889	348.79
249.353	413.76
249.818	379.87
250.283	375.07
250.748	355.29
251.212	374.5
251.677	360.94
252.141	378.46
252.606	368.57
253.07	377.61
253.535	385.8
253.999	383.26
254.463	365.18
254.927	357.55
255.392	369.42
255.856	356.42
256.32	378.74
256.784	357.83
257.248	401.9
257.712	398.51
258.176	418.28
258.64	385.24
259.103	405.85
259.567	406.98
260.031	405.85
260.495	397.66
260.958	417.43
261.422	355.29
261.885	399.64
262.349	384.39
262.812	393.14
263.275	379.02
263.739	392.86
264.202	400.77
264.665	402.46
265.128	366.87
265.591	408.39
266.054	402.18
266.517	399.92
266.98	398.23
267.443	380.15
267.906	373.65
268.369	372.52
268.832	402.75
269.294	367.44
269.757	362.92
270.22	386.37
270.682	439.45
271.145	405
271.607	382.98
272.07	461.46
272.532	392.01
272.994	407.55
273.456	425.33
273.919	451.58
274.381	409.52
274.843	405
275.305	426.74
275.767	371.68
276.229	415.17
276.691	407.83
277.153	388.34
277.614	409.81
278.076	372.24
278.538	416.86
279	392.86
279.461	405.29
279.923	466.26
280.384	386.65
280.846	356.42
281.307	363.77
281.769	387.78
282.23	394.56
282.691	409.24
283.152	411.22
283.613	368
284.075	348.51
284.536	421.38
284.997	381
285.458	393.99
285.918	394.56
286.379	402.46
286.84	426.46
287.301	380.72
287.762	403.31
288.222	410.93
288.683	398.79
289.143	372.52
289.604	377.89
290.064	368.29
290.525	401.9
290.985	454.69
291.445	393.71
291.906	370.83
292.366	367.16
292.826	397.1
293.286	405.57
293.746	412.06
294.206	394.84
294.666	397.38
295.126	428.44
295.586	386.37
296.046	393.71
296.506	420.53
296.965	423.07
297.425	392.58
297.884	447.35
298.344	407.26
298.804	412.06
299.263	393.14
299.722	381.28
300.182	416.58
300.641	403.59
301.1	368
301.559	403.59
302.019	384.95
302.478	423.92
302.937	421.66
303.396	429.29
303.855	448.48
304.314	363.48
304.772	528.58
305.231	366.31
305.69	365.18
306.149	423.07
306.607	365.18
307.066	411.5
307.524	399.07
307.983	444.53
308.441	399.07
308.9	447.35
309.358	380.43
309.816	448.76
310.275	379.87
310.733	398.23
311.191	409.52
311.649	410.93
312.107	429
312.565	406.98
313.023	404.16
313.481	368.29
313.939	414.04
314.397	392.86
314.854	384.39
315.312	421.95
315.77	399.64
316.227	379.87
316.685	399.64
317.142	454.4
317.6	435.5
318.057	398.23
318.514	409.81
318.972	400.49
319.429	440.58
319.886	397.95
320.343	388.63
320.8	437.19
321.257	388.06
321.714	431.83
322.171	468.23
322.628	391.45
323.085	413.19
323.542	381.85
323.998	391.45
324.455	396.25
324.912	427.03
325.368	384.95
325.825	445.94
326.281	422.23
326.738	405.57
327.194	409.24
327.65	421.38
328.107	375.07
328.563	428.44
329.019	446.5
329.475	419.4
329.931	429
330.387	437.47
330.843	392.3
331.299	413.48
331.755	395.97
332.211	439.73
332.666	416.58
333.122	406.42
333.578	421.66
334.033	427.87
334.489	418.28
334.944	405.29
335.4	491.93
335.855	460.05
336.31	395.97
336.766	400.49
337.221	400.77
337.676	392.58
338.131	405.85
338.586	414.32
339.041	424.2
339.496	432.67
339.951	419.97
340.406	415.45
340.861	418.28
341.316	442.27
341.771	414.04
342.225	382.69
342.68	408.39
343.134	395.97
343.589	439.16
344.043	427.31
344.498	418.28
344.952	409.81
345.406	639.57
345.861	403.59
346.315	407.83
346.769	404.16
347.223	408.11
347.677	395.12
348.131	377.89
348.585	405.29
349.039	413.19
349.493	371.11
349.947	384.39
350.401	416.86
350.854	410.09
351.308	483.46
351.762	424.77
352.215	454.97
352.669	410.37
353.122	391.17
353.575	388.34
354.029	428.16
354.482	381.28
354.935	431.26
355.388	434.93
355.842	444.81
356.295	434.93
356.748	427.03
357.201	411.5
357.654	422.51
358.106	427.59
358.559	397.38
359.012	408.11
359.465	413.19
359.917	400.77
360.37	414.61
360.823	421.1
361.275	424.77
361.728	403.03
362.18	409.52
362.632	456.94
363.085	416.86
363.537	404.72
363.989	417.99
364.441	412.35
364.893	424.49
365.345	423.36
365.797	421.95
366.249	408.39
366.701	391.73
367.153	405.85
367.605	389.47
368.057	444.81
368.508	433.52
368.96	411.78
369.411	405.57
369.863	429
370.314	406.7
370.766	425.05
371.217	424.2
371.669	387.5
372.12	471.62
372.571	437.47
373.022	425.9
373.473	389.76
373.924	453.28
374.375	407.55
374.826	435.78
375.277	419.12
375.728	369.13
376.179	412.91
376.63	405.85
377.08	401.05
377.531	417.99
377.981	403.59
378.432	445.37
378.883	428.72
379.333	451.86
379.783	436.34
380.234	417.15
380.684	419.69
381.134	443.96
381.584	434.08
382.034	442.83
382.485	435.5
382.935	392.3
383.385	451.58
383.834	392.3
384.284	425.33
384.734	416.86
385.184	462.02
385.634	411.5
386.083	462.59
386.533	416.86
386.982	441.7
387.432	445.94
387.881	427.31
388.331	430.41
388.78	432.95
389.229	426.46
389.679	411.5
390.128	432.67
390.577	435.78
391.026	445.09
391.475	421.1
391.924	426.18
392.373	413.76
392.822	415.45
393.27	433.24
393.719	408.39
394.168	440.01
394.617	445.66
395.065	431.54
395.514	473.31
395.962	437.47
396.411	404.16
396.859	437.19
397.307	457.51
397.756	428.16
398.204	440.29
398.652	462.87
399.1	477.82
399.548	433.8
399.996	500.95
400.444	478.95
400.892	452.43
401.34	451.3
401.788	454.97
402.236	431.54
402.683	440.86
403.131	480.64
403.579	469.92
404.026	434.93
404.474	440.29
404.921	469.08
405.369	450.45
405.816	466.54
406.263	452.99
406.71	488.82
407.158	472.74
407.605	473.31
408.052	497.57
408.499	494.18
408.946	520.41
409.393	518.43
409.84	517.31
410.286	528.87
410.733	548.03
411.18	535.07
411.626	627.19
412.073	657.87
412.52	708.79
412.966	845.35
413.413	902.31
413.859	1091.42
414.305	1322.77
414.752	1637.38
415.198	1949.07
415.644	2450.65
416.09	2998.93
416.536	3611.83
416.982	4325.33
417.428	5192.64
417.874	6141.3
418.32	7153.38
418.766	8320.24
419.211	9574.24
419.657	10765.45
420.103	12290.71
420.548	13477.42
420.994	15109.91
421.439	16638.8
421.885	17997.58
422.33	19804.96
422.776	21335.9
423.221	22660.11
423.666	24322.73
424.111	26068.52
424.556	27047.34
425.001	28800.04
425.446	30451.84
425.891	31748.79
426.336	32878.83
426.781	34300.6
427.226	36436.53
427.671	36820.58
428.115	37688.68
428.56	39541.1
429.005	40781.85
429.449	40964.46
429.894	42234.01
430.338	43334.36
430.782	42907.26
431.227	44288.71
431.671	44425.55
432.115	45752.35
432.559	46449.82
433.003	46064.87
433.447	46720.07
433.891	46858.7
434.335	46939.4
434.779	47738.2
435.223	47680.29
435.667	47453.29
436.111	48450.64
436.554	47766.65
436.998	47264.24
437.442	47301.77
437.885	49130.86
438.328	47520.04
438.772	47814.6
439.215	48339
439.659	47950.6
440.102	48145.92
440.545	47637.52
440.988	47506.23
441.431	48276.15
441.874	47909.79
442.317	48168.04
442.76	47472.22
443.203	46932.78
443.646	47618.58
444.089	47256.58
444.531	47846.15
444.974	46599.36
445.417	47586.58
445.859	46632.64
446.302	47811.27
446.744	47259.38
447.186	48408.86
447.629	47510.84
448.071	47590.93
448.513	47537.44
448.956	49156.32
449.398	48280.27
449.84	47098.66
450.282	47715.91
450.724	48455.54
451.166	48115.57
451.607	48077
452.049	48292.63
452.491	49505.69
452.933	49064.65
453.374	49854.91
453.816	50304.89
454.257	49862.51
454.699	51167.61
455.14	50884.95
455.582	50659.29
456.023	50596.58
456.464	50797.09
456.905	51537.03
457.347	51616.23
457.788	50708.82
458.229	50903.01
458.67	52034.12
459.111	50108.87
459.552	50317.54
459.992	50053.97
460.433	49949
460.874	49017.93
461.315	50327.29
461.755	49353.23
462.196	49072.69
462.636	48108.88
463.077	47880.53
463.517	48007.88
463.957	48489.08
464.398	48106.31
464.838	48179.62
465.278	47160.88
465.718	47463.27
466.158	46325.02
466.598	46794.08
467.038	46399.33
467.478	46931.76
467.918	47219.82
468.358	46613.08
468.798	46303.98
469.237	46099.04
469.677	46060.56
470.117	46891.54
470.556	44594.86
470.996	45048.84
471.435	45391.53
471.874	46244.42
472.314	45968.47
472.753	44934.68
473.192	45207.64
473.631	44803.25
474.07	45159.05
474.509	45189.01
474.948	45639.23
475.387	44910.79
475.826	43930.51
476.265	46033.49
476.704	45445.48
477.143	45821.58
477.581	45787.46
478.02	46299.93
478.458	44748.24
478.897	45751.34
479.335	46830.46
479.774	46281.42
480.212	46703.8
480.65	46655.25
481.089	46434.59
481.527	45896.14
481.965	45471.2
482.403	47701.56
482.841	47537.7
483.279	47589.9
483.717	47569.17
484.155	46956.98
484.592	47763.83
485.03	47971.4
485.468	46740.67
485.905	46964.62
486.343	47663.39
486.781	46995.69
487.218	46337.7
487.655	46394.26
488.093	45398.34
488.53	47041.81
488.967	46065.12
489.405	45948.48
489.842	44993.01
490.279	45044.31
490.716	44609.41
491.153	45267.07
491.59	44592.35
492.027	43755.02
492.463	43406.45
492.9	42500.31
493.337	42509.75
493.773	42627.6
494.21	41662.56
494.647	41550.1
495.083	40699.6
495.519	40310.12
495.956	40320.23
496.392	39537.9
496.828	39410.18
497.265	38388.64
497.701	38814.2
498.137	38578.65
498.573	37464.97
499.009	38155.78
499.445	37157.13
499.881	36650.05
500.316	37094.45
500.752	35976.45
501.188	35714.52
501.624	35639.52
502.059	34211.56
502.495	34179.11
502.93	34066.41
503.366	34640.24
503.801	33646.18
504.236	33347.7
504.672	32726.69
505.107	32468.26
505.542	31858.99
505.977	31890.2
506.412	31296.96
506.847	31533.98
507.282	31124.8
507.717	30721.88
508.152	30704.32
508.587	30447.94
509.021	29623.08
509.456	29345.96
509.891	29319.59
510.325	29325.94
510.76	28823.25
511.194	28658.8
511.628	28793.93
512.063	27817.2
512.497	28080.64
512.931	27398.97
513.366	27378.89
513.8	27294.18
514.234	26503.1
514.668	26535.21
515.102	26700.17
515.536	25692.28
515.969	26071.95
516.403	25543.97
516.837	25043.73
517.271	25210.61
517.704	24727.76
518.138	24531.68
518.571	24422.41
519.005	23962.69
519.438	23868.32
519.871	23609.53
520.305	23122.85
520.738	23038.19
521.171	22495.04
521.604	22772.5
522.037	22467.61
522.47	22011.37
522.903	21757.2
523.336	21568.27
523.769	21377.78
524.202	20728.36
524.634	20824.88
525.067	20592.1
525.5	20411.85
525.932	20227.54
526.365	19790.29
526.797	19609.68
527.23	19567.13
527.662	18991.14
528.094	18840.85
528.527	18668.05
528.959	18322.22
529.391	18145.95
529.823	17497.59
530.255	17611.15
530.687	17211.05
531.119	16979.65
531.551	17005.95
531.982	16534.23
532.414	16417.83
532.846	15975.72
533.277	15834
533.709	15393.39
534.14	15451.77
534.572	15120.23
535.003	14998.05
535.435	14704.38
535.866	14450.31
536.297	14195.77
536.728	14286.45
537.159	13940.26
537.59	13749.29
538.022	13602.5
538.452	13439.17
538.883	13078.48
539.314	13064.02
539.745	12694.94
540.176	12613.89
540.606	12246.17
541.037	12208.76
541.468	11969.63
541.898	11949.76
542.328	11792.73
542.759	11593.24
543.189	11412.46
543.619	11364.69
544.05	11075.01
544.48	10908.9
544.91	10801.07
545.34	10640.11
545.77	10484.41
546.2	10390.46
546.63	10293.65
547.06	10188.04
547.489	9966.61
547.919	9725.31
548.349	9703.15
548.778	9605.44
549.208	9500.46
549.637	9372.42
550.067	9200.61
550.496	9252.56
550.926	9035.34
551.355	8793.97
551.784	8878.18
552.213	8645.14
552.642	8525.75
553.071	8462.13
553.5	8335.57
553.929	8067.29
554.358	8190.7
554.787	8014.93
555.216	7925.79
555.645	7824.33
556.073	7690.41
556.502	7633.46
556.93	7461.16
557.359	7394.17
557.787	7373.49
558.216	7228.89
558.644	7215.78
559.072	7124.53
559.5	7016.93
559.929	7006.43
560.357	6953.9
560.785	6804.34
561.213	6861.14
561.641	6697.78
562.068	6690.41
562.496	6606.14
562.924	6545.01
563.352	6554.23
563.779	6461.16
564.207	6484.9
564.634	6428.18
565.062	6363
565.489	6244.67
565.917	6176.47
566.344	6169.07
566.771	6102.14
567.198	6078.59
567.625	5934.26
568.053	5898.22
568.48	5870.38
568.907	5832.19
569.333	5687.28
569.76	5525.14
570.187	5599.33
570.614	5448.77
571.04	11585.84
571.467	5441.31
571.894	5260.13
572.32	5116.29
572.747	5052.44
573.173	5023.31
573.599	4916.33
574.026	4786.74
574.452	4830.67
574.878	4636.04
575.304	4591.22
575.73	4480.81
576.156	4407.94
576.582	4453.39
577.008	4243.18
577.434	4227.28
577.86	4098.9
578.285	4101.33
578.711	4024.66
579.137	3959.54
579.562	3887.89
579.988	3851.09
580.413	3819.43
580.838	3721.92
581.264	3700.78
581.689	3609.12
582.114	3577.09
582.539	3960.35
582.964	3493.99
583.39	3454.05
583.814	3371.1
584.239	3293.8
584.664	3292.44
585.089	3204.98
585.514	3207.98
585.939	3132.17
586.363	3054.65
586.788	3043.73
587.212	3029.8
587.637	2922.66
588.061	2887.92
588.485	2834.55
588.91	2807.71
589.334	2801.14
589.758	2731.54
590.182	2747.17
590.606	2679.72
591.03	2652.56
591.454	2617.98
591.878	2576.52
592.302	2541.64
592.726	2551.8
593.15	2508.94
593.573	2436.07
593.997	2434.97
594.42	2324.85
594.844	2340
595.267	2303.36
595.691	2279.39
596.114	2230.04
596.537	2256.78
596.96	2217.63
597.384	2211.28
597.807	2181.48
598.23	2156.64
598.653	2152.5
599.076	2092.57
599.499	2079.59
599.921	2046.43
600.344	2026.24
600.767	2035.37
601.189	2022.93
601.612	2011.31
602.034	2032.6
602.457	1994.16
602.879	2090.36
603.302	1979.5
603.724	1972.31
604.146	1934.12
604.568	1833.02
604.991	1900.34
605.413	1925.26
605.835	1923.05
606.257	1868.49
606.678	1855.19
607.1	1868.21
607.522	1925.81
607.944	1889.82
608.365	1839.67
608.787	1812.23
609.209	1829.69
609.63	1760.92
610.051	1752.6
610.473	1748.99
610.894	1722.07
611.315	1686.54
611.737	1675.99
612.158	1653.77
612.579	1579.28
613	1660.71
613.421	1617.37
613.842	1609.58
614.263	1538.67
614.683	1522.54
615.104	1525.04
615.525	1492.76
615.945	1475.5
616.366	1432.89
616.787	1436.51
617.207	1427.59
617.627	1399.73
618.048	1331.41
618.468	1367.95
618.888	1316.35
619.308	1301.56
619.728	1316.63
620.148	1283.98
620.568	1305.19
620.988	1309.37
621.408	1268.35
621.828	1241.54
622.248	1234.56
622.668	1269.18
623.087	1200.48
623.507	1213.33
623.926	1177
624.346	1163.3
624.765	1157.43
625.185	1126.67
625.604	1113.81
626.023	1120.24
626.442	1107.37
626.861	1122.76
627.28	1050.56
627.699	1040.76
628.118	1084.15
628.537	1051.12
628.956	1041.88
629.375	1063.72
629.794	1018.64
630.212	999.31
630.631	1037.4
631.049	974.09
631.468	978.57
631.886	941.85
632.305	992.3
632.723	928.11
633.141	956.71
633.559	937.37
633.978	941.01
634.396	958.39
634.814	930.08
635.232	916.06
635.65	895.86
636.067	893.33
636.485	868.92
636.903	861.91
637.321	859.1
637.738	916.9
638.156	869.2
638.573	824.57
638.991	864.15
639.408	873.13
639.825	818.11
640.243	834.68
640.66	802.38
641.077	827.38
641.494	811.65
641.911	831.03
642.328	806.03
642.745	793.39
643.162	779.35
643.579	774.29
643.995	776.54
644.412	807.72
644.829	718.91
645.245	769.51
645.662	743.37
646.078	738.03
646.495	720.32
646.911	703.16
647.327	761.92
647.743	752.65
648.159	725.94
648.576	700.63
648.992	733.53
649.408	694.73
649.824	686.01
650.239	704.85
650.655	661.25
651.071	677
651.487	711.32
651.902	692.48
652.318	673.06
652.733	698.1
653.149	674.19
653.564	657.02
653.979	658.71
654.395	654.21
654.81	654.21
655.225	639.29
655.64	661.53
656.055	695.85
656.47	646.89
656.885	602.97
657.3	645.2
657.715	682.63
658.13	602.69
658.544	614.8
658.959	583.54
659.374	603.25
659.788	654.21
660.202	592.55
660.617	668.84
661.031	608.6
661.445	617.33
661.86	594.52
662.274	632.82
662.688	607.48
663.102	627.47
663.516	636.76
663.93	602.69
664.344	602.41
664.758	588.61
665.171	590.86
665.585	601.28
665.999	595.37
666.412	557.05
666.826	566.35
667.239	608.6
667.653	538.45
668.066	558.18
668.479	588.04
668.892	546.91
669.306	577.34
669.719	554.51
670.132	555.36
670.545	542.96
670.958	565.5
671.37	583.54
671.783	542.68
672.196	551.7
672.609	532.81
673.021	520.69
673.434	530.84
673.846	533.09
674.259	487.13
674.671	501.23
675.084	532.25
675.496	521.54
675.908	507.44
676.32	509.41
676.732	528.3
677.144	545.5
677.556	528.58
677.968	527.74
678.38	554.8
678.792	519.56
679.204	511.39
679.615	548.6
680.027	513.36
680.439	504.05
680.85	521.25
681.262	566.91
681.673	491.08
682.084	487.7
682.496	502.36
682.907	493.05
683.318	482.9
683.729	519.56
684.14	481.77
684.551	518.72
684.962	486.57
685.373	495.87
685.784	492.21
686.194	486.29
686.605	484.87
687.016	479.23
687.426	482.34
687.837	470.21
688.247	462.31
688.657	459.48
689.068	473.03
689.478	482.62
689.888	470.49
690.298	476.41
690.708	449.32
691.118	469.36
691.528	477.26
691.938	458.64
692.348	481.77
692.758	468.23
693.168	465.69
693.577	467.1
693.987	455.25
694.396	483.18
694.806	453.28
695.215	446.78
695.625	461.46
696.034	475.28
696.443	449.89
696.852	488.26
697.262	444.24
697.671	440.01
698.08	460.05
698.489	462.31
698.897	451.3
699.306	450.45
699.715	475.28
700.124	456.1
700.532	452.99
700.941	441.14
701.35	452.15
701.758	465.69
702.166	424.77
702.575	444.24
702.983	433.52
703.391	463.43
703.799	443.4
704.208	436.91
704.616	396.53
705.024	471.9
705.432	456.94
705.839	438.32
706.247	467.95
706.655	508.28
707.063	439.73
707.47	412.06
707.878	438.04
708.285	417.15
708.693	437.47
709.1	464.84
709.508	405.57
709.915	428.72
710.322	448.2
710.729	528.02
711.136	442.55
711.543	426.18
711.95	441.99
712.357	462.59
712.764	434.93
713.171	415.45
713.578	422.51
713.984	429.85
714.391	408.39
714.797	408.68
715.204	449.89
715.61	452.71
716.017	420.82
716.423	444.81
716.829	421.38
717.236	418.28
717.642	424.49
718.048	447.91
718.454	415.73
718.86	394.27
719.266	485.16
719.671	431.26
720.077	407.83
720.483	412.06
720.889	451.86
721.294	410.65
721.7	414.61
722.105	429
722.511	410.37
722.916	416.02
723.321	416.86
723.726	454.69
724.132	393.14
724.537	428.16
724.942	424.77
725.347	435.78
725.752	433.8
726.156	411.78
726.561	423.92
726.966	413.76
727.371	433.8
727.775	430.98
728.18	412.06
728.584	424.77
728.989	432.39
729.393	509.98
729.798	413.48
730.202	430.13
730.606	428.16
731.01	393.14
731.414	452.43
731.818	424.77
732.222	428.16
732.626	403.88
733.03	407.83
733.434	393.43
733.837	414.89
734.241	407.83
734.645	393.99
735.048	377.61
735.452	404.16
735.855	407.26
736.258	390.04
736.662	452.43
737.065	427.87
737.468	429.57
737.871	395.97
738.274	448.48
738.677	429.57
739.08	386.08
739.483	412.06
739.886	429
740.289	406.13
740.691	401.9
741.094	379.3
741.497	399.64
741.899	427.87
742.302	416.86
742.704	384.67
743.106	416.58
743.508	411.5
743.911	379.87
744.313	410.09
744.715	432.11
745.117	387.21
745.519	396.53
745.921	404.44
746.323	414.89
746.724	383.82
747.126	380.15
747.528	418.84
747.929	393.14
748.331	390.32
748.732	381
749.134	385.8
749.535	382.69
749.936	432.95
750.338	374.5
750.739	442.55
751.14	405
751.541	363.2
751.942	386.65
752.343	405
752.744	421.38
753.144	403.31
753.545	425.33
753.946	375.91
754.346	398.51
754.747	432.39
755.148	506.31
755.548	402.75
755.948	360.66
756.349	399.07
756.749	433.8
757.149	393.43
757.549	429
757.949	410.93
758.349	398.79
758.749	372.52
759.149	388.91
759.549	404.72
759.949	406.7
760.348	454.97
760.748	382.69
761.148	387.78
761.547	399.07
761.947	387.5
762.346	392.3
762.745	445.09
763.145	393.14
763.544	414.61
763.943	420.53
764.342	396.53
764.741	407.55
765.14	395.12
765.539	396.25
765.938	447.07
766.336	364.05
766.735	398.23
767.134	400.49
767.532	390.04
767.931	408.68
768.329	459.77
768.728	373.37
769.126	400.2
769.525	443.68
769.923	398.23
770.321	351.05
770.719	416.86
771.117	400.77
771.515	395.4
771.913	416.58
772.311	377.89
772.709	376.76
773.106	383.82
773.504	389.76
773.902	375.91
774.299	426.46
774.697	491.64
775.094	396.25
775.491	373.37
775.889	395.4
776.286	379.87
776.683	367.72
777.08	366.31
777.477	383.54
777.874	415.45
778.271	376.76
778.668	395.69
779.065	388.34
779.462	381.85
779.858	369.98
780.255	415.17
780.652	420.25
781.048	434.93
781.444	410.37
781.841	395.69
782.237	419.4
782.633	390.32
783.03	356.99
783.426	379.59
783.822	368
784.218	386.65
784.614	397.66
785.01	375.91
785.405	400.77
785.801	381.85
786.197	401.05
786.593	396.53
786.988	401.05
787.384	407.83
787.779	392.86
788.174	399.64
788.57	411.78
788.965	367.72
789.36	353.88
789.755	376.48
790.15	346.81
790.545	389.76
790.94	380.72
791.335	377.33
791.73	392.01
792.125	447.91
792.52	398.23
792.914	377.89
793.309	382.69
793.703	400.2
794.098	372.52
794.492	388.34
794.887	366.03
795.281	432.67
795.675	421.1
796.069	437.47
796.463	387.5
796.857	367.16
797.251	389.47
797.645	354.73
798.039	394.56
798.433	375.63
798.826	366.31
799.22	369.98
799.614	387.5
800.007	387.21
800.401	416.58
800.794	371.39
801.187	353.88
801.581	404.16
801.974	426.46
802.367	379.59
802.76	347.94
803.153	341.44
803.546	392.58
803.939	401.05
804.332	371.39
804.725	382.98
805.117	386.65
805.51	390.32
805.903	392.86
806.295	390.04
806.688	370.55
807.08	345.12
807.472	395.4
807.865	385.8
808.257	398.51
808.649	395.69
809.041	364.9
809.433	427.59
809.825	413.19
810.217	384.95
810.609	380.72
811.001	391.45
811.392	389.76
811.784	419.12
812.175	363.48
812.567	408.68
812.958	385.52
813.35	384.95
813.741	359.81
814.132	388.63
814.524	400.49
814.915	406.42
815.306	386.08
815.697	375.07
816.088	372.81
816.479	410.93
816.87	414.61
817.26	432.11
817.651	434.65
818.042	414.61
818.432	392.86
818.823	403.88
819.213	383.82
819.604	362.07
819.994	388.06
820.384	390.6
820.775	414.61
821.165	401.05
821.555	393.14
821.945	371.96
822.335	374.5
822.725	382.41
823.114	348.51
823.504	365.46
823.894	375.07
824.284	395.12
824.673	381.85
825.063	374.22
825.452	386.08
825.842	404.72
826.231	427.87
826.62	388.34
827.009	438.88
827.399	431.54
827.788	375.07
828.177	368.29
828.566	401.33
828.954	441.99
829.343	399.07
829.732	367.44
830.121	446.22
830.509	428.16
830.898	383.26
831.286	343.7
831.675	375.07
832.063	413.76
832.452	391.73
832.84	350.77
833.228	427.87
833.616	370.55
834.004	392.86
834.392	374.5
834.78	403.03
835.168	375.35
835.556	410.65
835.944	384.11
836.331	386.93
836.719	412.06
837.107	402.75
837.494	392.58
837.881	388.06
838.269	387.78
838.656	389.76
839.043	379.59
839.431	441.99
839.818	374.5
840.205	408.68
840.592	384.39
840.979	360.66
841.366	383.82
841.752	348.79
842.139	388.06
842.526	386.93
842.912	375.07
843.299	376.76
843.685	398.51
844.072	385.52
844.458	429.85
844.844	394.84
845.231	366.59
845.617	375.35
846.003	374.78
846.389	374.5
846.775	356.99
847.161	371.39
847.547	409.24
847.933	358.96
848.318	386.65
848.704	348.51
849.09	343.14
849.475	363.2
849.861	404.72
850.246	377.04
850.631	397.66
851.017	396.53
851.402	367.16
851.787	401.9
852.172	416.3
852.557	386.93
852.942	388.34
853.327	381.28
853.712	369.42
854.097	397.66
854.481	395.97
854.866	398.51
855.25	377.33
855.635	389.47
856.019	360.38
856.404	377.33
856.788	353.31
857.172	362.64
857.557	401.33
857.941	377.89
858.325	377.89
858.709	358.96
859.093	340.88
859.477	372.81
859.86	401.62
860.244	352.46
860.628	406.98
861.012	353.31
861.395	382.69
861.779	371.96
862.162	395.12
862.545	381.85
862.929	385.52
863.312	412.35
863.695	365.18
864.078	374.5
864.461	365.46
864.844	395.12
865.227	412.06
865.61	373.65
865.993	388.63
866.376	389.76
866.758	396.25
867.141	410.93
867.523	375.63
867.906	367.44
868.288	379.02
868.671	376.76
869.053	380.15
869.435	369.42
869.817	416.3
870.199	360.09
870.581	368.57
870.963	409.52
871.345	366.31
871.727	404.44
872.109	388.63
872.491	369.98
872.872	386.08
873.254	371.96
873.635	373.37
874.017	409.52
874.398	388.06
874.779	392.01
875.161	361.22
875.542	396.53
875.923	370.26
876.304	385.52
876.685	379.02
877.066	379.87
877.447	358.12
877.828	372.52
878.208	379.87
878.589	380.15
878.97	426.46
879.35	365.74
879.731	354.44
880.111	372.81
880.491	370.83
880.872	367.72
881.252	378.46
881.632	382.98
882.012	416.02
882.392	406.7
882.772	414.61
883.152	395.12
883.532	388.06
883.912	394.56
884.291	384.67
884.671	381.56
885.051	378.17
885.43	351.62
885.81	356.99
886.189	390.88
886.568	370.26
886.948	372.52
887.327	427.59
887.706	380.43
888.085	398.23
888.464	392.3
888.843	453.28
889.222	413.48
889.601	408.11
889.979	350.2
890.358	392.58
890.737	361.22
891.115	362.35
891.494	393.99
891.872	387.21
892.25	379.59
892.629	390.88
893.007	411.22
893.385	374.22
893.763	343.42
894.141	385.8
894.519	384.11
894.897	357.83
895.275	384.11
895.653	354.44
896.03	406.42
896.408	393.14
896.786	389.76
897.163	401.33
897.541	361.79
897.918	405.29
898.295	380.72
898.673	377.61
899.05	381
899.427	547.75
899.804	358.12
900.181	369.7
900.558	421.38
900.935	367.16
901.312	339.46
901.688	358.12
902.065	400.2
902.442	397.95
902.818	360.38
903.195	353.03
903.571	384.39
903.947	387.5
904.324	363.48
904.7	395.12
905.076	411.78
905.452	362.92
905.828	396.53
906.204	385.24
906.58	393.71
906.956	401.9
907.331	424.49
907.707	400.2
908.083	390.32
908.458	373.09
908.834	365.18
909.209	390.6
909.585	390.88
909.96	344.83
910.335	356.99
910.71	378.46
911.086	364.05
911.461	411.78
911.836	359.53
912.21	350.49
912.585	369.42
912.96	361.79
913.335	369.13
913.709	349.36
914.084	376.76
914.459	404.16
914.833	364.9
915.207	343.42
915.582	360.38
915.956	346.81
916.33	365.46
916.704	321.09
917.078	373.65
917.452	419.12
917.826	346.81
918.2	373.65
918.574	388.06
918.948	355.57
919.321	365.74
919.695	356.7
920.068	380.72
920.442	377.61
920.815	382.13
921.189	383.26
921.562	416.58
921.935	394.27
922.308	363.77
922.681	358.4
923.054	389.76
923.427	400.2
923.8	361.51
924.173	329.57
924.546	365.74
924.919	369.42
925.291	380.15
925.664	356.14
926.036	388.06
926.409	376.48
926.781	364.05
927.153	357.55
927.526	412.63
927.898	363.77
928.27	386.37
928.642	368
929.014	356.14
929.386	376.76
929.758	344.27
930.129	383.54
930.501	412.91
930.873	355.57
931.244	374.22
931.616	353.59
931.987	366.03
932.359	408.39
932.73	391.17
933.101	358.96
933.472	371.68
933.843	387.21
934.214	405.85
934.585	361.51
934.956	365.74
935.327	449.89
935.698	364.05
936.069	397.66
936.439	364.05
936.81	364.61
937.18	402.18
937.551	377.04
937.921	410.37
938.292	388.06
938.662	361.22
939.032	417.15
939.402	372.24
939.772	403.03
940.142	375.07
940.512	374.5
940.882	366.03
941.252	377.33
941.621	350.49
941.991	389.47
942.361	395.12
942.73	381.56
943.1	374.22
943.469	378.17
943.838	435.5
944.208	394.27
944.577	365.74
944.946	362.92
945.315	353.31
945.684	361.79
946.053	379.87
946.422	357.27
946.791	379.3
947.159	360.09
947.528	347.66
947.897	367.44
948.265	343.42
948.634	356.14
949.002	354.16
949.371	342.57
949.739	333.25
950.107	392.01
950.475	383.54
950.843	384.95
951.211	414.32
951.579	376.48
951.947	353.03
952.315	381.28
952.683	365.74
953.05	354.16
953.418	388.63
953.785	375.35
954.153	361.22
954.52	389.47
954.888	390.6
955.255	344.27
955.622	374.78
955.989	345.96
956.356	408.39
956.723	369.7
957.09	351.9
957.457	385.24
957.824	357.55
958.191	327.88
958.557	392.01
958.924	355.29
959.291	375.07
959.657	344.55
960.023	451.86
960.39	375.07
960.756	370.83
961.122	385.52
961.488	366.31
961.855	370.26
962.221	343.99
962.586	393.71
962.952	432.39
963.318	378.74
963.684	441.99
964.05	411.5
964.415	350.2
964.781	353.88
965.146	362.64
965.512	438.04
965.877	355.86
966.242	385.24
966.608	373.65
966.973	357.83
967.338	366.59
967.703	400.77
968.068	351.05
968.433	405.85
968.797	426.46
969.162	358.12
969.527	367.16
969.891	330.14
970.256	344.55
970.62	364.33
970.985	364.05
971.349	353.59
971.714	384.11
972.078	368.57
972.442	399.36
972.806	390.6
973.17	375.07
973.534	390.88
973.898	381.28
974.262	390.04
974.625	399.07
974.989	389.19
975.353	395.69
975.716	351.05
976.08	364.61
976.443	353.59
976.806	372.81
977.17	361.51
977.533	378.46
977.896	362.07
978.259	374.22
978.622	524.35
978.985	376.48
979.348	355.57
979.711	358.4
980.073	395.69
980.436	381
980.799	363.2
981.161	377.33
981.524	382.13
981.886	368.29
982.248	326.46
982.611	372.81
982.973	375.35
983.335	387.78
983.697	377.61
984.059	386.93
984.421	360.38
984.783	353.03
985.145	352.46
985.506	359.53
985.868	365.18
986.23	360.94
986.591	354.73
986.953	397.1
987.314	345.4
987.675	343.7
988.037	5234.26
988.398	499.54
988.759	356.99
989.12	384.11
989.481	375.91
989.842	377.04
990.203	373.65
990.564	369.42
990.924	397.1
991.285	4622.35
991.646	475
992.006	369.98
992.367	368.29
992.727	392.01
993.087	379.87
993.448	353.03
993.808	377.89
994.168	343.14
994.528	357.55
994.888	395.97
995.248	392.01
995.608	371.68
995.967	371.11
996.327	370.26
996.687	371.11
997.046	341.73
997.406	352.75
997.765	359.81
998.125	366.03
998.484	342.29
998.843	391.45
999.202	372.24
999.561	360.09
999.92	356.14
1000.279	373.65
1000.638	364.05
1000.997	356.42
1001.356	357.27
1001.715	363.48
1002.073	374.22
1002.432	387.78
1002.79	387.78
1003.149	364.9
1003.507	381
1003.865	338.05
1004.224	366.03
1004.582	358.96
1004.94	365.18
1005.298	348.23
1005.656	352.75
1006.014	353.88
1006.371	363.2
1006.729	323.92
1007.087	396.82
1007.445	384.11
1007.802	394.27
1008.16	359.25
1008.517	383.26
1008.874	386.37
1009.232	375.35
1009.589	401.9
1009.946	393.14
1010.303	356.14
1010.66	378.17
1011.017	367.16
1011.374	406.98
1011.731	383.82
1012.087	350.49
1012.444	364.61
1012.801	369.13
1013.157	350.77
1013.513	356.14
1013.87	359.53
1014.226	367.72
1014.582	365.74
1014.939	357.27
1015.295	388.34
1015.651	355.86
1016.007	354.16
1016.363	384.67
1016.719	374.78
1017.074	403.31
1017.43	347.1
1017.786	383.82
1018.141	363.48
1018.497	342.57
1018.852	381
1019.208	360.66
1019.563	370.83
1019.918	353.59
1020.273	365.74
1020.628	344.83
1020.983	356.99
1021.338	357.27
1021.693	352.75
1022.048	356.14
1022.403	360.09
1022.757	381.56
1023.112	365.46
1023.467	354.73
1023.821	347.94
1024.175	362.07
1024.53	338.33
1024.884	334.66
1025.238	337.77
1025.592	368
1025.946	372.24
1026.3	339.75
1026.654	374.22
1027.008	347.1
1027.362	346.53
1027.716	392.01
1028.069	340.31
1028.423	382.13
1028.777	340.88
1029.13	357.83
1029.483	347.1
1029.837	383.54
1030.19	357.27
1030.543	358.96
1030.896	362.07
1031.249	387.5
1031.602	353.59
1031.955	371.96
1032.308	390.04
1032.661	424.77
1033.013	338.05
1033.366	350.2
1033.719	351.33
1034.071	365.46
1034.424	362.92
1034.776	356.99
1035.128	375.35
1035.48	358.12
1035.833	408.11
1036.185	370.83
1036.537	370.83
1036.889	370.83
