Data from SCSF78-405_irradiation_FLMS019251_04-42-13-802.txt Node
Date: Fri Feb 22 04:42:13 PST 2019
User: mu3e
Spectrometer: FLMS01925
Trigger mode: 0
Integration Time (sec): 3.659600E-1
Scans to average: 10
Electric dark correction enabled: true
Nonlinearity correction enabled: true
Boxcar width: 0
XAxis mode: Wavelengths
Number of Pixels in Spectrum: 2048
>>>>>Begin Spectral Data<<<<<
187.103	-125.48
187.574	-125.48
188.045	-125.48
188.516	-174.41
188.987	-82.83
189.458	-113.82
189.929	-130.6
190.4	-125.48
190.871	-115.24
191.342	-99.88
191.813	-79.42
192.284	-20.32
192.754	-37.08
193.225	11.76
193.696	-9.25
194.166	47.52
194.637	95.46
195.107	132.31
195.578	120.98
196.048	170.85
196.518	151.02
196.989	138.26
197.459	196.62
197.929	191.81
198.399	313.76
198.869	256.06
199.339	316.87
199.809	332.98
200.279	363.5
200.749	350.5
201.219	332.13
201.689	343.16
202.159	348.81
202.628	383.84
203.098	394.86
203.568	384.69
204.037	397.68
204.507	405.3
204.976	399.94
205.445	385.25
205.915	399.94
206.384	379.89
206.853	386.1
207.323	380.17
207.792	397.68
208.261	374.8
208.73	379.89
209.199	421.12
209.668	379.32
210.137	412.65
210.606	377.06
211.075	410.67
211.543	401.63
212.012	376.5
212.481	370.28
212.95	363.22
213.418	422.53
213.887	386.38
214.355	393.16
214.824	371.69
215.292	345.42
215.76	349.94
216.229	363.22
216.697	373.39
217.165	360.96
217.633	343.16
218.101	347.4
218.569	437.49
219.037	372.26
219.505	403.33
219.973	368.59
220.441	334.11
220.909	345.42
221.377	359.26
221.844	379.04
222.312	331.29
222.78	350.79
223.247	361.81
223.715	353.05
224.182	353.05
224.65	352.2
225.117	382.71
225.584	357.57
226.052	349.09
226.519	363.5
226.986	339.48
227.453	363.78
227.92	376.78
228.387	389.49
228.854	358.13
229.321	327.05
229.788	375.93
230.255	390.06
230.722	371.13
231.189	384.12
231.655	354.74
232.122	362.65
232.589	361.24
233.055	379.32
233.522	384.69
233.988	371.13
234.454	381.58
234.921	378.76
235.387	439.46
235.853	347.68
236.32	350.22
236.786	352.2
237.252	357.85
237.718	409.26
238.184	354.74
238.65	398.81
239.116	385.54
239.582	382.71
240.047	339.77
240.513	376.78
240.979	382.15
241.445	347.96
241.91	372.82
242.376	347.11
242.841	381.86
243.307	380.73
243.772	349.94
244.238	360.96
244.703	381.02
245.168	380.17
245.633	382.71
246.099	347.68
246.564	362.09
247.029	397.12
247.494	370.85
247.959	398.25
248.424	395.42
248.889	350.79
249.353	418.29
249.818	357.57
250.283	373.95
250.748	353.05
251.212	391.75
251.677	350.79
252.141	380.45
252.606	413.78
253.07	358.98
253.535	352.2
253.999	339.2
254.463	409.26
254.927	368.3
255.392	387.51
255.856	413.49
256.32	377.06
256.784	374.8
257.248	368.87
257.712	383.84
258.176	445.96
258.64	362.37
259.103	375.08
259.567	366.04
260.031	356.16
260.495	366.89
260.958	389.77
261.422	382.43
261.885	392.31
262.349	386.95
262.812	369.15
263.275	391.47
263.739	392.88
264.202	391.18
264.665	391.18
265.128	391.47
265.591	382.43
266.054	364.35
266.517	402.2
266.98	366.61
267.443	373.67
267.906	355.59
268.369	382.71
268.832	386.95
269.294	379.04
269.757	388.64
270.22	372.54
270.682	398.81
271.145	381.02
271.607	382.99
272.07	454.42
272.532	392.31
272.994	375.65
273.456	396.55
273.919	446.24
274.381	389.49
274.843	407.85
275.305	385.82
275.767	393.16
276.229	400.5
276.691	418.86
277.153	379.89
277.614	369.43
278.076	355.31
278.538	395.42
279	395.99
279.461	351.92
279.923	465.43
280.384	372.82
280.846	378.19
281.307	374.52
281.769	367.74
282.23	399.94
282.691	418.86
283.152	373.67
283.613	387.51
284.075	371.69
284.536	412.36
284.997	406.43
285.458	375.93
285.918	365.48
286.379	386.67
286.84	396.55
287.301	379.04
287.762	374.8
288.222	376.21
288.683	386.38
289.143	385.54
289.604	399.66
290.064	371.98
290.525	405.87
290.985	450.75
291.445	400.22
291.906	387.23
292.366	392.6
292.826	407.85
293.286	421.96
293.746	408.69
294.206	408.41
294.666	381.3
295.126	389.21
295.586	370
296.046	377.63
296.506	392.31
296.965	393.16
297.425	374.24
297.884	438.05
298.344	370.28
298.804	409.82
299.263	379.32
299.722	406.72
300.182	385.25
300.641	377.06
301.1	367.74
301.559	400.22
302.019	388.93
302.478	398.53
302.937	408.41
303.396	397.12
303.855	469.38
304.314	402.48
304.772	511.97
305.231	386.95
305.69	392.88
306.149	379.04
306.607	386.95
307.066	413.21
307.524	452.16
307.983	390.62
308.441	421.96
308.9	444.26
309.358	385.54
309.816	491.94
310.275	397.68
310.733	365.76
311.191	400.79
311.649	415.75
312.107	431.84
312.565	372.26
313.023	398.81
313.481	403.33
313.939	405.59
314.397	396.55
314.854	402.76
315.312	403.61
315.77	424.5
316.227	378.47
316.685	386.67
317.142	377.63
317.6	444.54
318.057	424.22
318.514	399.94
318.972	386.67
319.429	409.26
319.886	399.09
320.343	392.6
320.8	395.7
321.257	384.69
321.714	438.62
322.171	439.75
322.628	416.32
323.085	367.46
323.542	369.43
323.998	403.05
324.455	381.58
324.912	413.21
325.368	417.45
325.825	442.85
326.281	368.59
326.738	444.26
327.194	405.87
327.65	397.96
328.107	389.21
328.563	394.86
329.019	416.88
329.475	402.2
329.931	403.33
330.387	411.8
330.843	373.11
331.299	422.53
331.755	397.12
332.211	377.06
332.666	400.22
333.122	384.41
333.578	406.15
334.033	397.12
334.489	432.41
334.944	408.41
335.4	475.58
335.855	440.59
336.31	405.3
336.766	405.02
337.221	393.73
337.676	391.18
338.131	384.69
338.586	437.77
339.041	398.81
339.496	429.59
339.951	418.86
340.406	401.35
340.861	378.47
341.316	400.22
341.771	417.73
342.225	384.97
342.68	428.17
343.134	429.3
343.589	427.61
344.043	387.51
344.498	407.56
344.952	414.91
345.406	598.76
345.861	393.73
346.315	369.43
346.769	379.89
347.223	408.13
347.677	391.75
348.131	396.27
348.585	386.67
349.039	432.13
349.493	424.79
349.947	389.21
350.401	426.48
350.854	402.76
351.308	475.87
351.762	397.96
352.215	438.9
352.669	392.6
353.122	403.33
353.575	373.39
354.029	406.43
354.482	410.11
354.935	435.51
355.388	424.79
355.842	409.54
356.295	419.14
356.748	386.1
357.201	416.32
357.654	418.01
358.106	396.83
358.559	399.66
359.012	405.59
359.465	410.11
359.917	415.19
360.37	405.87
360.823	396.83
361.275	427.61
361.728	419.14
362.18	409.26
362.632	406.15
363.085	423.66
363.537	420.55
363.989	395.99
364.441	395.14
364.893	410.95
365.345	377.34
365.797	384.97
366.249	412.65
366.701	402.76
367.153	398.53
367.605	397.4
368.057	396.27
368.508	409.54
368.96	391.75
369.411	397.68
369.863	433.82
370.314	406.15
370.766	389.77
371.217	396.83
371.669	389.21
372.12	470.79
372.571	436.36
373.022	430.71
373.473	407
373.924	429.02
374.375	412.93
374.826	423.94
375.277	407.56
375.728	426.76
376.179	418.86
376.63	418.86
377.08	426.76
377.531	370.28
377.981	390.9
378.432	438.34
378.883	421.68
379.333	424.79
379.783	424.5
380.234	434.38
380.684	419.99
381.134	449.06
381.584	440.88
382.034	460.91
382.485	439.18
382.935	410.67
383.385	437.49
383.834	423.37
384.284	414.06
384.734	431.84
385.184	451.6
385.634	431.56
386.083	418.29
386.533	418.29
386.982	415.47
387.432	408.13
387.881	419.7
388.331	425.35
388.78	449.34
389.229	418.86
389.679	401.07
390.128	434.38
390.577	420.83
391.026	436.64
391.475	420.27
391.924	428.74
392.373	402.76
392.822	384.69
393.27	411.23
393.719	428.46
394.168	424.5
394.617	440.88
395.065	416.03
395.514	433.54
395.962	457.81
396.411	422.25
396.859	435.51
397.307	466.84
397.756	418.58
398.204	420.83
398.652	460.07
399.1	449.62
399.548	422.25
399.996	496.46
400.444	447.93
400.892	448.78
401.34	448.21
401.788	441.44
402.236	444.83
402.683	462.89
403.131	454.99
403.579	459.78
404.026	427.61
404.474	453.01
404.921	461.76
405.369	458.94
405.816	476.43
406.263	470.79
406.71	495.89
407.158	465.71
407.605	494.76
408.052	484.89
408.499	519.3
408.946	506.33
409.393	513.94
409.84	534.8
410.286	486.58
410.733	554.25
411.18	551.15
411.626	620.45
412.073	654.51
412.52	685.46
412.966	842.28
413.413	923.37
413.859	1117.74
414.305	1332.83
414.752	1614.61
415.198	1953.51
415.644	2480.36
416.09	2998.67
416.536	3620.8
416.982	4379.17
417.428	5234.01
417.874	6137.08
418.32	7140.81
418.766	8276.05
419.211	9588.44
419.657	10830.8
420.103	12381.29
420.548	13465.28
420.994	15208.39
421.439	16656.37
421.885	18102.51
422.33	19912.9
422.776	21493.73
423.221	22811.54
423.666	24463.28
424.111	26092.33
424.556	27199.93
425.001	29061.45
425.446	30725.56
425.891	32009.44
426.336	32990.26
426.781	34475.3
427.226	36674.29
427.671	37227.66
428.115	37931.87
428.56	39699.91
429.005	40983.76
429.449	41455.03
429.894	42602.75
430.338	43554.72
430.782	43211.7
431.227	44531.4
431.671	44618.71
432.115	46016.55
432.559	46803.25
433.003	46372.2
433.447	47112.44
433.891	47248.68
434.335	47333.71
434.779	48042.84
435.223	48219.26
435.667	48049
436.111	48750.06
436.554	48027.42
436.998	47564.07
437.442	47608.61
437.885	49615.86
438.328	48027.93
438.772	48262.77
439.215	48757.57
439.659	48243.98
440.102	48660.59
440.545	48008.66
440.988	47701.32
441.431	48646.37
441.874	48231.36
442.317	48479.03
442.76	47989.14
443.203	47278.04
443.646	48065.71
444.089	47649.58
444.531	48416.09
444.974	46856.94
445.417	48018.43
445.859	47161.67
446.302	48285.43
446.744	47590.43
447.186	48678.16
447.629	47901.85
448.071	48027.42
448.513	48094.5
448.956	49502.84
449.398	48713.33
449.84	47544.11
450.282	48223.9
450.724	48798.46
451.166	48651.54
451.607	48609.42
452.049	48813.99
452.491	49923.58
452.933	49295.19
453.374	50088.39
453.816	50692.68
454.257	50251.71
454.699	51586.7
455.14	51028.27
455.582	51127.89
456.023	51049.84
456.464	51153.22
456.905	51836.41
457.347	51991.67
457.788	51127.89
458.229	51304.6
458.67	52488.16
459.111	50371.06
459.552	50610.62
459.992	50484.01
460.433	50287.78
460.874	49287.91
461.315	50688.7
461.755	49772.98
462.196	49188.3
462.636	48411.45
463.077	48175.77
463.517	48433.63
463.957	48656.19
464.398	48364.79
464.838	48560.86
465.278	47483.74
465.718	47765.39
466.158	46548.32
466.598	47110.66
467.038	46796.38
467.478	47331.67
467.918	47551.53
468.358	46965.65
468.798	46596.58
469.237	46582.61
469.677	46408.73
470.117	47370.24
470.556	44983.47
470.996	45423.31
471.435	45659.69
471.874	46454.91
472.314	46218.84
472.753	45336.11
473.192	45484.58
473.631	45224.78
474.07	45572.62
474.509	45600.12
474.948	46004.4
475.387	45316.46
475.826	44229.11
476.265	46185.66
476.704	45624.35
477.143	46235.06
477.581	45922.71
478.02	46535.12
478.458	45138.68
478.897	45928.02
479.335	47204.53
479.774	46636.72
480.212	46879.84
480.65	46894.1
481.089	46745
481.527	46296.39
481.965	45861.02
482.403	47997.62
482.841	47872.59
483.279	47893.12
483.717	47795.64
484.155	47457.66
484.592	48042.32
485.03	48296.25
485.468	47110.4
485.905	47455.1
486.343	48093.73
486.781	47363.85
487.218	46550.36
487.655	46631.89
488.093	45782.68
488.53	47343.93
488.967	46610.55
489.405	46369.16
489.842	45405.16
490.279	45445.5
490.716	45004.84
491.153	45513.84
491.59	44790.95
492.027	44061.12
492.463	43631.62
492.9	42884.62
493.337	42908.27
493.773	42999.16
494.21	41910.95
494.647	41757.49
495.083	41025.29
495.519	40568.01
495.956	40677.14
496.392	39861.23
496.828	39690.8
497.265	38911.02
497.701	39210.45
498.137	38774.17
498.573	37842.14
499.009	38374.67
499.445	37588.47
499.881	36874.67
500.316	37323.41
500.752	36149.51
501.188	35974.03
501.624	36081.81
502.059	34520.2
502.495	34494.34
502.93	34321.6
503.366	34961.68
503.801	33881.54
504.236	33652.78
504.672	32944.92
505.107	32666.49
505.542	31973.84
505.977	31983.6
506.412	31494.25
506.847	31897.53
507.282	31318.19
507.717	30868.25
508.152	30840.93
508.587	30587.01
509.021	29804.96
509.456	29518.61
509.891	29510.31
510.325	29542.05
510.76	29111.04
511.194	28806.16
511.628	29036.05
512.063	28156.22
512.497	28342.28
512.931	27656.95
513.366	27468.26
513.8	27506.93
514.234	26718.32
514.668	26660.72
515.102	27023.1
515.536	25934.31
515.969	26324.12
516.403	25622.07
516.837	25248.71
517.271	25396.12
517.704	24963.6
518.138	24796.64
518.571	24438.43
519.005	24174.28
519.438	23916.39
519.871	23796.88
520.305	23407.83
520.738	23179.87
521.171	22784.12
521.604	22837.72
522.037	22556.84
522.47	22334.14
522.903	21684.67
523.336	21610.64
523.769	21540.3
524.202	20900.31
524.634	21017.62
525.067	20772.3
525.5	20544.95
525.932	20367.66
526.365	19999.66
526.797	19744.79
527.23	19745.04
527.662	19011.84
528.094	18931.59
528.527	18757.84
528.959	18498.93
529.391	18297.03
529.823	17669.18
530.255	17746.93
530.687	17262.63
531.119	17050.55
531.551	17028.26
531.982	16613.74
532.414	16393.51
532.846	16115.88
533.277	15956.39
533.709	15524.75
534.14	15429.14
534.572	15255.72
535.003	15141.41
535.435	14771.73
535.866	14565.91
536.297	14306.17
536.728	14343.79
537.159	14151.32
537.59	13843.16
538.022	13640.24
538.452	13433.87
538.883	13230.89
539.314	13079.77
539.745	12837.93
540.176	12635.51
540.606	12348.22
541.037	12340.08
541.468	12037.16
541.898	11973.21
542.328	11825.13
542.759	11607.55
543.189	11515.4
543.619	11369.82
544.05	11198.57
544.48	10970.62
544.91	10873.06
545.34	10673.46
545.77	10582.43
546.2	10517.78
546.63	10309.84
547.06	10293.92
547.489	10098.85
547.919	9730.48
548.349	9771.71
548.778	9735.12
549.208	9471.57
549.637	9433.37
550.067	9255.16
550.496	9286.42
550.926	9178.13
551.355	8893.74
551.784	8905.39
552.213	8734.63
552.642	8631.92
553.071	8583.39
553.5	8386.8
553.929	8177.18
554.358	8188.89
554.787	8031.36
555.216	7998.01
555.645	7805.3
556.073	7761.71
556.502	7662.22
556.93	7461.7
557.359	7437.37
557.787	7437.89
558.216	7342.87
558.644	7277.64
559.072	7221.56
559.5	7029.02
559.929	7061.83
560.357	6972.3
560.785	6894.27
561.213	6830.66
561.641	6670.15
562.068	6742.01
562.496	6667.79
562.924	6592.46
563.352	6601.94
563.779	6499.15
564.207	6523.41
564.634	6481.22
565.062	6448.51
565.489	6314.43
565.917	6268.2
566.344	6180.45
566.771	6184.15
567.198	6111.95
567.625	6001.3
568.053	5900.09
568.48	5920.24
568.907	5835.66
569.333	5767.21
569.76	5575.15
570.187	5669.5
570.614	5513.45
571.04	11312.83
571.467	5431.75
571.894	5252.68
572.32	5113.9
572.747	5054.87
573.173	4947.92
573.599	4937.22
574.026	4855.32
574.452	4809.79
574.878	4698.83
575.304	4628.28
575.73	4527.85
576.156	4415.49
576.582	4435.39
577.008	4314.84
577.434	4171.49
577.86	4098.92
578.285	4117.54
578.711	4036.02
579.137	4014.14
579.562	3904.4
579.988	3924.69
580.413	3805.1
580.838	3684.53
581.264	3729.25
581.689	3661.21
582.114	3635.99
582.539	4001.98
582.964	3543.72
583.39	3467.38
583.814	3326.49
584.239	3288.37
584.664	3313.15
585.089	3229.26
585.514	3198.18
585.939	3208.82
586.363	3110.63
586.788	3031.46
587.212	3024.08
587.637	2975.17
588.061	2979.54
588.485	2856.46
588.91	2850.72
589.334	2843.33
589.758	2810.19
590.182	2754.03
590.606	2693.72
591.03	2689.61
591.454	2622.67
591.878	2617.45
592.302	2557.86
592.726	2550.17
593.15	2481.46
593.573	2466.62
593.997	2433.61
594.42	2336.17
594.844	2351.59
595.267	2324.05
595.691	2281.06
596.114	2249.63
596.537	2278.3
596.96	2227.85
597.384	2258.18
597.807	2167.98
598.23	2137.61
598.653	2145.07
599.076	2093.97
599.499	2103.92
599.921	2082.65
600.344	2072.15
600.767	2052.52
601.189	2040.64
601.612	2020.73
602.034	1996.39
602.457	1997.22
602.879	2127.39
603.302	1984.78
603.724	1945.48
604.146	1947.15
604.568	1909.5
604.991	1899.53
605.413	1912.82
605.835	1929.98
606.257	1896.48
606.678	1903.68
607.1	1896.76
607.522	1846.06
607.944	1883.46
608.365	1823.06
608.787	1797
609.209	1803.65
609.63	1739.58
610.051	1760.94
610.473	1698.77
610.894	1715.43
611.315	1699.05
611.737	1700.16
612.158	1639.34
612.579	1629.33
613	1727.92
613.421	1588.75
613.842	1640.45
614.263	1557.05
614.683	1506.41
615.104	1542.59
615.525	1538.41
615.945	1485.54
616.366	1400.58
616.787	1451.84
617.207	1413.68
617.627	1395.01
618.048	1352.91
618.468	1372.71
618.888	1328.36
619.308	1331.99
619.728	1295.72
620.148	1296
620.568	1298.23
620.988	1306.04
621.408	1242.68
621.828	1253.01
622.248	1223.68
622.668	1255.52
623.087	1210.27
623.507	1164.16
623.926	1195.74
624.346	1189.6
624.765	1166.4
625.185	1144.59
625.604	1129.21
626.023	1118.86
626.442	1100.68
626.861	1125.85
627.28	1078.01
627.699	1057.3
628.118	1042.74
628.537	1047.78
628.956	1045.26
629.375	1042.46
629.794	1012.49
630.212	1019.21
630.631	1008.01
631.049	985.32
631.468	1001.29
631.886	934.3
632.305	983.92
632.723	941.31
633.141	943.27
633.559	962.9
633.978	925.33
634.396	963.74
634.814	898.4
635.232	909.06
635.65	887.46
636.067	899.52
636.485	890.55
636.903	873.43
637.321	867.82
637.738	912.43
638.156	833.01
638.573	867.82
638.991	877.08
639.408	893.07
639.825	798.75
640.243	836.94
640.66	813.63
641.077	797.62
641.494	814.48
641.911	822.62
642.328	793.97
642.745	765.59
643.162	793.13
643.579	759.97
643.995	767.56
644.412	838.91
644.829	735.52
645.245	745.08
645.662	746.76
646.078	724.27
646.495	740.3
646.911	718.09
647.327	747.33
647.743	684.34
648.159	715.84
648.576	686.02
648.992	703.46
649.408	704.31
649.824	683.49
650.239	684.34
650.655	720.34
651.071	696.15
651.487	713.87
651.902	695.03
652.318	657.6
652.733	677.86
653.149	668.3
653.564	676.18
653.979	673.93
654.395	642.69
654.81	634.24
655.225	614.53
655.64	650.29
656.055	671.96
656.47	633.12
656.885	605.24
657.3	585.24
657.715	666.89
658.13	607.78
658.544	644.66
658.959	584.4
659.374	595.95
659.788	608.06
660.202	604.11
660.617	653.66
661.031	589.19
661.445	608.06
661.86	599.89
662.274	643.53
662.688	619.04
663.102	578.48
663.516	618.19
663.93	573.13
664.344	593.41
664.758	595.67
665.171	579.05
665.585	570.03
665.999	594.82
666.412	554.81
666.826	603.83
667.239	554.53
667.653	531.42
668.066	572
668.479	572.28
668.892	506.33
669.306	555.94
669.719	537.62
670.132	567.49
670.545	552.56
670.958	527.47
671.37	538.19
671.783	497.02
672.196	555.38
672.609	493.92
673.021	526.91
673.434	535.93
673.846	509.71
674.259	546.64
674.671	524.65
675.084	516.2
675.496	501.25
675.908	527.76
676.32	533.11
676.732	527.47
677.144	537.06
677.556	507.74
677.968	491.38
678.38	529.16
678.792	507.17
679.204	516.2
679.615	529.45
680.027	501.25
680.439	522.12
680.85	532.55
681.262	562.99
681.673	491.38
682.084	483.76
682.496	490.82
682.907	533.39
683.318	497.87
683.729	500.69
684.14	502.66
684.551	484.05
684.962	500.97
685.373	485.46
685.784	483.48
686.194	503.22
686.605	475.3
687.016	524.37
687.426	473.04
687.837	487.71
688.247	488.28
688.657	467.12
689.068	472.2
689.478	445.11
689.888	488
690.298	458.09
690.708	480.1
691.118	449.06
691.528	427.89
691.938	473.89
692.348	453.86
692.758	438.9
693.168	485.17
693.577	470.51
693.987	485.74
694.396	460.35
694.806	438.05
695.215	452.73
695.625	446.52
696.034	449.62
696.443	451.32
696.852	454.42
697.262	461.19
697.671	458.65
698.08	462.61
698.489	425.92
698.897	422.81
699.306	464.58
699.715	456.68
700.124	434.1
700.532	443.42
700.941	412.08
701.35	447.93
701.758	461.48
702.166	431.84
702.575	443.98
702.983	410.39
703.391	430.71
703.799	401.63
704.208	420.83
704.616	424.22
705.024	462.04
705.432	445.67
705.839	414.91
706.247	456.4
706.655	487.15
707.063	428.74
707.47	429.3
707.878	382.99
708.285	424.22
708.693	428.17
709.1	416.6
709.508	425.92
709.915	418.86
710.322	424.79
710.729	513.09
711.136	429.02
711.543	435.23
711.95	402.2
712.357	466.27
712.764	409.82
713.171	425.35
713.578	408.98
713.984	429.02
714.391	409.26
714.797	409.54
715.204	391.75
715.61	454.14
716.017	411.23
716.423	433.54
716.829	406.72
717.236	418.29
717.642	397.96
718.048	450.75
718.454	417.16
718.86	427.04
719.266	480.66
719.671	407.85
720.077	426.2
720.483	417.45
720.889	433.82
721.294	394.01
721.7	417.16
722.105	426.2
722.511	414.62
722.916	429.59
723.321	415.75
723.726	458.37
724.132	410.39
724.537	393.73
724.942	419.42
725.347	413.78
725.752	396.27
726.156	399.37
726.561	407.56
726.966	410.39
727.371	429.02
727.775	412.36
728.18	397.4
728.584	395.99
728.989	410.11
729.393	484.89
729.798	401.35
730.202	425.07
730.606	410.11
731.01	400.5
731.414	409.54
731.818	379.89
732.222	412.36
732.626	423.09
733.03	394.01
733.434	378.76
733.837	399.66
734.241	405.87
734.645	403.89
735.048	390.9
735.452	403.61
735.855	395.7
736.258	398.81
736.662	436.08
737.065	444.26
737.468	399.37
737.871	399.09
738.274	418.86
738.677	393.16
739.08	397.68
739.483	399.37
739.886	417.45
740.289	423.66
740.691	401.07
741.094	392.31
741.497	389.49
741.899	439.75
742.302	391.47
742.704	378.47
743.106	398.53
743.508	373.39
743.911	382.99
744.313	390.06
744.715	402.2
745.117	396.83
745.519	387.51
745.921	394.01
746.323	402.48
746.724	361.52
747.126	381.58
747.528	441.44
747.929	383.56
748.331	415.75
748.732	392.88
749.134	377.06
749.535	361.24
749.936	427.61
750.338	383.56
750.739	416.88
751.14	399.94
751.541	399.94
751.942	395.14
752.343	364.63
752.744	415.47
753.144	377.63
753.545	405.87
753.946	407.28
754.346	388.08
754.747	411.8
755.148	491.66
755.548	374.8
755.948	388.93
756.349	394.01
756.749	361.81
757.149	404.46
757.549	397.4
757.949	372.26
758.349	362.65
758.749	384.69
759.149	370
759.549	378.47
759.949	387.23
760.348	432.97
760.748	359.26
761.148	412.36
761.547	406.15
761.947	379.32
762.346	360.11
762.745	410.11
763.145	380.17
763.544	379.04
763.943	408.41
764.342	380.73
764.741	378.47
765.14	372.54
765.539	371.41
765.938	453.01
766.336	372.54
766.735	380.73
767.134	392.88
767.532	359.26
767.931	400.22
768.329	431.28
768.728	388.08
769.126	395.42
769.525	440.88
769.923	404.46
770.321	366.61
770.719	418.58
771.117	377.91
771.515	414.91
771.913	393.73
772.311	381.3
772.709	376.5
773.106	409.82
773.504	381.02
773.902	371.69
774.299	411.23
774.697	482.07
775.094	389.49
775.491	374.52
775.889	376.78
776.286	367.74
776.683	404.46
777.08	368.02
777.477	377.63
777.874	398.81
778.271	386.1
778.668	394.01
779.065	373.67
779.462	382.43
779.858	384.41
780.255	412.93
780.652	393.44
781.048	392.31
781.444	374.24
781.841	360.39
782.237	377.34
782.633	359.26
783.03	366.61
783.426	364.07
783.822	357
784.218	407
784.614	353.05
785.01	359.26
785.405	389.49
785.801	341.18
786.197	384.69
786.593	347.68
786.988	396.27
787.384	412.08
787.779	365.48
788.174	407.28
788.57	361.81
788.965	380.73
789.36	360.96
789.755	373.67
790.15	388.08
790.545	360.39
790.94	355.87
791.335	377.91
791.73	366.33
792.125	442.85
792.52	393.44
792.914	418.01
793.309	373.39
793.703	400.79
794.098	369.15
794.492	379.89
794.887	366.33
795.281	440.88
795.675	424.79
796.069	441.16
796.463	372.26
796.857	367.17
797.251	345.98
797.645	355.03
798.039	357.85
798.433	358.42
798.826	370.28
799.22	371.98
799.614	395.99
800.007	381.58
800.401	404.46
800.794	381.02
801.187	363.22
801.581	417.45
801.974	378.19
802.367	388.36
802.76	372.82
803.153	364.91
803.546	384.41
803.939	379.32
804.332	370.56
804.725	373.39
805.117	370
805.51	402.48
805.903	357.57
806.295	384.69
806.688	381.3
807.08	375.37
807.472	383.28
807.865	383.28
808.257	371.13
808.649	379.32
809.041	373.95
809.433	398.81
809.825	376.21
810.217	375.37
810.609	373.67
811.001	414.06
811.392	366.33
811.784	396.55
812.175	388.93
812.567	397.12
812.958	398.53
813.35	399.37
813.741	360.39
814.132	370
814.524	363.5
814.915	395.14
815.306	354.74
815.697	400.5
816.088	404.46
816.479	394.86
816.87	401.63
817.26	390.06
817.651	433.82
818.042	404.74
818.432	380.73
818.823	384.12
819.213	408.98
819.604	365.2
819.994	375.37
820.384	395.42
820.775	363.78
821.165	385.82
821.555	353.61
821.945	364.91
822.335	358.98
822.725	408.41
823.114	360.39
823.504	366.61
823.894	361.81
824.284	378.47
824.673	397.12
825.063	373.67
825.452	391.75
825.842	379.6
826.231	438.62
826.62	363.78
827.009	403.89
827.399	410.95
827.788	380.73
828.177	372.26
828.566	413.49
828.954	446.52
829.343	394.86
829.732	353.61
830.121	431.28
830.509	431.28
830.898	385.25
831.286	361.81
831.675	396.83
832.063	401.07
832.452	371.13
832.84	375.37
833.228	421.12
833.616	384.97
834.004	396.55
834.392	362.37
834.78	407.56
835.168	383.56
835.556	389.49
835.944	408.13
836.331	392.88
836.719	377.06
837.107	395.99
837.494	377.34
837.881	369.15
838.269	381.02
838.656	369.15
839.043	359.83
839.431	470.79
839.818	380.45
840.205	360.68
840.592	398.53
840.979	383.56
841.366	354.46
841.752	375.08
842.139	366.61
842.526	386.95
842.912	375.37
843.299	389.49
843.685	390.06
844.072	388.93
844.458	397.4
844.844	403.89
845.231	362.94
845.617	375.65
846.003	381.86
846.389	369.15
846.775	360.39
847.161	366.61
847.547	354.74
847.933	332.98
848.318	373.67
848.704	382.99
849.09	368.02
849.475	357
849.861	373.11
850.246	399.94
850.631	404.18
851.017	398.25
851.402	374.52
851.787	353.05
852.172	398.25
852.557	398.53
852.942	358.42
853.327	361.52
853.712	366.89
854.097	401.63
854.481	356.16
854.866	379.89
855.25	371.41
855.635	360.68
856.019	363.78
856.404	353.05
856.788	345.13
857.172	351.07
857.557	355.03
857.941	345.13
858.325	342.31
858.709	359.83
859.093	361.52
859.477	355.31
859.86	380.45
860.244	356.44
860.628	448.21
861.012	386.95
861.395	372.82
861.779	354.46
862.162	369.15
862.545	370
862.929	347.4
863.312	375.37
863.695	372.82
864.078	370.28
864.461	372.26
864.844	379.04
865.227	423.09
865.61	361.52
865.993	364.35
866.376	361.81
866.758	377.91
867.141	396.55
867.523	382.71
867.906	373.67
868.288	362.65
868.671	353.9
869.053	365.48
869.435	360.39
869.817	381.02
870.199	354.46
870.581	371.69
870.963	368.02
871.345	389.77
871.727	403.61
872.109	358.98
872.491	363.22
872.872	360.39
873.254	354.46
873.635	382.43
874.017	384.97
874.398	369.72
874.779	401.63
875.161	373.67
875.542	380.45
875.923	376.5
876.304	362.09
876.685	351.07
877.066	353.9
877.447	370.56
877.828	374.8
878.208	417.16
878.589	381.86
878.97	422.25
879.35	362.37
879.731	381.86
880.111	355.87
880.491	368.59
880.872	408.69
881.252	344.57
881.632	354.46
882.012	356.16
882.392	381.86
882.772	400.79
883.152	383.84
883.532	383.28
883.912	382.15
884.291	359.26
884.671	381.3
885.051	391.75
885.43	372.54
885.81	342.59
886.189	383.84
886.568	363.5
886.948	387.23
887.327	391.75
887.706	370.85
888.085	386.67
888.464	363.22
888.843	456.68
889.222	385.25
889.601	382.15
889.979	350.5
890.358	381.02
890.737	368.02
891.115	356.16
891.494	380.45
891.872	349.66
892.25	340.33
892.629	429.87
893.007	412.36
893.385	400.22
893.763	367.74
894.141	343.44
894.519	395.14
894.897	369.15
895.275	358.42
895.653	360.11
896.03	389.49
896.408	377.06
896.786	380.17
897.163	374.8
897.541	368.87
897.918	397.68
898.295	335.24
898.673	362.09
899.05	364.63
899.427	503.51
899.804	371.98
900.181	336.66
900.558	379.32
900.935	379.6
901.312	364.07
901.688	363.5
902.065	385.54
902.442	399.66
902.818	345.98
903.195	337.22
903.571	388.08
903.947	352.2
904.324	371.41
904.7	349.37
905.076	426.48
905.452	352.76
905.828	387.51
906.204	364.63
906.58	356.16
906.956	380.45
907.331	434.95
907.707	385.54
908.083	382.99
908.458	374.52
908.834	345.42
909.209	368.87
909.585	370.56
909.96	348.24
910.335	365.48
910.71	335.24
911.086	380.45
911.461	387.51
911.836	357
912.21	371.41
912.585	357
912.96	394.86
913.335	366.61
913.709	359.55
914.084	372.82
914.459	353.05
914.833	332.42
915.207	355.87
915.582	367.74
915.956	362.37
916.33	367.74
916.704	379.32
917.078	336.37
917.452	399.09
917.826	376.5
918.2	355.59
918.574	372.54
918.948	355.31
919.321	373.67
919.695	351.63
920.068	358.13
920.442	386.67
920.815	365.2
921.189	378.19
921.562	453.58
921.935	384.69
922.308	335.81
922.681	366.33
923.054	375.37
923.427	397.96
923.8	389.49
924.173	351.07
924.546	384.41
924.919	403.89
925.291	358.98
925.664	349.66
926.036	347.68
926.409	363.5
926.781	362.94
927.153	347.4
927.526	379.89
927.898	361.81
928.27	351.63
928.642	344.85
929.014	372.54
929.386	351.92
929.758	364.91
930.129	348.53
930.501	399.66
930.873	344
931.244	368.87
931.616	340.33
931.987	351.07
932.359	384.97
932.73	363.5
933.101	364.35
933.472	369.15
933.843	385.25
934.214	406.72
934.585	346.55
934.956	365.48
935.327	449.06
935.698	364.07
936.069	368.59
936.439	399.94
936.81	383.28
937.18	393.44
937.551	352.48
937.921	414.06
938.292	382.43
938.662	340.05
939.032	361.24
939.402	352.76
939.772	368.59
940.142	357
940.512	346.83
940.882	370.85
941.252	384.12
941.621	340.33
941.991	359.26
942.361	387.23
942.73	367.46
943.1	322.24
943.469	368.02
943.838	406.43
944.208	393.73
944.577	362.94
944.946	361.24
945.315	316.02
945.684	321.68
946.053	362.65
946.422	377.91
946.791	355.03
947.159	360.39
947.528	355.87
947.897	370
948.265	354.74
948.634	397.12
949.002	337.5
949.371	365.2
949.739	350.22
950.107	359.83
950.475	332.13
950.843	352.2
951.211	392.6
951.579	377.63
951.947	356.16
952.315	367.74
952.683	342.03
953.05	368.59
953.418	399.37
953.785	362.37
954.153	355.31
954.52	322.52
954.888	367.46
955.255	347.11
955.622	392.31
955.989	353.61
956.356	400.79
956.723	331.85
957.09	347.96
957.457	367.74
957.824	371.98
958.191	342.31
958.557	379.6
958.924	346.27
959.291	364.07
959.657	337.22
960.023	453.29
960.39	384.97
960.756	339.2
961.122	377.06
961.488	352.2
961.855	362.37
962.221	346.83
962.586	373.11
962.952	404.74
963.318	380.17
963.684	433.25
964.05	421.96
964.415	361.81
964.781	373.11
965.146	380.45
965.512	419.14
965.877	385.54
966.242	395.14
966.608	347.68
966.973	355.31
967.338	344.57
967.703	388.93
968.068	360.39
968.433	407
968.797	420.27
969.162	362.94
969.527	377.06
969.891	340.33
970.256	341.74
970.62	351.07
970.985	353.33
971.349	375.37
971.714	397.12
972.078	386.95
972.442	355.87
972.806	354.18
973.17	367.74
973.534	349.09
973.898	357.29
974.262	337.5
974.625	371.69
974.989	360.96
975.353	384.12
975.716	353.9
976.08	380.45
976.443	360.39
976.806	397.12
977.17	362.65
977.533	373.11
977.896	346.27
978.259	381.86
978.622	495.05
978.985	373.11
979.348	349.66
979.711	358.7
980.073	377.34
980.436	352.48
980.799	368.02
981.161	398.53
981.524	343.72
981.886	364.35
982.248	358.13
982.611	371.98
982.973	331
983.335	337.79
983.697	333.26
984.059	354.18
984.421	332.98
984.783	353.61
985.145	346.27
985.506	358.7
985.868	352.2
986.23	356.72
986.591	382.71
986.953	373.95
987.314	356.16
987.675	323.09
988.037	4767.73
988.398	490.53
988.759	351.35
989.12	360.39
989.481	367.17
989.842	379.04
990.203	368.87
990.564	339.2
990.924	351.07
991.285	3916.84
991.646	448.5
992.006	372.54
992.367	369.43
992.727	374.24
993.087	371.98
993.448	328.74
993.808	348.53
994.168	350.22
994.528	342.31
994.888	337.22
995.248	399.09
995.608	351.92
995.967	365.76
996.327	358.42
996.687	333.55
997.046	348.24
997.406	331
997.765	369.15
998.125	368.02
998.484	329.87
998.843	395.99
999.202	355.87
999.561	357
999.92	335.24
1000.279	355.87
1000.638	349.66
1000.997	365.2
1001.356	344.85
1001.715	341.74
1002.073	362.09
1002.432	390.06
1002.79	347.68
1003.149	359.26
1003.507	382.15
1003.865	350.79
1004.224	360.11
1004.582	345.13
1004.94	375.37
1005.298	370.56
1005.656	362.37
1006.014	348.24
1006.371	353.33
1006.729	313.48
1007.087	388.64
1007.445	386.67
1007.802	372.26
1008.16	342.03
1008.517	371.41
1008.874	366.89
1009.232	361.52
1009.589	361.81
1009.946	359.83
1010.303	353.33
1010.66	337.22
1011.017	363.5
1011.374	413.21
1011.731	380.17
1012.087	380.17
1012.444	354.74
1012.801	350.22
1013.157	344.57
1013.513	336.09
1013.87	349.37
1014.226	348.53
1014.582	331.57
1014.939	346.27
1015.295	358.42
1015.651	331.29
1016.007	341.74
1016.363	373.67
1016.719	357.57
1017.074	344.57
1017.43	350.5
1017.786	382.99
1018.141	365.48
1018.497	332.13
1018.852	363.22
1019.208	364.63
1019.563	340.9
1019.918	322.52
1020.273	374.52
1020.628	336.94
1020.983	390.62
1021.338	330.16
1021.693	388.64
1022.048	364.63
1022.403	349.37
1022.757	375.65
1023.112	359.26
1023.467	351.92
1023.821	349.94
1024.175	349.37
1024.53	340.05
1024.884	332.98
1025.238	339.77
1025.592	364.63
1025.946	321.11
1026.3	334.96
1026.654	330.72
1027.008	331
1027.362	378.47
1027.716	378.19
1028.069	359.26
1028.423	366.89
1028.777	336.09
1029.13	345.7
1029.483	368.87
1029.837	369.72
1030.19	374.24
1030.543	334.11
1030.896	375.08
1031.249	371.13
1031.602	351.92
1031.955	349.66
1032.308	392.88
1032.661	394.01
1033.013	357.29
1033.366	345.7
1033.719	376.5
1034.071	393.16
1034.424	350.5
1034.776	337.22
1035.128	359.55
1035.48	333.55
1035.833	408.13
1036.185	336.09
1036.537	336.09
1036.889	336.09
