Data from SCSF78-405_irradiation_FLMS019251_02-58-11-151.txt Node
Date: Fri Feb 22 02:58:11 PST 2019
User: mu3e
Spectrometer: FLMS01925
Trigger mode: 0
Integration Time (sec): 3.659600E-1
Scans to average: 10
Electric dark correction enabled: true
Nonlinearity correction enabled: true
Boxcar width: 0
XAxis mode: Wavelengths
Number of Pixels in Spectrum: 2048
>>>>>Begin Spectral Data<<<<<
187.103	-105
187.574	-105
188.045	-105
188.516	-179.53
188.987	-111.54
189.458	-125.76
189.929	-135.43
190.4	-89.65
190.871	-98.18
191.342	-92.78
191.813	-91.35
192.284	-36.23
192.754	-45.6
193.225	-4.99
193.696	15.45
194.166	37.59
194.637	89.22
195.107	132.31
195.578	134.86
196.048	155.83
196.518	153.57
196.989	187.56
197.459	226.91
197.929	210.21
198.399	351.92
198.869	293.97
199.339	330.72
199.809	334.4
200.279	345.13
200.749	344.57
201.219	336.09
201.689	371.98
202.159	398.53
202.628	387.23
203.098	408.69
203.568	403.61
204.037	381.58
204.507	392.03
204.976	400.22
205.445	401.92
205.915	390.34
206.384	398.25
206.853	416.32
207.323	420.55
207.792	397.68
208.261	405.3
208.73	373.39
209.199	403.33
209.668	416.6
210.137	432.41
210.606	396.55
211.075	424.22
211.543	405.87
212.012	405.02
212.481	377.34
212.95	399.94
213.418	458.94
213.887	396.83
214.355	388.93
214.824	376.21
215.292	377.63
215.76	342.59
216.229	350.5
216.697	372.82
217.165	383.56
217.633	357.57
218.101	394.57
218.569	485.74
219.037	348.53
219.505	435.8
219.973	378.19
220.441	369.43
220.909	330.72
221.377	389.21
221.844	374.8
222.312	368.59
222.78	357.85
223.247	371.13
223.715	340.61
224.182	395.42
224.65	389.77
225.117	358.13
225.584	384.41
226.052	371.98
226.519	351.92
226.986	383.56
227.453	375.65
227.92	377.34
228.387	384.69
228.854	355.03
229.321	365.2
229.788	371.41
230.255	368.3
230.722	381.02
231.189	378.76
231.655	376.21
232.122	379.6
232.589	383.28
233.055	363.22
233.522	392.03
233.988	376.78
234.454	366.04
234.921	392.31
235.387	414.91
235.853	378.47
236.32	386.38
236.786	387.8
237.252	378.47
237.718	403.89
238.184	382.15
238.65	410.39
239.116	403.89
239.582	391.47
240.047	377.34
240.513	423.66
240.979	371.41
241.445	367.46
241.91	375.93
242.376	359.83
242.841	386.1
243.307	379.32
243.772	362.94
244.238	371.13
244.703	394.01
245.168	373.95
245.633	357.57
246.099	404.18
246.564	364.35
247.029	394.57
247.494	364.07
247.959	363.5
248.424	377.06
248.889	388.64
249.353	399.66
249.818	382.99
250.283	387.51
250.748	378.76
251.212	400.5
251.677	363.22
252.141	378.47
252.606	400.5
253.07	377.06
253.535	350.5
253.999	377.91
254.463	379.6
254.927	361.81
255.392	401.63
255.856	390.62
256.32	374.8
256.784	375.93
257.248	381.86
257.712	391.75
258.176	418.58
258.64	384.41
259.103	371.13
259.567	378.19
260.031	420.27
260.495	395.7
260.958	413.78
261.422	377.63
261.885	353.9
262.349	399.94
262.812	373.11
263.275	379.6
263.739	395.42
264.202	416.03
264.665	408.98
265.128	407
265.591	374.8
266.054	374.52
266.517	424.5
266.98	384.12
267.443	407.28
267.906	377.06
268.369	401.63
268.832	423.09
269.294	381.3
269.757	393.73
270.22	404.46
270.682	392.03
271.145	416.6
271.607	352.48
272.07	473.04
272.532	382.99
272.994	408.69
273.456	406.15
273.919	462.89
274.381	401.92
274.843	419.99
275.305	396.55
275.767	412.08
276.229	386.1
276.691	416.03
277.153	378.47
277.614	405.87
278.076	391.18
278.538	398.53
279	384.97
279.461	414.06
279.923	467.4
280.384	393.44
280.846	386.1
281.307	367.17
281.769	371.41
282.23	414.06
282.691	411.8
283.152	395.99
283.613	358.7
284.075	402.76
284.536	406.43
284.997	407.28
285.458	410.11
285.918	378.19
286.379	420.55
286.84	436.08
287.301	375.65
287.762	405.3
288.222	427.33
288.683	405.02
289.143	407
289.604	406.15
290.064	378.19
290.525	381.02
290.985	459.22
291.445	431.56
291.906	403.05
292.366	389.21
292.826	399.66
293.286	409.54
293.746	415.47
294.206	409.82
294.666	382.99
295.126	407.56
295.586	410.39
296.046	387.8
296.506	397.12
296.965	437.49
297.425	379.04
297.884	423.94
298.344	425.35
298.804	404.18
299.263	392.88
299.722	401.63
300.182	415.19
300.641	395.14
301.1	404.18
301.559	418.01
302.019	388.36
302.478	407.56
302.937	411.23
303.396	396.55
303.855	485.17
304.314	386.67
304.772	519.86
305.231	412.65
305.69	404.18
306.149	413.49
306.607	419.7
307.066	404.18
307.524	413.49
307.983	412.36
308.441	398.25
308.9	488.56
309.358	430.15
309.816	481.51
310.275	416.32
310.733	388.93
311.191	423.09
311.649	410.95
312.107	418.29
312.565	412.08
313.023	402.48
313.481	397.12
313.939	389.77
314.397	415.75
314.854	402.2
315.312	416.32
315.77	421.68
316.227	387.51
316.685	410.67
317.142	412.08
317.6	398.53
318.057	450.47
318.514	392.6
318.972	403.05
319.429	440.59
319.886	431
320.343	412.65
320.8	400.79
321.257	405.59
321.714	451.88
322.171	446.52
322.628	416.32
323.085	411.52
323.542	393.73
323.998	409.54
324.455	399.37
324.912	400.79
325.368	402.48
325.825	431
326.281	392.88
326.738	447.08
327.194	407
327.65	428.74
328.107	398.25
328.563	407.28
329.019	428.46
329.475	438.34
329.931	412.65
330.387	423.37
330.843	382.43
331.299	448.21
331.755	389.21
332.211	412.08
332.666	391.75
333.122	371.69
333.578	402.76
334.033	398.53
334.489	445.11
334.944	429.3
335.4	482.35
335.855	445.96
336.31	405.3
336.766	367.46
337.221	411.8
337.676	406.72
338.131	420.27
338.586	451.88
339.041	385.82
339.496	458.37
339.951	395.42
340.406	426.76
340.861	410.95
341.316	396.27
341.771	402.76
342.225	398.25
342.68	425.63
343.134	422.25
343.589	394.86
344.043	425.63
344.498	422.25
344.952	447.08
345.406	646.91
345.861	412.93
346.315	431.56
346.769	420.27
347.223	409.54
347.677	408.98
348.131	417.45
348.585	394.57
349.039	407
349.493	421.96
349.947	429.59
350.401	405.59
350.854	424.5
351.308	489.69
351.762	420.27
352.215	437.21
352.669	418.29
353.122	392.03
353.575	419.99
354.029	438.62
354.482	410.39
354.935	418.01
355.388	436.08
355.842	434.38
356.295	445.11
356.748	399.66
357.201	441.44
357.654	415.47
358.106	427.33
358.559	408.98
359.012	410.11
359.465	431.28
359.917	428.46
360.37	382.99
360.823	426.48
361.275	417.45
361.728	425.07
362.18	416.88
362.632	473.89
363.085	414.34
363.537	423.09
363.989	409.82
364.441	448.5
364.893	421.96
365.345	408.41
365.797	418.01
366.249	446.52
366.701	402.2
367.153	410.11
367.605	393.16
368.057	421.12
368.508	434.95
368.96	442.29
369.411	418.86
369.863	436.08
370.314	452.73
370.766	441.72
371.217	432.69
371.669	423.66
372.12	479.81
372.571	450.47
373.022	434.1
373.473	439.18
373.924	419.14
374.375	430.43
374.826	414.91
375.277	427.61
375.728	431.28
376.179	425.92
376.63	443.7
377.08	432.41
377.531	411.23
377.981	385.25
378.432	449.91
378.883	442.57
379.333	451.6
379.783	429.02
380.234	413.49
380.684	420.27
381.134	446.52
381.584	425.92
382.034	470.51
382.485	446.8
382.935	405.02
383.385	444.83
383.834	423.09
384.284	431
384.734	424.5
385.184	427.33
385.634	400.5
386.083	423.09
386.533	440.03
386.982	447.65
387.432	426.76
387.881	428.17
388.331	419.42
388.78	437.77
389.229	428.74
389.679	426.2
390.128	441.72
390.577	452.45
391.026	437.49
391.475	434.1
391.924	395.14
392.373	435.51
392.822	413.78
393.27	428.74
393.719	412.08
394.168	432.97
394.617	442
395.065	410.67
395.514	472.48
395.962	472.2
396.411	436.64
396.859	412.36
397.307	480.66
397.756	464.58
398.204	473.04
398.652	497.58
399.1	448.21
399.548	436.92
399.996	527.76
400.444	476.99
400.892	439.75
401.34	458.09
401.788	466.56
402.236	446.24
402.683	438.62
403.131	485.74
403.579	469.38
404.026	451.04
404.474	459.78
404.921	447.93
405.369	470.79
405.816	507.74
406.263	449.34
406.71	494.2
407.158	459.5
407.605	480.1
408.052	485.74
408.499	531.7
408.946	531.14
409.393	537.34
409.84	531.42
410.286	541.85
410.733	570.03
411.18	564.68
411.626	637.34
412.073	664.92
412.52	700.37
412.966	809.7
413.413	920.84
413.859	1096.76
414.305	1321.95
414.752	1672.67
415.198	2018.52
415.644	2395.36
416.09	2985.83
416.536	3592.58
416.982	4332.61
417.428	5261.75
417.874	6164.32
418.32	7106.7
418.766	8340.01
419.211	9583.28
419.657	10762.14
420.103	12281.05
420.548	13388.02
420.994	15184.72
421.439	16586.16
421.885	17954.37
422.33	19875.85
422.776	21218.69
423.221	22616.39
423.666	24299.85
424.111	25961.06
424.556	27026.53
425.001	28877.75
425.446	30435.27
425.891	31905.09
426.336	32913.46
426.781	34230.84
427.226	36452.93
427.671	36893.52
428.115	37579.64
428.56	39262.83
429.005	40812.99
429.449	40841.65
429.894	42398.44
430.338	43241.11
430.782	42864.46
431.227	44258.67
431.671	44420.56
432.115	45662.47
432.559	46448.06
433.003	46019.84
433.447	46745.51
433.891	46707.38
434.335	47095.36
434.779	47585.31
435.223	47641.89
435.667	47555.11
436.111	47969.88
436.554	47745.14
436.998	47168.81
437.442	47154.27
437.885	49145.68
438.328	47674.16
438.772	47909.55
439.215	48361.18
439.659	47880.03
440.102	48348.81
440.545	47508.29
440.988	47409.6
441.431	48224.15
441.874	47958.58
442.317	47965.77
442.76	47460.47
443.203	46766.88
443.646	47690.81
444.089	47281.1
444.531	47784.87
444.974	46474.2
445.417	47642.4
445.859	46701.53
446.302	47956.53
446.744	47183.86
447.186	48474.9
447.629	47558.7
448.071	47455.36
448.513	47626.02
448.956	49093.74
449.398	48246.04
449.84	47123.66
450.282	47837.7
450.724	48408.87
451.166	48069.82
451.607	48094.24
452.049	48225.44
452.491	49532.84
452.933	49002.39
453.374	49822.19
453.816	50292.79
454.257	50072.11
454.699	50981.45
455.14	50734.27
455.582	50683.67
456.023	50657.19
456.464	50922.96
456.905	51457.95
457.347	51603.62
457.788	50490.35
458.229	50678.64
458.67	51993.56
459.111	49983.12
459.552	50155.41
459.992	49981.54
460.433	49953.21
460.874	48950
461.315	50280.94
461.755	49198.18
462.196	48807.26
462.636	48147.73
463.077	47912.88
463.517	48057.74
463.957	48344.94
464.398	47900.82
464.838	48265.6
465.278	47023.99
465.718	47312.51
466.158	46351.92
466.598	46967.94
467.038	46365.36
467.478	47015.33
467.918	47262.46
468.358	46488.41
468.798	46199.84
469.237	46203.39
469.677	46076.78
470.117	47138.96
470.556	44550.21
470.996	45059.93
471.435	45481.81
471.874	46113.23
472.314	45977.33
472.753	44922.62
473.192	45243.92
473.631	44837.93
474.07	45018.67
474.509	45199.1
474.948	45595.33
475.387	44861.05
475.826	43807.02
476.265	45886.3
476.704	45396.59
477.143	45925.74
477.581	45590.53
478.02	46206.43
478.458	44677.2
478.897	45577.91
479.335	46944.77
479.774	46296.65
480.212	46645.36
480.65	46585.66
481.089	46255.33
481.527	45868.85
481.965	45458.36
482.403	47660.08
482.841	47533.62
483.279	47377.4
483.717	47711.05
484.155	47127.74
484.592	47589.66
485.03	47941.63
485.468	46856.68
485.905	47115.5
486.343	47571.24
486.781	46960.05
487.218	46207.44
487.655	46296.65
488.093	45454.07
488.53	46988.07
488.967	46121.33
489.405	46024.14
489.842	44892.21
490.279	45109.99
490.716	44656.36
491.153	45289.25
491.59	44599.14
492.027	43915.77
492.463	43374.04
492.9	42525.68
493.337	42535.12
493.773	42569.93
494.21	41575.13
494.647	41463.94
495.083	40761.86
495.519	40247.48
495.956	40354.78
496.392	39658.54
496.828	39354.1
497.265	38704.16
497.701	38859.18
498.137	38544.54
498.573	37574.5
499.009	38173.94
499.445	37271.74
499.881	36580.84
500.316	37004.39
500.752	35858.44
501.188	35658.35
501.624	35679.6
502.059	34330.13
502.495	34166.2
502.93	34122.78
503.366	34709.56
503.801	33635.22
504.236	33236.53
504.672	32700.38
505.107	32520.21
505.542	31853.65
505.977	31745.39
506.412	31317.95
506.847	31678.58
507.282	31048.48
507.717	30703.6
508.152	30665.8
508.587	30291.08
509.021	29578.42
509.456	29350.37
509.891	29370.4
510.325	29362.34
510.76	28936.87
511.194	28700.85
511.628	28733.1
512.063	27909.44
512.497	28040.3
512.931	27398.49
513.366	27254.04
513.8	27311.58
514.234	26490.85
514.668	26581.8
515.102	26719.79
515.536	25819.94
515.969	26040.32
516.403	25518.2
516.837	24976.14
517.271	25241.83
517.704	24687.68
518.138	24497.74
518.571	24430.8
519.005	23947.92
519.438	23763.11
519.871	23611.51
520.305	23243.04
520.738	22979.45
521.171	22534.6
521.604	22665.31
522.037	22431.29
522.47	22097.23
522.903	21702.5
523.336	21541.04
523.769	21429.82
524.202	20801.82
524.634	20845.49
525.067	20532.04
525.5	20320.71
525.932	20239.73
526.365	19775.63
526.797	19637.07
527.23	19678.12
527.662	18943.06
528.094	18817.18
528.527	18661.83
528.959	18459.76
529.391	18223.38
529.823	17590.4
530.255	17616.91
530.687	17214.07
531.119	16980.92
531.551	17002.21
531.982	16555.56
532.414	16286.1
532.846	16037.27
533.277	15802.1
533.709	15451.54
534.14	15314.63
534.572	15104.13
535.003	15034.1
535.435	14675.64
535.866	14502.07
536.297	14130.35
536.728	14197.3
537.159	14009.55
537.59	13735.9
538.022	13579.99
538.452	13507.07
538.883	13157.88
539.314	12980.32
539.745	12704.61
540.176	12574.26
540.606	12220.23
541.037	12201.65
541.468	12070.78
541.898	11932.44
542.328	11841.7
542.759	11639.7
543.189	11470.71
543.619	11372.37
544.05	11102.92
544.48	10865.89
544.91	10794.17
545.34	10639.36
545.77	10494.69
546.2	10374.3
546.63	10132.01
547.06	10139.21
547.489	10019.63
547.919	9696.46
548.349	9748
548.778	9741.82
549.208	9513.37
549.637	9333.44
550.067	9205.28
550.496	9215.36
550.926	9046.48
551.355	8807.47
551.784	8880.27
552.213	8641.26
552.642	8462.4
553.071	8478.25
553.5	8410.18
553.929	8056.89
554.358	8068.09
554.787	8011.3
555.216	7980.55
555.645	7868.17
556.073	7712.89
556.502	7604.74
556.93	7426.9
557.359	7402.82
557.787	7406.49
558.216	7300.44
558.644	7151.3
559.072	7136.87
559.5	6993.58
559.929	7005.92
560.357	6993.84
560.785	6838.02
561.213	6864.31
561.641	6655.15
562.068	6706.75
562.496	6615.64
562.924	6572.96
563.352	6512.07
563.779	6513.65
564.207	6496.25
564.634	6382.28
565.062	6384.4
565.489	6291.72
565.917	6255.79
566.344	6158.24
566.771	6144.75
567.198	6107.72
567.625	5906.72
568.053	5949.38
568.48	5859
568.907	5798.25
569.333	5717.57
569.76	5529.68
570.187	5626.19
570.614	5416.84
571.04	11198.06
571.467	5407.25
571.894	5271.35
572.32	5114.17
572.747	5062.08
573.173	4940.16
573.599	4882.36
574.026	4796.4
574.452	4751.92
574.878	4616.47
575.304	4544.51
575.73	4467.92
576.156	4392.09
576.582	4364.64
577.008	4319.42
577.434	4239.15
577.86	4080.3
578.285	4098.65
578.711	4048.17
579.137	3948.21
579.562	3865.99
579.988	3852.19
580.413	3758.52
580.838	3754.72
581.264	3708.39
581.689	3610.76
582.114	3552.13
582.539	3966.05
582.964	3477.98
583.39	3427.97
583.814	3373.03
584.239	3296.54
584.664	3238.52
585.089	3205.55
585.514	3181.83
585.939	3143.1
586.363	3082.25
586.788	3039.1
587.212	3007.69
587.637	2946.47
588.061	2891.49
588.485	2843.05
588.91	2850.17
589.334	2812.39
589.758	2767.46
590.182	2751.57
590.606	2676.99
591.03	2649.01
591.454	2621.57
591.878	2580.66
592.302	2532.04
592.726	2532.59
593.15	2500.16
593.573	2395.64
593.997	2421.78
594.42	2340.02
594.844	2313.03
595.267	2304.48
595.691	2290.71
596.114	2252.94
596.537	2204.13
596.96	2265.07
597.384	2210.75
597.807	2153.9
598.23	2156.11
598.653	2154.73
599.076	2120.77
599.499	2075.46
599.921	2069.94
600.344	2059.43
600.767	2053.35
601.189	2033.17
601.612	2009.12
602.034	2031.24
602.457	1986.16
602.879	2109.17
603.302	1996.12
603.724	1938.84
604.146	1955.45
604.568	1907.83
604.991	1924.72
605.413	1903.4
605.835	1931.64
606.257	1884.85
606.678	1842.18
607.1	1912.82
607.522	1914.2
607.944	1873.77
608.365	1841.9
608.787	1804.21
609.209	1841.63
609.63	1758.17
610.051	1760.94
610.473	1741.8
610.894	1730.97
611.315	1647.67
611.737	1707.1
612.158	1654.9
612.579	1588.47
613	1697.94
613.421	1619.89
613.842	1586.25
614.263	1596.82
614.683	1505.3
615.104	1557.61
615.525	1544.26
615.945	1463.26
616.366	1434.57
616.787	1454.07
617.207	1409.5
617.627	1378.84
618.048	1389.15
618.468	1388.32
618.888	1355.98
619.308	1335.9
619.728	1295.72
620.148	1285.67
620.568	1296.83
620.988	1308.83
621.408	1246.59
621.828	1237.93
622.248	1244.07
622.668	1211.95
623.087	1224.8
623.507	1190.71
623.926	1229.83
624.346	1173.67
624.765	1181.49
625.185	1137.32
625.604	1124.73
626.023	1104.59
626.442	1079.69
626.861	1102.35
627.28	1099.28
627.699	1074.37
628.118	1059.82
628.537	1050.58
628.956	1042.46
629.375	1070.45
629.794	1013.89
630.212	1030.42
630.631	1008.85
631.049	981.11
631.468	1009.41
631.886	958.97
632.305	977.75
632.723	958.69
633.141	963.46
633.559	953.65
633.978	955.33
634.396	943.55
634.814	952.53
635.232	922.24
635.65	916.35
636.067	891.67
636.485	888.02
636.903	861.64
637.321	868.66
637.738	923.65
638.156	875.4
638.573	839.47
638.991	928.97
639.408	917.2
639.825	827.11
640.243	865.01
640.66	820.66
641.077	821.5
641.494	804.65
641.911	844.24
642.328	805.21
642.745	801.28
643.162	814.76
643.579	797.06
643.995	744.52
644.412	841.71
644.829	786.39
645.245	741.42
645.662	752.39
646.078	712.18
646.495	722.02
646.911	736.93
647.327	762.78
647.743	743.39
648.159	756.6
648.576	704.87
648.992	738.33
649.408	692.77
649.824	704.59
650.239	684.9
650.655	697.56
651.071	689.96
651.487	674.77
651.902	680.4
652.318	655.35
652.733	671.67
653.149	652.26
653.564	648.88
653.979	645.5
654.395	671.11
654.81	645.5
655.225	610.59
655.64	646.35
656.055	704.87
656.47	638.75
656.885	634.24
657.3	630.3
657.715	674.77
658.13	629.74
658.544	649.72
658.959	596.79
659.374	628.61
659.788	649.16
660.202	629.18
660.617	676.46
661.031	628.89
661.445	614.25
661.86	573.69
662.274	638.75
662.688	657.04
663.102	583.84
663.516	632.84
663.93	625.8
664.344	604.4
664.758	609.47
665.171	597.92
665.585	586.93
665.999	581.58
666.412	565.24
666.826	604.96
667.239	595.95
667.653	562.42
668.066	559.6
668.479	572.85
668.892	546.92
669.306	547.77
669.719	553.12
670.132	566.65
670.545	584.4
670.958	545.51
671.37	539.88
671.783	568.9
672.196	558.2
672.609	539.88
673.021	526.91
673.434	572
673.846	547.77
674.259	513.94
674.671	518.73
675.084	547.2
675.496	526.63
675.908	548.05
676.32	533.11
676.732	501.81
677.144	550.02
677.556	526.63
677.968	520.71
678.38	575.67
678.792	534.52
679.204	504.63
679.615	516.48
680.027	505.48
680.439	513.38
680.85	546.64
681.262	577.64
681.673	510.27
682.084	530.29
682.496	486.3
682.907	516.48
683.318	495.05
683.729	486.3
684.14	492.79
684.551	472.2
684.962	498.43
685.373	467.4
685.784	502.94
686.194	510.56
686.605	480.1
687.016	508.3
687.426	483.48
687.837	477.56
688.247	472.76
688.657	496.74
689.068	480.66
689.478	472.2
689.888	469.38
690.298	474.74
690.708	480.1
691.118	471.35
691.528	465.14
691.938	473.04
692.348	478.97
692.758	451.04
693.168	475.87
693.577	472.2
693.987	467.68
694.396	453.86
694.806	465.99
695.215	446.24
695.625	472.2
696.034	462.04
696.443	444.26
696.852	501.53
697.262	467.97
697.671	448.5
698.08	459.78
698.489	469.66
698.897	445.67
699.306	451.32
699.715	457.24
700.124	488.56
700.532	444.83
700.941	466.56
701.35	431.56
701.758	471.35
702.166	459.5
702.575	441.44
702.983	421.4
703.391	465.14
703.799	432.41
704.208	452.16
704.616	473.33
705.024	458.94
705.432	458.09
705.839	432.41
706.247	473.33
706.655	516.2
707.063	442.57
707.47	425.63
707.878	443.13
708.285	422.25
708.693	429.02
709.1	441.44
709.508	420.27
709.915	438.34
710.322	459.5
710.729	523.24
711.136	430.43
711.543	443.98
711.95	410.11
712.357	458.37
712.764	431.84
713.171	423.09
713.578	420.27
713.984	434.67
714.391	434.38
714.797	438.34
715.204	427.04
715.61	464.58
716.017	432.41
716.423	428.17
716.829	425.35
717.236	412.65
717.642	413.78
718.048	451.6
718.454	450.19
718.86	406.15
719.266	509.71
719.671	411.23
720.077	455.55
720.483	431
720.889	426.48
721.294	411.8
721.7	431.56
722.105	426.76
722.511	421.96
722.916	421.68
723.321	442.57
723.726	465.14
724.132	433.25
724.537	432.69
724.942	450.75
725.347	439.18
725.752	427.61
726.156	415.47
726.561	412.93
726.966	440.59
727.371	437.77
727.775	437.21
728.18	405.3
728.584	419.99
728.989	433.82
729.393	481.79
729.798	397.96
730.202	429.87
730.606	412.65
731.01	398.81
731.414	418.86
731.818	416.88
732.222	440.88
732.626	450.19
733.03	442.29
733.434	391.47
733.837	434.95
734.241	409.54
734.645	417.16
735.048	408.98
735.452	433.25
735.855	386.67
736.258	390.9
736.662	459.5
737.065	451.88
737.468	422.53
737.871	419.99
738.274	414.62
738.677	379.32
739.08	430.71
739.483	432.69
739.886	443.98
740.289	429.3
740.691	419.14
741.094	387.51
741.497	406.72
741.899	460.63
742.302	394.29
742.704	400.79
743.106	373.11
743.508	381.3
743.911	379.32
744.313	409.82
744.715	405.87
745.117	412.08
745.519	397.12
745.921	405.02
746.323	408.69
746.724	370.28
747.126	388.93
747.528	456.4
747.929	401.35
748.331	413.78
748.732	366.61
749.134	390.34
749.535	390.62
749.936	421.68
750.338	396.83
750.739	456.4
751.14	409.82
751.541	424.79
751.942	404.74
752.343	413.78
752.744	416.6
753.144	401.92
753.545	428.17
753.946	407.56
754.346	403.89
754.747	439.46
755.148	494.48
755.548	403.33
755.948	424.79
756.349	380.17
756.749	426.2
757.149	408.13
757.549	445.96
757.949	424.79
758.349	419.99
758.749	411.23
759.149	385.82
759.549	390.9
759.949	408.13
760.348	475.02
760.748	387.51
761.148	408.69
761.547	397.12
761.947	401.35
762.346	428.74
762.745	455.55
763.145	377.91
763.544	421.68
763.943	406.43
764.342	378.19
764.741	387.23
765.14	385.82
765.539	398.81
765.938	456.96
766.336	405.02
766.735	388.64
767.134	398.53
767.532	393.73
767.931	391.18
768.329	423.09
768.728	398.25
769.126	448.21
769.525	414.91
769.923	384.97
770.321	403.61
770.719	429.3
771.117	394.29
771.515	419.14
771.913	413.49
772.311	399.37
772.709	429.59
773.106	425.92
773.504	397.96
773.902	390.9
774.299	414.06
774.697	513.38
775.094	417.73
775.491	372.54
775.889	407.85
776.286	384.97
776.683	376.21
777.08	395.99
777.477	390.06
777.874	443.13
778.271	414.62
778.668	406.72
779.065	390.62
779.462	379.04
779.858	400.5
780.255	424.79
780.652	390.62
781.048	427.33
781.444	416.88
781.841	360.68
782.237	402.2
782.633	366.04
783.03	385.54
783.426	376.21
783.822	377.91
784.218	385.25
784.614	369.72
785.01	379.89
785.405	422.53
785.801	403.61
786.197	390.06
786.593	385.82
786.988	370.28
787.384	438.9
787.779	399.09
788.174	416.03
788.57	380.45
788.965	381.86
789.36	371.13
789.755	411.23
790.15	390.06
790.545	377.63
790.94	362.09
791.335	392.31
791.73	392.31
792.125	443.13
792.52	401.92
792.914	430.43
793.309	360.96
793.703	412.93
794.098	410.95
794.492	394.57
794.887	384.97
795.281	446.52
795.675	390.06
796.069	421.96
796.463	384.69
796.857	385.54
797.251	376.78
797.645	390.34
798.039	380.17
798.433	388.64
798.826	397.12
799.22	375.08
799.614	395.7
800.007	396.83
800.401	400.79
800.794	373.95
801.187	383.28
801.581	373.95
801.974	419.14
802.367	392.03
802.76	369.43
803.153	386.38
803.546	378.47
803.939	395.14
804.332	356.16
804.725	370.56
805.117	397.12
805.51	394.57
805.903	381.02
806.295	379.89
806.688	395.99
807.08	399.09
807.472	411.52
807.865	414.91
808.257	395.42
808.649	403.89
809.041	389.21
809.433	414.62
809.825	392.88
810.217	366.04
810.609	408.13
811.001	410.67
811.392	374.24
811.784	417.73
812.175	391.18
812.567	398.81
812.958	390.34
813.35	390.62
813.741	385.82
814.132	377.63
814.524	357
814.915	407.85
815.306	378.47
815.697	383.28
816.088	377.06
816.479	413.49
816.87	398.25
817.26	402.76
817.651	445.67
818.042	396.83
818.432	412.93
818.823	388.36
819.213	396.55
819.604	364.91
819.994	378.47
820.384	375.37
820.775	390.34
821.165	373.39
821.555	394.86
821.945	374.24
822.335	369.72
822.725	397.68
823.114	357.57
823.504	399.66
823.894	382.43
824.284	395.99
824.673	394.29
825.063	377.63
825.452	394.29
825.842	381.3
826.231	437.49
826.62	391.47
827.009	421.68
827.399	404.46
827.788	390.34
828.177	373.67
828.566	407.28
828.954	456.96
829.343	404.74
829.732	377.63
830.121	438.34
830.509	422.53
830.898	381.86
831.286	346.55
831.675	403.33
832.063	395.7
832.452	365.76
832.84	385.54
833.228	406.15
833.616	377.34
834.004	409.26
834.392	407
834.78	413.21
835.168	392.31
835.556	399.94
835.944	388.08
836.331	416.6
836.719	410.95
837.107	405.3
837.494	413.21
837.881	369.15
838.269	405.02
838.656	381.58
839.043	371.13
839.431	464.86
839.818	399.94
840.205	403.05
840.592	397.68
840.979	379.89
841.366	387.51
841.752	375.65
842.139	389.21
842.526	359.55
842.912	394.29
843.299	399.37
843.685	413.21
844.072	377.91
844.458	393.73
844.844	388.36
845.231	370
845.617	360.96
846.003	413.78
846.389	372.54
846.775	365.48
847.161	382.71
847.547	370.56
847.933	358.98
848.318	391.47
848.704	372.26
849.09	372.54
849.475	380.73
849.861	416.32
850.246	401.92
850.631	440.59
851.017	388.08
851.402	375.37
851.787	386.1
852.172	404.18
852.557	378.76
852.942	397.4
853.327	369.15
853.712	407.56
854.097	391.18
854.481	374.24
854.866	425.92
855.25	386.67
855.635	382.15
856.019	366.04
856.404	368.3
856.788	403.89
857.172	390.06
857.557	381.58
857.941	392.88
858.325	379.89
858.709	406.43
859.093	402.48
859.477	366.33
859.86	409.26
860.244	376.78
860.628	453.58
861.012	381.02
861.395	383.28
861.779	368.59
862.162	374.24
862.545	368.59
862.929	367.46
863.312	403.33
863.695	387.23
864.078	422.81
864.461	381.58
864.844	379.6
865.227	407.85
865.61	363.78
865.993	403.33
866.376	400.5
866.758	404.74
867.141	438.05
867.523	390.06
867.906	383.84
868.288	391.18
868.671	384.69
869.053	390.9
869.435	377.06
869.817	408.98
870.199	392.6
870.581	350.5
870.963	390.62
871.345	392.88
871.727	417.45
872.109	370.85
872.491	342.59
872.872	393.73
873.254	370.56
873.635	393.16
874.017	411.23
874.398	391.75
874.779	392.31
875.161	396.55
875.542	394.86
875.923	364.91
876.304	355.03
876.685	378.19
877.066	369.43
877.447	367.17
877.828	400.22
878.208	384.41
878.589	405.87
878.97	432.97
879.35	375.65
879.731	389.77
880.111	411.8
880.491	353.9
880.872	406.43
881.252	356.16
881.632	388.64
882.012	408.98
882.392	391.18
882.772	400.5
883.152	376.78
883.532	373.67
883.912	375.65
884.291	380.17
884.671	393.16
885.051	410.11
885.43	370.28
885.81	360.96
886.189	362.37
886.568	389.21
886.948	411.23
887.327	403.61
887.706	363.22
888.085	414.62
888.464	375.65
888.843	437.77
889.222	405.02
889.601	398.81
889.979	370
890.358	395.42
890.737	399.66
891.115	379.32
891.494	375.37
891.872	353.33
892.25	362.94
892.629	416.03
893.007	412.93
893.385	375.37
893.763	367.74
894.141	390.06
894.519	404.46
894.897	368.3
895.275	382.15
895.653	346.55
896.03	376.5
896.408	393.44
896.786	395.42
897.163	369.72
897.541	373.67
897.918	396.27
898.295	393.44
898.673	383.84
899.05	385.25
899.427	530.29
899.804	379.6
900.181	384.97
900.558	416.03
900.935	374.24
901.312	382.43
901.688	383.28
902.065	377.34
902.442	379.04
902.818	369.43
903.195	376.5
903.571	382.71
903.947	395.99
904.324	399.37
904.7	397.96
905.076	421.4
905.452	387.23
905.828	392.88
906.204	378.47
906.58	365.76
906.956	381.58
907.331	437.21
907.707	425.92
908.083	408.41
908.458	394.29
908.834	364.35
909.209	388.64
909.585	379.04
909.96	361.81
910.335	372.82
910.71	383.84
911.086	389.77
911.461	423.66
911.836	381.3
912.21	366.33
912.585	377.34
912.96	380.45
913.335	362.37
913.709	376.78
914.084	393.44
914.459	394.01
914.833	383.28
915.207	348.81
915.582	357.29
915.956	386.95
916.33	410.11
916.704	370.28
917.078	390.62
917.452	418.86
917.826	388.36
918.2	374.52
918.574	375.37
918.948	380.17
919.321	365.48
919.695	352.2
920.068	407.85
920.442	388.64
920.815	379.89
921.189	366.61
921.562	425.07
921.935	391.75
922.308	354.46
922.681	390.62
923.054	382.43
923.427	388.36
923.8	353.9
924.173	377.91
924.546	353.61
924.919	369.72
925.291	384.69
925.664	357
926.036	360.68
926.409	360.39
926.781	373.67
927.153	372.82
927.526	413.78
927.898	362.37
928.27	393.44
928.642	382.15
929.014	385.54
929.386	361.24
929.758	341.74
930.129	350.5
930.501	414.62
930.873	381.58
931.244	383.56
931.616	379.89
931.987	362.37
932.359	392.88
932.73	417.45
933.101	384.41
933.472	352.2
933.843	391.18
934.214	409.26
934.585	371.41
934.956	367.74
935.327	446.8
935.698	406.15
936.069	397.96
936.439	373.95
936.81	361.81
937.18	379.32
937.551	368.02
937.921	394.86
938.292	392.88
938.662	341.74
939.032	384.69
939.402	345.7
939.772	377.34
940.142	341.46
940.512	367.74
940.882	360.96
941.252	387.23
941.621	350.5
941.991	387.51
942.361	401.92
942.73	369.72
943.1	368.87
943.469	362.09
943.838	410.67
944.208	415.75
944.577	357.85
944.946	378.47
945.315	351.07
945.684	386.95
946.053	368.3
946.422	387.8
946.791	367.74
947.159	373.67
947.528	376.21
947.897	395.14
948.265	367.17
948.634	386.67
949.002	366.33
949.371	366.33
949.739	377.34
950.107	408.69
950.475	389.49
950.843	385.54
951.211	392.88
951.579	395.42
951.947	373.39
952.315	376.5
952.683	379.04
953.05	357.85
953.418	431.56
953.785	375.65
954.153	363.5
954.52	363.5
954.888	387.23
955.255	363.22
955.622	360.96
955.989	395.99
956.356	399.37
956.723	357
957.09	368.02
957.457	401.07
957.824	380.73
958.191	340.33
958.557	392.31
958.924	387.51
959.291	387.23
959.657	390.9
960.023	471.63
960.39	358.98
960.756	388.93
961.122	381.3
961.488	358.13
961.855	381.02
962.221	360.68
962.586	334.96
962.952	421.96
963.318	411.8
963.684	449.06
964.05	408.41
964.415	381.58
964.781	403.05
965.146	376.78
965.512	418.29
965.877	365.76
966.242	361.24
966.608	370.56
966.973	385.54
967.338	367.46
967.703	403.89
968.068	356.72
968.433	397.96
968.797	438.34
969.162	364.63
969.527	360.39
969.891	373.11
970.256	386.38
970.62	360.68
970.985	372.26
971.349	388.64
971.714	388.93
972.078	382.71
972.442	371.69
972.806	379.6
973.17	358.98
973.534	376.5
973.898	377.06
974.262	371.13
974.625	418.58
974.989	370.28
975.353	379.32
975.716	392.88
976.08	343.16
976.443	356.72
976.806	376.5
977.17	373.11
977.533	344.57
977.896	317.43
978.259	374.52
978.622	531.42
978.985	393.73
979.348	366.33
979.711	361.24
980.073	376.78
980.436	385.54
980.799	363.78
981.161	418.86
981.524	361.52
981.886	393.73
982.248	382.99
982.611	384.69
982.973	377.06
983.335	373.95
983.697	392.6
984.059	388.93
984.421	390.06
984.783	362.37
985.145	368.59
985.506	381.86
985.868	386.38
986.23	377.34
986.591	372.54
986.953	374.24
987.314	369.43
987.675	350.22
988.037	4087.59
988.398	493.35
988.759	384.69
989.12	383.56
989.481	386.95
989.842	373.11
990.203	364.35
990.564	372.54
990.924	355.31
991.285	4041.69
991.646	466.84
992.006	361.81
992.367	407.85
992.727	402.76
993.087	379.32
993.448	350.79
993.808	341.18
994.168	358.7
994.528	376.78
994.888	381.86
995.248	364.07
995.608	361.52
995.967	360.11
996.327	346.83
996.687	333.55
997.046	332.13
997.406	366.61
997.765	361.52
998.125	343.72
998.484	345.7
998.843	431
999.202	357.57
999.561	351.07
999.92	368.3
1000.279	360.39
1000.638	353.61
1000.997	380.45
1001.356	356.72
1001.715	357.85
1002.073	389.21
1002.432	375.37
1002.79	358.98
1003.149	387.51
1003.507	405.87
1003.865	365.48
1004.224	347.96
1004.582	367.17
1004.94	381.3
1005.298	382.71
1005.656	367.74
1006.014	364.91
1006.371	379.89
1006.729	356.16
1007.087	411.23
1007.445	383.56
1007.802	399.09
1008.16	371.41
1008.517	370.56
1008.874	379.04
1009.232	375.08
1009.589	420.27
1009.946	393.16
1010.303	358.42
1010.66	371.98
1011.017	362.94
1011.374	387.8
1011.731	373.95
1012.087	374.8
1012.444	382.99
1012.801	377.63
1013.157	372.26
1013.513	362.37
1013.87	370.28
1014.226	376.5
1014.582	395.99
1014.939	344.85
1015.295	339.48
1015.651	343.16
1016.007	355.87
1016.363	384.97
1016.719	350.79
1017.074	378.47
1017.43	362.37
1017.786	370.28
1018.141	378.47
1018.497	365.48
1018.852	377.91
1019.208	381.58
1019.563	358.13
1019.918	352.2
1020.273	355.87
1020.628	353.61
1020.983	395.42
1021.338	384.12
1021.693	355.59
1022.048	345.13
1022.403	362.09
1022.757	361.81
1023.112	367.74
1023.467	355.31
1023.821	357
1024.175	379.6
1024.53	359.26
1024.884	361.81
1025.238	364.63
1025.592	363.22
1025.946	336.94
1026.3	333.26
1026.654	347.96
1027.008	376.78
1027.362	381.58
1027.716	368.87
1028.069	347.4
1028.423	341.46
1028.777	358.7
1029.13	383.28
1029.483	408.41
1029.837	387.23
1030.19	373.11
1030.543	387.23
1030.896	330.16
1031.249	377.63
1031.602	353.05
1031.955	373.67
1032.308	383.84
1032.661	395.99
1033.013	340.61
1033.366	378.19
1033.719	362.37
1034.071	342.87
1034.424	361.81
1034.776	370.56
1035.128	368.87
1035.48	377.06
1035.833	390.62
1036.185	371.98
1036.537	371.98
1036.889	371.98
