Data from SCSF78-405_irradiation_FLMS019251_04-59-11-069.txt Node
Date: Fri Feb 22 04:59:11 PST 2019
User: mu3e
Spectrometer: FLMS01925
Trigger mode: 0
Integration Time (sec): 3.659600E-1
Scans to average: 10
Electric dark correction enabled: true
Nonlinearity correction enabled: true
Boxcar width: 0
XAxis mode: Wavelengths
Number of Pixels in Spectrum: 2048
>>>>>Begin Spectral Data<<<<<
187.103	-117.74
187.574	-117.74
188.045	-117.74
188.516	-172.08
188.987	-96.42
189.458	-121.44
189.929	-125.14
190.4	-98.41
190.871	-127.13
191.342	-93.86
191.813	-82.49
192.284	-27.37
192.754	-26.52
193.225	20.9
193.696	9.83
194.166	44.74
194.637	78.5
195.107	109.97
195.578	127.55
196.048	162.97
196.518	146.82
196.989	181.38
197.459	189.88
197.929	219.61
198.399	313.53
198.869	294.02
199.339	308.16
199.809	343.77
200.279	378.25
200.749	353.95
201.219	362.71
201.689	343.49
202.159	364.4
202.628	374.29
203.098	412.7
203.568	407.33
204.037	411.01
204.507	383.33
204.976	394.06
205.445	417.78
205.915	411.29
206.384	417.5
206.853	389.83
207.323	391.52
207.792	417.22
208.261	373.73
208.73	396.89
209.199	408.46
209.668	395.19
210.137	432.46
210.606	390.39
211.075	428.79
211.543	398.58
212.012	384.46
212.481	349.43
212.95	397.45
213.418	438.11
213.887	409.59
214.355	414.68
214.824	387
215.292	361.29
215.76	361.58
216.229	374.86
216.697	392.37
217.165	334.17
217.633	385.31
218.101	391.8
218.569	431.9
219.037	387.28
219.505	416.65
219.973	377.96
220.441	355.93
220.909	372.88
221.377	364.12
221.844	379.66
222.312	381.07
222.78	376.55
223.247	375.14
223.715	322.01
224.182	362.99
224.65	395.76
225.117	375.99
225.584	365.25
226.052	383.61
226.519	366.95
226.986	398.3
227.453	357.9
227.92	359.6
228.387	383.61
228.854	388.7
229.321	391.8
229.788	399.43
230.255	409.31
230.722	396.89
231.189	413.83
231.655	367.51
232.122	400.56
232.589	360.73
233.055	353.67
233.522	399.43
233.988	330.21
234.454	394.34
234.921	395.76
235.387	403.66
235.853	350.84
236.32	389.54
236.786	380.79
237.252	396.32
237.718	430.77
238.184	368.92
238.65	395.47
239.116	345.47
239.582	381.92
240.047	345.19
240.513	385.59
240.979	369.49
241.445	313.25
241.91	361.58
242.376	352.82
242.841	383.61
243.307	370.34
243.772	387
244.238	370.62
244.703	397.17
245.168	380.5
245.633	383.05
246.099	375.7
246.564	377.96
247.029	403.66
247.494	377.12
247.959	367.79
248.424	385.31
248.889	366.95
249.353	418.06
249.818	389.83
250.283	401.12
250.748	357.62
251.212	393.21
251.677	366.38
252.141	396.32
252.606	385.59
253.07	382.2
253.535	373.73
253.999	398.02
254.463	367.79
254.927	372.03
255.392	392.93
255.856	394.91
256.32	370.05
256.784	370.34
257.248	391.8
257.712	403.1
258.176	435
258.64	378.25
259.103	351.97
259.567	377.96
260.031	388.7
260.495	404.23
260.958	415.81
261.422	390.39
261.885	403.66
262.349	383.89
262.812	368.64
263.275	355.93
263.739	400.56
264.202	400.56
264.665	408.18
265.128	425.97
265.591	404.51
266.054	394.34
266.517	402.53
266.98	389.26
267.443	364.12
267.906	383.89
268.369	373.73
268.832	416.93
269.294	395.76
269.757	385.31
270.22	367.51
270.682	403.66
271.145	390.96
271.607	411.29
272.07	443.47
272.532	378.25
272.994	392.93
273.456	413.26
273.919	474.79
274.381	394.63
274.843	443.19
275.305	404.51
275.767	387.57
276.229	418.91
276.691	414.39
277.153	407.33
277.614	399.71
278.076	373.44
278.538	395.19
279	400.28
279.461	388.13
279.923	480.43
280.384	383.89
280.846	395.47
281.307	395.47
281.769	411.01
282.23	413.26
282.691	436.41
283.152	412.7
283.613	390.67
284.075	412.98
284.536	382.48
284.997	412.98
285.458	360.73
285.918	390.67
286.379	415.24
286.84	430.77
287.301	365.53
287.762	395.47
288.222	386.72
288.683	382.76
289.143	403.95
289.604	388.13
290.064	393.21
290.525	389.83
290.985	453.63
291.445	417.22
291.906	381.35
292.366	381.07
292.826	364.12
293.286	412.98
293.746	428.79
294.206	398.02
294.666	416.65
295.126	418.91
295.586	389.54
296.046	381.63
296.506	425.4
296.965	417.5
297.425	398.02
297.884	440.65
298.344	425.97
298.804	408.18
299.263	389.83
299.722	429.64
300.182	390.67
300.641	366.1
301.1	366.1
301.559	404.79
302.019	384.74
302.478	394.06
302.937	417.5
303.396	418.63
303.855	458.43
304.314	419.19
304.772	544.72
305.231	370.9
305.69	388.7
306.149	407.9
306.607	391.8
307.066	440.36
307.524	415.81
307.983	414.11
308.441	432.18
308.9	466.61
309.358	402.82
309.816	482.12
310.275	407.33
310.733	390.39
311.191	409.88
311.649	430.49
312.107	420.89
312.565	407.05
313.023	396.89
313.481	394.91
313.939	406.77
314.397	396.04
314.854	408.18
315.312	395.47
315.77	395.47
316.227	369.21
316.685	385.87
317.142	425.69
317.6	431.61
318.057	435.28
318.514	398.58
318.972	416.37
319.429	433.31
319.886	381.07
320.343	391.52
320.8	405.08
321.257	393.78
321.714	436.13
322.171	455.89
322.628	408.46
323.085	408.75
323.542	374.57
323.998	392.93
324.455	404.79
324.912	416.65
325.368	411.29
325.825	477.89
326.281	422.58
326.738	429.92
327.194	390.11
327.65	416.09
328.107	403.66
328.563	409.03
329.019	453.06
329.475	424.56
329.931	414.68
330.387	423.15
330.843	394.34
331.299	417.22
331.755	408.46
332.211	403.95
332.666	402.25
333.122	425.12
333.578	427.1
334.033	408.18
334.489	425.97
334.944	415.52
335.4	506.94
335.855	442.62
336.31	427.94
336.766	414.11
337.221	412.7
337.676	419.48
338.131	447.7
338.586	442.62
339.041	381.63
339.496	438.39
339.951	438.39
340.406	399.43
340.861	407.05
341.316	426.82
341.771	424.27
342.225	419.19
342.68	420.04
343.134	414.96
343.589	425.97
344.043	389.54
344.498	425.12
344.952	404.23
345.406	628.95
345.861	379.37
346.315	397.73
346.769	411.01
347.223	408.46
347.677	394.34
348.131	397.45
348.585	389.83
349.039	409.03
349.493	400.84
349.947	399.15
350.401	404.23
350.854	414.96
351.308	474.23
351.762	414.68
352.215	447.7
352.669	401.12
353.122	408.18
353.575	411.85
354.029	434.44
354.482	416.37
354.935	434.15
355.388	443.75
355.842	398.3
356.295	407.05
356.748	400.28
357.201	429.07
357.654	448.55
358.106	421.45
358.559	396.04
359.012	412.98
359.465	420.32
359.917	431.33
360.37	409.88
360.823	426.53
361.275	445.73
361.728	428.51
362.18	418.63
362.632	420.6
363.085	427.38
363.537	421.17
363.989	415.24
364.441	427.38
364.893	409.88
365.345	401.4
365.797	389.83
366.249	435.57
366.701	422.58
367.153	443.19
367.605	404.23
368.057	425.69
368.508	431.33
368.96	418.06
369.411	425.97
369.863	429.07
370.314	436.41
370.766	424.27
371.217	433.59
371.669	440.65
372.12	495.38
372.571	439.8
373.022	410.72
373.473	446.57
373.924	435.28
374.375	396.6
374.826	429.92
375.277	429.64
375.728	419.48
376.179	428.51
376.63	449.4
377.08	426.82
377.531	408.75
377.981	398.58
378.432	442.9
378.883	428.51
379.333	452.22
379.783	442.9
380.234	431.33
380.684	437.82
381.134	425.97
381.584	441.49
382.034	459.84
382.485	432.18
382.935	436.13
383.385	449.96
383.834	416.93
384.284	438.95
384.734	413.83
385.184	458.14
385.634	419.48
386.083	429.07
386.533	435
386.982	413.55
387.432	458.71
387.881	416.37
388.331	412.13
388.78	452.5
389.229	450.81
389.679	414.68
390.128	450.24
390.577	443.19
391.026	414.11
391.475	398.86
391.924	413.55
392.373	437.26
392.822	434.15
393.27	474.23
393.719	439.52
394.168	421.45
394.617	436.13
395.065	438.39
395.514	477.05
395.962	453.06
396.411	431.61
396.859	398.58
397.307	492.28
397.756	464.35
398.204	424.56
398.652	483.53
399.1	475.64
399.548	421.17
399.996	522.45
400.444	481
400.892	427.1
401.34	433.31
401.788	457.3
402.236	459.27
402.683	487.2
403.131	508.64
403.579	475.64
404.026	468.02
404.474	451.09
404.921	502.15
405.369	482.12
405.816	479.59
406.263	435
406.71	507.79
407.158	467.45
407.605	506.66
408.052	490.3
408.499	508.07
408.946	521.89
409.393	524.14
409.84	526.4
410.286	506.38
410.733	569.52
411.18	548.95
411.626	590.09
412.073	676.23
412.52	713.64
412.966	809.47
413.413	955.94
413.859	1135.69
414.305	1356.31
414.752	1627.44
415.198	2019.95
415.644	2480.69
416.09	3015.39
416.536	3616.24
416.982	4400.75
417.428	5199.38
417.874	6146.12
418.32	7185.17
418.766	8294.3
419.211	9567.85
419.657	10808.56
420.103	12357.43
420.548	13526.36
420.994	15225.31
421.439	16670.21
421.885	18108.05
422.33	19932.09
422.776	21454.15
423.221	22916.29
423.666	24456.19
424.111	26172.84
424.556	27269.76
425.001	29072.98
425.446	30708.53
425.891	32006.56
426.336	33068.33
426.781	34427.04
427.226	36724.73
427.671	37275.7
428.115	37953
428.56	39708.57
429.005	41080.47
429.449	41307.3
429.894	42575.19
430.338	43668.64
430.782	43353.13
431.227	44543.49
431.671	44788.99
432.115	46085.18
432.559	46832.81
433.003	46473.48
433.447	47260.21
433.891	47412.46
434.335	47442.11
434.779	48095.06
435.223	48085.81
435.667	48058.3
436.111	48773.4
436.554	48168.1
436.998	47695.47
437.442	47566.42
437.885	49533.67
438.328	48126.69
438.772	48388.04
439.215	48804.2
439.659	48299.39
440.102	48765.12
440.545	47998.69
440.988	47743.9
441.431	48573.82
441.874	48165.79
442.317	48570.72
442.76	47963.51
443.203	47416.29
443.646	48171.19
444.089	47690.61
444.531	48385.46
444.974	46873.53
445.417	48090.69
445.859	47195.39
446.302	48396.03
446.744	47617.62
447.186	48932.94
447.629	48032.61
448.071	47894.45
448.513	48188.69
448.956	49635.5
449.398	48756.32
449.84	47506.04
450.282	48355.3
450.724	48863.76
451.166	48545.16
451.607	48508.5
452.049	48764.86
452.491	49998.12
452.933	49591.62
453.374	50176.76
453.816	50710.47
454.257	50449.73
454.699	51599.64
455.14	51266.17
455.582	51062.93
456.023	51113.55
456.464	51334.86
456.905	52051.23
457.347	52064.5
457.788	50990.27
458.229	51141.01
458.67	52435.3
459.111	50269.13
459.552	50576.81
459.992	50491.72
460.433	50323.93
460.874	49296.8
461.315	50737.5
461.755	49847.12
462.196	49404.08
462.636	48614.63
463.077	48105.09
463.517	48422.33
463.957	48628.07
464.398	48554.45
464.838	48436
465.278	47427.03
465.718	47912.67
466.158	46697.51
466.598	47186.71
467.038	46784.47
467.478	47277.58
467.918	47530.34
468.358	46909.17
468.798	46567.42
469.237	46467.39
469.677	46430.09
470.117	47497.85
470.556	44896.78
470.996	45498.5
471.435	45805.47
471.874	46624.06
472.314	46338.52
472.753	45285.52
473.192	45514.39
473.631	45204.93
474.07	45479.08
474.509	45578.21
474.948	45923.01
475.387	45268.14
475.826	44289.78
476.265	46326.35
476.704	45615.82
477.143	46206.22
477.581	45866.63
478.02	46614.92
478.458	45232.88
478.897	46075.81
479.335	47387.15
479.774	46698.53
480.212	47076.03
480.65	46958.06
481.089	46819.07
481.527	46314.69
481.965	45791.06
482.403	48075.01
482.841	47855.45
483.279	47885.47
483.717	47923.71
484.155	47476.12
484.592	47967.36
485.03	48227.81
485.468	47205.34
485.905	47342.7
486.343	48147.01
486.781	47388.18
487.218	46778.11
487.655	46623.05
488.093	45739.03
488.53	47321.24
488.967	46499.37
489.405	46402.69
489.842	45326.83
490.279	45441.26
490.716	45132.94
491.153	45754.94
491.59	44906.84
492.027	44210.62
492.463	43765.58
492.9	42883.67
493.337	42861.77
493.773	42929.98
494.21	42104.74
494.647	41868.59
495.083	41068.6
495.519	40733.74
495.956	40671.76
496.392	39828.76
496.828	39782.7
497.265	39063.21
497.701	39066.16
498.137	38786.99
498.573	37820.12
499.009	38333.97
499.445	37362.4
499.881	36975.06
500.316	37287.7
500.752	36207
501.188	36059.85
501.624	35929.6
502.059	34487.55
502.495	34405.57
502.93	34426.79
503.366	35018.61
503.801	33870.37
504.236	33514.8
504.672	33047.36
505.107	32732.12
505.542	32078.48
505.977	32081.16
506.412	31510.63
506.847	31921.47
507.282	31263.62
507.717	30932.68
508.152	30885.36
508.587	30602.18
509.021	29743.98
509.456	29519.87
509.891	29658.54
510.325	29511.08
510.76	29129.65
511.194	28879.02
511.628	28975.52
512.063	28076.05
512.497	28285.37
512.931	27570.85
513.366	27531.7
513.8	27380.18
514.234	26636.51
514.668	26775.46
515.102	26909.98
515.536	25933.13
515.969	26318.53
516.403	25671.71
516.837	25173.32
517.271	25410.42
517.704	24899.97
518.138	24768.4
518.571	24579.97
519.005	24160.53
519.438	24047.49
519.871	23812.69
520.305	23463.61
520.738	23226.31
521.171	22739.22
521.604	22878.51
522.037	22629.53
522.47	22279.54
522.903	21847.12
523.336	21757.26
523.769	21557.93
524.202	20879.02
524.634	20952.94
525.067	20744.06
525.5	20652.23
525.932	20387.82
526.365	19950.74
526.797	19788.11
527.23	19774.43
527.662	19167.6
528.094	18943.11
528.527	18811.24
528.959	18491.99
529.391	18319.54
529.823	17666.97
530.255	17717.23
530.687	17374.55
531.119	17114.21
531.551	17017.54
531.982	16627.83
532.414	16437.21
532.846	16197.53
533.277	15977.79
533.709	15519.51
534.14	15522.78
534.572	15208.94
535.003	15182
535.435	14859.76
535.866	14630.04
536.297	14207.46
536.728	14390.29
537.159	14131.92
537.59	13839.42
538.022	13674.96
538.452	13507.87
538.883	13329.03
539.314	13006.25
539.745	12769.42
540.176	12707.7
540.606	12311.63
541.037	12413.13
541.468	12095.27
541.898	12016.32
542.328	11891.2
542.759	11641.28
543.189	11510.85
543.619	11401.54
544.05	11224.18
544.48	10950.44
544.91	10875.67
545.34	10713.75
545.77	10587.35
546.2	10434.68
546.63	10325.3
547.06	10265.96
547.489	10141.06
547.919	9701.67
548.349	9781.8
548.778	9818.64
549.208	9497.68
549.637	9403.47
550.067	9285.95
550.496	9267.35
550.926	9103.44
551.355	8915.03
551.784	8944.03
552.213	8713.15
552.642	8636.64
553.071	8585.52
553.5	8483.75
553.929	8177.75
554.358	8180.87
554.787	7992.85
555.216	7995.71
555.645	7897.43
556.073	7773.77
556.502	7705.36
556.93	7499.16
557.359	7383.76
557.787	7402.09
558.216	7349.99
558.644	7227.38
559.072	7190.15
559.5	7104.13
559.929	7084.45
560.357	6986.01
560.785	6892.75
561.213	6922.18
561.641	6771.53
562.068	6765.48
562.496	6663.09
562.924	6612.26
563.352	6565.89
563.779	6555.09
564.207	6552.45
564.634	6502.37
565.062	6402.92
565.489	6316.86
565.917	6253.72
566.344	6255.83
566.771	6222.8
567.198	6162.52
567.625	6068.87
568.053	5931.42
568.48	5955.26
568.907	5839.42
569.333	5739.92
569.76	5558.98
570.187	5609.76
570.614	5462.68
571.04	11346.1
571.467	5445.64
571.894	5302.06
572.32	5113.69
572.747	5099.53
573.173	5000.66
573.599	4923.36
574.026	4771.8
574.452	4735.88
574.878	4710.68
575.304	4620.81
575.73	4537.3
576.156	4388.64
576.582	4410.97
577.008	4267.76
577.434	4255.91
577.86	4109.77
578.285	4157.52
578.711	4007.98
579.137	4000.68
579.562	3899.05
579.988	3899.59
580.413	3786.19
580.838	3766.42
581.264	3703.56
581.689	3689.46
582.114	3582.86
582.539	3996.9
582.964	3529.65
583.39	3528.83
583.814	3340.7
584.239	3337.16
584.664	3258.46
585.089	3265.82
585.514	3236.12
585.939	3151.06
586.363	3144.24
586.788	3105.77
587.212	3066.19
587.637	2975.22
588.061	2977.95
588.485	2909.87
588.91	2865.27
589.334	2805.59
589.758	2817.09
590.182	2756.55
590.606	2687.47
591.03	2672.93
591.454	2630.13
591.878	2604.05
592.302	2552.15
592.726	2569.18
593.15	2479.87
593.573	2445.22
593.997	2473.82
594.42	2360.18
594.844	2359.07
595.267	2334.01
595.691	2327.95
596.114	2245.82
596.537	2285.25
596.96	2274.22
597.384	2247.48
597.807	2158.64
598.23	2210.52
598.653	2161.96
599.076	2131.31
599.499	2111.98
599.921	2043.45
600.344	2112.81
600.767	2054.51
601.189	2042.07
601.612	2037.65
602.034	2010
602.457	1969.61
602.879	2107.01
603.302	2000.87
603.724	1959.93
604.146	1925.05
604.568	1945.81
604.991	1961.59
605.413	1882.41
605.835	1930.04
606.257	1905.12
606.678	1886.01
607.1	1898.47
607.522	1899.03
607.944	1911.49
608.365	1877.42
608.787	1806.48
609.209	1830.32
609.63	1772.64
610.051	1772.92
610.473	1782.07
610.894	1721.87
611.315	1698.27
611.737	1737.41
612.158	1618.83
612.579	1632.17
613	1719.92
613.421	1614.1
613.842	1648.84
614.263	1566.84
614.683	1543.47
615.104	1543.2
615.525	1527.34
615.945	1485.87
616.366	1457.74
616.787	1451.62
617.207	1425.99
617.627	1376.38
618.048	1409.27
618.468	1408.44
618.888	1365.23
619.308	1332.04
619.728	1298.84
620.148	1283.49
620.568	1302.47
620.988	1311.96
621.408	1268.97
621.828	1257.53
622.248	1231
622.668	1214.8
623.087	1243.01
623.507	1199.71
623.926	1234.07
624.346	1196.63
624.765	1182.1
625.185	1154.99
625.604	1140.45
626.023	1100.45
626.442	1085.06
626.861	1160.86
627.28	1067.99
627.699	1057.63
628.118	1053.99
628.537	1074.98
628.956	1057.63
629.375	1051.47
629.794	1045.59
630.212	1047.55
630.631	1047.27
631.049	996.58
631.468	1019.27
631.886	944.17
632.305	998.54
632.723	944.17
633.141	971.92
633.559	937.44
633.978	933.23
634.396	953.42
634.814	955.66
635.232	903.22
635.65	896.49
636.067	914.16
636.485	911.64
636.903	872.36
637.321	885.83
637.738	960.15
638.156	860.57
638.573	857.49
638.991	877.13
639.408	879.1
639.825	833.91
640.243	871.52
640.66	806.95
641.077	816.21
641.494	811.44
641.911	808.35
642.328	799.08
642.745	821.27
643.162	790.09
643.579	756.09
643.995	749.07
644.412	827.17
644.829	742.32
645.245	754.41
645.662	742.6
646.078	753.28
646.495	715.89
646.911	735.57
647.327	740.91
647.743	737.26
648.159	763.96
648.576	741.48
648.992	731.36
649.408	728.54
649.824	707.45
650.239	656.25
650.655	698.17
651.071	692.83
651.487	720.95
651.902	684.95
652.318	654.56
652.733	673.7
653.149	676.51
653.564	691.42
653.979	634.3
654.395	641.05
654.81	665.26
655.225	626.41
655.64	632.61
656.055	662.44
656.47	666.66
656.885	621.06
657.3	623.6
657.715	697.05
658.13	648.93
658.544	631.2
658.959	604.45
659.374	615.15
659.788	675.67
660.202	625.01
660.617	673.98
661.031	586.42
661.445	614.31
661.86	601.91
662.274	622.75
662.688	638.8
663.102	613.18
663.516	627.26
663.93	586.42
664.344	598.53
664.758	591.78
665.171	591.21
665.585	571.77
665.999	561.63
666.412	588.96
666.826	588.96
667.239	603.89
667.653	584.73
668.066	563.32
668.479	605.29
668.892	548.95
669.306	557.12
669.719	554.3
670.132	577.41
670.545	564.73
670.958	569.24
671.37	566.7
671.783	510.89
672.196	557.4
672.609	551.2
673.021	546.13
673.434	547.82
673.846	511.74
674.259	517.66
674.671	537.96
675.084	534.01
675.496	515.69
675.908	519.91
676.32	528.09
676.732	532.32
677.144	523.86
677.556	527.24
677.968	509.2
678.38	569.24
678.792	548.1
679.204	490.59
679.615	537.39
680.027	537.39
680.439	506.1
680.85	531.19
681.262	566.42
681.673	528.94
682.084	545.28
682.496	498.2
682.907	506.1
683.318	507.51
683.729	490.59
684.14	494.54
684.551	473.1
684.962	503.84
685.373	495.1
685.784	487.2
686.194	477.89
686.605	487.2
687.016	505.53
687.426	499.05
687.837	453.06
688.247	462.66
688.657	493.97
689.068	469.43
689.478	488.33
689.888	466.04
690.298	458.99
690.708	463.5
691.118	453.06
691.528	497.07
691.938	486.07
692.348	480.15
692.758	464.07
693.168	486.07
693.577	494.25
693.987	463.5
694.396	491.43
694.806	444.03
695.215	462.66
695.625	468.3
696.034	477.61
696.443	440.36
696.852	477.61
697.262	478.46
697.671	446.86
698.08	461.53
698.489	454.48
698.897	461.25
699.306	458.99
699.715	450.24
700.124	461.53
700.532	437.54
700.941	436.13
701.35	449.68
701.758	473.66
702.166	449.68
702.575	443.47
702.983	418.06
703.391	458.43
703.799	441.21
704.208	469.15
704.616	453.06
705.024	459.55
705.432	453.35
705.839	451.65
706.247	452.22
706.655	522.73
707.063	458.43
707.47	444.32
707.878	440.93
708.285	443.75
708.693	422.3
709.1	418.91
709.508	444.6
709.915	412.98
710.322	425.4
710.729	530.35
711.136	454.19
711.543	408.46
711.95	437.54
712.357	452.22
712.764	439.52
713.171	411.01
713.578	436.98
713.984	446.01
714.391	428.23
714.797	404.23
715.204	425.97
715.61	456.45
716.017	418.63
716.423	445.16
716.829	423.15
717.236	398.86
717.642	407.33
718.048	450.24
718.454	438.67
718.86	401.4
719.266	496.79
719.671	392.65
720.077	420.89
720.483	432.18
720.889	447.7
721.294	401.4
721.7	417.5
722.105	422.02
722.511	410.16
722.916	464.07
723.321	422.86
723.726	446.29
724.132	381.07
724.537	408.46
724.942	444.88
725.347	420.89
725.752	442.9
726.156	414.11
726.561	412.98
726.966	435
727.371	431.9
727.775	444.32
728.18	406.49
728.584	395.76
728.989	418.91
729.393	492.28
729.798	391.24
730.202	456.17
730.606	412.98
731.01	427.38
731.414	408.75
731.818	400.28
732.222	401.97
732.626	414.11
733.03	407.9
733.434	431.33
733.837	440.36
734.241	421.73
734.645	422.02
735.048	408.18
735.452	394.91
735.855	405.08
736.258	425.12
736.662	446.01
737.065	448.83
737.468	433.31
737.871	432.74
738.274	412.42
738.677	423.15
739.08	401.12
739.483	423.43
739.886	445.16
740.289	442.9
740.691	394.06
741.094	383.05
741.497	430.2
741.899	425.12
742.302	401.12
742.704	399.15
743.106	385.59
743.508	391.8
743.911	397.73
744.313	400.28
744.715	384.74
745.117	389.26
745.519	382.2
745.921	420.04
746.323	412.13
746.724	407.05
747.126	411.57
747.528	437.82
747.929	401.12
748.331	419.48
748.732	392.09
749.134	396.04
749.535	386.44
749.936	409.59
750.338	375.42
750.739	439.52
751.14	407.33
751.541	413.55
751.942	390.96
752.343	401.4
752.744	393.5
753.144	431.05
753.545	425.12
753.946	445.73
754.346	398.3
754.747	439.8
755.148	521.61
755.548	399.99
755.948	396.04
756.349	412.7
756.749	419.48
757.149	399.99
757.549	445.16
757.949	430.49
758.349	420.04
758.749	406.21
759.149	385.59
759.549	398.86
759.949	398.86
760.348	497.92
760.748	393.78
761.148	399.15
761.547	379.94
761.947	392.09
762.346	389.26
762.745	448.27
763.145	403.38
763.544	407.33
763.943	420.6
764.342	377.4
764.741	396.32
765.14	389.26
765.539	416.09
765.938	476.2
766.336	409.31
766.735	382.76
767.134	395.19
767.532	431.61
767.931	400.28
768.329	476.48
768.728	395.47
769.126	399.43
769.525	416.93
769.923	411.57
770.321	417.5
770.719	426.53
771.117	413.83
771.515	397.17
771.913	391.52
772.311	390.39
772.709	397.73
773.106	369.49
773.504	398.58
773.902	405.92
774.299	419.48
774.697	490.02
775.094	412.13
775.491	385.87
775.889	373.16
776.286	357.9
776.683	380.22
777.08	400.56
777.477	385.87
777.874	454.48
778.271	378.25
778.668	395.76
779.065	393.78
779.462	384.74
779.858	407.33
780.255	438.95
780.652	413.55
781.048	426.82
781.444	397.17
781.841	372.88
782.237	403.1
782.633	380.5
783.03	377.12
783.426	379.09
783.822	387
784.218	391.8
784.614	382.48
785.01	394.91
785.405	407.33
785.801	361.86
786.197	375.99
786.593	392.93
786.988	399.15
787.384	419.48
787.779	400.28
788.174	391.24
788.57	401.4
788.965	392.09
789.36	368.36
789.755	386.15
790.15	388.7
790.545	403.38
790.94	358.19
791.335	394.63
791.73	353.38
792.125	434.15
792.52	388.98
792.914	405.64
793.309	398.3
793.703	411.29
794.098	390.67
794.492	414.96
794.887	387.85
795.281	426.25
795.675	426.53
796.069	420.32
796.463	400.56
796.857	362.71
797.251	392.09
797.645	390.67
798.039	421.73
798.433	384.74
798.826	401.12
799.22	409.03
799.614	382.76
800.007	406.49
800.401	388.41
800.794	377.12
801.187	401.12
801.581	382.2
801.974	403.66
802.367	432.46
802.76	382.2
803.153	381.63
803.546	395.76
803.939	384.74
804.332	364.12
804.725	362.99
805.117	381.07
805.51	393.78
805.903	397.73
806.295	387.28
806.688	378.81
807.08	383.61
807.472	403.1
807.865	399.15
808.257	404.79
808.649	405.92
809.041	387.28
809.433	391.52
809.825	389.54
810.217	389.26
810.609	416.93
811.001	404.79
811.392	379.09
811.784	412.42
812.175	405.64
812.567	391.8
812.958	394.91
813.35	392.65
813.741	387.28
814.132	373.73
814.524	416.09
814.915	410.16
815.306	365.25
815.697	388.13
816.088	388.7
816.479	429.92
816.87	403.66
817.26	402.82
817.651	434.44
818.042	411.57
818.432	388.7
818.823	402.53
819.213	379.66
819.604	389.83
819.994	413.55
820.384	392.65
820.775	401.4
821.165	386.15
821.555	359.32
821.945	374.57
822.335	381.92
822.725	388.98
823.114	401.4
823.504	383.89
823.894	364.4
824.284	397.45
824.673	398.86
825.063	396.32
825.452	399.71
825.842	360.45
826.231	466.61
826.62	379.09
827.009	427.66
827.399	404.79
827.788	389.54
828.177	362.71
828.566	414.39
828.954	489.74
829.343	391.8
829.732	379.37
830.121	459.84
830.509	425.12
830.898	400.84
831.286	396.32
831.675	426.82
832.063	420.04
832.452	362.42
832.84	368.36
833.228	428.51
833.616	387.28
834.004	385.87
834.392	396.6
834.78	429.64
835.168	371.47
835.556	441.21
835.944	401.4
836.331	411.01
836.719	424.84
837.107	384.18
837.494	410.44
837.881	382.2
838.269	367.79
838.656	370.62
839.043	388.7
839.431	431.61
839.818	365.25
840.205	378.53
840.592	398.3
840.979	394.91
841.366	379.37
841.752	361.58
842.139	379.66
842.526	391.52
842.912	386.72
843.299	392.09
843.685	389.54
844.072	398.86
844.458	393.21
844.844	387
845.231	366.1
845.617	392.37
846.003	394.34
846.389	377.12
846.775	368.92
847.161	388.98
847.547	349.43
847.933	386.44
848.318	390.67
848.704	363.27
849.09	364.97
849.475	344.91
849.861	385.59
850.246	410.72
850.631	421.45
851.017	426.25
851.402	380.5
851.787	394.34
852.172	416.09
852.557	378.25
852.942	388.13
853.327	365.81
853.712	390.96
854.097	392.37
854.481	371.75
854.866	393.5
855.25	384.46
855.635	394.06
856.019	383.05
856.404	371.75
856.788	380.22
857.172	375.99
857.557	375.14
857.941	396.6
858.325	348.3
858.709	396.6
859.093	359.6
859.477	380.22
859.86	414.96
860.244	392.65
860.628	412.42
861.012	407.33
861.395	387
861.779	405.08
862.162	370.34
862.545	371.47
862.929	414.39
863.312	391.8
863.695	355.36
864.078	408.75
864.461	379.37
864.844	375.42
865.227	416.09
865.61	352.25
865.993	396.6
866.376	376.27
866.758	397.17
867.141	404.51
867.523	414.39
867.906	368.08
868.288	407.05
868.671	379.94
869.053	398.86
869.435	393.5
869.817	433.31
870.199	392.09
870.581	369.21
870.963	367.51
871.345	388.98
871.727	389.26
872.109	364.68
872.491	366.1
872.872	386.44
873.254	391.24
873.635	375.7
874.017	402.25
874.398	372.6
874.779	382.76
875.161	392.93
875.542	403.95
875.923	385.59
876.304	387.28
876.685	368.08
877.066	369.49
877.447	366.38
877.828	392.65
878.208	416.65
878.589	425.97
878.97	416.93
879.35	359.6
879.731	385.59
880.111	377.12
880.491	363.84
880.872	405.36
881.252	394.34
881.632	380.79
882.012	431.61
882.392	403.95
882.772	420.32
883.152	411.01
883.532	373.16
883.912	397.45
884.291	386.44
884.671	363.27
885.051	383.89
885.43	377.12
885.81	395.47
886.189	368.08
886.568	368.64
886.948	378.25
887.327	418.06
887.706	380.79
888.085	398.02
888.464	368.64
888.843	476.48
889.222	379.66
889.601	398.58
889.979	361.01
890.358	402.53
890.737	399.43
891.115	396.6
891.494	398.02
891.872	385.02
892.25	376.55
892.629	404.23
893.007	384.46
893.385	376.83
893.763	362.42
894.141	389.83
894.519	399.43
894.897	369.49
895.275	394.06
895.653	356.77
896.03	414.96
896.408	366.1
896.786	355.64
897.163	388.98
897.541	385.02
897.918	424.84
898.295	360.16
898.673	389.54
899.05	381.07
899.427	552.33
899.804	350.27
900.181	360.73
900.558	433.03
900.935	387.57
901.312	342.36
901.688	336.43
902.065	387
902.442	362.99
902.818	370.05
903.195	372.03
903.571	346.6
903.947	372.6
904.324	355.64
904.7	382.2
905.076	420.89
905.452	367.23
905.828	415.52
906.204	401.4
906.58	381.92
906.956	399.99
907.331	411.01
907.707	401.4
908.083	421.17
908.458	375.14
908.834	379.94
909.209	384.74
909.585	372.03
909.96	365.53
910.335	374.01
910.71	393.5
911.086	347.73
911.461	402.53
911.836	379.09
912.21	355.64
912.585	351.4
912.96	355.93
913.335	377.68
913.709	391.24
914.084	364.97
914.459	402.53
914.833	383.61
915.207	350.56
915.582	388.13
915.956	407.05
916.33	376.55
916.704	374.29
917.078	359.32
917.452	392.93
917.826	373.73
918.2	360.73
918.574	374.01
918.948	403.38
919.321	385.59
919.695	371.47
920.068	392.37
920.442	379.66
920.815	408.75
921.189	371.18
921.562	392.09
921.935	372.03
922.308	362.14
922.681	391.52
923.054	369.77
923.427	414.39
923.8	366.38
924.173	390.67
924.546	371.18
924.919	380.5
925.291	365.81
925.664	372.31
926.036	367.23
926.409	375.99
926.781	402.53
927.153	372.03
927.526	397.17
927.898	348.3
928.27	388.98
928.642	372.03
929.014	410.16
929.386	399.71
929.758	381.92
930.129	354.8
930.501	401.12
930.873	377.4
931.244	358.75
931.616	354.51
931.987	382.76
932.359	407.9
932.73	368.64
933.101	389.26
933.472	393.21
933.843	403.38
934.214	413.83
934.585	367.79
934.956	401.4
935.327	473.1
935.698	398.02
936.069	393.78
936.439	384.74
936.81	346.6
937.18	348.86
937.551	358.75
937.921	424.56
938.292	375.14
938.662	376.55
939.032	387.57
939.402	373.44
939.772	377.12
940.142	366.95
940.512	381.35
940.882	379.09
941.252	400.28
941.621	379.09
941.991	392.37
942.361	382.76
942.73	376.27
943.1	373.73
943.469	363.27
943.838	423.43
944.208	405.92
944.577	348.86
944.946	355.93
945.315	369.77
945.684	388.13
946.053	367.79
946.422	381.07
946.791	370.9
947.159	362.42
947.528	359.88
947.897	387.57
948.265	352.82
948.634	382.48
949.002	342.08
949.371	353.1
949.739	345.75
950.107	370.34
950.475	371.75
950.843	377.96
951.211	400.56
951.579	362.99
951.947	338.69
952.315	376.27
952.683	375.99
953.05	359.03
953.418	400.56
953.785	390.67
954.153	344.06
954.52	380.22
954.888	367.51
955.255	368.64
955.622	357.34
955.989	405.36
956.356	401.12
956.723	376.83
957.09	382.2
957.457	381.63
957.824	375.7
958.191	373.44
958.557	399.43
958.924	363.27
959.291	376.55
959.657	381.07
960.023	448.27
960.39	358.19
960.756	380.22
961.122	359.88
961.488	363.27
961.855	378.53
962.221	357.34
962.586	362.71
962.952	423.71
963.318	401.97
963.684	438.67
964.05	420.32
964.415	397.45
964.781	353.95
965.146	377.96
965.512	395.76
965.877	368.36
966.242	369.21
966.608	366.95
966.973	386.44
967.338	368.64
967.703	395.76
968.068	371.47
968.433	414.39
968.797	435.28
969.162	359.03
969.527	367.23
969.891	371.75
970.256	368.08
970.62	371.18
970.985	372.88
971.349	375.14
971.714	381.63
972.078	359.32
972.442	361.58
972.806	398.3
973.17	351.4
973.534	376.83
973.898	366.95
974.262	349.99
974.625	387
974.989	363.27
975.353	417.5
975.716	376.27
976.08	349.43
976.443	384.74
976.806	375.14
977.17	367.23
977.533	377.68
977.896	369.21
978.259	396.04
978.622	492
978.985	393.78
979.348	378.25
979.711	377.68
980.073	367.79
980.436	383.61
980.799	371.47
981.161	390.39
981.524	374.57
981.886	378.25
982.248	407.62
982.611	368.36
982.973	376.55
983.335	382.2
983.697	363.84
984.059	382.76
984.421	385.87
984.783	347.45
985.145	371.47
985.506	382.2
985.868	402.53
986.23	367.79
986.591	355.08
986.953	388.98
987.314	380.5
987.675	364.12
988.037	4126.23
988.398	474.79
988.759	379.09
989.12	371.18
989.481	376.27
989.842	382.48
990.203	356.21
990.564	375.14
990.924	368.92
991.285	3838.71
991.646	454.19
992.006	332.75
992.367	374.29
992.727	381.92
993.087	359.88
993.448	381.63
993.808	381.63
994.168	358.47
994.528	364.4
994.888	388.7
995.248	355.08
995.608	374.01
995.967	373.16
996.327	366.1
996.687	363.55
997.046	348.58
997.406	345.47
997.765	341.8
998.125	371.47
998.484	369.49
998.843	405.08
999.202	387.85
999.561	348.01
999.92	370.62
1000.279	373.73
1000.638	361.01
1000.997	364.4
1001.356	367.79
1001.715	368.08
1002.073	368.08
1002.432	388.98
1002.79	373.73
1003.149	333.32
1003.507	384.18
1003.865	365.81
1004.224	351.12
1004.582	392.37
1004.94	372.6
1005.298	351.69
1005.656	360.16
1006.014	390.11
1006.371	374.86
1006.729	357.62
1007.087	410.72
1007.445	364.4
1007.802	386.44
1008.16	341.8
1008.517	396.6
1008.874	381.35
1009.232	389.54
1009.589	387.28
1009.946	375.42
1010.303	357.9
1010.66	385.31
1011.017	366.95
1011.374	424.56
1011.731	387.57
1012.087	361.29
1012.444	358.47
1012.801	398.3
1013.157	324.27
1013.513	372.31
1013.87	355.93
1014.226	361.58
1014.582	356.21
1014.939	349.43
1015.295	369.77
1015.651	377.96
1016.007	345.19
1016.363	385.87
1016.719	363.84
1017.074	373.16
1017.43	352.82
1017.786	391.8
1018.141	381.35
1018.497	361.86
1018.852	390.39
1019.208	372.31
1019.563	364.97
1019.918	351.97
1020.273	389.26
1020.628	361.58
1020.983	390.11
1021.338	364.12
1021.693	364.4
1022.048	346.88
1022.403	349.43
1022.757	385.59
1023.112	363.55
1023.467	356.21
1023.821	362.99
1024.175	356.77
1024.53	331.62
1024.884	366.38
1025.238	377.68
1025.592	390.67
1025.946	368.64
1026.3	356.49
1026.654	347.73
1027.008	374.57
1027.362	355.08
1027.716	359.88
1028.069	366.66
1028.423	367.79
1028.777	389.54
1029.13	358.47
1029.483	382.48
1029.837	425.12
1030.19	362.14
1030.543	363.55
1030.896	357.9
1031.249	374.01
1031.602	363.27
1031.955	364.4
1032.308	364.12
1032.661	406.21
1033.013	388.7
1033.366	346.04
1033.719	366.66
1034.071	368.64
1034.424	347.45
1034.776	364.12
1035.128	360.16
1035.48	362.99
1035.833	383.61
1036.185	386.15
1036.537	386.15
1036.889	386.15
