Data from SCSF78-405_irradiation_FLMS019251_05-55-50-497.txt Node
Date: Fri Feb 22 05:55:50 PST 2019
User: mu3e
Spectrometer: FLMS01925
Trigger mode: 0
Integration Time (sec): 3.659600E-1
Scans to average: 10
Electric dark correction enabled: true
Nonlinearity correction enabled: true
Boxcar width: 0
XAxis mode: Wavelengths
Number of Pixels in Spectrum: 2048
>>>>>Begin Spectral Data<<<<<
187.103	-128.6
187.574	-128.6
188.045	-128.6
188.516	-180.39
188.987	-85.67
189.458	-105.85
189.929	-144.25
190.4	-121.78
190.871	-112.68
191.342	-83.4
191.813	-87.94
192.284	-5.27
192.754	-27.42
193.225	12.62
193.696	17.16
194.166	26.24
194.637	63.41
195.107	129.2
195.578	147.9
196.048	148.47
196.518	142.52
196.989	158.38
197.459	208.51
197.929	234.55
198.399	312.35
198.869	289.16
199.339	330.72
199.809	329.59
200.279	351.07
200.749	339.2
201.219	360.39
201.689	364.35
202.159	374.8
202.628	388.64
203.098	417.16
203.568	378.47
204.037	413.21
204.507	415.47
204.976	427.89
205.445	409.82
205.915	395.7
206.384	389.77
206.853	376.5
207.323	425.07
207.792	397.12
208.261	376.5
208.73	395.99
209.199	396.27
209.668	410.11
210.137	414.91
210.606	387.23
211.075	403.33
211.543	419.42
212.012	403.05
212.481	370.56
212.95	381.86
213.418	379.89
213.887	401.35
214.355	417.73
214.824	372.26
215.292	377.06
215.76	344.57
216.229	366.04
216.697	362.37
217.165	368.3
217.633	355.31
218.101	375.65
218.569	467.68
219.037	384.41
219.505	425.63
219.973	392.31
220.441	359.55
220.909	356.44
221.377	359.83
221.844	396.55
222.312	355.87
222.78	372.82
223.247	384.41
223.715	338.35
224.182	384.97
224.65	365.76
225.117	403.05
225.584	370
226.052	372.54
226.519	371.69
226.986	369.43
227.453	360.96
227.92	371.69
228.387	411.52
228.854	370.56
229.321	355.03
229.788	378.76
230.255	406.43
230.722	391.47
231.189	363.5
231.655	357.85
232.122	366.33
232.589	355.31
233.055	359.83
233.522	399.09
233.988	357.57
234.454	373.11
234.921	381.3
235.387	421.12
235.853	384.41
236.32	361.52
236.786	381.02
237.252	363.78
237.718	427.89
238.184	401.63
238.65	391.75
239.116	373.95
239.582	387.23
240.047	369.43
240.513	383.28
240.979	413.21
241.445	367.74
241.91	371.13
242.376	339.2
242.841	374.8
243.307	359.55
243.772	369.43
244.238	389.77
244.703	372.54
245.168	355.03
245.633	380.45
246.099	368.3
246.564	376.78
247.029	395.42
247.494	399.66
247.959	415.47
248.424	394.57
248.889	365.76
249.353	395.14
249.818	375.93
250.283	381.02
250.748	366.89
251.212	393.16
251.677	348.53
252.141	362.37
252.606	379.6
253.07	373.11
253.535	368.02
253.999	350.5
254.463	381.58
254.927	351.35
255.392	401.35
255.856	375.37
256.32	377.63
256.784	364.63
257.248	379.32
257.712	402.48
258.176	460.07
258.64	391.18
259.103	371.13
259.567	373.95
260.031	381.86
260.495	396.55
260.958	420.83
261.422	373.11
261.885	366.89
262.349	386.95
262.812	370
263.275	374.24
263.739	416.88
264.202	377.06
264.665	414.62
265.128	412.65
265.591	390.9
266.054	386.95
266.517	412.65
266.98	393.73
267.443	409.54
267.906	379.6
268.369	400.5
268.832	398.81
269.294	377.63
269.757	414.34
270.22	366.33
270.682	399.37
271.145	403.33
271.607	414.91
272.07	461.76
272.532	379.04
272.994	395.7
273.456	422.53
273.919	445.11
274.381	391.18
274.843	422.25
275.305	421.12
275.767	366.33
276.229	406.15
276.691	410.67
277.153	353.05
277.614	417.45
278.076	383.28
278.538	408.98
279	379.6
279.461	413.21
279.923	498.43
280.384	391.75
280.846	385.54
281.307	403.61
281.769	402.2
282.23	415.47
282.691	401.07
283.152	403.33
283.613	366.33
284.075	396.55
284.536	393.16
284.997	405.87
285.458	408.13
285.918	407.28
286.379	416.03
286.84	458.94
287.301	365.76
287.762	371.69
288.222	384.41
288.683	408.98
289.143	380.73
289.604	392.6
290.064	400.22
290.525	383.84
290.985	477.28
291.445	418.01
291.906	386.67
292.366	393.73
292.826	387.23
293.286	416.32
293.746	412.93
294.206	440.59
294.666	416.32
295.126	427.61
295.586	387.23
296.046	396.55
296.506	398.81
296.965	393.73
297.425	388.36
297.884	426.76
298.344	410.67
298.804	421.12
299.263	401.07
299.722	404.74
300.182	440.88
300.641	409.26
301.1	363.22
301.559	412.08
302.019	395.42
302.478	402.76
302.937	400.22
303.396	405.3
303.855	514.5
304.314	413.78
304.772	572.57
305.231	380.73
305.69	398.53
306.149	423.09
306.607	399.94
307.066	421.68
307.524	419.99
307.983	422.81
308.441	415.75
308.9	447.93
309.358	413.21
309.816	488.84
310.275	405.59
310.733	379.89
311.191	421.12
311.649	420.83
312.107	444.26
312.565	383.56
313.023	407.28
313.481	395.14
313.939	383.56
314.397	411.8
314.854	397.4
315.312	412.93
315.77	423.09
316.227	384.12
316.685	414.06
317.142	415.19
317.6	418.86
318.057	436.92
318.514	421.68
318.972	387.8
319.429	438.34
319.886	430.71
320.343	405.02
320.8	377.34
321.257	406.15
321.714	458.09
322.171	445.11
322.628	391.18
323.085	397.68
323.542	411.23
323.998	386.38
324.455	389.21
324.912	398.25
325.368	407.85
325.825	456.4
326.281	399.66
326.738	407.28
327.194	392.6
327.65	412.65
328.107	395.7
328.563	402.48
329.019	422.53
329.475	434.67
329.931	404.46
330.387	451.04
330.843	397.68
331.299	420.55
331.755	429.87
332.211	423.09
332.666	414.91
333.122	388.64
333.578	433.25
334.033	394.01
334.489	428.74
334.944	430.43
335.4	472.76
335.855	434.95
336.31	404.74
336.766	425.92
337.221	436.64
337.676	417.45
338.131	460.63
338.586	426.76
339.041	388.93
339.496	428.17
339.951	411.52
340.406	406.43
340.861	394.57
341.316	427.89
341.771	418.29
342.225	407.85
342.68	448.5
343.134	402.76
343.589	429.87
344.043	392.6
344.498	413.49
344.952	444.54
345.406	613.41
345.861	384.12
346.315	403.61
346.769	419.14
347.223	414.06
347.677	420.55
348.131	403.61
348.585	391.18
349.039	426.76
349.493	417.16
349.947	408.41
350.401	398.25
350.854	385.54
351.308	473.89
351.762	407.28
352.215	472.48
352.669	401.35
353.122	382.71
353.575	399.94
354.029	437.21
354.482	401.07
354.935	445.11
355.388	408.13
355.842	429.87
356.295	407
356.748	405.3
357.201	390.34
357.654	443.98
358.106	386.67
358.559	403.61
359.012	439.46
359.465	398.25
359.917	429.59
360.37	378.76
360.823	415.75
361.275	437.21
361.728	414.06
362.18	398.25
362.632	413.78
363.085	427.33
363.537	395.7
363.989	403.05
364.441	390.06
364.893	444.54
365.345	382.71
365.797	389.21
366.249	453.86
366.701	425.35
367.153	414.06
367.605	417.73
368.057	419.7
368.508	413.78
368.96	433.25
369.411	419.42
369.863	443.98
370.314	430.71
370.766	439.46
371.217	426.76
371.669	431.28
372.12	481.79
372.571	436.36
373.022	403.61
373.473	413.78
373.924	447.37
374.375	447.93
374.826	425.63
375.277	425.35
375.728	396.27
376.179	438.62
376.63	425.63
377.08	429.3
377.531	386.38
377.981	395.99
378.432	457.24
378.883	459.5
379.333	413.21
379.783	418.29
380.234	414.91
380.684	413.21
381.134	429.02
381.584	460.91
382.034	460.91
382.485	421.96
382.935	449.06
383.385	466.84
383.834	426.76
384.284	435.8
384.734	441.16
385.184	419.14
385.634	410.39
386.083	431.56
386.533	424.5
386.982	435.23
387.432	443.13
387.881	406.43
388.331	426.2
388.78	446.52
389.229	435.23
389.679	421.96
390.128	448.5
390.577	450.19
391.026	456.4
391.475	418.29
391.924	435.23
392.373	418.29
392.822	425.35
393.27	403.05
393.719	439.75
394.168	424.5
394.617	454.99
395.065	411.52
395.514	459.22
395.962	450.75
396.411	429.02
396.859	436.08
397.307	469.09
397.756	464.86
398.204	450.75
398.652	464.86
399.1	462.04
399.548	449.91
399.996	516.48
400.444	472.48
400.892	459.78
401.34	460.07
401.788	451.6
402.236	422.25
402.683	465.14
403.131	491.94
403.579	494.76
404.026	439.18
404.474	447.93
404.921	464.86
405.369	452.73
405.816	476.99
406.263	483.48
406.71	493.64
407.158	488.84
407.605	467.97
408.052	522.96
408.499	523.81
408.946	483.48
409.393	514.22
409.84	516.48
410.286	537.9
410.733	557.63
411.18	569.75
411.626	622.14
412.073	648.88
412.52	683.49
412.966	854.63
413.413	943.27
413.859	1107.67
414.305	1354.58
414.752	1649.06
415.198	1941.33
415.644	2489.44
416.09	3033.91
416.536	3634.09
416.982	4342.3
417.428	5241.75
417.874	6157.71
418.32	7222.35
418.766	8247.69
419.211	9652.13
419.657	10813.38
420.103	12368.06
420.548	13488.58
420.994	15197.81
421.439	16663.14
421.885	18136.23
422.33	19973.07
422.776	21455.83
423.221	22840.19
423.666	24488.39
424.111	26183.34
424.556	27269.47
425.001	29069.52
425.446	30691.9
425.891	32136.71
426.336	33098.52
426.781	34527.28
427.226	36615.82
427.671	37134.13
428.115	38032.17
428.56	39613.49
429.005	41170.2
429.449	41309.98
429.894	42567.94
430.338	43593.17
430.782	43251.84
431.227	44658.37
431.671	44768.35
432.115	46138.3
432.559	47003.61
433.003	46340.25
433.447	47233.11
433.891	47221.37
434.335	47465.84
434.779	48077.28
435.223	48114.81
435.667	48086.27
436.111	48388.5
436.554	48201.76
436.998	47705.42
437.442	47668.78
437.885	49802.29
438.328	47897.23
438.772	48388.76
439.215	48858.53
439.659	48275.91
440.102	48689.28
440.545	48184.01
440.988	47912.88
441.431	48730.4
441.874	48307.84
442.317	48559.05
442.76	47972.96
443.203	47375.86
443.646	48167.28
444.089	47762.31
444.531	48312.48
444.974	47058.65
445.417	48117.9
445.859	47314.55
446.302	48494
446.744	47693.89
447.186	49024.18
447.629	48043.61
448.071	48046.43
448.513	48254.79
448.956	49664.19
449.398	48740.23
449.84	47709.26
450.282	48315.83
450.724	48883.4
451.166	48677.65
451.607	48651.8
452.049	48623.11
452.491	49977.87
452.933	49550.85
453.374	50266.19
453.816	50857.61
454.257	50425.67
454.699	51714.65
455.14	51258.64
455.582	51004.32
456.023	51239.68
456.464	51305.4
456.905	52071.49
457.347	52198.08
457.788	51010.98
458.229	51418.04
458.67	52525.01
459.111	50513.33
459.552	50715.72
459.992	50660.11
460.433	50418.81
460.874	49375.64
461.315	50747.52
461.755	49758.06
462.196	49345.69
462.636	48659.81
463.077	48293.93
463.517	48506.39
463.957	48934.19
464.398	48543.56
464.838	48556.47
465.278	47534.64
465.718	47861.05
466.158	46626.3
466.598	47243.06
467.038	46875.01
467.478	47490.13
467.918	47588.64
468.358	46978.9
468.798	46820.55
469.237	46649.68
469.677	46599.63
470.117	47576.1
470.556	44802.76
470.996	45457.85
471.435	45750.85
471.874	46439.94
472.314	46276.87
472.753	45285.98
473.192	45506.77
473.631	45290.51
474.07	45429.11
474.509	45604.16
474.948	45988.21
475.387	45447.77
475.826	44288.98
476.265	46229.99
476.704	45883.26
477.143	46211.24
477.581	45900.71
478.02	46730.26
478.458	45160.83
478.897	46016.04
479.335	47337.03
479.774	46810.88
480.212	47332.69
480.65	47083.63
481.089	46830.73
481.527	46326.56
481.965	45802.13
482.403	48278.74
482.841	47865.41
483.279	48076.76
483.717	47925.72
484.155	47555.62
484.592	48057.74
485.03	48328.45
485.468	47274.72
485.905	47567.14
486.343	48035.39
486.781	47304.59
487.218	46668.49
487.655	46781.37
488.093	45777.88
488.53	47380.72
488.967	46644.6
489.405	46314.39
489.842	45471.97
490.279	45431.88
490.716	45159.07
491.153	45589.02
491.59	44849.24
492.027	44176.52
492.463	43707.56
492.9	42944.62
493.337	42842.81
493.773	43014.6
494.21	42118.84
494.647	41745.84
495.083	41026.28
495.519	40600.35
495.956	40675.41
496.392	40120.25
496.828	39861.73
497.265	38955.75
497.701	39134.71
498.137	38844.92
498.573	37880.63
499.009	38487.09
499.445	37437.06
499.881	37049.18
500.316	37279.33
500.752	36232.63
501.188	36120.43
501.624	36095.74
502.059	34582.91
502.495	34371.85
502.93	34356.97
503.366	35093.75
503.801	33800.57
504.236	33487.2
504.672	33067.07
505.107	32811.31
505.542	32179.86
505.977	32047.47
506.412	31511.32
506.847	31997.98
507.282	31281.62
507.717	30989.46
508.152	30802.88
508.587	30666.28
509.021	29770.05
509.456	29564.26
509.891	29639.45
510.325	29594.54
510.76	29062.43
511.194	28836.95
511.628	28931.99
512.063	28091.66
512.497	28408.53
512.931	27640.07
513.366	27417.59
513.8	27439.13
514.234	26765.12
514.668	26801.14
515.102	27039.51
515.536	26156.11
515.969	26345.45
516.403	25821.42
516.837	25220.46
517.271	25462.44
517.704	24907.3
518.138	24825.66
518.571	24612.89
519.005	24172.8
519.438	24039.81
519.871	23893.72
520.305	23515.11
520.738	23203.06
521.171	22768.32
521.604	22894.02
522.037	22659.63
522.47	22255.02
522.903	21777.27
523.336	21785.68
523.769	21607.42
524.202	20904.53
524.634	20977.2
525.067	20754.43
525.5	20527.32
525.932	20326.43
526.365	19980.77
526.797	19823.38
527.23	19720.66
527.662	19106.52
528.094	18980.94
528.527	18920.38
528.959	18601.22
529.391	18289.79
529.823	17691.68
530.255	17754.43
530.687	17295.67
531.119	17119.68
531.551	17100.14
531.982	16655.12
532.414	16499.13
532.846	16244.43
533.277	15924.23
533.709	15520.22
534.14	15468.64
534.572	15405.74
535.003	15124.53
535.435	14839.29
535.866	14646.39
536.297	14263.74
536.728	14319.8
537.159	14086.89
537.59	13844.93
538.022	13733.12
538.452	13477.18
538.883	13152.81
539.314	13109.95
539.745	12813.81
540.176	12642.62
540.606	12269.09
541.037	12379.25
541.468	12048.87
541.898	12026.71
542.328	11967.35
542.759	11649.4
543.189	11562.37
543.619	11406.6
544.05	11168.14
544.48	10965.5
544.91	10984.69
545.34	10740.1
545.77	10631.15
546.2	10469.03
546.63	10359.92
547.06	10314.47
547.489	10090.87
547.919	9817.3
548.349	9792.32
548.778	9808.03
549.208	9588.95
549.637	9371.66
550.067	9272.99
550.496	9284.87
550.926	9163.39
551.355	8909.8
551.784	8914.46
552.213	8704.29
552.642	8645.15
553.071	8582.62
553.5	8429.93
553.929	8117.05
554.358	8211.53
554.787	8021.98
555.216	8023.81
555.645	7891.13
556.073	7745.53
556.502	7679.72
556.93	7379.52
557.359	7413.03
557.787	7420.36
558.216	7321.13
558.644	7226.02
559.072	7137.66
559.5	7039.78
559.929	7045.56
560.357	7027.71
560.785	6914.77
561.213	6886.92
561.641	6783.06
562.068	6835.13
562.496	6682.27
562.924	6575.59
563.352	6586.4
563.779	6554.77
564.207	6519.45
564.634	6480.96
565.062	6378.59
565.489	6337.93
565.917	6286.43
566.344	6183.63
566.771	6188.91
567.198	6125.44
567.625	6035.2
568.053	5871.72
568.48	5911.22
568.907	5837.52
569.333	5771.98
569.76	5548.56
570.187	5682.25
570.614	5529.14
571.04	11401.49
571.467	5487.38
571.894	5292.68
572.32	5144.88
572.747	5036.16
573.173	4996.33
573.599	4923.31
574.026	4828.81
574.452	4781.66
574.878	4696.42
575.304	4586.13
575.73	4547.19
576.156	4414.95
576.582	4434.05
577.008	4332.88
577.434	4216.78
577.86	4144.79
578.285	4137.51
578.711	4039.26
579.137	3990.64
579.562	3887.64
579.988	3915.49
580.413	3808.34
580.838	3744.7
581.264	3709.74
581.689	3640.6
582.114	3605.06
582.539	4037.64
582.964	3522.81
583.39	3488.03
583.814	3400.23
584.239	3329.76
584.664	3286.74
585.089	3207.45
585.514	3234.16
585.939	3193.28
586.363	3092.62
586.788	3085.25
587.212	3035.55
587.637	2987.2
588.061	2994.57
588.485	2882.74
588.91	2859.75
589.334	2816.22
589.758	2823.34
590.182	2751.57
590.606	2690.71
591.03	2688.79
591.454	2620.74
591.878	2585.88
592.302	2595.76
592.726	2592.74
593.15	2493.56
593.573	2438.01
593.997	2469.92
594.42	2340.02
594.844	2383.8
595.267	2347.46
595.691	2307.24
596.114	2278.3
596.537	2227.02
596.96	2232.54
597.384	2223.71
597.807	2167.7
598.23	2151.97
598.653	2155.28
599.076	2147.27
599.499	2120.77
599.921	2106.68
600.344	2066.62
600.767	2074.36
601.189	2043.68
601.612	2012.99
602.034	1999.99
602.457	1989.48
602.879	2135.4
603.302	1979.24
603.724	1962.92
604.146	1938.29
604.568	1917.25
604.991	1987.54
605.413	1921.68
605.835	1923.34
606.257	1879.03
606.678	1894.82
607.1	1884.02
607.522	1941.33
607.944	1906.45
608.365	1873.21
608.787	1819.18
609.209	1836.08
609.63	1772.87
610.051	1780.08
610.473	1787.84
610.894	1730.7
611.315	1708.77
611.737	1694.61
612.158	1637.11
612.579	1634.34
613	1705.71
613.421	1579.86
613.842	1612.94
614.263	1557.61
614.683	1552.32
615.104	1542.87
615.525	1545.09
615.945	1499.73
616.366	1457.14
616.787	1468.55
617.207	1423.71
617.627	1422.87
618.048	1372.15
618.468	1366.85
618.888	1361.27
619.308	1313.02
619.728	1323.9
620.148	1246.86
620.568	1315.25
620.988	1328.92
621.408	1242.12
621.828	1234.02
622.248	1230.11
622.668	1270.88
623.087	1228.15
623.507	1185.12
623.926	1182.33
624.346	1178.7
624.765	1178.42
625.185	1140.95
625.604	1112.15
626.023	1122.5
626.442	1087.8
626.861	1133.12
627.28	1105.43
627.699	1069.61
628.118	1094.52
628.537	1068.49
628.956	1070.73
629.375	1052.26
629.794	1008.01
630.212	1014.73
630.631	1068.77
631.049	987.56
631.468	996.8
631.886	982.51
632.305	1019.49
632.723	946.08
633.141	941.03
633.559	947.76
633.978	923.93
634.396	947.48
634.814	944.11
635.232	931.78
635.65	920.56
636.067	918.6
636.485	876.52
636.903	882.69
637.321	892.51
637.738	906.54
638.156	879.6
638.573	857.43
638.991	894.76
639.408	903.73
639.825	845.64
640.243	889.99
640.66	846.49
641.077	812.23
641.494	836.38
641.911	829.92
642.328	796.5
642.745	816.72
643.162	799.59
643.579	788.35
643.995	780.49
644.412	829.08
644.829	755.48
645.245	783.86
645.662	724.84
646.078	747.33
646.495	711.9
646.911	748.45
647.327	758.01
647.743	734.96
648.159	748.73
648.576	714.43
648.992	744.23
649.408	707.4
649.824	717.81
650.239	727.08
650.655	706.28
651.071	701.21
651.487	705.99
651.902	677.86
652.318	670.55
652.733	666.33
653.149	655.63
653.564	683.21
653.979	645.5
654.395	651.98
654.81	656.76
655.225	649.44
655.64	657.04
656.055	647.47
656.47	654.23
656.885	624.95
657.3	630.86
657.715	691.65
658.13	648.32
658.544	660.7
658.959	622.7
659.374	633.68
659.788	630.02
660.202	590.88
660.617	650.01
661.031	594.82
661.445	620.17
661.86	589.19
662.274	636.49
662.688	633.68
663.102	591.72
663.516	621.29
663.93	593.98
664.344	612.56
664.758	576.51
665.171	574.54
665.585	595.38
665.999	596.79
666.412	584.12
666.826	591.44
667.239	598.2
667.653	575.38
668.066	544.67
668.479	594.54
668.892	552.56
669.306	542.41
669.719	562.99
670.132	571.72
670.545	568.06
670.958	564.68
671.37	542.13
671.783	538.75
672.196	575.67
672.609	557.35
673.021	536.21
673.434	535.37
673.846	527.76
674.259	530.57
674.671	535.65
675.084	520.14
675.496	509.43
675.908	516.76
676.32	513.09
676.732	536.78
677.144	534.24
677.556	527.19
677.968	498.43
678.38	523.53
678.792	524.09
679.204	490.82
679.615	547.49
680.027	507.74
680.439	510.27
680.85	528.04
681.262	542.98
681.673	514.5
682.084	516.48
682.496	518.17
682.907	518.17
683.318	499.84
683.729	524.37
684.14	470.22
684.551	504.07
684.962	486.02
685.373	478.12
685.784	511.4
686.194	482.92
686.605	473.33
687.016	506.04
687.426	504.35
687.837	470.79
688.247	487.71
688.657	462.32
689.068	480.1
689.478	467.4
689.888	445.96
690.298	498.43
690.708	475.3
691.118	461.19
691.528	473.89
691.938	469.66
692.348	462.32
692.758	488.56
693.168	473.89
693.577	485.46
693.987	462.04
694.396	467.12
694.806	460.91
695.215	443.13
695.625	475.87
696.034	493.92
696.443	435.51
696.852	487.15
697.262	483.2
697.671	477.56
698.08	465.71
698.489	460.91
698.897	430.43
699.306	429.59
699.715	430.43
700.124	467.12
700.532	445.96
700.941	459.22
701.35	453.58
701.758	474.45
702.166	421.12
702.575	444.54
702.983	432.69
703.391	454.7
703.799	455.55
704.208	459.5
704.616	438.62
705.024	474.74
705.432	457.81
705.839	429.3
706.247	484.05
706.655	509.71
707.063	449.06
707.47	439.18
707.878	440.88
708.285	436.08
708.693	424.79
709.1	441.16
709.508	429.3
709.915	416.32
710.322	443.42
710.729	525.5
711.136	429.59
711.543	440.03
711.95	434.95
712.357	414.91
712.764	442.57
713.171	458.94
713.578	405.3
713.984	427.61
714.391	425.92
714.797	402.48
715.204	438.05
715.61	447.37
716.017	407.85
716.423	445.96
716.829	427.61
717.236	432.69
717.642	405.3
718.048	437.49
718.454	431
718.86	421.96
719.266	503.22
719.671	413.78
720.077	430.15
720.483	419.7
720.889	447.65
721.294	424.79
721.7	433.54
722.105	419.42
722.511	386.38
722.916	461.76
723.321	414.34
723.726	456.4
724.132	429.59
724.537	422.53
724.942	416.6
725.347	424.79
725.752	442.85
726.156	424.22
726.561	419.14
726.966	425.63
727.371	426.48
727.775	455.55
728.18	417.73
728.584	409.82
728.989	406.43
729.393	511.12
729.798	419.14
730.202	461.19
730.606	427.89
731.01	408.41
731.414	403.89
731.818	414.06
732.222	447.93
732.626	402.2
733.03	414.62
733.434	417.16
733.837	427.33
734.241	398.53
734.645	399.37
735.048	404.74
735.452	436.64
735.855	398.53
736.258	393.16
736.662	449.34
737.065	461.48
737.468	423.94
737.871	397.12
738.274	418.86
738.677	398.53
739.08	402.76
739.483	423.37
739.886	441.16
740.289	445.96
740.691	421.12
741.094	384.69
741.497	427.61
741.899	444.54
742.302	413.21
742.704	391.75
743.106	421.12
743.508	413.78
743.911	401.63
744.313	408.69
744.715	404.18
745.117	393.44
745.519	396.27
745.921	396.83
746.323	416.03
746.724	399.66
747.126	383.28
747.528	440.03
747.929	372.26
748.331	414.62
748.732	378.76
749.134	377.06
749.535	399.94
749.936	450.75
750.338	392.31
750.739	443.13
751.14	402.48
751.541	393.44
751.942	408.13
752.343	411.8
752.744	402.48
753.144	402.76
753.545	397.12
753.946	407
754.346	386.38
754.747	439.46
755.148	497.02
755.548	379.6
755.948	410.11
756.349	435.23
756.749	409.82
757.149	381.58
757.549	452.16
757.949	408.13
758.349	388.64
758.749	387.23
759.149	393.73
759.549	391.75
759.949	419.99
760.348	460.91
760.748	397.68
761.148	415.47
761.547	391.47
761.947	403.05
762.346	395.42
762.745	460.91
763.145	368.3
763.544	407.28
763.943	413.78
764.342	361.52
764.741	379.6
765.14	369.15
765.539	339.77
765.938	470.22
766.336	393.16
766.735	379.6
767.134	383.28
767.532	377.91
767.931	382.15
768.329	467.97
768.728	395.99
769.126	401.63
769.525	428.46
769.923	402.2
770.321	388.64
770.719	434.67
771.117	427.33
771.515	436.08
771.913	415.47
772.311	413.49
772.709	404.74
773.106	368.3
773.504	412.93
773.902	425.92
774.299	441.44
774.697	504.63
775.094	411.52
775.491	413.78
775.889	390.9
776.286	385.82
776.683	386.1
777.08	368.3
777.477	409.54
777.874	410.95
778.271	396.55
778.668	403.33
779.065	412.93
779.462	381.3
779.858	374.24
780.255	448.5
780.652	420.27
781.048	456.12
781.444	366.89
781.841	383.28
782.237	418.58
782.633	390.62
783.03	363.5
783.426	388.93
783.822	390.62
784.218	376.78
784.614	374.24
785.01	372.54
785.405	397.68
785.801	388.08
786.197	400.5
786.593	386.38
786.988	394.29
787.384	425.35
787.779	384.41
788.174	411.23
788.57	413.21
788.965	380.17
789.36	385.82
789.755	380.17
790.15	399.09
790.545	383.84
790.94	385.54
791.335	377.34
791.73	379.04
792.125	432.97
792.52	397.12
792.914	390.62
793.309	358.7
793.703	418.58
794.098	387.51
794.492	396.83
794.887	416.03
795.281	432.13
795.675	417.45
796.069	452.45
796.463	430.15
796.857	340.61
797.251	403.61
797.645	397.4
798.039	357
798.433	384.97
798.826	373.11
799.22	395.7
799.614	369.15
800.007	404.18
800.401	386.1
800.794	363.78
801.187	378.47
801.581	409.26
801.974	416.6
802.367	419.7
802.76	379.89
803.153	355.59
803.546	379.89
803.939	401.07
804.332	383.84
804.725	375.93
805.117	398.53
805.51	411.8
805.903	374.8
806.295	386.95
806.688	379.6
807.08	381.86
807.472	405.59
807.865	404.18
808.257	380.73
808.649	419.7
809.041	380.17
809.433	418.29
809.825	382.15
810.217	386.95
810.609	365.2
811.001	407.85
811.392	375.65
811.784	415.75
812.175	403.61
812.567	388.93
812.958	412.93
813.35	392.6
813.741	381.02
814.132	400.79
814.524	360.96
814.915	381.02
815.306	392.6
815.697	378.19
816.088	383.56
816.479	407.56
816.87	411.8
817.26	431.56
817.651	454.99
818.042	410.95
818.432	356.72
818.823	414.62
819.213	413.49
819.604	384.41
819.994	390.34
820.384	347.11
820.775	386.67
821.165	378.76
821.555	373.39
821.945	393.44
822.335	386.38
822.725	403.05
823.114	397.68
823.504	388.08
823.894	408.13
824.284	379.89
824.673	382.15
825.063	385.54
825.452	374.8
825.842	376.78
826.231	453.01
826.62	374.8
827.009	408.69
827.399	403.61
827.788	373.67
828.177	408.41
828.566	395.99
828.954	482.07
829.343	390.9
829.732	366.89
830.121	438.05
830.509	448.5
830.898	370.85
831.286	390.06
831.675	361.81
832.063	405.02
832.452	387.51
832.84	338.07
833.228	394.01
833.616	402.2
834.004	392.6
834.392	379.89
834.78	434.67
835.168	388.08
835.556	425.07
835.944	408.13
836.331	414.06
836.719	424.5
837.107	386.1
837.494	397.68
837.881	370.56
838.269	382.15
838.656	376.21
839.043	368.87
839.431	454.7
839.818	393.16
840.205	370.85
840.592	401.92
840.979	377.06
841.366	389.77
841.752	383.28
842.139	407.85
842.526	377.63
842.912	412.36
843.299	355.59
843.685	388.64
844.072	370
844.458	386.38
844.844	408.41
845.231	378.47
845.617	370
846.003	389.21
846.389	374.8
846.775	359.83
847.161	417.45
847.547	380.73
847.933	381.58
848.318	385.82
848.704	361.24
849.09	355.59
849.475	375.37
849.861	400.79
850.246	360.96
850.631	401.35
851.017	394.57
851.402	376.5
851.787	404.18
852.172	432.41
852.557	386.95
852.942	386.67
853.327	380.17
853.712	406.15
854.097	393.16
854.481	367.74
854.866	382.15
855.25	382.43
855.635	403.33
856.019	370.28
856.404	384.41
856.788	366.04
857.172	386.1
857.557	392.03
857.941	385.54
858.325	363.78
858.709	386.67
859.093	368.87
859.477	388.08
859.86	400.79
860.244	401.63
860.628	445.11
861.012	404.18
861.395	365.48
861.779	390.62
862.162	349.66
862.545	370.28
862.929	394.29
863.312	411.52
863.695	381.3
864.078	394.86
864.461	369.43
864.844	411.52
865.227	410.11
865.61	363.22
865.993	401.35
866.376	365.2
866.758	408.13
867.141	415.47
867.523	421.12
867.906	377.91
868.288	379.6
868.671	398.81
869.053	377.34
869.435	389.21
869.817	402.76
870.199	373.11
870.581	381.58
870.963	394.57
871.345	384.97
871.727	401.35
872.109	358.98
872.491	372.82
872.872	414.34
873.254	379.89
873.635	368.87
874.017	432.13
874.398	389.77
874.779	389.49
875.161	391.18
875.542	412.93
875.923	382.99
876.304	374.8
876.685	396.83
877.066	408.69
877.447	382.43
877.828	364.35
878.208	385.25
878.589	396.83
878.97	429.59
879.35	362.94
879.731	356.44
880.111	384.12
880.491	351.35
880.872	377.06
881.252	357
881.632	380.73
882.012	397.68
882.392	429.59
882.772	407
883.152	369.15
883.532	390.62
883.912	388.08
884.291	367.46
884.671	375.65
885.051	351.63
885.43	372.54
885.81	391.18
886.189	390.62
886.568	382.15
886.948	395.14
887.327	394.57
887.706	376.5
888.085	412.08
888.464	388.93
888.843	467.4
889.222	404.74
889.601	382.99
889.979	366.04
890.358	357.85
890.737	379.89
891.115	404.18
891.494	380.45
891.872	367.17
892.25	361.81
892.629	401.07
893.007	422.25
893.385	379.89
893.763	374.52
894.141	364.63
894.519	392.6
894.897	380.73
895.275	405.59
895.653	347.96
896.03	383.56
896.408	397.12
896.786	371.69
897.163	360.39
897.541	391.47
897.918	430.71
898.295	366.89
898.673	362.09
899.05	377.63
899.427	529.45
899.804	379.6
900.181	395.14
900.558	398.25
900.935	405.87
901.312	362.37
901.688	357.57
902.065	408.98
902.442	363.22
902.818	388.93
903.195	353.61
903.571	365.2
903.947	372.82
904.324	392.03
904.7	340.05
905.076	411.8
905.452	363.22
905.828	389.21
906.204	366.33
906.58	360.68
906.956	388.08
907.331	416.88
907.707	414.62
908.083	386.38
908.458	388.08
908.834	378.19
909.209	355.59
909.585	373.39
909.96	380.73
910.335	382.71
910.71	364.63
911.086	377.63
911.461	414.06
911.836	399.66
912.21	365.2
912.585	351.35
912.96	388.93
913.335	385.25
913.709	380.17
914.084	388.64
914.459	410.39
914.833	382.15
915.207	346.83
915.582	379.89
915.956	363.5
916.33	382.43
916.704	341.18
917.078	377.63
917.452	385.54
917.826	376.21
918.2	361.81
918.574	380.73
918.948	369.15
919.321	389.49
919.695	379.89
920.068	394.29
920.442	389.21
920.815	387.51
921.189	390.34
921.562	387.8
921.935	375.08
922.308	377.06
922.681	393.44
923.054	371.41
923.427	424.79
923.8	385.82
924.173	374.52
924.546	368.3
924.919	366.89
925.291	366.04
925.664	376.5
926.036	377.91
926.409	370.56
926.781	358.98
927.153	404.18
927.526	406.15
927.898	364.63
928.27	343.16
928.642	334.11
929.014	353.33
929.386	360.39
929.758	391.18
930.129	344.57
930.501	412.65
930.873	372.26
931.244	379.32
931.616	367.46
931.987	392.88
932.359	395.7
932.73	378.47
933.101	382.15
933.472	359.83
933.843	400.22
934.214	404.18
934.585	370
934.956	355.31
935.327	444.26
935.698	405.59
936.069	363.78
936.439	361.52
936.81	383.28
937.18	392.03
937.551	366.33
937.921	413.49
938.292	387.23
938.662	351.07
939.032	411.52
939.402	386.1
939.772	386.38
940.142	353.9
940.512	347.4
940.882	355.03
941.252	371.13
941.621	378.76
941.991	384.41
942.361	393.73
942.73	395.42
943.1	343.72
943.469	360.96
943.838	420.83
944.208	415.19
944.577	361.81
944.946	365.2
945.315	350.22
945.684	368.02
946.053	369.72
946.422	368.02
946.791	360.96
947.159	349.37
947.528	362.09
947.897	387.8
948.265	391.47
948.634	369.15
949.002	344.29
949.371	352.76
949.739	356.72
950.107	398.81
950.475	382.99
950.843	381.58
951.211	391.47
951.579	406.72
951.947	355.31
952.315	378.19
952.683	376.5
953.05	351.07
953.418	393.73
953.785	354.18
954.153	373.39
954.52	368.02
954.888	377.06
955.255	361.52
955.622	377.63
955.989	376.5
956.356	426.76
956.723	394.01
957.09	384.69
957.457	400.22
957.824	357.57
958.191	368.59
958.557	388.36
958.924	350.22
959.291	381.3
959.657	337.79
960.023	455.55
960.39	345.42
960.756	360.68
961.122	387.8
961.488	373.67
961.855	371.41
962.221	365.2
962.586	374.8
962.952	432.97
963.318	381.86
963.684	442.29
964.05	423.09
964.415	351.07
964.781	369.43
965.146	355.59
965.512	421.96
965.877	350.5
966.242	366.33
966.608	375.08
966.973	393.73
967.338	375.37
967.703	408.69
968.068	361.81
968.433	374.24
968.797	439.75
969.162	367.17
969.527	372.82
969.891	363.78
970.256	368.87
970.62	360.96
970.985	376.21
971.349	379.89
971.714	401.35
972.078	372.54
972.442	357.29
972.806	401.63
973.17	374.8
973.534	399.09
973.898	381.58
974.262	381.86
974.625	407.85
974.989	366.33
975.353	397.68
975.716	372.54
976.08	379.32
976.443	365.48
976.806	404.46
977.17	366.33
977.533	348.24
977.896	360.68
978.259	380.73
978.622	478.97
978.985	366.61
979.348	351.63
979.711	358.42
980.073	350.5
980.436	364.91
980.799	378.19
981.161	400.5
981.524	369.43
981.886	381.58
982.248	379.89
982.611	374.24
982.973	355.31
983.335	393.16
983.697	337.5
984.059	371.69
984.421	368.87
984.783	386.1
985.145	363.22
985.506	342.59
985.868	382.71
986.23	375.37
986.591	364.63
986.953	376.5
987.314	368.02
987.675	360.68
988.037	5345.18
988.398	497.3
988.759	369.43
989.12	351.07
989.481	394.29
989.842	421.96
990.203	364.63
990.564	325.63
990.924	391.75
991.285	3923.33
991.646	450.19
992.006	359.83
992.367	376.78
992.727	370.56
993.087	367.17
993.448	357.29
993.808	368.87
994.168	328.46
994.528	354.74
994.888	412.36
995.248	371.13
995.608	355.87
995.967	362.09
996.327	357
996.687	390.62
997.046	350.22
997.406	365.2
997.765	359.26
998.125	359.83
998.484	365.2
998.843	423.94
999.202	375.65
999.561	338.07
999.92	355.59
1000.279	386.1
1000.638	345.7
1000.997	363.78
1001.356	357.85
1001.715	347.96
1002.073	384.41
1002.432	391.75
1002.79	390.9
1003.149	365.76
1003.507	376.78
1003.865	364.91
1004.224	350.79
1004.582	389.49
1004.94	368.87
1005.298	371.41
1005.656	381.02
1006.014	355.31
1006.371	380.73
1006.729	344.85
1007.087	380.73
1007.445	370
1007.802	393.73
1008.16	355.03
1008.517	368.02
1008.874	387.23
1009.232	363.78
1009.589	393.73
1009.946	373.67
1010.303	368.3
1010.66	371.69
1011.017	372.26
1011.374	404.74
1011.731	384.12
1012.087	353.9
1012.444	348.81
1012.801	359.83
1013.157	342.59
1013.513	355.31
1013.87	360.96
1014.226	370.28
1014.582	378.47
1014.939	360.39
1015.295	355.87
1015.651	343.16
1016.007	349.94
1016.363	401.92
1016.719	365.2
1017.074	386.67
1017.43	364.07
1017.786	363.78
1018.141	373.95
1018.497	357.57
1018.852	398.53
1019.208	374.24
1019.563	355.87
1019.918	325.07
1020.273	350.22
1020.628	388.64
1020.983	374.52
1021.338	362.94
1021.693	371.13
1022.048	334.4
1022.403	353.05
1022.757	367.74
1023.112	377.63
1023.467	352.76
1023.821	323.94
1024.175	378.19
1024.53	355.87
1024.884	346.27
1025.238	350.22
1025.592	367.46
1025.946	347.11
1026.3	332.98
1026.654	358.98
1027.008	382.15
1027.362	369.43
1027.716	336.09
1028.069	349.94
1028.423	351.92
1028.777	353.9
1029.13	358.42
1029.483	371.13
1029.837	395.99
1030.19	335.81
1030.543	368.3
1030.896	355.03
1031.249	382.15
1031.602	338.07
1031.955	381.3
1032.308	368.02
1032.661	425.07
1033.013	368.02
1033.366	338.07
1033.719	373.67
1034.071	342.59
1034.424	366.61
1034.776	372.26
1035.128	351.07
1035.48	379.32
1035.833	406.15
1036.185	364.91
1036.537	364.91
1036.889	364.91
