Data from SCSF78-405_irradiation_FLMS019251_02-44-13-188.txt Node
Date: Fri Feb 22 02:44:13 PST 2019
User: mu3e
Spectrometer: FLMS01925
Trigger mode: 0
Integration Time (sec): 3.659600E-1
Scans to average: 10
Electric dark correction enabled: true
Nonlinearity correction enabled: true
Boxcar width: 0
XAxis mode: Wavelengths
Number of Pixels in Spectrum: 2048
>>>>>Begin Spectral Data<<<<<
187.103	-111.47
187.574	-111.47
188.045	-111.47
188.516	-151.86
188.987	-104.36
189.458	-118.29
189.929	-145.88
190.4	-121.42
190.871	-116.59
191.342	-72.81
191.813	-64.57
192.284	-19.4
192.754	-36.72
193.225	-8.04
193.696	33.97
194.166	30.28
194.637	82.2
195.107	119.63
195.578	142.87
196.048	130.4
196.518	163.27
196.989	206.03
197.459	200.66
197.929	209.43
198.399	330.51
198.869	292.34
199.339	320.33
199.809	342.94
200.279	382.5
200.749	347.18
201.219	341.53
201.689	385.32
202.159	375.44
202.628	392.95
203.098	380.8
203.568	397.19
204.037	422.32
204.507	404.25
204.976	408.76
205.445	407.63
205.915	397.75
206.384	414.41
206.853	414.41
207.323	438.97
207.792	438.12
208.261	397.75
208.73	403.12
209.199	449.98
209.668	385.04
210.137	428.53
210.606	402.27
211.075	406.22
211.543	412.43
212.012	373.18
212.481	381.09
212.95	374.31
213.418	438.69
213.887	388.15
214.355	400.86
214.824	378.55
215.292	355.38
215.76	341.53
216.229	346.34
216.697	400.86
217.165	373.18
217.633	337.57
218.101	398.6
218.569	466.63
219.037	369.51
219.505	413.85
219.973	367.81
220.441	363.57
220.909	344.64
221.377	388.71
221.844	417.52
222.312	359.9
222.78	351.99
223.247	370.64
223.715	336.44
224.182	355.38
224.65	396.34
225.117	392.67
225.584	374.31
226.052	348.88
226.519	365.27
226.986	360.46
227.453	347.75
227.92	367.25
228.387	433.61
228.854	379.68
229.321	355.38
229.788	385.61
230.255	369.79
230.722	390.97
231.189	388.71
231.655	368.09
232.122	392.1
232.589	382.78
233.055	363.57
233.522	442.64
233.988	390.97
234.454	396.34
234.921	393.8
235.387	415.82
235.853	380.8
236.32	372.05
236.786	358.2
237.252	375.16
237.718	414.41
238.184	346.34
238.65	357.07
239.116	361.03
239.582	413.85
240.047	391.26
240.513	398.32
240.979	408.2
241.445	388.15
241.91	377.7
242.376	358.49
242.841	415.82
243.307	375.44
243.772	353.12
244.238	387.58
244.703	387.3
245.168	384.19
245.633	396.9
246.099	375.16
246.564	389.28
247.029	410.46
247.494	390.13
247.959	376
248.424	375.44
248.889	359.62
249.353	392.67
249.818	374.59
250.283	338.99
250.748	381.09
251.212	412.72
251.677	351.42
252.141	368.38
252.606	376
253.07	382.22
253.535	392.39
253.999	387.02
254.463	396.34
254.927	374.31
255.392	396.34
255.856	385.89
256.32	378.55
256.784	381.09
257.248	382.22
257.712	404.53
258.176	449.13
258.64	395.21
259.103	385.61
259.567	381.93
260.031	367.25
260.495	415.26
260.958	415.82
261.422	407.92
261.885	399.16
262.349	374.03
262.812	373.74
263.275	398.32
263.739	398.88
264.202	402.83
264.665	392.95
265.128	392.39
265.591	405.66
266.054	397.19
266.517	392.1
266.98	413.85
267.443	393.8
267.906	356.23
268.369	398.32
268.832	413.85
269.294	394.36
269.757	419.49
270.22	387.02
270.682	392.67
271.145	412.15
271.607	377.7
272.07	444.05
272.532	370.35
272.994	409.05
273.456	388.15
273.919	439.25
274.381	390.41
274.843	439.54
275.305	421.47
275.767	389
276.229	420.34
276.691	405.66
277.153	376.85
277.614	374.31
278.076	387.58
278.538	418.08
279	400.58
279.461	354.25
279.923	458.73
280.384	397.75
280.846	381.09
281.307	383.91
281.769	393.8
282.23	392.95
282.691	420.62
283.152	400.01
283.613	400.29
284.075	407.07
284.536	409.89
284.997	384.48
285.458	374.59
285.918	390.97
286.379	382.78
286.84	440.38
287.301	387.58
287.762	393.8
288.222	395.77
288.683	416.11
289.143	411.87
289.604	408.76
290.064	392.39
290.525	407.63
290.985	438.41
291.445	407.35
291.906	392.39
292.366	407.07
292.826	388.43
293.286	385.04
293.746	414.41
294.206	435.3
294.666	398.88
295.126	382.78
295.586	411.87
296.046	382.5
296.506	418.93
296.965	423.73
297.425	400.29
297.884	425.42
298.344	393.51
298.804	423.16
299.263	386.17
299.722	418.36
300.182	399.16
300.641	397.19
301.1	402.83
301.559	405.66
302.019	405.38
302.478	405.09
302.937	399.45
303.396	418.36
303.855	484.96
304.314	390.69
304.772	545.58
305.231	393.51
305.69	394.36
306.149	426.83
306.607	419.49
307.066	418.36
307.524	418.65
307.983	398.88
308.441	430.5
308.9	470.58
309.358	412.43
309.816	503.01
310.275	394.93
310.733	387.58
311.191	401.14
311.649	430.5
312.107	419.78
312.565	392.39
313.023	403.12
313.481	394.08
313.939	397.19
314.397	410.18
314.854	431.63
315.312	396.9
315.77	419.78
316.227	397.75
316.685	399.16
317.142	402.27
317.6	428.24
318.057	435.02
318.514	425.99
318.972	416.11
319.429	422.88
319.886	399.45
320.343	417.8
320.8	392.39
321.257	403.4
321.714	464.65
322.171	443.77
322.628	405.66
323.085	410.74
323.542	401.7
323.998	398.88
324.455	381.93
324.912	416.39
325.368	402.27
325.825	429.66
326.281	405.94
326.738	409.89
327.194	425.14
327.65	400.29
328.107	386.45
328.563	405.38
329.019	428.81
329.475	427.12
329.931	449.98
330.387	450.54
330.843	422.32
331.299	426.27
331.755	394.08
332.211	433.04
332.666	414.41
333.122	419.21
333.578	416.95
334.033	396.9
334.489	433.04
334.944	382.78
335.4	493.42
335.855	457.03
336.31	428.24
336.766	398.32
337.221	413.85
337.676	408.76
338.131	450.82
338.586	450.54
339.041	407.92
339.496	448.85
339.951	409.89
340.406	419.78
340.861	412.43
341.316	409.33
341.771	437.56
342.225	411.02
342.68	423.45
343.134	416.95
343.589	438.41
344.043	422.32
344.498	415.26
344.952	446.87
345.406	651.2
345.861	406.79
346.315	395.49
346.769	390.41
347.223	437.28
347.677	441.23
348.131	414.41
348.585	396.9
349.039	401.14
349.493	420.9
349.947	408.76
350.401	453.93
350.854	391.54
351.308	462.39
351.762	405.66
352.215	455.9
352.669	420.06
353.122	420.9
353.575	433.89
354.029	435.3
354.482	410.46
354.935	414.98
355.388	429.66
355.842	429.09
356.295	431.35
356.748	408.48
357.201	427.4
357.654	443.77
358.106	419.78
358.559	422.6
359.012	411.02
359.465	390.41
359.917	431.91
360.37	414.13
360.823	417.23
361.275	433.61
361.728	439.54
362.18	424.01
362.632	427.96
363.085	431.91
363.537	445.46
363.989	399.73
364.441	415.82
364.893	390.41
365.345	413.85
365.797	403.12
366.249	401.42
366.701	397.19
367.153	436.99
367.605	424.57
368.057	425.7
368.508	437.84
368.96	413.28
369.411	416.67
369.863	413
370.314	441.23
370.766	446.31
371.217	429.09
371.669	438.69
372.12	453.36
372.571	460.14
373.022	415.26
373.473	419.49
373.924	418.36
374.375	410.18
374.826	448.57
375.277	427.96
375.728	437.28
376.179	402.27
376.63	425.42
377.08	421.19
377.531	441.51
377.981	425.42
378.432	440.1
378.883	468.6
379.333	459.57
379.783	438.69
380.234	442.36
380.684	436.71
381.134	457.6
381.584	425.99
382.034	452.52
382.485	456.19
382.935	441.79
383.385	448.85
383.834	432.48
384.284	440.38
384.734	432.76
385.184	448.85
385.634	436.99
386.083	419.49
386.533	424.29
386.982	419.78
387.432	446.87
387.881	414.98
388.331	438.97
388.78	421.19
389.229	432.2
389.679	405.09
390.128	455.9
390.577	431.63
391.026	441.79
391.475	412.72
391.924	425.14
392.373	433.33
392.822	451.11
393.27	453.65
393.719	465.22
394.168	449.7
394.617	449.7
395.065	433.04
395.514	442.64
395.962	501.04
396.411	432.76
396.859	435.02
397.307	494.83
397.756	434.45
398.204	451.11
398.652	504.42
399.1	460.98
399.548	438.69
399.996	517.96
400.444	471.42
400.892	450.54
401.34	458.73
401.788	446.31
402.236	484.4
402.683	457.88
403.131	493.71
403.579	497.66
404.026	448.57
404.474	454.49
404.921	481.01
405.369	462.11
405.816	500.19
406.263	457.6
406.71	481.86
407.158	481.58
407.605	491.73
408.052	516.27
408.499	528.95
408.946	496.81
409.393	505.83
409.84	526.13
410.286	523.6
410.733	567.85
411.18	573.48
411.626	603.06
412.073	664.71
412.52	713.94
412.966	841.22
413.413	969.41
413.859	1111.1
414.305	1334.01
414.752	1608.56
415.198	1990.38
415.644	2404.79
416.09	3031.25
416.536	3565.23
416.982	4348.02
417.428	5197.79
417.874	6158.04
418.32	7103.62
418.766	8226.43
419.211	9575.09
419.657	10795.26
420.103	12292.57
420.548	13400.75
420.994	15024.08
421.439	16533.3
421.885	17850.23
422.33	19892.57
422.776	21228.17
423.221	22641.16
423.666	24260.27
424.111	25920.14
424.556	27007
425.001	28733.9
425.446	30494.61
425.891	31725.46
426.336	32672.4
426.781	34218.95
427.226	36290.63
427.671	36836.07
428.115	37574.07
428.56	39250.35
429.005	40690.54
429.449	40841.47
429.894	42084.66
430.338	43050.78
430.782	42730.89
431.227	44119.5
431.671	44245.45
432.115	45463.97
432.559	46262.75
433.003	45835.05
433.447	46712.52
433.891	46708.71
434.335	46805.09
434.779	47498.89
435.223	47546.73
435.667	47322.28
436.111	48129.28
436.554	47625.31
436.998	46977.94
437.442	47110.47
437.885	49009.71
438.328	47388.96
438.772	47773.91
439.215	48082.23
439.659	47739.82
440.102	48115.65
440.545	47417.84
440.988	47037.05
441.431	48018.75
441.874	47711.89
442.317	48021.06
442.76	47497.36
443.203	46929.55
443.646	47351.66
444.089	46885.76
444.531	47714.71
444.974	46304.06
445.417	47435.48
445.859	46435.94
446.302	47733.93
446.744	47056.42
447.186	48332.64
447.629	47288.83
448.071	47386.92
448.513	47491.73
448.956	48961.47
449.398	48094.82
449.84	46929.81
450.282	47642.47
450.724	48241.72
451.166	47917.57
451.607	47972.51
452.049	48009.24
452.491	49333
452.933	48809.39
453.374	49506.82
453.816	50052.21
454.257	49579.1
454.699	51016.36
455.14	50562.81
455.582	50422.57
456.023	50457.67
456.464	50653.29
456.905	51393.74
457.347	51343.17
457.788	50421.77
458.229	50627.09
458.67	51872.08
459.111	49835.35
459.552	50025.17
459.992	49876.21
460.433	49882.24
460.874	48772.9
461.315	49977.15
461.755	49094.32
462.196	48703.31
462.636	47923.47
463.077	47644.77
463.517	47956.08
463.957	48206.97
464.398	47830.58
464.838	48060.63
465.278	46851.66
465.718	47226.79
466.158	46181.92
466.598	46658.13
467.038	46238.42
467.478	46896.45
467.918	47054.13
468.358	46357.56
468.798	46170.02
469.237	45962.22
469.677	45973.6
470.117	46907.91
470.556	44337.15
470.996	45035.34
471.435	45348.52
471.874	46174.07
472.314	45872.46
472.753	44959.89
473.192	45109.05
473.631	44712.16
474.07	45031.82
474.509	45117.36
474.948	45463.46
475.387	44699.35
475.826	43818.58
476.265	45548.21
476.704	45314.25
477.143	45803.46
477.581	45492.46
478.02	46257.93
478.458	44695.08
478.897	45502.3
479.335	46669.57
479.774	46198.64
480.212	46599.44
480.65	46413.11
481.089	46265.03
481.527	45904.82
481.965	45176
482.403	47533.43
482.841	47166.83
483.279	47387.17
483.717	47530.36
484.155	46868.71
484.592	47480.22
485.03	47782.12
485.468	46583.43
485.905	46890.85
486.343	47572.58
486.781	46722.95
487.218	46134.56
487.655	46135.58
488.093	45310.73
488.53	46834.61
488.967	45961.72
489.405	45955.39
489.842	45054.45
490.279	44964.17
490.716	44425.88
491.153	45066.03
491.59	44387.28
492.027	43549.78
492.463	43362.62
492.9	42484.73
493.337	42269.59
493.773	42358.51
494.21	41446.42
494.647	41274.41
495.083	40699.18
495.519	40153.84
495.956	40218.44
496.392	39406.81
496.828	39159.36
497.265	38418.17
497.701	38661.49
498.137	38332.27
498.573	37481.21
499.009	38013.35
499.445	37078.37
499.881	36527.34
500.316	36806.95
500.752	35801.82
501.188	35666.96
501.624	35595.63
502.059	34228.95
502.495	34076.98
502.93	34107.71
503.366	34621.53
503.801	33559.44
504.236	33331.44
504.672	32633.88
505.107	32397.88
505.542	31788.12
505.977	31699.86
506.412	31172.67
506.847	31574.29
507.282	30907.57
507.717	30569.75
508.152	30557.06
508.587	30324.32
509.021	29577.75
509.456	29200.49
509.891	29184.37
510.325	29099.62
510.76	28640.79
511.194	28603.89
511.628	28597.54
512.063	27773.73
512.497	28025.2
512.931	27317.76
513.366	27195.58
513.8	27181.62
514.234	26394.31
514.668	26409.51
515.102	26760.04
515.536	25606.91
515.969	25871.55
516.403	25337.72
516.837	24962.68
517.271	25146.79
517.704	24669.54
518.138	24402.8
518.571	24275.29
519.005	23925.32
519.438	23680.85
519.871	23578.78
520.305	23122.18
520.738	22960.99
521.171	22419.24
521.604	22654.75
522.037	22329.26
522.47	21954.54
522.903	21550.52
523.336	21543.83
523.769	21253.45
524.202	20709.58
524.634	20634.87
525.067	20443.21
525.5	20338.91
525.932	20118.29
526.365	19671.46
526.797	19473.63
527.23	19584.38
527.662	18943.37
528.094	18680.35
528.527	18552.14
528.959	18328.04
529.391	18153.77
529.823	17535.44
530.255	17584.21
530.687	17232.66
531.119	16873.5
531.551	16890.54
531.982	16437.23
532.414	16271.85
532.846	15933.34
533.277	15774.26
533.709	15338.86
534.14	15295.56
534.572	15128.37
535.003	14979.49
535.435	14699.42
535.866	14476.13
536.297	14089.98
536.728	14153.91
537.159	13989.38
537.59	13677.25
538.022	13569.67
538.452	13335.13
538.883	13049.39
539.314	12901.2
539.745	12717.12
540.176	12596.44
540.606	12240.91
541.037	12238.11
541.468	12010.22
541.898	11919.25
542.328	11850.94
542.759	11464.9
543.189	11385.21
543.619	11301.4
544.05	11126.26
544.48	10919.99
544.91	10769.12
545.34	10620.7
545.77	10501.68
546.2	10411.85
546.63	10248
547.06	10181.44
547.489	9996.79
547.919	9698.33
548.349	9764.56
548.778	9698.85
549.208	9487.12
549.637	9345.64
550.067	9174.58
550.496	9237.13
550.926	9004.36
551.355	8806.75
551.784	8809.09
552.213	8562.7
552.642	8516.22
553.071	8474.67
553.5	8355.67
553.929	8035.07
554.358	8083.26
554.787	7950.38
555.216	8001.46
555.645	7853.11
556.073	7804.32
556.502	7611.33
556.93	7404.72
557.359	7358.38
557.787	7373.04
558.216	7221.89
558.644	7184.14
559.072	7059.54
559.5	7000.99
559.929	6982.87
560.357	6917.73
560.785	6857.02
561.213	6798.9
561.641	6653.11
562.068	6678.38
562.496	6531.65
562.924	6581.19
563.352	6578.29
563.779	6438.29
564.207	6487.35
564.634	6348.03
565.062	6346.98
565.489	6303.4
565.917	6230.75
566.344	6193.47
566.771	6088.2
567.198	6083.17
567.625	6010.37
568.053	5860.65
568.48	5864.63
568.907	5808.4
569.333	5744.98
569.76	5499.15
570.187	5537.46
570.614	5438.47
571.04	10708.64
571.467	5341.25
571.894	5290.08
572.32	5055.73
572.747	5003.08
573.173	4915.35
573.599	4844.14
574.026	4772.08
574.452	4794.86
574.878	4688.44
575.304	4604.45
575.73	4470.41
576.156	4357.71
576.582	4378.16
577.008	4275.32
577.434	4224.94
577.86	4119.23
578.285	4119.5
578.711	4016.91
579.137	3973.68
579.562	3904.47
579.988	3831.15
580.413	3733.93
580.838	3708.18
581.264	3707.64
581.689	3614.9
582.114	3621.41
582.539	3962.06
582.964	3478.59
583.39	3440
583.814	3347.24
584.239	3330.64
584.664	3268.01
585.089	3189.53
585.514	3168.81
585.939	3120.52
586.363	3052.55
586.788	3069.48
587.212	2990.82
587.637	2916.73
588.061	2926.3
588.485	2877.61
588.91	2841.2
589.334	2760.95
589.758	2771.09
590.182	2734.1
590.606	2685.02
591.03	2639.75
591.454	2578.53
591.878	2584.02
592.302	2595.01
592.726	2543.92
593.15	2495.83
593.573	2376.71
593.997	2469.71
594.42	2379.19
594.844	2332.65
595.267	2308.69
595.691	2329.35
596.114	2266.52
596.537	2243.64
596.96	2221.02
597.384	2206.4
597.807	2159.49
598.23	2157.28
598.653	2123.04
599.076	2137.13
599.499	2092.94
599.921	2105.64
600.344	2082.44
600.767	2063.1
601.189	2027.44
601.612	1980.7
602.034	2030.2
602.457	1977.93
602.879	2102.61
603.302	1980.97
603.724	1953.86
604.146	1935.04
604.568	1907.63
604.991	1902.09
605.413	1963.27
605.835	1940.57
606.257	1917.04
606.678	1869.68
607.1	1892.12
607.522	1895.44
607.944	1884.09
608.365	1837.26
608.787	1824.51
609.209	1816.75
609.63	1755.46
610.051	1749.36
610.473	1745.75
610.894	1718.83
611.315	1703.56
611.737	1742.42
612.158	1685.24
612.579	1638.85
613	1693.01
613.421	1621.07
613.842	1596.88
614.263	1565.19
614.683	1548.78
615.104	1526.24
615.525	1494.24
615.945	1479.76
616.366	1444.39
616.787	1456.93
617.207	1405.67
617.627	1382.81
618.048	1381.14
618.468	1375.84
618.888	1348.52
619.308	1284.9
619.728	1298.02
620.148	1270.67
620.568	1300.53
620.988	1308.07
621.408	1248.61
621.828	1254.19
622.248	1256.15
622.668	1226.83
623.087	1227.94
623.507	1201.4
623.926	1180.16
624.346	1186.87
624.765	1152.49
625.185	1143.82
625.604	1127.6
626.023	1120.33
626.442	1113.61
626.861	1141.86
627.28	1078.92
627.699	1080.88
628.118	1048.97
628.537	1088.15
628.956	1043.37
629.375	1030.49
629.794	1045.33
630.212	1053.73
630.631	1013.68
631.049	992.11
631.468	991.55
631.886	974.74
632.305	1008.92
632.723	939.98
633.141	913.9
633.559	936.33
633.978	928.48
634.396	952.88
634.814	916.98
635.232	935.21
635.65	913.62
636.067	865.08
636.485	908.57
636.903	859.47
637.321	874.9
637.738	921.19
638.156	836.17
638.573	839.54
638.991	879.11
639.408	880.24
639.825	782.81
640.243	859.75
640.66	821.57
641.077	844.31
641.494	825.5
641.911	836.73
642.328	806.68
642.745	768.48
643.162	815.67
643.579	771.29
643.995	757.23
644.412	817.64
644.829	720.97
645.245	739.24
645.662	767.91
646.078	763.42
646.495	754.42
646.911	748.24
647.327	754.42
647.743	722.66
648.159	737.28
648.576	692
648.992	733.9
649.408	715.63
649.824	683
650.239	697.63
650.655	690.03
651.071	691.72
651.487	708.6
651.902	706.06
652.318	670.62
652.733	652.33
653.149	667.52
653.564	653.74
653.979	681.87
654.395	650.64
654.81	674
655.225	651.48
655.64	674.28
656.055	640.51
656.47	672.59
656.885	614.32
657.3	625.59
657.715	686.09
658.13	641.07
658.544	642.48
658.959	604.47
659.374	604.75
659.788	666.12
660.202	619.39
660.617	653.74
661.031	612.63
661.445	604.19
661.86	587.57
662.274	604.75
662.688	635.44
663.102	585.03
663.516	626.43
663.93	636.57
664.344	600.52
664.758	597.14
665.171	617.14
665.585	579.4
665.999	555.73
666.412	570.95
666.826	602.78
667.239	614.32
667.653	572.92
668.066	553.76
668.479	580.53
668.892	552.07
669.306	560.8
669.719	557.14
670.132	556.58
670.545	536.28
670.958	550.09
671.37	567.28
671.783	550.66
672.196	577.14
672.609	545.02
673.021	521.06
673.434	546.15
673.846	527.26
674.259	521.34
674.671	526.98
675.084	544.46
675.496	528.95
675.908	537.69
676.32	507.53
676.732	524.16
677.144	554.32
677.556	505.27
677.968	518.8
678.38	543.89
678.792	526.98
679.204	510.91
679.615	539.95
680.027	524.72
680.439	501.89
680.85	508.94
681.262	548.68
681.673	524.16
682.084	493.14
682.496	515.98
682.907	506.68
683.318	498.22
683.729	487.22
684.14	524.72
684.551	523.03
684.962	496.81
685.373	488.63
685.784	519.09
686.194	494.83
686.605	488.35
687.016	492.58
687.426	472.83
687.837	510.63
688.247	493.99
688.657	481.58
689.068	504.14
689.478	485.53
689.888	456.19
690.298	472.27
690.708	466.63
691.118	479.32
691.528	479.89
691.938	465.78
692.348	456.19
692.758	455.62
693.168	455.06
693.577	483.27
693.987	462.96
694.396	490.6
694.806	466.91
695.215	470.58
695.625	467.75
696.034	448.85
696.443	440.95
696.852	511.19
697.262	449.13
697.671	451.39
698.08	485.24
698.489	470.29
698.897	456.75
699.306	417.52
699.715	438.97
700.124	487.22
700.532	444.62
700.941	454.77
701.35	435.3
701.758	499.63
702.166	463.52
702.575	460.7
702.983	436.43
703.391	456.75
703.799	437.56
704.208	463.24
704.616	428.81
705.024	467.47
705.432	448.57
705.839	433.04
706.247	468.32
706.655	539.95
707.063	437.56
707.47	456.47
707.878	428.81
708.285	429.66
708.693	405.09
709.1	462.39
709.508	428.53
709.915	444.9
710.322	472.55
710.729	517.39
711.136	449.7
711.543	418.36
711.95	440.95
712.357	454.49
712.764	442.64
713.171	428.24
713.578	419.21
713.984	455.62
714.391	420.06
714.797	433.89
715.204	433.89
715.61	457.31
716.017	433.61
716.423	440.95
716.829	450.54
717.236	428.53
717.642	435.3
718.048	434.45
718.454	422.32
718.86	418.65
719.266	499.63
719.671	410.74
720.077	400.58
720.483	425.14
720.889	456.47
721.294	408.48
721.7	418.93
722.105	409.61
722.511	427.68
722.916	448.28
723.321	445.74
723.726	456.75
724.132	400.58
724.537	410.46
724.942	439.54
725.347	425.42
725.752	424.01
726.156	403.68
726.561	414.98
726.966	426.55
727.371	456.75
727.775	445.74
728.18	401.14
728.584	401.7
728.989	433.61
729.393	487.22
729.798	431.35
730.202	456.19
730.606	391.26
731.01	420.06
731.414	417.23
731.818	417.8
732.222	426.83
732.626	393.23
733.03	420.9
733.434	410.18
733.837	442.92
734.241	392.39
734.645	404.25
735.048	403.96
735.452	424.29
735.855	415.82
736.258	424.01
736.662	452.52
737.065	454.49
737.468	441.79
737.871	416.95
738.274	424.86
738.677	407.92
739.08	432.48
739.483	408.2
739.886	434.17
740.289	414.41
740.691	381.65
741.094	404.25
741.497	405.09
741.899	446.87
742.302	437.84
742.704	425.14
743.106	418.65
743.508	379.68
743.911	421.19
744.313	402.27
744.715	397.19
745.117	401.7
745.519	391.82
745.921	415.26
746.323	418.08
746.724	400.29
747.126	400.01
747.528	475.94
747.929	387.58
748.331	397.75
748.732	425.99
749.134	376.57
749.535	428.53
749.936	431.91
750.338	390.97
750.739	459.29
751.14	422.6
751.541	398.32
751.942	420.62
752.343	401.42
752.744	390.13
753.144	370.92
753.545	433.61
753.946	423.73
754.346	419.78
754.747	420.62
755.148	487.22
755.548	404.81
755.948	392.95
756.349	400.01
756.749	432.2
757.149	378.83
757.549	415.26
757.949	405.66
758.349	370.07
758.749	403.96
759.149	408.48
759.549	410.18
759.949	401.7
760.348	461.26
760.748	401.7
761.148	384.76
761.547	408.48
761.947	396.34
762.346	396.9
762.745	428.24
763.145	401.14
763.544	407.63
763.943	422.6
764.342	407.92
764.741	372.61
765.14	394.36
765.539	372.9
765.938	481.01
766.336	404.81
766.735	389.56
767.134	409.05
767.532	398.6
767.931	392.95
768.329	451.11
768.728	417.23
769.126	387.02
769.525	411.02
769.923	401.99
770.321	380.8
770.719	407.92
771.117	376.29
771.515	408.2
771.913	421.47
772.311	425.7
772.709	385.04
773.106	376.57
773.504	392.39
773.902	368.09
774.299	433.61
774.697	496.24
775.094	398.32
775.491	374.03
775.889	401.14
776.286	383.91
776.683	376.57
777.08	390.97
777.477	388.43
777.874	427.12
778.271	396.9
778.668	400.86
779.065	409.33
779.462	407.35
779.858	375.16
780.255	438.41
780.652	424.01
781.048	480.17
781.444	401.99
781.841	398.88
782.237	390.69
782.633	375.44
783.03	378.83
783.426	407.07
783.822	415.26
784.218	393.8
784.614	384.76
785.01	388.15
785.405	377.42
785.801	400.29
786.197	409.33
786.593	393.8
786.988	413.56
787.384	413.28
787.779	396.62
788.174	398.32
788.57	401.14
788.965	394.93
789.36	384.19
789.755	404.25
790.15	393.8
790.545	423.16
790.94	390.41
791.335	391.82
791.73	384.76
792.125	437.56
792.52	395.49
792.914	417.52
793.309	367.25
793.703	383.35
794.098	389.56
794.492	423.16
794.887	402.27
795.281	431.35
795.675	407.35
796.069	417.8
796.463	412.15
796.857	371.48
797.251	366.68
797.645	364.14
798.039	400.86
798.433	404.53
798.826	383.35
799.22	398.03
799.614	400.01
800.007	401.14
800.401	402.55
800.794	401.14
801.187	402.27
801.581	378.83
801.974	390.41
802.367	401.14
802.76	381.93
803.153	394.64
803.546	377.98
803.939	385.61
804.332	392.39
804.725	388.71
805.117	400.29
805.51	437.28
805.903	385.89
806.295	376
806.688	399.16
807.08	382.22
807.472	405.94
807.865	401.99
808.257	398.03
808.649	430.5
809.041	408.2
809.433	402.55
809.825	394.08
810.217	398.03
810.609	400.86
811.001	415.54
811.392	390.41
811.784	407.35
812.175	361.88
812.567	394.93
812.958	385.04
813.35	400.29
813.741	372.61
814.132	384.76
814.524	386.74
814.915	387.87
815.306	380.24
815.697	394.36
816.088	376.57
816.479	412.72
816.87	399.73
817.26	397.75
817.651	443.2
818.042	405.94
818.432	406.22
818.823	427.4
819.213	402.55
819.604	388.43
819.994	376.29
820.384	366.68
820.775	402.55
821.165	381.65
821.555	385.32
821.945	383.91
822.335	364.99
822.725	431.63
823.114	382.78
823.504	395.77
823.894	383.91
824.284	381.93
824.673	392.95
825.063	402.27
825.452	377.98
825.842	402.83
826.231	451.67
826.62	396.9
827.009	390.69
827.399	413.85
827.788	379.39
828.177	394.36
828.566	416.95
828.954	486.37
829.343	404.25
829.732	383.06
830.121	438.69
830.509	452.24
830.898	387.02
831.286	387.87
831.675	401.42
832.063	419.21
832.452	381.37
832.84	363.29
833.228	432.48
833.616	376.29
834.004	387.3
834.392	391.54
834.78	404.53
835.168	396.06
835.556	403.96
835.944	382.78
836.331	424.01
836.719	433.33
837.107	392.1
837.494	417.52
837.881	415.26
838.269	387.87
838.656	361.03
839.043	379.39
839.431	467.47
839.818	416.11
840.205	378.83
840.592	391.82
840.979	410.18
841.366	392.67
841.752	381.93
842.139	365.83
842.526	378.55
842.912	418.65
843.299	375.44
843.685	405.09
844.072	400.29
844.458	401.7
844.844	393.8
845.231	357.36
845.617	371.77
846.003	379.68
846.389	371.48
846.775	372.9
847.161	425.7
847.547	388.71
847.933	381.65
848.318	419.78
848.704	377.13
849.09	417.8
849.475	398.88
849.861	406.79
850.246	383.06
850.631	413.56
851.017	405.94
851.402	392.95
851.787	369.79
852.172	440.95
852.557	406.22
852.942	403.4
853.327	385.04
853.712	392.39
854.097	390.69
854.481	394.64
854.866	403.68
855.25	374.87
855.635	393.23
856.019	404.53
856.404	382.5
856.788	354.25
857.172	350.29
857.557	407.63
857.941	379.96
858.325	383.63
858.709	400.58
859.093	401.99
859.477	394.93
859.86	402.83
860.244	379.11
860.628	447.16
861.012	383.06
861.395	388.15
861.779	389.56
862.162	372.9
862.545	373.46
862.929	391.26
863.312	381.65
863.695	387.3
864.078	391.54
864.461	391.54
864.844	420.9
865.227	431.91
865.61	399.73
865.993	339.55
866.376	384.19
866.758	390.69
867.141	398.88
867.523	404.81
867.906	384.48
868.288	399.73
868.671	381.93
869.053	404.53
869.435	361.88
869.817	440.38
870.199	389
870.581	371.48
870.963	362.44
871.345	399.73
871.727	413
872.109	381.37
872.491	380.24
872.872	393.8
873.254	374.03
873.635	394.36
874.017	426.55
874.398	369.22
874.779	390.97
875.161	388.43
875.542	416.11
875.923	383.06
876.304	370.92
876.685	389.84
877.066	362.16
877.447	383.06
877.828	372.05
878.208	415.26
878.589	423.73
878.97	426.27
879.35	361.88
879.731	387.87
880.111	377.42
880.491	376.29
880.872	384.76
881.252	374.87
881.632	388.43
882.012	410.46
882.392	429.09
882.772	420.9
883.152	404.81
883.532	389.28
883.912	417.23
884.291	354.53
884.671	383.35
885.051	383.63
885.43	365.83
885.81	394.36
886.189	388.71
886.568	369.22
886.948	386.17
887.327	401.99
887.706	397.19
888.085	428.24
888.464	393.23
888.843	457.03
889.222	414.13
889.601	397.75
889.979	359.33
890.358	379.11
890.737	392.95
891.115	362.16
891.494	380.52
891.872	409.61
892.25	375.72
892.629	414.98
893.007	416.39
893.385	396.06
893.763	378.83
894.141	398.32
894.519	404.25
894.897	364.14
895.275	383.63
895.653	375.16
896.03	380.24
896.408	388.15
896.786	370.64
897.163	365.83
897.541	371.48
897.918	408.76
898.295	381.65
898.673	373.74
899.05	385.89
899.427	548.68
899.804	381.37
900.181	402.27
900.558	430.78
900.935	374.87
901.312	361.31
901.688	386.17
902.065	413.28
902.442	392.95
902.818	364.42
903.195	366.96
903.571	365.27
903.947	371.2
904.324	386.45
904.7	370.92
905.076	429.66
905.452	364.99
905.828	406.79
906.204	371.2
906.58	383.91
906.956	377.13
907.331	432.2
907.707	399.73
908.083	418.08
908.458	397.47
908.834	382.78
909.209	374.03
909.585	387.02
909.96	385.04
910.335	350.57
910.71	370.92
911.086	409.05
911.461	409.89
911.836	385.61
912.21	376
912.585	386.45
912.96	400.86
913.335	391.54
913.709	389.56
914.084	383.63
914.459	360.46
914.833	364.42
915.207	349.73
915.582	407.63
915.956	374.31
916.33	380.24
916.704	363.85
917.078	342.66
917.452	404.81
917.826	367.81
918.2	369.79
918.574	379.11
918.948	355.38
919.321	388.15
919.695	379.96
920.068	411.59
920.442	387.02
920.815	388.15
921.189	373.74
921.562	444.05
921.935	386.45
922.308	363.85
922.681	392.95
923.054	389.84
923.427	414.41
923.8	363.85
924.173	381.37
924.546	366.4
924.919	352.55
925.291	360.75
925.664	367.81
926.036	386.74
926.409	379.39
926.781	373.46
927.153	373.18
927.526	362.72
927.898	358.2
928.27	377.98
928.642	359.62
929.014	389.84
929.386	355.1
929.758	361.31
930.129	354.53
930.501	392.1
930.873	365.55
931.244	418.93
931.616	355.94
931.987	380.8
932.359	404.81
932.73	392.95
933.101	383.35
933.472	390.97
933.843	394.93
934.214	428.81
934.585	360.18
934.956	361.31
935.327	442.08
935.698	384.19
936.069	371.48
936.439	391.54
936.81	368.94
937.18	393.51
937.551	390.97
937.921	428.53
938.292	407.35
938.662	378.55
939.032	389.28
939.402	385.04
939.772	403.68
940.142	398.03
940.512	369.22
940.882	370.07
941.252	362.16
941.621	358.77
941.991	404.53
942.361	398.88
942.73	397.75
943.1	367.81
943.469	367.81
943.838	405.66
944.208	393.51
944.577	374.03
944.946	361.88
945.315	365.83
945.684	357.92
946.053	357.07
946.422	384.19
946.791	378.26
947.159	365.55
947.528	369.51
947.897	412.43
948.265	405.66
948.634	378.83
949.002	367.25
949.371	376.29
949.739	369.51
950.107	374.87
950.475	370.92
950.843	364.14
951.211	419.49
951.579	375.44
951.947	331.36
952.315	392.67
952.683	398.6
953.05	419.78
953.418	410.46
953.785	368.94
954.153	335.6
954.52	403.96
954.888	397.47
955.255	346.05
955.622	386.17
955.989	373.46
956.356	409.89
956.723	376.29
957.09	392.39
957.457	373.74
957.824	348.03
958.191	365.55
958.557	398.32
958.924	387.02
959.291	359.62
959.657	342.66
960.023	446.59
960.39	383.63
960.756	382.78
961.122	382.5
961.488	361.03
961.855	380.8
962.221	369.22
962.586	372.33
962.952	428.24
963.318	380.24
963.684	444.05
964.05	425.99
964.415	377.7
964.781	375.16
965.146	393.23
965.512	409.89
965.877	370.35
966.242	350.29
966.608	379.68
966.973	381.09
967.338	370.07
967.703	403.4
968.068	371.2
968.433	438.97
968.797	445.46
969.162	392.67
969.527	364.7
969.891	373.46
970.256	381.37
970.62	367.53
970.985	374.87
971.349	368.94
971.714	395.21
972.078	374.87
972.442	376.85
972.806	385.61
973.17	374.87
973.534	380.52
973.898	348.03
974.262	354.53
974.625	422.6
974.989	372.61
975.353	383.91
975.716	373.18
976.08	374.03
976.443	360.75
976.806	358.2
977.17	375.44
977.533	350.86
977.896	367.81
978.259	359.62
978.622	512.6
978.985	409.05
979.348	370.35
979.711	386.74
980.073	386.74
980.436	390.69
980.799	394.08
981.161	399.73
981.524	377.98
981.886	357.07
982.248	364.14
982.611	387.58
982.973	342.38
983.335	352.27
983.697	364.42
984.059	360.46
984.421	348.88
984.783	362.16
985.145	337.86
985.506	340.12
985.868	376.57
986.23	344.92
986.591	384.19
986.953	391.82
987.314	352.27
987.675	370.35
988.037	5163.1
988.398	505.27
988.759	382.78
989.12	357.92
989.481	393.23
989.842	393.23
990.203	351.14
990.564	344.36
990.924	408.2
991.285	3681.35
991.646	428.53
992.006	374.31
992.367	360.18
992.727	391.82
993.087	381.65
993.448	369.51
993.808	374.03
994.168	359.33
994.528	370.35
994.888	402.55
995.248	375.44
995.608	359.33
995.967	352.55
996.327	359.62
996.687	340.97
997.046	380.8
997.406	366.68
997.765	371.77
998.125	353.97
998.484	361.03
998.843	414.69
999.202	357.36
999.561	357.92
999.92	376
1000.279	367.53
1000.638	356.23
1000.997	350.01
1001.356	376.29
1001.715	348.6
1002.073	387.02
1002.432	398.32
1002.79	358.2
1003.149	371.2
1003.507	371.77
1003.865	359.9
1004.224	377.7
1004.582	383.06
1004.94	398.03
1005.298	372.9
1005.656	364.99
1006.014	367.25
1006.371	348.88
1006.729	376
1007.087	409.33
1007.445	381.37
1007.802	364.99
1008.16	364.7
1008.517	370.35
1008.874	399.16
1009.232	359.33
1009.589	397.19
1009.946	378.55
1010.303	395.21
1010.66	389
1011.017	373.18
1011.374	391.26
1011.731	393.51
1012.087	359.9
1012.444	358.49
1012.801	396.62
1013.157	353.68
1013.513	355.1
1013.87	370.07
1014.226	377.42
1014.582	375.16
1014.939	362.16
1015.295	394.93
1015.651	376.29
1016.007	370.92
1016.363	390.97
1016.719	349.16
1017.074	394.93
1017.43	362.16
1017.786	394.36
1018.141	350.86
1018.497	371.2
1018.852	392.1
1019.208	373.18
1019.563	369.79
1019.918	344.64
1020.273	377.7
1020.628	367.81
1020.983	399.73
1021.338	351.14
1021.693	392.95
1022.048	351.71
1022.403	353.68
1022.757	385.04
1023.112	364.7
1023.467	367.53
1023.821	364.42
1024.175	356.79
1024.53	351.14
1024.884	338.99
1025.238	376.57
1025.592	370.92
1025.946	365.83
1026.3	371.48
1026.654	352.27
1027.008	337.86
1027.362	389.84
1027.716	369.22
1028.069	383.91
1028.423	388.71
1028.777	348.6
1029.13	370.35
1029.483	384.76
1029.837	379.96
1030.19	351.99
1030.543	337.57
1030.896	343.23
1031.249	367.25
1031.602	381.37
1031.955	371.48
1032.308	350.01
1032.661	369.22
1033.013	365.83
1033.366	387.3
1033.719	372.9
1034.071	360.18
1034.424	351.14
1034.776	363.85
1035.128	379.11
1035.48	364.14
1035.833	374.03
1036.185	361.88
1036.537	361.88
1036.889	361.88
