Data from SCSF78-405_irradiation_FLMS019251_03-44-13-873.txt Node
Date: Fri Feb 22 03:44:13 PST 2019
User: mu3e
Spectrometer: FLMS01925
Trigger mode: 0
Integration Time (sec): 3.659600E-1
Scans to average: 10
Electric dark correction enabled: true
Nonlinearity correction enabled: true
Boxcar width: 0
XAxis mode: Wavelengths
Number of Pixels in Spectrum: 2048
>>>>>Begin Spectral Data<<<<<
187.103	-119.89
187.574	-119.89
188.045	-119.89
188.516	-158.01
188.987	-103.4
189.458	-111.36
189.929	-125.58
190.4	-103.4
190.871	-98.28
191.342	-93.74
191.813	-82.37
192.284	-15.32
192.754	-24.97
193.225	-17.02
193.696	12.23
194.166	44.3
194.637	86.56
195.107	116.33
195.578	124.84
196.048	135.04
196.518	151.76
196.989	191.7
197.459	224.26
197.929	224.54
198.399	349.55
198.869	296.69
199.339	319.31
199.809	336.83
200.279	380.91
200.749	337.96
201.219	366.22
201.689	378.09
202.159	323.83
202.628	373.57
203.098	372.44
203.568	398.99
204.037	385.15
204.507	382.61
204.976	381.76
205.445	404.35
205.915	401.81
206.384	383.45
206.853	398.14
207.323	442.46
207.792	406.05
208.261	371.59
208.73	379.22
209.199	410.85
209.668	412.26
210.137	428.63
210.606	396.73
211.075	390.51
211.543	402.38
212.012	392.77
212.481	354.35
212.95	376.39
213.418	421.01
213.887	405.76
214.355	436.54
214.824	376.39
215.292	353.51
215.76	356.61
216.229	344.75
216.697	368.48
217.165	369.05
217.633	376.96
218.101	386
218.569	454.32
219.037	363.96
219.505	415.08
219.973	393.9
220.441	373.85
220.909	372.44
221.377	375.54
221.844	382.89
222.312	380.91
222.78	383.74
223.247	381.48
223.715	336.27
224.182	361.14
224.65	374.98
225.117	357.74
225.584	348.42
226.052	343.9
226.519	393.9
226.986	366.5
227.453	368.48
227.92	354.92
228.387	397.86
228.854	373.57
229.321	389.38
229.788	381.19
230.255	406.89
230.722	382.32
231.189	358.03
231.655	365.37
232.122	400.68
232.589	383.74
233.055	348.42
233.522	428.07
233.988	379.78
234.454	369.05
234.921	391.36
235.387	439.64
235.853	356.9
236.32	353.22
236.786	356.61
237.252	384.3
237.718	457.42
238.184	379.22
238.65	390.8
239.116	365.09
239.582	397.86
240.047	355.77
240.513	405.76
240.979	381.19
241.445	354.92
241.91	394.19
242.376	378.37
242.841	405.48
243.307	353.79
243.772	370.46
244.238	383.17
244.703	385.15
245.168	374.13
245.633	379.78
246.099	371.59
246.564	374.41
247.029	379.78
247.494	378.93
247.959	373.28
248.424	363.4
248.889	394.75
249.353	413.95
249.818	363.96
250.283	368.48
250.748	361.7
251.212	386.84
251.677	382.89
252.141	373.28
252.606	402.38
253.07	356.9
253.535	380.06
253.999	353.79
254.463	398.14
254.927	355.2
255.392	394.75
255.856	408.02
256.32	389.95
256.784	369.89
257.248	395.03
257.712	400.68
258.176	462.22
258.64	396.73
259.103	393.9
259.567	369.61
260.031	374.13
260.495	366.5
260.958	408.87
261.422	399.83
261.885	390.8
262.349	372.15
262.812	372.72
263.275	409.15
263.739	403.5
264.202	413.11
264.665	405.76
265.128	424.4
265.591	390.8
266.054	389.1
266.517	387.41
266.98	398.99
267.443	386.56
267.906	365.66
268.369	398.7
268.832	391.08
269.294	388.82
269.757	410.28
270.22	389.95
270.682	388.54
271.145	413.39
271.607	413.95
272.07	467.3
272.532	387.12
272.994	401.81
273.456	391.93
273.919	438.23
274.381	373.28
274.843	436.25
275.305	418.75
275.767	392.49
276.229	427.5
276.691	394.75
277.153	389.1
277.614	398.14
278.076	387.41
278.538	407.18
279	400.12
279.461	371.87
279.923	482.25
280.384	379.22
280.846	391.36
281.307	387.41
281.769	377.24
282.23	398.7
282.691	414.52
283.152	399.27
283.613	396.44
284.075	385.15
284.536	408.31
284.997	387.41
285.458	388.54
285.918	400.68
286.379	410
286.84	414.52
287.301	393.9
287.762	406.33
288.222	394.47
288.683	398.99
289.143	415.08
289.604	404.35
290.064	384.3
290.525	397.86
290.985	442.18
291.445	378.65
291.906	378.37
292.366	395.03
292.826	370.74
293.286	386.56
293.746	393.9
294.206	432.87
294.666	408.02
295.126	434
295.586	419.32
296.046	400.4
296.506	388.82
296.965	383.74
297.425	409.15
297.884	440.49
298.344	432.02
298.804	411.98
299.263	407.74
299.722	400.96
300.182	431.74
300.641	392.49
301.1	407.46
301.559	395.6
302.019	390.23
302.478	437.1
302.937	411.41
303.396	432.58
303.855	479.14
304.314	417.62
304.772	525.96
305.231	405.76
305.69	430.04
306.149	400.96
306.607	410.85
307.066	416.49
307.524	445
307.983	414.52
308.441	439.36
308.9	452.06
309.358	393.9
309.816	468.42
310.275	405.2
310.733	386.56
311.191	410.56
311.649	433.43
312.107	419.88
312.565	421.29
313.023	399.55
313.481	411.98
313.939	409.43
314.397	423.27
314.854	409.43
315.312	377.52
315.77	428.35
316.227	410.56
316.685	420.45
317.142	428.35
317.6	438.51
318.057	426.94
318.514	415.65
318.972	419.03
319.429	432.58
319.886	403.22
320.343	426.09
320.8	390.51
321.257	421.86
321.714	434.56
322.171	455.45
322.628	400.68
323.085	409.15
323.542	392.21
323.998	414.23
324.455	414.23
324.912	410
325.368	388.54
325.825	437.38
326.281	409.15
326.738	440.21
327.194	401.25
327.65	438.23
328.107	397.57
328.563	400.96
329.019	434.84
329.475	427.22
329.931	414.23
330.387	417.34
330.843	376.67
331.299	430.61
331.755	409.15
332.211	392.21
332.666	430.89
333.122	409.72
333.578	409.72
334.033	422.14
334.489	417.62
334.944	398.14
335.4	491.84
335.855	452.06
336.31	419.6
336.766	411.13
337.221	406.33
337.676	422.42
338.131	421.86
338.586	410.56
339.041	427.79
339.496	437.1
339.951	423.55
340.406	428.91
340.861	410
341.316	424.4
341.771	427.5
342.225	406.61
342.68	432.02
343.134	410.28
343.589	436.25
344.043	413.39
344.498	405.76
344.952	424.68
345.406	598.38
345.861	408.02
346.315	397.29
346.769	402.94
347.223	401.81
347.677	416.49
348.131	384.3
348.585	394.75
349.039	408.31
349.493	421.58
349.947	439.64
350.401	438.51
350.854	431.74
351.308	473.78
351.762	428.07
352.215	463.35
352.669	429.76
353.122	411.69
353.575	441.62
354.029	428.35
354.482	387.69
354.935	426.37
355.388	457.7
355.842	434
356.295	427.5
356.748	416.78
357.201	424.4
357.654	434
358.106	409.15
358.559	380.63
359.012	425.81
359.465	424.96
359.917	469.27
360.37	423.55
360.823	404.07
361.275	463.63
361.728	424.12
362.18	428.35
362.632	443.59
363.085	404.63
363.537	416.78
363.989	386.84
364.441	455.73
364.893	402.94
365.345	410.28
365.797	421.58
366.249	411.41
366.701	390.23
367.153	428.91
367.605	427.5
368.057	417.9
368.508	435.97
368.96	392.49
369.411	424.96
369.863	417.06
370.314	428.35
370.766	444.72
371.217	418.19
371.669	427.22
372.12	461.65
372.571	425.81
373.022	422.99
373.473	419.6
373.924	426.37
374.375	435.97
374.826	460.81
375.277	416.78
375.728	420.16
376.179	446.41
376.63	423.55
377.08	422.7
377.531	422.42
377.981	400.68
378.432	446.13
378.883	444.72
379.333	439.92
379.783	423.55
380.234	418.47
380.684	419.88
381.134	439.08
381.584	461.65
382.034	480.27
382.485	438.23
382.935	425.81
383.385	454.6
383.834	426.09
384.284	445.29
384.734	409.15
385.184	446.98
385.634	426.66
386.083	454.03
386.533	393.9
386.982	412.82
387.432	450.08
387.881	425.25
388.331	419.6
388.78	454.6
389.229	443.31
389.679	423.27
390.128	454.03
390.577	430.89
391.026	405.48
391.475	429.76
391.924	431.17
392.373	451.78
392.822	426.37
393.27	455.73
393.719	446.7
394.168	456.86
394.617	438.79
395.065	421.58
395.514	465.04
395.962	460.81
396.411	428.91
396.859	437.1
397.307	455.45
397.756	462.5
398.204	438.51
398.652	494.38
399.1	475.76
399.548	421.29
399.996	480.84
400.444	456.01
400.892	460.24
401.34	454.32
401.788	450.65
402.236	457.14
402.683	466.17
403.131	482.25
403.579	465.04
404.026	479.14
404.474	466.73
404.921	476.61
405.369	477.17
405.816	440.21
406.263	483.09
406.71	508.76
407.158	488.45
407.605	494.66
408.052	536.39
408.499	528.78
408.946	521.17
409.393	509.89
409.84	515.81
410.286	534.98
410.733	578.94
411.18	575
411.626	616.96
412.073	641.74
412.52	717.42
412.966	821.95
413.413	971.2
413.859	1124.63
414.305	1344.44
414.752	1622.84
415.198	1968.9
415.644	2450.84
416.09	3038.18
416.536	3606.86
416.982	4374.5
417.428	5268.58
417.874	6171.63
418.32	7189.75
418.766	8314.17
419.211	9623.67
419.657	10792.53
420.103	12351.94
420.548	13487.98
420.994	15169.01
421.439	16634.21
421.885	17994.25
422.33	19859.35
422.776	21375.72
423.221	22831.7
423.666	24439.81
424.111	26123.15
424.556	27175.59
425.001	29061.61
425.446	30674.49
425.891	31885.74
426.336	32955.8
426.781	34375.18
427.226	36581.97
427.671	37212.88
428.115	37864.11
428.56	39505.09
429.005	41009.87
429.449	41307.91
429.894	42417.73
430.338	43509.44
430.782	43111.66
431.227	44584.74
431.671	44576.21
432.115	45874.07
432.559	46712.11
433.003	46314.04
433.447	46988.48
433.891	47103.17
434.335	47399.28
434.779	47860.95
435.223	47918.69
435.667	47963.62
436.111	48193.69
436.554	48150.98
436.998	47345.62
437.442	47525.34
437.885	49345.59
438.328	47956.94
438.772	48204.5
439.215	48647.82
439.659	48169.5
440.102	48590.46
440.545	47913.81
440.988	47717.88
441.431	48429.41
441.874	48042.48
442.317	48200.38
442.76	47734.02
443.203	47124.08
443.646	47995.72
444.089	47486.71
444.531	48201.15
444.974	46691.26
445.417	47859.92
445.859	46942.89
446.302	48110.86
446.744	47385.73
447.186	48782.31
447.629	47764.01
448.071	47825.55
448.513	47815.29
448.956	49358.35
449.398	48632.32
449.84	47363.25
450.282	48035.29
450.724	48721.25
451.166	48366.75
451.607	48378.87
452.049	48418.06
452.491	49754.3
452.933	49236.56
453.374	50015.03
453.816	50541.24
454.257	50087.77
454.699	51355.84
455.14	51085.96
455.582	50911.7
456.023	50829.91
456.464	51201.41
456.905	51762.74
457.347	51872.45
457.788	50886.19
458.229	51002.1
458.67	52248.21
459.111	50257.93
459.552	50397.6
459.992	50439.82
460.433	50319.56
460.874	49108.44
461.315	50424.78
461.755	49652.59
462.196	49181.19
462.636	48336.6
463.077	48099.29
463.517	48344.85
463.957	48607.51
464.398	48178.25
464.838	48423.73
465.278	47282.54
465.718	47586.5
466.158	46454.81
466.598	47230.72
467.038	46760.17
467.478	47181.72
467.918	47365.04
468.358	46705.5
468.798	46534.26
469.237	46335.34
469.677	46248.4
470.117	47097.56
470.556	44835.07
470.996	45371.04
471.435	45588.67
471.874	46361.2
472.314	46228.38
472.753	45153.44
473.192	45350.13
473.631	45026.38
474.07	45343.83
474.509	45461.03
474.948	45860.92
475.387	45149.16
475.826	44255.82
476.265	46070.1
476.704	45707.57
477.143	46208.36
477.581	45936.27
478.02	46572.1
478.458	45195.98
478.897	45813.92
479.335	47214.13
479.774	46630.78
480.212	46968.36
480.65	46931.43
481.089	46672.46
481.527	46035.68
481.965	45613.15
482.403	47896.87
482.841	47502.06
483.279	47724.8
483.717	47846.33
484.155	47328.25
484.592	47849.92
485.03	48206.81
485.468	47064.93
485.905	47303.99
486.343	47907.65
486.781	47228.42
487.218	46493.39
487.655	46552.04
488.093	45606.08
488.53	47346.64
488.967	46405.85
489.405	46223.82
489.842	45148.4
490.279	45251.12
490.716	45026.88
491.153	45475.66
491.59	44761.22
492.027	44021.24
492.463	43745.2
492.9	42751.89
493.337	42777.26
493.773	42798.91
494.21	41807.96
494.647	41826.55
495.083	41044.97
495.519	40599.02
495.956	40559.77
496.392	39940.48
496.828	39704.74
497.265	38950.25
497.701	39064.55
498.137	38665.26
498.573	37816.06
499.009	38320.58
499.445	37373.77
499.881	36797.99
500.316	37160.48
500.752	36151.38
501.188	35874.48
501.624	35958.78
502.059	34451.79
502.495	34413.97
502.93	34260.76
503.366	35009.68
503.801	33870.72
504.236	33550.51
504.672	32885.33
505.107	32629.09
505.542	31960.59
505.977	31949.86
506.412	31475.38
506.847	31810.4
507.282	31103.26
507.717	30766.2
508.152	30842.3
508.587	30585.69
509.021	29723.09
509.456	29398.63
509.891	29471.39
510.325	29494.1
510.76	29010.31
511.194	28754.76
511.628	28915.77
512.063	28144.39
512.497	28206.74
512.931	27557.26
513.366	27356.78
513.8	27474.53
514.234	26664.06
514.668	26676.07
515.102	26900.77
515.536	25901.34
515.969	26232.79
516.403	25628.61
516.837	25233.14
517.271	25341.25
517.704	24819.17
518.138	24729.16
518.571	24510.93
519.005	24035.03
519.438	23970.99
519.871	23743.8
520.305	23172.62
520.738	23174.59
521.171	22634.33
521.604	22879.11
522.037	22528.08
522.47	22112.22
522.903	21705.63
523.336	21595.68
523.769	21553.58
524.202	20948.34
524.634	20964.21
525.067	20622.56
525.5	20473.11
525.932	20256.28
526.365	20006.78
526.797	19829.5
527.23	19665.34
527.662	19044.39
528.094	18903.59
528.527	18763.73
528.959	18481.87
529.391	18252.49
529.823	17622.57
530.255	17697.09
530.687	17339.38
531.119	17046.2
531.551	17001.87
531.982	16571.27
532.414	16423.27
532.846	16120.31
533.277	16026.88
533.709	15488.17
534.14	15422.25
534.572	15200.99
535.003	15117.89
535.435	14814.75
535.866	14575.4
536.297	14198.98
536.728	14304.81
537.159	14098.16
537.59	13716.83
538.022	13624.95
538.452	13470
538.883	13201.9
539.314	13074.09
539.745	12805.59
540.176	12689.53
540.606	12275.61
541.037	12266.2
541.468	12122.12
541.898	11923.68
542.328	11868.12
542.759	11577.84
543.189	11547.98
543.619	11374.06
544.05	11195.4
544.48	10949.53
544.91	10927.25
545.34	10716.68
545.77	10565.14
546.2	10450.71
546.63	10268.13
547.06	10245.27
547.489	10108.52
547.919	9757.44
548.349	9806.9
548.778	9778.31
549.208	9590.15
549.637	9346.77
550.067	9314.23
550.496	9280.9
550.926	9070.19
551.355	8886.13
551.784	8908.66
552.213	8644.79
552.642	8602.76
553.071	8545.92
553.5	8415.28
553.929	8152.1
554.358	8120.86
554.787	8026.83
555.216	8037.26
555.645	7903.55
556.073	7760.31
556.502	7672.57
556.93	7468.67
557.359	7491.95
557.787	7453.49
558.216	7274.66
558.644	7188.7
559.072	7175.32
559.5	7001.88
559.929	7065.15
560.357	6973.26
560.785	6932.54
561.213	6874.2
561.641	6695.07
562.068	6741.65
562.496	6580.5
562.924	6584.45
563.352	6570.75
563.779	6557.84
564.207	6476.11
564.634	6395.91
565.062	6344.96
565.489	6271.54
565.917	6235.6
566.344	6253.84
566.771	6159.2
567.198	6127.72
567.625	6003.59
568.053	5892.04
568.48	5880.91
568.907	5843.78
569.333	5784.09
569.76	5577.71
570.187	5636.19
570.614	5531.7
571.04	11729.15
571.467	5433.51
571.894	5301.37
572.32	5104.46
572.747	5011.2
573.173	5022.16
573.599	4921.34
574.026	4799.78
574.452	4746.19
574.878	4725.28
575.304	4558.37
575.73	4513.78
576.156	4391.18
576.582	4422.11
577.008	4324.7
577.434	4201.59
577.86	4131.2
578.285	4132.55
578.711	4043.48
579.137	3980.54
579.562	3871.84
579.988	3902.14
580.413	3844.78
580.838	3725.09
581.264	3709.64
581.689	3646.47
582.114	3595.73
582.539	4059.41
582.964	3485.49
583.39	3504.23
583.814	3344.08
584.239	3329.65
584.664	3304.06
585.089	3244.14
585.514	3206.53
585.939	3150.63
586.363	3116.26
586.788	3033.54
587.212	3036.82
587.637	2947.46
588.061	2923.12
588.485	2859.1
588.91	2870.87
589.334	2807.9
589.758	2826.25
590.182	2759.96
590.606	2733.92
591.03	2627.78
591.454	2614.33
591.878	2617.62
592.302	2563.8
592.726	2567.1
593.15	2506.1
593.573	2405.44
593.997	2482.19
594.42	2369.11
594.844	2364.43
595.267	2338.27
595.691	2315.68
596.114	2274.07
596.537	2274.34
596.96	2272.41
597.384	2226.09
597.807	2133.37
598.23	2170.36
598.653	2148
599.076	2089.73
599.499	2087.24
599.921	2105.2
600.344	2074.81
600.767	2046.89
601.189	2059.33
601.612	2014.27
602.034	2017.31
602.457	1996.29
602.879	2105.75
603.302	1977.2
603.724	1975.27
604.146	1926.28
604.568	1900.25
604.991	1927.11
605.413	1904.41
605.835	1922.68
606.257	1899.15
606.678	1894.44
607.1	1929.05
607.522	1914.93
607.944	1868.12
608.365	1890.56
608.787	1814.91
609.209	1845.4
609.63	1754.73
610.051	1754.73
610.473	1728.65
610.894	1766.11
611.315	1708.39
611.737	1729.76
612.158	1628.4
612.579	1625.62
613	1656.46
613.421	1602.27
613.842	1567.52
614.263	1588.09
614.683	1521.62
615.104	1538.87
615.525	1505.47
615.945	1491.28
616.366	1450.9
616.787	1452.02
617.207	1433.63
617.627	1367.3
618.048	1376.78
618.468	1388.21
618.888	1370.93
619.308	1330.49
619.728	1347.78
620.148	1303.71
620.568	1302.03
620.988	1328.54
621.408	1266.03
621.828	1181.67
622.248	1240.9
622.668	1209.05
623.087	1242.85
623.507	1163.22
623.926	1169.93
624.346	1167.41
624.765	1170.77
625.185	1136.65
625.604	1134.14
626.023	1094.97
626.442	1091.9
626.861	1138.61
627.28	1083.78
627.699	1072.31
628.118	1077.35
628.537	1087.7
628.956	1038.71
629.375	1060.55
629.794	1033.95
630.212	1048.23
630.631	1037.03
631.049	1007.91
631.468	1003.7
631.886	970.64
632.305	992.78
632.723	930.27
633.141	954.94
633.559	935.32
633.978	927.75
634.396	957.47
634.814	913.72
635.232	914.29
635.65	946.53
636.067	893.25
636.485	901.66
636.903	878.1
637.321	848.07
637.738	930.83
638.156	823.64
638.573	866.31
638.991	908.4
639.408	895.49
639.825	830.94
640.243	860.42
640.66	816.06
641.077	821.67
641.494	816.9
641.911	827.01
642.328	789.93
642.745	798.64
643.162	782.91
643.579	792.46
643.995	792.46
644.412	798.92
644.829	744.69
645.245	752.56
645.662	768.86
646.078	752.28
646.495	747.5
646.911	734.29
647.327	761.27
647.743	700.26
648.159	770.27
648.576	729.23
648.992	748.35
649.408	749.19
649.824	723.89
650.239	704.76
650.655	687.32
651.071	701.39
651.487	705.33
651.902	730.07
652.318	681.7
652.733	647.37
653.149	666.79
653.564	687.32
653.979	649.34
654.395	638.08
654.81	641.17
655.225	664.25
655.64	644.83
656.055	698.01
656.47	663.41
656.885	631.89
657.3	635.26
657.715	696.04
658.13	627.66
658.544	649.06
658.959	622.59
659.374	635.54
659.788	639.77
660.202	636.95
660.617	662.28
661.031	608.8
661.445	626.82
661.86	613.87
662.274	634.98
662.688	639.2
663.102	605.14
663.516	612.74
663.93	593.03
664.344	597.25
664.758	605.42
665.171	598.09
665.585	587.67
665.999	624
666.412	557.24
666.826	614.99
667.239	602.32
667.653	580.91
668.066	545.41
668.479	621.19
668.892	549.92
669.306	576.4
669.719	576.97
670.132	568.8
670.545	559.22
670.958	549.64
671.37	558.37
671.783	523.14
672.196	556.68
672.609	500.3
673.021	534.42
673.434	516.94
673.846	534.98
674.259	531.03
674.671	520.32
675.084	541.74
675.496	529.06
675.908	529.06
676.32	511.01
676.732	559.22
677.144	530.75
677.556	511.58
677.968	547.38
678.38	540.05
678.792	521.73
679.204	513.27
679.615	543.15
680.027	484.5
680.439	509.32
680.85	532.16
681.262	556.68
681.673	518.06
682.084	511.86
682.496	501.99
682.907	508.2
683.318	502.27
683.729	493.81
684.14	501.15
684.551	481.12
684.962	536.39
685.373	470.96
685.784	475.48
686.194	503.4
686.605	484.22
687.016	512.99
687.426	488.45
687.837	479.14
688.247	467.58
688.657	492.4
689.068	484.22
689.478	457.14
689.888	454.03
690.298	479.14
690.708	487.33
691.118	480.84
691.528	475.76
691.938	470.4
692.348	483.66
692.758	463.63
693.168	470.96
693.577	499.17
693.987	466.45
694.396	476.61
694.806	464.47
695.215	473.78
695.625	443.87
696.034	482.25
696.443	469.84
696.852	498.32
697.262	430.33
697.671	463.91
698.08	477.45
698.489	467.01
698.897	465.04
699.306	487.61
699.715	447.83
700.124	478.86
700.532	453.75
700.941	492.12
701.35	429.48
701.758	472.66
702.166	463.35
702.575	425.81
702.983	440.77
703.391	461.65
703.799	449.52
704.208	470.68
704.616	440.77
705.024	483.94
705.432	427.79
705.839	442.18
706.247	458.27
706.655	513.27
707.063	455.45
707.47	442.46
707.878	421.01
708.285	439.08
708.693	431.17
709.1	429.76
709.508	423.27
709.915	430.89
710.322	448.39
710.729	513.83
711.136	431.17
711.543	451.78
711.95	443.87
712.357	439.64
712.764	431.17
713.171	436.25
713.578	443.03
713.984	418.75
714.391	431.74
714.797	412.26
715.204	439.92
715.61	481.12
716.017	424.12
716.423	401.81
716.829	424.12
717.236	404.07
717.642	434
718.048	453.47
718.454	438.51
718.86	416.78
719.266	480.27
719.671	407.18
720.077	454.03
720.483	434
720.889	441.9
721.294	407.46
721.7	415.08
722.105	421.86
722.511	430.61
722.916	414.8
723.321	418.75
723.726	447.83
724.132	403.79
724.537	452.91
724.942	435.12
725.347	445
725.752	466.17
726.156	404.35
726.561	430.04
726.966	395.6
727.371	457.14
727.775	435.97
728.18	414.52
728.584	424.12
728.989	424.4
729.393	485.35
729.798	416.78
730.202	426.94
730.606	395.88
731.01	422.42
731.414	405.2
731.818	447.83
732.222	465.32
732.626	402.66
733.03	416.21
733.434	407.18
733.837	451.78
734.241	466.73
734.645	418.47
735.048	421.29
735.452	411.13
735.855	404.07
736.258	411.13
736.662	444.44
737.065	448.39
737.468	437.1
737.871	410
738.274	441.62
738.677	419.88
739.08	434.28
739.483	416.78
739.886	441.33
740.289	434.28
740.691	398.99
741.094	397.86
741.497	394.75
741.899	431.74
742.302	402.94
742.704	396.73
743.106	416.78
743.508	399.55
743.911	391.64
744.313	421.29
744.715	430.89
745.117	422.14
745.519	411.41
745.921	387.41
746.323	415.36
746.724	400.12
747.126	399.55
747.528	414.52
747.929	424.96
748.331	399.55
748.732	408.02
749.134	385.43
749.535	385.15
749.936	441.9
750.338	389.38
750.739	435.69
751.14	398.99
751.541	391.93
751.942	413.95
752.343	378.65
752.744	411.41
753.144	404.07
753.545	413.95
753.946	416.49
754.346	369.89
754.747	430.04
755.148	510.73
755.548	405.76
755.948	389.67
756.349	400.4
756.749	409.72
757.149	390.51
757.549	435.97
757.949	411.98
758.349	412.26
758.749	374.13
759.149	411.41
759.549	390.8
759.949	393.34
760.348	468.14
760.748	413.39
761.148	375.26
761.547	411.13
761.947	402.09
762.346	415.65
762.745	445.85
763.145	390.8
763.544	420.73
763.943	401.25
764.342	386.84
764.741	358.03
765.14	386.28
765.539	405.2
765.938	440.49
766.336	385.43
766.735	387.12
767.134	380.06
767.532	423.55
767.931	410.85
768.329	450.93
768.728	392.77
769.126	417.34
769.525	457.14
769.923	400.12
770.321	390.51
770.719	433.43
771.117	393.06
771.515	420.73
771.913	396.16
772.311	397.86
772.709	419.88
773.106	393.34
773.504	408.59
773.902	399.27
774.299	402.09
774.697	502.27
775.094	386.84
775.491	409.72
775.889	386
776.286	363.11
776.683	413.11
777.08	397.01
777.477	387.41
777.874	415.65
778.271	388.82
778.668	396.16
779.065	411.69
779.462	397.29
779.858	406.61
780.255	441.62
780.652	393.9
781.048	433.15
781.444	383.45
781.841	406.89
782.237	403.5
782.633	384.58
783.03	373.28
783.426	384.87
783.822	365.09
784.218	390.23
784.614	395.03
785.01	399.55
785.405	365.09
785.801	382.89
786.197	392.21
786.593	386.28
786.988	395.88
787.384	443.31
787.779	380.35
788.174	379.78
788.57	428.63
788.965	398.99
789.36	392.77
789.755	391.08
790.15	373.57
790.545	406.33
790.94	380.06
791.335	397.86
791.73	393.06
792.125	419.88
792.52	414.52
792.914	400.12
793.309	383.17
793.703	408.59
794.098	411.69
794.492	369.89
794.887	389.95
795.281	446.13
795.675	422.14
796.069	428.63
796.463	393.06
796.857	403.22
797.251	367.92
797.645	375.83
798.039	388.25
798.433	393.62
798.826	384.87
799.22	399.55
799.614	409.43
800.007	385.43
800.401	415.08
800.794	367.07
801.187	394.19
801.581	391.36
801.974	402.94
802.367	405.48
802.76	388.54
803.153	400.96
803.546	388.82
803.939	405.2
804.332	395.32
804.725	384.58
805.117	384.3
805.51	409.43
805.903	391.36
806.295	417.9
806.688	394.19
807.08	380.06
807.472	385.43
807.865	387.69
808.257	410.85
808.649	415.36
809.041	378.93
809.433	425.53
809.825	425.25
810.217	373.57
810.609	375.54
811.001	405.76
811.392	382.04
811.784	415.65
812.175	377.8
812.567	388.54
812.958	417.06
813.35	389.67
813.741	365.66
814.132	380.35
814.524	367.92
814.915	421.86
815.306	395.6
815.697	387.12
816.088	395.32
816.479	429.2
816.87	372.72
817.26	418.75
817.651	450.08
818.042	390.51
818.432	419.03
818.823	414.52
819.213	395.88
819.604	377.8
819.994	405.2
820.384	369.61
820.775	397.57
821.165	397.01
821.555	402.66
821.945	371.31
822.335	389.1
822.725	426.66
823.114	402.09
823.504	363.68
823.894	390.51
824.284	410.28
824.673	396.73
825.063	394.75
825.452	384.02
825.842	384.02
826.231	445.85
826.62	403.79
827.009	437.67
827.399	390.51
827.788	406.05
828.177	382.04
828.566	393.62
828.954	472.09
829.343	419.88
829.732	384.58
830.121	481.12
830.509	455.16
830.898	369.61
831.286	392.49
831.675	417.34
832.063	413.11
832.452	362.83
832.84	399.83
833.228	418.47
833.616	387.41
834.004	382.89
834.392	377.8
834.78	399.83
835.168	357.74
835.556	404.63
835.944	398.42
836.331	415.93
836.719	398.14
837.107	414.52
837.494	405.76
837.881	385.43
838.269	387.69
838.656	373.57
839.043	373.28
839.431	432.02
839.818	387.12
840.205	367.35
840.592	408.02
840.979	365.37
841.366	367.35
841.752	359.16
842.139	393.62
842.526	384.3
842.912	373
843.299	381.48
843.685	400.96
844.072	395.32
844.458	401.53
844.844	385.43
845.231	380.63
845.617	372.72
846.003	389.38
846.389	377.8
846.775	378.37
847.161	396.16
847.547	344.46
847.933	363.68
848.318	396.16
848.704	370.46
849.09	387.41
849.475	365.37
849.861	389.38
850.246	387.97
850.631	420.45
851.017	413.67
851.402	407.18
851.787	411.13
852.172	441.05
852.557	376.11
852.942	399.83
853.327	404.92
853.712	408.59
854.097	374.7
854.481	377.52
854.866	403.5
855.25	369.05
855.635	393.34
856.019	372.44
856.404	370.18
856.788	376.39
857.172	361.7
857.557	400.12
857.941	388.54
858.325	391.36
858.709	367.35
859.093	357.46
859.477	371.31
859.86	395.03
860.244	386.84
860.628	430.33
861.012	414.23
861.395	361.7
861.779	375.83
862.162	380.63
862.545	363.68
862.929	353.51
863.312	379.78
863.695	375.83
864.078	398.99
864.461	361.14
864.844	404.63
865.227	445.29
865.61	380.35
865.993	394.47
866.376	394.75
866.758	394.19
867.141	426.66
867.523	366.79
867.906	349.55
868.288	397.29
868.671	402.38
869.053	371.59
869.435	374.7
869.817	424.68
870.199	351.81
870.581	397.57
870.963	376.67
871.345	417.34
871.727	380.63
872.109	365.94
872.491	401.53
872.872	408.02
873.254	358.31
873.635	363.4
874.017	400.12
874.398	348.14
874.779	430.89
875.161	360.29
875.542	399.55
875.923	372.15
876.304	383.74
876.685	382.61
877.066	378.09
877.447	406.89
877.828	391.64
878.208	376.11
878.589	426.66
878.97	426.94
879.35	400.68
879.731	358.31
880.111	374.7
880.491	373.57
880.872	407.46
881.252	386.84
881.632	395.88
882.012	443.87
882.392	391.64
882.772	395.03
883.152	399.27
883.532	402.66
883.912	411.41
884.291	409.72
884.671	378.37
885.051	376.39
885.43	399.27
885.81	400.12
886.189	379.22
886.568	369.33
886.948	393.34
887.327	402.09
887.706	397.01
888.085	415.93
888.464	389.67
888.843	463.35
889.222	398.99
889.601	419.6
889.979	374.98
890.358	378.37
890.737	388.54
891.115	360.85
891.494	405.2
891.872	382.32
892.25	348.7
892.629	385.71
893.007	410.28
893.385	408.59
893.763	371.59
894.141	390.8
894.519	380.91
894.897	385.43
895.275	370.18
895.653	362.55
896.03	365.09
896.408	417.06
896.786	379.22
897.163	370.46
897.541	389.95
897.918	399.55
898.295	347.29
898.673	386.84
899.05	362.27
899.427	549.07
899.804	371.02
900.181	395.6
900.558	424.68
900.935	392.49
901.312	354.64
901.688	353.79
902.065	406.33
902.442	403.79
902.818	374.13
903.195	369.33
903.571	361.98
903.947	368.2
904.324	374.13
904.7	398.42
905.076	413.95
905.452	391.36
905.828	382.61
906.204	390.51
906.58	377.52
906.956	389.67
907.331	411.98
907.707	408.87
908.083	385.43
908.458	391.64
908.834	362.55
909.209	358.88
909.585	378.93
909.96	371.59
910.335	360.85
910.71	373
911.086	375.26
911.461	406.05
911.836	386.56
912.21	349.55
912.585	381.19
912.96	405.48
913.335	375.83
913.709	392.49
914.084	386
914.459	385.71
914.833	371.59
915.207	387.97
915.582	395.03
915.956	370.46
916.33	358.03
916.704	354.35
917.078	382.04
917.452	414.23
917.826	377.8
918.2	376.96
918.574	395.32
918.948	367.63
919.321	378.93
919.695	364.53
920.068	386
920.442	365.94
920.815	357.74
921.189	373.85
921.562	419.6
921.935	396.16
922.308	369.33
922.681	374.98
923.054	365.66
923.427	426.94
923.8	358.59
924.173	367.92
924.546	373.57
924.919	332.31
925.291	378.37
925.664	350.12
926.036	350.68
926.409	373
926.781	350.68
927.153	378.65
927.526	408.87
927.898	354.07
928.27	381.76
928.642	358.88
929.014	370.74
929.386	381.19
929.758	374.7
930.129	363.4
930.501	443.03
930.873	356.61
931.244	365.66
931.616	347.57
931.987	374.13
932.359	418.19
932.73	386.28
933.101	371.02
933.472	395.32
933.843	390.8
934.214	419.6
934.585	359.72
934.956	367.92
935.327	457.98
935.698	354.07
936.069	357.74
936.439	408.31
936.81	403.79
937.18	395.88
937.551	363.4
937.921	408.59
938.292	365.66
938.662	352.94
939.032	382.61
939.402	364.53
939.772	384.3
940.142	375.83
940.512	355.48
940.882	378.93
941.252	385.15
941.621	391.36
941.991	412.54
942.361	371.87
942.73	355.48
943.1	367.07
943.469	367.35
943.838	417.62
944.208	424.4
944.577	390.51
944.946	386
945.315	355.2
945.684	387.41
946.053	377.8
946.422	371.02
946.791	376.11
947.159	367.92
947.528	360.01
947.897	382.32
948.265	361.7
948.634	378.09
949.002	365.37
949.371	376.11
949.739	359.16
950.107	367.63
950.475	374.98
950.843	381.76
951.211	405.48
951.579	379.78
951.947	366.79
952.315	378.37
952.683	363.4
953.05	337.4
953.418	373.85
953.785	380.06
954.153	351.25
954.52	381.48
954.888	402.38
955.255	374.41
955.622	360.29
955.989	362.83
956.356	398.99
956.723	380.35
957.09	383.74
957.457	358.59
957.824	339.94
958.191	376.39
958.557	375.26
958.924	379.22
959.291	379.22
959.657	364.81
960.023	459.68
960.39	374.13
960.756	370.74
961.122	369.61
961.488	366.79
961.855	370.46
962.221	354.07
962.586	364.24
962.952	404.92
963.318	370.18
963.684	448.95
964.05	431.74
964.415	404.35
964.781	372.72
965.146	392.77
965.512	434.84
965.877	352.38
966.242	382.61
966.608	365.37
966.973	390.8
967.338	349.27
967.703	394.19
968.068	382.89
968.433	403.5
968.797	457.42
969.162	354.64
969.527	378.09
969.891	356.9
970.256	350.12
970.62	382.32
970.985	388.25
971.349	410
971.714	392.77
972.078	342.2
972.442	382.32
972.806	403.5
973.17	361.14
973.534	376.96
973.898	373.57
974.262	392.77
974.625	408.02
974.989	353.22
975.353	423.83
975.716	373.57
976.08	339.09
976.443	328.35
976.806	373.57
977.17	374.13
977.533	384.3
977.896	350.96
978.259	397.86
978.622	508.76
978.985	391.93
979.348	365.66
979.711	367.07
980.073	385.71
980.436	388.25
980.799	380.35
981.161	383.45
981.524	355.77
981.886	357.74
982.248	376.96
982.611	383.17
982.973	370.74
983.335	388.82
983.697	382.61
984.059	380.91
984.421	356.61
984.783	370.74
985.145	373
985.506	361.7
985.868	409.15
986.23	371.31
986.591	350.12
986.953	387.97
987.314	350.96
987.675	345.88
988.037	5243.78
988.398	527.65
988.759	375.54
989.12	367.92
989.481	396.44
989.842	343.05
990.203	380.06
990.564	350.12
990.924	367.92
991.285	4325.24
991.646	463.35
992.006	362.83
992.367	360.57
992.727	359.44
993.087	373
993.448	375.83
993.808	381.48
994.168	367.35
994.528	378.93
994.888	388.54
995.248	382.61
995.608	372.15
995.967	363.68
996.327	348.7
996.687	399.27
997.046	376.96
997.406	341.07
997.765	351.25
998.125	351.25
998.484	365.66
998.843	402.38
999.202	364.24
999.561	338.81
999.92	358.88
1000.279	378.65
1000.638	354.35
1000.997	359.44
1001.356	370.74
1001.715	335.14
1002.073	376.96
1002.432	377.24
1002.79	364.81
1003.149	349.27
1003.507	402.94
1003.865	360.57
1004.224	400.68
1004.582	404.07
1004.94	365.37
1005.298	371.02
1005.656	351.53
1006.014	356.33
1006.371	363.11
1006.729	376.67
1007.087	387.12
1007.445	376.11
1007.802	365.66
1008.16	324.68
1008.517	381.76
1008.874	396.73
1009.232	362.83
1009.589	392.77
1009.946	374.7
1010.303	357.46
1010.66	387.97
1011.017	386.56
1011.374	422.42
1011.731	378.93
1012.087	366.22
1012.444	392.21
1012.801	408.31
1013.157	364.24
1013.513	349.83
1013.87	361.7
1014.226	375.26
1014.582	369.89
1014.939	364.81
1015.295	367.35
1015.651	338.81
1016.007	350.68
1016.363	387.12
1016.719	353.22
1017.074	398.14
1017.43	359.72
1017.786	341.92
1018.141	390.8
1018.497	348.99
1018.852	401.81
1019.208	365.09
1019.563	361.14
1019.918	335.7
1020.273	354.07
1020.628	362.27
1020.983	384.02
1021.338	365.66
1021.693	369.89
1022.048	397.57
1022.403	347.85
1022.757	377.24
1023.112	393.9
1023.467	346.44
1023.821	343.62
1024.175	359.44
1024.53	353.51
1024.884	355.48
1025.238	364.24
1025.592	363.96
1025.946	363.4
1026.3	376.39
1026.654	365.09
1027.008	372.72
1027.362	352.38
1027.716	378.65
1028.069	365.37
1028.423	396.73
1028.777	343.9
1029.13	360.85
1029.483	394.75
1029.837	395.6
1030.19	345.03
1030.543	362.83
1030.896	372.72
1031.249	378.93
1031.602	341.64
1031.955	354.35
1032.308	390.23
1032.661	404.63
1033.013	376.67
1033.366	374.98
1033.719	380.35
1034.071	365.94
1034.424	333.44
1034.776	357.46
1035.128	376.67
1035.48	367.92
1035.833	402.94
1036.185	371.59
1036.537	371.59
1036.889	371.59
