Data from SCSF78-405_irradiation_FLMS019251_05-59-48-347.txt Node
Date: Fri Feb 22 05:59:48 PST 2019
User: mu3e
Spectrometer: FLMS01925
Trigger mode: 0
Integration Time (sec): 3.659600E-1
Scans to average: 10
Electric dark correction enabled: true
Nonlinearity correction enabled: true
Boxcar width: 0
XAxis mode: Wavelengths
Number of Pixels in Spectrum: 2048
>>>>>Begin Spectral Data<<<<<
187.103	-103.4
187.574	-103.4
188.045	-103.4
188.516	-178.5
188.987	-105.68
189.458	-134.4
189.929	-148.34
190.4	-74.12
190.871	-97.72
191.342	-103.69
191.813	-60.2
192.284	-6.51
192.754	-21.56
193.225	12.23
193.696	44.58
194.166	17.62
194.637	71.81
195.107	87.7
195.578	117.47
196.048	157.43
196.518	136.74
196.989	171.02
197.459	199.91
197.929	199.06
198.399	320.16
198.869	286.22
199.339	305.74
199.809	332.03
200.279	385.71
200.749	352.66
201.219	336.27
201.689	340.22
202.159	347.01
202.628	371.31
203.098	389.95
203.568	382.04
204.037	416.21
204.507	398.7
204.976	424.68
205.445	407.18
205.915	381.76
206.384	404.35
206.853	386.56
207.323	426.09
207.792	399.27
208.261	407.18
208.73	403.5
209.199	405.2
209.668	414.23
210.137	437.1
210.606	408.87
211.075	405.48
211.543	408.02
212.012	413.11
212.481	393.62
212.95	359.72
213.418	402.66
213.887	415.08
214.355	412.54
214.824	358.31
215.292	350.4
215.76	382.32
216.229	357.46
216.697	367.63
217.165	360.57
217.633	388.25
218.101	377.8
218.569	449.8
219.037	368.2
219.505	418.19
219.973	397.29
220.441	343.62
220.909	351.53
221.377	344.75
221.844	372.44
222.312	358.31
222.78	335.99
223.247	379.78
223.715	358.88
224.182	376.11
224.65	378.65
225.117	400.12
225.584	334.01
226.052	370.18
226.519	336.83
226.986	379.78
227.453	355.48
227.92	410.28
228.387	401.53
228.854	354.07
229.321	381.48
229.788	384.3
230.255	418.47
230.722	375.83
231.189	404.35
231.655	352.94
232.122	376.11
232.589	352.94
233.055	357.74
233.522	426.37
233.988	383.45
234.454	394.19
234.921	368.2
235.387	439.92
235.853	374.7
236.32	389.67
236.786	343.33
237.252	359.72
237.718	438.79
238.184	373.28
238.65	372.44
239.116	356.61
239.582	395.32
240.047	356.05
240.513	380.06
240.979	381.19
241.445	375.26
241.91	371.02
242.376	361.14
242.841	403.22
243.307	369.05
243.772	354.64
244.238	382.32
244.703	387.12
245.168	371.02
245.633	402.09
246.099	357.74
246.564	384.58
247.029	382.32
247.494	334.01
247.959	392.49
248.424	408.31
248.889	362.27
249.353	428.35
249.818	388.54
250.283	357.46
250.748	370.74
251.212	402.66
251.677	375.54
252.141	377.8
252.606	402.94
253.07	360.57
253.535	389.95
253.999	383.74
254.463	398.7
254.927	372.15
255.392	375.54
255.856	397.01
256.32	372.72
256.784	375.54
257.248	382.32
257.712	385.71
258.176	444.44
258.64	374.98
259.103	387.97
259.567	393.34
260.031	382.89
260.495	394.47
260.958	414.52
261.422	403.79
261.885	397.01
262.349	395.6
262.812	370.74
263.275	398.99
263.739	414.23
264.202	393.06
264.665	406.89
265.128	413.11
265.591	409.72
266.054	401.53
266.517	413.95
266.98	393.06
267.443	385.71
267.906	404.35
268.369	373.28
268.832	362.55
269.294	371.02
269.757	409.72
270.22	360.85
270.682	381.48
271.145	395.03
271.607	389.67
272.07	468.42
272.532	351.53
272.994	380.35
273.456	400.12
273.919	475.48
274.381	401.81
274.843	417.34
275.305	426.94
275.767	397.29
276.229	397.86
276.691	386
277.153	393.9
277.614	442.75
278.076	369.33
278.538	400.96
279	375.54
279.461	400.96
279.923	436.82
280.384	387.41
280.846	389.38
281.307	412.82
281.769	402.09
282.23	371.02
282.691	400.4
283.152	367.92
283.613	395.32
284.075	391.64
284.536	422.42
284.997	401.81
285.458	398.14
285.918	406.61
286.379	398.42
286.84	432.3
287.301	404.92
287.762	402.94
288.222	385.43
288.683	410.28
289.143	379.5
289.604	408.87
290.064	379.78
290.525	382.32
290.985	482.53
291.445	405.2
291.906	377.8
292.366	398.42
292.826	389.1
293.286	379.78
293.746	399.83
294.206	399.55
294.666	391.08
295.126	420.45
295.586	387.12
296.046	373.28
296.506	427.5
296.965	383.17
297.425	377.8
297.884	430.89
298.344	397.57
298.804	418.19
299.263	374.7
299.722	391.64
300.182	395.88
300.641	392.49
301.1	374.13
301.559	376.11
302.019	392.49
302.478	403.79
302.937	401.81
303.396	413.67
303.855	468.42
304.314	396.16
304.772	540.33
305.231	409.72
305.69	413.39
306.149	450.37
306.607	388.25
307.066	423.55
307.524	424.68
307.983	425.81
308.441	437.38
308.9	454.32
309.358	375.26
309.816	470.12
310.275	392.21
310.733	391.64
311.191	409.43
311.649	419.03
312.107	437.67
312.565	392.21
313.023	401.81
313.481	378.65
313.939	404.63
314.397	399.83
314.854	392.21
315.312	416.21
315.77	411.41
316.227	371.31
316.685	371.02
317.142	394.75
317.6	446.98
318.057	410.85
318.514	413.11
318.972	414.8
319.429	439.08
319.886	414.52
320.343	398.14
320.8	415.65
321.257	412.54
321.714	459.4
322.171	440.77
322.628	437.95
323.085	383.74
323.542	415.93
323.998	407.18
324.455	404.63
324.912	431.46
325.368	395.03
325.825	463.91
326.281	416.21
326.738	432.02
327.194	407.46
327.65	401.53
328.107	396.16
328.563	410.85
329.019	445.57
329.475	413.95
329.931	427.79
330.387	430.04
330.843	411.41
331.299	409.72
331.755	411.41
332.211	421.58
332.666	393.06
333.122	388.54
333.578	435.41
334.033	397.86
334.489	426.94
334.944	410.85
335.4	485.91
335.855	440.49
336.31	401.53
336.766	412.54
337.221	418.47
337.676	395.88
338.131	413.67
338.586	422.42
339.041	408.31
339.496	436.82
339.951	425.25
340.406	396.16
340.861	401.25
341.316	407.18
341.771	450.65
342.225	422.42
342.68	414.23
343.134	422.14
343.589	431.17
344.043	402.94
344.498	434.84
344.952	422.14
345.406	628.23
345.861	402.09
346.315	405.76
346.769	432.02
347.223	419.03
347.677	422.99
348.131	416.78
348.585	402.09
349.039	424.68
349.493	420.16
349.947	429.76
350.401	421.01
350.854	404.35
351.308	485.07
351.762	415.36
352.215	473.5
352.669	421.01
353.122	418.19
353.575	393.34
354.029	396.44
354.482	395.6
354.935	426.94
355.388	421.58
355.842	422.99
356.295	428.63
356.748	433.71
357.201	408.31
357.654	423.27
358.106	420.16
358.559	420.73
359.012	400.96
359.465	413.95
359.917	439.92
360.37	399.55
360.823	389.67
361.275	469.84
361.728	404.92
362.18	430.61
362.632	420.45
363.085	410.56
363.537	403.79
363.989	382.61
364.441	426.94
364.893	417.06
365.345	415.93
365.797	422.14
366.249	455.16
366.701	430.61
367.153	415.08
367.605	391.64
368.057	396.44
368.508	400.4
368.96	414.8
369.411	383.45
369.863	438.79
370.314	432.87
370.766	410.56
371.217	429.2
371.669	435.12
372.12	457.7
372.571	456.01
373.022	428.07
373.473	459.4
373.924	408.31
374.375	420.16
374.826	439.64
375.277	437.67
375.728	416.49
376.179	436.25
376.63	410
377.08	426.66
377.531	411.98
377.981	421.01
378.432	439.36
378.883	455.73
379.333	425.25
379.783	414.52
380.234	447.26
380.684	438.79
381.134	457.42
381.584	449.52
382.034	462.78
382.485	451.49
382.935	429.48
383.385	439.36
383.834	427.22
384.284	443.31
384.734	418.47
385.184	456.29
385.634	439.64
386.083	446.7
386.533	436.54
386.982	433.71
387.432	450.65
387.881	411.41
388.331	437.38
388.78	433.43
389.229	421.01
389.679	424.12
390.128	433.71
390.577	409.43
391.026	433.15
391.475	425.25
391.924	435.12
392.373	434.56
392.822	454.32
393.27	465.04
393.719	418.47
394.168	423.83
394.617	430.33
395.065	447.54
395.514	463.35
395.962	446.13
396.411	422.42
396.859	429.48
397.307	500.3
397.756	457.7
398.204	431.17
398.652	490.43
399.1	463.63
399.548	475.2
399.996	518.06
400.444	475.2
400.892	456.86
401.34	470.4
401.788	457.7
402.236	452.06
402.683	454.32
403.131	495.22
403.579	493.81
404.026	474.35
404.474	456.01
404.921	463.35
405.369	481.68
405.816	485.07
406.263	467.3
406.71	500.86
407.158	494.09
407.605	467.86
408.052	469.84
408.499	532.72
408.946	510.17
409.393	518.91
409.84	521.17
410.286	537.8
410.733	586.26
411.18	556.96
411.626	624.28
412.073	649.34
412.52	717.42
412.966	850.59
413.413	924.38
413.859	1131.9
414.305	1321.84
414.752	1627.28
415.198	1970.01
415.644	2449.19
416.09	2986.82
416.536	3584.88
416.982	4344.35
417.428	5188.55
417.874	6175.07
418.32	7166.93
418.766	8282.71
419.211	9649.71
419.657	10763.32
420.103	12352.45
420.548	13530.77
420.994	15263.69
421.439	16705.67
421.885	18057.21
422.33	19946.62
422.776	21513.7
423.221	22865.53
423.666	24530.13
424.111	26212.44
424.556	27371.96
425.001	29098.49
425.446	30753.52
425.891	32111.75
426.336	33164.99
426.781	34539.38
427.226	36822.95
427.671	37249.36
428.115	38056.85
428.56	39835.03
429.005	41256.44
429.449	41444.54
429.894	42750.89
430.338	43636.53
430.782	43154.28
431.227	44625.4
431.671	44930.83
432.115	46213.18
432.559	47044.28
433.003	46413.96
433.447	47170.24
433.891	47394.68
434.335	47334.89
434.779	48144.81
435.223	48216.59
435.667	48025.78
436.111	49008.51
436.554	48376.55
436.998	47704.55
437.442	47799.39
437.885	49722.91
438.328	48107
438.772	48282.5
439.215	48880.45
439.659	48351.03
440.102	48814.15
440.545	47986.73
440.988	47862.75
441.431	48761.61
441.874	48351.81
442.317	48458.04
442.76	47940
443.203	47484.67
443.646	48234.87
444.089	47691.74
444.531	48230.24
444.974	47044.03
445.417	48304.4
445.859	47161.06
446.302	48423.99
446.744	47678.93
447.186	49128.44
447.629	48093.89
448.071	48016.53
448.513	48342.27
448.956	49697.03
449.398	48820.62
449.84	47700.2
450.282	48350.26
450.724	49020.45
451.166	48674.96
451.607	48704.44
452.049	48575.48
452.491	50029.99
452.933	49468.58
453.374	50257.66
453.816	50815.85
454.257	50538.86
454.699	51687.11
455.14	51248.93
455.582	51227.03
456.023	51280.72
456.464	51368.69
456.905	52056.5
457.347	52230.83
457.788	51206.48
458.229	51366.01
458.67	52464.87
459.111	50549.43
459.552	50801.25
459.992	50514.55
460.433	50437.71
460.874	49459.19
461.315	50750.61
461.755	49775.5
462.196	49376.58
462.636	48630.51
463.077	48215.56
463.517	48448.49
463.957	48832.53
464.398	48630.25
464.838	48697.2
465.278	47594.69
465.718	47974.41
466.158	46740.33
466.598	47353.03
467.038	47041.22
467.478	47491.32
467.918	47609.79
468.358	46925.06
468.798	46723.04
469.237	46465.98
469.677	46576.16
470.117	47563.46
470.556	44850.4
470.996	45541.49
471.435	45721.71
471.874	46560.16
472.314	46215.71
472.753	45409.6
473.192	45500.88
473.631	45352.14
474.07	45520.3
474.509	45669.44
474.948	45897.83
475.387	45358.44
475.826	44285.38
476.265	46219.76
476.704	45825.79
477.143	46329.25
477.581	46119.21
478.02	46658.48
478.458	45201.52
478.897	46093.39
479.335	47303.48
479.774	46685.16
480.212	47233.78
480.65	47155.45
481.089	46742.62
481.527	46302.13
481.965	45734.08
482.403	48078.47
482.841	47847.1
483.279	47919.97
483.717	47916.64
484.155	47713.78
484.592	47994.95
485.03	48260.87
485.468	47259.05
485.905	47581.63
486.343	48170.79
486.781	47438.9
487.218	46610.96
487.655	46691.52
488.093	45793.95
488.53	47442.48
488.967	46553.82
489.405	46551.28
489.842	45354.16
490.279	45525.85
490.716	45035.68
491.153	45667.42
491.59	45169.3
492.027	44234.53
492.463	43940.19
492.9	43029.95
493.337	42921.13
493.773	43006.79
494.21	42050.76
494.647	41894.24
495.083	41073.9
495.519	40778.32
495.956	40759.54
496.392	39918.79
496.828	39836.75
497.265	38954.68
497.701	39113.97
498.137	38904.79
498.573	37886.42
499.009	38451.65
499.445	37537.65
499.881	36915.45
500.316	37373.28
500.752	36393.42
501.188	36185.84
501.624	36095.16
502.059	34608.68
502.495	34548.41
502.93	34403.48
503.366	34916.92
503.801	33830.48
504.236	33554.9
504.672	33030.4
505.107	32778.3
505.542	32045.68
505.977	32053.23
506.412	31651.18
506.847	31929.87
507.282	31345.17
507.717	30873.52
508.152	30914.98
508.587	30642.29
509.021	30018.18
509.456	29516.81
509.891	29519.25
510.325	29557.09
510.76	29118.52
511.194	28974.16
511.628	28975.87
512.063	28029.93
512.497	28406.73
512.931	27731.98
513.366	27510.75
513.8	27470.61
514.234	26795.91
514.668	26795.17
515.102	27097.72
515.536	26069.17
515.969	26285.28
516.403	25773.95
516.837	25350.83
517.271	25555.43
517.704	24904.99
518.138	24844.01
518.571	24519.3
519.005	24210.63
519.438	24114.59
519.871	23904.47
520.305	23366.05
520.738	23177.31
521.171	22742.78
521.604	22969.48
522.037	22590.11
522.47	22288.06
522.903	21815.05
523.336	21691.02
523.769	21583.05
524.202	20887.32
524.634	21014.06
525.067	20755.83
525.5	20557.77
525.932	20480.06
526.365	19958.55
526.797	19768.57
527.23	19867.8
527.662	19093.47
528.094	18988.07
528.527	18877.66
528.959	18604.87
529.391	18269.22
529.823	17756.09
530.255	17731.84
530.687	17414.95
531.119	17121.08
531.551	17031.18
531.982	16637.72
532.414	16380.36
532.846	16176.8
533.277	16015.58
533.709	15575.96
534.14	15528.68
534.572	15284.83
535.003	15175.31
535.435	14786.26
535.866	14628.38
536.297	14310.36
536.728	14330.06
537.159	14184.07
537.59	13881.51
538.022	13678.61
538.452	13474.81
538.883	13172.24
539.314	13095.9
539.745	12814.99
540.176	12715.44
540.606	12301.06
541.037	12361.61
541.468	12136.89
541.898	12062.02
542.328	11900.49
542.759	11662.31
543.189	11530.87
543.619	11368.19
544.05	11103.08
544.48	10993.05
544.91	10897.81
545.34	10664.39
545.77	10640.03
546.2	10540.52
546.63	10330.04
547.06	10326.19
547.489	10072.26
547.919	9710.54
548.349	9867.42
548.778	9792.99
549.208	9592.47
549.637	9436.11
550.067	9272.63
550.496	9325.59
550.926	9140.28
551.355	8967.44
551.784	8900.64
552.213	8672.81
552.642	8563.05
553.071	8606.39
553.5	8442.04
553.929	8160.95
554.358	8228.87
554.787	8091.95
555.216	8074.5
555.645	7840.95
556.073	7719.58
556.502	7703.91
556.93	7455.59
557.359	7446.95
557.787	7448.52
558.216	7360.31
558.644	7302.96
559.072	7177.95
559.5	7097.16
559.929	7054.91
560.357	7054.65
560.785	6902.06
561.213	6915.46
561.641	6784.01
562.068	6812.15
562.496	6672.43
562.924	6586.03
563.352	6627.13
563.779	6549.67
564.207	6595.78
564.634	6419.66
565.062	6415.7
565.489	6300.33
565.917	6268.37
566.344	6215.52
566.771	6201.77
567.198	6190.67
567.625	5997.76
568.053	5954.32
568.48	5975.78
568.907	5854.65
569.333	5770.82
569.76	5575.32
570.187	5694.63
570.614	5522.93
571.04	11630.42
571.467	5401.29
571.894	5335.22
572.32	5135.7
572.747	5114.07
573.173	5005.85
573.599	4946.75
574.026	4830.59
574.452	4805.14
574.878	4746.19
575.304	4565.09
575.73	4543.33
576.156	4441.48
576.582	4390.1
577.008	4289.7
577.434	4197
577.86	4151.97
578.285	4141.72
578.711	4028.9
579.137	4036.73
579.562	3931.34
579.988	3885.37
580.413	3781.71
580.838	3741.35
581.264	3723.46
581.689	3669.52
582.114	3596.55
582.539	3993.78
582.964	3548.23
583.39	3481.68
583.814	3395.23
584.239	3313.32
584.664	3297.8
585.089	3268.39
585.514	3247.96
585.939	3166.18
586.363	3073.95
586.788	3060.58
587.212	3082.42
587.637	3005.13
588.061	2939.53
588.485	2869.5
588.91	2869.5
589.334	2841.58
589.758	2806.53
590.182	2753.11
590.606	2703.22
591.03	2671.4
591.454	2638.48
591.878	2622.84
592.302	2565.73
592.726	2548.7
593.15	2508.3
593.573	2459.36
593.997	2460.46
594.42	2365.8
594.844	2383.42
595.267	2346.25
595.691	2307.14
596.114	2302.18
596.537	2265.24
596.96	2261.66
597.384	2273.51
597.807	2205.68
598.23	2208.71
598.653	2170.63
599.076	2134.75
599.499	2089.17
599.921	2093.59
600.344	2064.86
600.767	2078.4
601.189	2061.54
601.612	2007.35
602.034	2024.5
602.457	2006.8
602.879	2132.26
603.302	1961.43
603.724	1944.55
604.146	1963.37
604.568	1919.36
604.991	1897.76
605.413	1932.65
605.835	1950.09
606.257	1897.76
606.678	1856.49
607.1	1911.33
607.522	1854.82
607.944	1895.55
608.365	1867.29
608.787	1821.84
609.209	1857.32
609.63	1755.84
610.051	1759.17
610.473	1727.82
610.894	1716.16
611.315	1723.65
611.737	1700.06
612.158	1618.95
612.579	1625.06
613	1718.1
613.421	1620.89
613.842	1612.28
614.263	1557.5
614.683	1556.39
615.104	1506.87
615.525	1537.2
615.945	1484.04
616.366	1457.59
616.787	1482.93
617.207	1413.85
617.627	1413.85
618.048	1428.9
618.468	1416.92
618.888	1351.13
619.308	1318.22
619.728	1293.94
620.148	1284.45
620.568	1313.75
620.988	1327.14
621.408	1243.41
621.828	1258.21
622.248	1233.63
622.668	1205.7
623.087	1240.62
623.507	1212.12
623.926	1228.89
624.346	1191.17
624.765	1169.93
625.185	1155.11
625.604	1112.32
626.023	1125.19
626.442	1095.25
626.861	1145.32
627.28	1079.58
627.699	1084.9
628.118	1046.83
628.537	1073.71
628.956	1060.83
629.375	1084.34
629.794	1016.87
630.212	1031.15
630.631	1021.07
631.049	993.06
631.468	1022.19
631.886	958.87
632.305	1008.19
632.723	938.12
633.141	962.79
633.559	952.14
633.978	926.34
634.396	960.83
634.814	916.53
635.232	901.94
635.65	925.5
636.067	903.63
636.485	890.44
636.903	867.99
637.321	856.49
637.738	930.27
638.156	870.52
638.573	816.62
638.991	896.05
639.408	874.45
639.825	798.08
640.243	887.64
640.66	819.99
641.077	843.57
641.494	807.07
641.911	833.47
642.328	803.14
642.745	800.89
643.162	813.81
643.579	777.57
643.995	782.63
644.412	846.66
644.829	743
645.245	762.12
645.662	752.28
646.078	713.48
646.495	747.5
646.911	759.31
647.327	775.89
647.743	741.88
648.159	736.26
648.576	707.01
648.992	746.38
649.408	725.57
649.824	717.7
650.239	705.33
650.655	704.48
651.071	704.2
651.487	686.2
651.902	690.7
652.318	657.5
652.733	649.34
653.149	672.98
653.564	674.1
653.979	674.1
654.395	648.21
654.81	643.99
655.225	631.32
655.64	639.49
656.055	689.29
656.47	652.43
656.885	634.98
657.3	631.04
657.715	688.17
658.13	615.27
658.544	664.25
658.959	612.46
659.374	605.7
659.788	647.65
660.202	607.95
660.617	668.19
661.031	624
661.445	615.27
661.86	572.74
662.274	652.15
662.688	649.9
663.102	600.63
663.516	633.29
663.93	575.56
664.344	600.07
664.758	573.87
665.171	591.9
665.585	567.11
665.999	575.84
666.412	564.85
666.826	586.26
667.239	607.95
667.653	569.64
668.066	571.05
668.479	577.53
668.892	558.65
669.306	586.55
669.719	557.24
670.132	579.79
670.545	551.61
670.958	556.4
671.37	551.61
671.783	551.89
672.196	566.54
672.609	523.14
673.021	557.24
673.434	537.52
673.846	546.25
674.259	518.91
674.671	527.65
675.084	537.23
675.496	530.75
675.908	548.79
676.32	525.68
676.732	540.62
677.144	533.57
677.556	518.91
677.968	516.37
678.38	545.13
678.792	535.82
679.204	509.61
679.615	546.54
680.027	511.86
680.439	499.74
680.85	530.47
681.262	574.71
681.673	493.81
682.084	518.06
682.496	498.32
682.907	513.27
683.318	518.91
683.729	493.81
684.14	512.14
684.551	507.07
684.962	497.2
685.373	467.86
685.784	479.14
686.194	500.86
686.605	465.32
687.016	499.74
687.426	487.61
687.837	465.89
688.247	445.57
688.657	486.48
689.068	476.32
689.478	467.86
689.888	480.27
690.298	474.63
690.708	476.89
691.118	485.07
691.528	458.27
691.938	474.63
692.348	464.47
692.758	474.35
693.168	474.91
693.577	454.6
693.987	457.98
694.396	427.22
694.806	449.24
695.215	468.42
695.625	457.7
696.034	453.19
696.443	434.56
696.852	520.04
697.262	447.26
697.671	460.81
698.08	462.78
698.489	469.55
698.897	452.91
699.306	443.31
699.715	448.39
700.124	468.99
700.532	459.11
700.941	450.08
701.35	459.96
701.758	493.81
702.166	444.16
702.575	478.02
702.983	437.1
703.391	449.24
703.799	455.45
704.208	423.27
704.616	435.97
705.024	472.09
705.432	459.11
705.839	419.88
706.247	459.96
706.655	537.23
707.063	437.38
707.47	432.3
707.878	450.65
708.285	404.63
708.693	419.32
709.1	404.07
709.508	426.37
709.915	454.6
710.322	451.21
710.729	548.51
711.136	437.95
711.543	442.75
711.95	437.95
712.357	456.86
712.764	422.42
713.171	472.37
713.578	429.48
713.984	432.3
714.391	412.54
714.797	424.96
715.204	415.36
715.61	451.49
716.017	421.29
716.423	439.92
716.829	427.22
717.236	395.32
717.642	438.79
718.048	478.02
718.454	457.7
718.86	403.5
719.266	480.27
719.671	395.03
720.077	452.62
720.483	407.18
720.889	423.55
721.294	409.72
721.7	394.19
722.105	407.74
722.511	425.53
722.916	430.61
723.321	449.52
723.726	473.78
724.132	409.43
724.537	451.78
724.942	436.82
725.347	415.36
725.752	418.47
726.156	442.18
726.561	429.2
726.966	425.81
727.371	434
727.775	430.04
728.18	401.53
728.584	399.27
728.989	421.86
729.393	469.55
729.798	411.98
730.202	421.86
730.606	421.86
731.01	420.16
731.414	421.29
731.818	424.96
732.222	424.12
732.626	413.67
733.03	407.46
733.434	381.19
733.837	443.03
734.241	420.45
734.645	413.39
735.048	380.35
735.452	402.38
735.855	393.62
736.258	404.63
736.662	457.14
737.065	457.98
737.468	431.74
737.871	453.19
738.274	414.23
738.677	423.27
739.08	418.47
739.483	429.48
739.886	444.16
740.289	437.67
740.691	373
741.094	404.92
741.497	425.53
741.899	455.73
742.302	414.52
742.704	400.96
743.106	425.81
743.508	420.73
743.911	399.83
744.313	391.36
744.715	415.08
745.117	416.21
745.519	397.57
745.921	413.95
746.323	415.65
746.724	378.93
747.126	415.36
747.528	434.28
747.929	383.17
748.331	404.92
748.732	397.57
749.134	403.22
749.535	392.49
749.936	433.43
750.338	401.25
750.739	428.35
751.14	392.49
751.541	426.09
751.942	377.24
752.343	390.23
752.744	397.57
753.144	396.44
753.545	407.18
753.946	421.86
754.346	410.56
754.747	453.47
755.148	507.63
755.548	408.31
755.948	371.87
756.349	418.47
756.749	415.93
757.149	407.46
757.549	397.57
757.949	401.25
758.349	414.52
758.749	402.38
759.149	414.8
759.549	417.62
759.949	387.69
760.348	446.13
760.748	401.25
761.148	395.88
761.547	406.89
761.947	369.33
762.346	439.92
762.745	443.87
763.145	368.76
763.544	399.83
763.943	386.28
764.342	397.57
764.741	404.07
765.14	378.37
765.539	397.86
765.938	450.08
766.336	400.4
766.735	405.48
767.134	397.86
767.532	375.83
767.931	394.75
768.329	471.25
768.728	397.57
769.126	387.69
769.525	438.23
769.923	401.81
770.321	378.09
770.719	417.62
771.117	402.66
771.515	407.46
771.913	389.1
772.311	389.1
772.709	395.88
773.106	397.01
773.504	400.12
773.902	370.46
774.299	381.48
774.697	476.32
775.094	418.47
775.491	398.99
775.889	385.43
776.286	405.76
776.683	410.56
777.08	384.58
777.477	393.9
777.874	439.64
778.271	397.86
778.668	410.28
779.065	367.07
779.462	411.98
779.858	399.55
780.255	416.78
780.652	406.33
781.048	416.78
781.444	396.16
781.841	413.39
782.237	403.5
782.633	363.68
783.03	389.95
783.426	372.72
783.822	369.89
784.218	380.63
784.614	367.63
785.01	389.95
785.405	396.16
785.801	408.02
786.197	385.71
786.593	438.51
786.988	421.58
787.384	434.84
787.779	386.56
788.174	403.22
788.57	391.93
788.965	374.98
789.36	404.35
789.755	379.78
790.15	386
790.545	365.09
790.94	359.44
791.335	389.38
791.73	400.12
792.125	431.17
792.52	391.93
792.914	387.69
793.309	369.89
793.703	425.53
794.098	403.5
794.492	391.64
794.887	382.61
795.281	419.6
795.675	415.65
796.069	443.87
796.463	418.47
796.857	363.96
797.251	394.75
797.645	371.31
798.039	391.36
798.433	406.89
798.826	383.17
799.22	401.81
799.614	405.48
800.007	415.65
800.401	374.41
800.794	386.28
801.187	381.48
801.581	404.92
801.974	397.86
802.367	399.55
802.76	393.06
803.153	368.48
803.546	375.54
803.939	389.95
804.332	365.09
804.725	379.78
805.117	374.98
805.51	406.33
805.903	389.1
806.295	401.25
806.688	376.96
807.08	371.31
807.472	373.28
807.865	412.54
808.257	389.38
808.649	425.53
809.041	384.87
809.433	420.16
809.825	396.73
810.217	397.01
810.609	389.95
811.001	391.93
811.392	375.54
811.784	418.47
812.175	374.7
812.567	410.28
812.958	397.01
813.35	392.77
813.741	367.35
814.132	365.94
814.524	371.31
814.915	376.96
815.306	354.64
815.697	370.74
816.088	393.9
816.479	376.67
816.87	403.22
817.26	406.89
817.651	444.44
818.042	413.67
818.432	390.23
818.823	390.51
819.213	380.91
819.604	393.9
819.994	386.84
820.384	371.31
820.775	431.17
821.165	406.89
821.555	380.63
821.945	382.32
822.335	377.24
822.725	415.08
823.114	373.28
823.504	372.15
823.894	380.63
824.284	413.39
824.673	422.99
825.063	388.54
825.452	348.14
825.842	373.28
826.231	429.76
826.62	366.22
827.009	427.79
827.399	399.55
827.788	375.54
828.177	411.98
828.566	418.19
828.954	469.27
829.343	408.87
829.732	397.29
830.121	474.63
830.509	424.96
830.898	380.91
831.286	377.24
831.675	406.05
832.063	408.31
832.452	414.52
832.84	378.37
833.228	415.08
833.616	396.44
834.004	398.99
834.392	388.54
834.78	430.89
835.168	394.19
835.556	420.45
835.944	371.87
836.331	405.2
836.719	445
837.107	386.84
837.494	382.32
837.881	392.21
838.269	380.06
838.656	376.39
839.043	387.12
839.431	439.92
839.818	383.74
840.205	398.99
840.592	402.38
840.979	373.28
841.366	364.81
841.752	374.41
842.139	367.63
842.526	396.73
842.912	402.09
843.299	389.67
843.685	380.35
844.072	380.91
844.458	391.64
844.844	379.78
845.231	375.26
845.617	377.52
846.003	410.28
846.389	392.21
846.775	361.98
847.161	400.12
847.547	372.72
847.933	377.24
848.318	366.5
848.704	373.85
849.09	361.14
849.475	370.18
849.861	411.98
850.246	381.48
850.631	402.09
851.017	405.76
851.402	378.37
851.787	391.93
852.172	408.31
852.557	389.38
852.942	366.79
853.327	390.23
853.712	396.44
854.097	395.88
854.481	384.02
854.866	387.41
855.25	380.35
855.635	378.93
856.019	361.14
856.404	356.33
856.788	376.39
857.172	363.11
857.557	383.17
857.941	379.78
858.325	378.09
858.709	371.59
859.093	385.43
859.477	370.46
859.86	420.45
860.244	367.07
860.628	419.88
861.012	390.51
861.395	398.42
861.779	354.64
862.162	400.68
862.545	384.3
862.929	369.33
863.312	422.42
863.695	387.12
864.078	391.93
864.461	380.35
864.844	371.31
865.227	448.67
865.61	396.73
865.993	353.79
866.376	386.84
866.758	392.21
867.141	419.88
867.523	393.62
867.906	386
868.288	400.12
868.671	392.77
869.053	371.31
869.435	402.09
869.817	393.34
870.199	351.53
870.581	372.72
870.963	372.72
871.345	375.54
871.727	386.56
872.109	352.94
872.491	388.54
872.872	382.04
873.254	367.63
873.635	381.48
874.017	412.26
874.398	381.19
874.779	398.42
875.161	372.15
875.542	450.65
875.923	397.01
876.304	387.97
876.685	397.01
877.066	361.14
877.447	356.33
877.828	371.31
878.208	365.37
878.589	399.83
878.97	406.05
879.35	357.18
879.731	384.87
880.111	378.65
880.491	345.03
880.872	392.49
881.252	362.55
881.632	368.2
882.012	404.07
882.392	407.46
882.772	428.07
883.152	386.28
883.532	401.53
883.912	404.35
884.291	367.92
884.671	376.67
885.051	407.18
885.43	376.96
885.81	391.36
886.189	394.47
886.568	395.03
886.948	385.15
887.327	404.63
887.706	382.61
888.085	408.02
888.464	350.96
888.843	448.67
889.222	400.68
889.601	390.51
889.979	363.11
890.358	384.87
890.737	398.99
891.115	378.93
891.494	369.61
891.872	366.22
892.25	370.46
892.629	427.22
893.007	440.49
893.385	406.05
893.763	353.51
894.141	402.66
894.519	405.2
894.897	371.02
895.275	387.41
895.653	354.07
896.03	381.19
896.408	404.63
896.786	373.85
897.163	370.46
897.541	350.68
897.918	415.08
898.295	367.92
898.673	353.51
899.05	374.41
899.427	548.23
899.804	358.03
900.181	333.72
900.558	385.71
900.935	404.35
901.312	338.53
901.688	391.36
902.065	409.15
902.442	397.57
902.818	365.66
903.195	381.76
903.571	385.15
903.947	401.25
904.324	398.14
904.7	349.27
905.076	441.62
905.452	361.98
905.828	395.6
906.204	365.37
906.58	357.18
906.956	389.67
907.331	413.39
907.707	400.12
908.083	407.74
908.458	397.01
908.834	381.19
909.209	370.46
909.585	396.16
909.96	378.93
910.335	375.26
910.71	375.83
911.086	402.94
911.461	410.85
911.836	378.93
912.21	387.41
912.585	395.88
912.96	375.83
913.335	398.42
913.709	359.16
914.084	372.72
914.459	387.41
914.833	370.74
915.207	358.31
915.582	367.07
915.956	371.59
916.33	359.16
916.704	364.81
917.078	371.31
917.452	416.21
917.826	363.96
918.2	380.63
918.574	363.96
918.948	373.28
919.321	382.61
919.695	334.85
920.068	367.35
920.442	373.57
920.815	370.74
921.189	392.21
921.562	427.22
921.935	395.32
922.308	386.56
922.681	396.16
923.054	382.04
923.427	410.85
923.8	396.44
924.173	377.52
924.546	362.27
924.919	381.76
925.291	357.18
925.664	374.98
926.036	396.16
926.409	369.05
926.781	365.66
927.153	415.93
927.526	402.38
927.898	362.83
928.27	369.61
928.642	369.89
929.014	395.03
929.386	352.38
929.758	358.03
930.129	337.96
930.501	408.87
930.873	375.54
931.244	379.78
931.616	355.77
931.987	391.08
932.359	386.28
932.73	371.59
933.101	383.45
933.472	376.67
933.843	380.91
934.214	407.46
934.585	376.11
934.956	360.57
935.327	440.49
935.698	399.27
936.069	395.32
936.439	380.06
936.81	357.18
937.18	397.01
937.551	358.31
937.921	420.73
938.292	417.34
938.662	385.15
939.032	360.29
939.402	363.68
939.772	397.57
940.142	384.87
940.512	379.22
940.882	353.51
941.252	365.09
941.621	360.29
941.991	363.96
942.361	420.45
942.73	378.93
943.1	358.59
943.469	354.92
943.838	439.36
944.208	401.81
944.577	394.19
944.946	365.09
945.315	339.38
945.684	366.79
946.053	364.53
946.422	393.06
946.791	357.18
947.159	366.5
947.528	343.33
947.897	395.32
948.265	361.7
948.634	370.74
949.002	352.38
949.371	380.63
949.739	352.66
950.107	379.22
950.475	352.94
950.843	371.59
951.211	395.6
951.579	410
951.947	372.15
952.315	370.74
952.683	340.79
953.05	350.96
953.418	397.86
953.785	355.48
954.153	374.41
954.52	352.38
954.888	373.28
955.255	367.35
955.622	375.54
955.989	363.96
956.356	402.94
956.723	363.96
957.09	393.62
957.457	382.04
957.824	358.03
958.191	360.01
958.557	382.89
958.924	361.7
959.291	373.85
959.657	360.29
960.023	485.07
960.39	386.84
960.756	366.79
961.122	400.12
961.488	359.16
961.855	379.5
962.221	370.18
962.586	378.09
962.952	432.3
963.318	395.6
963.684	470.4
964.05	430.04
964.415	382.32
964.781	358.88
965.146	357.18
965.512	424.12
965.877	371.31
966.242	369.61
966.608	354.35
966.973	373.57
967.338	386.56
967.703	377.8
968.068	367.92
968.433	403.79
968.797	426.66
969.162	375.83
969.527	356.33
969.891	341.92
970.256	379.5
970.62	353.79
970.985	365.66
971.349	386.84
971.714	433.43
972.078	378.37
972.442	351.53
972.806	392.21
973.17	364.24
973.534	387.97
973.898	394.19
974.262	364.81
974.625	402.94
974.989	380.63
975.353	392.49
975.716	397.29
976.08	365.94
976.443	350.4
976.806	387.12
977.17	352.94
977.533	367.07
977.896	364.81
978.259	361.7
978.622	516.94
978.985	363.68
979.348	388.54
979.711	377.8
980.073	371.87
980.436	380.35
980.799	374.98
981.161	389.67
981.524	346.44
981.886	353.79
982.248	374.41
982.611	388.25
982.973	363.11
983.335	348.42
983.697	329.2
984.059	378.37
984.421	371.31
984.783	351.25
985.145	358.59
985.506	345.31
985.868	353.22
986.23	378.09
986.591	375.83
986.953	401.53
987.314	365.09
987.675	348.14
988.037	4787.19
988.398	487.61
988.759	375.54
989.12	366.22
989.481	404.35
989.842	384.87
990.203	373.85
990.564	346.72
990.924	383.74
991.285	4743.51
991.646	476.32
992.006	353.51
992.367	380.91
992.727	382.89
993.087	383.45
993.448	376.67
993.808	346.44
994.168	380.35
994.528	354.64
994.888	375.26
995.248	369.33
995.608	339.38
995.967	355.48
996.327	363.68
996.687	376.96
997.046	358.03
997.406	357.74
997.765	384.3
998.125	367.35
998.484	359.16
998.843	407.18
999.202	376.11
999.561	360.01
999.92	361.7
1000.279	363.96
1000.638	361.14
1000.997	358.59
1001.356	348.14
1001.715	361.14
1002.073	388.25
1002.432	391.93
1002.79	380.63
1003.149	358.31
1003.507	387.97
1003.865	365.94
1004.224	376.67
1004.582	381.48
1004.94	380.35
1005.298	367.35
1005.656	363.68
1006.014	348.14
1006.371	367.35
1006.729	365.66
1007.087	393.9
1007.445	356.05
1007.802	380.91
1008.16	356.05
1008.517	361.98
1008.874	417.06
1009.232	350.68
1009.589	419.6
1009.946	388.82
1010.303	351.53
1010.66	406.33
1011.017	384.02
1011.374	400.4
1011.731	368.76
1012.087	367.92
1012.444	371.87
1012.801	390.51
1013.157	358.31
1013.513	384.3
1013.87	374.41
1014.226	361.98
1014.582	368.48
1014.939	352.94
1015.295	367.63
1015.651	382.89
1016.007	350.12
1016.363	399.55
1016.719	367.07
1017.074	414.23
1017.43	343.33
1017.786	412.26
1018.141	369.61
1018.497	386.56
1018.852	352.66
1019.208	391.64
1019.563	348.7
1019.918	365.09
1020.273	385.43
1020.628	371.87
1020.983	380.63
1021.338	362.55
1021.693	397.86
1022.048	376.96
1022.403	375.54
1022.757	367.63
1023.112	369.33
1023.467	367.35
1023.821	352.38
1024.175	344.18
1024.53	370.46
1024.884	371.87
1025.238	371.87
1025.592	371.02
1025.946	360.85
1026.3	352.09
1026.654	342.49
1027.008	347.85
1027.362	364.24
1027.716	365.37
1028.069	371.02
1028.423	358.03
1028.777	370.18
1029.13	369.61
1029.483	398.14
1029.837	388.25
1030.19	391.36
1030.543	357.74
1030.896	353.22
1031.249	347.01
1031.602	368.76
1031.955	356.61
1032.308	407.46
1032.661	398.99
1033.013	346.16
1033.366	367.63
1033.719	337.4
1034.071	350.12
1034.424	353.79
1034.776	376.67
1035.128	342.49
1035.48	347.01
1035.833	416.21
1036.185	358.59
1036.537	358.59
1036.889	358.59
