Data from SCSF78-405_irradiation_FLMS019251_06-05-50-611.txt Node
Date: Fri Feb 22 06:05:50 PST 2019
User: mu3e
Spectrometer: FLMS01925
Trigger mode: 0
Integration Time (sec): 3.659600E-1
Scans to average: 10
Electric dark correction enabled: true
Nonlinearity correction enabled: true
Boxcar width: 0
XAxis mode: Wavelengths
Number of Pixels in Spectrum: 2048
>>>>>Begin Spectral Data<<<<<
187.103	-128.69
187.574	-128.69
188.045	-128.69
188.516	-175.35
188.987	-97.41
189.458	-116.18
189.929	-133.24
190.4	-88.89
190.871	-95.42
191.342	-85.47
191.813	-68.14
192.284	-29.21
192.754	-49.1
193.225	4.01
193.696	19.62
194.166	49.99
194.637	83.46
195.107	114.65
195.578	118.9
196.048	146.39
196.518	127.69
196.989	179.26
197.459	216.63
197.929	234.18
198.399	306.04
198.869	274.65
199.339	308.86
199.809	326.11
200.279	371.32
200.749	324.41
201.219	362
201.689	363.98
202.159	388.55
202.628	378.39
203.098	423.85
203.568	389.4
204.037	404.65
204.507	411.71
204.976	407.48
205.445	422.44
205.915	398.16
206.384	391.1
206.853	381.49
207.323	441.07
207.792	422.16
208.261	395.62
208.73	396.18
209.199	439.94
209.668	397.31
210.137	403.8
210.606	388.84
211.075	397.59
211.543	407.19
212.012	378.67
212.481	387.42
212.95	367.93
213.418	399.57
213.887	397.03
214.355	398.72
214.824	368.22
215.292	350.98
215.76	366.52
216.229	374.71
216.697	373.02
217.165	378.95
217.633	396.18
218.101	373.02
218.569	433.45
219.037	387.42
219.505	416.23
219.973	361.72
220.441	341.66
220.909	371.61
221.377	382.91
221.844	395.62
222.312	372.45
222.78	363.98
223.247	381.21
223.715	358.89
224.182	382.62
224.65	354.65
225.117	379.52
225.584	377.82
226.052	359.46
226.519	357.48
226.986	374.71
227.453	370.19
227.92	352.68
228.387	381.49
228.854	368.22
229.321	360.87
229.788	395.9
230.255	384.88
230.722	380.93
231.189	395.62
231.655	369.91
232.122	397.59
232.589	374.43
233.055	360.31
233.522	391.38
233.988	340.24
234.454	397.31
234.921	382.62
235.387	445.02
235.853	390.25
236.32	377.26
236.786	370.76
237.252	380.65
237.718	423.29
238.184	362.57
238.65	378.67
239.116	371.61
239.582	377.26
240.047	362
240.513	380.65
240.979	377.82
241.445	369.35
241.91	356.91
242.376	367.65
242.841	406.06
243.307	357.76
243.772	354.94
244.238	380.65
244.703	379.52
245.168	378.95
245.633	394.2
246.099	351.83
246.564	389.12
247.029	395.33
247.494	380.93
247.959	378.39
248.424	358.05
248.889	338.26
249.353	393.07
249.818	372.45
250.283	383.47
250.748	369.06
251.212	385.45
251.677	374.71
252.141	406.35
252.606	383.19
253.07	361.15
253.535	386.86
253.999	386.3
254.463	363.98
254.927	382.34
255.392	375
255.856	362.28
256.32	376.41
256.784	374.15
257.248	373.02
257.712	393.07
258.176	458.28
258.64	371.32
259.103	389.12
259.567	371.89
260.031	368.78
260.495	397.87
260.958	394.2
261.422	395.05
261.885	391.38
262.349	386.58
262.812	367.37
263.275	393.36
263.739	388.55
264.202	408.32
264.665	411.99
265.128	393.36
265.591	392.23
266.054	388.27
266.517	412.84
266.98	381.21
267.443	385.45
267.906	365.39
268.369	354.37
268.832	381.49
269.294	366.8
269.757	378.1
270.22	359.18
270.682	408.89
271.145	421.31
271.607	393.07
272.07	472.67
272.532	384.6
272.994	387.14
273.456	416.23
273.919	454.62
274.381	371.04
274.843	431.19
275.305	412.28
275.767	395.9
276.229	415.38
276.691	411.15
277.153	364.26
277.614	397.31
278.076	382.62
278.538	427.52
279	379.23
279.461	398.16
279.923	454.33
280.384	399.85
280.846	398.72
281.307	425.26
281.769	430.06
282.23	405.78
282.691	417.64
283.152	369.35
283.613	365.67
284.075	372.45
284.536	425.26
284.997	394.77
285.458	399.57
285.918	405.22
286.379	407.48
286.84	427.8
287.301	381.49
287.762	354.94
288.222	386.3
288.683	403.52
289.143	384.88
289.604	384.04
290.064	386.86
290.525	381.21
290.985	466.18
291.445	409.45
291.906	400.98
292.366	384.6
292.826	415.1
293.286	412.28
293.746	400.7
294.206	410.3
294.666	413.12
295.126	406.06
295.586	393.36
296.046	355.22
296.506	424.13
296.965	410.86
297.425	386.01
297.884	415.95
298.344	400.98
298.804	409.17
299.263	405.22
299.722	393.36
300.182	382.91
300.641	379.52
301.1	389.68
301.559	408.04
302.019	405.78
302.478	409.45
302.937	394.49
303.396	399.57
303.855	500.88
304.314	402.11
304.772	567.97
305.231	415.1
305.69	397.31
306.149	427.52
306.607	400.13
307.066	428.93
307.524	435.99
307.983	430.91
308.441	439.94
308.9	435.71
309.358	403.52
309.816	517.24
310.275	405.5
310.733	389.12
311.191	389.68
311.649	417.36
312.107	442.76
312.565	401.83
313.023	390.53
313.481	404.65
313.939	411.99
314.397	398.16
314.854	393.07
315.312	411.99
315.77	429.21
316.227	394.49
316.685	399.85
317.142	383.75
317.6	423.85
318.057	416.79
318.514	429.21
318.972	409.45
319.429	421.88
319.886	406.35
320.343	400.98
320.8	396.46
321.257	400.13
321.714	424.42
322.171	462.8
322.628	406.06
323.085	408.89
323.542	420.18
323.998	410.86
324.455	380.65
324.912	400.98
325.368	413.69
325.825	467.31
326.281	402.68
326.738	424.7
327.194	401.55
327.65	422.16
328.107	403.52
328.563	411.71
329.019	438.25
329.475	410.3
329.931	401.55
330.387	397.87
330.843	390.53
331.299	444.74
331.755	393.64
332.211	398.72
332.666	399.85
333.122	397.59
333.578	410.58
334.033	407.76
334.489	399.57
334.944	405.22
335.4	483.68
335.855	447.28
336.31	400.7
336.766	396.46
337.221	407.76
337.676	389.68
338.131	417.36
338.586	428.37
339.041	406.63
339.496	440.22
339.951	431.76
340.406	399.29
340.861	393.92
341.316	404.93
341.771	408.32
342.225	397.03
342.68	402.68
343.134	424.42
343.589	424.98
344.043	418.77
344.498	390.25
344.952	408.89
345.406	653.58
345.861	409.45
346.315	388.84
346.769	397.03
347.223	400.13
347.677	398.16
348.131	384.32
348.585	378.95
349.039	422.16
349.493	406.06
349.947	431.19
350.401	391.1
350.854	408.61
351.308	450.1
351.762	399.57
352.215	441.07
352.669	422.72
353.122	414.53
353.575	389.68
354.029	401.55
354.482	400.42
354.935	428.65
355.388	425.83
355.842	420.46
356.295	433.73
356.748	396.18
357.201	395.33
357.654	438.25
358.106	424.13
358.559	387.42
359.012	426.39
359.465	419.62
359.917	456.31
360.37	397.31
360.823	421.31
361.275	454.62
361.728	417.08
362.18	413.97
362.632	464.77
363.085	416.79
363.537	419.33
363.989	406.06
364.441	420.46
364.893	379.23
365.345	414.25
365.797	398.16
366.249	425.55
366.701	414.53
367.153	406.63
367.605	418.2
368.057	416.23
368.508	414.25
368.96	411.43
369.411	404.65
369.863	421.03
370.314	433.73
370.766	450.38
371.217	428.93
371.669	438.53
372.12	455.46
372.571	448.69
373.022	397.03
373.473	437.12
373.924	436.27
374.375	422.44
374.826	452.08
375.277	405.5
375.728	423
376.179	423.85
376.63	405.5
377.08	409.73
377.531	409.17
377.981	378.67
378.432	460.82
378.883	441.35
379.333	428.65
379.783	409.73
380.234	448.97
380.684	432.32
381.134	432.32
381.584	446.71
382.034	452.64
382.485	440.22
382.935	407.76
383.385	458.57
383.834	388.27
384.284	428.93
384.734	420.75
385.184	460.82
385.634	409.17
386.083	454.33
386.533	418.77
386.982	412.28
387.432	430.63
387.881	419.05
388.331	421.88
388.78	427.24
389.229	446.15
389.679	426.39
390.128	426.39
390.577	425.83
391.026	419.9
391.475	398.44
391.924	423.85
392.373	419.33
392.822	417.64
393.27	412.84
393.719	427.24
394.168	426.96
394.617	450.38
395.065	433.73
395.514	450.95
395.962	439.94
396.411	419.05
396.859	419.05
397.307	463.93
397.756	432.04
398.204	437.4
398.652	475.78
399.1	429.5
399.548	466.18
399.996	507.08
400.444	440.79
400.892	452.92
401.34	435.42
401.788	458
402.236	428.37
402.683	456.59
403.131	456.87
403.579	489.88
404.026	462.52
404.474	450.1
404.921	468.16
405.369	483.39
405.816	481.14
406.263	455.46
406.71	507.08
407.158	502.57
407.605	471.83
408.052	503.7
408.499	522.59
408.946	490.16
409.393	500.03
409.84	552.19
410.286	507.37
410.733	548.81
411.18	558.11
411.626	601.21
412.073	650.2
412.52	701.97
412.966	823.66
413.413	945.99
413.859	1115.98
414.305	1362.58
414.752	1620.63
415.198	1987.46
415.644	2445.35
416.09	3018.53
416.536	3620.44
416.982	4380.7
417.428	5230.46
417.874	6143.08
418.32	7199.2
418.766	8282.21
419.211	9598.16
419.657	10808.69
420.103	12390.11
420.548	13490.53
420.994	15202.02
421.439	16732
421.885	18093.44
422.33	19886.96
422.776	21448.08
423.221	22822.33
423.666	24572.71
424.111	26239.68
424.556	27305.38
425.001	29171.05
425.446	30737.68
425.891	32181.73
426.336	33149.65
426.781	34592.11
427.226	36833.73
427.671	37208.48
428.115	38015.91
428.56	39808.44
429.005	41172.84
429.449	41503.23
429.894	42618.83
430.338	43692.99
430.782	43307.61
431.227	44734.87
431.671	44823.03
432.115	46170.64
432.559	46997.67
433.003	46526.92
433.447	47216.7
433.891	47291.24
434.335	47499.01
434.779	48164.12
435.223	48203.48
435.667	48072.57
436.111	48957.96
436.554	48220.47
436.998	47770.18
437.442	47664.35
437.885	49770.54
438.328	47997.28
438.772	48357.75
439.215	48878.13
439.659	48451.09
440.102	48870.88
440.545	48006.53
440.988	47888.93
441.431	48714.54
441.874	48378.63
442.317	48554.58
442.76	48111.9
443.203	47522.79
443.646	48321.16
444.089	47778.89
444.531	48424.01
444.974	46994.87
445.417	48204.26
445.859	47307.32
446.302	48528.76
446.744	47921.79
447.186	49123.52
447.629	48210.95
448.071	48057.15
448.513	48312.91
448.956	49742.02
449.398	48913.37
449.84	47684.84
450.282	48370.64
450.724	49017.09
451.166	48681.19
451.607	48579.89
452.049	48807.43
452.491	50014.26
452.933	49463.38
453.374	50351.47
453.816	50881.7
454.257	50310.36
454.699	51700.31
455.14	51449.03
455.582	51042.03
456.023	51048.16
456.464	51424.65
456.905	52153.23
457.347	52187.96
457.788	51130.21
458.229	51286.35
458.67	52505.81
459.111	50664.52
459.552	50860.98
459.992	50621.38
460.433	50410.28
460.874	49382.33
461.315	50775.54
461.755	49766.88
462.196	49260.77
462.636	48615.28
463.077	48267.58
463.517	48465.79
463.957	48921.41
464.398	48662.83
464.838	48662.83
465.278	47497.73
465.718	47855.32
466.158	46783.58
466.598	47358.15
467.038	46920.24
467.478	47489.29
467.918	47598.03
468.358	47056.79
468.798	46741.87
469.237	46653.41
469.677	46598.79
470.117	47560.41
470.556	44983.89
470.996	45692.68
471.435	45930.97
471.874	46676.79
472.314	46355.13
472.753	45369.29
473.192	45574.81
473.631	45411.89
474.07	45732.08
474.509	45667.69
474.948	46101
475.387	45304.29
475.826	44250.82
476.265	46358.18
476.704	45968.91
477.143	46395.46
477.581	46017.73
478.02	46808.26
478.458	45271.29
478.897	46180.77
479.335	47517.42
479.774	46696.62
480.212	47188.37
480.65	47151.13
481.089	46870.09
481.527	46325.21
481.965	45812.92
482.403	48312.91
482.841	48016.29
483.279	48008.84
483.717	48216.35
484.155	47622.86
484.592	48016.29
485.03	48274.54
485.468	47294.3
485.905	47444.54
486.343	48225.36
486.781	47342.83
487.218	46676.54
487.655	46714.41
488.093	45947.92
488.53	47469.34
488.967	46564.24
489.405	46489.09
489.842	45396.51
490.279	45599.28
490.716	45182.91
491.153	45653.3
491.59	44930.84
492.027	44154.16
492.463	43798.94
492.9	43077.55
493.337	42908.2
493.773	42989.62
494.21	42080.05
494.647	41837.23
495.083	41074.91
495.519	40773.88
495.956	40805.01
496.392	40115.73
496.828	39773.96
497.265	39078.82
497.701	39098.25
498.137	38757.88
498.573	37974.71
499.009	38475.47
499.445	37508.27
499.881	37061.59
500.316	37322.6
500.752	36320.32
501.188	36148.7
501.624	36082.71
502.059	34568.19
502.495	34516.22
502.93	34403.49
503.366	35095.38
503.801	33893.42
504.236	33614.17
504.672	33123.56
505.107	32795.14
505.542	32152.72
505.977	32025.94
506.412	31528.31
506.847	31939.63
507.282	31195.95
507.717	31102.79
508.152	30854.02
508.587	30686.21
509.021	29903.24
509.456	29565.16
509.891	29731.9
510.325	29603
510.76	29164.94
511.194	28874.74
511.628	29046.23
512.063	28130.46
512.497	28299.67
512.931	27825.94
513.366	27633.87
513.8	27594.47
514.234	26778.28
514.668	26886.82
515.102	27113.65
515.536	25921.23
515.969	26380.93
516.403	25907
516.837	25348.14
517.271	25493.31
517.704	24950.49
518.138	24891.48
518.571	24611.34
519.005	24244.37
519.438	24093.92
519.871	23924.69
520.305	23489.14
520.738	23339.42
521.171	22702.54
521.604	23000.6
522.037	22608.41
522.47	22316.51
522.903	21934.6
523.336	21635.82
523.769	21577.87
524.202	21048.05
524.634	21177.22
525.067	20597.01
525.5	20466.17
525.932	20413.52
526.365	19980.69
526.797	19790.47
527.23	19839.96
527.662	19158.01
528.094	18950.71
528.527	18912.82
528.959	18583.43
529.391	18336.39
529.823	17723.85
530.255	17801.35
530.687	17328.88
531.119	17147.64
531.551	17086.29
531.982	16709.19
532.414	16541.94
532.846	16222.51
533.277	16008.81
533.709	15589.06
534.14	15514.1
534.572	15294.92
535.003	15164.75
535.435	14880.3
535.866	14643.53
536.297	14311.9
536.728	14275.78
537.159	14103.49
537.59	13850.42
538.022	13682.17
538.452	13497.11
538.883	13248.81
539.314	13130.16
539.745	12877.71
540.176	12641.27
540.606	12328.55
541.037	12385.28
541.468	12123.67
541.898	12005.24
542.328	11926.25
542.759	11719.73
543.189	11561.27
543.619	11456.84
544.05	11184.94
544.48	10977.45
544.91	10886.56
545.34	10726.18
545.77	10611.07
546.2	10462.27
546.63	10351.63
547.06	10303.6
547.489	10119.08
547.919	9813.1
548.349	9832.42
548.778	9799.19
549.208	9598.67
549.637	9459.62
550.067	9297.45
550.496	9320.19
550.926	9174.17
551.355	8877.86
551.784	8934.58
552.213	8711.73
552.642	8634.95
553.071	8574.49
553.5	8468.04
553.929	8229.92
554.358	8162.26
554.787	8097.18
555.216	8027.89
555.645	7878
556.073	7812.52
556.502	7787.99
556.93	7511.58
557.359	7440.95
557.787	7406.4
558.216	7341.21
558.644	7270.23
559.072	7163.28
559.5	7056.5
559.929	7007.15
560.357	7046
560.785	6869.22
561.213	6888.41
561.641	6749.82
562.068	6782.18
562.496	6713.25
562.924	6591.58
563.352	6559.44
563.779	6502.23
564.207	6558.12
564.634	6448.43
565.062	6475.6
565.489	6377.19
565.917	6325.97
566.344	6277.63
566.771	6194.91
567.198	6113.98
567.625	6031.67
568.053	5900.54
568.48	5944
568.907	5835.84
569.333	5781.46
569.76	5551.93
570.187	5643.38
570.614	5519.22
571.04	11130.21
571.467	5436.99
571.894	5294.46
572.32	5121.83
572.747	5078.29
573.173	5020.84
573.599	4931.52
574.026	4827.12
574.452	4829.8
574.878	4699.28
575.304	4582.29
575.73	4517.29
576.156	4450.1
576.582	4439.34
577.008	4308.56
577.434	4302.64
577.86	4198.1
578.285	4148.75
578.711	4077.51
579.137	3995.96
579.562	3911.08
579.988	3889.44
580.413	3804.2
580.838	3722.4
581.264	3753.28
581.689	3655.71
582.114	3623.43
582.539	4045.66
582.964	3536.84
583.39	3475.72
583.814	3414.01
584.239	3327.22
584.664	3278.76
585.089	3238.44
585.514	3261.6
585.939	3200.55
586.363	3088.17
586.788	3086.53
587.212	3057.59
587.637	2971.53
588.061	2966.06
588.485	2903.72
588.91	2888.12
589.334	2826.81
589.758	2832.56
590.182	2787.65
590.606	2688.98
591.03	2677.73
591.454	2613.8
591.878	2605.01
592.302	2597.05
592.726	2563
593.15	2512.17
593.573	2468.73
593.997	2433.25
594.42	2365.82
594.844	2369.12
595.267	2330.02
595.691	2303.02
596.114	2243.2
596.537	2238.79
596.96	2234.66
597.384	2237.41
597.807	2150.78
598.23	2191.07
598.653	2164.58
599.076	2115.16
599.499	2120.4
599.921	2060.73
600.344	2044.14
600.767	2100.24
601.189	2049.95
601.612	2018.43
602.034	1986.07
602.457	2002.95
602.879	2124.27
603.302	1978.05
603.724	1962
604.146	1942.08
604.568	1906.36
604.991	1954.81
605.413	1937.92
605.835	1967.26
606.257	1919.93
606.678	1900.83
607.1	1890.3
607.522	1912.73
607.944	1883.38
608.365	1863.15
608.787	1826.85
609.209	1844.59
609.63	1771.67
610.051	1769.45
610.473	1742.26
610.894	1733.94
611.315	1701.74
611.737	1736.44
612.158	1666.2
612.579	1603.4
613	1715.34
613.421	1605.07
613.842	1607.85
614.263	1549.73
614.683	1549.45
615.104	1540.27
615.525	1544.17
615.945	1484.61
616.366	1446.74
616.787	1460.11
617.207	1445.35
617.627	1414.43
618.048	1378.75
618.468	1354.22
618.888	1342.5
619.308	1338.88
619.728	1332.74
620.148	1291.72
620.568	1319.07
620.988	1322.14
621.408	1258.23
621.828	1285.58
622.248	1239.8
622.668	1242.03
623.087	1221.36
623.507	1216.89
623.926	1191.74
624.346	1168.55
624.765	1158.76
625.185	1123.81
625.604	1135.27
626.023	1139.19
626.442	1106.46
626.861	1148.7
627.28	1090.52
627.699	1056.09
628.118	1070.93
628.537	1061.69
628.956	1038.17
629.375	1088.28
629.794	995.6
630.212	1065.33
630.631	1032.85
631.049	995.32
631.468	995.04
631.886	937.58
632.305	998.12
632.723	954.4
633.141	939.82
633.559	932.81
633.978	939.82
634.396	967.57
634.814	907.01
635.232	902.24
635.65	910.66
636.067	919.07
636.485	913.46
636.903	859.03
637.321	853.42
637.738	938.98
638.156	855.66
638.573	840.5
638.991	898.88
639.408	896.91
639.825	830.96
640.243	887.93
640.66	812.7
641.077	802.87
641.494	816.36
641.911	819.44
642.328	811.3
642.745	787.99
643.162	812.99
643.579	818.32
643.995	777.03
644.412	838.26
644.829	735.71
645.245	786.3
645.662	724.75
646.078	748.92
646.495	753.98
646.911	763.82
647.327	765.23
647.743	739.37
648.159	756.51
648.576	711.53
648.992	712.94
649.408	709.28
649.824	696.62
650.239	687.06
650.655	715.47
651.071	675.24
651.487	705.63
651.902	673.84
652.318	664.83
652.733	665.96
653.149	668.77
653.564	634.72
653.979	661.18
654.395	653.01
654.81	671.31
655.225	637.25
655.64	658.64
656.055	674.4
656.47	670.74
656.885	622.89
657.3	656.67
657.715	686.22
658.13	622.33
658.544	638.66
658.959	605.72
659.374	599.24
659.788	670.74
660.202	615.01
660.617	675.81
661.031	624.02
661.445	641.19
661.86	606.84
662.274	638.66
662.688	630.5
663.102	609.66
663.516	626.84
663.93	602.62
664.344	584.87
664.758	602.62
665.171	576.99
665.585	558.95
665.999	566.28
666.412	584.31
666.826	578.11
667.239	602.06
667.653	570.51
668.066	557.54
668.479	577.83
668.892	545.71
669.306	560.64
669.719	577.27
670.132	581.21
670.545	544.3
670.958	553.32
671.37	538.38
671.783	524.85
672.196	571.07
672.609	536.12
673.021	528.51
673.434	532.18
673.846	522.03
674.259	508.21
674.671	533.31
675.084	543.17
675.496	500.6
675.908	534.43
676.32	526.82
676.732	523.44
677.144	544.3
677.556	513.57
677.968	501.16
678.38	530.77
678.792	527.1
679.204	520.34
679.615	549.09
680.027	500.88
680.439	510.19
680.85	530.2
681.262	557.83
681.673	502.29
682.084	511.6
682.496	507.93
682.907	494.96
683.318	506.8
683.729	496.09
684.14	486.21
684.551	496.37
684.962	494.39
685.373	473.52
685.784	489.6
686.194	472.67
686.605	464.77
687.016	508.78
687.426	491.01
687.837	458.85
688.247	482.55
688.657	471.55
689.068	473.24
689.478	474.65
689.888	488.47
690.298	495.52
690.708	458.85
691.118	473.52
691.528	472.11
691.938	467.88
692.348	448.41
692.758	454.9
693.168	473.24
693.577	485.09
693.987	475.78
694.396	466.47
694.806	431.76
695.215	451.79
695.625	474.37
696.034	459.98
696.443	448.97
696.852	493.55
697.262	445.59
697.671	477.19
698.08	472.11
698.489	481.42
698.897	447.56
699.306	430.91
699.715	425.55
700.124	456.31
700.532	461.39
700.941	466.18
701.35	443.89
701.758	467.6
702.166	436.55
702.575	459.41
702.983	407.48
703.391	434.01
703.799	431.47
704.208	447.28
704.616	409.73
705.024	467.31
705.432	444.74
705.839	428.93
706.247	450.1
706.655	508.49
707.063	409.17
707.47	410.02
707.878	402.68
708.285	413.69
708.693	395.05
709.1	459.13
709.508	406.35
709.915	400.13
710.322	465.62
710.729	519.77
711.136	433.17
711.543	416.79
711.95	434.3
712.357	442.76
712.764	418.49
713.171	437.12
713.578	430.63
713.984	419.62
714.391	414.53
714.797	443.05
715.204	429.78
715.61	451.51
716.017	397.31
716.423	439.66
716.829	423
717.236	451.51
717.642	402.11
718.048	437.97
718.454	419.33
718.86	387.14
719.266	475.5
719.671	412.56
720.077	442.76
720.483	424.13
720.889	461.95
721.294	403.52
721.7	400.13
722.105	419.9
722.511	417.92
722.916	421.03
723.321	424.98
723.726	450.95
724.132	434.01
724.537	420.75
724.942	442.48
725.347	420.75
725.752	408.32
726.156	423.29
726.561	411.71
726.966	417.36
727.371	445.3
727.775	434.86
728.18	403.24
728.584	387.71
728.989	423.57
729.393	480.86
729.798	403.24
730.202	446.71
730.606	419.05
731.01	423.57
731.414	404.37
731.818	386.58
732.222	425.55
732.626	403.8
733.03	432.32
733.434	371.61
733.837	419.33
734.241	405.5
734.645	426.67
735.048	375.84
735.452	411.99
735.855	400.7
736.258	413.12
736.662	458.28
737.065	450.38
737.468	426.11
737.871	404.09
738.274	434.3
738.677	406.06
739.08	398.44
739.483	435.99
739.886	415.38
740.289	453.77
740.691	401.55
741.094	416.23
741.497	395.62
741.899	445.87
742.302	406.06
742.704	398.72
743.106	421.88
743.508	388.55
743.911	375.84
744.313	390.81
744.715	412.56
745.117	406.35
745.519	402.39
745.921	389.4
746.323	388.84
746.724	385.45
747.126	405.5
747.528	435.99
747.929	386.01
748.331	414.82
748.732	406.06
749.134	399.57
749.535	396.18
749.936	410.58
750.338	402.39
750.739	418.49
751.14	391.66
751.541	412.28
751.942	389.12
752.343	407.48
752.744	417.92
753.144	373.58
753.545	421.88
753.946	382.62
754.346	390.25
754.747	456.03
755.148	506.24
755.548	388.27
755.948	404.93
756.349	413.41
756.749	397.31
757.149	389.12
757.549	448.69
757.949	416.51
758.349	395.05
758.749	380.93
759.149	406.35
759.549	404.93
759.949	412.84
760.348	471.55
760.748	405.22
761.148	424.98
761.547	394.49
761.947	404.37
762.346	400.42
762.745	447.84
763.145	382.91
763.544	404.93
763.943	397.31
764.342	400.98
764.741	377.26
765.14	388.55
765.539	377.54
765.938	472.39
766.336	402.11
766.735	398.44
767.134	362.57
767.532	363.98
767.931	410.3
768.329	468.16
768.728	391.38
769.126	391.94
769.525	425.83
769.923	398.16
770.321	438.25
770.719	411.71
771.117	409.45
771.515	390.25
771.913	427.8
772.311	378.1
772.709	383.47
773.106	375.84
773.504	400.13
773.902	402.11
774.299	388.55
774.697	482.27
775.094	416.51
775.491	386.58
775.889	419.62
776.286	364.26
776.683	392.23
777.08	386.01
777.477	373.87
777.874	429.78
778.271	367.37
778.668	382.06
779.065	386.58
779.462	408.04
779.858	393.36
780.255	436.84
780.652	386.3
781.048	455.18
781.444	400.7
781.841	405.78
782.237	396.75
782.633	391.1
783.03	368.22
783.426	414.53
783.822	391.94
784.218	390.25
784.614	372.45
785.01	371.04
785.405	405.22
785.801	406.63
786.197	383.19
786.593	401.55
786.988	417.08
787.384	440.51
787.779	385.73
788.174	383.75
788.57	356.07
788.965	355.5
789.36	382.34
789.755	388.55
790.15	359.46
790.545	400.42
790.94	389.68
791.335	366.8
791.73	376.13
792.125	443.33
792.52	417.36
792.914	399
793.309	373.3
793.703	389.4
794.098	384.04
794.492	403.8
794.887	381.21
795.281	445.02
795.675	410.02
796.069	434.3
796.463	384.88
796.857	389.97
797.251	389.68
797.645	398.16
798.039	394.77
798.433	361.44
798.826	387.14
799.22	402.39
799.614	380.36
800.007	391.1
800.401	386.01
800.794	379.23
801.187	393.07
801.581	387.99
801.974	402.39
802.367	419.62
802.76	391.38
803.153	362.85
803.546	380.65
803.939	408.04
804.332	384.88
804.725	391.66
805.117	367.65
805.51	413.97
805.903	378.1
806.295	398.72
806.688	393.64
807.08	357.2
807.472	403.8
807.865	430.91
808.257	391.38
808.649	378.67
809.041	380.93
809.433	418.77
809.825	384.6
810.217	392.51
810.609	373.58
811.001	392.23
811.392	384.32
811.784	406.35
812.175	388.84
812.567	406.06
812.958	371.32
813.35	397.59
813.741	378.95
814.132	377.26
814.524	383.19
814.915	377.54
815.306	391.1
815.697	382.62
816.088	399
816.479	404.09
816.87	382.34
817.26	422.44
817.651	462.52
818.042	372.74
818.432	393.64
818.823	437.68
819.213	399.57
819.604	385.17
819.994	362.57
820.384	363.41
820.775	382.62
821.165	365.39
821.555	356.63
821.945	384.6
822.335	360.02
822.725	398.16
823.114	384.04
823.504	404.37
823.894	365.39
824.284	422.72
824.673	386.01
825.063	382.06
825.452	384.04
825.842	386.3
826.231	451.23
826.62	389.4
827.009	391.66
827.399	402.96
827.788	359.74
828.177	402.96
828.566	389.97
828.954	473.52
829.343	408.32
829.732	387.71
830.121	474.65
830.509	428.65
830.898	379.52
831.286	392.51
831.675	388.84
832.063	405.5
832.452	370.76
832.84	360.31
833.228	417.36
833.616	392.51
834.004	402.68
834.392	392.51
834.78	393.07
835.168	372.17
835.556	411.71
835.944	391.94
836.331	408.89
836.719	411.99
837.107	396.75
837.494	415.66
837.881	395.9
838.269	385.45
838.656	391.66
839.043	384.88
839.431	437.68
839.818	382.91
840.205	371.04
840.592	387.71
840.979	397.59
841.366	380.65
841.752	345.89
842.139	385.73
842.526	367.37
842.912	380.36
843.299	377.54
843.685	405.22
844.072	399
844.458	406.91
844.844	356.07
845.231	369.35
845.617	385.17
846.003	378.67
846.389	412.28
846.775	370.19
847.161	387.42
847.547	403.24
847.933	375.56
848.318	378.39
848.704	361.44
849.09	382.34
849.475	352.68
849.861	418.77
850.246	393.36
850.631	415.38
851.017	387.99
851.402	376.97
851.787	389.68
852.172	443.61
852.557	413.69
852.942	392.79
853.327	378.1
853.712	390.25
854.097	385.73
854.481	342.5
854.866	387.14
855.25	378.39
855.635	399.29
856.019	340.24
856.404	384.6
856.788	357.76
857.172	328.94
857.557	389.4
857.941	407.19
858.325	383.47
858.709	365.96
859.093	370.19
859.477	393.07
859.86	406.91
860.244	346.74
860.628	445.02
861.012	376.97
861.395	378.39
861.779	383.75
862.162	363.7
862.545	394.77
862.929	374.71
863.312	398.72
863.695	359.46
864.078	407.19
864.461	368.5
864.844	392.23
865.227	415.66
865.61	350.98
865.993	387.99
866.376	396.46
866.758	375.56
867.141	408.32
867.523	402.68
867.906	350.42
868.288	368.22
868.671	395.9
869.053	370.19
869.435	392.23
869.817	400.13
870.199	373.87
870.581	394.77
870.963	388.84
871.345	392.79
871.727	389.4
872.109	343.92
872.491	373.87
872.872	406.06
873.254	368.5
873.635	369.06
874.017	405.22
874.398	381.21
874.779	384.32
875.161	364.26
875.542	422.72
875.923	387.14
876.304	376.69
876.685	380.93
877.066	374.71
877.447	393.92
877.828	360.31
878.208	377.26
878.589	400.42
878.97	448.97
879.35	377.54
879.731	375
880.111	354.65
880.491	347.31
880.872	377.26
881.252	363.13
881.632	385.17
882.012	403.24
882.392	403.24
882.772	408.32
883.152	365.11
883.532	365.39
883.912	390.81
884.291	410.86
884.671	400.7
885.051	373.58
885.43	360.02
885.81	398.16
886.189	361.44
886.568	383.47
886.948	390.81
887.327	427.24
887.706	378.39
888.085	399
888.464	391.1
888.843	456.87
889.222	428.37
889.601	405.78
889.979	389.4
890.358	386.01
890.737	359.46
891.115	373.58
891.494	386.86
891.872	384.88
892.25	371.89
892.629	409.17
893.007	430.91
893.385	369.91
893.763	376.97
894.141	402.11
894.519	381.78
894.897	348.44
895.275	378.1
895.653	394.2
896.03	395.62
896.408	398.16
896.786	374.15
897.163	391.66
897.541	355.5
897.918	426.67
898.295	363.13
898.673	378.67
899.05	371.89
899.427	532.74
899.804	381.21
900.181	385.45
900.558	382.06
900.935	397.03
901.312	345.05
901.688	341.66
902.065	372.45
902.442	374.71
902.818	382.06
903.195	388.55
903.571	380.08
903.947	348.16
904.324	396.46
904.7	363.13
905.076	411.15
905.452	397.31
905.828	369.35
906.204	395.62
906.58	375
906.956	384.32
907.331	399.57
907.707	403.8
908.083	406.63
908.458	398.44
908.834	370.19
909.209	384.32
909.585	364.83
909.96	387.99
910.335	368.78
910.71	357.48
911.086	367.09
911.461	380.65
911.836	367.65
912.21	376.41
912.585	395.05
912.96	378.67
913.335	351.83
913.709	343.35
914.084	389.97
914.459	379.52
914.833	368.78
915.207	373.3
915.582	381.49
915.956	376.97
916.33	353.52
916.704	355.5
917.078	374.43
917.452	412.28
917.826	346.18
918.2	342.79
918.574	353.52
918.948	367.93
919.321	363.41
919.695	375.28
920.068	387.71
920.442	388.55
920.815	383.47
921.189	382.34
921.562	406.06
921.935	363.7
922.308	392.23
922.681	369.06
923.054	374.71
923.427	393.07
923.8	350.7
924.173	357.48
924.546	366.8
924.919	360.59
925.291	366.52
925.664	354.94
926.036	367.09
926.409	369.63
926.781	393.92
927.153	363.13
927.526	372.17
927.898	369.91
928.27	387.71
928.642	365.39
929.014	400.98
929.386	365.39
929.758	375.28
930.129	365.11
930.501	402.68
930.873	352.39
931.244	372.17
931.616	384.6
931.987	382.91
932.359	392.51
932.73	352.96
933.101	359.74
933.472	375.84
933.843	363.41
934.214	414.53
934.585	377.26
934.956	388.84
935.327	433.45
935.698	372.17
936.069	386.3
936.439	353.52
936.81	380.93
937.18	384.32
937.551	377.26
937.921	433.17
938.292	400.42
938.662	359.46
939.032	368.78
939.402	367.65
939.772	371.89
940.142	358.89
940.512	366.8
940.882	381.49
941.252	355.5
941.621	392.51
941.991	370.48
942.361	393.36
942.73	381.78
943.1	373.02
943.469	346.18
943.838	396.18
944.208	389.68
944.577	358.61
944.946	381.21
945.315	349
945.684	379.23
946.053	371.04
946.422	363.7
946.791	376.69
947.159	359.46
947.528	327.24
947.897	377.54
948.265	367.65
948.634	381.78
949.002	360.02
949.371	354.94
949.739	346.74
950.107	367.09
950.475	338.55
950.843	375.28
951.211	381.78
951.579	385.73
951.947	349.57
952.315	366.52
952.683	349.29
953.05	363.7
953.418	406.91
953.785	362.57
954.153	375.28
954.52	364.54
954.888	392.51
955.255	358.61
955.622	387.42
955.989	356.35
956.356	391.38
956.723	355.22
957.09	375.84
957.457	377.26
957.824	368.5
958.191	368.78
958.557	402.39
958.924	373.87
959.291	365.11
959.657	369.91
960.023	454.62
960.39	390.53
960.756	401.55
961.122	406.35
961.488	375.56
961.855	391.94
962.221	361.44
962.586	366.8
962.952	440.79
963.318	386.3
963.684	431.47
964.05	385.45
964.415	387.71
964.781	395.62
965.146	364.83
965.512	402.39
965.877	365.96
966.242	365.39
966.608	385.73
966.973	366.52
967.338	395.9
967.703	383.47
968.068	348.16
968.433	422.72
968.797	442.48
969.162	352.96
969.527	369.91
969.891	359.46
970.256	355.78
970.62	373.87
970.985	368.22
971.349	386.01
971.714	368.22
972.078	379.23
972.442	414.53
972.806	389.68
973.17	363.7
973.534	384.32
973.898	366.52
974.262	370.76
974.625	402.11
974.989	353.24
975.353	409.17
975.716	362.28
976.08	317.91
976.443	363.7
976.806	362
977.17	367.65
977.533	357.48
977.896	336.29
978.259	373.02
978.622	510.75
978.985	389.68
979.348	383.47
979.711	369.63
980.073	364.26
980.436	356.91
980.799	388.84
981.161	385.17
981.524	346.74
981.886	384.32
982.248	367.65
982.611	362
982.973	364.83
983.335	348.72
983.697	365.96
984.059	400.42
984.421	356.35
984.783	349.57
985.145	348.72
985.506	352.68
985.868	382.91
986.23	348.44
986.591	349
986.953	381.21
987.314	352.96
987.675	346.46
988.037	5312.59
988.398	510.75
988.759	357.76
989.12	385.45
989.481	384.88
989.842	359.46
990.203	339.11
990.564	348.72
990.924	363.7
991.285	4876.39
991.646	490.45
992.006	358.33
992.367	372.74
992.727	376.41
993.087	378.39
993.448	358.61
993.808	356.63
994.168	342.79
994.528	346.18
994.888	373.02
995.248	374.71
995.608	375.56
995.967	362
996.327	373.87
996.687	379.8
997.046	357.76
997.406	366.24
997.765	365.67
998.125	384.32
998.484	356.63
998.843	404.93
999.202	375.56
999.561	335.15
999.92	358.05
1000.279	345.33
1000.638	334.59
1000.997	349.57
1001.356	380.36
1001.715	376.41
1002.073	368.5
1002.432	395.05
1002.79	362.28
1003.149	357.48
1003.507	380.93
1003.865	369.35
1004.224	352.96
1004.582	382.91
1004.94	377.26
1005.298	364.83
1005.656	369.63
1006.014	358.33
1006.371	371.32
1006.729	335.44
1007.087	401.55
1007.445	388.84
1007.802	389.97
1008.16	368.78
1008.517	392.79
1008.874	384.32
1009.232	339.68
1009.589	418.77
1009.946	371.61
1010.303	367.37
1010.66	387.14
1011.017	380.65
1011.374	390.53
1011.731	365.39
1012.087	359.46
1012.444	368.78
1012.801	354.37
1013.157	335.72
1013.513	359.18
1013.87	363.7
1014.226	339.96
1014.582	370.48
1014.939	376.13
1015.295	378.1
1015.651	340.52
1016.007	375.84
1016.363	387.14
1016.719	370.76
1017.074	388.55
1017.43	309.71
1017.786	379.52
1018.141	332.89
1018.497	383.75
1018.852	390.53
1019.208	375.28
1019.563	317.35
1019.918	349
1020.273	362
1020.628	358.61
1020.983	400.13
1021.338	346.46
1021.693	396.46
1022.048	350.13
1022.403	367.93
1022.757	373.58
1023.112	372.74
1023.467	356.07
1023.821	359.74
1024.175	357.2
1024.53	343.92
1024.884	350.7
1025.238	349.29
1025.592	375
1025.946	371.61
1026.3	349.85
1026.654	365.39
1027.008	353.24
1027.362	348.44
1027.716	348.44
1028.069	345.05
1028.423	363.41
1028.777	347.87
1029.13	343.92
1029.483	360.02
1029.837	419.62
1030.19	349.29
1030.543	370.48
1030.896	361.72
1031.249	360.59
1031.602	375
1031.955	371.04
1032.308	376.13
1032.661	406.91
1033.013	374.15
1033.366	392.79
1033.719	369.06
1034.071	345.33
1034.424	348.16
1034.776	362
1035.128	374.43
1035.48	359.46
1035.833	392.51
1036.185	359.74
1036.537	359.74
1036.889	359.74
