Data from SCSF78-405_irradiation_FLMS019251_05-38-12-979.txt Node
Date: Fri Feb 22 05:38:12 PST 2019
User: mu3e
Spectrometer: FLMS01925
Trigger mode: 0
Integration Time (sec): 3.659600E-1
Scans to average: 10
Electric dark correction enabled: true
Nonlinearity correction enabled: true
Boxcar width: 0
XAxis mode: Wavelengths
Number of Pixels in Spectrum: 2048
>>>>>Begin Spectral Data<<<<<
187.103	-138.68
187.574	-138.68
188.045	-138.68
188.516	-195.31
188.987	-111.95
189.458	-127.88
189.929	-163.72
190.4	-128.73
190.871	-102
191.342	-106.83
191.813	-91.76
192.284	-9.65
192.754	-34.36
193.225	6.53
193.696	52.22
194.166	36.05
194.637	96.19
195.107	135.59
195.578	124.54
196.048	146.08
196.518	166.47
196.989	159.96
197.459	198.2
197.929	217.73
198.399	325.23
198.869	276.31
199.339	310.24
199.809	353.49
200.279	362.81
200.749	354.9
201.219	343.03
201.689	355.18
202.159	355.18
202.628	374.68
203.098	373.55
203.568	381.18
204.037	396.99
204.507	368.75
204.976	403.77
205.445	406.59
205.915	376.66
206.384	364.23
206.853	391.06
207.323	402.36
207.792	390.21
208.261	370.72
208.73	434.26
209.199	399.25
209.668	383.72
210.137	404.9
210.606	395.86
211.075	395.3
211.543	393.89
212.012	388.24
212.481	365.64
212.95	347.27
213.418	422.69
213.887	395.86
214.355	396.71
214.824	363.38
215.292	359.71
215.76	344.45
216.229	369.31
216.697	361.4
217.165	381.46
217.633	361.12
218.101	338.79
218.569	450.07
219.037	368.46
219.505	419.58
219.973	377.22
220.441	339.36
220.909	338.79
221.377	346.99
221.844	353.77
222.312	352.64
222.78	354.34
223.247	346.42
223.715	346.71
224.182	371.29
224.65	382.59
225.117	392.47
225.584	359.14
226.052	357.16
226.519	364.51
226.986	367.05
227.453	348.68
227.92	372.42
228.387	360.27
228.854	333.42
229.321	342.19
229.788	360.27
230.255	363.66
230.722	393.32
231.189	381.74
231.655	366.2
232.122	380.89
232.589	363.38
233.055	350.1
233.522	423.53
233.988	378.63
234.454	379.48
234.921	380.61
235.387	417.89
235.853	376.37
236.32	369.88
236.786	355.47
237.252	361.97
237.718	437.08
238.184	369.88
238.65	376.66
239.116	364.79
239.582	410.83
240.047	359.71
240.513	363.94
240.979	390.5
241.445	338.79
241.91	358.86
242.376	367.05
242.841	376.94
243.307	324.38
243.772	373.55
244.238	394.17
244.703	382.31
245.168	385.69
245.633	387.67
246.099	328.34
246.564	360.27
247.029	383.72
247.494	349.82
247.959	387.39
248.424	357.16
248.889	364.23
249.353	423.53
249.818	373.55
250.283	364.79
250.748	384.28
251.212	387.39
251.677	391.34
252.141	395.3
252.606	392.19
253.07	370.72
253.535	381.18
253.999	352.64
254.463	342.47
254.927	334.55
255.392	383.15
255.856	397.27
256.32	374.68
256.784	369.31
257.248	382.31
257.712	388.52
258.176	413.37
258.64	381.74
259.103	363.38
259.567	419.02
260.031	357.44
260.495	380.61
260.958	387.67
261.422	366.2
261.885	380.61
262.349	372.42
262.812	389.93
263.275	395.58
263.739	369.31
264.202	422.97
264.665	384.57
265.128	376.94
265.591	367.05
266.054	369.88
266.517	428.05
266.98	400.66
267.443	383.72
267.906	360.55
268.369	353.49
268.832	382.31
269.294	394.45
269.757	406.59
270.22	337.1
270.682	382.59
271.145	403.49
271.607	376.94
272.07	450.07
272.532	385.69
272.994	407.72
273.456	395.02
273.919	452.61
274.381	388.8
274.843	427.2
275.305	393.89
275.767	382.87
276.229	384
276.691	405.75
277.153	391.63
277.614	394.45
278.076	371.29
278.538	404.62
279	363.94
279.461	341.62
279.923	451.19
280.384	380.05
280.846	372.7
281.307	372.98
281.769	380.33
282.23	389.93
282.691	411.96
283.152	394.45
283.613	395.02
284.075	395.02
284.536	405.18
284.997	372.14
285.458	359.14
285.918	404.62
286.379	383.15
286.84	417.32
287.301	408.01
287.762	384.28
288.222	398.69
288.683	378.92
289.143	373.27
289.604	391.63
290.064	395.58
290.525	365.07
290.985	455.71
291.445	389.93
291.906	377.5
292.366	385.98
292.826	366.49
293.286	400.38
293.746	409.98
294.206	420.71
294.666	374.96
295.126	415.35
295.586	400.66
296.046	382.87
296.506	405.75
296.965	384.57
297.425	367.05
297.884	413.93
298.344	396.43
298.804	404.62
299.263	365.07
299.722	408.57
300.182	380.33
300.641	403.49
301.1	362.25
301.559	421.84
302.019	399.82
302.478	390.5
302.937	400.66
303.396	427.2
303.855	479.13
304.314	393.6
304.772	541.44
305.231	404.62
305.69	367.33
306.149	417.89
306.607	397.56
307.066	428.9
307.524	435.95
307.983	400.1
308.441	429.18
308.9	454.86
309.358	404.62
309.816	445.27
310.275	394.17
310.733	403.2
311.191	420.71
311.649	408.57
312.107	429.46
312.565	397.56
313.023	397.84
313.481	385.41
313.939	342.75
314.397	422.69
314.854	382.02
315.312	422.4
315.77	400.66
316.227	389.08
316.685	362.25
317.142	400.38
317.6	442.16
318.057	427.2
318.514	426.07
318.972	404.62
319.429	405.46
319.886	402.36
320.343	406.31
320.8	378.63
321.257	397.27
321.714	424.95
322.171	441.88
322.628	425.79
323.085	412.81
323.542	389.08
323.998	409.42
324.455	380.61
324.912	417.89
325.368	389.08
325.825	447.24
326.281	413.09
326.738	411.39
327.194	374.68
327.65	395.86
328.107	413.37
328.563	394.45
329.019	417.6
329.475	396.14
329.931	412.81
330.387	411.68
330.843	395.58
331.299	407.72
331.755	378.92
332.211	408.85
332.666	379.76
333.122	386.54
333.578	431.16
334.033	399.25
334.489	406.59
334.944	382.87
335.4	468.12
335.855	463.61
336.31	433.98
336.766	396.14
337.221	391.63
337.676	394.45
338.131	418.17
338.586	403.2
339.041	376.94
339.496	449.22
339.951	394.45
340.406	392.76
340.861	394.73
341.316	377.79
341.771	424.66
342.225	411.39
342.68	458.81
343.134	408.57
343.589	414.78
344.043	401.23
344.498	418.17
344.952	415.35
345.406	643.41
345.861	412.81
346.315	391.63
346.769	408.01
347.223	398.4
347.677	396.43
348.131	391.34
348.585	388.8
349.039	398.12
349.493	393.04
349.947	430.59
350.401	399.25
350.854	375.24
351.308	465.02
351.762	413.65
352.215	435.67
352.669	385.41
353.122	427.77
353.575	388.52
354.029	390.21
354.482	404.9
354.935	415.63
355.388	413.65
355.842	426.64
356.295	424.1
356.748	398.97
357.201	409.7
357.654	417.04
358.106	432.28
358.559	432.57
359.012	413.37
359.465	410.55
359.917	413.37
360.37	399.82
360.823	418.17
361.275	424.1
361.728	428.33
362.18	409.98
362.632	457.4
363.085	389.65
363.537	397.84
363.989	444.14
364.441	416.48
364.893	390.78
365.345	392.19
365.797	382.59
366.249	406.59
366.701	380.05
367.153	402.64
367.605	400.1
368.057	399.25
368.508	417.6
368.96	436.8
369.411	428.33
369.863	416.76
370.314	400.38
370.766	405.75
371.217	426.36
371.669	423.25
372.12	455.43
372.571	430.31
373.022	420.99
373.473	427.2
373.924	423.25
374.375	431.16
374.826	413.09
375.277	406.59
375.728	435.95
376.179	389.65
376.63	426.64
377.08	404.62
377.531	410.26
377.981	402.08
378.432	449.78
378.883	408.29
379.333	434.54
379.783	452.61
380.234	410.83
380.684	423.53
381.134	435.39
381.584	459.94
382.034	479.97
382.485	433.13
382.935	430.87
383.385	429.74
383.834	388.8
384.284	428.05
384.734	391.34
385.184	428.9
385.634	395.58
386.083	416.48
386.533	436.8
386.982	438.49
387.432	443.01
387.881	428.33
388.331	394.73
388.78	397.84
389.229	444.7
389.679	415.63
390.128	444.14
390.577	411.96
391.026	426.64
391.475	439.91
391.924	424.1
392.373	432
392.822	420.43
393.27	432
393.719	428.9
394.168	446.68
394.617	452.89
395.065	416.76
395.514	453.73
395.962	460.51
396.411	446.11
396.859	434.83
397.307	442.73
397.756	444.42
398.204	431.16
398.652	459.66
399.1	447.24
399.548	444.42
399.996	492.38
400.444	432.57
400.892	470.1
401.34	457.68
401.788	463.89
402.236	444.14
402.683	454.3
403.131	467
403.579	474.61
404.026	476.87
404.474	402.64
404.921	453.73
405.369	470.66
405.816	487.03
406.263	439.91
406.71	488.72
407.158	476.87
407.605	470.95
408.052	472.36
408.499	529.04
408.946	534.12
409.393	507.9
409.84	492.38
410.286	525.66
410.733	561.45
411.18	543.42
411.626	605.4
412.073	664.8
412.52	711.5
412.966	792.73
413.413	942.31
413.859	1076.77
414.305	1333.82
414.752	1622.82
415.198	2000.42
415.644	2465.12
416.09	2999.65
416.536	3595.18
416.982	4396
417.428	5198.14
417.874	6211
418.32	7181.6
418.766	8339.38
419.211	9645.05
419.657	10789.19
420.103	12318.85
420.548	13463.65
420.994	15202.24
421.439	16710.16
421.885	18007.48
422.33	19999.56
422.776	21465.39
423.221	22879.59
423.666	24639.85
424.111	26221.01
424.556	27304.86
425.001	29093.83
425.446	30752.77
425.891	32234.85
426.336	33061.11
426.781	34519.36
427.226	36831.01
427.671	37206.25
428.115	38081.85
428.56	39613.87
429.005	41213.87
429.449	41423.97
429.894	42670.28
430.338	43641.26
430.782	43410.35
431.227	44802.15
431.671	44741.36
432.115	46072.62
432.559	46942.62
433.003	46229.88
433.447	47212.33
433.891	47365.53
434.335	47319.29
434.779	48218.64
435.223	48298.97
435.667	48025.51
436.111	48953.26
436.554	48335.56
436.998	47756.3
437.442	47631.28
437.885	49682.11
438.328	48097.47
438.772	48360.81
439.215	48798.34
439.659	48233.57
440.102	48833.03
440.545	48062.26
440.988	47783.73
441.431	48790.84
441.874	48282.23
442.317	48502.66
442.76	48036.04
443.203	47381.88
443.646	48260.34
444.089	47728.88
444.531	48259.57
444.974	47000.18
445.417	48055.32
445.859	47264.14
446.302	48424.75
446.744	47668.93
447.186	48970.37
447.629	47963.09
448.071	48087.19
448.513	48167.17
448.956	49732.31
449.398	48859.71
449.84	47720.42
450.282	48277.34
450.724	49053.13
451.166	48677.53
451.607	48726.67
452.049	48686.32
452.491	50084.34
452.933	49530.12
453.374	50152.41
453.816	50651.78
454.257	50324.03
454.699	51591.69
455.14	51193.65
455.582	51094.73
456.023	51189.12
456.464	51311.7
456.905	51915.08
457.347	52030.23
457.788	51123.78
458.229	51405.34
458.67	52460.49
459.111	50503.44
459.552	50630.87
459.992	50530.91
460.433	50427.93
460.874	49369.79
461.315	50821.93
461.755	49768.42
462.196	49395.06
462.636	48614.99
463.077	48213.23
463.517	48546.54
463.957	48884.84
464.398	48560.75
464.838	48569.53
465.278	47545.02
465.718	47918.93
466.158	46747.94
466.598	47331.81
467.038	46839.27
467.478	47457.29
467.918	47651.26
468.358	46958.15
468.798	46640.17
469.237	46464.95
469.677	46546.18
470.117	47475.19
470.556	45021.83
470.996	45504.39
471.435	45705.03
471.874	46552.53
472.314	46378.18
472.753	45311.81
473.192	45695.43
473.631	45275.04
474.07	45495.57
474.509	45528.1
474.948	45962.55
475.387	45413.12
475.826	44526.52
476.265	46411.16
476.704	45832.09
477.143	46247.37
477.581	46008.59
478.02	46611.96
478.458	45234.99
478.897	45984.56
479.335	47306.01
479.774	46752.52
480.212	46984.39
480.65	47011.9
481.089	46774.9
481.527	46262.06
481.965	45777.52
482.403	48072.79
482.841	47818.1
483.279	47864.78
483.717	48058.92
484.155	47642.29
484.592	47970.79
485.03	48286.35
485.468	47174.82
485.905	47405.91
486.343	48055.06
486.781	47302.69
487.218	46574.88
487.655	46653.38
488.093	45862.17
488.53	47558.33
488.967	46513.94
489.405	46341.66
489.842	45354.14
490.279	45556.36
490.716	45032.15
491.153	45621.97
491.59	44976.82
492.027	44183.17
492.463	43748.43
492.9	42850.41
493.337	42939.04
493.773	43018.73
494.21	42110.05
494.647	41882.57
495.083	41051.39
495.519	40737.05
495.956	40678.76
496.392	40029.43
496.828	39765.55
497.265	39064.29
497.701	39201.24
498.137	38690.79
498.573	37772.9
499.009	38491.89
499.445	37497.21
499.881	37029.49
500.316	37303.22
500.752	36348.41
501.188	36105.16
501.624	36181.92
502.059	34642.59
502.495	34506.92
502.93	34354.91
503.366	35051.41
503.801	33908.02
504.236	33557.08
504.672	33023.32
505.107	32864.59
505.542	32140.26
505.977	32109.78
506.412	31546.32
506.847	31998.85
507.282	31257.37
507.717	31033.98
508.152	30888.87
508.587	30588.36
509.021	29893.69
509.456	29573.68
509.891	29650.09
510.325	29452.82
510.76	29159.54
511.194	28803.37
511.628	28942.38
512.063	28142.9
512.497	28234.11
512.931	27706.03
513.366	27496.05
513.8	27461.29
514.234	26755.7
514.668	26825.54
515.102	27023
515.536	25976.17
515.969	26287.72
516.403	25650.94
516.837	25316.42
517.271	25418.37
517.704	24826.78
518.138	24821.12
518.571	24656.57
519.005	24210.61
519.438	24084.77
519.871	23786.42
520.305	23386.01
520.738	23260.45
521.171	22677.06
521.604	22960.08
522.037	22549.32
522.47	22131.5
522.903	21751.66
523.336	21743.99
523.769	21628.61
524.202	20942.86
524.634	20969.15
525.067	20763.01
525.5	20540.37
525.932	20454.22
526.365	19962.76
526.797	19718.81
527.23	19805.86
527.662	19119.62
528.094	19031.92
528.527	18864.68
528.959	18644.76
529.391	18353.83
529.823	17753.82
530.255	17721.32
530.687	17372.65
531.119	17176.41
531.551	16978.56
531.982	16655.51
532.414	16522.85
532.846	16229.76
533.277	16001.75
533.709	15526.65
534.14	15529.92
534.572	15293.63
535.003	15205.01
535.435	14828.34
535.866	14597.59
536.297	14213.87
536.728	14329.79
537.159	14200.23
537.59	13810.68
538.022	13679.86
538.452	13539.37
538.883	13220.64
539.314	13125.05
539.745	12768.76
540.176	12687.48
540.606	12282.72
541.037	12336.15
541.468	12108.87
541.898	11981.76
542.328	11916.53
542.759	11734.75
543.189	11551.79
543.619	11412.11
544.05	11241.67
544.48	10975.62
544.91	10895.23
545.34	10748.7
545.77	10609.76
546.2	10472.76
546.63	10332.08
547.06	10247.05
547.489	10104.65
547.919	9809.2
548.349	9864.06
548.778	9775.46
549.208	9563.82
549.637	9455.97
550.067	9285.79
550.496	9318.34
550.926	9141.3
551.355	8878.08
551.784	8910.2
552.213	8730.37
552.642	8589.25
553.071	8553.69
553.5	8389.02
553.929	8161.45
554.358	8153.38
554.787	8008.84
555.216	8051.57
555.645	7883.71
556.073	7782.48
556.502	7665.24
556.93	7441.96
557.359	7456.09
557.787	7429.4
558.216	7285.91
558.644	7258.93
559.072	7162.72
559.5	7104.75
559.929	7094.52
560.357	7000.29
560.785	6912.03
561.213	6884.7
561.641	6746.11
562.068	6766.89
562.496	6667.67
562.924	6617.63
563.352	6619.48
563.779	6510.9
564.207	6540.69
564.634	6467.65
565.062	6432.04
565.489	6315.11
565.917	6283.15
566.344	6197.52
566.771	6149.93
567.198	6121.09
567.625	5957.48
568.053	5945.56
568.48	5931.52
568.907	5887.78
569.333	5799.2
569.76	5610.13
570.187	5659.28
570.614	5548.44
571.04	11796.97
571.467	5484.86
571.894	5277.9
572.32	5136.22
572.747	5117.53
573.173	5028.56
573.599	4951.28
574.026	4832.98
574.452	4702.47
574.878	4652.58
575.304	4608.03
575.73	4532.03
576.156	4432.32
576.582	4440.38
577.008	4309.07
577.434	4242.54
577.86	4162.74
578.285	4136.04
578.711	4044
579.137	3992.95
579.562	3853.43
579.988	3886.71
580.413	3812.02
580.838	3734.56
581.264	3734.01
581.689	3672.49
582.114	3586.49
582.539	4013.21
582.964	3493.62
583.39	3488.19
583.814	3332.09
584.239	3326.92
584.664	3277.9
585.089	3259.38
585.514	3234.04
585.939	3168.62
586.363	3076.12
586.788	3041.72
587.212	3047.72
587.637	2962.2
588.061	3004.84
588.485	2860.18
588.91	2858.81
589.334	2801.31
589.758	2786.79
590.182	2778.58
590.606	2657.12
591.03	2687.02
591.454	2639.56
591.878	2591.25
592.302	2547.03
592.726	2554.45
593.15	2500.59
593.573	2440.92
593.997	2446.42
594.42	2352.29
594.844	2345.13
595.267	2302.16
595.691	2320.07
596.114	2282.32
596.537	2256.96
596.96	2226.62
597.384	2218.9
597.807	2164.54
598.23	2183.31
598.653	2147.98
599.076	2145.77
599.499	2131.69
599.921	2079.49
600.344	2096.62
600.767	2091.37
601.189	2043.56
601.612	2016.46
602.034	2002.63
602.457	2028.08
602.879	2137.49
603.302	1974.7
603.724	1933.18
604.146	1895.81
604.568	1928.48
604.991	1930.42
605.413	1901.34
605.835	1949.52
606.257	1878.36
606.678	1857.02
607.1	1875.59
607.522	1870.05
607.944	1913.25
608.365	1872.54
608.787	1812.96
609.209	1848.16
609.63	1768.86
610.051	1772.75
610.473	1771.64
610.894	1756.66
611.315	1701.98
611.737	1687.27
612.158	1659.5
612.579	1595.86
613	1706.98
613.421	1608.92
613.842	1575.84
614.263	1581.68
614.683	1504.9
615.104	1542.19
615.525	1488.2
615.945	1479.29
616.366	1466.2
616.787	1503.79
617.207	1397.67
617.627	1395.44
618.048	1362.82
618.468	1349.72
618.888	1362.82
619.308	1304.53
619.728	1281.92
620.148	1288.62
620.568	1300.06
620.988	1308.15
621.408	1249.54
621.828	1241.16
622.248	1225.8
622.668	1226.63
623.087	1219.93
623.507	1201.77
623.926	1195.34
624.346	1168.79
624.765	1184.72
625.185	1143.35
625.604	1116.22
626.023	1143.91
626.442	1096.08
626.861	1140.55
627.28	1058.29
627.699	1053.81
628.118	1069.77
628.537	1074.81
628.956	1070.33
629.375	1068.37
629.794	1005.65
630.212	1031.97
630.631	1031.97
631.049	977.91
631.468	1020.49
631.886	923.24
632.305	1017.97
632.723	956.33
633.141	949.6
633.559	952.68
633.978	940.35
634.396	954.08
634.814	941.75
635.232	902.49
635.65	913.99
636.067	885.93
636.485	894.63
636.903	851.7
637.321	847.77
637.738	898.28
638.156	856.75
638.573	826.43
638.991	867.98
639.408	880.88
639.825	830.08
640.243	848.33
640.66	825.31
641.077	804.8
641.494	808.46
641.911	826.43
642.328	819.41
642.745	766.88
643.162	787.67
643.579	785.7
643.995	793.85
644.412	828.11
644.829	738.77
645.245	715.71
645.662	725.56
646.078	753.11
646.495	732.3
646.911	717.4
647.327	734.55
647.743	744.11
648.159	760.98
648.576	699.12
648.992	739.89
649.408	747.48
649.824	701.37
650.239	704.18
650.655	683.37
651.071	673.8
651.487	704.75
651.902	701.37
652.318	667.05
652.733	689.56
653.149	642.85
653.564	665.92
653.979	629.05
654.395	645.1
654.81	647.07
655.225	630.18
655.64	645.94
656.055	675.77
656.47	641.16
656.885	653.54
657.3	639.19
657.715	688.43
658.13	627.36
658.544	655.79
658.959	576.95
659.374	601.46
659.788	640.03
660.202	629.33
660.617	685.06
661.031	606.24
661.445	615.82
661.86	593.85
662.274	647.91
662.688	644.53
663.102	584.56
663.516	620.32
663.93	567.65
664.344	570.75
664.758	587.94
665.171	566.81
665.585	594.13
665.999	580.61
666.412	566.24
666.826	560.05
667.239	608.78
667.653	531.58
668.066	544.26
668.479	548.77
668.892	556.1
669.306	558.35
669.719	566.53
670.132	566.24
670.545	521.71
670.958	527.91
671.37	546.52
671.783	556.66
672.196	600.89
672.609	507.05
673.021	534.4
673.434	532.71
673.846	524.81
674.259	533.27
674.671	527.07
675.084	542.57
675.496	521.15
675.908	525.38
676.32	516.64
676.732	522.56
677.144	513.25
677.556	501.69
677.968	508.46
678.38	515.51
678.792	521.43
679.204	494.64
679.615	552.15
680.027	524.81
680.439	524.53
680.85	523.97
681.262	551.87
681.673	490.13
682.084	512.41
682.496	495.77
682.907	507.9
683.318	491.82
683.729	487.87
684.14	522.56
684.551	487.03
684.962	493.51
685.373	487.87
685.784	496.62
686.194	487.03
686.605	472.92
687.016	475.46
687.426	482.79
687.837	458.53
688.247	453.17
688.657	481.1
689.068	444.99
689.478	454.58
689.888	479.97
690.298	467
690.708	461.35
691.118	457.12
691.528	458.81
691.938	471.23
692.348	491.54
692.758	467
693.168	464.74
693.577	470.66
693.987	435.95
694.396	470.1
694.806	433.13
695.215	424.95
695.625	487.03
696.034	471.79
696.443	459.38
696.852	454.86
697.262	466.71
697.671	446.11
698.08	443.29
698.489	455.99
698.897	463.05
699.306	433.13
699.715	452.32
700.124	432.28
700.532	478
700.941	433.98
701.35	439.91
701.758	469.54
702.166	433.41
702.575	466.43
702.983	428.61
703.391	454.3
703.799	441.88
704.208	422.12
704.616	403.77
705.024	465.02
705.432	435.95
705.839	421.84
706.247	496.9
706.655	521.43
707.063	414.78
707.47	434.26
707.878	399.82
708.285	424.1
708.693	418.73
709.1	432.28
709.508	406.31
709.915	411.96
710.322	431.72
710.729	496.33
711.136	440.47
711.543	418.45
711.95	426.64
712.357	434.26
712.764	425.51
713.171	414.78
713.578	421.56
713.984	430.87
714.391	404.62
714.797	398.69
715.204	414.22
715.61	428.33
716.017	426.07
716.423	408.85
716.829	422.69
717.236	417.6
717.642	431.16
718.048	444.7
718.454	439.06
718.86	407.72
719.266	504.79
719.671	422.69
720.077	461.64
720.483	406.88
720.889	433.98
721.294	400.38
721.7	410.83
722.105	421.84
722.511	382.59
722.916	416.48
723.321	419.58
723.726	406.31
724.132	417.6
724.537	404.9
724.942	428.9
725.347	414.78
725.752	416.19
726.156	400.95
726.561	399.53
726.966	425.23
727.371	440.47
727.775	380.89
728.18	414.78
728.584	397.56
728.989	409.13
729.393	484.2
729.798	415.63
730.202	425.51
730.606	405.46
731.01	405.75
731.414	409.13
731.818	398.69
732.222	447.24
732.626	420.15
733.03	438.78
733.434	379.48
733.837	413.93
734.241	410.55
734.645	410.55
735.048	396.71
735.452	392.47
735.855	399.82
736.258	414.5
736.662	449.5
737.065	450.35
737.468	433.13
737.871	422.4
738.274	405.46
738.677	411.11
739.08	396.43
739.483	409.7
739.886	404.62
740.289	436.52
740.691	389.08
741.094	367.9
741.497	375.24
741.899	428.05
742.302	395.3
742.704	381.74
743.106	396.99
743.508	391.34
743.911	389.93
744.313	394.17
744.715	403.77
745.117	388.8
745.519	390.21
745.921	384.85
746.323	390.78
746.724	381.74
747.126	394.45
747.528	425.79
747.929	346.71
748.331	413.09
748.732	391.06
749.134	398.69
749.535	387.67
749.936	465.3
750.338	361.68
750.739	459.66
751.14	385.98
751.541	393.32
751.942	399.25
752.343	369.31
752.744	415.91
753.144	374.4
753.545	390.78
753.946	408.85
754.346	378.35
754.747	453.73
755.148	502.82
755.548	399.82
755.948	378.92
756.349	416.19
756.749	399.82
757.149	367.62
757.549	429.46
757.949	400.38
758.349	374.96
758.749	408.57
759.149	384.85
759.549	393.32
759.949	379.76
760.348	459.66
760.748	412.81
761.148	386.54
761.547	333.14
761.947	374.96
762.346	385.13
762.745	456.56
763.145	407.16
763.544	426.07
763.943	412.52
764.342	375.53
764.741	389.93
765.14	392.19
765.539	360.84
765.938	456.27
766.336	376.37
766.735	387.95
767.134	368.75
767.532	368.75
767.931	383.72
768.329	448.65
768.728	390.78
769.126	410.26
769.525	421.56
769.923	387.39
770.321	418.45
770.719	418.45
771.117	369.03
771.515	402.36
771.913	376.66
772.311	373.55
772.709	403.77
773.106	380.05
773.504	376.66
773.902	402.08
774.299	402.08
774.697	487.03
775.094	424.1
775.491	371.57
775.889	395.3
776.286	387.11
776.683	386.54
777.08	367.33
777.477	361.97
777.874	412.81
778.271	382.87
778.668	388.52
779.065	378.63
779.462	390.5
779.858	398.4
780.255	383.15
780.652	390.21
781.048	413.37
781.444	371.85
781.841	369.88
782.237	392.19
782.633	384.57
783.03	380.05
783.426	376.37
783.822	386.82
784.218	384.57
784.614	361.68
785.01	368.46
785.405	375.24
785.801	385.41
786.197	382.02
786.593	384.85
786.988	380.89
787.384	419.02
787.779	388.8
788.174	391.63
788.57	374.11
788.965	393.04
789.36	363.94
789.755	375.81
790.15	395.3
790.545	393.6
790.94	357.73
791.335	384.28
791.73	391.34
792.125	441.03
792.52	387.39
792.914	387.39
793.309	359.14
793.703	401.23
794.098	371.85
794.492	390.21
794.887	368.75
795.281	444.42
795.675	390.21
796.069	421.56
796.463	379.48
796.857	376.09
797.251	400.66
797.645	374.68
798.039	378.35
798.433	389.08
798.826	369.31
799.22	364.51
799.614	415.63
800.007	393.89
800.401	389.65
800.794	343.6
801.187	400.1
801.581	391.34
801.974	385.69
802.367	402.36
802.76	391.63
803.153	389.65
803.546	385.41
803.939	402.36
804.332	391.34
804.725	392.19
805.117	368.75
805.51	390.78
805.903	380.61
806.295	384.85
806.688	395.3
807.08	389.93
807.472	391.63
807.865	409.7
808.257	398.69
808.649	407.44
809.041	397.84
809.433	415.35
809.825	389.65
810.217	355.18
810.609	392.76
811.001	381.18
811.392	343.03
811.784	406.59
812.175	357.44
812.567	382.87
812.958	394.17
813.35	412.24
813.741	362.81
814.132	389.65
814.524	387.67
814.915	383.15
815.306	365.36
815.697	367.9
816.088	370.44
816.479	406.31
816.87	393.32
817.26	398.69
817.651	424.66
818.042	384.28
818.432	375.24
818.823	374.11
819.213	373.27
819.604	337.1
819.994	372.98
820.384	390.5
820.775	391.91
821.165	374.11
821.555	365.36
821.945	386.82
822.335	374.11
822.725	404.33
823.114	375.24
823.504	398.69
823.894	363.1
824.284	387.95
824.673	382.59
825.063	372.98
825.452	372.14
825.842	372.7
826.231	451.48
826.62	382.31
827.009	403.49
827.399	399.53
827.788	365.64
828.177	372.98
828.566	391.91
828.954	465.02
829.343	385.69
829.732	367.62
830.121	455.99
830.509	433.13
830.898	365.36
831.286	351.79
831.675	415.35
832.063	392.76
832.452	375.53
832.84	359.42
833.228	391.63
833.616	385.41
834.004	412.24
834.392	409.7
834.78	386.82
835.168	376.66
835.556	395.02
835.944	399.82
836.331	396.71
836.719	403.77
837.107	397.84
837.494	428.05
837.881	362.25
838.269	384.57
838.656	361.4
839.043	372.7
839.431	477.72
839.818	362.25
840.205	365.64
840.592	393.89
840.979	384
841.366	362.53
841.752	379.48
842.139	358.86
842.526	370.72
842.912	404.9
843.299	384.28
843.685	398.69
844.072	387.95
844.458	372.7
844.844	372.98
845.231	366.77
845.617	340.21
846.003	374.68
846.389	370.72
846.775	385.98
847.161	361.97
847.547	365.64
847.933	363.1
848.318	380.33
848.704	365.64
849.09	378.07
849.475	379.2
849.861	397.84
850.246	365.64
850.631	399.53
851.017	388.8
851.402	358.57
851.787	376.66
852.172	429.46
852.557	373.27
852.942	371.29
853.327	381.46
853.712	400.1
854.097	362.25
854.481	381.74
854.866	370.44
855.25	346.14
855.635	380.89
856.019	388.52
856.404	370.72
856.788	367.9
857.172	391.34
857.557	401.23
857.941	395.3
858.325	345.58
858.709	364.23
859.093	359.71
859.477	378.35
859.86	385.98
860.244	383.72
860.628	440.47
861.012	383.44
861.395	387.67
861.779	368.75
862.162	393.32
862.545	374.96
862.929	362.81
863.312	392.76
863.695	359.99
864.078	384.85
864.461	384
864.844	392.76
865.227	435.39
865.61	358.57
865.993	352.92
866.376	388.24
866.758	385.69
867.141	394.45
867.523	377.22
867.906	346.71
868.288	409.7
868.671	377.5
869.053	385.13
869.435	369.03
869.817	406.03
870.199	360.84
870.581	362.81
870.963	400.1
871.345	397.84
871.727	386.26
872.109	364.51
872.491	368.75
872.872	388.24
873.254	338.23
873.635	369.03
874.017	425.79
874.398	369.03
874.779	390.5
875.161	377.22
875.542	418.73
875.923	353.77
876.304	357.44
876.685	374.4
877.066	367.9
877.447	375.53
877.828	369.88
878.208	410.83
878.589	397.56
878.97	437.65
879.35	350.38
879.731	392.76
880.111	365.07
880.491	382.87
880.872	382.02
881.252	341.34
881.632	341.34
882.012	392.76
882.392	396.71
882.772	399.53
883.152	374.4
883.532	375.53
883.912	394.17
884.291	385.13
884.671	345.01
885.051	370.16
885.43	368.75
885.81	384.57
886.189	373.27
886.568	361.4
886.948	322.96
887.327	393.04
887.706	371.57
888.085	384.85
888.464	389.93
888.843	446.96
889.222	392.47
889.601	401.51
889.979	391.06
890.358	378.35
890.737	375.53
891.115	342.19
891.494	361.12
891.872	368.46
892.25	358.29
892.629	425.23
893.007	395.86
893.385	358.29
893.763	384
894.141	392.47
894.519	367.9
894.897	363.66
895.275	379.48
895.653	348.4
896.03	386.26
896.408	369.03
896.786	371.29
897.163	368.46
897.541	350.95
897.918	415.35
898.295	368.75
898.673	372.14
899.05	382.87
899.427	521.99
899.804	369.03
900.181	405.18
900.558	406.88
900.935	367.9
901.312	348.12
901.688	337.1
902.065	402.64
902.442	367.05
902.818	365.92
903.195	371.01
903.571	347.84
903.947	369.03
904.324	337.1
904.7	366.77
905.076	385.98
905.452	362.81
905.828	386.82
906.204	380.61
906.58	354.34
906.956	392.76
907.331	409.7
907.707	376.37
908.083	391.63
908.458	387.11
908.834	367.62
909.209	380.05
909.585	377.22
909.96	371.29
910.335	370.72
910.71	382.59
911.086	380.61
911.461	407.72
911.836	358.57
912.21	360.55
912.585	363.66
912.96	389.93
913.335	354.05
913.709	408.01
914.084	369.03
914.459	383.15
914.833	350.66
915.207	369.59
915.582	354.9
915.956	376.66
916.33	368.18
916.704	354.05
917.078	372.98
917.452	395.58
917.826	378.07
918.2	371.85
918.574	388.8
918.948	351.51
919.321	361.68
919.695	354.9
920.068	345.86
920.442	388.24
920.815	379.48
921.189	372.98
921.562	411.39
921.935	389.37
922.308	354.62
922.681	385.98
923.054	335.12
923.427	424.66
923.8	361.4
924.173	361.97
924.546	336.25
924.919	376.94
925.291	375.81
925.664	356.03
926.036	359.99
926.409	369.31
926.781	379.48
927.153	377.22
927.526	361.97
927.898	356.88
928.27	375.53
928.642	367.62
929.014	374.11
929.386	347.84
929.758	339.92
930.129	363.94
930.501	407.44
930.873	347.84
931.244	399.82
931.616	370.44
931.987	361.12
932.359	392.19
932.73	355.47
933.101	389.93
933.472	341.9
933.843	395.86
934.214	396.99
934.585	374.68
934.956	354.9
935.327	436.8
935.698	337.66
936.069	387.95
936.439	333.71
936.81	354.62
937.18	368.46
937.551	365.92
937.921	416.19
938.292	385.69
938.662	371.85
939.032	377.79
939.402	368.46
939.772	391.06
940.142	384.85
940.512	344.16
940.882	361.68
941.252	376.66
941.621	361.4
941.991	377.5
942.361	365.07
942.73	364.79
943.1	380.33
943.469	366.77
943.838	406.88
944.208	401.79
944.577	355.47
944.946	368.18
945.315	355.47
945.684	343.88
946.053	358.57
946.422	357.16
946.791	387.67
947.159	361.4
947.528	360.55
947.897	384.57
948.265	353.21
948.634	350.66
949.002	362.53
949.371	359.99
949.739	371.85
950.107	389.65
950.475	362.81
950.843	376.09
951.211	387.95
951.579	356.31
951.947	322.12
952.315	357.44
952.683	353.49
953.05	357.16
953.418	401.51
953.785	366.77
954.153	334.84
954.52	373.27
954.888	371.29
955.255	370.44
955.622	340.49
955.989	370.16
956.356	399.53
956.723	375.81
957.09	386.26
957.457	406.03
957.824	345.86
958.191	350.66
958.557	381.74
958.924	362.25
959.291	341.62
959.657	356.6
960.023	460.51
960.39	354.05
960.756	374.4
961.122	403.77
961.488	367.62
961.855	365.07
962.221	339.64
962.586	348.4
962.952	437.08
963.318	381.18
963.684	452.89
964.05	416.76
964.415	338.51
964.781	363.38
965.146	375.81
965.512	410.83
965.877	352.92
966.242	399.25
966.608	377.79
966.973	337.66
967.338	357.44
967.703	362.25
968.068	341.05
968.433	393.04
968.797	418.17
969.162	370.16
969.527	351.79
969.891	323.25
970.256	357.16
970.62	363.66
970.985	370.72
971.349	387.67
971.714	383.44
972.078	379.48
972.442	353.77
972.806	398.97
973.17	350.95
973.534	395.86
973.898	362.81
974.262	368.46
974.625	394.45
974.989	317.31
975.353	417.89
975.716	398.4
976.08	359.14
976.443	342.75
976.806	384
977.17	365.07
977.533	387.39
977.896	363.1
978.259	365.92
978.622	507.61
978.985	371.57
979.348	367.62
979.711	351.23
980.073	381.46
980.436	394.73
980.799	383.72
981.161	401.23
981.524	363.94
981.886	384
982.248	358.57
982.611	386.54
982.973	378.07
983.335	337.95
983.697	356.88
984.059	373.83
984.421	364.23
984.783	362.25
985.145	339.08
985.506	347.27
985.868	360.84
986.23	371.85
986.591	361.97
986.953	374.96
987.314	347.27
987.675	363.66
988.037	5344.53
988.398	517.76
988.759	384.28
989.12	373.27
989.481	374.11
989.842	391.63
990.203	350.38
990.564	368.75
990.924	368.46
991.285	3718.57
991.646	431.16
992.006	343.03
992.367	363.94
992.727	369.03
993.087	341.34
993.448	384.57
993.808	355.47
994.168	336.53
994.528	363.66
994.888	356.31
995.248	367.9
995.608	324.1
995.967	356.03
996.327	352.36
996.687	370.16
997.046	359.99
997.406	391.06
997.765	380.61
998.125	332.86
998.484	346.99
998.843	388.52
999.202	373.27
999.561	340.21
999.92	330.88
1000.279	376.66
1000.638	367.62
1000.997	341.62
1001.356	358.86
1001.715	326.36
1002.073	362.81
1002.432	390.21
1002.79	352.08
1003.149	328.34
1003.507	374.96
1003.865	373.55
1004.224	331.73
1004.582	372.98
1004.94	374.96
1005.298	361.68
1005.656	360.55
1006.014	369.31
1006.371	351.79
1006.729	342.75
1007.087	375.24
1007.445	368.75
1007.802	369.88
1008.16	367.62
1008.517	356.6
1008.874	366.49
1009.232	385.98
1009.589	372.14
1009.946	354.9
1010.303	368.46
1010.66	383.72
1011.017	353.49
1011.374	388.52
1011.731	351.23
1012.087	353.49
1012.444	374.68
1012.801	383.15
1013.157	351.23
1013.513	360.84
1013.87	332.58
1014.226	375.81
1014.582	365.07
1014.939	352.08
1015.295	354.05
1015.651	341.05
1016.007	356.6
1016.363	405.18
1016.719	346.14
1017.074	375.24
1017.43	353.77
1017.786	380.33
1018.141	330.88
1018.497	365.07
1018.852	361.12
1019.208	381.46
1019.563	352.64
1019.918	362.53
1020.273	370.72
1020.628	370.16
1020.983	372.14
1021.338	346.99
1021.693	377.5
1022.048	320.99
1022.403	377.5
1022.757	366.2
1023.112	352.08
1023.467	331.73
1023.821	345.01
1024.175	352.64
1024.53	343.32
1024.884	330.88
1025.238	354.05
1025.592	362.81
1025.946	343.6
1026.3	346.71
1026.654	357.44
1027.008	349.82
1027.362	347.27
1027.716	349.25
1028.069	341.05
1028.423	380.61
1028.777	369.88
1029.13	362.53
1029.483	392.47
1029.837	388.8
1030.19	355.75
1030.543	343.32
1030.896	354.62
1031.249	371.01
1031.602	337.38
1031.955	343.32
1032.308	345.29
1032.661	371.01
1033.013	353.77
1033.366	346.99
1033.719	370.72
1034.071	360.84
1034.424	350.95
1034.776	348.4
1035.128	331.44
1035.48	332.86
1035.833	404.05
1036.185	348.97
1036.537	348.97
1036.889	348.97
