Data from SCSF78-405_irradiation_FLMS019251_05-25-13-562.txt Node
Date: Fri Feb 22 05:25:13 PST 2019
User: mu3e
Spectrometer: FLMS01925
Trigger mode: 0
Integration Time (sec): 3.659600E-1
Scans to average: 10
Electric dark correction enabled: true
Nonlinearity correction enabled: true
Boxcar width: 0
XAxis mode: Wavelengths
Number of Pixels in Spectrum: 2048
>>>>>Begin Spectral Data<<<<<
187.103	-131.64
187.574	-131.64
188.045	-131.64
188.516	-148.71
188.987	-113.16
189.458	-115.15
189.929	-143.59
190.4	-88.99
190.871	-95.25
191.342	-88.99
191.813	-71.65
192.284	-45.23
192.754	-41.54
193.225	-1.21
193.696	13.84
194.166	42.22
194.637	74.28
195.107	117.95
195.578	146.85
196.048	142.6
196.518	152.8
196.989	190.76
197.459	193.59
197.929	240.59
198.399	297.73
198.869	290.66
199.339	311.59
199.809	325.44
200.279	377.72
200.749	339.01
201.219	338.16
201.689	359.07
202.159	373.48
202.628	350.59
203.098	397.2
203.568	376.59
204.037	394.66
204.507	394.38
204.976	386.75
205.445	381.95
205.915	384.78
206.384	396.07
206.853	390.99
207.323	428.83
207.792	415.56
208.261	357.37
208.73	376.59
209.199	411.32
209.668	388.73
210.137	417.82
210.606	388.45
211.075	410.19
211.543	423.75
212.012	394.66
212.481	373.2
212.95	369.81
213.418	406.81
213.887	411.89
214.355	383.93
214.824	360.76
215.292	351.72
215.76	345.79
216.229	342.68
216.697	346.92
217.165	375.46
217.633	379.98
218.101	363.31
218.569	440.12
219.037	371.22
219.505	407.93
219.973	342.4
220.441	335.9
220.909	345.79
221.377	355.11
221.844	372.35
222.312	340.98
222.78	342.4
223.247	389.3
223.715	359.92
224.182	375.17
224.65	387.32
225.117	346.35
225.584	359.92
226.052	361.61
226.519	359.07
226.986	357.09
227.453	370.65
227.92	368.11
228.387	370.37
228.854	324.87
229.321	374.04
229.788	366.98
230.255	372.07
230.722	383.65
231.189	381.67
231.655	341.83
232.122	394.94
232.589	362.74
233.055	351.44
233.522	394.66
233.988	363.87
234.454	388.45
234.921	371.22
235.387	370.94
235.853	394.66
236.32	363.31
236.786	359.92
237.252	365.85
237.718	422.33
238.184	373.76
238.65	360.48
239.116	389.01
239.582	393.81
240.047	346.07
240.513	381.95
240.979	387.88
241.445	373.76
241.91	346.35
242.376	372.63
242.841	382.52
243.307	373.76
243.772	367.26
244.238	368.68
244.703	378.56
245.168	404.55
245.633	379.69
246.099	370.94
246.564	373.76
247.029	368.39
247.494	376.02
247.959	350.87
248.424	384.78
248.889	346.92
249.353	424.03
249.818	371.22
250.283	373.48
250.748	379.69
251.212	359.35
251.677	365.29
252.141	357.94
252.606	393.53
253.07	366.7
253.535	357.66
253.999	346.92
254.463	375.17
254.927	352.57
255.392	377.72
255.856	390.99
256.32	383.08
256.784	388.73
257.248	402.57
257.712	388.45
258.176	448.02
258.64	392.4
259.103	335.05
259.567	383.65
260.031	378.85
260.495	400.31
260.958	399.46
261.422	375.46
261.885	381.95
262.349	359.92
262.812	376.87
263.275	390.99
263.739	389.86
264.202	387.04
264.665	392.97
265.128	431.37
265.591	378
266.054	382.8
266.517	375.46
266.98	357.66
267.443	376.87
267.906	371.22
268.369	395.79
268.832	395.79
269.294	393.25
269.757	394.66
270.22	382.23
270.682	397.77
271.145	396.36
271.607	387.32
272.07	454.79
272.532	412.73
272.994	385.91
273.456	403.7
273.919	443.22
274.381	371.5
274.843	442.38
275.305	413.02
275.767	363.02
276.229	404.83
276.691	394.66
277.153	393.53
277.614	374.61
278.076	380.26
278.538	405.11
279	398.33
279.461	381.67
279.923	442.09
280.384	395.79
280.846	390.71
281.307	384.49
281.769	398.05
282.23	403.13
282.691	403.13
283.152	359.35
283.613	369.52
284.075	387.32
284.536	406.81
284.997	365.57
285.458	412.45
285.918	402
286.379	385.91
286.84	426.57
287.301	356.81
287.762	407.37
288.222	380.82
288.683	406.81
289.143	379.98
289.604	400.03
290.064	373.48
290.525	388.73
290.985	448.87
291.445	390.71
291.906	399.75
292.366	390.71
292.826	400.31
293.286	402.85
293.746	415.28
294.206	419.51
294.666	394.66
295.126	417.82
295.586	396.07
296.046	370.65
296.506	377.72
296.965	405.39
297.425	360.76
297.884	418.38
298.344	394.66
298.804	403.42
299.263	385.34
299.722	404.83
300.182	412.73
300.641	391.56
301.1	403.98
301.559	396.64
302.019	388.17
302.478	411.04
302.937	409.91
303.396	404.55
303.855	457.05
304.314	394.66
304.772	534.33
305.231	395.51
305.69	385.34
306.149	415.84
306.607	392.97
307.066	419.23
307.524	432.21
307.983	396.92
308.441	410.48
308.9	429.39
309.358	375.74
309.816	493.44
310.275	428.83
310.733	400.88
311.191	399.46
311.649	414.15
312.107	433.06
312.565	380.26
313.023	370.65
313.481	374.89
313.939	403.42
314.397	390.14
314.854	413.3
315.312	399.18
315.77	422.62
316.227	397.49
316.685	386.47
317.142	399.18
317.6	419.51
318.057	404.83
318.514	395.51
318.972	402.57
319.429	419.79
319.886	396.92
320.343	396.92
320.8	403.42
321.257	393.81
321.714	440.4
322.171	457.33
322.628	396.36
323.085	385.62
323.542	390.71
323.998	414.43
324.455	389.86
324.912	426.29
325.368	405.11
325.825	458.74
326.281	393.53
326.738	405.11
327.194	391.56
327.65	414.99
328.107	380.26
328.563	386.47
329.019	420.64
329.475	438.99
329.931	389.86
330.387	414.43
330.843	376.59
331.299	410.19
331.755	370.94
332.211	392.69
332.666	380.26
333.122	407.65
333.578	408.22
334.033	382.8
334.489	428.26
334.944	396.36
335.4	469.46
335.855	442.66
336.31	406.52
336.766	413.86
337.221	433.63
337.676	398.62
338.131	401.44
338.586	439.84
339.041	390.71
339.496	461.85
339.951	411.04
340.406	425.72
340.861	402.85
341.316	386.75
341.771	402.57
342.225	414.71
342.68	398.62
343.134	398.05
343.589	407.37
344.043	412.45
344.498	408.5
344.952	416.69
345.406	605.89
345.861	419.79
346.315	405.39
346.769	410.76
347.223	385.62
347.677	378.28
348.131	373.76
348.585	402
349.039	441.53
349.493	405.96
349.947	388.45
350.401	402.57
350.854	409.06
351.308	472.57
351.762	392.97
352.215	434.75
352.669	393.53
353.122	391.84
353.575	390.71
354.029	405.68
354.482	402.85
354.935	461.56
355.388	424.59
355.842	419.51
356.295	425.16
356.748	395.79
357.201	409.63
357.654	439.84
358.106	422.05
358.559	418.95
359.012	388.45
359.465	417.82
359.917	420.08
360.37	418.95
360.823	409.63
361.275	429.67
361.728	429.11
362.18	405.68
362.632	419.51
363.085	404.26
363.537	391.84
363.989	409.06
364.441	424.87
364.893	407.37
365.345	413.58
365.797	419.79
366.249	422.05
366.701	419.51
367.153	406.81
367.605	405.96
368.057	415.84
368.508	420.36
368.96	404.26
369.411	394.94
369.863	402.57
370.314	430.24
370.766	440.68
371.217	442.09
371.669	398.62
372.12	442.66
372.571	450.56
373.022	382.23
373.473	425.44
373.924	436.17
374.375	406.81
374.826	457.61
375.277	427.42
375.728	413.3
376.179	414.43
376.63	435.6
377.08	405.96
377.531	431.65
377.981	403.42
378.432	456.2
378.883	434.19
379.333	429.67
379.783	435.6
380.234	408.22
380.684	400.88
381.134	444.35
381.584	437.58
382.034	459.87
382.485	424.59
382.935	415.56
383.385	431.65
383.834	397.77
384.284	443.5
384.734	414.43
385.184	433.91
385.634	420.92
386.083	444.63
386.533	414.15
386.982	433.63
387.432	454.23
387.881	430.8
388.331	408.22
388.78	431.65
389.229	419.79
389.679	403.98
390.128	425.72
390.577	395.23
391.026	442.38
391.475	391.27
391.924	414.15
392.373	395.23
392.822	411.61
393.27	443.22
393.719	435.04
394.168	402.29
394.617	431.65
395.065	409.91
395.514	457.33
395.962	448.02
396.411	416.12
396.859	428.26
397.307	482.16
397.756	458.18
398.204	417.25
398.652	461.28
399.1	412.45
399.548	419.23
399.996	492.6
400.444	460.44
400.892	439.84
401.34	446.61
401.788	444.63
402.236	450.84
402.683	431.93
403.131	476.8
403.579	468.9
404.026	446.89
404.474	473.98
404.921	485.26
405.369	465.51
405.816	468.62
406.263	454.51
406.71	487.52
407.158	490.9
407.605	486.39
408.052	486.95
408.499	505.29
408.946	497.39
409.393	510.08
409.84	510.08
410.286	517.13
410.733	539.4
411.18	559.69
411.626	625.88
412.073	628.98
412.52	718.17
412.966	854.71
413.413	927.66
413.859	1102.16
414.305	1303.06
414.752	1622.2
415.198	1975.46
415.644	2425.99
416.09	3019.8
416.536	3591.85
416.982	4352.08
417.428	5218.62
417.874	6151.18
418.32	7221.91
418.766	8293.81
419.211	9670.25
419.657	10819.61
420.103	12332.02
420.548	13497.52
420.994	15276.45
421.439	16676.25
421.885	18017.16
422.33	20028.83
422.776	21495.05
423.221	22852.61
423.666	24447.61
424.111	26090.69
424.556	27303.33
425.001	29100.37
425.446	30677.58
425.891	32143.61
426.336	33107.37
426.781	34572.25
427.226	36762.19
427.671	37188.07
428.115	38010.42
428.56	39762.54
429.005	41252.9
429.449	41456.84
429.894	42624.71
430.338	43648.19
430.782	43327.97
431.227	44758.63
431.671	44723.97
432.115	46055.09
432.559	46845.57
433.003	46580.4
433.447	47282.97
433.891	47287.05
434.335	47574.64
434.779	48060.14
435.223	48194.64
435.667	48049.6
436.111	48549.84
436.554	48288.86
436.998	47658.62
437.442	47702.94
437.885	49692.5
438.328	47972.27
438.772	48320.03
439.215	48865.08
439.659	48387.81
440.102	48703.07
440.545	48026.47
440.988	47931.96
441.431	48678.76
441.874	48274.7
442.317	48603.81
442.76	47907.32
443.203	47494.82
443.646	48261.82
444.089	47743.94
444.531	48293.24
444.974	47048.54
445.417	48189.23
445.859	47216.86
446.302	48314.88
446.744	47736.76
447.186	48977.83
447.629	48013.63
448.071	47906.29
448.513	48203.64
448.956	49575.99
449.398	48747.82
449.84	47661.95
450.282	48358.94
450.724	48976.53
451.166	48555.77
451.607	48595.29
452.049	48786.11
452.491	49979.26
452.933	49554.84
453.374	50118.17
453.816	50949.89
454.257	50411.24
454.699	51711.51
455.14	51243.24
455.582	51016.38
456.023	51129.84
456.464	51301.48
456.905	52074.55
457.347	51977.42
457.788	51020.64
458.229	51304.95
458.67	52491.79
459.111	50339.25
459.552	50621.28
459.992	50483.56
460.433	50271.54
460.874	49377.8
461.315	50753.17
461.755	49880.16
462.196	49292.15
462.636	48572.3
463.077	48193.09
463.517	48483.5
463.957	48693.24
464.398	48434.23
464.838	48612.86
465.278	47542.14
465.718	47719.33
466.158	46837.93
466.598	47498.91
467.038	46833.86
467.478	47409.42
467.918	47662.72
468.358	46976.43
468.798	46691.19
469.237	46468.18
469.677	46507.53
470.117	47625.33
470.556	44864.14
470.996	45524
471.435	45705.47
471.874	46606.82
472.314	46243.25
472.753	45377.52
473.192	45597.17
473.631	45368.95
474.07	45527.28
474.509	45640.58
474.948	45944.53
475.387	45376.76
475.826	44349.45
476.265	46258.71
476.704	45663.05
477.143	46209.55
477.581	46042.18
478.02	46795.19
478.458	45218.31
478.897	45990.06
479.335	47370.83
479.774	46802.82
480.212	47216.35
480.65	46916.07
481.089	46784.25
481.527	46234.38
481.965	45774.42
482.403	48068.36
482.841	47880.37
483.279	47842.91
483.717	48063.22
484.155	47530.89
484.592	47998.47
485.03	48349.66
485.468	47073.26
485.905	47489.7
486.343	47959.69
486.781	47282.97
487.218	46687.63
487.655	46613.17
488.093	45873.48
488.53	47414.28
488.967	46476.05
489.405	46266.06
489.842	45338.46
490.279	45441.79
490.716	45168.21
491.153	45636.29
491.59	44945.58
492.027	44141.55
492.463	43780.35
492.9	42844.63
493.337	42923.54
493.773	42931.51
494.21	42045.22
494.647	42005.78
495.083	41066.41
495.519	40601.66
495.956	40725.87
496.392	39971.45
496.828	39688.66
497.265	39058.57
497.701	39064.47
498.137	38745.5
498.573	37779.46
499.009	38461.63
499.445	37576.78
499.881	37077.16
500.316	37310.75
500.752	36216.08
501.188	36165.23
501.624	35951.37
502.059	34604.7
502.495	34404.13
502.93	34393.89
503.366	35035.24
503.801	33786.5
504.236	33548.48
504.672	33140.53
505.107	32795.54
505.542	32034.38
505.977	32115.57
506.412	31469.7
506.847	31884.2
507.282	31170.25
507.717	30904.42
508.152	30963.93
508.587	30709.05
509.021	29821.39
509.456	29552.13
509.891	29621.22
510.325	29513.31
510.76	29146.53
511.194	28817.48
511.628	29092.31
512.063	28084.4
512.497	28269.5
512.931	27666.08
513.366	27538.82
513.8	27589.73
514.234	26659.33
514.668	26688.99
515.102	27102.54
515.536	26009.23
515.969	26267.3
516.403	25691.14
516.837	25351.98
517.271	25386.62
517.704	24919.18
518.138	24828.44
518.571	24686.77
519.005	24214.98
519.438	24005.64
519.871	23783.89
520.305	23372.88
520.738	23257.43
521.171	22691.33
521.604	22898.79
522.037	22517.87
522.47	22180.66
522.903	21843.19
523.336	21749.37
523.769	21541.86
524.202	20992.9
524.634	20916.51
525.067	20748.06
525.5	20554.71
525.932	20374.94
526.365	19913.97
526.797	19712.28
527.23	19809.78
527.662	19092.9
528.094	18917.22
528.527	18929.93
528.959	18458.84
529.391	18308.59
529.823	17773.51
530.255	17838
530.687	17327.54
531.119	17134.53
531.551	17193.12
531.982	16595.51
532.414	16474.12
532.846	16178.73
533.277	15988.37
533.709	15535.64
534.14	15459.92
534.572	15205.45
535.003	15206.45
535.435	14850.72
535.866	14596.01
536.297	14337.05
536.728	14299.17
537.159	14159.99
537.59	13815.67
538.022	13696
538.452	13556.02
538.883	13188.89
539.314	13095.32
539.745	12753.45
540.176	12647.53
540.606	12300.47
541.037	12298.44
541.468	12085.12
541.898	12053.28
542.328	11938.38
542.759	11714.79
543.189	11639.01
543.619	11418.94
544.05	11146.74
544.48	11025.21
544.91	10906.18
545.34	10713.78
545.77	10517.86
546.2	10538.39
546.63	10286.55
547.06	10352.81
547.489	10075.52
547.919	9823.31
548.349	9824.59
548.778	9792.14
549.208	9581.81
549.637	9402.73
550.067	9287.02
550.496	9317.25
550.926	9171.23
551.355	8925.42
551.784	8956.75
552.213	8739.38
552.642	8640.82
553.071	8486.38
553.5	8436.51
553.929	8116.61
554.358	8237.11
554.787	8079.89
555.216	8125.46
555.645	7849.47
556.073	7818.17
556.502	7752.4
556.93	7473.03
557.359	7510.96
557.787	7463.09
558.216	7290.56
558.644	7260.17
559.072	7169.21
559.5	7063.75
559.929	7006.26
560.357	7008.63
560.785	6895.67
561.213	6868.34
561.641	6768.41
562.068	6786.29
562.496	6717.36
562.924	6618.09
563.352	6585.43
563.779	6562.76
564.207	6520.59
564.634	6400.58
565.062	6405.33
565.489	6310.82
565.917	6223.36
566.344	6243.45
566.771	6205.12
567.198	6118.65
567.625	5990.53
568.053	5908.13
568.48	5903.36
568.907	5875.52
569.333	5818.5
569.76	5558.22
570.187	5589.06
570.614	5528.16
571.04	11792.06
571.467	5458.18
571.894	5289.29
572.32	5120.4
572.747	5087.28
573.173	5045.06
573.599	4925
574.026	4783.89
574.452	4746.37
574.878	4708.84
575.304	4581.11
575.73	4540.83
576.156	4442.74
576.582	4438.97
577.008	4314.12
577.434	4224.14
577.86	4109.53
578.285	4130.85
578.711	4101.7
579.137	3977.48
579.562	3930.18
579.988	3925.85
580.413	3841.72
580.838	3723.11
581.264	3682.18
581.689	3637.16
582.114	3599.72
582.539	4018.82
582.964	3535.66
583.39	3492.47
583.814	3386.99
584.239	3314.87
584.664	3297.72
585.089	3211.08
585.514	3247.87
585.939	3164.46
586.363	3125.72
586.788	3024.44
587.212	3051.48
587.637	2961.59
588.061	2926.59
588.485	2881.45
588.91	2826.16
589.334	2815.21
589.758	2812.2
590.182	2736.85
590.606	2697.65
591.03	2635.38
591.454	2607.38
591.878	2593.38
592.302	2596.67
592.726	2572.78
593.15	2491.45
593.573	2422.97
593.997	2447.73
594.42	2337.08
594.844	2340.93
595.267	2331.84
595.691	2329.09
596.114	2273.98
596.537	2211.94
596.96	2280.04
597.384	2223.52
597.807	2153.43
598.23	2190.14
598.653	2199.52
599.076	2127.76
599.499	2100.97
599.921	2097.37
600.344	2032.15
600.767	2066.71
601.189	2034.64
601.612	1982.93
602.034	2008.65
602.457	2002.84
602.879	2142.94
603.302	1964.11
603.724	1938.1
604.146	1954.43
604.568	1889.92
604.991	1946.4
605.413	1914.84
605.835	1957.47
606.257	1875.79
606.678	1867.76
607.1	1901.83
607.522	1873.58
607.944	1874.41
608.365	1850.03
608.787	1812.89
609.209	1884.1
609.63	1759.92
610.051	1779.89
610.473	1752.98
610.894	1740.5
611.315	1701.08
611.737	1688.03
612.158	1665.82
612.579	1613.02
613	1663.87
613.421	1605.52
613.842	1601.07
614.263	1561.59
614.683	1526.82
615.104	1483.68
615.525	1510.68
615.945	1489.8
616.366	1463.91
616.787	1477.55
617.207	1439.12
617.627	1359.69
618.048	1401.5
618.468	1379.2
618.888	1347.42
619.308	1344.63
619.728	1320.08
620.148	1284.64
620.568	1277.94
620.988	1324.27
621.408	1254.77
621.828	1250.86
622.248	1232.43
622.668	1245.28
623.087	1229.08
623.507	1200.86
623.926	1186.61
624.346	1194.15
624.765	1156.98
625.185	1138.53
625.604	1125.66
626.023	1113.35
626.442	1115.87
626.861	1149.99
627.28	1094.89
627.699	1078.66
628.118	1033.59
628.537	1082.85
628.956	1057.66
629.375	1036.67
629.794	1025.46
630.212	1019.3
630.631	1044.51
631.049	978.4
631.468	996.33
631.886	948.41
632.305	1016.78
632.723	967.75
633.141	957.38
633.559	909.43
633.978	922.33
634.396	965.23
634.814	938.59
635.232	920.93
635.65	904.94
636.067	939.72
636.485	867.63
636.903	857.24
637.321	862.57
637.738	908.31
638.156	875.76
638.573	819.62
638.991	906.06
639.408	886.43
639.825	790.69
640.243	864.26
640.66	802.49
641.077	843.77
641.494	841.52
641.911	805.3
642.328	825.52
642.745	769.62
643.162	790.13
643.579	776.08
643.995	760.34
644.412	817.93
644.829	726.33
645.245	776.64
645.662	729.98
646.078	791.81
646.495	720.14
646.911	719.58
647.327	770.46
647.743	727.45
648.159	737.86
648.576	751.35
648.992	743.76
649.408	680.2
649.824	706.08
650.239	722.39
650.655	669.51
651.071	700.18
651.487	728.02
651.902	678.8
652.318	674.86
652.733	666.98
653.149	654.32
653.564	686.39
653.979	652.06
654.395	659.1
654.81	662.76
655.225	686.96
655.64	646.43
656.055	697.08
656.47	657.97
656.885	631.52
657.3	633.49
657.715	712.55
658.13	638.27
658.544	645.31
658.959	581.11
659.374	599.42
659.788	612.93
660.202	587.87
660.617	666.98
661.031	637.99
661.445	616.31
661.86	607.02
662.274	626.73
662.688	624.48
663.102	587.3
663.516	598.01
663.93	593.22
664.344	623.63
664.758	601.95
665.171	578.01
665.585	581.11
665.999	566.46
666.412	574.63
666.826	572.94
667.239	592.09
667.653	558.28
668.066	548.98
668.479	589.28
668.892	551.8
669.306	565.05
669.719	576.32
670.132	564.2
670.545	523.61
670.958	564.76
671.37	551.52
671.783	539.96
672.196	556.59
672.609	517.69
673.021	530.38
673.434	523.61
673.846	514.31
674.259	522.77
674.671	539.4
675.084	513.18
675.496	508.11
675.908	523.61
676.32	528.13
676.732	541.94
677.144	526.43
677.556	547.01
677.968	524.18
678.38	541.66
678.792	562.23
679.204	525.02
679.615	533.2
680.027	514.59
680.439	521.92
680.85	539.12
681.262	573.22
681.673	486.11
682.084	521.64
682.496	461.56
682.907	521.64
683.318	493.72
683.729	482.72
684.14	514.31
684.551	492.88
684.962	475.95
685.373	497.67
685.784	505.85
686.194	498.52
686.605	504.44
687.016	503.88
687.426	466.36
687.837	446.61
688.247	459.31
688.657	471.44
689.068	477.36
689.478	466.08
689.888	444.63
690.298	446.04
690.708	460.44
691.118	450
691.528	437.01
691.938	477.65
692.348	447.46
692.758	456.49
693.168	477.08
693.577	478.49
693.987	431.93
694.396	476.24
694.806	460.72
695.215	448.87
695.625	473.7
696.034	436.17
696.443	451.12
696.852	468.34
697.262	440.96
697.671	416.12
698.08	472.29
698.489	465.23
698.897	439.55
699.306	441.81
699.715	455.07
700.124	459.87
700.532	437.58
700.941	451.97
701.35	426
701.758	479.06
702.166	434.19
702.575	430.8
702.983	431.65
703.391	470.03
703.799	441.25
704.208	455.07
704.616	428.83
705.024	444.07
705.432	435.32
705.839	428.83
706.247	460.44
706.655	509.23
707.063	430.8
707.47	418.38
707.878	416.41
708.285	423.46
708.693	415.56
709.1	424.03
709.508	421.49
709.915	442.38
710.322	435.88
710.729	501.06
711.136	438.99
711.543	437.86
711.95	442.66
712.357	453.1
712.764	455.92
713.171	416.97
713.578	434.19
713.984	427.98
714.391	417.82
714.797	390.71
715.204	405.39
715.61	451.69
716.017	426.57
716.423	458.18
716.829	433.91
717.236	419.51
717.642	409.91
718.048	429.39
718.454	429.96
718.86	388.17
719.266	500.21
719.671	399.75
720.077	427.98
720.483	423.75
720.889	452.53
721.294	403.13
721.7	388.45
722.105	414.71
722.511	424.87
722.916	407.37
723.321	415.84
723.726	469.18
724.132	406.52
724.537	424.59
724.942	448.02
725.347	419.23
725.752	439.55
726.156	396.64
726.561	410.76
726.966	411.04
727.371	428.26
727.775	432.21
728.18	384.21
728.584	405.11
728.989	398.33
729.393	484.13
729.798	402.85
730.202	426.29
730.606	399.46
731.01	413.86
731.414	410.76
731.818	390.99
732.222	409.35
732.626	397.2
733.03	409.63
733.434	374.04
733.837	398.33
734.241	411.32
734.645	388.73
735.048	404.26
735.452	407.09
735.855	384.21
736.258	391.84
736.662	442.09
737.065	449.71
737.468	447.74
737.871	431.37
738.274	434.19
738.677	409.35
739.08	413.58
739.483	405.96
739.886	425.44
740.289	410.19
740.691	394.66
741.094	373.2
741.497	406.52
741.899	445.48
742.302	392.12
742.704	381.11
743.106	406.52
743.508	387.32
743.911	393.81
744.313	416.41
744.715	405.39
745.117	403.7
745.519	388.45
745.921	377.72
746.323	414.99
746.724	360.76
747.126	416.41
747.528	442.09
747.929	392.12
748.331	402.57
748.732	389.3
749.134	392.4
749.535	385.06
749.936	451.41
750.338	398.33
750.739	437.01
751.14	362.74
751.541	395.79
751.942	373.76
752.343	390.43
752.744	400.59
753.144	401.72
753.545	394.66
753.946	400.03
754.346	411.32
754.747	423.46
755.148	520.51
755.548	393.53
755.948	375.74
756.349	428.54
756.749	442.38
757.149	389.86
757.549	410.76
757.949	407.93
758.349	396.92
758.749	389.58
759.149	406.24
759.549	403.13
759.949	412.17
760.348	455.92
760.748	381.11
761.148	402.57
761.547	397.77
761.947	394.38
762.346	403.98
762.745	456.77
763.145	395.79
763.544	387.88
763.943	400.59
764.342	387.04
764.741	382.52
765.14	358.5
765.539	400.03
765.938	447.17
766.336	408.5
766.735	378.28
767.134	365.57
767.532	370.09
767.931	399.18
768.329	442.09
768.728	355.11
769.126	379.98
769.525	440.4
769.923	401.44
770.321	403.13
770.719	422.05
771.117	381.39
771.515	402.29
771.913	412.45
772.311	408.5
772.709	415.28
773.106	387.04
773.504	394.94
773.902	423.75
774.299	399.75
774.697	496.54
775.094	415.84
775.491	366.13
775.889	413.02
776.286	383.36
776.683	392.97
777.08	381.39
777.477	380.82
777.874	430.24
778.271	374.89
778.668	403.7
779.065	383.36
779.462	402.29
779.858	382.52
780.255	422.05
780.652	393.53
781.048	408.78
781.444	399.18
781.841	378.85
782.237	378.28
782.633	408.22
783.03	372.91
783.426	385.06
783.822	412.73
784.218	354.27
784.614	365.29
785.01	378.56
785.405	379.13
785.801	394.1
786.197	368.39
786.593	353.42
786.988	390.43
787.384	433.34
787.779	382.8
788.174	390.99
788.57	363.31
788.965	380.26
789.36	401.72
789.755	405.68
790.15	371.22
790.545	379.41
790.94	348.9
791.335	380.54
791.73	363.87
792.125	414.99
792.52	424.03
792.914	390.14
793.309	398.05
793.703	411.32
794.098	371.5
794.492	426.29
794.887	417.82
795.281	403.42
795.675	421.49
796.069	424.59
796.463	373.2
796.857	387.32
797.251	372.63
797.645	375.17
798.039	355.11
798.433	377.15
798.826	409.35
799.22	389.3
799.614	378.56
800.007	372.35
800.401	388.73
800.794	358.5
801.187	401.44
801.581	368.39
801.974	412.17
802.367	403.98
802.76	383.93
803.153	375.46
803.546	362.18
803.939	366.13
804.332	382.52
804.725	374.89
805.117	400.59
805.51	428.26
805.903	387.88
806.295	380.26
806.688	373.2
807.08	373.76
807.472	401.72
807.865	402.85
808.257	403.42
808.649	414.15
809.041	394.66
809.433	416.41
809.825	392.12
810.217	379.98
810.609	347.2
811.001	366.7
811.392	379.13
811.784	417.25
812.175	387.88
812.567	395.51
812.958	414.15
813.35	364.44
813.741	377.72
814.132	394.66
814.524	401.44
814.915	369.24
815.306	364.44
815.697	394.1
816.088	373.2
816.479	400.03
816.87	418.1
817.26	399.18
817.651	409.63
818.042	397.49
818.432	397.49
818.823	396.36
819.213	395.51
819.604	369.81
819.994	394.38
820.384	394.66
820.775	394.38
821.165	388.45
821.555	377.43
821.945	370.09
822.335	367.26
822.725	419.23
823.114	422.62
823.504	382.8
823.894	374.61
824.284	407.09
824.673	377.72
825.063	363.59
825.452	381.39
825.842	381.67
826.231	431.37
826.62	379.69
827.009	405.96
827.399	389.3
827.788	357.09
828.177	359.07
828.566	405.68
828.954	471.16
829.343	394.38
829.732	344.09
830.121	454.23
830.509	426.85
830.898	368.96
831.286	394.1
831.675	404.83
832.063	436.73
832.452	398.62
832.84	348.61
833.228	424.03
833.616	375.17
834.004	411.89
834.392	389.58
834.78	421.2
835.168	395.23
835.556	411.61
835.944	393.25
836.331	426.29
836.719	380.54
837.107	376.02
837.494	382.23
837.881	393.25
838.269	379.41
838.656	369.24
839.043	352.57
839.431	428.54
839.818	385.34
840.205	368.11
840.592	374.33
840.979	378.28
841.366	359.92
841.752	359.35
842.139	376.3
842.526	356.81
842.912	386.75
843.299	377.43
843.685	413.02
844.072	390.14
844.458	374.61
844.844	380.54
845.231	361.33
845.617	376.3
846.003	382.8
846.389	370.65
846.775	369.81
847.161	385.62
847.547	372.63
847.933	377.15
848.318	378.56
848.704	382.52
849.09	369.24
849.475	375.74
849.861	390.43
850.246	380.26
850.631	388.17
851.017	370.65
851.402	371.22
851.787	395.79
852.172	412.45
852.557	383.93
852.942	396.36
853.327	385.91
853.712	405.39
854.097	371.5
854.481	360.2
854.866	379.69
855.25	379.69
855.635	378.85
856.019	369.52
856.404	347.77
856.788	353.7
857.172	346.35
857.557	370.37
857.941	363.02
858.325	365.29
858.709	376.87
859.093	362.46
859.477	375.46
859.86	438.71
860.244	341.27
860.628	423.46
861.012	397.2
861.395	393.53
861.779	338.16
862.162	387.32
862.545	360.2
862.929	380.82
863.312	382.52
863.695	370.65
864.078	400.88
864.461	366.42
864.844	402.29
865.227	416.97
865.61	370.94
865.993	382.23
866.376	413.58
866.758	384.78
867.141	393.81
867.523	414.99
867.906	384.49
868.288	376.87
868.671	368.96
869.053	373.76
869.435	357.09
869.817	420.92
870.199	356.24
870.581	379.69
870.963	402.57
871.345	384.78
871.727	382.52
872.109	346.35
872.491	375.17
872.872	388.73
873.254	373.2
873.635	363.87
874.017	431.93
874.398	368.96
874.779	410.48
875.161	376.87
875.542	405.68
875.923	380.26
876.304	373.48
876.685	354.55
877.066	367.83
877.447	348.9
877.828	361.33
878.208	403.7
878.589	418.95
878.97	441.53
879.35	353.14
879.731	381.39
880.111	364.16
880.491	354.83
880.872	392.97
881.252	346.07
881.632	380.82
882.012	391.84
882.392	384.21
882.772	400.03
883.152	358.79
883.532	401.72
883.912	402
884.291	357.66
884.671	364.72
885.051	374.61
885.43	373.2
885.81	370.09
886.189	370.94
886.568	367.83
886.948	378.28
887.327	412.17
887.706	391.56
888.085	399.46
888.464	389.01
888.843	459.03
889.222	401.16
889.601	396.92
889.979	369.81
890.358	368.11
890.737	382.52
891.115	376.59
891.494	357.09
891.872	355.11
892.25	335.61
892.629	406.52
893.007	431.65
893.385	383.08
893.763	354.83
894.141	408.5
894.519	394.38
894.897	372.35
895.275	346.35
895.653	383.93
896.03	373.2
896.408	384.78
896.786	382.8
897.163	357.66
897.541	377.72
897.918	429.11
898.295	374.89
898.673	377.43
899.05	391.56
899.427	534.61
899.804	381.95
900.181	387.04
900.558	394.38
900.935	396.64
901.312	353.7
901.688	363.02
902.065	386.47
902.442	370.37
902.818	328.55
903.195	362.46
903.571	405.39
903.947	367.83
904.324	380.26
904.7	356.24
905.076	437.01
905.452	385.34
905.828	389.3
906.204	382.8
906.58	346.35
906.956	378
907.331	402.29
907.707	381.11
908.083	408.22
908.458	403.13
908.834	396.07
909.209	341.55
909.585	386.75
909.96	342.96
910.335	368.68
910.71	371.22
911.086	400.31
911.461	397.2
911.836	375.46
912.21	391.56
912.585	372.35
912.96	391.84
913.335	371.78
913.709	363.59
914.084	370.09
914.459	387.88
914.833	387.32
915.207	372.07
915.582	370.09
915.956	371.22
916.33	400.59
916.704	370.65
917.078	383.65
917.452	393.53
917.826	347.2
918.2	390.14
918.574	367.55
918.948	353.7
919.321	377.43
919.695	390.99
920.068	385.34
920.442	397.77
920.815	369.81
921.189	362.46
921.562	410.48
921.935	400.59
922.308	381.95
922.681	367.83
923.054	357.94
923.427	414.15
923.8	352.01
924.173	358.22
924.546	362.74
924.919	357.37
925.291	388.45
925.664	349.18
926.036	334.48
926.409	346.35
926.781	364.16
927.153	372.91
927.526	386.47
927.898	359.35
928.27	351.16
928.642	352.29
929.014	375.74
929.386	342.4
929.758	329.4
930.129	355.4
930.501	392.69
930.873	349.74
931.244	373.48
931.616	373.76
931.987	374.33
932.359	398.9
932.73	387.32
933.101	383.65
933.472	365.57
933.843	379.98
934.214	405.11
934.585	366.7
934.956	371.22
935.327	464.67
935.698	389.58
936.069	392.12
936.439	350.87
936.81	362.18
937.18	399.75
937.551	379.13
937.921	419.23
938.292	384.49
938.662	360.2
939.032	383.36
939.402	348.33
939.772	405.11
940.142	372.35
940.512	350.03
940.882	365.85
941.252	367.83
941.621	335.9
941.991	409.35
942.361	379.41
942.73	351.72
943.1	353.14
943.469	381.95
943.838	416.97
944.208	386.19
944.577	365
944.946	354.27
945.315	327.13
945.684	363.59
946.053	352.29
946.422	359.07
946.791	363.87
947.159	333.35
947.528	366.98
947.897	412.45
948.265	362.18
948.634	397.49
949.002	365
949.371	372.63
949.739	357.37
950.107	391.27
950.475	376.3
950.843	373.2
951.211	393.25
951.579	375.17
951.947	344.09
952.315	372.35
952.683	379.41
953.05	370.37
953.418	378
953.785	381.95
954.153	365
954.52	361.61
954.888	372.35
955.255	338.44
955.622	370.37
955.989	364.16
956.356	400.88
956.723	349.46
957.09	376.02
957.457	399.46
957.824	351.72
958.191	357.09
958.557	389.86
958.924	365.85
959.291	380.82
959.657	371.5
960.023	486.39
960.39	389.58
960.756	362.18
961.122	389.86
961.488	366.98
961.855	358.79
962.221	368.39
962.586	345.51
962.952	400.88
963.318	377.15
963.684	438.42
964.05	436.73
964.415	413.02
964.781	349.46
965.146	385.62
965.512	452.53
965.877	346.64
966.242	377.43
966.608	366.42
966.973	356.24
967.338	368.68
967.703	389.86
968.068	368.96
968.433	418.1
968.797	437.86
969.162	353.98
969.527	333.64
969.891	361.89
970.256	405.39
970.62	368.68
970.985	352.57
971.349	382.52
971.714	389.3
972.078	377.43
972.442	380.26
972.806	393.25
973.17	378
973.534	356.81
973.898	351.72
974.262	353.14
974.625	405.68
974.989	365.29
975.353	400.03
975.716	354.27
976.08	367.26
976.443	371.22
976.806	372.07
977.17	389.86
977.533	375.17
977.896	362.74
978.259	333.64
978.622	501.9
978.985	378.56
979.348	363.31
979.711	374.61
980.073	384.49
980.436	403.13
980.799	379.41
981.161	355.68
981.524	353.14
981.886	369.52
982.248	373.76
982.611	373.48
982.973	344.94
983.335	386.75
983.697	367.55
984.059	339.57
984.421	368.68
984.783	341.83
985.145	361.33
985.506	365.85
985.868	378
986.23	381.95
986.591	354.27
986.953	373.2
987.314	356.53
987.675	353.7
988.037	4081.46
988.398	451.97
988.759	365
989.12	379.41
989.481	347.48
989.842	381.95
990.203	348.33
990.564	340.98
990.924	359.92
991.285	3497.9
991.646	435.6
992.006	361.05
992.367	361.33
992.727	384.78
993.087	375.17
993.448	381.67
993.808	379.98
994.168	356.53
994.528	349.74
994.888	362.74
995.248	336.46
995.608	356.81
995.967	383.65
996.327	338.72
996.687	351.72
997.046	354.83
997.406	373.2
997.765	356.81
998.125	348.33
998.484	367.26
998.843	411.61
999.202	373.76
999.561	361.05
999.92	353.98
1000.279	371.5
1000.638	366.98
1000.997	373.2
1001.356	346.64
1001.715	344.66
1002.073	379.41
1002.432	396.64
1002.79	353.7
1003.149	350.87
1003.507	372.35
1003.865	367.55
1004.224	368.68
1004.582	362.46
1004.94	359.07
1005.298	357.94
1005.656	360.76
1006.014	354.27
1006.371	388.73
1006.729	334.77
1007.087	391.84
1007.445	387.88
1007.802	389.58
1008.16	374.89
1008.517	372.35
1008.874	364.16
1009.232	344.38
1009.589	387.6
1009.946	391.27
1010.303	349.18
1010.66	398.62
1011.017	342.4
1011.374	387.32
1011.731	373.48
1012.087	352.01
1012.444	335.61
1012.801	390.71
1013.157	363.02
1013.513	368.11
1013.87	355.4
1014.226	354.83
1014.582	369.81
1014.939	361.05
1015.295	363.87
1015.651	335.9
1016.007	349.46
1016.363	376.87
1016.719	313.28
1017.074	370.37
1017.43	353.42
1017.786	363.02
1018.141	355.96
1018.497	348.61
1018.852	362.74
1019.208	361.05
1019.563	363.31
1019.918	355.11
1020.273	366.13
1020.628	368.96
1020.983	374.04
1021.338	380.82
1021.693	382.52
1022.048	363.87
1022.403	368.68
1022.757	345.51
1023.112	374.33
1023.467	357.94
1023.821	351.44
1024.175	341.55
1024.53	351.72
1024.884	369.24
1025.238	341.83
1025.592	389.58
1025.946	354.27
1026.3	340.14
1026.654	345.22
1027.008	332.5
1027.362	343.24
1027.716	386.47
1028.069	348.9
1028.423	374.33
1028.777	361.61
1029.13	361.89
1029.483	382.23
1029.837	380.54
1030.19	358.79
1030.543	351.44
1030.896	381.39
1031.249	356.24
1031.602	342.96
1031.955	351.16
1032.308	376.59
1032.661	391.56
1033.013	353.7
1033.366	367.55
1033.719	376.3
1034.071	360.2
1034.424	378.56
1034.776	350.31
1035.128	353.7
1035.48	353.42
1035.833	414.99
1036.185	380.54
1036.537	380.54
1036.889	380.54
