Data from SCSF78-405_irradiation_FLMS019251_03-10-12-021.txt Node
Date: Fri Feb 22 03:10:12 PST 2019
User: mu3e
Spectrometer: FLMS01925
Trigger mode: 0
Integration Time (sec): 3.659600E-1
Scans to average: 10
Electric dark correction enabled: true
Nonlinearity correction enabled: true
Boxcar width: 0
XAxis mode: Wavelengths
Number of Pixels in Spectrum: 2048
>>>>>Begin Spectral Data<<<<<
187.103	-118.4
187.574	-118.4
188.045	-118.4
188.516	-187.54
188.987	-116.41
189.458	-126.36
189.929	-122.1
190.4	-116.41
190.871	-121.53
191.342	-118.4
191.813	-83.72
192.284	-2.18
192.754	-29.16
193.225	13.15
193.696	9.46
194.166	34.15
194.637	101.95
195.107	135.96
195.578	139.65
196.048	150.41
196.518	133.98
196.989	186.96
197.459	227.44
197.929	192.9
198.399	318.81
198.869	291.39
199.339	318.81
199.809	335.49
200.279	360.08
200.749	365.16
201.219	369.4
201.689	373.92
202.159	353.58
202.628	318.25
203.098	401.32
203.568	384.09
204.037	414.59
204.507	402.73
204.976	419.1
205.445	386.07
205.915	413.74
206.384	386.91
206.853	385.78
207.323	411.76
207.792	380.42
208.261	397.93
208.73	394.54
209.199	418.82
209.668	408.94
210.137	386.35
210.606	404.99
211.075	371.38
211.543	408.09
212.012	415.72
212.481	350.19
212.95	363.18
213.418	413.46
213.887	379.85
214.355	379
214.824	362.05
215.292	340.3
215.76	360.36
216.229	340.58
216.697	355.56
217.165	370.53
217.633	344.53
218.101	371.09
218.569	439.99
219.037	360.36
219.505	398.49
219.973	359.23
220.441	367.14
220.909	357.53
221.377	386.91
221.844	397.65
222.312	344.82
222.78	370.53
223.247	371.09
223.715	353.29
224.182	372.79
224.65	369.68
225.117	403.01
225.584	356.12
226.052	366.86
226.519	383.24
226.986	367.99
227.453	364.6
227.92	368.55
228.387	387.48
228.854	356.69
229.321	370.25
229.788	375.61
230.255	377.59
230.722	410.92
231.189	366.01
231.655	383.81
232.122	409.79
232.589	346.8
233.055	354.99
233.522	427.29
233.988	354.42
234.454	395.1
234.921	364.31
235.387	405.83
235.853	389.74
236.32	395.1
236.786	364.03
237.252	379.29
237.718	419.95
238.184	383.81
238.65	368.27
239.116	378.72
239.582	391.15
240.047	360.64
240.513	383.81
240.979	388.89
241.445	358.95
241.91	363.47
242.376	364.6
242.841	400.19
243.307	358.38
243.772	353.86
244.238	370.53
244.703	410.35
245.168	372.22
245.633	393.41
246.099	340.58
246.564	371.09
247.029	397.93
247.494	367.14
247.959	369.68
248.424	358.38
248.889	393.69
249.353	420.52
249.818	372.51
250.283	394.26
250.748	366.86
251.212	397.93
251.677	364.03
252.141	369.12
252.606	405.83
253.07	365.16
253.535	367.99
253.999	385.5
254.463	366.57
254.927	384.37
255.392	399.9
255.856	371.09
256.32	376.74
256.784	377.59
257.248	377.03
257.712	414.31
258.176	435.48
258.64	392.28
259.103	380.98
259.567	358.95
260.031	358.38
260.495	391.71
260.958	383.81
261.422	403.58
261.885	405.55
262.349	378.72
262.812	369.68
263.275	404.7
263.739	369.68
264.202	395.1
264.665	395.39
265.128	403.01
265.591	417.41
266.054	390.02
266.517	430.4
266.98	373.92
267.443	398.77
267.906	364.88
268.369	363.18
268.832	393.97
269.294	387.76
269.757	363.75
270.22	349.34
270.682	410.92
271.145	395.67
271.607	395.67
272.07	469.91
272.532	385.5
272.994	377.03
273.456	406.68
273.919	450.44
274.381	381.55
274.843	440.56
275.305	416
275.767	395.95
276.229	423.06
276.691	415.15
277.153	373.64
277.614	371.66
278.076	397.36
278.538	373.07
279	406.68
279.461	388.61
279.923	471.88
280.384	380.98
280.846	381.55
281.307	360.92
281.769	380.98
282.23	380.7
282.691	409.22
283.152	375.9
283.613	381.55
284.075	363.47
284.536	429.55
284.997	397.36
285.458	380.42
285.918	415.15
286.379	390.02
286.84	406.12
287.301	371.66
287.762	389.46
288.222	389.74
288.683	390.02
289.143	399.62
289.604	403.86
290.064	376.46
290.525	417.98
290.985	458.62
291.445	408.94
291.906	375.9
292.366	375.05
292.826	385.22
293.286	387.2
293.746	379.57
294.206	413.18
294.666	384.37
295.126	404.14
295.586	388.89
296.046	393.69
296.506	420.52
296.965	446.77
297.425	363.47
297.884	447.05
298.344	393.41
298.804	396.52
299.263	397.93
299.722	385.5
300.182	416.56
300.641	387.48
301.1	384.37
301.559	398.77
302.019	372.22
302.478	406.4
302.937	386.07
303.396	422.77
303.855	473.57
304.314	399.34
304.772	548.02
305.231	403.29
305.69	397.36
306.149	408.38
306.607	394.54
307.066	402.16
307.524	437.74
307.983	405.27
308.441	406.12
308.9	435.48
309.358	427.29
309.816	483.16
310.275	384.09
310.733	393.13
311.191	376.46
311.649	406.12
312.107	418.82
312.565	422.77
313.023	420.23
313.481	428.14
313.939	390.02
314.397	428.7
314.854	415.43
315.312	402.16
315.77	437.74
316.227	412.89
316.685	398.21
317.142	384.09
317.6	439.15
318.057	419.95
318.514	399.06
318.972	390.58
319.429	415.43
319.886	382.96
320.343	390.58
320.8	392
321.257	411.48
321.714	434.07
322.171	428.7
322.628	396.23
323.085	404.14
323.542	401.03
323.998	400.75
324.455	421.65
324.912	409.51
325.368	397.08
325.825	441.97
326.281	408.38
326.738	432.94
327.194	414.31
327.65	417.98
328.107	384.09
328.563	410.63
329.019	425.6
329.475	403.01
329.931	420.8
330.387	400.19
330.843	406.68
331.299	412.89
331.755	393.41
332.211	390.58
332.666	398.49
333.122	420.52
333.578	422.21
334.033	426.16
334.489	418.82
334.944	399.06
335.4	465.96
335.855	438.58
336.31	430.11
336.766	384.09
337.221	416.56
337.676	413.74
338.131	425.88
338.586	436.04
339.041	382.96
339.496	442.25
339.951	395.1
340.406	421.08
340.861	400.47
341.316	405.83
341.771	415.43
342.225	399.9
342.68	413.46
343.134	404.7
343.589	435.2
344.043	416
344.498	378.72
344.952	399.62
345.406	639.56
345.861	387.76
346.315	404.7
346.769	435.76
347.223	415.43
347.677	417.13
348.131	368.55
348.585	395.39
349.039	414.59
349.493	401.32
349.947	427.01
350.401	406.12
350.854	409.79
351.308	466.24
351.762	396.8
352.215	438.58
352.669	396.52
353.122	395.67
353.575	410.63
354.029	429.83
354.482	405.83
354.935	417.69
355.388	421.93
355.842	409.79
356.295	414.87
356.748	425.32
357.201	412.05
357.654	415.43
358.106	418.82
358.559	410.07
359.012	395.39
359.465	409.79
359.917	401.32
360.37	405.27
360.823	435.2
361.275	436.61
361.728	407.81
362.18	439.71
362.632	428.14
363.085	415.43
363.537	405.55
363.989	398.49
364.441	396.8
364.893	408.38
365.345	397.36
365.797	426.16
366.249	426.16
366.701	400.75
367.153	429.55
367.605	411.48
368.057	396.52
368.508	397.08
368.96	394.82
369.411	417.69
369.863	436.61
370.314	414.02
370.766	409.22
371.217	427.01
371.669	415.72
372.12	453.82
372.571	432.94
373.022	416.28
373.473	434.35
373.924	438.3
374.375	437.45
374.826	425.6
375.277	435.2
375.728	414.87
376.179	414.59
376.63	430.11
377.08	392.84
377.531	396.23
377.981	421.36
378.432	421.93
378.883	425.32
379.333	446.77
379.783	418.26
380.234	423.34
380.684	457.21
381.134	446.49
381.584	441.4
382.034	461.72
382.485	424.19
382.935	403.01
383.385	468.21
383.834	403.86
384.284	426.44
384.734	427.57
385.184	427.57
385.634	452.69
386.083	440.56
386.533	416.56
386.982	410.35
387.432	458.62
387.881	419.1
388.331	425.32
388.78	467.08
389.229	401.88
389.679	417.98
390.128	434.35
390.577	445.64
391.026	434.07
391.475	417.13
391.924	425.6
392.373	411.76
392.822	430.11
393.27	416.28
393.719	417.13
394.168	438.3
394.617	443.66
395.065	428.99
395.514	475.55
395.962	472.44
396.411	446.77
396.859	446.49
397.307	460.59
397.756	437.74
398.204	451.85
398.652	465.11
399.1	452.98
399.548	445.36
399.996	528.85
400.444	445.07
400.892	445.07
401.34	485.14
401.788	441.69
402.236	443.38
402.683	462.85
403.131	476.68
403.579	454.67
404.026	457.49
404.474	436.04
404.921	465.11
405.369	466.24
405.816	476.39
406.263	471.03
406.71	498.68
407.158	472.44
407.605	466.24
408.052	506.01
408.499	480.91
408.946	507.98
409.393	512.78
409.84	513.62
410.286	503.47
410.733	553.93
411.18	561.26
411.626	614.5
412.073	630.27
412.52	664.32
412.966	848.98
413.413	914.64
413.859	1130.57
414.305	1298.47
414.752	1645.69
415.198	2007.7
415.644	2408.81
416.09	3029.51
416.536	3569.2
416.982	4378.06
417.428	5226.51
417.874	6136.78
418.32	7072.56
418.766	8297.08
419.211	9549.97
419.657	10786.45
420.103	12315.12
420.548	13375.82
420.994	15161.27
421.439	16611.45
421.885	17964.83
422.33	19915.11
422.776	21334.4
423.221	22709.99
423.666	24368.5
424.111	25964.96
424.556	27094.84
425.001	28875.28
425.446	30392.05
425.891	32058.9
426.336	32945.86
426.781	34254.23
427.226	36542.9
427.671	37032.02
428.115	37787.19
428.56	39493.83
429.005	40914.03
429.449	41174.62
429.894	42303.27
430.338	43383.98
430.782	42956.54
431.227	44370.14
431.671	44386.93
432.115	45710.66
432.559	46411.49
433.003	46096.49
433.447	46890.76
433.891	46814.41
434.335	47226.44
434.779	47739.21
435.223	47811.25
435.667	47791.76
436.111	48568.57
436.554	47928
436.998	47182.3
437.442	47264.73
437.885	49216.6
438.328	47725.12
438.772	48074.16
439.215	48435.92
439.659	47973.96
440.102	48414.77
440.545	47791.76
440.988	47352.84
441.431	48246
441.874	48030.21
442.317	48214.86
442.76	47756.13
443.203	47025.49
443.646	47698.21
444.089	47367.66
444.531	47881.28
444.974	46628.56
445.417	47625.47
445.859	46884.14
446.302	48026.87
446.744	47258.09
447.186	48474.87
447.629	47651.85
448.071	47552.01
448.513	47723.32
448.956	49234.29
449.398	48350.84
449.84	47150.92
450.282	47875.38
450.724	48505.32
451.166	48254.76
451.607	48268.66
452.049	48306.52
452.491	49736.06
452.933	49209.32
453.374	49761.96
453.816	50391.86
454.257	50079.95
454.699	51157.46
455.14	50720.19
455.582	50752
456.023	50651.34
456.464	50987.53
456.905	51638.78
457.347	51624.01
457.788	50589.95
458.229	50952.96
458.67	52179.6
459.111	50076.28
459.552	50354.16
459.992	50085.47
460.433	50102.55
460.874	48997.17
461.315	50466.28
461.755	49361.8
462.196	49076.05
462.636	48220
463.077	47830.49
463.517	48064.39
463.957	48489.06
464.398	48132.27
464.838	48369.4
465.278	47266.77
465.718	47432.83
466.158	46477.72
466.598	47014.28
467.038	46425.19
467.478	47184.59
467.918	47309.41
468.358	46486.6
468.798	46273.29
469.237	46305.49
469.677	46198.04
470.117	47249.16
470.556	44624.71
470.996	45199.06
471.435	45455.05
471.874	46291.29
472.314	45971.23
472.753	45030.72
473.192	45193.78
473.631	44925.86
474.07	45279.9
474.509	45360.02
474.948	45829.9
475.387	45037.51
475.826	44168.48
476.265	45922.17
476.704	45450.26
477.143	45892.84
477.581	45675.31
478.02	46430.77
478.458	44927.37
478.897	45770.52
479.335	47090.48
479.774	46481.78
480.212	46703.28
480.65	46632.37
481.089	46510.97
481.527	45992.73
481.965	45419.25
482.403	47864.61
482.841	47437.94
483.279	47659.79
483.717	47715.12
484.155	47247.12
484.592	47767.15
485.03	47940.58
485.468	46845.45
485.905	47119.81
486.343	47732.29
486.781	47019.37
487.218	46425.44
487.655	46232.24
488.093	45438.41
488.53	47199.9
488.967	46195.51
489.405	46022.59
489.842	45173.64
490.279	45128.08
490.716	44728.64
491.153	45185.47
491.59	44597.85
492.027	43884.24
492.463	43436.38
492.9	42698.46
493.337	42572.88
493.773	42697.22
494.21	41707.65
494.647	41631.83
495.083	40788.01
495.519	40399.41
495.956	40316.02
496.392	39744.45
496.828	39486.69
497.265	38867.01
497.701	38886.91
498.137	38524.13
498.573	37520.81
499.009	38124.85
499.445	37352.52
499.881	36766.49
500.316	37103.74
500.752	36016.52
501.188	35828.11
501.624	35825.18
502.059	34439.89
502.495	34364.26
502.93	34099.82
503.366	34828.14
503.801	33687.38
504.236	33424.74
504.672	32757.88
505.107	32566.74
505.542	31884.58
505.977	31981.13
506.412	31401.56
506.847	31690.74
507.282	31082.59
507.717	30750.9
508.152	30758.46
508.587	30526.48
509.021	29669.45
509.456	29415.79
509.891	29384.53
510.325	29341.07
510.76	28815.17
511.194	28598.67
511.628	28751.89
512.063	27979.61
512.497	28149.34
512.931	27560.99
513.366	27303.47
513.8	27273.85
514.234	26416.78
514.668	26572.21
515.102	26879.27
515.536	25769.59
515.969	26140.38
516.403	25594.54
516.837	25086.48
517.271	25199.29
517.704	24817.02
518.138	24589.49
518.571	24460.55
519.005	23963.16
519.438	23744.6
519.871	23738.19
520.305	23254.36
520.738	23045.58
521.171	22484.15
521.604	22713.45
522.037	22532.59
522.47	22139
522.903	21639.33
523.336	21560.83
523.769	21469.43
524.202	20794.6
524.634	20917.15
525.067	20557.09
525.5	20426.24
525.932	20266.03
526.365	19913.37
526.797	19560.15
527.23	19644.5
527.662	19058.65
528.094	18927.83
528.527	18677.76
528.959	18444.25
529.391	18171.16
529.823	17523.84
530.255	17696.65
530.687	17276.12
531.119	16971.62
531.551	16941.06
531.982	16567.82
532.414	16418.57
532.846	16037.74
533.277	15806.34
533.709	15497.29
534.14	15377.27
534.572	15137.09
535.003	15101.08
535.435	14735.38
535.866	14612.3
536.297	14090.9
536.728	14231.38
537.159	14075.23
537.59	13767.49
538.022	13554.39
538.452	13401.16
538.883	13155.56
539.314	13007.69
539.745	12690.61
540.176	12643.61
540.606	12182.27
541.037	12349.97
541.468	12033.3
541.898	11945.41
542.328	11888.07
542.759	11593.73
543.189	11482.94
543.619	11311.78
544.05	11144.83
544.48	10890.45
544.91	10830
545.34	10675.22
545.77	10593.68
546.2	10350.13
546.63	10290.55
547.06	10181.08
547.489	10048.92
547.919	9640.24
548.349	9780.95
548.778	9714.73
549.208	9490.89
549.637	9394.35
550.067	9248.92
550.496	9272.7
550.926	9064.56
551.355	8803.81
551.784	8876.35
552.213	8690.25
552.642	8584.66
553.071	8485.23
553.5	8404.95
553.929	8069.36
554.358	8171.94
554.787	7963.31
555.216	7983.12
555.645	7839.45
556.073	7717.3
556.502	7629.53
556.93	7479.2
557.359	7384.73
557.787	7378.44
558.216	7250.36
558.644	7200.3
559.072	7138.94
559.5	7029.25
559.929	7026.1
560.357	6994.86
560.785	6852.97
561.213	6863.49
561.641	6630.62
562.068	6732.77
562.496	6600.33
562.924	6552.11
563.352	6549.73
563.779	6554.21
564.207	6516.78
564.634	6369.58
565.062	6407.85
565.489	6279.79
565.917	6280.85
566.344	6170.37
566.771	6151.07
567.198	6143.13
567.625	5939.81
568.053	5891.05
568.48	5860.29
568.907	5829.79
569.333	5732.93
569.76	5557.3
570.187	5648.21
570.614	5408.81
571.04	11243.28
571.467	5422.66
571.894	5267.85
572.32	5125.89
572.747	5079.68
573.173	4902.67
573.599	4943.07
574.026	4825.03
574.452	4773.59
574.878	4659.1
575.304	4594.15
575.73	4517.07
576.156	4378.87
576.582	4378.87
577.008	4284.65
577.434	4248.82
577.86	4109.14
578.285	4089.98
578.711	4014.65
579.137	3960.88
579.562	3874.62
579.988	3845.66
580.413	3816.16
580.838	3700.76
581.264	3673.93
581.689	3632.16
582.114	3585.22
582.539	3992.22
582.964	3521.69
583.39	3491.26
583.814	3359.66
584.239	3272
584.664	3265.19
585.089	3193.52
585.514	3202.51
585.939	3132.7
586.363	3096.95
586.788	3072.11
587.212	3039.34
587.637	2966.39
588.061	2965.3
588.485	2837.54
588.91	2813.45
589.334	2824.4
589.758	2760.85
590.182	2762.77
590.606	2654.19
591.03	2663.24
591.454	2613.02
591.878	2557.55
592.302	2546.29
592.726	2598.2
593.15	2469.33
593.573	2439.35
593.997	2445.68
594.42	2349.07
594.844	2363.12
595.267	2331.45
595.691	2293.98
596.114	2275.24
596.537	2247.67
596.96	2246.57
597.384	2250.7
597.807	2135.09
598.23	2139.78
598.653	2154.69
599.076	2122.94
599.499	2133.16
599.921	2051.38
600.344	2061.06
600.767	2050.55
601.189	2016.83
601.612	2047.24
602.034	1991.93
602.457	2024.29
602.879	2107.2
603.302	1942.41
603.724	1958.46
604.146	1943.51
604.568	1893.12
604.991	1912.78
605.413	1897.55
605.835	1879.55
606.257	1874.01
606.678	1875.95
607.1	1901.71
607.522	1869.3
607.944	1869.58
608.365	1842.42
608.787	1790.86
609.209	1809.16
609.63	1758.13
610.051	1752.86
610.473	1765.07
610.894	1735.93
611.315	1685.41
611.737	1689.58
612.158	1664.58
612.579	1592.89
613	1661.53
613.421	1582.05
613.842	1594.28
614.263	1586.77
614.683	1539.21
615.104	1512.78
615.525	1496.36
615.945	1482.44
616.366	1434.54
616.787	1448.75
617.207	1427.02
617.627	1406.68
618.048	1371.28
618.468	1359.84
618.888	1336.42
619.308	1336.14
619.728	1332.79
620.148	1265.54
620.568	1292.61
620.988	1282.85
621.408	1249.62
621.828	1251.86
622.248	1230.07
622.668	1226.72
623.087	1225.6
623.507	1182.57
623.926	1192.91
624.346	1170.28
624.765	1174.19
625.185	1127.5
625.604	1126.1
626.023	1097.56
626.442	1112.67
626.861	1126.38
627.28	1060.9
627.699	1029.26
628.118	1064.82
628.537	1088.89
628.956	1022.54
629.375	1065.38
629.794	1040.18
630.212	1043.82
630.631	1016.94
631.049	978
631.468	1003.49
631.886	963.42
632.305	985.28
632.723	961.74
633.141	937.91
633.559	938.75
633.978	912.39
634.396	963.42
634.814	935.95
635.232	896.68
635.65	904.26
636.067	905.94
636.485	867.22
636.903	846.73
637.321	864.13
637.738	921.93
638.156	866.38
638.573	810.79
638.991	874.24
639.408	886.02
639.825	807.14
640.243	859.64
640.66	777.64
641.077	819.5
641.494	813.04
641.911	815.57
642.328	808.26
642.745	811.35
643.162	791.13
643.579	775.11
643.995	743.36
644.412	810.79
644.829	752.07
645.245	703.71
645.662	744.2
646.078	745.32
646.495	722.27
646.911	707.08
647.327	770.34
647.743	718.05
648.159	739.42
648.576	699.49
648.992	741.95
649.408	711.87
649.824	682.61
650.239	699.49
650.655	681.49
651.071	686.27
651.487	712.99
651.902	692.18
652.318	688.52
652.733	658.41
653.149	660.1
653.564	674.17
653.979	648.84
654.395	652.5
654.81	635.05
655.225	640.96
655.64	646.59
656.055	685.43
656.47	659.26
656.885	628.86
657.3	626.04
657.715	679.24
658.13	610.28
658.544	608.87
658.959	613.37
659.374	616.47
659.788	644.34
660.202	589.43
660.617	661.79
661.031	629.14
661.445	599.29
661.86	598.73
662.274	641.53
662.688	641.81
663.102	589.15
663.516	624.92
663.93	584.93
664.344	606.61
664.758	591.12
665.171	586.05
665.585	568.02
665.999	575.91
666.412	552.24
666.826	571.97
667.239	595.91
667.653	573.09
668.066	567.74
668.479	562.11
668.892	553.65
669.306	538.71
669.719	549.42
670.132	596.48
670.545	529.69
670.958	550.27
671.37	521.52
671.783	532.51
672.196	572.81
672.609	539.28
673.021	536.74
673.434	538.43
673.846	525.46
674.259	518.7
674.671	516.16
675.084	538.43
675.496	535.61
675.908	523.21
676.32	525.75
676.732	529.98
677.144	493.6
677.556	519.26
677.968	491.91
678.38	541.53
678.792	500.37
679.204	513.06
679.615	535.05
680.027	507.7
680.439	505.16
680.85	547.45
681.262	541.81
681.673	511.09
682.084	506.57
682.496	493.88
682.907	516.72
683.318	502.91
683.729	486.83
684.14	488.24
684.551	524.34
684.962	483.45
685.373	489.65
685.784	487.68
686.194	498.68
686.605	479.5
687.016	491.91
687.426	473.57
687.837	478.37
688.247	464.83
688.657	484.01
689.068	480.91
689.478	491.06
689.888	496.7
690.298	484.58
690.708	464.26
691.118	465.39
691.528	445.92
691.938	471.88
692.348	458.06
692.758	427.01
693.168	462.57
693.577	477.52
693.987	470.19
694.396	455.23
694.806	440.28
695.215	484.86
695.625	460.03
696.034	422.49
696.443	427.01
696.852	470.19
697.262	476.96
697.671	468.21
698.08	469.34
698.489	455.23
698.897	465.96
699.306	435.48
699.715	450.72
700.124	441.69
700.532	429.27
700.941	474.42
701.35	441.97
701.758	496.42
702.166	455.23
702.575	458.06
702.983	437.17
703.391	427.86
703.799	443.1
704.208	450.44
704.616	454.67
705.024	474.42
705.432	427.57
705.839	443.66
706.247	471.03
706.655	500.65
707.063	432.09
707.47	445.64
707.878	438.02
708.285	418.82
708.693	422.21
709.1	443.1
709.508	412.05
709.915	441.97
710.322	452.98
710.729	545.2
711.136	448.74
711.543	439.99
711.95	409.79
712.357	445.07
712.764	433.78
713.171	405.55
713.578	420.8
713.984	415.15
714.391	415.72
714.797	429.27
715.204	422.21
715.61	462.57
716.017	425.32
716.423	459.47
716.829	427.29
717.236	438.86
717.642	440.56
718.048	458.9
718.454	445.92
718.86	388.33
719.266	487.4
719.671	413.18
720.077	448.18
720.483	405.27
720.889	475.27
721.294	416.85
721.7	383.81
722.105	389.74
722.511	404.14
722.916	445.36
723.321	410.35
723.726	441.97
724.132	427.01
724.537	416.56
724.942	440.84
725.347	432.94
725.752	417.41
726.156	396.8
726.561	415.72
726.966	434.63
727.371	440.56
727.775	441.12
728.18	386.91
728.584	406.4
728.989	373.64
729.393	492.47
729.798	432.94
730.202	434.91
730.606	414.31
731.01	432.66
731.414	408.94
731.818	388.33
732.222	426.44
732.626	414.87
733.03	433.78
733.434	403.01
733.837	413.74
734.241	415.72
734.645	408.38
735.048	422.21
735.452	414.59
735.855	399.34
736.258	406.68
736.662	440.84
737.065	454.67
737.468	460.31
737.871	409.51
738.274	436.32
738.677	425.6
739.08	406.68
739.483	407.25
739.886	410.63
740.289	432.94
740.691	401.32
741.094	424.47
741.497	387.48
741.899	428.7
742.302	392.56
742.704	393.97
743.106	378.72
743.508	405.55
743.911	380.42
744.313	390.02
744.715	395.1
745.117	432.09
745.519	401.6
745.921	388.89
746.323	400.19
746.724	385.22
747.126	373.35
747.528	416.28
747.929	381.55
748.331	404.42
748.732	395.95
749.134	376.74
749.535	382.39
749.936	438.3
750.338	393.69
750.739	468.21
751.14	384.65
751.541	387.48
751.942	381.83
752.343	436.32
752.744	403.01
753.144	398.49
753.545	402.73
753.946	403.86
754.346	388.61
754.747	434.63
755.148	511.65
755.548	404.14
755.948	393.69
756.349	433.22
756.749	412.89
757.149	400.75
757.549	411.48
757.949	395.39
758.349	400.19
758.749	396.23
759.149	397.93
759.549	396.23
759.949	390.02
760.348	466.24
760.748	412.05
761.148	372.22
761.547	402.16
761.947	373.92
762.346	416.85
762.745	425.32
763.145	376.74
763.544	380.13
763.943	389.46
764.342	376.18
764.741	388.04
765.14	376.46
765.539	399.34
765.938	449.03
766.336	362.05
766.735	391.15
767.134	386.63
767.532	404.14
767.931	378.44
768.329	466.8
768.728	379.29
769.126	403.58
769.525	446.49
769.923	399.34
770.321	407.81
770.719	439.99
771.117	413.74
771.515	380.42
771.913	429.55
772.311	393.41
772.709	355.84
773.106	372.51
773.504	364.03
773.902	388.89
774.299	388.89
774.697	529.41
775.094	389.17
775.491	364.31
775.889	382.39
776.286	380.7
776.683	354.71
777.08	364.6
777.477	404.7
777.874	416.85
778.271	370.81
778.668	382.96
779.065	399.34
779.462	397.08
779.858	392
780.255	432.09
780.652	415.72
781.048	435.76
781.444	367.14
781.841	365.16
782.237	404.7
782.633	355.84
783.03	377.03
783.426	364.6
783.822	351.88
784.218	394.26
784.614	401.6
785.01	391.71
785.405	370.25
785.801	404.99
786.197	393.69
786.593	392.28
786.988	382.68
787.384	413.46
787.779	370.81
788.174	399.34
788.57	418.82
788.965	390.02
789.36	382.68
789.755	382.39
790.15	405.27
790.545	381.26
790.94	394.54
791.335	369.12
791.73	367.42
792.125	398.49
792.52	422.77
792.914	410.63
793.309	373.92
793.703	389.74
794.098	359.23
794.492	398.49
794.887	393.69
795.281	443.1
795.675	409.51
796.069	443.1
796.463	385.5
796.857	363.18
797.251	407.81
797.645	368.55
798.039	415.72
798.433	392
798.826	361.77
799.22	387.48
799.614	423.06
800.007	396.8
800.401	392
800.794	370.81
801.187	391.15
801.581	392.56
801.974	395.39
802.367	416.28
802.76	393.41
803.153	380.13
803.546	399.62
803.939	399.34
804.332	400.47
804.725	369.96
805.117	390.02
805.51	402.45
805.903	377.31
806.295	398.49
806.688	392.28
807.08	355.56
807.472	390.58
807.865	373.64
808.257	380.42
808.649	404.14
809.041	399.06
809.433	399.34
809.825	391.71
810.217	387.2
810.609	398.77
811.001	389.74
811.392	417.98
811.784	406.96
812.175	367.14
812.567	381.83
812.958	432.37
813.35	384.09
813.741	372.79
814.132	388.04
814.524	365.16
814.915	403.01
815.306	375.9
815.697	377.87
816.088	412.61
816.479	397.36
816.87	397.93
817.26	414.87
817.651	411.48
818.042	396.52
818.432	382.11
818.823	400.19
819.213	404.7
819.604	373.35
819.994	376.18
820.384	374.48
820.775	405.27
821.165	373.07
821.555	371.94
821.945	400.19
822.335	353.86
822.725	372.22
823.114	382.39
823.504	362.05
823.894	378.44
824.284	391.43
824.673	393.41
825.063	371.94
825.452	394.26
825.842	374.77
826.231	439.15
826.62	362.05
827.009	408.66
827.399	391.15
827.788	350.75
828.177	377.31
828.566	407.25
828.954	476.11
829.343	421.93
829.732	369.96
830.121	455.23
830.509	409.22
830.898	363.47
831.286	399.34
831.675	434.35
832.063	415.15
832.452	379.29
832.84	366.86
833.228	409.51
833.616	385.78
834.004	420.52
834.392	388.33
834.78	417.69
835.168	374.2
835.556	405.27
835.944	394.54
836.331	418.26
836.719	397.08
837.107	412.89
837.494	405.83
837.881	382.68
838.269	363.47
838.656	354.99
839.043	377.31
839.431	466.52
839.818	369.68
840.205	371.66
840.592	371.66
840.979	379.57
841.366	358.1
841.752	393.97
842.139	358.1
842.526	409.22
842.912	426.44
843.299	373.92
843.685	407.53
844.072	396.8
844.458	375.9
844.844	364.6
845.231	394.82
845.617	379.57
846.003	382.68
846.389	367.7
846.775	369.4
847.161	376.46
847.547	389.74
847.933	363.18
848.318	403.01
848.704	370.81
849.09	377.03
849.475	380.7
849.861	406.4
850.246	398.77
850.631	401.88
851.017	393.13
851.402	379
851.787	397.93
852.172	414.31
852.557	403.29
852.942	373.92
853.327	396.8
853.712	404.42
854.097	402.16
854.481	353.29
854.866	388.33
855.25	379.29
855.635	412.05
856.019	380.42
856.404	374.2
856.788	382.11
857.172	354.14
857.557	385.22
857.941	394.82
858.325	352.16
858.709	371.09
859.093	350.19
859.477	375.61
859.86	406.96
860.244	362.9
860.628	422.49
861.012	414.87
861.395	373.35
861.779	393.97
862.162	386.07
862.545	373.07
862.929	349.34
863.312	401.03
863.695	380.13
864.078	364.03
864.461	363.47
864.844	410.35
865.227	426.73
865.61	367.7
865.993	392
866.376	391.43
866.758	394.82
867.141	405.83
867.523	381.55
867.906	368.27
868.288	379.57
868.671	382.96
869.053	347.08
869.435	380.42
869.817	398.77
870.199	361.49
870.581	366.29
870.963	356.97
871.345	386.07
871.727	385.22
872.109	348.49
872.491	352.73
872.872	385.22
873.254	381.26
873.635	376.46
874.017	427.57
874.398	388.61
874.779	411.76
875.161	375.33
875.542	403.29
875.923	368.83
876.304	384.37
876.685	381.83
877.066	364.88
877.447	373.92
877.828	364.31
878.208	408.09
878.589	368.83
878.97	395.67
879.35	365.16
879.731	376.18
880.111	362.05
880.491	393.97
880.872	413.18
881.252	371.38
881.632	401.32
882.012	408.09
882.392	425.6
882.772	421.08
883.152	364.31
883.532	378.44
883.912	379.85
884.291	372.51
884.671	390.02
885.051	375.33
885.43	364.6
885.81	373.92
886.189	355.56
886.568	356.4
886.948	367.99
887.327	405.55
887.706	364.03
888.085	454.39
888.464	394.26
888.843	440.84
889.222	415.72
889.601	395.39
889.979	360.08
890.358	395.1
890.737	379.85
891.115	367.42
891.494	377.31
891.872	368.83
892.25	366.29
892.629	405.55
893.007	435.48
893.385	390.58
893.763	372.51
894.141	388.61
894.519	418.82
894.897	375.61
895.275	393.69
895.653	342.84
896.03	388.04
896.408	379.85
896.786	356.12
897.163	396.23
897.541	350.75
897.918	400.75
898.295	383.24
898.673	351.88
899.05	377.31
899.427	554.22
899.804	355.84
900.181	394.26
900.558	424.47
900.935	377.59
901.312	373.64
901.688	366.29
902.065	402.16
902.442	384.94
902.818	393.97
903.195	353.58
903.571	407.53
903.947	350.19
904.324	370.25
904.7	382.39
905.076	436.61
905.452	369.96
905.828	393.69
906.204	390.58
906.58	368.55
906.956	372.51
907.331	432.09
907.707	413.74
908.083	400.19
908.458	372.51
908.834	385.5
909.209	349.06
909.585	388.04
909.96	359.51
910.335	379
910.71	365.16
911.086	364.6
911.461	395.1
911.836	362.9
912.21	355.84
912.585	387.48
912.96	395.39
913.335	397.36
913.709	394.26
914.084	378.72
914.459	376.18
914.833	379.57
915.207	375.05
915.582	366.57
915.956	370.81
916.33	371.94
916.704	369.96
917.078	384.94
917.452	406.12
917.826	379
918.2	403.01
918.574	376.46
918.948	342.27
919.321	354.42
919.695	368.83
920.068	398.49
920.442	380.13
920.815	369.4
921.189	379.57
921.562	404.99
921.935	377.59
922.308	372.22
922.681	383.52
923.054	367.99
923.427	393.69
923.8	373.07
924.173	366.01
924.546	372.79
924.919	351.6
925.291	386.63
925.664	381.26
926.036	375.9
926.409	374.2
926.781	345.66
927.153	374.2
927.526	395.67
927.898	343.97
928.27	397.08
928.642	359.23
929.014	366.29
929.386	356.97
929.758	366.86
930.129	397.65
930.501	385.5
930.873	371.94
931.244	373.07
931.616	372.51
931.987	366.57
932.359	389.74
932.73	363.47
933.101	389.46
933.472	373.35
933.843	368.55
934.214	413.18
934.585	354.99
934.956	371.38
935.327	446.49
935.698	403.01
936.069	380.98
936.439	385.22
936.81	364.88
937.18	396.52
937.551	357.25
937.921	411.2
938.292	384.65
938.662	365.44
939.032	379.29
939.402	360.92
939.772	396.8
940.142	367.14
940.512	339.45
940.882	377.59
941.252	385.78
941.621	374.77
941.991	367.42
942.361	403.58
942.73	377.31
943.1	357.25
943.469	370.81
943.838	410.35
944.208	409.79
944.577	343.97
944.946	347.36
945.315	360.92
945.684	369.4
946.053	384.37
946.422	372.51
946.791	373.92
947.159	349.06
947.528	364.03
947.897	371.09
948.265	358.1
948.634	396.8
949.002	348.77
949.371	365.73
949.739	359.23
950.107	373.64
950.475	356.4
950.843	371.09
951.211	390.58
951.579	395.67
951.947	359.23
952.315	382.68
952.683	366.01
953.05	356.4
953.418	386.91
953.785	368.55
954.153	373.35
954.52	355.27
954.888	370.81
955.255	339.45
955.622	348.21
955.989	376.46
956.356	400.75
956.723	361.21
957.09	386.35
957.457	391.43
957.824	363.18
958.191	360.64
958.557	390.87
958.924	384.37
959.291	360.64
959.657	343.97
960.023	435.2
960.39	377.59
960.756	373.35
961.122	383.81
961.488	374.48
961.855	367.14
962.221	352.16
962.586	348.77
962.952	406.96
963.318	370.25
963.684	442.25
964.05	394.54
964.415	367.7
964.781	364.03
965.146	397.65
965.512	424.75
965.877	354.14
966.242	379.57
966.608	393.41
966.973	375.05
967.338	380.42
967.703	393.41
968.068	348.77
968.433	416.56
968.797	466.24
969.162	377.59
969.527	337.75
969.891	353.86
970.256	375.33
970.62	367.7
970.985	378.44
971.349	399.06
971.714	369.4
972.078	365.73
972.442	368.27
972.806	387.48
973.17	380.7
973.534	387.2
973.898	390.3
974.262	367.42
974.625	399.9
974.989	355.56
975.353	401.03
975.716	396.23
976.08	367.7
976.443	369.12
976.806	386.07
977.17	386.63
977.533	375.05
977.896	368.55
978.259	382.11
978.622	493.88
978.985	384.09
979.348	366.29
979.711	387.76
980.073	368.27
980.436	392
980.799	373.64
981.161	371.66
981.524	356.4
981.886	379.29
982.248	378.44
982.611	355.27
982.973	347.93
983.335	385.22
983.697	354.14
984.059	351.32
984.421	351.88
984.783	365.16
985.145	360.92
985.506	384.09
985.868	377.59
986.23	367.42
986.591	358.1
986.953	380.7
987.314	365.16
987.675	334.08
988.037	4032.47
988.398	467.65
988.759	392.28
989.12	365.73
989.481	384.94
989.842	399.62
990.203	370.81
990.564	366.86
990.924	376.18
991.285	4798.51
991.646	486.55
992.006	359.51
992.367	384.94
992.727	387.48
993.087	363.47
993.448	353.86
993.808	362.9
994.168	359.23
994.528	351.6
994.888	371.66
995.248	400.75
995.608	360.36
995.967	375.61
996.327	346.23
996.687	371.94
997.046	370.81
997.406	366.01
997.765	354.42
998.125	373.64
998.484	367.42
998.843	411.76
999.202	366.29
999.561	375.9
999.92	347.36
1000.279	395.67
1000.638	354.71
1000.997	346.51
1001.356	356.12
1001.715	345.1
1002.073	393.69
1002.432	388.33
1002.79	366.57
1003.149	362.62
1003.507	363.18
1003.865	359.51
1004.224	354.71
1004.582	369.4
1004.94	373.92
1005.298	367.99
1005.656	371.38
1006.014	362.34
1006.371	377.31
1006.729	336.62
1007.087	373.64
1007.445	380.98
1007.802	378.16
1008.16	366.29
1008.517	374.48
1008.874	399.9
1009.232	335.77
1009.589	376.46
1009.946	361.49
1010.303	352.16
1010.66	344.82
1011.017	365.16
1011.374	439.43
1011.731	351.32
1012.087	338.6
1012.444	334.64
1012.801	387.48
1013.157	346.23
1013.513	338.32
1013.87	359.23
1014.226	354.71
1014.582	391.43
1014.939	366.86
1015.295	352.45
1015.651	358.1
1016.007	358.38
1016.363	398.77
1016.719	339.45
1017.074	369.68
1017.43	370.53
1017.786	392.84
1018.141	344.25
1018.497	353.29
1018.852	381.83
1019.208	394.82
1019.563	345.66
1019.918	365.73
1020.273	363.75
1020.628	358.95
1020.983	385.22
1021.338	358.1
1021.693	364.03
1022.048	345.38
1022.403	354.42
1022.757	360.36
1023.112	347.08
1023.467	369.12
1023.821	334.64
1024.175	354.42
1024.53	360.08
1024.884	361.77
1025.238	340.86
1025.592	351.88
1025.946	347.08
1026.3	356.4
1026.654	342.27
1027.008	378.44
1027.362	351.32
1027.716	343.4
1028.069	344.25
1028.423	364.88
1028.777	358.1
1029.13	383.81
1029.483	369.12
1029.837	393.13
1030.19	354.71
1030.543	360.36
1030.896	332.38
1031.249	370.25
1031.602	392.56
1031.955	361.77
1032.308	378.16
1032.661	407.53
1033.013	369.12
1033.366	364.31
1033.719	361.21
1034.071	368.27
1034.424	364.6
1034.776	341.14
1035.128	328.42
1035.48	384.94
1035.833	404.42
1036.185	365.73
1036.537	365.73
1036.889	365.73
