Data from SCSF78-405_irradiation_FLMS019251_05-18-12-752.txt Node
Date: Fri Feb 22 05:18:12 PST 2019
User: mu3e
Spectrometer: FLMS01925
Trigger mode: 0
Integration Time (sec): 3.659600E-1
Scans to average: 10
Electric dark correction enabled: true
Nonlinearity correction enabled: true
Boxcar width: 0
XAxis mode: Wavelengths
Number of Pixels in Spectrum: 2048
>>>>>Begin Spectral Data<<<<<
187.103	-116.82
187.574	-116.82
188.045	-116.82
188.516	-175.42
188.987	-80.14
189.458	-149.25
189.929	-119.95
190.4	-97.77
190.871	-93.22
191.342	-96.06
191.813	-79.29
192.284	-30.99
192.754	-30.14
193.225	-5.15
193.696	24.95
194.166	50.49
194.637	100.12
195.107	143.21
195.578	116.85
196.048	132.44
196.518	132.72
196.989	183.43
197.459	212.88
197.929	227.6
198.399	335.65
198.869	305.12
199.339	307.95
199.809	334.8
200.279	388.48
200.749	363.91
201.219	369.84
201.689	353.17
202.159	374.93
202.628	371.54
203.098	369.56
203.568	393.57
204.037	433.1
204.507	405.71
204.976	405.99
205.445	401.48
205.915	375.21
206.384	381.99
206.853	383.96
207.323	435.92
207.792	419.26
208.261	391.87
208.73	404.58
209.199	404.58
209.668	423.22
210.137	418.42
210.606	391.87
211.075	415.88
211.543	391.03
212.012	396.39
212.481	369.28
212.95	372.95
213.418	427.73
213.887	389.9
214.355	411.92
214.824	363.34
215.292	367.86
215.76	376.34
216.229	342.43
216.697	379.45
217.165	378.03
217.633	349.5
218.101	377.47
218.569	452.57
219.037	391.87
219.505	416.44
219.973	372.67
220.441	345.54
220.909	374.93
221.377	374.64
221.844	393.57
222.312	369.56
222.78	365.89
223.247	357.13
223.715	376.62
224.182	354.02
224.65	388.77
225.117	372.95
225.584	370.69
226.052	385.94
226.519	371.25
226.986	387.35
227.453	355.43
227.92	355.71
228.387	385.09
228.854	368.43
229.321	366.73
229.788	387.07
230.255	397.52
230.722	409.1
231.189	373.23
231.655	381.14
232.122	397.8
232.589	398.09
233.055	363.06
233.522	424.06
233.988	365.89
234.454	388.2
234.921	401.76
235.387	412.77
235.853	382.84
236.32	390.46
236.786	345.82
237.252	352.32
237.718	420.96
238.184	388.48
238.65	357.13
239.116	363.91
239.582	367.02
240.047	369.28
240.513	395.26
240.979	388.77
241.445	384.53
241.91	372.95
242.376	346.39
242.841	399.5
243.307	372.95
243.772	368.71
244.238	375.21
244.703	396.96
245.168	380.58
245.633	388.2
246.099	369.28
246.564	378.03
247.029	385.66
247.494	387.64
247.959	365.6
248.424	386.22
248.889	371.54
249.353	406.84
249.818	379.73
250.283	377.19
250.748	365.32
251.212	419.55
251.677	372.95
252.141	398.65
252.606	392.16
253.07	388.48
253.535	375.21
253.999	370.41
254.463	371.82
254.927	398.65
255.392	409.66
255.856	398.37
256.32	342.43
256.784	376.62
257.248	398.09
257.712	382.27
258.176	423.22
258.64	378.6
259.103	395.26
259.567	404.58
260.031	364.76
260.495	406.28
260.958	405.99
261.422	369.84
261.885	356.28
262.349	380.86
262.812	347.24
263.275	392.44
263.739	393.57
264.202	374.93
264.665	403.73
265.128	348.93
265.591	431.4
266.054	376.9
266.517	422.93
266.98	369.84
267.443	401.48
267.906	356.28
268.369	394.7
268.832	376.06
269.294	397.24
269.757	414.75
270.22	366.45
270.682	394.7
271.145	403.17
271.607	387.07
272.07	470.91
272.532	409.38
272.994	392.16
273.456	411.92
273.919	475.99
274.381	367.3
274.843	411.92
275.305	411.36
275.767	399.5
276.229	407.12
276.691	365.04
277.153	377.47
277.614	420.11
278.076	373.51
278.538	392.16
279	410.23
279.461	398.65
279.923	460.75
280.384	380.86
280.846	368.71
281.307	389.61
281.769	391.31
282.23	384.81
282.691	437.89
283.152	378.03
283.613	413.33
284.075	398.37
284.536	408.53
284.997	371.25
285.458	398.09
285.918	398.37
286.379	417.29
286.84	447.49
287.301	387.64
287.762	407.97
288.222	392.16
288.683	418.7
289.143	407.69
289.604	401.48
290.064	387.35
290.525	391.59
290.985	476.27
291.445	405.71
291.906	376.62
292.366	405.43
292.826	400.91
293.286	416.16
293.746	416.16
294.206	401.76
294.666	413.62
295.126	422.37
295.586	389.05
296.046	394.98
296.506	396.39
296.965	426.32
297.425	381.42
297.884	446.08
298.344	402.32
298.804	405.71
299.263	404.3
299.722	413.33
300.182	400.35
300.641	402.6
301.1	391.87
301.559	416.72
302.019	382.84
302.478	392.44
302.937	408.25
303.396	408.53
303.855	499.4
304.314	407.12
304.772	544.79
305.231	383.68
305.69	397.52
306.149	405.15
306.607	389.9
307.066	411.36
307.524	420.96
307.983	425.47
308.441	432.53
308.9	463.29
309.358	420.39
309.816	474.86
310.275	385.09
310.733	374.08
311.191	411.36
311.649	427.17
312.107	430.56
312.565	437.33
313.023	398.93
313.481	400.35
313.939	422.37
314.397	394.42
314.854	414.46
315.312	410.23
315.77	424.91
316.227	409.38
316.685	405.15
317.142	406.56
317.6	445.23
318.057	415.31
318.514	407.69
318.972	416.44
319.429	437.89
319.886	411.36
320.343	408.82
320.8	388.77
321.257	405.43
321.714	447.21
322.171	437.89
322.628	430.56
323.085	393.29
323.542	418.42
323.998	380.58
324.455	401.19
324.912	404.02
325.368	351.19
325.825	422.09
326.281	414.75
326.738	436.2
327.194	399.78
327.65	398.65
328.107	379.16
328.563	376.9
329.019	409.1
329.475	407.97
329.931	410.51
330.387	413.33
330.843	389.9
331.299	422.37
331.755	417
332.211	379.16
332.666	416.72
333.122	406.56
333.578	409.95
334.033	393.57
334.489	441.28
334.944	390.74
335.4	494.32
335.855	450.88
336.31	423.22
336.766	389.61
337.221	421.24
337.676	398.09
338.131	400.06
338.586	441.56
339.041	414.46
339.496	449.18
339.951	414.46
340.406	391.31
340.861	409.66
341.316	420.39
341.771	402.04
342.225	415.88
342.68	441.85
343.134	377.19
343.589	406.56
344.043	413.62
344.498	417.29
344.952	437.89
345.406	631.55
345.861	417
346.315	406.56
346.769	425.19
347.223	421.24
347.677	404.86
348.131	409.95
348.585	428.86
349.039	416.44
349.493	393.85
349.947	427.17
350.401	407.41
350.854	407.97
351.308	482.19
351.762	392.72
352.215	444.1
352.669	407.41
353.122	422.65
353.575	405.99
354.029	402.32
354.482	431.68
354.935	415.59
355.388	421.8
355.842	446.08
356.295	434.79
356.748	407.97
357.201	421.8
357.654	426.04
358.106	418.7
358.559	435.35
359.012	387.35
359.465	419.55
359.917	425.47
360.37	429.99
360.823	416.44
361.275	430.84
361.728	419.26
362.18	435.07
362.632	419.55
363.085	400.63
363.537	411.64
363.989	418.7
364.441	441.85
364.893	419.26
365.345	422.37
365.797	413.33
366.249	417
366.701	443.26
367.153	407.97
367.605	394.7
368.057	429.43
368.508	403.45
368.96	417.85
369.411	451.16
369.863	432.53
370.314	446.64
370.766	421.8
371.217	420.68
371.669	437.33
372.12	461.6
372.571	462.16
373.022	410.79
373.473	432.53
373.924	424.63
374.375	436.2
374.826	424.06
375.277	417.29
375.728	402.6
376.179	433.38
376.63	438.46
377.08	431.4
377.531	415.03
377.981	413.9
378.432	450.31
378.883	454.26
379.333	444.95
379.783	445.51
380.234	418.7
380.684	412.49
381.134	438.46
381.584	436.48
382.034	458.5
382.485	447.21
382.935	392.16
383.385	429.71
383.834	418.98
384.284	447.49
384.734	411.36
385.184	431.68
385.634	424.06
386.083	425.76
386.533	425.19
386.982	426.6
387.432	446.64
387.881	446.08
388.331	428.58
388.78	443.26
389.229	464.42
389.679	414.46
390.128	425.47
390.577	422.93
391.026	441.56
391.475	412.77
391.924	412.77
392.373	421.8
392.822	423.5
393.27	469.5
393.719	453.7
394.168	414.18
394.617	456.24
395.065	421.24
395.514	483.89
395.962	444.95
396.411	443.26
396.859	438.74
397.307	498.27
397.756	440.15
398.204	452.85
398.652	479.09
399.1	445.51
399.548	440.72
399.996	508.14
400.444	487.84
400.892	423.78
401.34	452.85
401.788	456.52
402.236	440.15
402.683	469.5
403.131	464.7
403.579	464.14
404.026	440.43
404.474	455.11
404.921	460.75
405.369	481.07
405.816	448.05
406.263	477.96
406.71	505.04
407.158	496.3
407.605	445.51
408.052	497.14
408.499	477.96
408.946	532.95
409.393	516.6
409.84	534.64
410.286	545.07
410.733	565.36
411.18	543.38
411.626	636.62
412.073	619.44
412.52	704.15
412.966	814.32
413.413	962.46
413.859	1099.12
414.305	1325.14
414.752	1635.29
415.198	1977.43
415.644	2434.01
416.09	3001.52
416.536	3630.96
416.982	4368.53
417.428	5262.66
417.874	6193.79
418.32	7225.35
418.766	8267.84
419.211	9630.07
419.657	10831.17
420.103	12351.38
420.548	13446.39
420.994	15289.57
421.439	16684.81
421.885	18107.86
422.33	20020.65
422.776	21473.53
423.221	22881.53
423.666	24533.28
424.111	26199.14
424.556	27281.33
425.001	29021.5
425.446	30655.41
425.891	32091.71
426.336	32998.17
426.781	34469.07
427.226	36844.19
427.671	37348.25
428.115	37970.48
428.56	39688.69
429.005	41267.28
429.449	41368.99
429.894	42630.46
430.338	43690.93
430.782	43274.63
431.227	44647.94
431.671	44862.67
432.115	46257.22
432.559	46855.78
433.003	46427.36
433.447	47040.67
433.891	47211.02
434.335	47497.41
434.779	48077.65
435.223	48220.92
435.667	48018.28
436.111	48901.13
436.554	48290.18
436.998	47662.49
437.442	47681.19
437.885	49626.94
438.328	47981.55
438.772	48328.57
439.215	48858.64
439.659	48303.32
440.102	48746.04
440.545	47993.62
440.988	47808.57
441.431	48702.07
441.874	48198.27
442.317	48569.24
442.76	47928.91
443.203	47483.85
443.646	48161.22
444.089	47710.65
444.531	48259.54
444.974	47050.86
445.417	48156.08
445.859	47188.05
446.302	48390.16
446.744	47624.08
447.186	48949.34
447.629	48025.22
448.071	47977.7
448.513	48023.42
448.956	49472.44
449.398	48843.36
449.84	47555.99
450.282	48226.07
450.724	48842.84
451.166	48477.6
451.607	48688.36
452.049	48696.12
452.491	50078.26
452.933	49542.09
453.374	50173.41
453.816	50808.9
454.257	50334.53
454.699	51473.34
455.14	51165.87
455.582	50969.86
456.023	51025.46
456.464	51333.06
456.905	52005.85
457.347	52038.58
457.788	51173.34
458.229	51357.93
458.67	52597.54
459.111	50405.73
459.552	50717.69
459.992	50515.82
460.433	50521.63
460.874	49416.39
461.315	50750.29
461.755	49781.99
462.196	49371.59
462.636	48611.6
463.077	48113.13
463.517	48391.97
463.957	48786.66
464.398	48475.53
464.838	48641.83
465.278	47470.81
465.718	47720.39
466.158	46769.53
466.598	47259.26
467.038	46806.67
467.478	47297.56
467.918	47734.74
468.358	46885.3
468.798	46641.41
469.237	46667.07
469.677	46652.84
470.117	47609.23
470.556	44928.77
470.996	45536.14
471.435	45835.35
471.874	46517.46
472.314	46339.6
472.753	45404.01
473.192	45546.49
473.631	45236.47
474.07	45592.91
474.509	45650.21
474.948	46005.53
475.387	45306.49
475.826	44302.87
476.265	46220.22
476.704	45798.45
477.143	46154.87
477.581	45979.47
478.02	46603.55
478.458	45191.4
478.897	46067.78
479.335	47387.99
479.774	46725.54
480.212	47091.14
480.65	47115.1
481.089	46791.4
481.527	46297.77
481.965	45830.8
482.403	48052.46
482.841	47968.71
483.279	48028.56
483.717	47963.06
484.155	47671.2
484.592	48070.96
485.03	48242.03
485.468	47214.34
485.905	47387.99
486.343	48064.02
486.781	47376.23
487.218	46720.45
487.655	46712.57
488.093	45749.7
488.53	47325.39
488.967	46560.88
489.405	46492.33
489.842	45374.02
490.279	45283.82
490.716	45061.29
491.153	45622.69
491.59	44824.73
492.027	44159.35
492.463	43834.62
492.9	42947.47
493.337	42942.74
493.773	42963.16
494.21	42192.17
494.647	41868.16
495.083	41138.65
495.519	40637.49
495.956	40761.22
496.392	40075.73
496.828	39674.41
497.265	38836.92
497.701	39138.26
498.137	38775.5
498.573	37804.98
499.009	38419.69
499.445	37563.09
499.881	36906.35
500.316	37398.95
500.752	36185.31
501.188	36137.64
501.624	36043.05
502.059	34653.54
502.495	34467.85
502.93	34372.2
503.366	35085.31
503.801	34027.02
504.236	33730.19
504.672	32996.22
505.107	32660.01
505.542	32051.73
505.977	32133.64
506.412	31586.77
506.847	31911.05
507.282	31345.37
507.717	30861.28
508.152	30927.13
508.587	30700.78
509.021	29837.77
509.456	29485.02
509.891	29596.84
510.325	29600.5
510.76	29142.65
511.194	28937.22
511.628	28964.58
512.063	28055.81
512.497	28316.23
512.931	27742.94
513.366	27444.37
513.8	27438.74
514.234	26787.77
514.668	26702.5
515.102	26983.77
515.536	25908.41
515.969	26310.74
516.403	25716.21
516.837	25336.04
517.271	25470.17
517.704	25041.64
518.138	24807.08
518.571	24625.55
519.005	24214.77
519.438	23967
519.871	23832.96
520.305	23422.24
520.738	23193.06
521.171	22794.36
521.604	22915.12
522.037	22623.17
522.47	22194.05
522.903	21844.7
523.336	21684.78
523.769	21555.02
524.202	20948.79
524.634	20958.46
525.067	20683.57
525.5	20576.34
525.932	20436.06
526.365	19990.33
526.797	19771.01
527.23	19877.7
527.662	19170.4
528.094	18973.57
528.527	18889.58
528.959	18611.3
529.391	18244.46
529.823	17672.54
530.255	17717.29
530.687	17329.82
531.119	17154.84
531.551	17100.5
531.982	16676.79
532.414	16514.03
532.846	16106.45
533.277	16074.3
533.709	15585.73
534.14	15521.59
534.572	15281.01
535.003	15186.34
535.435	14785.7
535.866	14672.22
536.297	14233.54
536.728	14361.32
537.159	14153.2
537.59	13930.78
538.022	13754.23
538.452	13464.12
538.883	13233.54
539.314	13094.59
539.745	12825.35
540.176	12696.08
540.606	12289.31
541.037	12352.91
541.468	12160.01
541.898	12002.11
542.328	12026.32
542.759	11646.7
543.189	11536.7
543.619	11317.8
544.05	11196.63
544.48	10991.46
544.91	10915.43
545.34	10684.34
545.77	10613.57
546.2	10435.52
546.63	10276.82
547.06	10304.56
547.489	10058.32
547.919	9848.83
548.349	9843.17
548.778	9791.14
549.208	9537.22
549.637	9396.05
550.067	9322.7
550.496	9346.21
550.926	9085.4
551.355	8888.15
551.784	8899.29
552.213	8660.05
552.642	8613.09
553.071	8525.36
553.5	8439.92
553.929	8123.93
554.358	8141.64
554.787	8038.51
555.216	8028.09
555.645	7908.45
556.073	7769.66
556.502	7657.89
556.93	7477.51
557.359	7459.2
557.787	7468.09
558.216	7294.79
558.644	7260.47
559.072	7171.08
559.5	6971.11
559.929	7051.45
560.357	7067.72
560.785	6939.58
561.213	6853.38
561.641	6789.22
562.068	6734.23
562.496	6669.74
562.924	6600.74
563.352	6575.97
563.779	6520.62
564.207	6549.88
564.634	6466.3
565.062	6450.74
565.489	6337.26
565.917	6276.51
566.344	6240.31
566.771	6153.07
567.198	6132.44
567.625	6047.23
568.053	5930.95
568.48	5862.3
568.907	5837.9
569.333	5746.89
569.76	5573.41
570.187	5672.8
570.614	5507.45
571.04	11741.35
571.467	5466.73
571.894	5257.06
572.32	5139.12
572.747	5059.79
573.173	5016.23
573.599	4896.13
574.026	4845
574.452	4845.26
574.878	4709.41
575.304	4606.65
575.73	4522.33
576.156	4415.34
576.582	4465.35
577.008	4331.11
577.434	4302.3
577.86	4163.52
578.285	4151.11
578.711	4048.02
579.137	4032.36
579.562	3910.74
579.988	3839.59
580.413	3746.71
580.838	3748.07
581.264	3713.66
581.689	3651.84
582.114	3636.65
582.539	4053.96
582.964	3551.17
583.39	3473.48
583.814	3370.15
584.239	3366.34
584.664	3268.34
585.089	3293.67
585.514	3215.48
585.939	3144.31
586.363	3062.16
586.788	3065.71
587.212	3062.16
587.637	2950.41
588.061	2969.82
588.485	2906.11
588.91	2843.17
589.334	2837.97
589.758	2823.46
590.182	2797.99
590.606	2682.87
591.03	2654.62
591.454	2601.65
591.878	2610.71
592.302	2585.17
592.726	2575.84
593.15	2550.57
593.573	2446.93
593.997	2453.54
594.42	2367.95
594.844	2356.11
595.267	2369.61
595.691	2339.87
596.114	2286.97
596.537	2291.38
596.96	2275.94
597.384	2224.66
597.807	2216.94
598.23	2201.21
598.653	2205.07
599.076	2152.64
599.499	2136.9
599.921	2102.38
600.344	2036.61
600.767	2084.15
601.189	2035.23
601.612	2022.51
602.034	2006.2
602.457	2009.79
602.879	2139.66
603.302	1987.66
603.724	2008.41
604.146	1928.17
604.568	1899.65
604.991	1944.78
605.413	1942.84
605.835	1970.23
606.257	1940.35
606.678	1882.75
607.1	1884.97
607.522	1898.54
607.944	1905.74
608.365	1831.49
608.787	1809.87
609.209	1835.65
609.63	1750.24
610.051	1797.67
610.473	1748.3
610.894	1743.3
611.315	1710.28
611.737	1703.62
612.158	1686.4
612.579	1604.44
613	1703.89
613.421	1644.46
613.842	1605.83
614.263	1608.06
614.683	1539.93
615.104	1553.84
615.525	1539.09
615.945	1475.91
616.366	1431.07
616.787	1488.16
617.207	1433.58
617.627	1401.82
618.048	1393.18
618.468	1385.09
618.888	1363.35
619.308	1349.68
619.728	1332.11
620.148	1304.21
620.568	1338.25
620.988	1297.52
621.408	1274.07
621.828	1238.33
622.248	1232.74
622.668	1264.58
623.087	1205.37
623.507	1206.48
623.926	1187.2
624.346	1180.22
624.765	1209
625.185	1141.92
625.604	1099.68
626.023	1138.28
626.442	1122.34
626.861	1125.42
627.28	1107.51
627.699	1075.89
628.118	1043.98
628.537	1061.9
628.956	1063.02
629.375	1053.5
629.794	1040.9
630.212	1036.14
630.631	1056.3
631.049	1000.85
631.468	996.37
631.886	993
632.305	1010.93
632.723	970.59
633.141	928.82
633.559	949.28
633.978	924.33
634.396	947.6
634.814	934.7
635.232	880.01
635.65	936.95
636.067	892.07
636.485	892.63
636.903	889.27
637.321	881.13
637.738	956.29
638.156	844.36
638.573	847.17
638.991	871.59
639.408	877.48
639.825	848.29
640.243	878.89
640.66	804.49
641.077	809.54
641.494	834.26
641.911	851.1
642.328	801.96
642.745	785.95
643.162	818.25
643.579	795.78
643.995	782.02
644.412	814.6
644.829	752.23
645.245	733.11
645.662	755.88
646.078	741.55
646.495	710.9
646.911	762.06
647.327	773.59
647.743	740.14
648.159	721.87
648.576	705.56
648.992	744.36
649.408	689.24
649.824	681.36
650.239	684.74
650.655	721.58
651.071	703.87
651.487	704.71
651.902	703.31
652.318	674.33
652.733	681.93
653.149	647.6
653.564	678.27
653.979	666.45
654.395	666.73
654.81	682.21
655.225	647.6
655.64	668.7
656.055	685.87
656.47	647.6
656.885	616.07
657.3	624.23
657.715	717.37
658.13	636.06
658.544	650.41
658.959	645.34
659.374	598.04
659.788	655.76
660.202	643.09
660.617	695.71
661.031	626.48
661.445	616.35
661.86	589.87
662.274	643.09
662.688	610.43
663.102	600.01
663.516	617.75
663.93	597.48
664.344	583.11
664.758	600.58
665.171	547.05
665.585	587.9
665.999	592.13
666.412	579.17
666.826	594.66
667.239	599.45
667.653	566.77
668.066	558.04
668.479	575.23
668.892	558.88
669.306	559.16
669.719	557.19
670.132	558.04
670.545	549.3
670.958	548.46
671.37	547.05
671.783	543.1
672.196	543.38
672.609	560.29
673.021	564.24
673.434	532.11
673.846	513.22
674.259	538.03
674.671	516.6
675.084	527.6
675.496	499.96
675.908	515.76
676.32	510.12
676.732	550.71
677.144	520.27
677.556	514.63
677.968	506.17
678.38	540.56
678.792	516.32
679.204	512.09
679.615	521.11
680.027	514.35
680.439	504.76
680.85	532.67
681.262	564.8
681.673	519.98
682.084	514.35
682.496	473.45
682.907	500.25
683.318	484.45
683.729	484.45
684.14	535.77
684.551	502.5
684.962	464.7
685.373	488.68
685.784	486.43
686.194	489.25
686.605	468.37
687.016	499.96
687.426	493.2
687.837	494.32
688.247	472.04
688.657	488.96
689.068	494.04
689.478	462.16
689.888	461.88
690.298	478.25
690.708	452.57
691.118	449.47
691.528	474.58
691.938	480.78
692.348	460.47
692.758	472.6
693.168	481.35
693.577	482.48
693.987	464.42
694.396	475.42
694.806	459.62
695.215	443.82
695.625	453.13
696.034	457.09
696.443	466.68
696.852	467.24
697.262	459.62
697.671	443.82
698.08	468.65
698.489	458.5
698.897	437.89
699.306	435.07
699.715	450.88
700.124	436.77
700.532	442.13
700.941	455.96
701.35	459.06
701.758	460.75
702.166	449.18
702.575	420.96
702.983	424.06
703.391	465.27
703.799	452.85
704.208	469.78
704.616	455.11
705.024	431.97
705.432	441.56
705.839	441.85
706.247	464.14
706.655	505.32
707.063	443.26
707.47	448.05
707.878	416.72
708.285	421.24
708.693	446.08
709.1	422.65
709.508	418.98
709.915	410.79
710.322	464.14
710.729	534.36
711.136	454.83
711.543	404.86
711.95	443.54
712.357	445.51
712.764	433.1
713.171	428.3
713.578	419.26
713.984	447.49
714.391	433.38
714.797	409.95
715.204	422.09
715.61	467.81
716.017	412.21
716.423	447.77
716.829	437.33
717.236	431.12
717.642	412.77
718.048	450.59
718.454	449.75
718.86	404.86
719.266	494.61
719.671	398.65
720.077	432.25
720.483	398.37
720.889	453.13
721.294	409.38
721.7	422.65
722.105	415.31
722.511	438.74
722.916	444.95
723.321	440.72
723.726	458.5
724.132	420.96
724.537	431.68
724.942	456.52
725.347	445.51
725.752	414.75
726.156	414.46
726.561	422.09
726.966	408.25
727.371	433.38
727.775	430.56
728.18	395.54
728.584	381.71
728.989	414.46
729.393	500.25
729.798	386.79
730.202	427.45
730.606	420.96
731.01	420.39
731.414	397.8
731.818	403.73
732.222	435.07
732.626	407.97
733.03	450.03
733.434	419.83
733.837	428.02
734.241	430.27
734.645	411.92
735.048	409.38
735.452	414.46
735.855	423.5
736.258	407.69
736.662	440.72
737.065	442.13
737.468	417.85
737.871	422.93
738.274	451.72
738.677	427.17
739.08	408.53
739.483	414.46
739.886	439.31
740.289	437.05
740.691	387.35
741.094	406.84
741.497	409.1
741.899	422.65
742.302	400.06
742.704	403.73
743.106	408.53
743.508	410.23
743.911	409.66
744.313	423.22
744.715	418.42
745.117	395.54
745.519	405.99
745.921	402.89
746.323	422.65
746.724	415.59
747.126	393.85
747.528	439.87
747.929	404.3
748.331	425.47
748.732	370.41
749.134	383.96
749.535	416.44
749.936	420.11
750.338	389.61
750.739	428.58
751.14	409.1
751.541	433.66
751.942	406.28
752.343	390.46
752.744	430.84
753.144	391.03
753.545	402.6
753.946	403.45
754.346	387.92
754.747	464.14
755.148	514.06
755.548	394.98
755.948	416.44
756.349	383.96
756.749	401.76
757.149	385.38
757.549	401.19
757.949	410.23
758.349	410.23
758.749	391.59
759.149	397.24
759.549	403.17
759.949	411.08
760.348	484.17
760.748	412.21
761.148	393.85
761.547	397.24
761.947	383.68
762.346	405.43
762.745	438.18
763.145	419.55
763.544	399.5
763.943	405.71
764.342	392.44
764.741	380.01
765.14	378.32
765.539	398.37
765.938	477.96
766.336	389.61
766.735	427.17
767.134	373.51
767.532	382.55
767.931	390.46
768.329	452.85
768.728	383.4
769.126	411.92
769.525	443.54
769.923	403.73
770.321	423.78
770.719	409.38
771.117	402.6
771.515	383.96
771.913	414.46
772.311	395.83
772.709	400.35
773.106	395.54
773.504	399.78
773.902	400.91
774.299	411.64
774.697	497.99
775.094	410.79
775.491	381.42
775.889	412.49
776.286	383.96
776.683	374.64
777.08	399.78
777.477	384.53
777.874	411.36
778.271	388.48
778.668	402.32
779.065	385.38
779.462	390.74
779.858	411.36
780.255	397.52
780.652	392.16
781.048	448.62
781.444	372.95
781.841	385.66
782.237	371.25
782.633	379.73
783.03	372.1
783.426	381.99
783.822	375.49
784.218	364.19
784.614	381.71
785.01	378.88
785.405	387.07
785.801	386.79
786.197	378.6
786.593	394.98
786.988	411.92
787.384	426.89
787.779	381.99
788.174	385.94
788.57	370.69
788.965	404.3
789.36	385.66
789.755	420.39
790.15	402.6
790.545	375.49
790.94	377.47
791.335	379.73
791.73	349.21
792.125	402.89
792.52	405.43
792.914	409.66
793.309	381.71
793.703	406.28
794.098	383.96
794.492	404.02
794.887	388.48
795.281	423.78
795.675	417.85
796.069	414.46
796.463	395.54
796.857	393.85
797.251	409.95
797.645	378.88
798.039	386.22
798.433	382.55
798.826	363.91
799.22	392.72
799.614	410.23
800.007	392.44
800.401	395.26
800.794	384.81
801.187	391.87
801.581	369.56
801.974	391.31
802.367	402.04
802.76	382.27
803.153	373.8
803.546	367.02
803.939	384.53
804.332	373.23
804.725	399.5
805.117	376.9
805.51	398.09
805.903	377.47
806.295	402.04
806.688	409.38
807.08	378.32
807.472	397.52
807.865	442.69
808.257	421.52
808.649	387.35
809.041	391.31
809.433	407.41
809.825	398.37
810.217	389.61
810.609	382.84
811.001	391.59
811.392	367.58
811.784	400.06
812.175	387.07
812.567	369.56
812.958	415.88
813.35	400.91
813.741	377.75
814.132	403.45
814.524	386.51
814.915	381.71
815.306	356
815.697	399.22
816.088	394.98
816.479	413.05
816.87	398.09
817.26	397.8
817.651	417.57
818.042	396.67
818.432	409.38
818.823	371.25
819.213	405.43
819.604	391.03
819.994	388.77
820.384	394.7
820.775	395.54
821.165	344.41
821.555	392.16
821.945	377.75
822.335	352.89
822.725	392.16
823.114	376.62
823.504	378.03
823.894	384.25
824.284	394.7
824.673	396.96
825.063	381.99
825.452	375.77
825.842	407.97
826.231	439.59
826.62	353.45
827.009	442.13
827.399	400.63
827.788	368.15
828.177	377.19
828.566	400.63
828.954	470.63
829.343	404.58
829.732	368.15
830.121	452.29
830.509	443.26
830.898	373.51
831.286	365.04
831.675	402.32
832.063	403.17
832.452	379.73
832.84	384.81
833.228	446.08
833.616	396.67
834.004	411.08
834.392	378.32
834.78	427.73
835.168	354.02
835.556	448.34
835.944	396.67
836.331	404.02
836.719	395.54
837.107	417
837.494	394.13
837.881	359.1
838.269	371.54
838.656	380.01
839.043	339.89
839.431	438.18
839.818	387.35
840.205	374.36
840.592	382.27
840.979	386.51
841.366	384.81
841.752	358.26
842.139	357.13
842.526	389.61
842.912	414.18
843.299	384.81
843.685	396.67
844.072	385.94
844.458	409.66
844.844	377.19
845.231	361.37
845.617	369.56
846.003	378.32
846.389	393.57
846.775	381.71
847.161	351.48
847.547	376.9
847.933	383.12
848.318	379.16
848.704	376.34
849.09	372.38
849.475	390.74
849.861	422.37
850.246	381.71
850.631	406.84
851.017	388.48
851.402	374.64
851.787	390.46
852.172	429.71
852.557	387.07
852.942	370.12
853.327	383.4
853.712	403.17
854.097	383.68
854.481	375.77
854.866	402.32
855.25	393
855.635	360.8
856.019	398.65
856.404	385.09
856.788	367.86
857.172	384.25
857.557	392.16
857.941	369.84
858.325	372.1
858.709	374.93
859.093	392.44
859.477	375.21
859.86	427.45
860.244	383.68
860.628	427.73
861.012	405.15
861.395	405.15
861.779	370.69
862.162	381.14
862.545	350.35
862.929	382.84
863.312	394.7
863.695	385.66
864.078	405.99
864.461	380.58
864.844	391.59
865.227	410.51
865.61	371.54
865.993	385.09
866.376	379.45
866.758	393.57
867.141	423.5
867.523	407.41
867.906	364.76
868.288	376.34
868.671	393.57
869.053	374.08
869.435	386.22
869.817	429.43
870.199	358.82
870.581	387.35
870.963	380.86
871.345	390.74
871.727	398.93
872.109	353.45
872.491	394.98
872.872	408.53
873.254	389.05
873.635	355.43
874.017	410.79
874.398	372.1
874.779	419.26
875.161	388.77
875.542	398.93
875.923	396.39
876.304	381.99
876.685	349.5
877.066	373.23
877.447	383.96
877.828	391.87
878.208	399.22
878.589	407.97
878.97	470.63
879.35	370.12
879.731	369.84
880.111	339.32
880.491	381.14
880.872	392.44
881.252	350.35
881.632	371.82
882.012	391.03
882.392	443.54
882.772	418.13
883.152	387.64
883.532	374.08
883.912	396.96
884.291	353.45
884.671	382.55
885.051	383.96
885.43	372.95
885.81	377.75
886.189	391.59
886.568	397.24
886.948	404.3
887.327	405.99
887.706	380.01
888.085	425.76
888.464	379.45
888.843	469.78
889.222	427.73
889.601	380.58
889.979	381.71
890.358	404.86
890.737	419.83
891.115	369.56
891.494	375.77
891.872	375.21
892.25	381.14
892.629	413.9
893.007	421.52
893.385	385.94
893.763	380.01
894.141	389.61
894.519	403.17
894.897	377.47
895.275	352.61
895.653	371.54
896.03	409.95
896.408	388.77
896.786	363.34
897.163	371.82
897.541	372.67
897.918	405.71
898.295	364.47
898.673	353.45
899.05	354.02
899.427	536.34
899.804	360.23
900.181	375.77
900.558	421.24
900.935	402.04
901.312	347.52
901.688	360.8
902.065	402.89
902.442	389.61
902.818	395.26
903.195	352.32
903.571	364.76
903.947	371.25
904.324	359.1
904.7	389.9
905.076	433.66
905.452	383.96
905.828	408.82
906.204	375.77
906.58	389.33
906.956	370.69
907.331	409.38
907.707	412.21
908.083	419.83
908.458	385.66
908.834	393.29
909.209	392.16
909.585	402.89
909.96	371.25
910.335	363.06
910.71	365.89
911.086	393.29
911.461	383.96
911.836	384.25
912.21	388.48
912.585	382.55
912.96	378.88
913.335	365.89
913.709	374.08
914.084	371.54
914.459	412.77
914.833	377.19
915.207	363.63
915.582	372.67
915.956	362.5
916.33	377.47
916.704	364.47
917.078	418.98
917.452	402.32
917.826	382.27
918.2	363.91
918.574	375.49
918.948	358.54
919.321	376.9
919.695	369.56
920.068	370.97
920.442	370.97
920.815	352.89
921.189	381.14
921.562	417.57
921.935	410.79
922.308	384.81
922.681	389.9
923.054	378.32
923.427	401.76
923.8	370.12
924.173	368.43
924.546	364.76
924.919	368.15
925.291	359.95
925.664	359.39
926.036	366.45
926.409	386.79
926.781	373.8
927.153	362.78
927.526	409.66
927.898	346.67
928.27	368.43
928.642	373.23
929.014	386.79
929.386	359.95
929.758	361.93
930.129	377.19
930.501	408.25
930.873	366.73
931.244	383.96
931.616	335.65
931.987	368.43
932.359	386.79
932.73	365.32
933.101	402.04
933.472	376.9
933.843	400.35
934.214	420.96
934.585	361.93
934.956	368.15
935.327	468.09
935.698	398.65
936.069	384.25
936.439	339.61
936.81	367.58
937.18	401.19
937.551	377.47
937.921	401.19
938.292	393.29
938.662	366.45
939.032	387.92
939.402	371.25
939.772	369.28
940.142	369.56
940.512	346.39
940.882	371.54
941.252	393
941.621	378.32
941.991	411.36
942.361	381.71
942.73	357.41
943.1	348.65
943.469	375.49
943.838	424.35
944.208	398.65
944.577	348.37
944.946	368.99
945.315	350.91
945.684	384.81
946.053	373.23
946.422	364.47
946.791	360.23
947.159	377.75
947.528	375.21
947.897	392.72
948.265	349.5
948.634	374.64
949.002	350.91
949.371	383.96
949.739	371.54
950.107	394.7
950.475	384.81
950.843	401.19
951.211	396.11
951.579	393.85
951.947	360.23
952.315	372.67
952.683	366.73
953.05	335.08
953.418	399.78
953.785	374.93
954.153	400.35
954.52	365.6
954.888	379.45
955.255	337.35
955.622	354.3
955.989	352.32
956.356	407.41
956.723	352.61
957.09	374.64
957.457	401.76
957.824	373.8
958.191	378.32
958.557	389.05
958.924	367.02
959.291	358.54
959.657	362.78
960.023	464.14
960.39	347.24
960.756	345.82
961.122	379.45
961.488	368.43
961.855	373.23
962.221	367.02
962.586	364.76
962.952	425.47
963.318	375.49
963.684	449.75
964.05	428.3
964.415	374.08
964.781	377.47
965.146	390.74
965.512	382.55
965.877	331.97
966.242	382.84
966.608	380.01
966.973	352.61
967.338	368.99
967.703	396.96
968.068	355.43
968.433	381.42
968.797	441.28
969.162	392.72
969.527	382.84
969.891	350.63
970.256	369.56
970.62	363.06
970.985	371.54
971.349	361.65
971.714	405.99
972.078	374.64
972.442	383.4
972.806	398.93
973.17	354.02
973.534	356
973.898	373.8
974.262	371.25
974.625	405.99
974.989	352.89
975.353	405.99
975.716	387.07
976.08	362.78
976.443	359.39
976.806	331.41
977.17	357.69
977.533	363.63
977.896	368.15
978.259	368.99
978.622	500.53
978.985	391.59
979.348	380.86
979.711	400.06
980.073	365.32
980.436	376.06
980.799	398.09
981.161	414.46
981.524	377.75
981.886	354.02
982.248	364.76
982.611	378.88
982.973	387.07
983.335	374.36
983.697	376.06
984.059	360.23
984.421	357.41
984.783	376.62
985.145	378.03
985.506	359.67
985.868	373.51
986.23	392.16
986.591	366.45
986.953	372.1
987.314	357.69
987.675	392.16
988.037	5336.24
988.398	486.71
988.759	394.13
989.12	380.86
989.481	399.5
989.842	362.78
990.203	365.04
990.564	348.65
990.924	376.62
991.285	4791.96
991.646	489.81
992.006	360.23
992.367	376.9
992.727	399.5
993.087	367.58
993.448	384.81
993.808	355.15
994.168	359.95
994.528	368.99
994.888	364.19
995.248	371.25
995.608	359.1
995.967	359.39
996.327	370.41
996.687	383.96
997.046	354.58
997.406	372.67
997.765	367.58
998.125	361.08
998.484	349.21
998.843	402.04
999.202	367.86
999.561	370.12
999.92	368.43
1000.279	373.51
1000.638	354.87
1000.997	378.03
1001.356	368.43
1001.715	363.63
1002.073	368.71
1002.432	389.9
1002.79	345.26
1003.149	313.03
1003.507	414.46
1003.865	363.63
1004.224	360.8
1004.582	365.04
1004.94	359.67
1005.298	359.39
1005.656	358.82
1006.014	356.28
1006.371	373.23
1006.729	353.17
1007.087	394.42
1007.445	363.91
1007.802	367.58
1008.16	360.52
1008.517	388.77
1008.874	362.78
1009.232	392.72
1009.589	378.88
1009.946	349.5
1010.303	368.43
1010.66	368.71
1011.017	348.93
1011.374	399.22
1011.731	356.84
1012.087	357.97
1012.444	365.32
1012.801	359.39
1013.157	350.06
1013.513	375.77
1013.87	346.95
1014.226	398.65
1014.582	358.82
1014.939	355.71
1015.295	364.76
1015.651	369.28
1016.007	366.17
1016.363	410.79
1016.719	352.89
1017.074	367.86
1017.43	346.67
1017.786	362.5
1018.141	365.04
1018.497	344.69
1018.852	374.08
1019.208	399.22
1019.563	385.38
1019.918	351.48
1020.273	395.54
1020.628	346.11
1020.983	372.38
1021.338	358.54
1021.693	362.78
1022.048	350.91
1022.403	349.78
1022.757	393
1023.112	380.29
1023.467	344.98
1023.821	367.58
1024.175	354.58
1024.53	352.61
1024.884	376.9
1025.238	365.89
1025.592	378.03
1025.946	362.78
1026.3	335.37
1026.654	353.45
1027.008	345.54
1027.362	368.99
1027.716	380.86
1028.069	364.19
1028.423	361.37
1028.777	375.21
1029.13	347.8
1029.483	370.97
1029.837	393.29
1030.19	344.41
1030.543	347.8
1030.896	371.82
1031.249	367.58
1031.602	330
1031.955	354.58
1032.308	370.97
1032.661	378.88
1033.013	352.04
1033.366	390.46
1033.719	357.13
1034.071	366.17
1034.424	369.28
1034.776	350.63
1035.128	351.76
1035.48	347.24
1035.833	397.8
1036.185	378.88
1036.537	378.88
1036.889	378.88
