Data from SCSF78-405_irradiation_FLMS019251_03-20-12-134.txt Node
Date: Fri Feb 22 03:20:12 PST 2019
User: mu3e
Spectrometer: FLMS01925
Trigger mode: 0
Integration Time (sec): 3.659600E-1
Scans to average: 10
Electric dark correction enabled: true
Nonlinearity correction enabled: true
Boxcar width: 0
XAxis mode: Wavelengths
Number of Pixels in Spectrum: 2048
>>>>>Begin Spectral Data<<<<<
187.103	-103.78
187.574	-103.78
188.045	-103.78
188.516	-177.74
188.987	-93.54
189.458	-111.74
189.929	-124.53
190.4	-117.14
190.871	-90.7
191.342	-106.33
191.813	-58.87
192.284	-19.95
192.754	-42.39
193.225	14.69
193.696	-4.33
194.166	11.85
194.637	88.74
195.107	123.05
195.578	149.69
196.048	148.55
196.518	138.35
196.989	179.15
197.459	217.66
197.929	209.45
198.399	345.51
198.869	329.68
199.339	347.77
199.809	332.79
200.279	365.57
200.749	365.57
201.219	356.24
201.689	374.33
202.159	373.48
202.628	372.91
203.098	416.41
203.568	384.21
204.037	411.32
204.507	389.86
204.976	409.63
205.445	381.95
205.915	405.96
206.384	403.98
206.853	386.75
207.323	405.39
207.792	414.99
208.261	388.73
208.73	375.46
209.199	428.54
209.668	407.93
210.137	422.62
210.606	386.47
211.075	405.68
211.543	433.91
212.012	394.94
212.481	352.85
212.95	367.83
213.418	435.6
213.887	390.14
214.355	424.03
214.824	382.8
215.292	356.24
215.76	351.16
216.229	350.87
216.697	383.36
217.165	399.46
217.633	372.07
218.101	355.4
218.569	470.59
219.037	356.81
219.505	440.96
219.973	401.44
220.441	334.48
220.909	365
221.377	356.24
221.844	370.37
222.312	336.46
222.78	363.31
223.247	374.89
223.715	330.24
224.182	370.37
224.65	364.44
225.117	370.65
225.584	376.59
226.052	358.5
226.519	358.79
226.986	350.03
227.453	345.22
227.92	381.39
228.387	398.9
228.854	378.28
229.321	361.33
229.788	396.64
230.255	393.81
230.722	379.13
231.189	418.66
231.655	370.37
232.122	416.97
232.589	375.74
233.055	372.91
233.522	428.54
233.988	348.33
234.454	381.95
234.921	412.45
235.387	414.15
235.853	370.94
236.32	378
236.786	365.85
237.252	380.54
237.718	408.5
238.184	381.11
238.65	399.46
239.116	369.52
239.582	404.55
240.047	353.98
240.513	394.38
240.979	407.37
241.445	386.19
241.91	370.65
242.376	356.24
242.841	400.31
243.307	357.66
243.772	364.44
244.238	387.04
244.703	373.76
245.168	373.48
245.633	368.39
246.099	355.96
246.564	381.11
247.029	366.7
247.494	364.16
247.959	384.49
248.424	357.94
248.889	365
249.353	438.71
249.818	359.92
250.283	377.43
250.748	373.2
251.212	390.14
251.677	372.07
252.141	387.32
252.606	397.2
253.07	378.85
253.535	358.5
253.999	354.27
254.463	339.57
254.927	365
255.392	409.91
255.856	398.05
256.32	380.82
256.784	350.87
257.248	399.18
257.712	400.03
258.176	447.74
258.64	396.64
259.103	370.65
259.567	354.55
260.031	391.56
260.495	379.41
260.958	412.17
261.422	394.94
261.885	390.99
262.349	394.66
262.812	397.77
263.275	408.78
263.739	395.23
264.202	392.4
264.665	409.06
265.128	433.91
265.591	368.96
266.054	383.08
266.517	382.23
266.98	374.61
267.443	378.85
267.906	386.19
268.369	376.3
268.832	383.08
269.294	392.97
269.757	422.9
270.22	390.71
270.682	416.97
271.145	416.12
271.607	386.19
272.07	462.13
272.532	376.59
272.994	388.45
273.456	395.51
273.919	458.46
274.381	375.74
274.843	425.44
275.305	399.46
275.767	368.39
276.229	392.4
276.691	392.12
277.153	382.23
277.614	415.84
278.076	400.31
278.538	418.95
279	396.64
279.461	382.23
279.923	443.5
280.384	399.46
280.846	380.82
281.307	372.63
281.769	379.41
282.23	372.07
282.691	446.04
283.152	377.72
283.613	389.01
284.075	374.33
284.536	394.38
284.997	394.66
285.458	379.69
285.918	392.97
286.379	415.28
286.84	438.14
287.301	367.26
287.762	415.84
288.222	379.69
288.683	379.41
289.143	394.1
289.604	406.52
290.064	383.08
290.525	419.51
290.985	453.1
291.445	391.56
291.906	383.08
292.366	391.56
292.826	398.05
293.286	391.27
293.746	396.92
294.206	421.2
294.666	431.08
295.126	421.77
295.586	358.79
296.046	401.16
296.506	414.15
296.965	436.73
297.425	397.2
297.884	424.59
298.344	406.24
298.804	406.24
299.263	420.92
299.722	388.17
300.182	395.51
300.641	394.1
301.1	376.87
301.559	408.78
302.019	388.73
302.478	392.97
302.937	410.19
303.396	419.79
303.855	465.51
304.314	417.25
304.772	558
305.231	376.59
305.69	424.87
306.149	443.79
306.607	402.85
307.066	433.06
307.524	420.64
307.983	415.84
308.441	420.64
308.9	452.82
309.358	414.15
309.816	473.13
310.275	379.98
310.733	411.89
311.191	412.17
311.649	429.39
312.107	422.05
312.565	384.21
313.023	394.38
313.481	422.33
313.939	416.97
314.397	424.87
314.854	407.65
315.312	434.47
315.77	425.44
316.227	374.61
316.685	419.79
317.142	388.73
317.6	454.51
318.057	416.69
318.514	400.88
318.972	417.25
319.429	451.12
319.886	407.09
320.343	388.45
320.8	421.2
321.257	398.05
321.714	423.75
322.171	452.25
322.628	394.38
323.085	414.43
323.542	410.19
323.998	409.35
324.455	400.88
324.912	421.2
325.368	398.05
325.825	468.05
326.281	423.18
326.738	412.17
327.194	421.77
327.65	409.63
328.107	387.04
328.563	415.28
329.019	448.87
329.475	408.78
329.931	425.16
330.387	410.48
330.843	400.31
331.299	437.58
331.755	409.63
332.211	400.31
332.666	402.85
333.122	396.64
333.578	418.66
334.033	401.72
334.489	426.29
334.944	410.19
335.4	481.03
335.855	451.69
336.31	399.46
336.766	395.79
337.221	421.77
337.676	412.17
338.131	422.62
338.586	449.71
339.041	417.53
339.496	468.9
339.951	430.52
340.406	399.18
340.861	392.4
341.316	409.35
341.771	418.66
342.225	417.25
342.68	413.58
343.134	383.36
343.589	402.29
344.043	404.26
344.498	410.76
344.952	416.12
345.406	601.95
345.861	411.04
346.315	385.06
346.769	398.05
347.223	395.79
347.677	413.58
348.131	418.66
348.585	410.19
349.039	423.18
349.493	414.99
349.947	411.04
350.401	427.7
350.854	387.6
351.308	441.81
351.762	390.43
352.215	440.96
352.669	431.08
353.122	400.59
353.575	394.38
354.029	408.5
354.482	402.85
354.935	432.78
355.388	455.36
355.842	426.57
356.295	427.98
356.748	399.46
357.201	429.67
357.654	420.36
358.106	422.62
358.559	415.84
359.012	406.52
359.465	418.66
359.917	430.52
360.37	396.36
360.823	409.63
361.275	444.07
361.728	432.5
362.18	416.41
362.632	432.5
363.085	437.01
363.537	405.68
363.989	392.4
364.441	408.22
364.893	411.04
365.345	397.49
365.797	415.56
366.249	453.66
366.701	392.4
367.153	418.66
367.605	421.49
368.057	438.71
368.508	427.7
368.96	401.16
369.411	386.19
369.863	423.46
370.314	438.14
370.766	413.3
371.217	432.5
371.669	425.16
372.12	482.16
372.571	430.52
373.022	414.43
373.473	431.37
373.924	447.17
374.375	417.25
374.826	432.78
375.277	429.11
375.728	420.08
376.179	422.62
376.63	421.77
377.08	446.89
377.531	427.98
377.981	414.99
378.432	435.88
378.883	444.35
379.333	423.46
379.783	429.96
380.234	421.49
380.684	422.9
381.134	451.12
381.584	465.8
382.034	445.48
382.485	452.53
382.935	405.96
383.385	443.22
383.834	419.23
384.284	421.77
384.734	410.76
385.184	438.14
385.634	446.61
386.083	426.85
386.533	443.79
386.982	402.85
387.432	474.54
387.881	439.84
388.331	425.44
388.78	465.23
389.229	432.5
389.679	415.84
390.128	436.73
390.577	440.96
391.026	466.08
391.475	445.76
391.924	405.96
392.373	450.84
392.822	418.38
393.27	430.24
393.719	434.19
394.168	435.88
394.617	458.74
395.065	451.97
395.514	420.64
395.962	484.13
396.411	433.06
396.859	429.96
397.307	479.62
397.756	487.8
398.204	443.22
398.652	472.85
399.1	468.62
399.548	453.38
399.996	512.9
400.444	503.6
400.892	448.3
401.34	446.61
401.788	455.07
402.236	447.74
402.683	477.93
403.131	476.52
403.579	484.13
404.026	437.01
404.474	447.46
404.921	473.98
405.369	477.08
405.816	465.8
406.263	467.21
406.71	486.95
407.158	505.85
407.605	485.54
408.052	488.08
408.499	510.93
408.946	535.74
409.393	525.59
409.84	527.84
410.286	529.53
410.733	561.1
411.18	573.22
411.626	631.52
412.073	671.48
412.52	741.51
412.966	858.64
413.413	944.2
413.859	1089.29
414.305	1332.91
414.752	1643.31
415.198	2006.44
415.644	2443.6
416.09	3022.25
416.536	3614.37
416.982	4316.81
417.428	5203.68
417.874	6136.37
418.32	7143.51
418.766	8257.66
419.211	9594.71
419.657	10760.94
420.103	12351.86
420.548	13446.36
420.994	15151.31
421.439	16619.59
421.885	18048.14
422.33	19797.84
422.776	21354.82
423.221	22770.62
423.666	24322.82
424.111	26018.8
424.556	27132.17
425.001	29019.27
425.446	30550
425.891	31990.74
426.336	32884.77
426.781	34391.94
427.226	36660.66
427.671	36882.34
428.115	37803.97
428.56	39531.35
429.005	40963.81
429.449	41155.43
429.894	42312.82
430.338	43239.2
430.782	43052.79
431.227	44456.49
431.671	44464.01
432.115	45904.33
432.559	46556.28
433.003	46219.18
433.447	46964.71
433.891	47023.56
434.335	47195.68
434.779	47763.67
435.223	47826.75
435.667	47768.29
436.111	48260.79
436.554	47940.17
436.998	47301.1
437.442	47274.29
437.885	49502.66
438.328	47790.08
438.772	48019.02
439.215	48610.53
439.659	47961.74
440.102	48418.49
440.545	47548.03
440.988	47490.47
441.431	48466.21
441.874	48072.99
442.317	48406.12
442.76	47709.34
443.203	47091.36
443.646	47950.96
444.089	47391.53
444.531	47954.55
444.974	46632.99
445.417	47780.59
445.859	46772.04
446.302	48041.12
446.744	47440.35
447.186	48771.88
447.629	47630.71
448.071	47728.3
448.513	47804.95
448.956	49316.09
449.398	48430.61
449.84	47240.59
450.282	48044.97
450.724	48600.46
451.166	48308.44
451.607	48263.11
452.049	48397.87
452.491	49828.56
452.933	49235.96
453.374	50038.58
453.816	50523.98
454.257	50154.97
454.699	51315.11
455.14	51053.38
455.582	50834.87
456.023	50656.75
456.464	51021.7
456.905	51670.62
457.347	51893.42
457.788	50757.68
458.229	50996.96
458.67	52193.55
459.111	50362.44
459.552	50547.23
459.992	50196.52
460.433	50155.49
460.874	49051.51
461.315	50378.79
461.755	49505.79
462.196	49005.84
462.636	48323.64
463.077	47972.53
463.517	48123.38
463.957	48379.56
464.398	48214.45
464.838	48372.09
465.278	47238.04
465.718	47573.11
466.158	46445.35
466.598	47085.24
467.038	46460.82
467.478	47157.41
467.918	47196.95
468.358	46599.71
468.798	46420.99
469.237	46190.55
469.677	46283.54
470.117	47142.62
470.556	44818.66
470.996	45212.77
471.435	45715.82
471.874	46280.76
472.314	46113.06
472.753	45037.11
473.192	45268.93
473.631	45062.02
474.07	45196.91
474.509	45471.29
474.948	45775.94
475.387	45081.64
475.826	44058.45
476.265	46002.46
476.704	45523.5
477.143	46188.27
477.581	45697.39
478.02	46567.2
478.458	45012.72
478.897	45857.81
479.335	47222.21
479.774	46516.92
480.212	46790.36
480.65	46653.57
481.089	46609.36
481.527	46014.6
481.965	45587.83
482.403	47850.86
482.841	47616.62
483.279	47622.77
483.717	47760.6
484.155	47257.69
484.592	47693.2
485.03	47981
485.468	46992.48
485.905	47335.58
486.343	47832.14
486.781	47123.74
487.218	46411.35
487.655	46375.07
488.093	45556.04
488.53	47152.56
488.967	46247.56
489.405	46009.29
489.842	45146.31
490.279	45338.46
490.716	44955.64
491.153	45450.11
491.59	44736.78
492.027	43908.6
492.463	43572.27
492.9	42704.79
493.337	42733.4
493.773	42784.65
494.21	41802.43
494.647	41626.49
495.083	40837.53
495.519	40343.27
495.956	40609.31
496.392	39791.85
496.828	39495.41
497.265	38702.03
497.701	38904.96
498.137	38565.98
498.573	37590.01
499.009	38124.22
499.445	37318.1
499.881	36698.58
500.316	37126.37
500.752	36071.13
501.188	35876.11
501.624	35816.49
502.059	34419.99
502.495	34329.23
502.93	34276.54
503.366	34858.76
503.801	33754.06
504.236	33468.98
504.672	32828.94
505.107	32584.4
505.542	31951
505.977	31964.17
506.412	31486.77
506.847	31747.42
507.282	31174.64
507.717	30766.86
508.152	30798.08
508.587	30524.63
509.021	29827
509.456	29378.78
509.891	29426.88
510.325	29321.15
510.76	28950.63
511.194	28754.19
511.628	28853.88
512.063	27967.98
512.497	28077.06
512.931	27566.23
513.366	27332.71
513.8	27442.63
514.234	26532.61
514.668	26625.51
515.102	26806.61
515.536	25929.97
515.969	26168.21
516.403	25621.17
516.837	25154.67
517.271	25249.04
517.704	24747.77
518.138	24705.47
518.571	24506.43
519.005	24182.48
519.438	23909.56
519.871	23767.13
520.305	23220.41
520.738	23166.37
521.171	22563.1
521.604	22873.6
522.037	22427.91
522.47	22199.95
522.903	21700.6
523.336	21655.29
523.769	21463.84
524.202	20846.81
524.634	20989.68
525.067	20665.67
525.5	20479.98
525.932	20239.56
526.365	19798.59
526.797	19657.05
527.23	19643.12
527.662	19008.43
528.094	18876.09
528.527	18753.68
528.959	18383.97
529.391	18235.94
529.823	17653.5
530.255	17647.75
530.687	17262.21
531.119	17085.95
531.551	16998.53
531.982	16581.72
532.414	16417.92
532.846	16149.11
533.277	15941.39
533.709	15393.99
534.14	15378.14
534.572	15263.61
535.003	14977.74
535.435	14714.06
535.866	14570.78
536.297	14190.82
536.728	14221.13
537.159	14134.98
537.59	13758.75
538.022	13625.38
538.452	13467.13
538.883	13193.45
539.314	12976.34
539.745	12749.64
540.176	12625.68
540.606	12263.83
541.037	12282.66
541.468	12075.44
541.898	11992.66
542.328	11876.96
542.759	11609.67
543.189	11546.88
543.619	11346.64
544.05	11150.83
544.48	10998.85
544.91	10847.53
545.34	10662.26
545.77	10508.88
546.2	10433.43
546.63	10251.87
547.06	10313.78
547.489	10009.16
547.919	9750.15
548.349	9755.3
548.778	9727.73
549.208	9557.57
549.637	9409.44
550.067	9210.78
550.496	9222.42
550.926	9063.12
551.355	8865.85
551.784	8862.22
552.213	8713.97
552.642	8573.61
553.071	8612.02
553.5	8401.69
553.929	8105.67
554.358	8158
554.787	7964.47
555.216	7980.11
555.645	7895.9
556.073	7719.5
556.502	7622.06
556.93	7454.46
557.359	7441.64
557.787	7433.52
558.216	7254.41
558.644	7185.21
559.072	7181.01
559.5	7044.59
559.929	7036.45
560.357	7032.25
560.785	6864.39
561.213	6799.97
561.641	6727.36
562.068	6753.41
562.496	6584.9
562.924	6566.45
563.352	6554.07
563.779	6506.35
564.207	6525.6
564.634	6380.52
565.062	6345.67
565.489	6333.26
565.917	6273.83
566.344	6162.29
566.771	6135.58
567.198	6077.37
567.625	5986.03
568.053	5874.46
568.48	5855.1
568.907	5798.34
569.333	5712.07
569.76	5587.2
570.187	5643.28
570.614	5489.59
571.04	11711.47
571.467	5427.84
571.894	5259.7
572.32	5122
572.747	5033.3
573.173	5019.67
573.599	4911.35
574.026	4825.41
574.452	4775.85
574.878	4697.57
575.304	4599.1
575.73	4546.47
576.156	4383.56
576.582	4438.7
577.008	4317.89
577.434	4211.75
577.86	4142.45
578.285	4119.51
578.711	4049.33
579.137	4003.15
579.562	3856.88
579.988	3855.52
580.413	3757.52
580.838	3746.95
581.264	3734.22
581.689	3659.4
582.114	3579.09
582.539	4017.74
582.964	3508.22
583.39	3470.46
583.814	3368.76
584.239	3293.36
584.664	3298.26
585.089	3242.42
585.514	3173.19
585.939	3135
586.363	3069.77
586.788	3055.03
587.212	3080.15
587.637	2966.51
588.061	2944.64
588.485	2843.41
588.91	2846.15
589.334	2821.23
589.758	2763.44
590.182	2749.74
590.606	2647.72
591.03	2696
591.454	2631.53
591.878	2583.49
592.302	2567.84
592.726	2538.44
593.15	2512.61
593.573	2473.03
593.997	2445.8
594.42	2423.52
594.844	2339.01
595.267	2316.42
595.691	2316.42
596.114	2219.38
596.537	2246.41
596.96	2226.83
597.384	2237.86
597.807	2166.68
598.23	2166.13
598.653	2159.78
599.076	2092.68
599.499	2102.62
599.921	2080.8
600.344	2076.1
600.767	2065.32
601.189	2019.16
601.612	2053.16
602.034	1996.2
602.457	2004.78
602.879	2154.26
603.302	1981.82
603.724	1943.36
604.146	1943.08
604.568	1857.51
604.991	1929.24
605.413	1906.81
605.835	1936.71
606.257	1893.24
606.678	1900.44
607.1	1896.01
607.522	1880.23
607.944	1866.65
608.365	1864.16
608.787	1791.54
609.209	1830.35
609.63	1752.7
610.051	1716.35
610.473	1730.23
610.894	1750.76
611.315	1720.51
611.737	1668.87
612.158	1632.2
612.579	1621.64
613	1692.2
613.421	1589.95
613.842	1603.57
614.263	1543.51
614.683	1540.17
615.104	1499.26
615.525	1489.24
615.945	1505.67
616.366	1444.41
616.787	1472.26
617.207	1410.7
617.627	1411.54
618.048	1362.2
618.468	1376.97
618.888	1362.2
619.308	1321.2
619.728	1305.57
620.148	1291.06
620.568	1303.9
620.988	1297.76
621.408	1257
621.828	1265.66
622.248	1207.01
622.668	1237.18
623.087	1217.35
623.507	1169.84
623.926	1189.96
624.346	1200.58
624.765	1181.58
625.185	1155.02
625.604	1098.25
626.023	1143.56
626.442	1102.72
626.861	1138.25
627.28	1078.66
627.699	1045.63
628.118	1059.62
628.537	1065.78
628.956	1019.58
629.375	1058.5
629.794	1005.58
630.212	1008.38
630.631	1001.09
631.049	995.77
631.468	995.77
631.886	930.74
632.305	1017.62
632.723	964.39
633.141	930.18
633.559	909.15
633.978	907.47
634.396	987.37
634.814	916.44
635.232	913.64
635.65	925.7
636.067	920.65
636.485	877.17
636.903	878.29
637.321	874.64
637.738	950.09
638.156	881.38
638.573	841.24
638.991	895.96
639.408	897.93
639.825	819.62
640.243	869.03
640.66	808.95
641.077	815.69
641.494	813.16
641.911	841.8
642.328	833.94
642.745	780.86
643.162	840.96
643.579	796.31
643.995	756.97
644.412	844.61
644.829	751.35
645.245	756.69
645.662	760.34
646.078	753.88
646.495	739.54
646.911	739.54
647.327	755.57
647.743	740.39
648.159	731.39
648.576	697.64
648.992	713.96
649.408	697.36
649.824	693.71
650.239	725.49
650.655	707.21
651.071	703.83
651.487	686.96
651.902	689.21
652.318	660.51
652.733	672.04
653.149	666.14
653.564	682.45
653.979	641.09
654.395	647.56
654.81	634.89
655.225	658.82
655.64	657.13
656.055	669.23
656.47	661.91
656.885	634.61
657.3	628.42
657.715	710.3
658.13	654.6
658.544	628.98
658.959	639.4
659.374	623.91
659.788	612.65
660.202	610.12
660.617	683.02
661.031	625.88
661.445	619.13
661.86	573.78
662.274	632.64
662.688	636.58
663.102	583.64
663.516	624.76
663.93	586.74
664.344	609.27
664.758	588.15
665.171	588.15
665.585	595.75
665.999	584.77
666.412	588.99
666.826	573.5
667.239	570.4
667.653	546.45
668.066	517.69
668.479	572.09
668.892	556.59
669.306	556.03
669.719	563.92
670.132	564.76
670.545	558.85
670.958	552.65
671.37	541.94
671.783	530.1
672.196	588.43
672.609	521.64
673.021	554.62
673.434	514.59
673.846	540.81
674.259	521.92
674.671	508.67
675.084	531.79
675.496	503.88
675.908	518.54
676.32	527.56
676.732	514.59
677.144	529.53
677.556	529.53
677.968	531.79
678.38	553.77
678.792	552.37
679.204	516.85
679.615	530.66
680.027	490.62
680.439	516.85
680.85	531.79
681.262	565.89
681.673	503.6
682.084	519.1
682.496	531.79
682.907	494.57
683.318	508.67
683.729	498.8
684.14	512.05
684.551	496.83
684.962	459.87
685.373	499.36
685.784	497.39
686.194	516.28
686.605	486.95
687.016	504.44
687.426	475.39
687.837	488.08
688.247	451.41
688.657	462.41
689.068	485.26
689.478	475.95
689.888	502.47
690.298	481.31
690.708	465.51
691.118	480.75
691.528	499.93
691.938	488.37
692.348	481.88
692.758	430.52
693.168	494.57
693.577	503.03
693.987	468.05
694.396	468.34
694.806	437.01
695.215	448.3
695.625	449.43
696.034	491.47
696.443	437.29
696.852	528.41
697.262	466.93
697.671	434.19
698.08	468.62
698.489	468.9
698.897	429.11
699.306	451.69
699.715	454.79
700.124	446.89
700.532	444.92
700.941	442.94
701.35	452.82
701.758	474.83
702.166	440.96
702.575	445.2
702.983	435.6
703.391	426.57
703.799	443.22
704.208	434.19
704.616	455.36
705.024	450.84
705.432	445.76
705.839	457.9
706.247	463.26
706.655	536.02
707.063	454.51
707.47	468.34
707.878	442.09
708.285	431.37
708.693	428.54
709.1	440.12
709.508	428.54
709.915	438.71
710.322	426
710.729	516
711.136	403.42
711.543	461.56
711.95	413.02
712.357	440.12
712.764	422.62
713.171	417.53
713.578	418.38
713.984	438.99
714.391	426.57
714.797	401.16
715.204	435.88
715.61	457.33
716.017	397.49
716.423	461.28
716.829	455.92
717.236	433.63
717.642	433.34
718.048	429.39
718.454	455.64
718.86	415.56
719.266	483.29
719.671	446.04
720.077	418.66
720.483	413.86
720.889	444.63
721.294	421.2
721.7	416.12
722.105	405.39
722.511	419.23
722.916	410.48
723.321	417.25
723.726	459.31
724.132	423.75
724.537	446.89
724.942	461.56
725.347	444.92
725.752	448.02
726.156	409.91
726.561	409.06
726.966	411.61
727.371	453.95
727.775	437.29
728.18	413.02
728.584	392.97
728.989	433.34
729.393	460.15
729.798	403.98
730.202	435.04
730.606	414.43
731.01	400.03
731.414	435.6
731.818	403.13
732.222	430.8
732.626	429.67
733.03	411.89
733.434	397.77
733.837	428.54
734.241	420.92
734.645	416.12
735.048	416.41
735.452	417.53
735.855	426
736.258	383.93
736.662	433.63
737.065	429.96
737.468	428.54
737.871	402
738.274	450.84
738.677	407.37
739.08	420.08
739.483	437.01
739.886	391.84
740.289	430.8
740.691	416.12
741.094	384.21
741.497	402.29
741.899	453.1
742.302	394.94
742.704	389.58
743.106	404.83
743.508	378.56
743.911	396.64
744.313	389.58
744.715	420.92
745.117	415.28
745.519	424.31
745.921	387.32
746.323	417.25
746.724	417.82
747.126	403.13
747.528	441.81
747.929	379.41
748.331	424.31
748.732	412.45
749.134	383.93
749.535	379.41
749.936	435.6
750.338	374.61
750.739	427.7
751.14	373.2
751.541	388.17
751.942	408.5
752.343	418.38
752.744	414.71
753.144	391.27
753.545	408.22
753.946	441.53
754.346	413.02
754.747	432.78
755.148	510.64
755.548	376.3
755.948	391.84
756.349	405.68
756.749	398.05
757.149	394.94
757.549	429.11
757.949	415.56
758.349	397.2
758.749	382.8
759.149	363.87
759.549	378
759.949	407.37
760.348	455.07
760.748	404.26
761.148	394.1
761.547	372.07
761.947	390.43
762.346	432.5
762.745	453.1
763.145	389.3
763.544	407.93
763.943	420.92
764.342	364.72
764.741	358.79
765.14	404.83
765.539	372.35
765.938	448.02
766.336	372.35
766.735	378.28
767.134	404.26
767.532	383.36
767.931	405.68
768.329	464.67
768.728	388.73
769.126	419.79
769.525	446.33
769.923	400.03
770.321	396.92
770.719	438.99
771.117	432.5
771.515	404.55
771.913	396.92
772.311	398.33
772.709	379.98
773.106	370.09
773.504	382.23
773.902	406.81
774.299	411.89
774.697	534.61
775.094	404.55
775.491	411.89
775.889	419.79
776.286	400.03
776.683	400.59
777.08	369.24
777.477	376.3
777.874	423.46
778.271	392.12
778.668	406.52
779.065	407.93
779.462	440.4
779.858	386.47
780.255	431.08
780.652	423.75
781.048	437.86
781.444	400.59
781.841	392.12
782.237	397.77
782.633	379.13
783.03	369.24
783.426	369.81
783.822	359.07
784.218	382.23
784.614	384.21
785.01	379.41
785.405	393.53
785.801	378
786.197	374.33
786.593	403.42
786.988	396.64
787.384	416.41
787.779	394.94
788.174	357.09
788.57	396.07
788.965	415.56
789.36	379.69
789.755	399.18
790.15	382.8
790.545	402
790.94	374.33
791.335	378.85
791.73	387.6
792.125	431.08
792.52	407.37
792.914	397.49
793.309	375.17
793.703	406.52
794.098	382.23
794.492	412.17
794.887	386.75
795.281	447.46
795.675	414.43
796.069	457.05
796.463	403.13
796.857	381.11
797.251	383.93
797.645	388.73
798.039	403.13
798.433	378
798.826	382.23
799.22	411.89
799.614	391.27
800.007	408.78
800.401	371.78
800.794	385.91
801.187	394.38
801.581	409.63
801.974	372.63
802.367	406.24
802.76	367.55
803.153	394.94
803.546	365.29
803.939	392.12
804.332	369.24
804.725	369.52
805.117	370.09
805.51	414.43
805.903	396.07
806.295	404.55
806.688	384.49
807.08	389.3
807.472	405.68
807.865	410.76
808.257	401.72
808.649	445.48
809.041	389.01
809.433	419.79
809.825	361.61
810.217	395.79
810.609	370.09
811.001	419.51
811.392	412.45
811.784	387.6
812.175	382.52
812.567	401.16
812.958	398.33
813.35	387.04
813.741	361.33
814.132	383.36
814.524	399.18
814.915	372.07
815.306	354.55
815.697	396.92
816.088	416.12
816.479	427.7
816.87	387.32
817.26	389.86
817.651	437.29
818.042	425.16
818.432	389.86
818.823	380.54
819.213	425.16
819.604	384.21
819.994	387.04
820.384	357.37
820.775	396.07
821.165	372.07
821.555	380.54
821.945	415.56
822.335	355.4
822.725	409.06
823.114	378.56
823.504	387.88
823.894	384.49
824.284	412.17
824.673	376.59
825.063	382.52
825.452	394.66
825.842	415.28
826.231	453.38
826.62	383.36
827.009	421.2
827.399	445.2
827.788	368.11
828.177	387.32
828.566	401.72
828.954	486.11
829.343	391.84
829.732	392.12
830.121	433.06
830.509	424.31
830.898	388.73
831.286	381.39
831.675	411.89
832.063	429.39
832.452	384.21
832.84	379.13
833.228	396.36
833.616	359.35
834.004	404.26
834.392	403.98
834.78	380.26
835.168	378.85
835.556	407.93
835.944	384.78
836.331	392.4
836.719	421.2
837.107	379.41
837.494	429.67
837.881	386.19
838.269	391.84
838.656	370.37
839.043	394.94
839.431	456.77
839.818	380.82
840.205	360.76
840.592	394.1
840.979	357.94
841.366	364.16
841.752	386.47
842.139	401.44
842.526	389.86
842.912	379.69
843.299	369.24
843.685	387.88
844.072	352.85
844.458	371.5
844.844	397.49
845.231	372.35
845.617	367.26
846.003	394.66
846.389	374.89
846.775	358.5
847.161	365.29
847.547	370.65
847.933	363.59
848.318	385.91
848.704	366.13
849.09	392.97
849.475	371.22
849.861	412.17
850.246	376.87
850.631	407.65
851.017	378
851.402	399.75
851.787	402.57
852.172	420.36
852.557	390.99
852.942	403.13
853.327	396.92
853.712	389.86
854.097	378
854.481	379.41
854.866	401.16
855.25	394.94
855.635	354.55
856.019	378
856.404	379.98
856.788	383.08
857.172	363.59
857.557	375.46
857.941	391.84
858.325	340.14
858.709	355.96
859.093	380.26
859.477	390.99
859.86	403.98
860.244	366.98
860.628	406.52
861.012	397.77
861.395	394.1
861.779	403.42
862.162	375.46
862.545	374.04
862.929	366.42
863.312	412.17
863.695	394.66
864.078	382.8
864.461	391.27
864.844	415.28
865.227	427.13
865.61	403.98
865.993	344.94
866.376	380.26
866.758	397.77
867.141	407.93
867.523	396.64
867.906	398.62
868.288	408.78
868.671	372.91
869.053	376.87
869.435	383.93
869.817	425.72
870.199	390.43
870.581	383.65
870.963	366.13
871.345	401.72
871.727	400.31
872.109	385.91
872.491	356.81
872.872	386.75
873.254	384.21
873.635	394.38
874.017	418.66
874.398	378.56
874.779	415.56
875.161	372.07
875.542	401.16
875.923	402.57
876.304	380.26
876.685	377.43
877.066	366.98
877.447	385.34
877.828	393.53
878.208	410.76
878.589	404.26
878.97	424.31
879.35	361.05
879.731	352.85
880.111	367.83
880.491	348.33
880.872	405.68
881.252	378.85
881.632	387.32
882.012	429.39
882.392	417.53
882.772	414.43
883.152	410.76
883.532	390.43
883.912	391.84
884.291	393.53
884.671	352.57
885.051	391.27
885.43	377.72
885.81	365.29
886.189	390.99
886.568	371.22
886.948	369.52
887.327	409.06
887.706	360.76
888.085	413.3
888.464	374.33
888.843	484.13
889.222	393.25
889.601	401.72
889.979	385.06
890.358	396.92
890.737	384.78
891.115	386.19
891.494	384.49
891.872	377.15
892.25	370.37
892.629	396.64
893.007	403.13
893.385	381.11
893.763	357.94
894.141	388.17
894.519	412.45
894.897	350.31
895.275	367.26
895.653	367.55
896.03	430.52
896.408	381.39
896.786	378.56
897.163	386.47
897.541	376.87
897.918	421.49
898.295	370.65
898.673	351.44
899.05	359.07
899.427	522.77
899.804	382.23
900.181	340.7
900.558	405.39
900.935	414.15
901.312	347.2
901.688	375.46
902.065	379.69
902.442	394.38
902.818	352.57
903.195	348.05
903.571	373.2
903.947	387.04
904.324	378.85
904.7	372.63
905.076	396.07
905.452	374.33
905.828	409.91
906.204	392.4
906.58	390.14
906.956	389.58
907.331	418.66
907.707	390.43
908.083	416.97
908.458	405.11
908.834	377.72
909.209	362.74
909.585	410.76
909.96	395.23
910.335	347.2
910.71	355.4
911.086	433.91
911.461	424.59
911.836	384.78
912.21	363.59
912.585	373.48
912.96	385.06
913.335	374.89
913.709	357.37
914.084	363.02
914.459	389.86
914.833	377.72
915.207	391.27
915.582	380.26
915.956	362.74
916.33	388.73
916.704	393.53
917.078	383.65
917.452	403.13
917.826	367.55
918.2	368.68
918.574	365.57
918.948	352.29
919.321	367.83
919.695	346.64
920.068	411.04
920.442	387.6
920.815	368.96
921.189	379.69
921.562	417.82
921.935	371.22
922.308	372.63
922.681	389.86
923.054	370.37
923.427	409.91
923.8	378.28
924.173	368.96
924.546	372.35
924.919	361.05
925.291	374.33
925.664	359.35
926.036	384.49
926.409	365.57
926.781	376.87
927.153	379.41
927.526	385.34
927.898	354.83
928.27	363.02
928.642	370.94
929.014	372.91
929.386	356.53
929.758	363.31
930.129	359.63
930.501	400.03
930.873	360.48
931.244	375.74
931.616	373.76
931.987	358.79
932.359	381.39
932.73	376.3
933.101	401.72
933.472	379.13
933.843	386.19
934.214	398.9
934.585	364.44
934.956	391.84
935.327	443.79
935.698	377.72
936.069	402
936.439	377.72
936.81	379.69
937.18	390.14
937.551	374.04
937.921	444.63
938.292	392.12
938.662	372.63
939.032	410.48
939.402	381.95
939.772	384.21
940.142	376.02
940.512	374.89
940.882	375.74
941.252	388.45
941.621	376.02
941.991	366.7
942.361	390.71
942.73	358.5
943.1	351.72
943.469	380.82
943.838	435.04
944.208	407.09
944.577	368.68
944.946	403.42
945.315	346.07
945.684	398.9
946.053	383.36
946.422	381.95
946.791	375.17
947.159	346.92
947.528	360.76
947.897	401.16
948.265	345.51
948.634	400.59
949.002	366.42
949.371	345.51
949.739	365.29
950.107	382.8
950.475	368.11
950.843	380.54
951.211	396.07
951.579	407.37
951.947	335.05
952.315	359.07
952.683	378.56
953.05	370.37
953.418	383.36
953.785	385.91
954.153	375.74
954.52	363.31
954.888	373.2
955.255	348.61
955.622	366.13
955.989	360.76
956.356	415.28
956.723	369.52
957.09	384.78
957.457	370.94
957.824	372.91
958.191	334.77
958.557	395.79
958.924	387.88
959.291	344.09
959.657	379.13
960.023	467.21
960.39	389.86
960.756	377.72
961.122	398.9
961.488	361.89
961.855	372.63
962.221	378
962.586	375.17
962.952	411.32
963.318	397.49
963.684	442.09
964.05	395.79
964.415	405.96
964.781	373.76
965.146	374.61
965.512	411.32
965.877	374.33
966.242	363.87
966.608	373.76
966.973	357.09
967.338	357.66
967.703	370.65
968.068	369.52
968.433	432.5
968.797	447.46
969.162	372.63
969.527	396.64
969.891	373.76
970.256	370.94
970.62	389.3
970.985	384.78
971.349	357.09
971.714	401.16
972.078	366.13
972.442	370.94
972.806	389.58
973.17	374.61
973.534	407.37
973.898	356.81
974.262	351.72
974.625	384.78
974.989	384.78
975.353	417.82
975.716	418.66
976.08	368.68
976.443	352.01
976.806	381.11
977.17	370.65
977.533	370.65
977.896	372.91
978.259	369.81
978.622	477.65
978.985	380.26
979.348	375.74
979.711	386.75
980.073	361.33
980.436	370.65
980.799	351.44
981.161	388.45
981.524	365.57
981.886	382.23
982.248	380.26
982.611	343.81
982.973	364.44
983.335	351.72
983.697	370.94
984.059	381.95
984.421	385.34
984.783	380.82
985.145	398.33
985.506	362.46
985.868	380.82
986.23	387.6
986.591	365
986.953	383.36
987.314	345.22
987.675	362.46
988.037	4710.98
988.398	497.95
988.759	410.76
989.12	381.11
989.481	376.02
989.842	400.03
990.203	364.44
990.564	381.95
990.924	368.96
991.285	3605.15
991.646	447.17
992.006	346.64
992.367	368.96
992.727	378
993.087	363.59
993.448	365
993.808	359.63
994.168	369.81
994.528	359.92
994.888	391.56
995.248	382.23
995.608	387.6
995.967	367.26
996.327	366.13
996.687	364.44
997.046	329.96
997.406	357.37
997.765	364.72
998.125	363.87
998.484	353.14
998.843	405.96
999.202	381.11
999.561	380.82
999.92	353.7
1000.279	361.33
1000.638	359.92
1000.997	368.11
1001.356	372.63
1001.715	366.7
1002.073	395.79
1002.432	385.62
1002.79	358.22
1003.149	371.5
1003.507	408.22
1003.865	363.02
1004.224	366.13
1004.582	387.32
1004.94	360.76
1005.298	379.69
1005.656	366.7
1006.014	364.72
1006.371	371.22
1006.729	342.11
1007.087	378.56
1007.445	350.59
1007.802	392.12
1008.16	368.68
1008.517	373.2
1008.874	404.55
1009.232	384.49
1009.589	416.12
1009.946	396.36
1010.303	372.07
1010.66	382.23
1011.017	403.7
1011.374	420.64
1011.731	400.03
1012.087	385.91
1012.444	373.2
1012.801	385.62
1013.157	366.42
1013.513	361.61
1013.87	362.46
1014.226	382.8
1014.582	362.18
1014.939	388.17
1015.295	355.96
1015.651	363.31
1016.007	354.27
1016.363	407.09
1016.719	363.02
1017.074	404.26
1017.43	366.42
1017.786	384.21
1018.141	360.2
1018.497	365.85
1018.852	381.67
1019.208	387.88
1019.563	379.13
1019.918	361.61
1020.273	342.68
1020.628	347.48
1020.983	394.38
1021.338	341.83
1021.693	388.45
1022.048	376.02
1022.403	346.64
1022.757	365
1023.112	370.65
1023.467	378.85
1023.821	370.94
1024.175	340.7
1024.53	380.26
1024.884	380.26
1025.238	364.72
1025.592	390.43
1025.946	379.98
1026.3	354.55
1026.654	355.4
1027.008	340.98
1027.362	378.56
1027.716	375.17
1028.069	362.46
1028.423	373.2
1028.777	381.11
1029.13	360.48
1029.483	385.34
1029.837	392.69
1030.19	371.22
1030.543	368.96
1030.896	365.57
1031.249	357.37
1031.602	345.79
1031.955	376.02
1032.308	362.18
1032.661	375.74
1033.013	349.18
1033.366	363.59
1033.719	359.92
1034.071	364.72
1034.424	350.03
1034.776	365.29
1035.128	368.39
1035.48	351.72
1035.833	370.37
1036.185	361.05
1036.537	361.05
1036.889	361.05
