Data from SCSF78-405_irradiation_FLMS019251_03-39-13-815.txt Node
Date: Fri Feb 22 03:39:13 PST 2019
User: mu3e
Spectrometer: FLMS01925
Trigger mode: 0
Integration Time (sec): 3.659600E-1
Scans to average: 10
Electric dark correction enabled: true
Nonlinearity correction enabled: true
Boxcar width: 0
XAxis mode: Wavelengths
Number of Pixels in Spectrum: 2048
>>>>>Begin Spectral Data<<<<<
187.103	-130.79
187.574	-130.79
188.045	-130.79
188.516	-199.08
188.987	-90.13
189.458	-105.77
189.929	-133.63
190.4	-96.38
190.871	-113.73
191.342	-84.73
191.813	-60.86
192.284	-2.06
192.754	-46.93
193.225	6.18
193.696	3.9
194.166	24.91
194.637	71.73
195.107	119.36
195.578	131.55
196.048	142.6
196.518	142.89
196.989	170.65
197.459	214.26
197.929	220.49
198.399	321.2
198.869	288.4
199.339	309.32
199.809	346.64
200.279	362.46
200.749	351.16
201.219	369.81
201.689	357.94
202.159	323.74
202.628	384.21
203.098	411.89
203.568	385.62
204.037	411.32
204.507	407.37
204.976	405.68
205.445	394.38
205.915	377.15
206.384	387.88
206.853	397.2
207.323	440.96
207.792	411.32
208.261	411.61
208.73	391.27
209.199	408.78
209.668	376.59
210.137	396.36
210.606	379.41
211.075	384.49
211.543	383.36
212.012	366.98
212.481	361.61
212.95	387.6
213.418	422.62
213.887	410.19
214.355	384.49
214.824	387.88
215.292	355.4
215.76	359.07
216.229	336.74
216.697	366.7
217.165	378.85
217.633	363.02
218.101	366.7
218.569	449.71
219.037	376.59
219.505	433.91
219.973	366.98
220.441	357.94
220.909	372.63
221.377	355.68
221.844	377.72
222.312	368.11
222.78	362.18
223.247	351.44
223.715	358.79
224.182	344.94
224.65	372.35
225.117	369.52
225.584	356.81
226.052	359.07
226.519	364.44
226.986	369.24
227.453	362.46
227.92	374.04
228.387	399.75
228.854	363.31
229.321	339.85
229.788	400.88
230.255	371.78
230.722	391.27
231.189	359.92
231.655	378.85
232.122	383.93
232.589	359.63
233.055	374.04
233.522	412.45
233.988	348.61
234.454	408.5
234.921	387.88
235.387	442.66
235.853	398.62
236.32	365.57
236.786	352.29
237.252	363.02
237.718	414.99
238.184	354.55
238.65	372.63
239.116	384.21
239.582	372.91
240.047	369.24
240.513	357.37
240.979	372.07
241.445	342.4
241.91	360.48
242.376	368.68
242.841	392.69
243.307	375.74
243.772	365.57
244.238	378
244.703	375.46
245.168	369.52
245.633	366.7
246.099	375.74
246.564	367.83
247.029	383.36
247.494	366.42
247.959	403.42
248.424	392.4
248.889	361.33
249.353	398.33
249.818	372.35
250.283	327.98
250.748	385.91
251.212	389.86
251.677	383.65
252.141	379.13
252.606	374.33
253.07	373.76
253.535	377.72
253.999	381.39
254.463	377.15
254.927	372.35
255.392	372.07
255.856	386.19
256.32	361.61
256.784	390.71
257.248	400.59
257.712	412.45
258.176	421.77
258.64	373.2
259.103	381.11
259.567	364.72
260.031	384.21
260.495	420.64
260.958	404.26
261.422	375.46
261.885	378
262.349	394.1
262.812	356.53
263.275	390.99
263.739	343.53
264.202	392.12
264.665	388.45
265.128	407.37
265.591	386.47
266.054	358.5
266.517	379.98
266.98	398.62
267.443	398.9
267.906	381.11
268.369	371.5
268.832	408.5
269.294	379.69
269.757	379.98
270.22	376.3
270.682	413.3
271.145	400.88
271.607	391.56
272.07	489.78
272.532	390.14
272.994	394.94
273.456	414.99
273.919	451.41
274.381	383.93
274.843	391.56
275.305	428.54
275.767	405.39
276.229	420.08
276.691	379.69
277.153	393.81
277.614	393.81
278.076	379.98
278.538	420.08
279	392.97
279.461	367.83
279.923	447.17
280.384	399.18
280.846	370.09
281.307	396.36
281.769	390.14
282.23	384.78
282.691	402
283.152	390.71
283.613	398.33
284.075	387.04
284.536	400.59
284.997	394.38
285.458	401.72
285.918	379.41
286.379	400.59
286.84	432.78
287.301	391.56
287.762	385.91
288.222	405.11
288.683	375.74
289.143	409.63
289.604	396.07
290.064	405.96
290.525	368.68
290.985	442.09
291.445	377.15
291.906	378.28
292.366	427.42
292.826	417.25
293.286	388.45
293.746	368.68
294.206	413.58
294.666	411.32
295.126	396.92
295.586	413.3
296.046	370.09
296.506	387.88
296.965	416.69
297.425	390.43
297.884	439.27
298.344	374.89
298.804	405.96
299.263	359.63
299.722	388.45
300.182	394.38
300.641	390.43
301.1	379.13
301.559	424.03
302.019	373.76
302.478	407.09
302.937	392.4
303.396	385.06
303.855	482.72
304.314	418.66
304.772	546.17
305.231	389.58
305.69	385.34
306.149	435.32
306.607	393.53
307.066	426.29
307.524	441.53
307.983	390.71
308.441	435.32
308.9	464.39
309.358	431.37
309.816	447.74
310.275	413.58
310.733	392.12
311.191	389.3
311.649	421.49
312.107	424.31
312.565	389.86
313.023	390.14
313.481	404.26
313.939	377.15
314.397	388.73
314.854	389.86
315.312	411.61
315.77	424.03
316.227	384.78
316.685	411.61
317.142	392.69
317.6	416.12
318.057	429.11
318.514	418.95
318.972	398.9
319.429	409.91
319.886	395.23
320.343	418.95
320.8	379.69
321.257	403.98
321.714	426.85
322.171	429.11
322.628	379.98
323.085	404.55
323.542	391.56
323.998	393.25
324.455	395.51
324.912	423.75
325.368	379.41
325.825	436.17
326.281	400.31
326.738	442.09
327.194	394.94
327.65	404.55
328.107	381.67
328.563	372.91
329.019	449.15
329.475	394.1
329.931	428.54
330.387	429.96
330.843	395.51
331.299	415.84
331.755	395.79
332.211	415.28
332.666	407.37
333.122	397.77
333.578	412.45
334.033	398.9
334.489	430.24
334.944	379.98
335.4	494.85
335.855	452.25
336.31	384.78
336.766	391.27
337.221	423.46
337.676	419.79
338.131	405.96
338.586	413.86
339.041	429.67
339.496	447.74
339.951	416.41
340.406	435.32
340.861	400.03
341.316	415.84
341.771	407.37
342.225	406.52
342.68	444.35
343.134	444.63
343.589	403.13
344.043	423.46
344.498	421.49
344.952	405.68
345.406	588.71
345.861	390.14
346.315	396.07
346.769	398.33
347.223	400.31
347.677	409.91
348.131	402.57
348.585	407.09
349.039	381.39
349.493	416.69
349.947	428.83
350.401	414.99
350.854	425.44
351.308	465.8
351.762	412.45
352.215	457.61
352.669	381.39
353.122	419.51
353.575	394.1
354.029	401.44
354.482	397.49
354.935	397.77
355.388	433.06
355.842	423.75
356.295	423.46
356.748	401.72
357.201	420.08
357.654	451.41
358.106	394.94
358.559	418.38
359.012	415.84
359.465	408.22
359.917	425.44
360.37	409.63
360.823	427.13
361.275	415.84
361.728	416.97
362.18	430.8
362.632	403.98
363.085	407.37
363.537	405.11
363.989	407.37
364.441	426.85
364.893	397.2
365.345	414.99
365.797	393.81
366.249	441.81
366.701	413.02
367.153	409.06
367.605	417.53
368.057	425.16
368.508	410.48
368.96	389.58
369.411	395.51
369.863	445.76
370.314	425.72
370.766	414.71
371.217	452.25
371.669	407.09
372.12	467.77
372.571	455.64
373.022	402.57
373.473	419.79
373.924	437.01
374.375	424.31
374.826	430.8
375.277	418.1
375.728	378.56
376.179	385.62
376.63	409.06
377.08	404.26
377.531	427.42
377.981	410.19
378.432	440.12
378.883	429.39
379.333	416.41
379.783	410.76
380.234	424.03
380.684	408.22
381.134	431.65
381.584	424.03
382.034	473.7
382.485	449.43
382.935	416.69
383.385	453.95
383.834	444.92
384.284	418.66
384.734	421.49
385.184	456.49
385.634	432.5
386.083	435.32
386.533	434.19
386.982	445.2
387.432	479.9
387.881	441.53
388.331	440.12
388.78	450.28
389.229	423.46
389.679	409.91
390.128	456.49
390.577	408.5
391.026	408.78
391.475	396.36
391.924	406.52
392.373	437.29
392.822	436.45
393.27	419.51
393.719	425.16
394.168	402.85
394.617	473.41
395.065	409.06
395.514	429.39
395.962	442.94
396.411	420.92
396.859	410.19
397.307	475.95
397.756	450.56
398.204	434.19
398.652	463.26
399.1	442.09
399.548	413.58
399.996	512.62
400.444	459.31
400.892	451.69
401.34	451.41
401.788	447.46
402.236	446.33
402.683	468.62
403.131	473.13
403.579	465.51
404.026	443.5
404.474	449.15
404.921	492.03
405.369	463.54
405.816	468.62
406.263	467.49
406.71	478.21
407.158	468.34
407.605	485.26
408.052	467.77
408.499	529.82
408.946	510.36
409.393	498.24
409.84	518.54
410.286	502.19
410.733	538.84
411.18	554.62
411.626	626.45
412.073	664.45
412.52	694.27
412.966	833.1
413.413	951.21
413.859	1092.65
414.305	1336.26
414.752	1644.98
415.198	1982.37
415.644	2462.3
416.09	3029.63
416.536	3595.65
416.982	4347.23
417.428	5175.93
417.874	6145.63
418.32	7168.16
418.766	8260.52
419.211	9656.85
419.657	10782.46
420.103	12266.63
420.548	13565.89
420.994	15153.57
421.439	16643.91
421.885	18037.64
422.33	19953.01
422.776	21298.08
423.221	22766.17
423.666	24471.98
424.111	26132.88
424.556	27260.73
425.001	29007.79
425.446	30665.14
425.891	31818.86
426.336	32962.3
426.781	34324.84
427.226	36648.68
427.671	36998.34
428.115	37816.47
428.56	39628.09
429.005	41010.29
429.449	41208.86
429.894	42391.81
430.338	43364.14
430.782	42991.77
431.227	44424.9
431.671	44464.01
432.115	45813.08
432.559	46652.3
433.003	46145.21
433.447	46954.52
433.891	47095.44
434.335	47318.98
434.779	47885.5
435.223	47981
435.667	47837.01
436.111	48225.52
436.554	48058.08
436.998	47288.33
437.442	47414.28
437.885	49369.21
438.328	47700.89
438.772	48074.53
439.215	48612.34
439.659	48206.22
440.102	48586.51
440.545	47835.73
440.988	47546.24
441.431	48325.7
441.874	47966.62
442.317	48415.92
442.76	47688.84
443.203	47210.99
443.646	47949.93
444.089	47527.82
444.531	48036.49
444.974	46780.69
445.417	47862.41
445.859	46947.65
446.302	48232.47
446.744	47568.76
447.186	48739.02
447.629	47636.08
448.071	47703.19
448.513	47785.98
448.956	49414.28
449.398	48464.92
449.84	47328.17
450.282	48039.83
450.724	48726.34
451.166	48447.64
451.607	48450.99
452.049	48476.27
452.491	49756.05
452.933	49322.08
453.374	50010.23
453.816	50527.41
454.257	50168.12
454.699	51323.93
455.14	50950.68
455.582	50896.74
456.023	50978.6
456.464	51346.93
456.905	51892.34
457.347	51913.67
457.788	50890.89
458.229	51104.26
458.67	52193.55
459.111	50149.45
459.552	50424.43
459.992	50187.84
460.433	50207.05
460.874	49167.07
461.315	50623.66
461.755	49614.11
462.196	48998.32
462.636	48281.39
463.077	48041.38
463.517	48215.48
463.957	48691.69
464.398	48195.15
464.838	48356.36
465.278	47258.71
465.718	47707.8
466.158	46473.01
466.598	47000.63
467.038	46485.19
467.478	47158.17
467.918	47218.9
468.358	46789.59
468.798	46499.91
469.237	46376.09
469.677	46311.68
470.117	47187.26
470.556	44790.03
470.996	45417.34
471.435	45690.32
471.874	46471.48
472.314	46118.88
472.753	45218.06
473.192	45401.21
473.631	45052.21
474.07	45468.27
474.509	45501.81
474.948	45716.33
475.387	45030.57
475.826	44211.66
476.265	46160.66
476.704	45596.16
477.143	46125.97
477.581	45854.53
478.02	46526.82
478.458	45122.4
478.897	45823.94
479.335	47259.99
479.774	46777.13
480.212	46884.51
480.65	46799.26
481.089	46723.22
481.527	45997.9
481.965	45620.89
482.403	48003.35
482.841	47734.71
483.279	47671.43
483.717	47814.95
484.155	47412.49
484.592	47685.77
485.03	48136.24
485.468	47020.25
485.905	47303.14
486.343	47869.85
486.781	47073.26
487.218	46373.05
487.655	46532.15
488.093	45543.93
488.53	47315.91
488.967	46432.4
489.405	46182.95
489.842	45230.9
490.279	45217.3
490.716	44850.57
491.153	45385.58
491.59	44769.43
492.027	43976.13
492.463	43639.94
492.9	42797.09
493.337	42720.96
493.773	42795.35
494.21	41888.46
494.647	41763.76
495.083	40874.35
495.519	40549.57
495.956	40603.14
496.392	39766.97
496.828	39527.9
497.265	38715.78
497.701	39022.44
498.137	38760.24
498.573	37594.91
499.009	38341.61
499.445	37348.96
499.881	36759.26
500.316	37075.94
500.752	36200.68
501.188	35952.6
501.624	35967.5
502.059	34503.2
502.495	34311.42
502.93	34265.32
503.366	34959.32
503.801	33773.09
504.236	33406.56
504.672	32880.14
505.107	32634.87
505.542	31955.15
505.977	31880.3
506.412	31519.44
506.847	31732.06
507.282	31178.78
507.717	30772.95
508.152	30760.03
508.587	30585.13
509.021	29771.1
509.456	29462.28
509.891	29462.04
510.325	29357.29
510.76	28997.29
511.194	28662.31
511.628	28886.38
512.063	27929.33
512.497	28251.66
512.931	27570.88
513.366	27448.02
513.8	27348.14
514.234	26605.65
514.668	26675.26
515.102	26999.42
515.536	25858.8
515.969	26234.68
516.403	25750.8
516.837	25233.56
517.271	25411.92
517.704	24830.65
518.138	24666.35
518.571	24487.73
519.005	24120.42
519.438	23978.55
519.871	23727.94
520.305	23298.13
520.738	23128.37
521.171	22561.37
521.604	22878.79
522.037	22532.21
522.47	22118.83
522.903	21671.13
523.336	21665.19
523.769	21500.75
524.202	20774.36
524.634	20991.91
525.067	20619
525.5	20451.67
525.932	20337.18
526.365	19855.04
526.797	19701.33
527.23	19660.78
527.662	19060.76
528.094	18937.65
528.527	18757.92
528.959	18466.07
529.391	18176.26
529.823	17656.75
530.255	17692.26
530.687	17318.78
531.119	17136.53
531.551	17067.16
531.982	16557.9
532.414	16471.11
532.846	16159.15
533.277	15971.79
533.709	15443.06
534.14	15491.11
534.572	15248.75
535.003	15078.01
535.435	14792.73
535.866	14680.01
536.297	14211.53
536.728	14352.96
537.159	14120.07
537.59	13883.46
538.022	13627.41
538.452	13439.52
538.883	13207.14
539.314	13056.51
539.745	12714.85
540.176	12656.42
540.606	12242.2
541.037	12311.67
541.468	12048.19
541.898	11973.8
542.328	11864.73
542.759	11595.88
543.189	11565.51
543.619	11380.12
544.05	11204.53
544.48	10925.38
544.91	10870.33
545.34	10612.51
545.77	10580.2
546.2	10419.06
546.63	10295.03
547.06	10284.24
547.489	10114.1
547.919	9797.03
548.349	9816.87
548.778	9689.07
549.208	9542.61
549.637	9443.26
550.067	9288.05
550.496	9342.56
550.926	9149.51
551.355	8888.38
551.784	8917.65
552.213	8684.66
552.642	8530.78
553.071	8522.99
553.5	8384.54
553.929	8187.93
554.358	8192.88
554.787	8050.98
555.216	7954.83
555.645	7818.43
556.073	7743.52
556.502	7645.32
556.93	7469.63
557.359	7398.72
557.787	7427.24
558.216	7331.95
558.644	7265.41
559.072	7146.92
559.5	6978.69
559.929	7029.89
560.357	7044.59
560.785	6909.6
561.213	6899.09
561.641	6733.41
562.068	6786.03
562.496	6580.42
562.924	6627.84
563.352	6587.53
563.779	6518.22
564.207	6518.22
564.634	6394.51
565.062	6358.61
565.489	6299.99
565.917	6241.6
566.344	6200.1
566.771	6121.29
567.198	6125.79
567.625	5997.15
568.053	5913.69
568.48	5875.78
568.907	5808.68
569.333	5778.7
569.76	5589.59
570.187	5637.17
570.614	5461.91
571.04	11255.41
571.467	5388.42
571.894	5265.03
572.32	5170.59
572.747	5061.36
573.173	4969.4
573.599	4928.21
574.026	4853.26
574.452	4791.39
574.878	4650.9
575.304	4616.01
575.73	4527.13
576.156	4404.55
576.582	4386.79
577.008	4314.93
577.434	4243.55
577.86	4113.58
578.285	4128.96
578.711	3988.56
579.137	3972.08
579.562	3879.6
579.988	3881.77
580.413	3814.66
580.838	3717.96
581.264	3707.12
581.689	3645.84
582.114	3628.21
582.539	4010.17
582.964	3517.73
583.39	3470.73
583.814	3367.67
584.239	3272.93
584.664	3266.94
585.089	3241.33
585.514	3199.91
585.939	3139.37
586.363	3113.17
586.788	3075.23
587.212	3001.49
587.637	2955.03
588.061	2923.03
588.485	2849.98
588.91	2844.78
589.334	2811.92
589.758	2818.77
590.182	2780.7
590.606	2671.59
591.03	2654.04
591.454	2634.83
591.878	2552.73
592.302	2604.36
592.726	2559.32
593.15	2509.86
593.573	2466.43
593.997	2452.4
594.42	2378.38
594.844	2350.3
595.267	2318.9
595.691	2252.75
596.114	2236.48
596.537	2273.98
596.96	2256.89
597.384	2221.04
597.807	2192.07
598.23	2180.21
598.653	2147.91
599.076	2122.51
599.499	2128.03
599.921	2056.2
600.344	2028.28
600.767	2049.57
601.189	2003.95
601.612	1989.01
602.034	1993.44
602.457	1975.46
602.879	2129.14
603.302	1983.48
603.724	1939.48
604.146	1883
604.568	1917.06
604.991	1910.14
605.413	1905.43
605.835	1925.36
606.257	1886.6
606.678	1864.71
607.1	1852.8
607.522	1855.85
607.944	1934.22
608.365	1870.25
608.787	1819.54
609.209	1855.29
609.63	1764.63
610.051	1724.4
610.473	1738.55
610.894	1723.29
611.315	1708.02
611.737	1712.46
612.158	1670.81
612.579	1606.08
613	1692.2
613.421	1599.96
613.842	1586.06
614.263	1553.24
614.683	1559.64
615.104	1547.12
615.525	1507.34
615.945	1467.25
616.366	1402.9
616.787	1468.36
617.207	1438.84
617.627	1387.57
618.048	1373.63
618.468	1336.26
618.888	1345.74
619.308	1347.42
619.728	1329.57
620.148	1258.12
620.568	1271.52
620.988	1308.64
621.408	1261.47
621.828	1241.93
622.248	1240.81
622.668	1213.99
623.087	1208.68
623.507	1186.89
623.926	1174.31
624.346	1189.12
624.765	1136.29
625.185	1180.18
625.604	1117.55
626.023	1094.61
626.442	1085.65
626.861	1140.2
627.28	1076.14
627.699	1044.79
628.118	1067.18
628.537	1069.42
628.956	1053.74
629.375	1064.38
629.794	1019.58
630.212	1021.54
630.631	1015.66
631.049	974.76
631.468	996.33
631.886	951.77
632.305	982.32
632.723	910.55
633.141	934.95
633.559	948.97
633.978	915.04
634.396	959.9
634.814	876.04
635.232	913.92
635.65	931.59
636.067	874.08
636.485	898.49
636.903	874.92
637.321	886.99
637.738	946.73
638.156	864.26
638.573	829.45
638.991	869.87
639.408	888.11
639.825	825.52
640.243	854.15
640.66	807.54
641.077	835.06
641.494	817.93
641.911	826.08
642.328	801.36
642.745	807.82
643.162	818.22
643.579	771.3
643.995	789.57
644.412	802.49
644.829	745.45
645.245	728.02
645.662	725.2
646.078	730.55
646.495	732.8
646.911	713.11
647.327	760.34
647.743	715.08
648.159	755.85
648.576	695.39
648.992	744.6
649.408	718.74
649.824	692.58
650.239	695.11
650.655	675.7
651.071	674.86
651.487	683.3
651.902	695.11
652.318	695.11
652.733	678.52
653.149	628.42
653.564	677.67
653.979	661.35
654.395	658.26
654.81	645.31
655.225	643.62
655.64	666.7
656.055	654.32
656.47	634.89
656.885	650.38
657.3	604.48
657.715	657.69
658.13	611.52
658.544	641.65
658.959	587.02
659.374	615.75
659.788	630.11
660.202	598.01
660.617	672.61
661.031	614.34
661.445	634.33
661.86	586.74
662.274	596.88
662.688	614.62
663.102	594.63
663.516	642.21
663.93	593.5
664.344	603.64
664.758	588.15
665.171	581.95
665.585	592.94
665.999	567.86
666.412	566.46
666.826	572.09
667.239	594.91
667.653	572.37
668.066	551.8
668.479	551.8
668.892	520.8
669.306	537.71
669.719	534.61
670.132	577.44
670.545	552.93
670.958	537.71
671.37	566.17
671.783	541.94
672.196	568.43
672.609	551.24
673.021	545.6
673.434	525.02
673.846	537.43
674.259	541.09
674.671	528.41
675.084	518.82
675.496	530.38
675.908	545.88
676.32	517.69
676.732	546.73
677.144	535.74
677.556	534.89
677.968	525.87
678.38	527.28
678.792	524.74
679.204	490.34
679.615	565.61
680.027	524.74
680.439	500.21
680.85	514.03
681.262	548.98
681.673	480.19
682.084	503.88
682.496	517.13
682.907	499.93
683.318	492.88
683.729	475.39
684.14	483.85
684.551	494.01
684.962	487.8
685.373	493.44
685.784	478.77
686.194	497.95
686.605	502.19
687.016	501.9
687.426	473.7
687.837	453.95
688.247	465.8
688.657	473.7
689.068	503.03
689.478	456.49
689.888	449.15
690.298	472.57
690.708	451.41
691.118	492.88
691.528	472.29
691.938	495.7
692.348	468.9
692.758	457.33
693.168	461.56
693.577	451.69
693.987	451.12
694.396	462.98
694.806	434.19
695.215	472
695.625	455.36
696.034	450
696.443	446.04
696.852	461.56
697.262	458.46
697.671	444.35
698.08	447.74
698.489	462.13
698.897	449.71
699.306	438.71
699.715	436.45
700.124	467.77
700.532	418.66
700.941	449.15
701.35	432.78
701.758	480.19
702.166	438.42
702.575	455.36
702.983	421.2
703.391	427.13
703.799	423.46
704.208	444.92
704.616	432.78
705.024	477.08
705.432	427.42
705.839	433.06
706.247	457.9
706.655	522.77
707.063	410.19
707.47	462.13
707.878	425.44
708.285	418.38
708.693	423.18
709.1	461.28
709.508	417.53
709.915	419.79
710.322	465.23
710.729	517.69
711.136	448.3
711.543	435.32
711.95	439.55
712.357	422.9
712.764	431.65
713.171	422.33
713.578	398.62
713.984	418.95
714.391	414.99
714.797	386.47
715.204	413.3
715.61	433.06
716.017	408.5
716.423	426
716.829	448.58
717.236	438.42
717.642	424.03
718.048	441.25
718.454	432.78
718.86	403.7
719.266	487.24
719.671	412.45
720.077	416.97
720.483	449.43
720.889	480.75
721.294	426.29
721.7	409.63
722.105	450.28
722.511	400.31
722.916	422.62
723.321	395.23
723.726	451.41
724.132	403.13
724.537	424.59
724.942	422.9
725.347	422.62
725.752	427.13
726.156	421.2
726.561	420.92
726.966	444.92
727.371	447.17
727.775	453.95
728.18	398.33
728.584	402.57
728.989	430.52
729.393	495.7
729.798	416.69
730.202	441.25
730.606	436.17
731.01	412.17
731.414	410.48
731.818	411.61
732.222	401.16
732.626	388.73
733.03	449.71
733.434	408.22
733.837	424.31
734.241	415.84
734.645	396.07
735.048	380.54
735.452	426.29
735.855	402.85
736.258	396.92
736.662	458.18
737.065	441.25
737.468	433.06
737.871	400.59
738.274	438.42
738.677	409.91
739.08	427.98
739.483	411.32
739.886	419.51
740.289	418.1
740.691	404.55
741.094	412.45
741.497	402.29
741.899	403.42
742.302	399.46
742.704	382.23
743.106	409.91
743.508	405.11
743.911	395.51
744.313	383.08
744.715	391.84
745.117	391.27
745.519	375.74
745.921	393.53
746.323	392.97
746.724	383.93
747.126	403.7
747.528	436.45
747.929	400.03
748.331	402
748.732	411.04
749.134	379.69
749.535	405.39
749.936	450.84
750.338	390.71
750.739	443.22
751.14	429.67
751.541	403.98
751.942	409.63
752.343	387.32
752.744	398.9
753.144	371.78
753.545	420.36
753.946	420.36
754.346	395.79
754.747	460.15
755.148	523.33
755.548	413.58
755.948	417.25
756.349	407.09
756.749	409.63
757.149	385.06
757.549	464.67
757.949	400.88
758.349	387.32
758.749	406.24
759.149	407.37
759.549	400.31
759.949	408.5
760.348	445.76
760.748	396.64
761.148	409.35
761.547	377.15
761.947	403.7
762.346	387.6
762.745	449.43
763.145	400.59
763.544	393.25
763.943	400.03
764.342	352.01
764.741	416.69
765.14	378.28
765.539	385.62
765.938	457.33
766.336	394.1
766.735	363.87
767.134	405.96
767.532	376.3
767.931	404.55
768.329	435.88
768.728	394.66
769.126	384.49
769.525	446.33
769.923	401.72
770.321	401.16
770.719	403.42
771.117	419.23
771.515	409.91
771.913	393.81
772.311	417.82
772.709	379.13
773.106	379.98
773.504	392.12
773.902	380.82
774.299	381.39
774.697	510.36
775.094	415.56
775.491	374.61
775.889	398.05
776.286	371.78
776.683	387.32
777.08	397.49
777.477	384.21
777.874	409.06
778.271	400.59
778.668	374.04
779.065	378.56
779.462	400.31
779.858	409.91
780.255	385.34
780.652	367.55
781.048	448.58
781.444	381.39
781.841	374.04
782.237	406.81
782.633	398.05
783.03	390.43
783.426	375.74
783.822	384.21
784.218	397.49
784.614	390.71
785.01	384.78
785.405	398.33
785.801	347.2
786.197	363.59
786.593	389.86
786.988	371.78
787.384	435.88
787.779	402.57
788.174	386.47
788.57	363.87
788.965	377.72
789.36	391.84
789.755	385.91
790.15	361.89
790.545	384.78
790.94	399.75
791.335	366.13
791.73	348.33
792.125	432.5
792.52	407.37
792.914	391.56
793.309	367.83
793.703	381.11
794.098	385.34
794.492	414.43
794.887	371.22
795.281	431.37
795.675	414.15
796.069	424.59
796.463	387.04
796.857	353.42
797.251	405.68
797.645	379.41
798.039	401.16
798.433	370.37
798.826	357.94
799.22	389.86
799.614	393.81
800.007	397.77
800.401	397.77
800.794	389.58
801.187	385.06
801.581	354.83
801.974	381.95
802.367	387.6
802.76	361.89
803.153	370.09
803.546	382.52
803.939	424.31
804.332	345.22
804.725	384.21
805.117	380.82
805.51	409.63
805.903	386.47
806.295	393.81
806.688	372.91
807.08	361.61
807.472	414.43
807.865	396.92
808.257	372.91
808.649	419.23
809.041	421.77
809.433	398.9
809.825	375.17
810.217	371.5
810.609	373.48
811.001	391.56
811.392	369.52
811.784	439.84
812.175	396.92
812.567	409.06
812.958	411.04
813.35	374.33
813.741	378.28
814.132	385.62
814.524	387.32
814.915	376.59
815.306	379.41
815.697	386.75
816.088	396.64
816.479	414.15
816.87	406.52
817.26	411.32
817.651	413.86
818.042	390.71
818.432	381.67
818.823	417.25
819.213	398.62
819.604	382.8
819.994	379.13
820.384	354.83
820.775	375.17
821.165	377.72
821.555	372.63
821.945	381.11
822.335	397.77
822.725	412.73
823.114	387.32
823.504	373.2
823.894	385.06
824.284	397.49
824.673	393.25
825.063	368.96
825.452	383.93
825.842	370.37
826.231	419.23
826.62	374.89
827.009	431.08
827.399	385.06
827.788	378.28
828.177	362.46
828.566	424.87
828.954	476.24
829.343	386.47
829.732	361.61
830.121	470.03
830.509	427.7
830.898	364.44
831.286	392.97
831.675	399.75
832.063	418.66
832.452	396.36
832.84	363.02
833.228	428.83
833.616	383.08
834.004	399.18
834.392	390.43
834.78	409.91
835.168	381.67
835.556	401.16
835.944	378.56
836.331	411.61
836.719	415.84
837.107	410.76
837.494	404.55
837.881	379.69
838.269	388.45
838.656	367.55
839.043	377.15
839.431	456.77
839.818	368.39
840.205	384.21
840.592	400.31
840.979	382.8
841.366	387.32
841.752	370.37
842.139	401.72
842.526	397.49
842.912	401.44
843.299	368.39
843.685	387.88
844.072	379.98
844.458	381.39
844.844	388.45
845.231	372.07
845.617	402.57
846.003	409.06
846.389	373.76
846.775	365.57
847.161	373.48
847.547	390.99
847.933	384.49
848.318	387.6
848.704	363.31
849.09	361.33
849.475	383.65
849.861	419.79
850.246	368.11
850.631	407.93
851.017	404.26
851.402	348.9
851.787	377.72
852.172	417.82
852.557	378.85
852.942	394.66
853.327	373.2
853.712	412.17
854.097	398.9
854.481	372.91
854.866	410.48
855.25	352.01
855.635	367.55
856.019	384.21
856.404	346.92
856.788	352.85
857.172	369.24
857.557	375.46
857.941	350.03
858.325	365.85
858.709	400.31
859.093	371.5
859.477	375.17
859.86	417.82
860.244	382.52
860.628	436.45
861.012	405.39
861.395	378.28
861.779	374.89
862.162	366.98
862.545	379.13
862.929	367.83
863.312	378.28
863.695	378.28
864.078	370.09
864.461	376.3
864.844	378.85
865.227	420.08
865.61	389.86
865.993	380.26
866.376	365.85
866.758	372.63
867.141	399.18
867.523	396.36
867.906	378.56
868.288	400.88
868.671	405.68
869.053	367.83
869.435	379.98
869.817	397.77
870.199	362.46
870.581	374.33
870.963	397.2
871.345	362.18
871.727	378.28
872.109	363.87
872.491	359.63
872.872	367.83
873.254	378.85
873.635	364.44
874.017	429.67
874.398	359.92
874.779	373.76
875.161	357.09
875.542	393.25
875.923	377.72
876.304	367.26
876.685	383.93
877.066	380.26
877.447	368.11
877.828	382.23
878.208	404.83
878.589	390.99
878.97	444.92
879.35	379.98
879.731	380.82
880.111	378.85
880.491	369.81
880.872	390.99
881.252	371.78
881.632	372.91
882.012	414.15
882.392	389.86
882.772	385.91
883.152	352.01
883.532	357.66
883.912	407.65
884.291	383.36
884.671	369.24
885.051	383.65
885.43	381.95
885.81	357.09
886.189	380.54
886.568	361.61
886.948	371.22
887.327	403.7
887.706	382.23
888.085	420.64
888.464	390.14
888.843	445.48
889.222	402
889.601	400.03
889.979	381.95
890.358	394.1
890.737	387.32
891.115	357.37
891.494	387.88
891.872	357.94
892.25	364.44
892.629	414.15
893.007	427.13
893.385	371.78
893.763	389.86
894.141	372.91
894.519	400.59
894.897	364.72
895.275	395.23
895.653	373.76
896.03	370.65
896.408	379.13
896.786	372.07
897.163	403.7
897.541	356.24
897.918	398.9
898.295	387.04
898.673	357.94
899.05	372.91
899.427	525.87
899.804	360.2
900.181	377.15
900.558	398.9
900.935	400.59
901.312	341.27
901.688	361.89
902.065	403.13
902.442	368.11
902.818	356.24
903.195	380.82
903.571	370.09
903.947	354.27
904.324	379.13
904.7	389.86
905.076	430.24
905.452	383.65
905.828	404.55
906.204	379.13
906.58	362.18
906.956	398.05
907.331	394.1
907.707	417.25
908.083	404.26
908.458	390.43
908.834	390.14
909.209	388.73
909.585	378
909.96	358.79
910.335	367.26
910.71	362.18
911.086	365.85
911.461	388.17
911.836	371.22
912.21	386.47
912.585	378.85
912.96	387.88
913.335	358.79
913.709	379.41
914.084	368.68
914.459	375.74
914.833	366.42
915.207	335.61
915.582	372.91
915.956	358.79
916.33	377.72
916.704	361.05
917.078	378.28
917.452	393.25
917.826	339.29
918.2	371.78
918.574	372.63
918.948	376.59
919.321	368.39
919.695	376.02
920.068	351.16
920.442	374.04
920.815	392.12
921.189	353.14
921.562	420.64
921.935	401.44
922.308	378.28
922.681	382.8
923.054	384.49
923.427	429.96
923.8	386.19
924.173	382.52
924.546	354.27
924.919	350.59
925.291	357.66
925.664	355.96
926.036	391.56
926.409	355.4
926.781	380.26
927.153	379.98
927.526	415.56
927.898	339.85
928.27	362.46
928.642	352.29
929.014	377.43
929.386	374.04
929.758	357.09
930.129	361.05
930.501	391.56
930.873	347.77
931.244	377.72
931.616	343.53
931.987	402.57
932.359	394.94
932.73	352.85
933.101	392.4
933.472	383.36
933.843	389.01
934.214	400.03
934.585	365.85
934.956	345.51
935.327	467.77
935.698	394.94
936.069	393.81
936.439	403.13
936.81	365.29
937.18	408.5
937.551	367.26
937.921	413.58
938.292	364.16
938.662	402
939.032	390.43
939.402	366.13
939.772	359.63
940.142	385.62
940.512	358.22
940.882	368.96
941.252	397.49
941.621	375.74
941.991	373.76
942.361	362.74
942.73	369.24
943.1	367.55
943.469	384.49
943.838	422.05
944.208	375.74
944.577	367.26
944.946	367.26
945.315	359.63
945.684	346.92
946.053	354.27
946.422	393.81
946.791	367.26
947.159	371.5
947.528	349.74
947.897	403.13
948.265	367.26
948.634	352.29
949.002	362.18
949.371	362.46
949.739	344.94
950.107	406.81
950.475	376.3
950.843	370.09
951.211	368.11
951.579	384.21
951.947	337.88
952.315	368.39
952.683	356.53
953.05	339.85
953.418	380.82
953.785	349.46
954.153	383.93
954.52	379.69
954.888	377.72
955.255	371.22
955.622	377.72
955.989	353.14
956.356	386.47
956.723	354.83
957.09	386.47
957.457	382.52
957.824	353.98
958.191	359.07
958.557	376.3
958.924	366.13
959.291	372.91
959.657	355.68
960.023	464.1
960.39	371.78
960.756	374.89
961.122	385.91
961.488	364.72
961.855	367.83
962.221	389.01
962.586	376.02
962.952	398.62
963.318	370.09
963.684	431.08
964.05	409.63
964.415	356.24
964.781	379.13
965.146	377.72
965.512	427.98
965.877	365
966.242	341.83
966.608	365.29
966.973	375.74
967.338	376.3
967.703	400.59
968.068	384.21
968.433	405.39
968.797	424.03
969.162	349.18
969.527	365.57
969.891	365.57
970.256	332.22
970.62	373.2
970.985	355.4
971.349	375.74
971.714	381.95
972.078	357.66
972.442	393.81
972.806	377.15
973.17	366.7
973.534	385.62
973.898	353.98
974.262	378.56
974.625	404.83
974.989	377.15
975.353	424.03
975.716	371.22
976.08	340.98
976.443	362.74
976.806	384.78
977.17	400.88
977.533	374.61
977.896	357.66
978.259	361.89
978.622	515.72
978.985	376.59
979.348	378.28
979.711	361.05
980.073	363.02
980.436	378.28
980.799	368.96
981.161	375.46
981.524	331.09
981.886	335.9
982.248	357.94
982.611	378.85
982.973	379.41
983.335	378
983.697	353.7
984.059	374.33
984.421	333.35
984.783	399.18
985.145	342.68
985.506	341.55
985.868	376.59
986.23	342.68
986.591	356.24
986.953	399.46
987.314	339.85
987.675	323.46
988.037	4186.4
988.398	443.79
988.759	347.77
989.12	388.45
989.481	389.86
989.842	377.43
990.203	338.72
990.564	345.22
990.924	397.49
991.285	3651.81
991.646	437.86
992.006	343.24
992.367	369.24
992.727	359.35
993.087	369.81
993.448	376.3
993.808	331.94
994.168	359.63
994.528	358.5
994.888	371.78
995.248	375.46
995.608	374.33
995.967	366.13
996.327	350.59
996.687	377.15
997.046	336.46
997.406	346.92
997.765	332.22
998.125	347.77
998.484	359.07
998.843	403.42
999.202	387.6
999.561	356.24
999.92	373.76
1000.279	356.53
1000.638	338.16
1000.997	348.9
1001.356	359.35
1001.715	358.22
1002.073	397.49
1002.432	390.99
1002.79	328.83
1003.149	344.94
1003.507	386.19
1003.865	386.75
1004.224	382.8
1004.582	394.1
1004.94	378
1005.298	378.56
1005.656	352.57
1006.014	367.55
1006.371	347.48
1006.729	329.68
1007.087	423.75
1007.445	385.06
1007.802	368.96
1008.16	342.11
1008.517	379.41
1008.874	395.79
1009.232	360.76
1009.589	376.87
1009.946	379.98
1010.303	366.98
1010.66	402
1011.017	360.2
1011.374	389.86
1011.731	368.96
1012.087	363.02
1012.444	356.81
1012.801	375.17
1013.157	339.57
1013.513	337.88
1013.87	367.26
1014.226	376.59
1014.582	361.61
1014.939	359.35
1015.295	370.65
1015.651	330.53
1016.007	366.7
1016.363	395.79
1016.719	374.61
1017.074	398.62
1017.43	370.09
1017.786	372.07
1018.141	374.89
1018.497	361.05
1018.852	359.07
1019.208	374.04
1019.563	366.13
1019.918	370.94
1020.273	371.78
1020.628	370.94
1020.983	397.77
1021.338	330.53
1021.693	407.65
1022.048	345.22
1022.403	354.55
1022.757	367.55
1023.112	363.31
1023.467	348.33
1023.821	351.16
1024.175	333.35
1024.53	363.59
1024.884	350.87
1025.238	349.74
1025.592	365
1025.946	333.64
1026.3	343.24
1026.654	355.68
1027.008	339.57
1027.362	370.37
1027.716	353.98
1028.069	361.33
1028.423	357.66
1028.777	375.17
1029.13	340.98
1029.483	363.02
1029.837	373.2
1030.19	346.35
1030.543	344.94
1030.896	352.29
1031.249	370.37
1031.602	374.33
1031.955	333.07
1032.308	348.33
1032.661	381.39
1033.013	382.8
1033.366	342.4
1033.719	367.83
1034.071	338.44
1034.424	349.18
1034.776	311.87
1035.128	357.37
1035.48	351.72
1035.833	426.57
1036.185	368.39
1036.537	368.39
1036.889	368.39
