Data from SCSF78-405_irradiation_FLMS019251_05-12-10-487.txt Node
Date: Fri Feb 22 05:12:10 PST 2019
User: mu3e
Spectrometer: FLMS01925
Trigger mode: 0
Integration Time (sec): 3.659600E-1
Scans to average: 10
Electric dark correction enabled: true
Nonlinearity correction enabled: true
Boxcar width: 0
XAxis mode: Wavelengths
Number of Pixels in Spectrum: 2048
>>>>>Begin Spectral Data<<<<<
187.103	-127.59
187.574	-127.59
188.045	-127.59
188.516	-160.59
188.987	-135.55
189.458	-120.77
189.929	-127.31
190.4	-141.53
190.871	-96.88
191.342	-70.73
191.813	-51.41
192.284	-32.94
192.754	-24.42
193.225	-7.1
193.696	18.45
194.166	49.39
194.637	95.05
195.107	101.57
195.578	101.29
196.048	157.13
196.518	149.19
196.989	149.76
197.459	191.97
197.929	213.2
198.399	334.55
198.869	292.43
199.339	321.83
199.809	344.73
200.279	357.73
200.749	360.55
201.219	351.79
201.689	367.33
202.159	364.51
202.628	390.5
203.098	409.13
203.568	390.21
204.037	382.59
204.507	408.85
204.976	426.92
205.445	387.67
205.915	397.84
206.384	353.77
206.853	410.55
207.323	417.6
207.792	363.38
208.261	407.16
208.73	399.53
209.199	424.95
209.668	416.19
210.137	436.52
210.606	381.46
211.075	393.89
211.543	408.57
212.012	419.58
212.481	387.39
212.95	400.66
213.418	392.47
213.887	375.24
214.355	422.97
214.824	356.03
215.292	361.97
215.76	350.1
216.229	367.33
216.697	349.82
217.165	348.68
217.633	367.05
218.101	360.27
218.569	451.76
219.037	369.88
219.505	421.28
219.973	392.47
220.441	372.98
220.909	360.27
221.377	377.5
221.844	366.2
222.312	360.55
222.78	344.16
223.247	361.97
223.715	358.57
224.182	363.94
224.65	366.2
225.117	371.85
225.584	351.51
226.052	377.79
226.519	377.79
226.986	363.38
227.453	351.51
227.92	371.29
228.387	379.2
228.854	357.73
229.321	354.05
229.788	360.84
230.255	387.95
230.722	353.21
231.189	381.18
231.655	340.77
232.122	394.17
232.589	371.85
233.055	347.27
233.522	401.23
233.988	350.95
234.454	391.34
234.921	384.28
235.387	419.86
235.853	361.4
236.32	345.29
236.786	339.08
237.252	372.14
237.718	418.73
238.184	362.25
238.65	363.66
239.116	390.21
239.582	358.29
240.047	361.68
240.513	381.46
240.979	394.45
241.445	386.82
241.91	358.29
242.376	335.12
242.841	395.02
243.307	393.89
243.772	324.38
244.238	364.23
244.703	389.08
245.168	365.92
245.633	404.33
246.099	381.18
246.564	383.44
247.029	399.82
247.494	364.23
247.959	366.49
248.424	389.08
248.889	380.61
249.353	389.37
249.818	370.44
250.283	367.33
250.748	364.51
251.212	377.79
251.677	364.51
252.141	387.95
252.606	387.95
253.07	384.28
253.535	358.57
253.999	378.35
254.463	368.46
254.927	358.86
255.392	391.63
255.856	376.66
256.32	360.84
256.784	345.58
257.248	395.86
257.712	384.57
258.176	423.53
258.64	357.44
259.103	355.75
259.567	377.5
260.031	404.33
260.495	394.45
260.958	415.63
261.422	377.22
261.885	383.44
262.349	370.72
262.812	369.31
263.275	372.7
263.739	403.77
264.202	402.08
264.665	407.72
265.128	409.7
265.591	395.02
266.054	381.46
266.517	400.66
266.98	356.6
267.443	361.97
267.906	368.18
268.369	363.1
268.832	407.72
269.294	369.88
269.757	403.49
270.22	370.44
270.682	377.5
271.145	423.82
271.607	407.16
272.07	426.07
272.532	379.2
272.994	411.68
273.456	402.08
273.919	460.51
274.381	378.35
274.843	413.37
275.305	452.04
275.767	402.92
276.229	408.01
276.691	397.56
277.153	391.34
277.614	385.41
278.076	370.72
278.538	428.33
279	381.74
279.461	393.6
279.923	431.72
280.384	389.65
280.846	385.98
281.307	405.46
281.769	371.01
282.23	380.05
282.691	424.66
283.152	386.82
283.613	368.46
284.075	360.27
284.536	402.08
284.997	383.44
285.458	376.09
285.918	392.76
286.379	406.31
286.84	441.88
287.301	371.29
287.762	377.22
288.222	401.23
288.683	415.91
289.143	396.14
289.604	375.24
290.064	377.79
290.525	362.53
290.985	437.93
291.445	426.07
291.906	381.74
292.366	418.73
292.826	350.66
293.286	401.51
293.746	383.15
294.206	395.3
294.666	420.71
295.126	378.07
295.586	401.51
296.046	420.43
296.506	393.32
296.965	446.96
297.425	403.2
297.884	413.09
298.344	396.99
298.804	377.79
299.263	403.49
299.722	394.17
300.182	413.65
300.641	387.67
301.1	375.53
301.559	430.03
302.019	358.57
302.478	396.43
302.937	383.15
303.396	398.69
303.855	481.67
304.314	388.52
304.772	519.46
305.231	403.2
305.69	382.87
306.149	400.1
306.607	414.5
307.066	406.88
307.524	431.72
307.983	424.1
308.441	422.69
308.9	438.78
309.358	399.25
309.816	475.46
310.275	410.83
310.733	393.04
311.191	405.46
311.649	411.68
312.107	427.77
312.565	392.47
313.023	387.39
313.481	406.59
313.939	418.45
314.397	398.4
314.854	414.5
315.312	398.12
315.77	421.28
316.227	383.15
316.685	402.08
317.142	393.89
317.6	433.13
318.057	418.45
318.514	394.17
318.972	396.71
319.429	433.13
319.886	379.2
320.343	384.85
320.8	413.37
321.257	405.46
321.714	415.35
322.171	447.53
322.628	389.08
323.085	382.87
323.542	374.11
323.998	398.12
324.455	391.06
324.912	429.18
325.368	396.43
325.825	450.35
326.281	405.75
326.738	422.4
327.194	427.2
327.65	445.83
328.107	396.99
328.563	415.91
329.019	439.62
329.475	384.57
329.931	402.92
330.387	421.28
330.843	396.99
331.299	412.52
331.755	385.69
332.211	374.11
332.666	403.2
333.122	402.36
333.578	433.13
334.033	404.33
334.489	421.56
334.944	408.01
335.4	484.49
335.855	437.08
336.31	417.6
336.766	396.99
337.221	398.12
337.676	400.38
338.131	432.57
338.586	433.13
339.041	387.95
339.496	411.68
339.951	385.13
340.406	419.86
340.861	415.63
341.316	386.82
341.771	435.39
342.225	422.69
342.68	410.26
343.134	391.63
343.589	426.64
344.043	404.9
344.498	390.78
344.952	388.24
345.406	629.9
345.861	405.18
346.315	418.45
346.769	440.47
347.223	416.76
347.677	401.23
348.131	430.31
348.585	412.24
349.039	433.7
349.493	415.63
349.947	418.45
350.401	414.22
350.854	416.76
351.308	478.85
351.762	409.7
352.215	457.68
352.669	412.52
353.122	414.78
353.575	405.46
354.029	418.73
354.482	392.76
354.935	419.58
355.388	444.99
355.842	419.3
356.295	428.33
356.748	412.24
357.201	430.03
357.654	439.06
358.106	396.99
358.559	421.84
359.012	423.25
359.465	402.64
359.917	442.16
360.37	377.5
360.823	407.72
361.275	451.76
361.728	398.12
362.18	396.14
362.632	420.43
363.085	411.11
363.537	442.45
363.989	406.59
364.441	414.5
364.893	407.16
365.345	401.23
365.797	380.61
366.249	435.11
366.701	419.58
367.153	421.28
367.605	409.42
368.057	391.91
368.508	406.88
368.96	416.19
369.411	420.15
369.863	430.87
370.314	428.61
370.766	420.71
371.217	416.19
371.669	432.85
372.12	427.2
372.571	426.64
373.022	391.91
373.473	423.53
373.924	431.72
374.375	425.23
374.826	416.48
375.277	420.43
375.728	413.37
376.179	397.27
376.63	424.38
377.08	403.2
377.531	404.05
377.981	416.19
378.432	436.24
378.883	407.16
379.333	428.61
379.783	432.85
380.234	422.97
380.684	435.95
381.134	442.73
381.584	459.94
382.034	466.15
382.485	423.82
382.935	404.62
383.385	457.68
383.834	376.66
384.284	437.65
384.734	417.6
385.184	460.79
385.634	434.83
386.083	457.4
386.533	427.49
386.982	388.52
387.432	440.47
387.881	433.41
388.331	442.45
388.78	427.2
389.229	443.29
389.679	412.81
390.128	442.73
390.577	455.15
391.026	458.25
391.475	391.63
391.924	419.3
392.373	426.07
392.822	438.78
393.27	440.47
393.719	432.28
394.168	445.27
394.617	433.7
395.065	410.55
395.514	443.29
395.962	465.59
396.411	439.91
396.859	461.92
397.307	476.02
397.756	446.4
398.204	447.53
398.652	484.2
399.1	450.91
399.548	418.73
399.996	488.15
400.444	441.03
400.892	477.43
401.34	444.7
401.788	430.59
402.236	441.03
402.683	468.41
403.131	465.02
403.579	490.13
404.026	457.68
404.474	457.97
404.921	468.97
405.369	470.1
405.816	469.54
406.263	461.92
406.71	488.44
407.158	475.74
407.605	486.46
408.052	490.97
408.499	518.61
408.946	512.13
409.393	509.31
409.84	538.63
410.286	503.38
410.733	554.41
411.18	538.06
411.626	593.01
412.073	654.95
412.52	703.62
412.966	814.35
413.413	960.25
413.859	1107.55
414.305	1330.75
414.752	1640.33
415.198	1976.63
415.644	2446.42
416.09	3016.04
416.536	3631.26
416.982	4387.4
417.428	5243.23
417.874	6172.67
418.32	7168.75
418.766	8332.36
419.211	9663.36
419.657	10876.02
420.103	12349.64
420.548	13565.95
420.994	15290.61
421.439	16657.76
421.885	18055.94
422.33	19936.66
422.776	21494.86
423.221	22838.84
423.666	24545.86
424.111	26290.17
424.556	27313.92
425.001	29127.54
425.446	30716.91
425.891	32034.2
426.336	33097.44
426.781	34551.08
427.226	36675.16
427.671	37191.56
428.115	38119.87
428.56	39832.55
429.005	41163.41
429.449	41377.44
429.894	42687.69
430.338	43595.55
430.782	43209.84
431.227	44628.39
431.671	44873.5
432.115	46173.39
432.559	46994.58
433.003	46307.69
433.447	47191.66
433.891	47362.21
434.335	47472.63
434.779	48091.05
435.223	48030.65
435.667	48012.66
436.111	48363.13
436.554	48322.93
436.998	47635.89
437.442	47764.76
437.885	49714.79
438.328	47969.77
438.772	48371.64
439.215	48885.61
439.659	48355.66
440.102	48767.54
440.545	48007.78
440.988	47780.14
441.431	48708.82
441.874	48216.32
442.317	48615.25
442.76	47912.51
443.203	47404.63
443.646	48178.75
444.089	47742.98
444.531	48362.36
444.974	46925.81
445.417	48157.65
445.859	47247.55
446.302	48354.11
446.744	47593.14
447.186	49071.04
447.629	47994.94
448.071	47987.23
448.513	48161.77
448.956	49588.58
449.398	48746.59
449.84	47696.08
450.282	48371.38
450.724	48834.33
451.166	48622.74
451.607	48695.12
452.049	48806.88
452.491	50055.45
452.933	49505.33
453.374	50171.08
453.816	50787.97
454.257	50276.61
454.699	51664.51
455.14	51135.78
455.582	51054.78
456.023	51116.05
456.464	51348.07
456.905	51961.82
457.347	51979.93
457.788	51087.81
458.229	51218.47
458.67	52562.04
459.111	50451.68
459.552	50736.28
459.992	50648.61
460.433	50379.12
460.874	49484.21
461.315	50779.75
461.755	49713.48
462.196	49438.32
462.636	48576.5
463.077	48174.89
463.517	48334.52
463.957	48769.61
464.398	48459.05
464.838	48500.6
465.278	47612.59
465.718	47837.08
466.158	46681.59
466.598	47246.78
467.038	46810.77
467.478	47490.79
467.918	47693.26
468.358	46859.37
468.798	46589.61
469.237	46504.29
469.677	46490.58
470.117	47495.9
470.556	45105.1
470.996	45585.12
471.435	45904.9
471.874	46584.28
472.314	46363.47
472.753	45388.16
473.192	45669.68
473.631	45279.57
474.07	45540.72
474.509	45700.99
474.948	46012.89
475.387	45207.8
475.826	44270.33
476.265	46249.65
476.704	45968.88
477.143	46221.52
477.581	46014.92
478.02	46590.63
478.458	45106.11
478.897	46188.33
479.335	47287.88
479.774	46843.08
480.212	47090.91
480.65	47089.13
481.089	46747.94
481.527	46206.32
481.965	45796.72
482.403	48184.41
482.841	47752.2
483.279	47882.23
483.717	47998.79
484.155	47531.97
484.592	48051.21
485.03	48301.29
485.468	47243.97
485.905	47500.51
486.343	48057.63
486.781	47388.53
487.218	46635.85
487.655	46842.83
488.093	45818.2
488.53	47405.4
488.967	46574.62
489.405	46319.35
489.842	45542.99
490.279	45296.7
490.716	45108.12
491.153	45590.67
491.59	44931.31
492.027	44115.57
492.463	43571.83
492.9	43002.29
493.337	42906.17
493.773	42908.16
494.21	42060.17
494.647	41921.26
495.083	41025.67
495.519	40525.44
495.956	40747.42
496.392	39967.07
496.828	39687.24
497.265	38766.2
497.701	39140.75
498.137	38802.31
498.573	37796.92
499.009	38417.27
499.445	37419.07
499.881	37017.99
500.316	37339.96
500.752	36297.31
501.188	36141.58
501.624	35931.15
502.059	34506.67
502.495	34482.27
502.93	34314.9
503.366	34949.13
503.801	33818.51
504.236	33514.16
504.672	32978.45
505.107	32747.08
505.542	31998.85
505.977	32053.95
506.412	31536.33
506.847	31903.03
507.282	31253.22
507.717	30908.14
508.152	30873.99
508.587	30714.72
509.021	29999.37
509.456	29580.27
509.891	29653.02
510.325	29577.34
510.76	29049.13
511.194	28943.6
511.628	28881.8
512.063	28109.16
512.497	28326.53
512.931	27638.49
513.366	27472.06
513.8	27579.76
514.234	26762.81
514.668	26693.46
515.102	26980.37
515.536	25988.19
515.969	26281.59
516.403	25739.08
516.837	25264.82
517.271	25459.88
517.704	24974.8
518.138	24744.14
518.571	24582.52
519.005	24338.14
519.438	24106.94
519.871	23798
520.305	23338.9
520.738	23250.08
521.171	22666.19
521.604	22958.11
522.037	22612.08
522.47	22235.38
522.903	21791.76
523.336	21672.68
523.769	21579.82
524.202	20923.27
524.634	21016.77
525.067	20702.46
525.5	20547.82
525.932	20445.53
526.365	19965.5
526.797	19716.32
527.23	19775.27
527.662	19115.88
528.094	18971.61
528.527	18854.21
528.959	18601.61
529.391	18279.94
529.823	17637.56
530.255	17765.32
530.687	17388.91
531.119	17042.93
531.551	17058.21
531.982	16650.99
532.414	16490.24
532.846	16191.1
533.277	16041.18
533.709	15496.71
534.14	15498.22
534.572	15276.76
535.003	15142.3
535.435	14888.09
535.866	14652.83
536.297	14231.55
536.728	14318.18
537.159	14175.47
537.59	13853.17
538.022	13731.74
538.452	13483.15
538.883	13104.51
539.314	13210
539.745	12795.93
540.176	12645.56
540.606	12291.37
541.037	12374.31
541.468	12157.5
541.898	12046.22
542.328	11936.92
542.759	11693.68
543.189	11541.32
543.619	11442.25
544.05	11185.42
544.48	10981.26
544.91	10859.12
545.34	10743.06
545.77	10515.62
546.2	10428.87
546.63	10328.22
547.06	10255.27
547.489	10080.73
547.919	9753.04
548.349	9797.1
548.778	9838.31
549.208	9630.1
549.637	9429.9
550.067	9283.47
550.496	9322.74
550.926	9095.78
551.355	8870.05
551.784	8957.33
552.213	8707.03
552.642	8596.52
553.071	8541.75
553.5	8408.51
553.929	8136.2
554.358	8249.92
554.787	8015.61
555.216	8040.89
555.645	7856.58
556.073	7831.28
556.502	7648.78
556.93	7486.96
557.359	7466.3
557.787	7425.22
558.216	7321.8
558.644	7246.09
559.072	7144.62
559.5	7062.5
559.929	7025.76
560.357	6983.22
560.785	6877.86
561.213	6922.8
561.641	6763.47
562.068	6751.9
562.496	6630.28
562.924	6572.58
563.352	6569.15
563.779	6523.82
564.207	6535.68
564.634	6477.68
565.062	6354.71
565.489	6279.98
565.917	6262.54
566.344	6281.03
566.771	6192.76
567.198	6122.42
567.625	5998.54
568.053	5939.2
568.48	5960.93
568.907	5825.73
569.333	5751.17
569.76	5596.83
570.187	5605.34
570.614	5465.17
571.04	11411.86
571.467	5444.14
571.894	5265.9
572.32	5190.4
572.747	5092.42
573.173	5087.08
573.599	4947
574.026	4843.96
574.452	4767.88
574.878	4708.37
575.304	4607.49
575.73	4511.88
576.156	4460.55
576.582	4452.48
577.008	4324.42
577.434	4231.76
577.86	4144.94
578.285	4131.99
578.711	4026.45
579.137	4032.66
579.562	3888.33
579.988	3887.25
580.413	3827.99
580.838	3717.21
581.264	3716.67
581.689	3644.28
582.114	3612.81
582.539	4036.44
582.964	3478.13
583.39	3505.85
583.814	3380.8
584.239	3344.88
584.664	3277.63
585.089	3219.33
585.514	3204.88
585.939	3152.53
586.363	3091.95
586.788	3079.12
587.212	3068.2
587.637	2984.07
588.061	2943.34
588.485	2904.23
588.91	2850.05
589.334	2826.78
589.758	2812.54
590.182	2751.45
590.606	2682.36
591.03	2646.15
591.454	2654.65
591.878	2602.78
592.302	2589.05
592.726	2578.62
593.15	2519
593.573	2442.29
593.997	2426.06
594.42	2393.59
594.844	2348.16
595.267	2325.3
595.691	2310.98
596.114	2239.86
596.537	2231.59
596.96	2240.41
597.384	2210.63
597.807	2165.1
598.23	2204.83
598.653	2155.16
599.076	2185.79
599.499	2112.64
599.921	2073.68
600.344	2064.84
600.767	2071.47
601.189	2061.8
601.612	2027.52
602.034	1992.95
602.457	1992.4
602.879	2098.27
603.302	1989.63
603.724	1958.37
604.146	1892.48
604.568	1934.57
604.991	1947.85
605.413	1911.59
605.835	1968.89
606.257	1892.48
606.678	1857.58
607.1	1903.28
607.522	1874.48
607.944	1906.61
608.365	1873.92
608.787	1823.21
609.209	1827.93
609.63	1732.24
610.051	1756.38
610.473	1757.49
610.894	1755.82
611.315	1681.71
611.737	1725.86
612.158	1655.05
612.579	1630.05
613	1684.21
613.421	1603.37
613.842	1613.09
614.263	1556.1
614.683	1520.21
615.104	1539.41
615.525	1534.4
615.945	1491.26
616.366	1461.19
616.787	1487.92
617.207	1412.16
617.627	1391.26
618.048	1388.19
618.468	1368.4
618.888	1343.58
619.308	1339.12
619.728	1327.68
620.148	1264.33
620.568	1303.97
620.988	1339.4
621.408	1260.42
621.828	1281.36
622.248	1233.9
622.668	1245.07
623.087	1220.77
623.507	1170.47
623.926	1183.33
624.346	1176.62
624.765	1182.49
625.185	1146.15
625.604	1133
626.023	1140.27
626.442	1099.71
626.861	1135.8
627.28	1069.49
627.699	1103.91
628.118	1054.65
628.537	1080.69
628.956	1057.73
629.375	1035.34
629.794	1025.81
630.212	1021.89
630.631	1015.17
631.049	1005.93
631.468	1011.81
631.886	981.27
632.305	998.08
632.723	947.64
633.141	917.91
633.559	938.38
633.978	934.18
634.396	940.35
634.814	937.82
635.232	926.89
635.65	936.7
636.067	898
636.485	898.84
636.903	883.13
637.321	858.15
637.738	908.66
638.156	869.1
638.573	837.66
638.991	897.44
639.408	854.78
639.825	846.92
640.243	852.82
640.66	813.23
641.077	834.85
641.494	818.29
641.911	825.87
642.328	804.8
642.745	814.07
643.162	791.88
643.579	795.25
643.995	768.84
644.412	819.41
644.829	730.9
645.245	748.61
645.662	755.92
646.078	733.15
646.495	758.73
646.911	731.46
647.327	750.86
647.743	717.4
648.159	747.48
648.576	680.27
648.992	745.52
649.408	720.78
649.824	701.93
650.239	662.83
650.655	679.15
651.071	672.4
651.487	719.09
651.902	662.27
652.318	680.27
652.733	690.68
653.149	684.21
653.564	665.92
653.979	639.75
654.395	641.72
654.81	619.76
655.225	702.5
655.64	642.85
656.055	669.58
656.47	678.02
656.885	647.07
657.3	616.66
657.715	701.65
658.13	628.77
658.544	647.07
658.959	630.74
659.374	608.5
659.788	634.96
660.202	633.56
660.617	654.67
661.031	563.99
661.445	621.45
661.86	626.24
662.274	632.15
662.688	608.22
663.102	587.37
663.516	623.42
663.93	603.99
664.344	571.6
664.758	593.85
665.171	583.99
665.585	576.67
665.999	585.68
666.412	558.35
666.826	578.64
667.239	589.63
667.653	572.44
668.066	543.7
668.479	600.61
668.892	525.38
669.306	539.75
669.719	557.23
670.132	546.52
670.545	527.63
670.958	536.65
671.37	571.88
671.783	531.58
672.196	536.37
672.609	520.3
673.021	536.65
673.434	547.65
673.846	509.02
674.259	540.6
674.671	503.67
675.084	523.69
675.496	520.3
675.908	532.14
676.32	535.24
676.732	511.56
677.144	544.26
677.556	494.92
677.968	515.23
678.38	539.19
678.792	522.84
679.204	516.92
679.615	555.25
680.027	484.2
680.439	513.82
680.85	522.84
681.262	531.58
681.673	484.77
682.084	511.56
682.496	496.33
682.907	514.38
683.318	497.46
683.729	457.97
684.14	498.59
684.551	474.33
684.962	512.41
685.373	478
685.784	482.51
686.194	486.46
686.605	470.66
687.016	495.49
687.426	479.41
687.837	471.79
688.247	469.25
688.657	466.15
689.068	485.33
689.478	476.31
689.888	485.9
690.298	470.38
690.708	436.24
691.118	462.48
691.528	497.74
691.938	480.82
692.348	465.87
692.758	460.22
693.168	460.22
693.577	493.51
693.987	468.97
694.396	470.66
694.806	448.09
695.215	425.23
695.625	477.15
696.034	470.95
696.443	429.46
696.852	470.95
697.262	459.38
697.671	452.61
698.08	460.22
698.489	463.33
698.897	448.37
699.306	428.33
699.715	479.41
700.124	429.46
700.532	453.17
700.941	453.45
701.35	409.42
701.758	488.72
702.166	440.75
702.575	439.91
702.983	427.2
703.391	437.93
703.799	424.95
704.208	427.77
704.616	453.73
705.024	454.86
705.432	437.93
705.839	421.84
706.247	471.23
706.655	538.06
707.063	411.68
707.47	432
707.878	420.99
708.285	422.69
708.693	444.14
709.1	426.64
709.508	420.15
709.915	424.1
710.322	455.43
710.729	551.03
711.136	450.91
711.543	426.92
711.95	413.93
712.357	456.27
712.764	435.67
713.171	411.68
713.578	426.36
713.984	473.2
714.391	392.47
714.797	405.75
715.204	428.61
715.61	433.98
716.017	408.85
716.423	425.51
716.829	430.03
717.236	408.01
717.642	413.65
718.048	470.38
718.454	437.37
718.86	427.2
719.266	477.15
719.671	411.68
720.077	411.96
720.483	431.16
720.889	460.79
721.294	415.35
721.7	401.23
722.105	422.97
722.511	392.47
722.916	444.7
723.321	416.19
723.726	435.11
724.132	402.08
724.537	408.57
724.942	450.35
725.347	431.72
725.752	408.29
726.156	453.73
726.561	441.6
726.966	404.05
727.371	433.7
727.775	415.63
728.18	391.34
728.584	377.5
728.989	413.93
729.393	497.18
729.798	417.32
730.202	435.95
730.606	380.61
731.01	412.24
731.414	417.04
731.818	413.93
732.222	412.24
732.626	417.6
733.03	405.18
733.434	405.18
733.837	411.11
734.241	430.59
734.645	406.88
735.048	403.77
735.452	420.99
735.855	413.09
736.258	411.39
736.662	452.89
737.065	432.85
737.468	420.99
737.871	394.73
738.274	414.78
738.677	403.49
739.08	408.29
739.483	424.38
739.886	408.29
740.289	421.56
740.691	415.63
741.094	399.82
741.497	385.13
741.899	453.73
742.302	383.72
742.704	369.03
743.106	387.95
743.508	422.4
743.911	411.68
744.313	403.77
744.715	389.65
745.117	401.23
745.519	358.86
745.921	404.9
746.323	409.42
746.724	413.37
747.126	399.25
747.528	429.18
747.929	372.14
748.331	395.86
748.732	403.49
749.134	389.93
749.535	382.59
749.936	435.39
750.338	385.41
750.739	436.24
751.14	427.77
751.541	392.76
751.942	419.3
752.343	410.83
752.744	435.11
753.144	364.79
753.545	416.19
753.946	406.88
754.346	384.28
754.747	433.7
755.148	509.02
755.548	389.93
755.948	403.77
756.349	408.29
756.749	429.74
757.149	407.16
757.549	420.99
757.949	390.5
758.349	398.97
758.749	396.71
759.149	401.51
759.549	390.78
759.949	398.4
760.348	449.5
760.748	404.33
761.148	395.86
761.547	365.92
761.947	408.01
762.346	410.26
762.745	474.9
763.145	410.83
763.544	390.78
763.943	406.03
764.342	378.35
764.741	389.08
765.14	392.19
765.539	401.23
765.938	444.42
766.336	400.1
766.735	386.54
767.134	367.9
767.532	378.92
767.931	380.33
768.329	466.15
768.728	375.53
769.126	380.05
769.525	469.82
769.923	409.13
770.321	374.96
770.719	422.12
771.117	400.1
771.515	389.65
771.913	412.81
772.311	404.05
772.709	399.25
773.106	404.05
773.504	390.21
773.902	380.89
774.299	411.39
774.697	495.2
775.094	413.93
775.491	377.79
775.889	387.11
776.286	381.46
776.683	367.62
777.08	377.22
777.477	366.49
777.874	440.19
778.271	385.41
778.668	369.59
779.065	367.05
779.462	367.33
779.858	369.88
780.255	406.59
780.652	382.02
781.048	455.71
781.444	386.26
781.841	380.89
782.237	403.49
782.633	371.85
783.03	363.66
783.426	373.27
783.822	392.19
784.218	373.55
784.614	379.2
785.01	370.16
785.405	385.13
785.801	386.54
786.197	354.34
786.593	400.66
786.988	361.12
787.384	402.92
787.779	376.94
788.174	400.95
788.57	390.5
788.965	383.44
789.36	359.71
789.755	400.38
790.15	376.09
790.545	378.35
790.94	358.86
791.335	357.73
791.73	375.24
792.125	428.33
792.52	403.77
792.914	392.76
793.309	372.98
793.703	426.92
794.098	415.91
794.492	402.08
794.887	370.44
795.281	409.13
795.675	428.05
796.069	422.4
796.463	408.29
796.857	365.64
797.251	379.48
797.645	388.24
798.039	393.04
798.433	367.9
798.826	390.78
799.22	391.91
799.614	382.59
800.007	408.57
800.401	369.03
800.794	369.31
801.187	391.06
801.581	385.69
801.974	410.55
802.367	423.53
802.76	371.57
803.153	325.51
803.546	391.34
803.939	397.56
804.332	378.92
804.725	367.62
805.117	352.64
805.51	398.97
805.903	365.36
806.295	380.89
806.688	385.41
807.08	405.18
807.472	410.83
807.865	402.64
808.257	407.72
808.649	401.23
809.041	397.27
809.433	379.2
809.825	367.62
810.217	371.29
810.609	368.18
811.001	396.14
811.392	394.73
811.784	409.7
812.175	384.57
812.567	387.39
812.958	414.78
813.35	408.85
813.741	377.5
814.132	378.07
814.524	381.18
814.915	363.1
815.306	421.84
815.697	387.67
816.088	393.04
816.479	406.31
816.87	392.19
817.26	355.75
817.651	444.14
818.042	395.58
818.432	385.98
818.823	399.82
819.213	379.2
819.604	379.2
819.994	379.2
820.384	359.42
820.775	399.53
821.165	389.65
821.555	382.31
821.945	380.05
822.335	393.89
822.725	421.84
823.114	382.87
823.504	391.06
823.894	382.59
824.284	372.98
824.673	403.77
825.063	375.24
825.452	382.31
825.842	376.66
826.231	439.91
826.62	383.44
827.009	390.5
827.399	396.71
827.788	384
828.177	374.4
828.566	395.02
828.954	486.74
829.343	402.08
829.732	331.16
830.121	450.35
830.509	432.85
830.898	400.1
831.286	355.75
831.675	373.83
832.063	387.95
832.452	390.5
832.84	372.98
833.228	421.56
833.616	386.82
834.004	386.54
834.392	395.86
834.78	396.71
835.168	352.92
835.556	401.79
835.944	385.41
836.331	408.29
836.719	406.31
837.107	396.99
837.494	397.56
837.881	379.48
838.269	402.08
838.656	352.08
839.043	364.51
839.431	460.79
839.818	377.5
840.205	376.94
840.592	392.76
840.979	372.42
841.366	361.12
841.752	362.81
842.139	377.5
842.526	350.66
842.912	409.7
843.299	384.28
843.685	387.67
844.072	375.24
844.458	396.43
844.844	367.62
845.231	359.14
845.617	387.67
846.003	386.26
846.389	373.55
846.775	351.79
847.161	388.24
847.547	379.2
847.933	355.18
848.318	368.18
848.704	383.44
849.09	384.85
849.475	358.57
849.861	409.42
850.246	354.05
850.631	413.37
851.017	380.89
851.402	375.53
851.787	391.34
852.172	427.2
852.557	394.17
852.942	367.33
853.327	358.29
853.712	386.54
854.097	415.35
854.481	362.53
854.866	390.5
855.25	385.98
855.635	370.16
856.019	361.97
856.404	379.48
856.788	365.07
857.172	392.19
857.557	364.51
857.941	400.95
858.325	364.23
858.709	385.41
859.093	387.95
859.477	353.21
859.86	409.98
860.244	395.86
860.628	420.71
861.012	391.91
861.395	350.38
861.779	394.73
862.162	359.99
862.545	356.88
862.929	370.72
863.312	408.85
863.695	377.22
864.078	382.59
864.461	377.5
864.844	384.85
865.227	427.49
865.61	347.55
865.993	370.16
866.376	367.33
866.758	394.45
867.141	394.17
867.523	396.99
867.906	371.29
868.288	375.81
868.671	398.69
869.053	369.03
869.435	376.66
869.817	394.45
870.199	355.18
870.581	365.64
870.963	376.37
871.345	388.24
871.727	401.23
872.109	365.36
872.491	371.57
872.872	390.5
873.254	349.25
873.635	365.64
874.017	403.77
874.398	389.65
874.779	389.93
875.161	390.78
875.542	429.46
875.923	397.84
876.304	380.05
876.685	376.94
877.066	348.97
877.447	396.43
877.828	401.23
878.208	422.12
878.589	400.66
878.97	424.95
879.35	391.91
879.731	372.98
880.111	346.71
880.491	370.16
880.872	397.84
881.252	347.27
881.632	367.33
882.012	414.22
882.392	428.33
882.772	390.5
883.152	387.39
883.532	381.74
883.912	409.7
884.291	406.03
884.671	383.44
885.051	411.68
885.43	353.21
885.81	385.13
886.189	368.18
886.568	388.24
886.948	366.2
887.327	391.91
887.706	353.21
888.085	424.66
888.464	367.9
888.843	436.8
889.222	363.1
889.601	391.34
889.979	373.83
890.358	375.53
890.737	367.9
891.115	376.09
891.494	344.73
891.872	371.85
892.25	367.05
892.629	388.52
893.007	428.05
893.385	358.29
893.763	365.07
894.141	384
894.519	375.53
894.897	374.4
895.275	370.16
895.653	352.36
896.03	365.92
896.408	361.68
896.786	359.99
897.163	360.27
897.541	361.97
897.918	382.02
898.295	370.72
898.673	377.79
899.05	372.42
899.427	560.61
899.804	380.33
900.181	376.66
900.558	429.18
900.935	370.72
901.312	319.29
901.688	353.21
902.065	374.68
902.442	384
902.818	353.77
903.195	376.94
903.571	376.94
903.947	356.31
904.324	352.92
904.7	380.05
905.076	408.01
905.452	331.44
905.828	417.6
906.204	373.27
906.58	361.68
906.956	391.34
907.331	431.44
907.707	436.24
908.083	382.02
908.458	373.55
908.834	364.79
909.209	381.74
909.585	367.33
909.96	371.85
910.335	360.27
910.71	365.64
911.086	399.82
911.461	384
911.836	368.46
912.21	377.5
912.585	383.72
912.96	365.64
913.335	357.16
913.709	343.32
914.084	371.29
914.459	371.85
914.833	357.73
915.207	361.68
915.582	369.88
915.956	363.1
916.33	388.24
916.704	353.21
917.078	380.33
917.452	396.71
917.826	354.62
918.2	352.64
918.574	378.35
918.948	350.1
919.321	364.51
919.695	371.57
920.068	402.08
920.442	382.59
920.815	397.27
921.189	367.62
921.562	408.29
921.935	384.85
922.308	355.75
922.681	400.95
923.054	363.38
923.427	406.03
923.8	352.08
924.173	357.16
924.546	346.14
924.919	343.6
925.291	383.72
925.664	385.69
926.036	362.25
926.409	373.83
926.781	363.94
927.153	379.48
927.526	409.98
927.898	371.57
928.27	342.75
928.642	358.01
929.014	370.72
929.386	348.4
929.758	349.25
930.129	356.88
930.501	407.72
930.873	348.97
931.244	372.7
931.616	359.71
931.987	342.47
932.359	408.29
932.73	385.69
933.101	400.38
933.472	347.27
933.843	401.51
934.214	396.43
934.585	367.33
934.956	388.24
935.327	471.79
935.698	351.79
936.069	359.42
936.439	396.43
936.81	365.36
937.18	378.07
937.551	351.79
937.921	423.82
938.292	404.05
938.662	358.57
939.032	388.24
939.402	370.44
939.772	375.53
940.142	353.21
940.512	377.22
940.882	337.66
941.252	376.37
941.621	377.22
941.991	366.49
942.361	403.77
942.73	382.02
943.1	350.95
943.469	361.68
943.838	402.92
944.208	398.69
944.577	354.34
944.946	363.1
945.315	368.18
945.684	357.44
946.053	369.03
946.422	367.05
946.791	350.1
947.159	382.87
947.528	375.81
947.897	380.05
948.265	324.66
948.634	383.44
949.002	335.4
949.371	369.31
949.739	345.01
950.107	376.66
950.475	356.03
950.843	369.59
951.211	392.76
951.579	379.76
951.947	351.23
952.315	386.54
952.683	346.71
953.05	365.07
953.418	392.47
953.785	371.85
954.153	348.12
954.52	375.53
954.888	388.52
955.255	377.5
955.622	355.47
955.989	347.84
956.356	395.86
956.723	344.16
957.09	364.79
957.457	382.31
957.824	354.05
958.191	348.97
958.557	385.98
958.924	379.76
959.291	381.46
959.657	317.31
960.023	465.59
960.39	358.01
960.756	352.08
961.122	371.29
961.488	372.42
961.855	371.29
962.221	378.35
962.586	334.84
962.952	446.96
963.318	391.91
963.684	445.83
964.05	447.81
964.415	400.66
964.781	367.62
965.146	343.32
965.512	409.98
965.877	367.33
966.242	380.05
966.608	360.55
966.973	361.68
967.338	381.46
967.703	399.53
968.068	356.31
968.433	383.72
968.797	438.49
969.162	363.66
969.527	380.89
969.891	361.4
970.256	365.07
970.62	364.51
970.985	354.62
971.349	381.18
971.714	369.59
972.078	363.94
972.442	348.12
972.806	384.28
973.17	351.23
973.534	359.42
973.898	367.33
974.262	384
974.625	398.4
974.989	380.05
975.353	378.63
975.716	385.13
976.08	357.73
976.443	341.05
976.806	372.7
977.17	359.14
977.533	363.66
977.896	354.34
978.259	357.16
978.622	486.18
978.985	390.78
979.348	379.2
979.711	376.09
980.073	367.33
980.436	359.99
980.799	364.23
981.161	389.93
981.524	346.71
981.886	324.66
982.248	364.23
982.611	399.82
982.973	338.51
983.335	354.9
983.697	365.07
984.059	389.37
984.421	342.47
984.783	386.82
985.145	361.68
985.506	364.23
985.868	362.81
986.23	387.11
986.591	378.92
986.953	372.42
987.314	353.49
987.675	345.01
988.037	5264.03
988.398	484.49
988.759	360.27
989.12	396.43
989.481	388.8
989.842	387.39
990.203	379.76
990.564	374.4
990.924	370.72
991.285	3873.99
991.646	465.02
992.006	350.66
992.367	376.66
992.727	400.1
993.087	373.27
993.448	389.93
993.808	362.25
994.168	338.79
994.528	362.53
994.888	359.71
995.248	389.93
995.608	363.66
995.967	378.92
996.327	344.45
996.687	371.57
997.046	339.64
997.406	362.25
997.765	381.18
998.125	342.47
998.484	344.16
998.843	406.31
999.202	355.18
999.561	353.21
999.92	378.07
1000.279	378.63
1000.638	349.53
1000.997	341.62
1001.356	353.21
1001.715	347.27
1002.073	365.92
1002.432	374.11
1002.79	365.64
1003.149	359.99
1003.507	385.13
1003.865	353.49
1004.224	357.73
1004.582	355.18
1004.94	379.76
1005.298	380.33
1005.656	355.18
1006.014	352.92
1006.371	339.36
1006.729	325.51
1007.087	410.83
1007.445	380.05
1007.802	392.47
1008.16	375.24
1008.517	365.07
1008.874	396.71
1009.232	377.22
1009.589	401.51
1009.946	377.22
1010.303	377.22
1010.66	354.34
1011.017	360.55
1011.374	382.59
1011.731	357.73
1012.087	352.92
1012.444	363.66
1012.801	362.81
1013.157	338.23
1013.513	350.1
1013.87	348.12
1014.226	357.73
1014.582	371.29
1014.939	340.77
1015.295	387.95
1015.651	368.46
1016.007	339.92
1016.363	401.23
1016.719	363.94
1017.074	377.5
1017.43	354.9
1017.786	380.33
1018.141	359.71
1018.497	343.6
1018.852	372.98
1019.208	383.15
1019.563	375.53
1019.918	366.2
1020.273	344.16
1020.628	374.4
1020.983	399.25
1021.338	360.27
1021.693	374.4
1022.048	377.5
1022.403	349.25
1022.757	371.57
1023.112	343.6
1023.467	340.49
1023.821	354.9
1024.175	361.68
1024.53	352.92
1024.884	345.86
1025.238	375.53
1025.592	341.62
1025.946	344.73
1026.3	365.36
1026.654	345.01
1027.008	328.34
1027.362	345.86
1027.716	372.7
1028.069	325.79
1028.423	346.71
1028.777	350.95
1029.13	362.25
1029.483	378.35
1029.837	402.36
1030.19	335.12
1030.543	347.27
1030.896	362.53
1031.249	396.71
1031.602	356.03
1031.955	348.97
1032.308	362.53
1032.661	402.08
1033.013	373.55
1033.366	347.27
1033.719	360.27
1034.071	370.44
1034.424	358.01
1034.776	341.62
1035.128	344.73
1035.48	373.27
1035.833	446.4
1036.185	389.37
1036.537	389.37
1036.889	389.37
