Data from SCSF78-405_irradiation_FLMS019251_03-01-10-453.txt Node
Date: Fri Feb 22 03:01:10 PST 2019
User: mu3e
Spectrometer: FLMS01925
Trigger mode: 0
Integration Time (sec): 3.659600E-1
Scans to average: 10
Electric dark correction enabled: true
Nonlinearity correction enabled: true
Boxcar width: 0
XAxis mode: Wavelengths
Number of Pixels in Spectrum: 2048
>>>>>Begin Spectral Data<<<<<
187.103	-129.67
187.574	-129.67
188.045	-129.67
188.516	-169.22
188.987	-91
189.458	-99.53
189.929	-127.11
190.4	-120.85
190.871	-119.43
191.342	-104.08
191.813	-66.56
192.284	-24.79
192.754	-19.11
193.225	3.89
193.696	23.19
194.166	25.46
194.637	92.7
195.107	90.43
195.578	121.9
196.048	168.09
196.518	154.77
196.989	159.59
197.459	213.68
197.929	229.81
198.399	331.64
198.869	292.06
199.339	305.35
199.809	319.48
200.279	385.04
200.749	387.02
201.219	352.27
201.689	371.2
202.159	358.77
202.628	368.94
203.098	396.06
203.568	403.12
204.037	392.67
204.507	396.62
204.976	406.79
205.445	387.02
205.915	402.55
206.384	385.04
206.853	379.11
207.323	419.78
207.792	371.77
208.261	414.69
208.73	370.92
209.199	423.16
209.668	427.12
210.137	416.95
210.606	394.93
211.075	400.58
211.543	401.42
212.012	398.32
212.481	346.62
212.95	364.42
213.418	401.99
213.887	385.32
214.355	387.3
214.824	352.84
215.292	366.12
215.76	357.36
216.229	345.21
216.697	364.42
217.165	387.87
217.633	363.85
218.101	379.11
218.569	461.83
219.037	362.72
219.505	408.2
219.973	389.56
220.441	377.98
220.909	363.01
221.377	387.3
221.844	367.81
222.312	339.84
222.78	363.85
223.247	366.68
223.715	350.86
224.182	383.06
224.65	394.36
225.117	369.22
225.584	372.61
226.052	371.48
226.519	367.25
226.986	365.83
227.453	365.83
227.92	350.57
228.387	404.25
228.854	340.4
229.321	343.23
229.788	357.64
230.255	389
230.722	361.88
231.189	380.52
231.655	378.83
232.122	403.12
232.589	356.79
233.055	351.99
233.522	405.38
233.988	371.77
234.454	399.73
234.921	382.78
235.387	433.33
235.853	372.9
236.32	363.29
236.786	387.02
237.252	356.23
237.718	433.04
238.184	368.38
238.65	353.4
239.116	333.62
239.582	400.86
240.047	377.42
240.513	407.63
240.979	385.61
241.445	363.85
241.91	338.14
242.376	338.71
242.841	392.95
243.307	364.99
243.772	379.39
244.238	346.9
244.703	384.19
245.168	367.53
245.633	371.48
246.099	342.94
246.564	396.62
247.029	381.65
247.494	367.25
247.959	371.77
248.424	371.48
248.889	404.25
249.353	406.51
249.818	368.94
250.283	375.16
250.748	353.4
251.212	394.08
251.677	361.88
252.141	379.96
252.606	395.77
253.07	410.18
253.535	385.32
253.999	340.97
254.463	363.29
254.927	376.57
255.392	380.52
255.856	409.05
256.32	361.31
256.784	385.89
257.248	366.96
257.712	395.21
258.176	446.59
258.64	396.34
259.103	387.58
259.567	376.85
260.031	350.29
260.495	390.97
260.958	398.03
261.422	388.15
261.885	380.8
262.349	376.57
262.812	363.01
263.275	367.25
263.739	410.18
264.202	369.79
264.665	396.9
265.128	397.75
265.591	389.56
266.054	375.44
266.517	415.54
266.98	391.54
267.443	349.16
267.906	380.52
268.369	403.96
268.832	385.04
269.294	380.24
269.757	391.54
270.22	375.72
270.682	385.04
271.145	406.79
271.607	385.61
272.07	448.28
272.532	371.48
272.994	393.8
273.456	413.28
273.919	450.26
274.381	403.12
274.843	402.27
275.305	413.85
275.767	385.04
276.229	413.28
276.691	403.96
277.153	377.42
277.614	405.66
278.076	369.79
278.538	399.73
279	379.68
279.461	383.06
279.923	456.19
280.384	394.93
280.846	381.93
281.307	388.43
281.769	377.42
282.23	409.89
282.691	409.05
283.152	376.85
283.613	390.69
284.075	382.5
284.536	413
284.997	373.46
285.458	368.94
285.918	396.9
286.379	389.28
286.84	418.08
287.301	390.97
287.762	378.55
288.222	392.1
288.683	388.71
289.143	381.65
289.604	387.02
290.064	395.77
290.525	398.03
290.985	457.88
291.445	400.29
291.906	366.4
292.366	389.28
292.826	390.41
293.286	420.62
293.746	393.51
294.206	418.36
294.666	406.51
295.126	398.32
295.586	400.29
296.046	369.51
296.506	400.29
296.965	403.12
297.425	363.29
297.884	401.99
298.344	407.63
298.804	406.51
299.263	413
299.722	403.12
300.182	379.11
300.641	384.48
301.1	379.68
301.559	383.35
302.019	378.26
302.478	389.84
302.937	404.53
303.396	412.15
303.855	465.5
304.314	406.22
304.772	536.28
305.231	388.71
305.69	417.23
306.149	409.61
306.607	390.97
307.066	409.33
307.524	424.01
307.983	385.61
308.441	415.54
308.9	462.68
309.358	409.61
309.816	462.96
310.275	407.92
310.733	397.19
311.191	421.47
311.649	423.73
312.107	421.75
312.565	418.36
313.023	410.18
313.481	382.22
313.939	399.16
314.397	389.56
314.854	400.29
315.312	407.63
315.77	409.61
316.227	381.37
316.685	404.25
317.142	392.39
317.6	410.74
318.057	426.55
318.514	431.91
318.972	418.65
319.429	448
319.886	389
320.343	405.94
320.8	376.57
321.257	413
321.714	452.8
322.171	451.39
322.628	413.56
323.085	379.39
323.542	383.91
323.998	408.76
324.455	410.74
324.912	403.12
325.368	390.13
325.825	448
326.281	435.58
326.738	411.02
327.194	405.09
327.65	404.81
328.107	400.01
328.563	395.77
329.019	414.41
329.475	398.6
329.931	444.33
330.387	410.18
330.843	395.49
331.299	412.43
331.755	382.78
332.211	399.45
332.666	386.74
333.122	403.68
333.578	429.94
334.033	388.15
334.489	424.29
334.944	402.55
335.4	497.37
335.855	455.62
336.31	378.55
336.766	380.52
337.221	442.08
337.676	387.58
338.131	421.47
338.586	436.15
339.041	401.99
339.496	438.41
339.951	405.38
340.406	417.52
340.861	383.06
341.316	429.94
341.771	412.43
342.225	436.99
342.68	400.01
343.134	403.12
343.589	435.87
344.043	429.37
344.498	409.61
344.952	407.35
345.406	627.84
345.861	381.37
346.315	410.74
346.769	417.8
347.223	434.74
347.677	392.39
348.131	410.74
348.585	390.97
349.039	409.61
349.493	419.49
349.947	418.65
350.401	417.52
350.854	385.04
351.308	442.36
351.762	401.99
352.215	438.41
352.669	395.21
353.122	397.75
353.575	405.38
354.029	458.44
354.482	410.74
354.935	463.8
355.388	425.14
355.842	408.76
356.295	409.89
356.748	418.08
357.201	409.05
357.654	449.13
358.106	397.75
358.559	399.45
359.012	392.1
359.465	420.9
359.917	416.67
360.37	417.8
360.823	392.95
361.275	435.3
361.728	421.47
362.18	414.13
362.632	438.41
363.085	398.32
363.537	409.05
363.989	389.56
364.441	421.19
364.893	428.81
365.345	404.81
365.797	409.05
366.249	427.68
366.701	410.74
367.153	409.61
367.605	423.16
368.057	394.08
368.508	428.53
368.96	414.41
369.411	420.06
369.863	429.94
370.314	411.87
370.766	422.6
371.217	443.2
371.669	441.79
372.12	494.83
372.571	425.99
373.022	398.6
373.473	444.9
373.924	451.39
374.375	410.74
374.826	428.53
375.277	407.07
375.728	404.53
376.179	427.96
376.63	394.36
377.08	411.59
377.531	407.63
377.981	398.88
378.432	413.56
378.883	444.05
379.333	435.87
379.783	424.86
380.234	433.33
380.684	435.02
381.134	425.42
381.584	408.2
382.034	433.61
382.485	434.45
382.935	405.66
383.385	451.95
383.834	403.12
384.284	438.41
384.734	428.53
385.184	446.87
385.634	399.16
386.083	442.08
386.533	424.29
386.982	423.16
387.432	448.28
387.881	417.23
388.331	441.79
388.78	413.56
389.229	421.47
389.679	424.01
390.128	425.14
390.577	420.9
391.026	414.98
391.475	399.45
391.924	420.34
392.373	398.6
392.822	438.41
393.27	415.82
393.719	422.6
394.168	425.14
394.617	430.5
395.065	435.02
395.514	468.32
395.962	435.3
396.411	426.83
396.859	425.99
397.307	458.44
397.756	468.88
398.204	447.16
398.652	464.37
399.1	449.13
399.548	464.37
399.996	500.48
400.444	453.36
400.892	444.9
401.34	442.36
401.788	449.41
402.236	436.99
402.683	435.87
403.131	469.17
403.579	492.01
404.026	443.49
404.474	470.86
404.921	468.04
405.369	465.5
405.816	480.73
406.263	469.45
406.71	501.89
407.158	504.14
407.605	492.01
408.052	484.12
408.499	525.85
408.946	510.91
409.393	521.34
409.84	503.01
410.286	546.15
410.733	551.22
411.18	553.76
411.626	626.99
412.073	641.63
412.52	724.06
412.966	842.91
413.413	921.75
413.859	1092.07
414.305	1317
414.752	1652.46
415.198	1982.08
415.644	2452.38
416.09	3003.39
416.536	3575.82
416.982	4353.14
417.428	5169.24
417.874	6094.29
418.32	7101.26
418.766	8200.67
419.211	9564.52
419.657	10798.59
420.103	12262.03
420.548	13430.64
420.994	15099.66
421.439	16584.72
421.885	17944.44
422.33	19861.24
422.776	21282.45
423.221	22687.11
423.666	24228.76
424.111	26033.26
424.556	27112.32
425.001	28850.2
425.446	30541.94
425.891	31846.39
426.336	32884.27
426.781	34270.67
427.226	36416.07
427.671	37015.71
428.115	37651.01
428.56	39392.05
429.005	40915.35
429.449	41042.16
429.894	42371.42
430.338	43196.06
430.782	42862.53
431.227	44316.6
431.671	44516.91
432.115	45629.97
432.559	46442.79
433.003	45856.53
433.447	46775.08
433.891	46876.6
434.335	47125.51
434.779	47615.58
435.223	47789.29
435.667	47529.33
436.111	48449.43
436.554	47830.84
436.998	47235.73
437.442	47198.98
437.885	49241.93
438.328	47619.94
438.772	47850.33
439.215	48309.2
439.659	47850.33
440.102	48281.64
440.545	47552.11
440.988	47420.4
441.431	48256.91
441.874	47809.55
442.317	48148.31
442.76	47483.55
443.203	46800.26
443.646	47654.51
444.089	47207.14
444.531	47825.45
444.974	46417.93
445.417	47596.64
445.859	46610.36
446.302	47890.1
446.744	47180.1
447.186	48544.14
447.629	47625.31
448.071	47646.31
448.513	47732.64
448.956	49048.12
449.398	48232.2
449.84	47055.4
450.282	47717.52
450.724	48583.91
451.166	48098.68
451.607	48224.99
452.049	48207.49
452.491	49560.31
452.933	49141.59
453.374	49757.34
453.816	50205.45
454.257	49999.97
454.699	51078.93
455.14	50850.78
455.582	50493.05
456.023	50626.29
456.464	50907.61
456.905	51381.7
457.347	51599.66
457.788	50610.15
458.229	50957.31
458.67	52070.47
459.111	49933.87
459.552	50227.56
459.992	50031.73
460.433	49896.13
460.874	48806.54
461.315	50332.38
461.755	49358.52
462.196	48913.78
462.636	48140.08
463.077	47870.86
463.517	48083.25
463.957	48390.12
464.398	48064.23
464.838	48223.19
465.278	47167.85
465.718	47434.97
466.158	46223.98
466.598	46849.88
467.038	46415.14
467.478	47033.99
467.918	47146.93
468.358	46440.51
468.798	46288.85
469.237	46239.94
469.677	46182.94
470.117	47154.33
470.556	44527.2
470.996	45155.61
471.435	45335.16
471.874	46245.77
472.314	46001.43
472.753	44811.11
473.192	45387.58
473.631	44715.17
474.07	45270.93
474.509	45207.72
474.948	45592.11
475.387	44906.1
475.826	43901.08
476.265	46076.08
476.704	45529.03
477.143	46056.85
477.581	45622.14
478.02	46339.05
478.458	44754.6
478.897	45587.82
479.335	46904.09
479.774	46222.96
480.212	46721.17
480.65	46737.95
481.089	46486.19
481.527	45863.61
481.965	45364.9
482.403	47773.91
482.841	47502.22
483.279	47578.98
483.717	47656.3
484.155	47070.7
484.592	47635.3
485.03	47940.41
485.468	46891.87
485.905	47143.36
486.343	47691.13
486.781	46962.15
487.218	46244.75
487.655	46394.59
488.093	45302.92
488.53	47046.74
488.967	46190.53
489.405	45966.77
489.842	45212
490.279	45056.47
490.716	44735.51
491.153	45333.4
491.59	44499.86
492.027	43976.36
492.463	43361.63
492.9	42611.01
493.337	42524.75
493.773	42762.24
494.21	41824.48
494.647	41526.65
495.083	40752.53
495.519	40322.28
495.956	40393.09
496.392	39614.29
496.828	39446.67
497.265	38649.21
497.701	38938.36
498.137	38473.16
498.573	37580.69
499.009	38073.68
499.445	37271.55
499.881	36751.17
500.316	37011.3
500.752	35947.94
501.188	35796.44
501.624	35780.56
502.059	34357.28
502.495	34137.23
502.93	34076
503.366	34824.08
503.801	33569.68
504.236	33249.02
504.672	32836.24
505.107	32554.64
505.542	31820.06
505.977	31799.09
506.412	31342.15
506.847	31699.86
507.282	31006.59
507.717	30605.36
508.152	30737.81
508.587	30403.12
509.021	29649.77
509.456	29353.61
509.891	29358.01
510.325	29369.97
510.76	28923.5
511.194	28552.08
511.628	28729.5
512.063	27739.23
512.497	28094.41
512.931	27541.99
513.366	27326.58
513.8	27223.74
514.234	26499.25
514.668	26474.49
515.102	26849.48
515.536	25779.5
515.969	26075.71
516.403	25500.82
516.837	25047
517.271	25219.78
517.704	24732.02
518.138	24520.68
518.571	24351.36
519.005	23929.75
519.438	23799.16
519.871	23728.67
520.305	23150.32
520.738	23116.26
521.171	22595.45
521.604	22728.86
522.037	22461.51
522.47	22072.8
522.903	21687.21
523.336	21459.86
523.769	21421.95
524.202	20793.45
524.634	20750.77
525.067	20551.22
525.5	20446.44
525.932	20289.48
526.365	19771.46
526.797	19585.87
527.23	19568.46
527.662	18923.43
528.094	18728.73
528.527	18661.39
528.959	18309.32
529.391	18199.47
529.823	17615.48
530.255	17645.48
530.687	17216.38
531.119	17011.79
531.551	16938.14
531.982	16577.44
532.414	16336.1
532.846	16109.67
533.277	15806.93
533.709	15423.92
534.14	15402.78
534.572	15134.67
535.003	14933.37
535.435	14681.26
535.866	14504.15
536.297	14245.11
536.728	14248.65
537.159	14069.26
537.59	13753.93
538.022	13614.73
538.452	13398.21
538.883	13111.53
539.314	13032.14
539.745	12722.2
540.176	12607.62
540.606	12318.27
541.037	12308.09
541.468	12031.11
541.898	11912.12
542.328	11814.23
542.759	11565.24
543.189	11419.44
543.619	11279.42
544.05	11063.07
544.48	10884.91
544.91	10878.76
545.34	10624.81
545.77	10487.05
546.2	10331.48
546.63	10226.15
547.06	10198.14
547.489	10006.83
547.919	9746.52
548.349	9730.03
548.778	9755.03
549.208	9502.34
549.637	9347.45
550.067	9194.74
550.496	9257.03
550.926	9076.3
551.355	8833.18
551.784	8828.52
552.213	8674.53
552.642	8534.4
553.071	8501.68
553.5	8359.31
553.929	8037.94
554.358	8159.29
554.787	7959.5
555.216	8006.15
555.645	7774.05
556.073	7712.17
556.502	7592.52
556.93	7422.52
557.359	7350
557.787	7407.86
558.216	7237.36
558.644	7152.15
559.072	7138.51
559.5	6976.31
559.929	7012.28
560.357	6925.87
560.785	6843.34
561.213	6839.93
561.641	6733.4
562.068	6777.86
562.496	6573.02
562.924	6510.82
563.352	6540.61
563.779	6501.59
564.207	6477.07
564.634	6382.61
565.062	6391.59
565.489	6254.79
565.917	6197.97
566.344	6184.22
566.771	6147.73
567.198	6103.02
567.625	5984.68
568.053	5882.4
568.48	5887.43
568.907	5851.11
569.333	5708.34
569.76	5534.8
570.187	5582.13
570.614	5456.57
571.04	10913.08
571.467	5394.53
571.894	5227.41
572.32	5115.57
572.747	5074.44
573.173	4982.49
573.599	4888.05
574.026	4762.44
574.452	4757.61
574.878	4638.27
575.304	4590.23
575.73	4488.15
576.156	4363.9
576.582	4434.92
577.008	4365.78
577.434	4181.53
577.86	4117.34
578.285	4088.73
578.711	4048.78
579.137	3986.65
579.562	3854.43
579.988	3872.28
580.413	3755.6
580.838	3708.73
581.264	3643.93
581.689	3646.91
582.114	3545.69
582.539	3988
582.964	3506.3
583.39	3430.48
583.814	3357.59
584.239	3302.06
584.664	3289.53
585.089	3185.44
585.514	3155.71
585.939	3109.61
586.363	3089.68
586.788	3036.17
587.212	3043.27
587.637	2950.09
588.061	2935.32
588.485	2860.91
588.91	2810.81
589.334	2811.36
589.758	2833.54
590.182	2756.3
590.606	2667.74
591.03	2680.9
591.454	2624.93
591.878	2558.48
592.302	2575.24
592.726	2548.87
593.15	2492.53
593.573	2445.23
593.997	2402.59
594.42	2340.92
594.844	2350
595.267	2304
595.691	2283.33
596.114	2243.91
596.537	2230.4
596.96	2191.78
597.384	2201.16
597.807	2142.1
598.23	2127.74
598.653	2113.93
599.076	2066.69
599.499	2076.36
599.921	2049.55
600.344	2039.32
600.767	2050.38
601.189	2061.16
601.612	2016.1
602.034	1988.44
602.457	1977.65
602.879	2128.84
603.302	1960.5
603.724	1931.99
604.146	1936.7
604.568	1906.24
604.991	1886.03
605.413	1929.22
605.835	1950.81
606.257	1906.8
606.678	1854.44
607.1	1897.93
607.522	1842.53
607.944	1898.49
608.365	1856.66
608.787	1772.66
609.209	1810.65
609.63	1720.22
610.051	1724.94
610.473	1712.72
610.894	1722.72
611.315	1677.18
611.737	1698.29
612.158	1655.52
612.579	1660.24
613	1686.35
613.421	1585.21
613.842	1591.6
614.263	1582.15
614.683	1532.36
615.104	1507.32
615.525	1505.65
615.945	1489.23
616.366	1451.64
616.787	1482.54
617.207	1453.31
617.627	1383.09
618.048	1375.56
618.468	1363.57
618.888	1318.67
619.308	1305.28
619.728	1303.32
620.148	1274.3
620.568	1290.76
620.988	1311.42
621.408	1271.23
621.828	1265.92
622.248	1226.27
622.668	1224.59
623.087	1224.59
623.507	1174.85
623.926	1171.22
624.346	1191.06
624.765	1162.55
625.185	1167.59
625.604	1098.51
626.023	1112.22
626.442	1102.14
626.861	1113.06
627.28	1076.12
627.699	1073.88
628.118	1021.53
628.537	1058.77
628.956	1005
629.375	1073.04
629.794	1023.49
630.212	1022.65
630.631	1004.16
631.049	980.06
631.468	996.87
631.886	967.73
632.305	1009.48
632.723	954
633.141	927.36
633.559	933.81
633.978	905.2
634.396	944.18
634.814	927.36
635.232	920.91
635.65	942.78
636.067	893.42
636.485	901
636.903	851.61
637.321	851.61
637.738	922.03
638.156	849.08
638.573	850.21
638.991	888.37
639.408	865.64
639.825	817.64
640.243	849.36
640.66	803.59
641.077	847.4
641.494	819.6
641.911	851.61
642.328	777.19
642.745	795.17
643.162	794.6
643.579	777.75
643.995	753.3
644.412	863.68
644.829	742.06
645.245	757.8
645.662	748.8
646.078	744.3
646.495	730.81
646.911	735.31
647.327	737
647.743	730.81
648.159	741.21
648.576	684.12
648.992	714.22
649.408	710
649.824	701.56
650.239	676.53
650.655	713.66
651.071	686.94
651.487	692.85
651.902	681.87
652.318	652.61
652.733	670.34
653.149	688.06
653.564	661.9
653.979	675.68
654.395	652.89
654.81	674.56
655.225	623.61
655.64	625.3
656.055	660.77
656.47	639.94
656.885	602.21
657.3	629.53
657.715	663.02
658.13	615.45
658.544	663.87
658.959	611.79
659.374	598.27
659.788	641.35
660.202	619.67
660.617	685.53
661.031	603.06
661.445	596.58
661.86	600.52
662.274	647.26
662.688	603.62
663.102	590.67
663.516	599.12
663.93	568.13
664.344	591.79
664.758	575.17
665.171	594.05
665.585	552.07
665.999	589.82
666.412	592.36
666.826	583.62
667.239	607.56
667.653	540.23
668.066	559.39
668.479	577.14
668.892	565.59
669.306	562.77
669.719	541.36
670.132	533.46
670.545	537.41
670.958	543.05
671.37	548.4
671.783	542.77
672.196	558.55
672.609	511.19
673.021	521.62
673.434	521.06
673.846	547.28
674.259	537.97
674.671	522.47
675.084	555.45
675.496	536.85
675.908	496.81
676.32	525.85
676.732	507.81
677.144	508.09
677.556	489.48
677.968	497.94
678.38	524.44
678.792	508.94
679.204	507.53
679.615	536.28
680.027	513.73
680.439	521.34
680.85	519.65
681.262	539.38
681.673	476.5
682.084	528.67
682.496	499.35
682.907	518.8
683.318	488.91
683.729	483.55
684.14	485.81
684.551	478.19
684.962	488.07
685.373	489.76
685.784	487.5
686.194	484.4
686.605	498.22
687.016	485.24
687.426	481.01
687.837	470.58
688.247	460.7
688.657	484.96
689.068	474.53
689.478	466.63
689.888	457.6
690.298	489.76
690.708	479.04
691.118	501.32
691.528	480.45
691.938	460.7
692.348	448.57
692.758	476.5
693.168	480.73
693.577	475.94
693.987	472.55
694.396	474.81
694.806	448.57
695.215	448
695.625	439.82
696.034	464.65
696.443	453.93
696.852	478.19
697.262	446.31
697.671	450.54
698.08	461.26
698.489	464.37
698.897	431.63
699.306	444.33
699.715	460.7
700.124	440.66
700.532	446.31
700.941	459.29
701.35	447.44
701.758	478.76
702.166	456.47
702.575	463.24
702.983	428.53
703.391	426.55
703.799	449.7
704.208	469.45
704.616	445.46
705.024	461.55
705.432	434.45
705.839	436.99
706.247	468.88
706.655	504.71
707.063	451.67
707.47	439.82
707.878	426.55
708.285	460.7
708.693	419.21
709.1	417.23
709.508	444.62
709.915	447.44
710.322	448.85
710.729	511.76
711.136	428.53
711.543	417.23
711.95	398.03
712.357	427.96
712.764	412.15
713.171	422.6
713.578	438.41
713.984	411.02
714.391	414.41
714.797	414.41
715.204	421.19
715.61	437.84
716.017	425.7
716.423	449.13
716.829	439.54
717.236	406.51
717.642	431.63
718.048	433.33
718.454	428.24
718.86	410.46
719.266	492.3
719.671	407.07
720.077	448
720.483	426.83
720.889	462.11
721.294	390.69
721.7	414.98
722.105	419.78
722.511	423.16
722.916	435.87
723.321	399.45
723.726	447.44
724.132	401.99
724.537	435.58
724.942	429.09
725.347	432.76
725.752	405.38
726.156	413.85
726.561	424.01
726.966	436.99
727.371	431.07
727.775	440.66
728.18	409.05
728.584	398.32
728.989	394.93
729.393	470.29
729.798	410.74
730.202	444.62
730.606	427.96
731.01	406.51
731.414	398.32
731.818	405.94
732.222	427.4
732.626	428.53
733.03	416.67
733.434	387.3
733.837	414.69
734.241	411.31
734.645	396.62
735.048	387.87
735.452	407.35
735.855	398.6
736.258	402.27
736.662	452.52
737.065	455.9
737.468	444.33
737.871	389.56
738.274	433.33
738.677	433.04
739.08	424.57
739.483	427.4
739.886	411.87
740.289	432.48
740.691	411.59
741.094	401.42
741.497	379.11
741.899	456.19
742.302	412.15
742.704	396.62
743.106	401.7
743.508	405.66
743.911	376.85
744.313	386.17
744.715	372.33
745.117	391.54
745.519	379.39
745.921	419.21
746.323	417.52
746.724	391.54
747.126	393.51
747.528	427.96
747.929	378.26
748.331	416.95
748.732	411.87
749.134	405.38
749.535	354.53
749.936	419.78
750.338	390.41
750.739	449.98
751.14	425.7
751.541	418.93
751.942	403.4
752.343	392.67
752.744	430.22
753.144	388.15
753.545	390.13
753.946	409.33
754.346	392.95
754.747	447.72
755.148	506.96
755.548	383.63
755.948	382.5
756.349	400.01
756.749	393.8
757.149	385.32
757.549	419.78
757.949	408.76
758.349	404.53
758.749	396.9
759.149	389.28
759.549	403.12
759.949	403.96
760.348	451.39
760.748	388.71
761.148	403.96
761.547	396.9
761.947	408.76
762.346	389.84
762.745	454.49
763.145	415.26
763.544	376
763.943	427.96
764.342	409.05
764.741	418.08
765.14	412.43
765.539	394.64
765.938	453.93
766.336	411.59
766.735	367.81
767.134	397.47
767.532	397.75
767.931	367.25
768.329	468.32
768.728	380.24
769.126	413.28
769.525	445.18
769.923	422.32
770.321	396.06
770.719	415.82
771.117	399.16
771.515	409.33
771.913	393.23
772.311	375.16
772.709	391.26
773.106	399.73
773.504	395.49
773.902	363.29
774.299	369.51
774.697	494.83
775.094	397.19
775.491	376.85
775.889	446.03
776.286	374.59
776.683	374.31
777.08	384.76
777.477	373.18
777.874	453.08
778.271	385.04
778.668	365.55
779.065	376.85
779.462	417.23
779.858	402.55
780.255	424.29
780.652	366.96
781.048	450.82
781.444	412.72
781.841	384.19
782.237	410.46
782.633	392.67
783.03	382.5
783.426	383.35
783.822	381.09
784.218	378.83
784.614	367.25
785.01	392.95
785.405	385.89
785.801	412.43
786.197	389.28
786.593	397.75
786.988	398.88
787.384	428.81
787.779	412.72
788.174	401.99
788.57	402.83
788.965	368.09
789.36	356.23
789.755	416.39
790.15	403.4
790.545	380.8
790.94	368.38
791.335	380.24
791.73	365.27
792.125	401.42
792.52	408.48
792.914	396.06
793.309	364.99
793.703	421.19
794.098	366.68
794.492	389.56
794.887	386.45
795.281	416.11
795.675	412.72
796.069	416.11
796.463	398.32
796.857	394.93
797.251	373.74
797.645	349.44
798.039	395.77
798.433	366.96
798.826	349.73
799.22	387.58
799.614	389.56
800.007	394.08
800.401	394.93
800.794	361.03
801.187	371.48
801.581	347.47
801.974	383.06
802.367	391.54
802.76	387.87
803.153	383.06
803.546	374.59
803.939	373.46
804.332	357.92
804.725	354.81
805.117	397.19
805.51	401.14
805.903	355.66
806.295	402.83
806.688	375.16
807.08	378.83
807.472	409.61
807.865	393.23
808.257	409.33
808.649	414.69
809.041	414.41
809.433	403.96
809.825	378.83
810.217	374.31
810.609	403.12
811.001	407.92
811.392	374.59
811.784	401.42
812.175	378.83
812.567	394.93
812.958	392.67
813.35	380.52
813.741	357.92
814.132	370.64
814.524	377.42
814.915	358.49
815.306	381.65
815.697	380.52
816.088	368.09
816.479	369.79
816.87	376.57
817.26	401.99
817.651	424.29
818.042	416.95
818.432	367.81
818.823	415.54
819.213	400.58
819.604	346.34
819.994	397.19
820.384	360.75
820.775	384.19
821.165	372.61
821.555	381.93
821.945	363.57
822.335	371.77
822.725	401.99
823.114	385.32
823.504	407.07
823.894	377.42
824.284	385.32
824.673	378.83
825.063	366.96
825.452	366.96
825.842	357.36
826.231	428.81
826.62	403.4
827.009	409.05
827.399	388.71
827.788	382.78
828.177	353.4
828.566	404.53
828.954	493.14
829.343	401.99
829.732	393.23
830.121	454.21
830.509	416.95
830.898	384.19
831.286	375.72
831.675	423.73
832.063	384.76
832.452	363.29
832.84	356.23
833.228	394.64
833.616	372.9
834.004	404.53
834.392	367.53
834.78	397.19
835.168	390.97
835.556	408.48
835.944	393.51
836.331	425.42
836.719	396.06
837.107	394.08
837.494	432.76
837.881	365.83
838.269	351.14
838.656	381.09
839.043	378.55
839.431	417.8
839.818	364.7
840.205	379.39
840.592	366.4
840.979	369.22
841.366	388.15
841.752	381.37
842.139	374.31
842.526	386.45
842.912	369.79
843.299	391.82
843.685	377.13
844.072	384.19
844.458	377.42
844.844	385.04
845.231	375.44
845.617	420.06
846.003	374.87
846.389	389.28
846.775	404.81
847.161	379.11
847.547	389.28
847.933	347.18
848.318	379.96
848.704	375.16
849.09	373.18
849.475	376.57
849.861	395.49
850.246	368.38
850.631	440.95
851.017	385.04
851.402	376.85
851.787	409.33
852.172	435.02
852.557	390.97
852.942	339.55
853.327	380.52
853.712	397.19
854.097	371.2
854.481	365.83
854.866	389.28
855.25	397.47
855.635	380.8
856.019	390.69
856.404	388.43
856.788	339.55
857.172	343.79
857.557	373.18
857.941	396.9
858.325	361.88
858.709	351.99
859.093	367.53
859.477	359.9
859.86	415.54
860.244	369.79
860.628	420.34
861.012	387.87
861.395	381.37
861.779	380.8
862.162	372.05
862.545	363.57
862.929	377.13
863.312	379.96
863.695	364.42
864.078	383.06
864.461	355.38
864.844	377.7
865.227	414.41
865.61	382.78
865.993	364.14
866.376	416.39
866.758	379.96
867.141	418.08
867.523	406.51
867.906	369.51
868.288	408.48
868.671	382.22
869.053	370.92
869.435	382.78
869.817	399.45
870.199	352.27
870.581	397.47
870.963	407.92
871.345	403.96
871.727	352.84
872.109	359.9
872.491	405.66
872.872	389.84
873.254	379.68
873.635	369.51
874.017	419.78
874.398	367.53
874.779	414.13
875.161	374.31
875.542	406.79
875.923	342.38
876.304	345.77
876.685	360.75
877.066	376
877.447	363.29
877.828	363.85
878.208	396.06
878.589	393.51
878.97	449.41
879.35	349.44
879.731	362.72
880.111	374.31
880.491	339.27
880.872	381.65
881.252	363.29
881.632	359.62
882.012	386.74
882.392	391.82
882.772	429.37
883.152	395.21
883.532	376.85
883.912	370.64
884.291	393.51
884.671	386.45
885.051	372.33
885.43	375.72
885.81	373.74
886.189	362.72
886.568	348.03
886.948	367.25
887.327	423.16
887.706	376.29
888.085	416.95
888.464	382.22
888.843	448.28
889.222	425.99
889.601	381.37
889.979	363.57
890.358	373.18
890.737	379.68
891.115	359.33
891.494	364.7
891.872	388.15
892.25	378.26
892.629	409.89
893.007	404.81
893.385	384.48
893.763	388.71
894.141	384.19
894.519	380.52
894.897	343.23
895.275	341.81
895.653	347.18
896.03	362.44
896.408	393.51
896.786	366.12
897.163	390.41
897.541	359.62
897.918	418.65
898.295	366.4
898.673	368.94
899.05	374.87
899.427	529.24
899.804	380.52
900.181	382.78
900.558	388.15
900.935	409.33
901.312	351.99
901.688	353.4
902.065	402.27
902.442	390.97
902.818	358.49
903.195	355.94
903.571	370.35
903.947	373.74
904.324	365.83
904.7	376.29
905.076	403.4
905.452	342.94
905.828	390.69
906.204	380.52
906.58	355.94
906.956	377.42
907.331	411.87
907.707	403.4
908.083	396.62
908.458	403.12
908.834	368.66
909.209	390.69
909.585	371.77
909.96	380.8
910.335	359.33
910.71	389.56
911.086	380.52
911.461	403.12
911.836	351.42
912.21	400.86
912.585	364.99
912.96	389.28
913.335	363.85
913.709	376.29
914.084	353.12
914.459	344.08
914.833	370.92
915.207	351.99
915.582	370.64
915.956	376
916.33	370.92
916.704	369.51
917.078	376.29
917.452	383.63
917.826	370.07
918.2	351.42
918.574	364.99
918.948	355.38
919.321	369.51
919.695	369.51
920.068	358.77
920.442	338.71
920.815	373.46
921.189	356.23
921.562	434.45
921.935	386.17
922.308	382.22
922.681	346.62
923.054	380.24
923.427	400.29
923.8	368.66
924.173	366.96
924.546	361.59
924.919	369.79
925.291	344.08
925.664	354.25
926.036	390.13
926.409	376
926.781	366.96
927.153	362.44
927.526	383.91
927.898	338.14
928.27	374.31
928.642	368.38
929.014	345.49
929.386	349.16
929.758	347.47
930.129	383.06
930.501	403.68
930.873	357.07
931.244	411.31
931.616	344.36
931.987	370.35
932.359	383.06
932.73	371.2
933.101	361.31
933.472	347.47
933.843	385.61
934.214	395.77
934.585	368.94
934.956	381.93
935.327	455.62
935.698	352.27
936.069	396.9
936.439	408.2
936.81	353.68
937.18	363.01
937.551	365.55
937.921	424.01
938.292	392.1
938.662	378.55
939.032	386.17
939.402	365.27
939.772	385.04
940.142	368.38
940.512	373.18
940.882	359.9
941.252	393.51
941.621	378.26
941.991	374.03
942.361	383.91
942.73	350.57
943.1	348.6
943.469	342.66
943.838	389.84
944.208	396.62
944.577	361.88
944.946	346.34
945.315	357.92
945.684	361.59
946.053	389.84
946.422	370.07
946.791	359.62
947.159	407.07
947.528	379.68
947.897	372.33
948.265	333.34
948.634	396.9
949.002	350.29
949.371	370.64
949.739	355.1
950.107	409.33
950.475	363.57
950.843	362.44
951.211	394.64
951.579	373.74
951.947	368.94
952.315	411.59
952.683	367.53
953.05	356.79
953.418	401.7
953.785	367.81
954.153	364.14
954.52	376.85
954.888	379.11
955.255	361.59
955.622	352.84
955.989	338.99
956.356	371.2
956.723	349.16
957.09	364.7
957.457	365.27
957.824	365.83
958.191	364.99
958.557	352.55
958.924	380.52
959.291	363.01
959.657	340.4
960.023	453.08
960.39	366.4
960.756	389.56
961.122	398.32
961.488	368.38
961.855	359.9
962.221	355.1
962.586	351.71
962.952	429.66
963.318	351.42
963.684	443.49
964.05	416.11
964.415	407.63
964.781	356.51
965.146	355.94
965.512	422.6
965.877	352.55
966.242	381.93
966.608	362.16
966.973	376.57
967.338	359.9
967.703	389.28
968.068	367.25
968.433	408.2
968.797	416.11
969.162	352.84
969.527	364.42
969.891	356.51
970.256	390.97
970.62	393.23
970.985	369.51
971.349	386.45
971.714	374.03
972.078	366.4
972.442	379.11
972.806	384.48
973.17	363.29
973.534	368.94
973.898	355.66
974.262	372.05
974.625	404.25
974.989	358.77
975.353	397.47
975.716	379.39
976.08	377.42
976.443	372.9
976.806	396.06
977.17	344.64
977.533	372.9
977.896	353.12
978.259	342.94
978.622	504.71
978.985	353.4
979.348	382.78
979.711	365.83
980.073	373.46
980.436	383.91
980.799	374.03
981.161	368.38
981.524	350.01
981.886	381.65
982.248	367.81
982.611	380.24
982.973	356.51
983.335	387.3
983.697	354.53
984.059	363.01
984.421	356.51
984.783	346.9
985.145	347.75
985.506	365.83
985.868	383.91
986.23	352.84
986.591	394.93
986.953	389.84
987.314	357.07
987.675	343.23
988.037	4049.05
988.398	471.42
988.759	372.33
989.12	361.31
989.481	383.35
989.842	388.71
990.203	369.79
990.564	336.73
990.924	377.98
991.285	4664.83
991.646	462.68
992.006	339.55
992.367	369.51
992.727	404.53
993.087	380.52
993.448	371.77
993.808	336.16
994.168	326.83
994.528	375.16
994.888	383.63
995.248	350.29
995.608	358.77
995.967	362.44
996.327	355.38
996.687	361.03
997.046	370.64
997.406	359.62
997.765	357.92
998.125	371.48
998.484	352.55
998.843	425.14
999.202	376.29
999.561	368.09
999.92	348.88
1000.279	380.52
1000.638	376
1000.997	363.29
1001.356	363.01
1001.715	353.97
1002.073	379.39
1002.432	381.65
1002.79	369.22
1003.149	349.73
1003.507	392.39
1003.865	360.46
1004.224	318.35
1004.582	389
1004.94	388.71
1005.298	340.12
1005.656	374.59
1006.014	343.51
1006.371	374.03
1006.729	348.88
1007.087	387.58
1007.445	388.71
1007.802	365.83
1008.16	358.77
1008.517	368.09
1008.874	358.77
1009.232	344.36
1009.589	429.66
1009.946	361.59
1010.303	340.97
1010.66	376
1011.017	377.98
1011.374	396.34
1011.731	349.73
1012.087	349.73
1012.444	331.36
1012.801	380.52
1013.157	368.94
1013.513	319.2
1013.87	352.27
1014.226	379.39
1014.582	375.72
1014.939	336.44
1015.295	357.92
1015.651	336.44
1016.007	351.14
1016.363	389.28
1016.719	358.2
1017.074	361.59
1017.43	351.71
1017.786	377.7
1018.141	371.48
1018.497	342.1
1018.852	360.75
1019.208	357.36
1019.563	359.9
1019.918	324.57
1020.273	353.4
1020.628	348.6
1020.983	380.52
1021.338	352.55
1021.693	381.65
1022.048	347.47
1022.403	381.65
1022.757	396.34
1023.112	345.49
1023.467	363.85
1023.821	366.96
1024.175	354.25
1024.53	324.86
1024.884	359.33
1025.238	349.16
1025.592	363.29
1025.946	342.94
1026.3	348.88
1026.654	341.53
1027.008	302.52
1027.362	360.46
1027.716	335.31
1028.069	355.1
1028.423	353.97
1028.777	369.79
1029.13	372.9
1029.483	371.77
1029.837	396.06
1030.19	358.2
1030.543	365.83
1030.896	359.9
1031.249	359.33
1031.602	353.4
1031.955	353.12
1032.308	395.77
1032.661	403.4
1033.013	356.79
1033.366	374.87
1033.719	362.44
1034.071	364.99
1034.424	343.51
1034.776	337.29
1035.128	368.38
1035.48	353.97
1035.833	394.64
1036.185	375.16
1036.537	375.16
1036.889	375.16
