Data from SCSF78-405_irradiation_FLMS019251_03-22-12-889.txt Node
Date: Fri Feb 22 03:22:12 PST 2019
User: mu3e
Spectrometer: FLMS01925
Trigger mode: 0
Integration Time (sec): 3.659600E-1
Scans to average: 10
Electric dark correction enabled: true
Nonlinearity correction enabled: true
Boxcar width: 0
XAxis mode: Wavelengths
Number of Pixels in Spectrum: 2048
>>>>>Begin Spectral Data<<<<<
187.103	-108.4
187.574	-108.4
188.045	-108.4
188.516	-176.1
188.987	-102.42
189.458	-135.98
189.929	-128.59
190.4	-96.17
190.871	-99.3
191.342	-87.64
191.813	-56.38
192.284	-22.01
192.754	-18.88
193.225	-2.41
193.696	13.49
194.166	25.41
194.637	86.97
195.107	111.64
195.578	110.22
196.048	141.4
196.518	157.27
196.989	184.74
197.459	198.62
197.929	227.78
198.399	331.59
198.869	313.21
199.339	333.85
199.809	331.87
200.279	364.37
200.749	361.82
201.219	330.46
201.689	368.6
202.159	360.13
202.628	379.9
203.098	405.32
203.568	365.78
204.037	397.7
204.507	398.55
204.976	405.04
205.445	383.29
205.915	380.75
206.384	400.8
206.853	383.58
207.323	403.91
207.792	394.03
208.261	401.09
208.73	399.96
209.199	427.63
209.668	423.11
210.137	403.35
210.606	397.7
211.075	425.93
211.543	415.77
212.012	428.76
212.481	355.61
212.95	342.33
213.418	420
213.887	408.15
214.355	383.01
214.824	386.68
215.292	370.02
215.76	345.15
216.229	321.98
216.697	346.28
217.165	366.06
217.633	361.82
218.101	394.03
218.569	460.65
219.037	364.65
219.505	419.72
219.973	358.43
220.441	351.65
220.909	350.52
221.377	371.43
221.844	386.12
222.312	348.83
222.78	359.85
223.247	359
223.715	350.24
224.182	368.6
224.65	360.13
225.117	394.59
225.584	332.15
226.052	357.87
226.519	406.17
226.986	347.13
227.453	350.52
227.92	355.33
228.387	417.46
228.854	379.62
229.321	360.69
229.788	373.97
230.255	373.69
230.722	413.23
231.189	403.35
231.655	368.6
232.122	389.51
232.589	369.73
233.055	362.67
233.522	399.67
233.988	371.15
234.454	373.97
234.921	389.51
235.387	424.24
235.853	390.92
236.32	356.74
236.786	349.67
237.252	379.62
237.718	413.79
238.184	378.21
238.65	375.67
239.116	375.67
239.582	405.04
240.047	386.68
240.513	393.74
240.979	401.37
241.445	354.48
241.91	357.87
242.376	351.65
242.841	373.41
243.307	375.1
243.772	338.09
244.238	378.49
244.703	358.43
245.168	373.12
245.633	374.82
246.099	378.21
246.564	391.2
247.029	393.46
247.494	371.99
247.959	377.08
248.424	368.89
248.889	377.08
249.353	424.24
249.818	407.86
250.283	394.31
250.748	379.34
251.212	384.71
251.677	369.17
252.141	369.45
252.606	376.51
253.07	392.61
253.535	372.84
253.999	366.34
254.463	371.43
254.927	375.67
255.392	397.98
255.856	392.61
256.32	362.39
256.784	349.39
257.248	401.93
257.712	387.81
258.176	421.7
258.64	406.73
259.103	380.47
259.567	384.71
260.031	381.6
260.495	389.23
260.958	382.45
261.422	381.03
261.885	390.36
262.349	393.74
262.812	382.45
263.275	396
263.739	399.67
264.202	396.29
264.665	381.88
265.128	406.45
265.591	402.5
266.054	385.84
266.517	394.87
266.98	379.9
267.443	385.84
267.906	407.02
268.369	369.73
268.832	377.36
269.294	403.63
269.757	389.79
270.22	363.24
270.682	386.97
271.145	368.04
271.607	389.51
272.07	484.91
272.532	420
272.994	399.39
273.456	409.28
273.919	466.01
274.381	377.93
274.843	437.51
275.305	427.91
275.767	378.21
276.229	399.67
276.691	419.72
277.153	373.12
277.614	399.67
278.076	383.01
278.538	371.99
279	371.43
279.461	397.98
279.923	439.48
280.384	396.29
280.846	387.53
281.307	374.54
281.769	389.79
282.23	431.01
282.691	434.12
283.152	383.01
283.613	396.85
284.075	371.71
284.536	404.19
284.997	410.97
285.458	388.66
285.918	383.58
286.379	383.29
286.84	436.66
287.301	420.57
287.762	379.34
288.222	369.73
288.683	386.12
289.143	391.77
289.604	412.38
290.064	383.58
290.525	396.29
290.985	457.54
291.445	403.63
291.906	372.84
292.366	387.25
292.826	393.74
293.286	417.75
293.746	415.77
294.206	425.37
294.666	403.91
295.126	382.16
295.586	389.51
296.046	396.57
296.506	373.12
296.965	410.97
297.425	378.49
297.884	425.09
298.344	422.55
298.804	400.24
299.263	392.33
299.722	386.4
300.182	390.36
300.641	388.94
301.1	383.29
301.559	393.74
302.019	398.26
302.478	385.84
302.937	393.74
303.396	394.87
303.855	478.42
304.314	414.92
304.772	530.87
305.231	393.74
305.69	403.35
306.149	418.88
306.607	416.05
307.066	447.1
307.524	422.83
307.983	432.99
308.441	425.37
308.9	434.4
309.358	422.83
309.816	468.55
310.275	386.97
310.733	399.11
311.191	399.96
311.649	419.44
312.107	401.65
312.565	399.96
313.023	387.81
313.481	374.82
313.939	404.76
314.397	365.5
314.854	395.16
315.312	403.63
315.77	421.98
316.227	387.53
316.685	401.09
317.142	421.42
317.6	439.76
318.057	426.78
318.514	409.56
318.972	409.56
319.429	423.39
319.886	416.9
320.343	402.5
320.8	428.47
321.257	386.97
321.714	434.4
322.171	442.3
322.628	377.08
323.085	371.43
323.542	363.24
323.998	412.95
324.455	414.08
324.912	417.75
325.368	423.39
325.825	447.67
326.281	416.33
326.738	442.87
327.194	426.22
327.65	402.78
328.107	375.67
328.563	399.11
329.019	445.13
329.475	394.59
329.931	401.37
330.387	412.38
330.843	409.28
331.299	409.84
331.755	384.71
332.211	405.61
332.666	391.48
333.122	398.83
333.578	408.15
334.033	391.48
334.489	427.06
334.944	385.84
335.4	488.01
335.855	444
336.31	389.79
336.766	406.73
337.221	423.39
337.676	386.68
338.131	400.8
338.586	420
339.041	380.47
339.496	450.21
339.951	403.63
340.406	411.53
340.861	404.19
341.316	399.67
341.771	415.49
342.225	397.13
342.68	425.37
343.134	400.24
343.589	435.53
344.043	406.45
344.498	419.44
344.952	426.5
345.406	625.25
345.861	397.98
346.315	378.21
346.769	396.85
347.223	406.73
347.677	382.45
348.131	427.63
348.585	407.58
349.039	416.05
349.493	418.03
349.947	409.84
350.401	412.1
350.854	414.64
351.308	492.24
351.762	392.33
352.215	455.29
352.669	397.7
353.122	420.57
353.575	412.66
354.029	424.24
354.482	427.34
354.935	413.79
355.388	421.7
355.842	420
356.295	416.33
356.748	385.55
357.201	418.59
357.654	419.16
358.106	414.08
358.559	397.13
359.012	412.95
359.465	401.37
359.917	431.3
360.37	397.42
360.823	425.65
361.275	430.73
361.728	432.99
362.18	430.17
362.632	479.55
363.085	397.42
363.537	427.63
363.989	390.07
364.441	403.06
364.893	405.89
365.345	413.51
365.797	402.5
366.249	412.38
366.701	392.9
367.153	412.38
367.605	415.49
368.057	411.25
368.508	399.11
368.96	429.04
369.411	422.55
369.863	427.63
370.314	457.54
370.766	400.8
371.217	406.45
371.669	436.38
372.12	466.29
372.571	428.19
373.022	430.73
373.473	463.75
373.924	428.76
374.375	416.62
374.826	428.76
375.277	428.76
375.728	425.65
376.179	429.89
376.63	415.77
377.08	405.04
377.531	412.38
377.981	407.3
378.432	450.77
378.883	426.22
379.333	438.07
379.783	444.56
380.234	448.51
380.684	421.42
381.134	449.08
381.584	441.18
382.034	474.19
382.485	426.5
382.935	425.09
383.385	455.85
383.834	422.26
384.284	450.49
384.734	405.89
385.184	447.1
385.634	417.18
386.083	444.28
386.533	403.06
386.982	429.32
387.432	451.05
387.881	438.64
388.331	426.22
388.78	441.18
389.229	422.55
389.679	413.23
390.128	431.01
390.577	405.04
391.026	432.99
391.475	417.18
391.924	435.53
392.373	417.18
392.822	436.1
393.27	432.71
393.719	427.63
394.168	427.34
394.617	448.51
395.065	417.18
395.514	455.57
395.962	453.88
396.411	407.02
396.859	447.38
397.307	459.52
397.756	456.7
398.204	430.45
398.652	467.14
399.1	444
399.548	437.51
399.996	480.96
400.444	456.13
400.892	444.84
401.34	466.57
401.788	440.89
402.236	438.64
402.683	454.16
403.131	457.83
403.579	495.91
404.026	440.61
404.474	482.65
404.921	431.58
405.369	470.24
405.816	475.04
406.263	477.01
406.71	491.96
407.158	476.45
407.605	506.34
408.052	478.14
408.499	532.57
408.946	532
409.393	489.14
409.84	515.09
410.286	514.52
410.733	544.12
411.18	561.88
411.626	638.76
412.073	647.77
412.52	717.54
412.966	823.2
413.413	945.25
413.859	1102.93
414.305	1349.3
414.752	1615.46
415.198	1998.9
415.644	2439.68
416.09	2965.62
416.536	3603.45
416.982	4408.51
417.428	5220.96
417.874	6131.81
418.32	7099.11
418.766	8265.14
419.211	9539.96
419.657	10803.92
420.103	12349.25
420.548	13476.94
420.994	15219.99
421.439	16692.49
421.885	17923.15
422.33	20005.4
422.776	21392.92
423.221	22679.16
423.666	24391.19
424.111	25959.11
424.556	27150.23
425.001	28925.4
425.446	30608.24
425.891	32038.71
426.336	32941.03
426.781	34459.46
427.226	36633.2
427.671	37080.28
428.115	37670.57
428.56	39588.88
429.005	40949.17
429.449	41080.93
429.894	42313.5
430.338	43273.29
430.782	43019.6
431.227	44333.85
431.671	44555.5
432.115	45914.88
432.559	46476.24
433.003	46197.33
433.447	46931.29
433.891	46944.78
434.335	47258.91
434.779	47682.12
435.223	47928.3
435.667	47802.32
436.111	48638.12
436.554	48023.32
436.998	47223.68
437.442	47434.15
437.885	49458
438.328	47717.73
438.772	48045.17
439.215	48499.18
439.659	47982.48
440.102	48411.72
440.545	47795.91
440.988	47647.54
441.431	48467.7
441.874	48114.32
442.317	48126.92
442.76	47559.99
443.203	46982.48
443.646	47954.49
444.089	47423.67
444.531	47998.41
444.974	46605.74
445.417	47832.07
445.859	46801.23
446.302	48055.45
446.744	47537.99
447.186	48546.67
447.629	47673.41
448.071	47738.23
448.513	47739.77
448.956	49259.3
449.398	48415.33
449.84	47309.46
450.282	48009.71
450.724	48530.92
451.166	48253.78
451.607	48352.95
452.049	48400.9
452.491	49489.03
452.933	49106.48
453.374	49961.88
453.816	50653.77
454.257	50123.88
454.699	51254.39
455.14	50891.89
455.582	50838.52
456.023	50735.35
456.464	51085.81
456.905	51588.87
457.347	51727.59
457.788	50692.16
458.229	51019.51
458.67	52271.96
459.111	50210.14
459.552	50465.8
459.992	50363.17
460.433	49946.41
460.874	49239.02
461.315	50456.83
461.755	49495.03
462.196	49010.18
462.636	48291.37
463.077	47970.92
463.517	48172.19
463.957	48598.84
464.398	48152.89
464.838	48281.84
465.278	47224.7
465.718	47596.59
466.158	46459.49
466.598	47012.29
467.038	46470.41
467.478	47191.53
467.918	47237.46
468.358	46698.75
468.798	46307.56
469.237	46191.25
469.677	46329.11
470.117	47290.05
470.556	44591.63
470.996	45280.95
471.435	45590.8
471.874	46216.07
472.314	45988.73
472.753	45169.15
473.192	45311.94
473.631	45086.36
474.07	45359.31
474.509	45360.32
474.948	45680.41
475.387	44974.18
475.826	44010.84
476.265	45905.27
476.704	45626.38
477.143	46009.99
477.581	45846.63
478.02	46504.67
478.458	44958.09
478.897	45774.86
479.335	47100.22
479.774	46384.14
480.212	46764.09
480.65	46771.72
481.089	46549.1
481.527	46136.8
481.965	45646.83
482.403	47849.26
482.841	47490.15
483.279	47659.07
483.717	47706.71
484.155	47189.49
484.592	47721.58
485.03	48120.23
485.468	46972.54
485.905	47166.53
486.343	47794.89
486.781	47116.03
487.218	46311.11
487.655	46450.1
488.093	45577.43
488.53	47144.59
488.967	46274.36
489.405	46186.94
489.842	45129.89
490.279	45186.02
490.716	44920.88
491.153	45168.4
491.59	44698.3
492.027	43905.79
492.463	43514.04
492.9	42738.56
493.337	42696.02
493.773	42772.89
494.21	41923.12
494.647	41520.41
495.083	40800.66
495.519	40492.49
495.956	40498.91
496.392	39824.79
496.828	39588.64
497.265	38724.81
497.701	38936.11
498.137	38664.63
498.573	37592.4
499.009	38375.17
499.445	37492.44
499.881	36752.1
500.316	37130.23
500.752	36188.64
501.188	35917.59
501.624	35916.37
502.059	34477.27
502.495	34340.64
502.93	34205.97
503.366	34980.25
503.801	33854.73
504.236	33390.89
504.672	32879.59
505.107	32579.46
505.542	31922.42
505.977	31914.61
506.412	31376.49
506.847	31696.15
507.282	31081.66
507.717	30768.99
508.152	30854.36
508.587	30533.35
509.021	29726.86
509.456	29325.73
509.891	29358.69
510.325	29392.15
510.76	28991.85
511.194	28632.19
511.628	28869.46
512.063	28004.36
512.497	28084.34
512.931	27546.35
513.366	27329.71
513.8	27457.5
514.234	26603.63
514.668	26584.51
515.102	26961.14
515.536	25769.64
515.969	26197.58
516.403	25524.11
516.837	25061.7
517.271	25252.66
517.704	24754.84
518.138	24661.37
518.571	24439.67
519.005	24051.89
519.438	23848.15
519.871	23738.73
520.305	23244.04
520.738	23089.8
521.171	22547.96
521.604	22780.68
522.037	22486.43
522.47	22091.31
522.903	21674.54
523.336	21683.2
523.769	21501.18
524.202	20837.56
524.634	20826.4
525.067	20622.67
525.5	20508.97
525.932	20288.68
526.365	19788.83
526.797	19601.01
527.23	19711.22
527.662	19063.93
528.094	18925.38
528.527	18720.45
528.959	18409.36
529.391	18187.44
529.823	17622.93
530.255	17728.95
530.687	17317.21
531.119	16969.16
531.551	17007.74
531.982	16584.67
532.414	16345.34
532.846	16066.68
533.277	15894.59
533.709	15459.85
534.14	15479.98
534.572	15177.94
535.003	15108.18
535.435	14760.9
535.866	14549.02
536.297	14244.31
536.728	14373.6
537.159	14091.96
537.59	13814.09
538.022	13675.18
538.452	13443
538.883	13210.12
539.314	13024.23
539.745	12771.17
540.176	12610.37
540.606	12259.69
541.037	12308.55
541.468	12081.49
541.898	11943.93
542.328	11869.51
542.759	11609.09
543.189	11485.79
543.619	11338.15
544.05	11165.6
544.48	10937.35
544.91	10910.21
545.34	10617.06
545.77	10539.6
546.2	10462.11
546.63	10280.58
547.06	10187.56
547.489	10042.79
547.919	9714.26
548.349	9802.38
548.778	9750.85
549.208	9477.52
549.637	9391.3
550.067	9282.31
550.496	9297.03
550.926	9007.68
551.355	8882.62
551.784	8909.55
552.213	8691.6
552.642	8543.96
553.071	8568.88
553.5	8354.84
553.929	8059.51
554.358	8202.7
554.787	8008.71
555.216	8030.07
555.645	7834.02
556.073	7801.4
556.502	7653.09
556.93	7492.33
557.359	7411.48
557.787	7447.07
558.216	7310.67
558.644	7216.86
559.072	7157.08
559.5	7039.01
559.929	6995.69
560.357	7025.36
560.785	6832.78
561.213	6905.59
561.641	6667.8
562.068	6738.87
562.496	6637.25
562.924	6549.52
563.352	6506.29
563.779	6497.32
564.207	6539.24
564.634	6396.02
565.062	6401.83
565.489	6290.94
565.917	6241.8
566.344	6219.86
566.771	6115.67
567.198	6117.79
567.625	5969.54
568.053	5891.36
568.48	5921.58
568.907	5847.61
569.333	5727.41
569.76	5547.51
570.187	5659.42
570.614	5429.63
571.04	11155.62
571.467	5474.35
571.894	5282.83
572.32	5126.2
572.747	5072.78
573.173	4964.79
573.599	4869.53
574.026	4735.85
574.452	4775.52
574.878	4717.35
575.304	4567.35
575.73	4539.69
576.156	4399.37
576.582	4386.45
577.008	4318.9
577.434	4257.22
577.86	4119.18
578.285	4112.97
578.711	4013.62
579.137	3952.82
579.562	3884.68
579.988	3906.04
580.413	3807.55
580.838	3717.08
581.264	3701.63
581.689	3653.91
582.114	3592.87
582.539	3991.73
582.964	3483.16
583.39	3461.15
583.814	3365.42
584.239	3287.85
584.664	3277.5
585.089	3238.54
585.514	3218.1
585.939	3155.66
586.363	3085.81
586.788	3112.29
587.212	3034.75
587.637	2948.4
588.061	2943.75
588.485	2840.06
588.91	2872.08
589.334	2820.89
589.758	2772.96
590.182	2746.65
590.606	2674.27
591.03	2678.66
591.454	2630.64
591.878	2601.55
592.302	2585.89
592.726	2569.97
593.15	2525.19
593.573	2418.5
593.997	2451.78
594.42	2356.29
594.844	2372.81
595.267	2325.72
595.691	2315.52
596.114	2263.16
596.537	2236.97
596.96	2223.73
597.384	2232
597.807	2157.23
598.23	2202.76
598.653	2155.85
599.076	2159.71
599.499	2137.9
599.921	2059.17
600.344	2061.66
600.767	2050.33
601.189	2057.52
601.612	2032.91
602.034	2009.41
602.457	1974.83
602.879	2125.48
603.302	1965.98
603.724	1937.75
604.146	1902.31
604.568	1920.03
604.991	1922.8
605.413	1946.61
605.835	1941.63
606.257	1858.83
606.678	1850.51
607.1	1914.77
607.522	1889.02
607.944	1892.9
608.365	1849.4
608.787	1844.42
609.209	1827.51
609.63	1783.42
610.051	1751.25
610.473	1771.5
610.894	1726
611.315	1703.23
611.737	1722.39
612.158	1650.19
612.579	1610.73
613	1707.68
613.421	1617.4
613.842	1594.33
614.263	1558.18
614.683	1544.27
615.104	1540.38
615.525	1518.4
615.945	1471.08
616.366	1444.9
616.787	1468.29
617.207	1379.14
617.627	1396.14
618.048	1383.6
618.468	1345.95
618.888	1339.26
619.308	1305.22
619.728	1316.39
620.148	1287.64
620.568	1294.34
620.988	1309.97
621.408	1260.29
621.828	1266.43
622.248	1263.64
622.668	1248.84
623.087	1237.95
623.507	1202.47
623.926	1170.89
624.346	1192.97
624.765	1161.38
625.185	1117.76
625.604	1126.15
626.023	1066.55
626.442	1081.67
626.861	1130.07
627.28	1074.95
627.699	1079.15
628.118	1014.47
628.537	1061.23
628.956	1068.79
629.375	1085.3
629.794	1016.99
630.212	1000.18
630.631	1028.47
631.049	989.82
631.468	985.89
631.886	961.51
632.305	1004.39
632.723	958.71
633.141	958.71
633.559	936.84
633.978	923.94
634.396	958.99
634.814	923.38
635.232	897.02
635.65	921.14
636.067	886.64
636.485	886.08
636.903	884.11
637.321	865.59
637.738	929.55
638.156	872.33
638.573	824.6
638.991	895.61
639.408	919.46
639.825	803.82
640.243	888.04
640.66	804.38
641.077	834.15
641.494	831.62
641.911	824.04
642.328	831.06
642.745	804.38
643.162	776.57
643.579	782.47
643.995	781.63
644.412	811.97
644.829	771.23
645.245	745.38
645.662	731.32
646.078	726.54
646.495	724.01
646.911	716.7
647.327	742.85
647.743	735.54
648.159	745.38
648.576	713.04
648.992	733.29
649.408	721.76
649.824	699.54
650.239	712.48
650.655	705.45
651.071	700.67
651.487	704.89
651.902	671.13
652.318	667.19
652.733	645.8
653.149	661.56
653.564	683.23
653.979	638.2
654.395	658.19
654.81	636.79
655.225	665.5
655.64	664.09
656.055	656.22
656.47	659.03
656.885	647.49
657.3	621.31
657.715	675.35
658.13	625.25
658.544	638.76
658.959	602.16
659.374	602.16
659.788	644.96
660.202	619.06
660.617	647.49
661.031	613.43
661.445	639.05
661.86	581.88
662.274	630.32
662.688	637.92
663.102	601.88
663.516	637.64
663.93	574.84
664.344	615.4
664.758	576.53
665.171	563
665.585	579.91
665.999	591.18
666.412	582.44
666.826	581.32
667.239	609.76
667.653	547.5
668.066	549.2
668.479	579.63
668.892	532.85
669.306	568.92
669.719	571.46
670.132	571.18
670.545	551.73
670.958	547.79
671.37	552.01
671.783	518.19
672.196	568.08
672.609	537.36
673.021	561.59
673.434	522.7
673.846	561.88
674.259	506.34
674.671	526.65
675.084	564.41
675.496	533.13
675.908	525.8
676.32	518.75
676.732	505.78
677.144	531.72
677.556	500.99
677.968	493.37
678.38	523.83
678.792	520.72
679.204	524.95
679.615	569.2
680.027	517.06
680.439	527.21
680.85	557.37
681.262	561.03
681.673	495.63
682.084	540.74
682.496	510.57
682.907	502.11
683.318	508.6
683.729	495.06
684.14	511.14
684.551	512.83
684.962	483.5
685.373	484.91
685.784	495.35
686.194	484.63
686.605	503.24
687.016	493.37
687.426	478.14
687.837	492.81
688.247	506.91
688.657	442.3
689.068	504.93
689.478	482.09
689.888	490.55
690.298	484.35
690.708	477.01
691.118	478.42
691.528	475.04
691.938	457.54
692.348	458.39
692.758	480.68
693.168	467.98
693.577	503.24
693.987	428.76
694.396	460.93
694.806	454.44
695.215	475.88
695.625	472.78
696.034	478.99
696.443	443.43
696.852	466.01
697.262	445.41
697.671	457.54
698.08	453.03
698.489	441.46
698.897	442.87
699.306	447.95
699.715	451.62
700.124	447.95
700.532	455.29
700.941	476.17
701.35	425.93
701.758	473.06
702.166	432.14
702.575	450.21
702.983	415.49
703.391	458.11
703.799	456.98
704.208	460.93
704.616	438.64
705.024	464.32
705.432	434.4
705.839	418.88
706.247	460.37
706.655	530.03
707.063	454.44
707.47	454.44
707.878	445.97
708.285	418.88
708.693	434.68
709.1	416.05
709.508	412.66
709.915	434.4
710.322	462.9
710.729	512.83
711.136	448.23
711.543	401.93
711.95	427.34
712.357	480.4
712.764	418.88
713.171	432.71
713.578	433.84
713.984	447.67
714.391	445.97
714.797	420
715.204	439.76
715.61	469.96
716.017	409.28
716.423	418.59
716.829	440.89
717.236	401.37
717.642	423.39
718.048	440.33
718.454	476.45
718.86	422.55
719.266	505.78
719.671	415.21
720.077	454.72
720.483	433.55
720.889	465.44
721.294	396.85
721.7	405.32
722.105	428.76
722.511	390.92
722.916	444.28
723.321	415.77
723.726	433.27
724.132	414.36
724.537	436.1
724.942	423.39
725.347	421.98
725.752	434.97
726.156	447.1
726.561	415.77
726.966	428.47
727.371	437.51
727.775	430.45
728.18	407.02
728.584	399.39
728.989	413.23
729.393	515.37
729.798	435.25
730.202	431.01
730.606	424.52
731.01	399.67
731.414	377.36
731.818	409.84
732.222	429.04
732.626	425.09
733.03	406.45
733.434	388.94
733.837	418.03
734.241	404.48
734.645	371.99
735.048	412.66
735.452	387.81
735.855	389.79
736.258	415.49
736.662	457.83
737.065	431.3
737.468	442.87
737.871	419.16
738.274	435.81
738.677	392.05
739.08	407.86
739.483	405.32
739.886	452.18
740.289	451.05
740.691	421.13
741.094	405.32
741.497	420.85
741.899	465.16
742.302	408.71
742.704	404.48
743.106	397.7
743.508	404.19
743.911	412.38
744.313	388.66
744.715	403.91
745.117	394.59
745.519	410.41
745.921	376.8
746.323	381.32
746.724	390.36
747.126	392.9
747.528	440.89
747.929	395.16
748.331	405.32
748.732	393.18
749.134	385.84
749.535	373.69
749.936	403.06
750.338	386.97
750.739	451.05
751.14	391.77
751.541	403.06
751.942	384.14
752.343	390.07
752.744	407.02
753.144	392.33
753.545	408.99
753.946	379.62
754.346	419.16
754.747	445.97
755.148	517.34
755.548	397.13
755.948	393.74
756.349	409.56
756.749	403.91
757.149	407.58
757.549	415.21
757.949	411.25
758.349	396.85
758.749	397.13
759.149	375.38
759.549	375.38
759.949	384.99
760.348	466.57
760.748	383.01
761.148	394.03
761.547	387.25
761.947	382.45
762.346	431.01
762.745	442.3
763.145	408.43
763.544	396.57
763.943	418.88
764.342	377.64
764.741	409.56
765.14	377.64
765.539	407.02
765.938	450.21
766.336	375.38
766.735	393.46
767.134	371.99
767.532	371.99
767.931	390.92
768.329	457.83
768.728	403.91
769.126	398.26
769.525	439.48
769.923	399.11
770.321	403.91
770.719	405.32
771.117	392.05
771.515	401.09
771.913	390.07
772.311	397.98
772.709	409.56
773.106	401.09
773.504	387.81
773.902	395.16
774.299	392.9
774.697	512.55
775.094	417.18
775.491	387.25
775.889	398.26
776.286	366.91
776.683	401.65
777.08	388.94
777.477	384.14
777.874	414.36
778.271	366.63
778.668	376.8
779.065	391.77
779.462	399.96
779.858	399.39
780.255	431.3
780.652	397.98
781.048	428.19
781.444	388.38
781.841	377.93
782.237	399.11
782.633	397.7
783.03	360.41
783.426	381.03
783.822	403.06
784.218	367.47
784.614	346.85
785.01	362.39
785.405	371.15
785.801	399.96
786.197	384.71
786.593	389.79
786.988	398.26
787.384	395.72
787.779	390.64
788.174	395.16
788.57	414.36
788.965	397.98
789.36	393.74
789.755	383.29
790.15	374.25
790.545	374.54
790.94	366.06
791.335	377.93
791.73	378.21
792.125	412.1
792.52	383.01
792.914	403.91
793.309	384.14
793.703	372.56
794.098	385.84
794.492	432.99
794.887	400.52
795.281	431.86
795.675	443.15
796.069	430.45
796.463	431.01
796.857	390.92
797.251	388.38
797.645	373.12
798.039	370.02
798.433	336.39
798.826	384.42
799.22	390.07
799.614	372.84
800.007	397.7
800.401	412.95
800.794	358.72
801.187	403.63
801.581	370.02
801.974	402.78
802.367	431.58
802.76	393.46
803.153	375.1
803.546	389.23
803.939	416.33
804.332	384.42
804.725	370.86
805.117	388.66
805.51	406.73
805.903	407.86
806.295	396.57
806.688	379.9
807.08	388.38
807.472	408.15
807.865	389.23
808.257	392.61
808.649	421.98
809.041	398.26
809.433	407.58
809.825	390.92
810.217	386.12
810.609	361.82
811.001	393.18
811.392	396
811.784	426.22
812.175	371.99
812.567	386.4
812.958	415.21
813.35	403.91
813.741	404.76
814.132	409.56
814.524	367.76
814.915	391.2
815.306	387.53
815.697	375.67
816.088	373.97
816.479	412.38
816.87	405.04
817.26	405.04
817.651	417.18
818.042	408.99
818.432	413.79
818.823	399.39
819.213	399.11
819.604	377.64
819.994	386.4
820.384	372.56
820.775	384.14
821.165	373.12
821.555	370.58
821.945	372.84
822.335	383.58
822.725	415.49
823.114	383.29
823.504	400.24
823.894	357.87
824.284	373.69
824.673	377.93
825.063	377.64
825.452	378.77
825.842	388.94
826.231	441.74
826.62	360.69
827.009	393.18
827.399	388.66
827.788	366.06
828.177	379.9
828.566	397.42
828.954	440.89
829.343	406.73
829.732	343.46
830.121	445.13
830.509	432.99
830.898	362.11
831.286	353.06
831.675	390.92
832.063	427.63
832.452	374.25
832.84	376.51
833.228	440.05
833.616	394.59
834.004	360.69
834.392	377.93
834.78	450.77
835.168	373.12
835.556	374.54
835.944	388.38
836.331	403.35
836.719	406.17
837.107	376.23
837.494	406.17
837.881	393.74
838.269	367.19
838.656	370.02
839.043	381.32
839.431	449.92
839.818	379.34
840.205	366.06
840.592	385.55
840.979	371.71
841.366	377.36
841.752	361.82
842.139	396.29
842.526	379.34
842.912	421.13
843.299	367.19
843.685	387.81
844.072	389.51
844.458	387.53
844.844	376.8
845.231	351.09
845.617	379.06
846.003	381.03
846.389	375.38
846.775	365.78
847.161	386.12
847.547	383.29
847.933	363.8
848.318	406.73
848.704	371.43
849.09	364.65
849.475	370.02
849.861	391.77
850.246	387.81
850.631	403.35
851.017	396
851.402	377.08
851.787	401.09
852.172	412.66
852.557	397.42
852.942	374.82
853.327	375.67
853.712	400.24
854.097	360.13
854.481	381.32
854.866	385.55
855.25	351.93
855.635	371.99
856.019	361.82
856.404	368.89
856.788	362.67
857.172	356.74
857.557	384.14
857.941	398.55
858.325	381.03
858.709	379.9
859.093	354.48
859.477	356.46
859.86	386.12
860.244	364.65
860.628	428.19
861.012	417.18
861.395	382.45
861.779	371.15
862.162	364.65
862.545	364.08
862.929	366.91
863.312	408.15
863.695	381.88
864.078	390.36
864.461	377.08
864.844	378.77
865.227	407.3
865.61	353.91
865.993	373.69
866.376	401.09
866.758	398.55
867.141	398.83
867.523	378.21
867.906	363.8
868.288	422.83
868.671	377.64
869.053	334.13
869.435	386.12
869.817	407.86
870.199	369.17
870.581	336.39
870.963	379.06
871.345	396.57
871.727	387.81
872.109	362.11
872.491	351.93
872.872	384.42
873.254	389.23
873.635	378.21
874.017	426.22
874.398	371.99
874.779	360.69
875.161	363.52
875.542	391.48
875.923	371.15
876.304	371.15
876.685	376.23
877.066	399.67
877.447	365.5
877.828	384.42
878.208	388.1
878.589	410.41
878.97	432.43
879.35	361.82
879.731	370.02
880.111	365.78
880.491	342.61
880.872	405.89
881.252	384.42
881.632	368.04
882.012	412.38
882.392	420.57
882.772	406.17
883.152	391.2
883.532	372.56
883.912	384.14
884.291	371.15
884.671	383.01
885.051	366.91
885.43	381.32
885.81	348.26
886.189	391.48
886.568	381.88
886.948	379.06
887.327	410.41
887.706	340.63
888.085	393.18
888.464	431.86
888.843	463.47
889.222	399.96
889.601	377.08
889.979	390.64
890.358	385.27
890.737	383.86
891.115	334.98
891.494	364.93
891.872	362.39
892.25	356.17
892.629	404.48
893.007	411.25
893.385	358.72
893.763	386.68
894.141	407.86
894.519	411.25
894.897	375.38
895.275	388.66
895.653	340.07
896.03	406.45
896.408	376.51
896.786	353.91
897.163	377.36
897.541	359.56
897.918	424.52
898.295	392.33
898.673	379.34
899.05	359
899.427	541.59
899.804	372.56
900.181	390.07
900.558	432.71
900.935	391.2
901.312	369.45
901.688	369.45
902.065	376.8
902.442	390.64
902.818	378.77
903.195	361.26
903.571	399.11
903.947	379.9
904.324	375.38
904.7	395.44
905.076	433.27
905.452	375.1
905.828	387.25
906.204	390.64
906.58	368.32
906.956	384.99
907.331	411.53
907.707	392.61
908.083	395.72
908.458	395.16
908.834	386.12
909.209	376.51
909.585	384.14
909.96	380.47
910.335	371.71
910.71	368.32
911.086	376.23
911.461	406.73
911.836	394.59
912.21	359
912.585	379.34
912.96	393.74
913.335	372.28
913.709	370.02
914.084	351.93
914.459	401.65
914.833	359
915.207	387.25
915.582	403.06
915.956	378.77
916.33	380.47
916.704	348.26
917.078	366.63
917.452	412.66
917.826	349.67
918.2	377.08
918.574	386.4
918.948	382.73
919.321	370.02
919.695	368.04
920.068	383.01
920.442	371.15
920.815	393.18
921.189	402.78
921.562	408.99
921.935	366.06
922.308	357.3
922.681	369.73
923.054	367.19
923.427	385.84
923.8	372.84
924.173	364.65
924.546	346
924.919	378.77
925.291	384.14
925.664	379.34
926.036	345.72
926.409	379.62
926.781	382.45
927.153	370.58
927.526	430.45
927.898	355.33
928.27	375.1
928.642	372.56
929.014	381.88
929.386	351.09
929.758	342.61
930.129	351.65
930.501	436.1
930.873	352.5
931.244	394.03
931.616	366.63
931.987	388.1
932.359	395.44
932.73	381.88
933.101	375.1
933.472	366.06
933.843	395.72
934.214	378.49
934.585	334.7
934.956	379.62
935.327	441.46
935.698	364.65
936.069	379.9
936.439	370.3
936.81	363.24
937.18	375.95
937.551	397.7
937.921	410.41
938.292	374.54
938.662	372.28
939.032	367.76
939.402	382.73
939.772	375.95
940.142	370.3
940.512	355.33
940.882	360.69
941.252	373.12
941.621	388.94
941.991	366.63
942.361	381.03
942.73	397.7
943.1	349.67
943.469	343.46
943.838	422.83
944.208	381.88
944.577	349.96
944.946	376.23
945.315	352.22
945.684	350.24
946.053	349.11
946.422	357.02
946.791	357.87
947.159	366.63
947.528	360.41
947.897	396.57
948.265	359.28
948.634	376.23
949.002	379.9
949.371	337.52
949.739	346.85
950.107	400.52
950.475	340.35
950.843	385.27
951.211	420.57
951.579	364.37
951.947	399.39
952.315	368.04
952.683	363.8
953.05	354.2
953.418	380.19
953.785	358.72
954.153	366.91
954.52	391.48
954.888	397.13
955.255	344.3
955.622	366.91
955.989	364.93
956.356	419.44
956.723	387.25
957.09	381.88
957.457	367.19
957.824	394.59
958.191	330.46
958.557	395.72
958.924	369.73
959.291	376.23
959.657	364.37
960.023	456.13
960.39	365.21
960.756	397.98
961.122	392.33
961.488	383.01
961.855	381.03
962.221	377.36
962.586	362.39
962.952	437.51
963.318	364.08
963.684	428.19
964.05	401.93
964.415	380.47
964.781	370.3
965.146	337.52
965.512	417.46
965.877	357.3
966.242	369.73
966.608	372.84
966.973	361.26
967.338	367.47
967.703	393.74
968.068	358.43
968.433	390.92
968.797	423.67
969.162	392.33
969.527	338.93
969.891	352.78
970.256	366.06
970.62	371.15
970.985	385.55
971.349	410.69
971.714	390.36
972.078	394.03
972.442	383.86
972.806	394.87
973.17	380.47
973.534	361.54
973.898	369.73
974.262	364.65
974.625	406.45
974.989	378.77
975.353	391.2
975.716	377.08
976.08	346
976.443	360.98
976.806	396.29
977.17	409.28
977.533	381.03
977.896	359.28
978.259	377.93
978.622	504.65
978.985	405.89
979.348	364.08
979.711	376.51
980.073	376.51
980.436	383.58
980.799	408.71
981.161	380.47
981.524	373.97
981.886	368.89
982.248	362.39
982.611	386.97
982.973	359.56
983.335	372.56
983.697	350.52
984.059	369.17
984.421	336.67
984.783	356.17
985.145	382.16
985.506	377.93
985.868	363.8
986.23	379.06
986.591	335.83
986.953	394.87
987.314	342.89
987.675	368.04
988.037	5273.76
988.398	521.85
988.759	349.96
989.12	395.72
989.481	397.42
989.842	375.67
990.203	370.86
990.564	364.65
990.924	364.93
991.285	3468.49
991.646	422.55
992.006	355.04
992.367	366.06
992.727	377.64
993.087	357.87
993.448	373.69
993.808	364.37
994.168	341.76
994.528	370.02
994.888	371.99
995.248	338.65
995.608	370.86
995.967	370.02
996.327	359
996.687	365.21
997.046	357.3
997.406	351.93
997.765	374.54
998.125	334.7
998.484	377.08
998.843	438.64
999.202	380.47
999.561	391.48
999.92	350.24
1000.279	399.39
1000.638	352.5
1000.997	368.04
1001.356	387.53
1001.715	354.2
1002.073	394.31
1002.432	387.53
1002.79	354.76
1003.149	353.63
1003.507	382.45
1003.865	344.59
1004.224	359.56
1004.582	392.33
1004.94	406.73
1005.298	344.02
1005.656	327.06
1006.014	381.6
1006.371	361.54
1006.729	373.41
1007.087	386.68
1007.445	350.24
1007.802	355.33
1008.16	351.93
1008.517	369.17
1008.874	398.83
1009.232	346.57
1009.589	387.81
1009.946	366.63
1010.303	340.35
1010.66	397.98
1011.017	352.78
1011.374	399.11
1011.731	370.3
1012.087	375.1
1012.444	360.41
1012.801	358.43
1013.157	349.11
1013.513	361.54
1013.87	367.19
1014.226	347.13
1014.582	380.47
1014.939	368.6
1015.295	374.82
1015.651	347.13
1016.007	330.46
1016.363	379.62
1016.719	340.91
1017.074	345.15
1017.43	342.61
1017.786	373.69
1018.141	371.43
1018.497	378.21
1018.852	395.44
1019.208	378.77
1019.563	356.74
1019.918	344.59
1020.273	380.75
1020.628	365.21
1020.983	377.08
1021.338	382.16
1021.693	397.13
1022.048	355.89
1022.403	374.54
1022.757	373.97
1023.112	358.43
1023.467	351.09
1023.821	358.15
1024.175	360.98
1024.53	349.39
1024.884	369.17
1025.238	368.32
1025.592	349.39
1025.946	363.8
1026.3	355.61
1026.654	353.06
1027.008	356.17
1027.362	361.26
1027.716	356.17
1028.069	369.45
1028.423	373.12
1028.777	339.5
1029.13	360.41
1029.483	375.67
1029.837	403.91
1030.19	390.92
1030.543	324.52
1030.896	356.46
1031.249	340.07
1031.602	381.6
1031.955	354.76
1032.308	386.12
1032.661	390.36
1033.013	348.83
1033.366	351.65
1033.719	366.63
1034.071	332.72
1034.424	347.98
1034.776	338.93
1035.128	361.26
1035.48	357.02
1035.833	375.67
1036.185	364.65
1036.537	364.65
1036.889	364.65
