Data from SCSF78-405_irradiation_FLMS019251_02-28-10-808.txt Node
Date: Fri Feb 22 02:28:10 PST 2019
User: mu3e
Spectrometer: FLMS01925
Trigger mode: 0
Integration Time (sec): 3.659600E-1
Scans to average: 10
Electric dark correction enabled: true
Nonlinearity correction enabled: true
Boxcar width: 0
XAxis mode: Wavelengths
Number of Pixels in Spectrum: 2048
>>>>>Begin Spectral Data<<<<<
187.103	-109.76
187.574	-109.76
188.045	-109.76
188.516	-168.93
188.987	-91.57
189.458	-132.52
189.929	-137.35
190.4	-104.65
190.871	-105.21
191.342	-98.68
191.813	-66.56
192.284	-13.72
192.754	-27.92
193.225	4.17
193.696	18.93
194.166	54.12
194.637	83.34
195.107	95.53
195.578	117.93
196.048	151.37
196.518	160.15
196.989	171.2
197.459	196.97
197.929	214.53
198.399	316.66
198.869	293.47
199.339	296.86
199.809	323.72
200.279	379.68
200.749	339.84
201.219	368.66
201.689	380.52
202.159	397.47
202.628	389.56
203.098	401.7
203.568	394.36
204.037	413
204.507	402.27
204.976	428.81
205.445	401.42
205.915	392.1
206.384	381.65
206.853	387.87
207.323	424.57
207.792	394.36
208.261	416.11
208.73	405.38
209.199	455.9
209.668	393.23
210.137	408.48
210.606	407.35
211.075	401.99
211.543	427.12
212.012	418.65
212.481	366.4
212.95	384.48
213.418	402.27
213.887	396.62
214.355	400.58
214.824	381.65
215.292	372.05
215.76	358.2
216.229	351.14
216.697	370.64
217.165	398.03
217.633	393.8
218.101	390.97
218.569	430.22
219.037	356.79
219.505	409.89
219.973	372.9
220.441	368.94
220.909	355.66
221.377	381.93
221.844	393.51
222.312	383.91
222.78	357.92
223.247	377.42
223.715	338.14
224.182	349.73
224.65	379.11
225.117	366.12
225.584	366.12
226.052	392.39
226.519	379.39
226.986	363.29
227.453	376.29
227.92	356.51
228.387	387.3
228.854	351.71
229.321	348.6
229.788	380.24
230.255	392.67
230.722	386.45
231.189	390.13
231.655	380.52
232.122	350.29
232.589	363.01
233.055	347.47
233.522	405.09
233.988	372.61
234.454	393.23
234.921	369.79
235.387	400.01
235.853	405.94
236.32	342.38
236.786	354.81
237.252	370.92
237.718	419.21
238.184	364.99
238.65	358.2
239.116	377.98
239.582	370.35
240.047	388.15
240.513	377.42
240.979	367.53
241.445	375.72
241.91	359.33
242.376	350.57
242.841	388.43
243.307	360.46
243.772	357.36
244.238	372.05
244.703	418.93
245.168	390.41
245.633	379.11
246.099	364.42
246.564	372.9
247.029	418.36
247.494	364.7
247.959	399.73
248.424	399.16
248.889	401.14
249.353	406.51
249.818	403.4
250.283	373.18
250.748	389.56
251.212	368.09
251.677	362.44
252.141	395.21
252.606	400.29
253.07	355.94
253.535	376
253.999	389
254.463	385.61
254.927	345.77
255.392	400.01
255.856	380.24
256.32	378.55
256.784	363.01
257.248	385.32
257.712	394.36
258.176	411.87
258.64	360.18
259.103	389.84
259.567	368.09
260.031	392.1
260.495	398.32
260.958	416.11
261.422	403.96
261.885	378.26
262.349	379.96
262.812	396.9
263.275	389.84
263.739	363.01
264.202	400.29
264.665	398.32
265.128	409.05
265.591	401.7
266.054	380.24
266.517	411.59
266.98	406.79
267.443	401.42
267.906	398.6
268.369	391.54
268.832	399.45
269.294	380.52
269.757	390.41
270.22	403.4
270.682	386.17
271.145	424.57
271.607	409.33
272.07	468.32
272.532	380.52
272.994	388.71
273.456	385.32
273.919	459.57
274.381	385.04
274.843	429.66
275.305	404.53
275.767	383.63
276.229	385.61
276.691	402.83
277.153	373.18
277.614	425.99
278.076	386.74
278.538	381.65
279	375.16
279.461	407.07
279.923	456.19
280.384	396.9
280.846	372.05
281.307	391.54
281.769	390.97
282.23	423.73
282.691	444.33
283.152	407.92
283.613	381.65
284.075	383.35
284.536	410.74
284.997	388.71
285.458	385.89
285.918	401.14
286.379	413.28
286.84	429.66
287.301	384.76
287.762	394.93
288.222	399.45
288.683	385.04
289.143	381.65
289.604	394.08
290.064	399.73
290.525	382.5
290.985	453.93
291.445	412.43
291.906	384.19
292.366	388.15
292.826	389.28
293.286	427.96
293.746	413.56
294.206	431.91
294.666	422.88
295.126	410.18
295.586	403.4
296.046	399.73
296.506	419.21
296.965	406.22
297.425	386.17
297.884	426.55
298.344	398.88
298.804	411.31
299.263	402.83
299.722	395.49
300.182	401.99
300.641	379.11
301.1	407.63
301.559	422.6
302.019	394.08
302.478	410.74
302.937	415.54
303.396	397.19
303.855	462.96
304.314	421.47
304.772	531.77
305.231	396.34
305.69	405.66
306.149	441.51
306.607	389.56
307.066	437.56
307.524	420.06
307.983	412.15
308.441	428.53
308.9	463.8
309.358	400.29
309.816	465.22
310.275	425.99
310.733	423.45
311.191	411.31
311.649	414.69
312.107	442.36
312.565	395.49
313.023	377.42
313.481	393.8
313.939	416.95
314.397	391.54
314.854	419.78
315.312	401.42
315.77	429.09
316.227	394.08
316.685	382.78
317.142	402.83
317.6	443.2
318.057	442.08
318.514	423.45
318.972	419.21
319.429	446.59
319.886	356.79
320.343	411.59
320.8	403.68
321.257	397.75
321.714	452.24
322.171	465.5
322.628	403.12
323.085	401.99
323.542	403.12
323.998	429.09
324.455	400.86
324.912	427.4
325.368	413
325.825	441.79
326.281	428.24
326.738	435.87
327.194	423.16
327.65	416.11
328.107	428.53
328.563	402.27
329.019	431.63
329.475	403.12
329.931	430.22
330.387	436.71
330.843	382.78
331.299	436.15
331.755	396.9
332.211	414.13
332.666	394.36
333.122	398.6
333.578	425.99
334.033	417.23
334.489	413.28
334.944	395.21
335.4	473.96
335.855	441.23
336.31	411.31
336.766	387.58
337.221	422.88
337.676	408.48
338.131	396.9
338.586	412.15
339.041	400.58
339.496	434.74
339.951	419.78
340.406	416.11
340.861	413.28
341.316	399.45
341.771	413.56
342.225	388.71
342.68	423.45
343.134	427.96
343.589	435.3
344.043	431.07
344.498	449.41
344.952	420.34
345.406	601.37
345.861	424.29
346.315	420.9
346.769	446.59
347.223	403.96
347.677	402.55
348.131	393.23
348.585	427.96
349.039	400.29
349.493	401.99
349.947	419.78
350.401	424.29
350.854	418.36
351.308	459.57
351.762	424.86
352.215	440.66
352.669	402.27
353.122	397.75
353.575	400.58
354.029	405.09
354.482	408.76
354.935	448
355.388	429.09
355.842	426.55
356.295	420.62
356.748	407.35
357.201	424.01
357.654	425.42
358.106	426.55
358.559	409.61
359.012	400.29
359.465	400.58
359.917	455.34
360.37	403.4
360.823	439.25
361.275	445.74
361.728	416.11
362.18	433.33
362.632	454.77
363.085	399.16
363.537	436.99
363.989	396.9
364.441	435.58
364.893	406.51
365.345	418.65
365.797	414.13
366.249	433.33
366.701	409.61
367.153	396.06
367.605	392.67
368.057	396.34
368.508	413.56
368.96	397.75
369.411	456.19
369.863	417.23
370.314	443.49
370.766	422.03
371.217	431.91
371.669	432.76
372.12	468.32
372.571	460.14
373.022	418.93
373.473	417.52
373.924	439.54
374.375	416.95
374.826	414.98
375.277	435.02
375.728	425.7
376.179	425.99
376.63	440.38
377.08	429.09
377.531	411.59
377.981	425.42
378.432	444.33
378.883	453.36
379.333	449.41
379.783	441.79
380.234	425.14
380.684	402.27
381.134	439.25
381.584	448.28
382.034	460.14
382.485	449.41
382.935	432.2
383.385	460.14
383.834	436.71
384.284	453.08
384.734	418.65
385.184	442.64
385.634	430.5
386.083	407.92
386.533	433.89
386.982	409.89
387.432	471.7
387.881	424.86
388.331	453.36
388.78	431.35
389.229	429.37
389.679	422.03
390.128	438.69
390.577	444.05
391.026	420.9
391.475	453.93
391.924	410.18
392.373	403.68
392.822	442.92
393.27	419.49
393.719	450.26
394.168	465.78
394.617	436.71
395.065	431.63
395.514	456.19
395.962	453.36
396.411	432.76
396.859	433.33
397.307	469.17
397.756	443.77
398.204	430.22
398.652	457.6
399.1	455.06
399.548	454.77
399.996	480.45
400.444	471.42
400.892	449.41
401.34	453.36
401.788	472.55
402.236	443.49
402.683	469.45
403.131	467.19
403.579	453.65
404.026	460.42
404.474	433.89
404.921	465.22
405.369	443.77
405.816	465.5
406.263	492.86
406.71	511.76
407.158	500.76
407.605	509.5
408.052	508.94
408.499	520.78
408.946	493.99
409.393	514.01
409.84	524.16
410.286	538.54
410.733	570.38
411.18	585.31
411.626	636.57
412.073	649.79
412.52	686.94
412.966	820.73
413.413	918.11
413.859	1097.95
414.305	1318.11
414.752	1623.57
415.198	1978.48
415.644	2459.81
416.09	2996.56
416.536	3520.97
416.982	4292.83
417.428	5124.12
417.874	6038.44
418.32	7064
418.766	8143.93
419.211	9433.43
419.657	10574.28
420.103	12097.84
420.548	13332.85
420.994	14956.81
421.439	16376.76
421.885	17743.25
422.33	19565.22
422.776	21054.14
423.221	22412.32
423.666	23939.85
424.111	25612.31
424.556	26676.47
425.001	28491.46
425.446	29985.87
425.891	31348.74
426.336	32390.56
426.781	33870.38
427.226	36007.81
427.671	36460.08
428.115	37157.2
428.56	38840.07
429.005	40255.93
429.449	40616.95
429.894	41744.91
430.338	42751.29
430.782	42334.41
431.227	43633.19
431.671	43873.58
432.115	45098.48
432.559	45829.49
433.003	45429.17
433.447	46046.22
433.891	46198.64
434.335	46370.49
434.779	47055.91
435.223	47182.14
435.667	46953.49
436.111	47646.31
436.554	47106.64
436.998	46425.28
437.442	46580.39
437.885	48479.1
438.328	46950.69
438.772	47129.59
439.215	47767.25
439.659	47201.02
440.102	47542.64
440.545	46956.04
440.988	46730.32
441.431	47584.61
441.874	47277.08
442.317	47534.71
442.76	46773.55
443.203	46316.74
443.646	46942.03
444.089	46677.44
444.531	47258.95
444.974	45733.99
445.417	47016.16
445.859	46164.45
446.302	47399.44
446.744	46650.25
447.186	47891.13
447.629	46820.61
448.071	46874.31
448.513	47099.76
448.956	48557.31
449.398	47591.78
449.84	46561.09
450.282	47158.67
450.724	47844.95
451.166	47432.67
451.607	47587.94
452.049	47625.57
452.491	48767.46
452.933	48221.39
453.374	49137.96
453.816	49568.14
454.257	49090.17
454.699	50484.34
455.14	50162.05
455.582	50244.67
456.023	50036.46
456.464	50146.01
456.905	50916.91
457.347	51024.61
457.788	50041.18
458.229	50308.66
458.67	51277.94
459.111	49384.3
459.552	49517.25
459.992	49507.34
460.433	49277.82
460.874	48229.62
461.315	49764.67
461.755	48609.48
462.196	48393.47
462.636	47535.99
463.077	47191.07
463.517	47466.16
463.957	47929.38
464.398	47483.29
464.838	47611.49
465.278	46495.07
465.718	46926.24
466.158	45723.89
466.598	46198.64
467.038	45783.5
467.478	46285.05
467.918	46518.94
468.358	45880.29
468.798	45516.67
469.237	45489.69
469.677	45645.62
470.117	46426.05
470.556	43921.59
470.996	44561.57
471.435	44820.91
471.874	45576.72
472.314	45350.79
472.753	44393.8
473.192	44740.53
473.631	44285.29
474.07	44625.05
474.509	44760.62
474.948	45006.92
475.387	44379.01
475.826	43475.4
476.265	45344.49
476.704	44819.4
477.143	45383.55
477.581	45014.71
478.02	45776.43
478.458	44255.22
478.897	45054.71
479.335	46331.69
479.774	45725.91
480.212	46054.06
480.65	45890.41
481.089	45775.42
481.527	45359.86
481.965	44703.62
482.403	47110.98
482.841	46788.05
483.279	46811.71
483.717	46986.6
484.155	46455.23
484.592	46904.86
485.03	47340.42
485.468	46167.23
485.905	46488.47
486.343	47059.73
486.781	46350.21
487.218	45804.47
487.655	45807.76
488.093	44964.42
488.53	46427.57
488.967	45582.27
489.405	45296.87
489.842	44458.73
490.279	44564.07
490.716	44091.22
491.153	44717.18
491.59	43928.34
492.027	43143.47
492.463	42934.98
492.9	42030.32
493.337	42075.48
493.773	42066.54
494.21	41083.7
494.647	41015.71
495.083	40180.47
495.519	39885.19
495.956	39939.89
496.392	39058.31
496.828	38965.64
497.265	38164.44
497.701	38211.3
498.137	37876.77
498.573	37010.08
499.009	37557.65
499.445	36715.2
499.881	36171.09
500.316	36525.87
500.752	35427.11
501.188	35224.43
501.624	35214.91
502.059	33825.51
502.495	33843.56
502.93	33559.68
503.366	34221.39
503.801	33137.11
504.236	32944.24
504.672	32435.91
505.107	32097.51
505.542	31329.72
505.977	31287.53
506.412	30884.89
506.847	31175.35
507.282	30599.02
507.717	30342.13
508.152	30215.5
508.587	29998.07
509.021	29254.71
509.456	28879.28
509.891	28961.12
510.325	28944.26
510.76	28536.92
511.194	28256.77
511.628	28332.08
512.063	27534.65
512.497	27689.56
512.931	26982.26
513.366	26899.95
513.8	26855.6
514.234	26116.19
514.668	26149.55
515.102	26446.29
515.536	25258.85
515.969	25684.5
516.403	25134.75
516.837	24702.99
517.271	24868.26
517.704	24309.75
518.138	24096.02
518.571	24000.46
519.005	23654.47
519.438	23477.93
519.871	23432.06
520.305	22875.81
520.738	22730.34
521.171	22208.1
521.604	22464.97
522.037	22038.91
522.47	21701.57
522.903	21348.86
523.336	21254.2
523.769	21058.6
524.202	20489.4
524.634	20477.73
525.067	20213.95
525.5	20094.92
525.932	20030.8
526.365	19426.84
526.797	19294.63
527.23	19299.61
527.662	18614.75
528.094	18457.07
528.527	18492.51
528.959	18104.57
529.391	17867.22
529.823	17297.99
530.255	17425.37
530.687	17028.08
531.119	16673.98
531.551	16746.68
531.982	16312.76
532.414	16074.01
532.846	15831.06
533.277	15616.87
533.709	15138.7
534.14	15091.09
534.572	14917.5
535.003	14782.63
535.435	14569.5
535.866	14292.34
536.297	13964.36
536.728	14036.15
537.159	13860.68
537.59	13545.62
538.022	13420
538.452	13226.4
538.883	12930.64
539.314	12873.28
539.745	12511.8
540.176	12351.85
540.606	12036.46
541.037	12134
541.468	11850.43
541.898	11840.24
542.328	11702.78
542.759	11418.93
543.189	11364
543.619	11144.67
544.05	10976.57
544.48	10726.84
544.91	10685.83
545.34	10568.64
545.77	10353.82
546.2	10309.39
546.63	10208.68
547.06	10027.41
547.489	9913.15
547.919	9562.2
548.349	9665.6
548.778	9575.87
549.208	9381.54
549.637	9233
550.067	9105.53
550.496	9118.46
550.926	8936.28
551.355	8717.32
551.784	8712.13
552.213	8562.95
552.642	8392.84
553.071	8390.5
553.5	8221.22
553.929	7949.86
554.358	8037.42
554.787	7836.67
555.216	7816.85
555.645	7715.3
556.073	7590.69
556.502	7483.48
556.93	7378.02
557.359	7296.84
557.787	7204.59
558.216	7157.92
558.644	7102.57
559.072	7041.69
559.5	6921.14
559.929	6866.22
560.357	6876.99
560.785	6777.07
561.213	6731.82
561.641	6578.29
562.068	6663.11
562.496	6460.45
562.924	6471
563.352	6457.02
563.779	6379.71
564.207	6398.98
564.634	6309.21
565.062	6333.25
565.489	6165.98
565.917	6131.06
566.344	6069.15
566.771	6069.41
567.198	5982.57
567.625	5902.81
568.053	5791.16
568.48	5765.15
568.907	5690.01
569.333	5661.33
569.76	5411.04
570.187	5505
570.614	5370.56
571.04	11356.85
571.467	5346.58
571.894	5163.9
572.32	5085.12
572.747	5010.56
573.173	4940.5
573.599	4794.06
574.026	4765.92
574.452	4700.51
574.878	4604.45
575.304	4518.52
575.73	4399.96
576.156	4314.37
576.582	4377.89
577.008	4253.23
577.434	4197.17
577.86	4028.79
578.285	4080.1
578.711	4007.46
579.137	3960.71
579.562	3843.87
579.988	3804.62
580.413	3732.85
580.838	3688.13
581.264	3670.77
581.689	3575.01
582.114	3555.73
582.539	3971.52
582.964	3442.44
583.39	3454.4
583.814	3333.64
584.239	3222.78
584.664	3279.18
585.089	3212.43
585.514	3187.35
585.939	3131.16
586.363	3072.21
586.788	3001.75
587.212	2962.39
587.637	2904.14
588.061	2885.27
588.485	2848.87
588.91	2822.04
589.334	2765.61
589.758	2739.3
590.182	2741.22
590.606	2632.34
591.03	2586.22
591.454	2574.69
591.878	2516.17
592.302	2525.79
592.726	2494.73
593.15	2453.21
593.573	2379.19
593.997	2421.3
594.42	2332.38
594.844	2327.7
595.267	2287.74
595.691	2263.21
596.114	2222.95
596.537	2214.13
596.96	2197.3
597.384	2210.26
597.807	2125.53
598.23	2149.55
598.653	2133.81
599.076	2067.24
599.499	2107.85
599.921	2015.27
600.344	2009.74
600.767	2015.55
601.189	2017.21
601.612	1973.78
602.034	1975.72
602.457	1971.29
602.879	2100.12
603.302	1952.47
603.724	1909.29
604.146	1896.55
604.568	1877.16
604.991	1912.61
605.413	1871.9
605.835	1864.42
606.257	1878.27
606.678	1829.78
607.1	1837.82
607.522	1847.24
607.944	1878.27
608.365	1835.05
608.787	1800.12
609.209	1766.28
609.63	1768.78
610.051	1718.28
610.473	1747.97
610.894	1689.96
611.315	1670.52
611.737	1681.07
612.158	1678.02
612.579	1626.07
613	1697.73
613.421	1597.16
613.842	1583.26
614.263	1539.87
614.683	1518.45
615.104	1522.07
615.525	1479.2
615.945	1453.03
616.366	1387.83
616.787	1440.77
617.207	1416.53
617.627	1374.45
618.048	1377.24
618.468	1364.97
618.888	1308.35
619.308	1297.74
619.728	1321.46
620.148	1263.41
620.568	1304.72
620.988	1299.42
621.408	1229.06
621.828	1229.34
622.248	1238.84
622.668	1221.8
623.087	1208.67
623.507	1207.55
623.926	1188.27
624.346	1157.8
624.765	1170.66
625.185	1136.83
625.604	1095.71
626.023	1127.6
626.442	1076.96
626.861	1116.97
627.28	1061.01
627.699	1056.25
628.118	1053.45
628.537	1066.88
628.956	1044.77
629.375	1074.72
629.794	1013.68
630.212	1032.73
630.631	1038.89
631.049	978.1
631.468	1040.01
631.886	950.63
632.305	994.91
632.723	968.01
633.141	938.86
633.559	934.37
633.978	932.69
634.396	946.71
634.814	923.72
635.232	893.98
635.65	892.86
636.067	856.38
636.485	868.73
636.903	848.52
637.321	878.55
637.738	916.7
638.156	867.89
638.573	861.99
638.991	859.75
639.408	871.26
639.825	814.27
640.243	856.66
640.66	800.22
641.077	802.19
641.494	783.93
641.911	810.05
642.328	791.23
642.745	774.38
643.162	804.16
643.579	793.48
643.995	749.65
644.412	818.2
644.829	742.9
645.245	750.21
645.662	746.83
646.078	740.09
646.495	737.56
646.911	734.18
647.327	745.43
647.743	696.5
648.159	720.13
648.576	679.34
648.992	737.84
649.408	720.69
649.824	695.38
650.239	685.81
650.655	701.56
651.071	707.19
651.487	723.5
651.902	680.47
652.318	675.68
652.733	688.91
653.149	653.45
653.564	647.26
653.979	656.27
654.395	641.63
654.81	667.52
655.225	621.93
655.64	639.66
656.055	667.81
656.47	621.08
656.885	630.37
657.3	605.59
657.715	694.25
658.13	618.27
658.544	616.86
658.959	600.81
659.374	597.43
659.788	622.49
660.202	596.02
660.617	683.28
661.031	595.17
661.445	621.93
661.86	591.23
662.274	603.9
662.688	643.04
663.102	588.69
663.516	590.95
663.93	576.3
664.344	599.4
664.758	617.7
665.171	597.43
665.585	564.75
665.999	582.78
666.412	570.38
666.826	598.83
667.239	580.53
667.653	545.87
668.066	541.92
668.479	587
668.892	541.36
669.306	551.22
669.719	543.89
670.132	570.38
670.545	544.18
670.958	566.44
671.37	541.07
671.783	515.7
672.196	569.82
672.609	548.12
673.021	529.8
673.434	528.39
673.846	534.31
674.259	533.75
674.671	553.48
675.084	525.01
675.496	548.12
675.908	517.96
676.32	507.53
676.732	497.09
677.144	532.34
677.556	508.94
677.968	507.53
678.38	533.18
678.792	532.62
679.204	524.72
679.615	559.11
680.027	494.55
680.439	500.76
680.85	526.42
681.262	582.5
681.673	505.55
682.084	517.11
682.496	491.45
682.907	513.45
683.318	487.22
683.729	526.42
684.14	511.19
684.551	482.99
684.962	503.58
685.373	506.4
685.784	501.6
686.194	486.94
686.605	483.55
687.016	491.45
687.426	472.27
687.837	486.09
688.247	477.91
688.657	471.42
689.068	477.35
689.478	478.47
689.888	464.65
690.298	469.17
690.708	463.24
691.118	476.22
691.528	497.66
691.938	492.86
692.348	442.08
692.758	465.78
693.168	453.93
693.577	489.19
693.987	482.99
694.396	458.16
694.806	469.17
695.215	459.85
695.625	479.04
696.034	483.27
696.443	442.08
696.852	507.24
697.262	461.83
697.671	426.55
698.08	445.74
698.489	484.4
698.897	473.11
699.306	435.58
699.715	466.34
700.124	462.11
700.532	446.31
700.941	464.93
701.35	453.65
701.758	472.27
702.166	444.9
702.575	408.48
702.983	423.16
703.391	446.31
703.799	462.68
704.208	474.24
704.616	448.28
705.024	486.66
705.432	429.37
705.839	430.22
706.247	471.99
706.655	515.14
707.063	436.99
707.47	435.87
707.878	440.66
708.285	446.03
708.693	439.25
709.1	442.92
709.508	436.43
709.915	451.39
710.322	440.38
710.729	532.34
711.136	433.89
711.543	416.67
711.95	404.25
712.357	457.03
712.764	423.45
713.171	438.41
713.578	406.79
713.984	440.66
714.391	413
714.797	442.64
715.204	433.04
715.61	447.16
716.017	443.77
716.423	451.67
716.829	457.31
717.236	434.17
717.642	425.7
718.048	464.65
718.454	453.93
718.86	404.53
719.266	515.14
719.671	409.33
720.077	448.85
720.483	436.99
720.889	481.01
721.294	421.75
721.7	392.95
722.105	412.43
722.511	424.57
722.916	440.66
723.321	447.16
723.726	441.23
724.132	436.71
724.537	406.22
724.942	422.88
725.347	442.08
725.752	407.63
726.156	396.34
726.561	420.06
726.966	431.35
727.371	424.57
727.775	429.37
728.18	415.26
728.584	422.32
728.989	428.24
729.393	467.75
729.798	413.28
730.202	447.16
730.606	429.09
731.01	392.1
731.414	408.76
731.818	412.43
732.222	416.39
732.626	427.12
733.03	401.42
733.434	404.53
733.837	460.42
734.241	384.76
734.645	408.48
735.048	411.59
735.452	431.35
735.855	398.03
736.258	416.11
736.662	467.75
737.065	456.47
737.468	438.12
737.871	424.01
738.274	434.74
738.677	420.62
739.08	411.31
739.483	396.06
739.886	425.99
740.289	435.87
740.691	398.88
741.094	409.89
741.497	413.56
741.899	432.2
742.302	383.91
742.704	383.35
743.106	418.65
743.508	412.15
743.911	400.01
744.313	391.54
744.715	375.16
745.117	395.21
745.519	381.37
745.921	406.79
746.323	409.33
746.724	366.12
747.126	409.61
747.528	445.46
747.929	414.13
748.331	402.27
748.732	419.78
749.134	389.28
749.535	383.35
749.936	444.05
750.338	400.01
750.739	436.43
751.14	408.76
751.541	397.19
751.942	398.6
752.343	377.7
752.744	387.02
753.144	396.9
753.545	388.15
753.946	421.47
754.346	392.39
754.747	449.98
755.148	525.01
755.548	396.9
755.948	399.16
756.349	405.38
756.749	428.53
757.149	378.26
757.549	407.35
757.949	398.6
758.349	379.68
758.749	370.35
759.149	396.9
759.549	396.34
759.949	396.06
760.348	465.22
760.748	394.08
761.148	417.8
761.547	405.94
761.947	387.3
762.346	405.66
762.745	463.52
763.145	387.3
763.544	395.49
763.943	416.95
764.342	378.26
764.741	392.39
765.14	404.81
765.539	392.39
765.938	450.54
766.336	384.76
766.735	412.15
767.134	408.48
767.532	404.53
767.931	402.55
768.329	450.82
768.728	396.06
769.126	370.35
769.525	435.87
769.923	394.93
770.321	401.99
770.719	411.02
771.117	392.67
771.515	414.41
771.913	417.23
772.311	382.78
772.709	391.54
773.106	386.17
773.504	364.42
773.902	387.02
774.299	376.57
774.697	472.55
775.094	413.56
775.491	424.01
775.889	402.83
776.286	366.96
776.683	412.15
777.08	370.92
777.477	371.48
777.874	410.46
778.271	372.9
778.668	382.22
779.065	382.78
779.462	385.61
779.858	407.07
780.255	416.11
780.652	420.06
781.048	436.15
781.444	414.69
781.841	405.38
782.237	399.45
782.633	364.14
783.03	361.31
783.426	396.06
783.822	381.65
784.218	382.22
784.614	393.23
785.01	393.23
785.405	424.57
785.801	382.5
786.197	398.6
786.593	373.74
786.988	389.84
787.384	401.42
787.779	389.56
788.174	393.23
788.57	390.69
788.965	376.57
789.36	425.14
789.755	377.42
790.15	366.12
790.545	386.17
790.94	373.18
791.335	368.94
791.73	371.48
792.125	426.83
792.52	394.08
792.914	385.04
793.309	351.14
793.703	394.93
794.098	391.26
794.492	398.6
794.887	392.1
795.281	424.57
795.675	414.41
796.069	449.41
796.463	398.6
796.857	397.47
797.251	407.07
797.645	364.14
798.039	389.84
798.433	364.99
798.826	363.29
799.22	390.13
799.614	399.45
800.007	413.28
800.401	403.12
800.794	389.56
801.187	395.49
801.581	374.87
801.974	418.93
802.367	404.53
802.76	400.86
803.153	373.18
803.546	387.3
803.939	404.25
804.332	373.18
804.725	381.93
805.117	388.43
805.51	424.01
805.903	385.04
806.295	382.78
806.688	387.02
807.08	400.58
807.472	385.32
807.865	393.8
808.257	422.32
808.649	425.42
809.041	408.76
809.433	400.58
809.825	405.09
810.217	400.86
810.609	383.91
811.001	391.26
811.392	392.95
811.784	407.63
812.175	398.88
812.567	382.22
812.958	411.02
813.35	370.64
813.741	385.04
814.132	383.35
814.524	366.68
814.915	392.95
815.306	373.46
815.697	376.85
816.088	404.53
816.479	402.55
816.87	423.16
817.26	418.36
817.651	440.66
818.042	411.31
818.432	409.33
818.823	419.49
819.213	374.59
819.604	370.07
819.994	434.17
820.384	369.22
820.775	403.96
821.165	386.74
821.555	386.17
821.945	382.78
822.335	385.61
822.725	412.72
823.114	380.52
823.504	357.92
823.894	371.2
824.284	399.73
824.673	388.15
825.063	385.32
825.452	397.47
825.842	397.75
826.231	478.47
826.62	397.47
827.009	408.2
827.399	410.18
827.788	361.31
828.177	371.2
828.566	408.76
828.954	433.89
829.343	412.15
829.732	377.13
830.121	478.19
830.509	440.66
830.898	370.35
831.286	376.57
831.675	430.22
832.063	416.11
832.452	387.58
832.84	370.35
833.228	422.03
833.616	391.82
834.004	418.93
834.392	365.83
834.78	433.61
835.168	385.61
835.556	433.89
835.944	387.87
836.331	398.6
836.719	399.45
837.107	384.76
837.494	402.83
837.881	357.64
838.269	375.44
838.656	373.46
839.043	407.35
839.431	447.16
839.818	375.44
840.205	390.97
840.592	407.07
840.979	349.73
841.366	361.88
841.752	401.14
842.139	359.9
842.526	385.04
842.912	382.5
843.299	359.62
843.685	404.25
844.072	395.49
844.458	409.33
844.844	395.21
845.231	338.71
845.617	342.94
846.003	371.77
846.389	381.09
846.775	387.58
847.161	352.84
847.547	358.49
847.933	385.61
848.318	387.02
848.704	391.26
849.09	375.44
849.475	359.33
849.861	430.5
850.246	390.41
850.631	431.35
851.017	401.42
851.402	357.36
851.787	401.7
852.172	440.95
852.557	411.59
852.942	391.82
853.327	380.52
853.712	396.06
854.097	388.15
854.481	382.5
854.866	390.69
855.25	371.48
855.635	379.11
856.019	405.38
856.404	374.03
856.788	349.16
857.172	385.61
857.557	361.88
857.941	392.39
858.325	379.68
858.709	361.03
859.093	370.07
859.477	370.07
859.86	402.83
860.244	403.96
860.628	437.56
861.012	412.72
861.395	386.45
861.779	374.87
862.162	374.59
862.545	363.85
862.929	380.8
863.312	404.53
863.695	378.55
864.078	364.7
864.461	386.17
864.844	387.58
865.227	407.07
865.61	382.22
865.993	374.59
866.376	386.45
866.758	399.45
867.141	405.09
867.523	407.92
867.906	389
868.288	367.53
868.671	394.08
869.053	385.89
869.435	373.46
869.817	405.94
870.199	370.92
870.581	353.12
870.963	395.21
871.345	375.72
871.727	391.82
872.109	364.7
872.491	364.42
872.872	393.23
873.254	376.57
873.635	372.05
874.017	404.81
874.398	360.18
874.779	396.62
875.161	375.16
875.542	421.19
875.923	384.48
876.304	388.71
876.685	377.98
877.066	395.49
877.447	379.11
877.828	377.98
878.208	413.28
878.589	392.67
878.97	455.62
879.35	381.09
879.731	353.68
880.111	376.29
880.491	368.66
880.872	409.89
881.252	386.45
881.632	379.39
882.012	419.78
882.392	426.55
882.772	404.81
883.152	377.42
883.532	397.75
883.912	424.01
884.291	402.27
884.671	370.92
885.051	371.2
885.43	371.77
885.81	397.47
886.189	373.18
886.568	398.32
886.948	372.61
887.327	423.16
887.706	395.77
888.085	421.19
888.464	365.55
888.843	464.65
889.222	410.74
889.601	389
889.979	375.44
890.358	399.45
890.737	377.13
891.115	394.08
891.494	394.08
891.872	348.88
892.25	379.39
892.629	398.03
893.007	436.15
893.385	366.68
893.763	368.66
894.141	382.78
894.519	389.28
894.897	388.43
895.275	385.61
895.653	350.86
896.03	391.54
896.408	389.56
896.786	376.57
897.163	379.39
897.541	395.49
897.918	427.68
898.295	369.22
898.673	346.62
899.05	389
899.427	513.16
899.804	325.99
900.181	361.88
900.558	422.32
900.935	399.16
901.312	363.85
901.688	371.2
902.065	416.67
902.442	387.58
902.818	382.78
903.195	363.01
903.571	374.31
903.947	382.78
904.324	364.42
904.7	376.57
905.076	433.89
905.452	384.76
905.828	390.97
906.204	382.5
906.58	366.96
906.956	403.4
907.331	445.18
907.707	397.47
908.083	419.21
908.458	405.94
908.834	366.96
909.209	398.32
909.585	372.9
909.96	385.89
910.335	383.91
910.71	395.21
911.086	364.99
911.461	400.29
911.836	372.9
912.21	392.39
912.585	388.71
912.96	379.96
913.335	383.63
913.709	380.52
914.084	383.06
914.459	387.87
914.833	380.24
915.207	343.23
915.582	381.65
915.956	340.4
916.33	377.13
916.704	351.99
917.078	377.13
917.452	421.19
917.826	374.03
918.2	367.25
918.574	367.81
918.948	368.94
919.321	388.43
919.695	385.04
920.068	390.41
920.442	389.28
920.815	409.05
921.189	364.42
921.562	421.47
921.935	414.69
922.308	385.32
922.681	352.55
923.054	364.99
923.427	431.07
923.8	360.18
924.173	350.86
924.546	365.83
924.919	358.77
925.291	373.74
925.664	381.09
926.036	366.4
926.409	351.99
926.781	360.46
927.153	382.22
927.526	359.33
927.898	371.2
928.27	377.13
928.642	375.16
929.014	368.38
929.386	393.51
929.758	383.91
930.129	374.31
930.501	403.12
930.873	378.26
931.244	368.09
931.616	373.18
931.987	368.38
932.359	408.76
932.73	370.64
933.101	396.06
933.472	343.51
933.843	405.94
934.214	406.22
934.585	349.16
934.956	378.55
935.327	454.49
935.698	363.01
936.069	396.9
936.439	372.61
936.81	357.36
937.18	376
937.551	378.26
937.921	414.69
938.292	379.68
938.662	388.43
939.032	402.55
939.402	380.52
939.772	361.88
940.142	376.29
940.512	379.96
940.882	376.29
941.252	394.64
941.621	376.85
941.991	358.2
942.361	404.25
942.73	380.52
943.1	338.99
943.469	368.38
943.838	437.84
944.208	420.34
944.577	376
944.946	372.61
945.315	351.71
945.684	356.79
946.053	373.46
946.422	380.24
946.791	333.62
947.159	392.1
947.528	357.07
947.897	411.59
948.265	365.55
948.634	373.74
949.002	372.33
949.371	352.55
949.739	364.42
950.107	389
950.475	386.17
950.843	366.12
951.211	373.74
951.579	396.62
951.947	366.12
952.315	366.96
952.683	376.29
953.05	379.11
953.418	401.7
953.785	378.83
954.153	371.2
954.52	381.37
954.888	391.26
955.255	386.74
955.622	401.42
955.989	381.09
956.356	407.07
956.723	358.77
957.09	383.63
957.457	387.87
957.824	357.07
958.191	377.42
958.557	389.84
958.924	381.09
959.291	372.05
959.657	380.24
960.023	468.04
960.39	356.23
960.756	377.13
961.122	418.36
961.488	390.97
961.855	364.42
962.221	349.44
962.586	372.05
962.952	423.45
963.318	403.96
963.684	466.63
964.05	401.42
964.415	378.83
964.781	361.59
965.146	365.55
965.512	418.93
965.877	357.36
966.242	360.18
966.608	367.81
966.973	363.29
967.338	383.06
967.703	404.25
968.068	359.62
968.433	422.32
968.797	423.73
969.162	358.49
969.527	347.47
969.891	356.51
970.256	383.35
970.62	371.2
970.985	381.93
971.349	389.28
971.714	385.89
972.078	383.91
972.442	372.9
972.806	384.48
973.17	364.99
973.534	366.4
973.898	375.72
974.262	353.12
974.625	374.59
974.989	385.89
975.353	407.92
975.716	373.46
976.08	348.6
976.443	361.03
976.806	367.81
977.17	380.52
977.533	385.32
977.896	351.14
978.259	384.48
978.622	515.42
978.985	389
979.348	396.06
979.711	361.88
980.073	377.42
980.436	400.29
980.799	363.85
981.161	378.55
981.524	371.2
981.886	361.59
982.248	377.7
982.611	362.72
982.973	356.23
983.335	367.53
983.697	365.27
984.059	391.82
984.421	372.05
984.783	379.39
985.145	350.29
985.506	366.96
985.868	370.64
986.23	348.31
986.591	370.64
986.953	376.57
987.314	353.68
987.675	344.36
988.037	4483.31
988.398	438.97
988.759	390.41
989.12	358.49
989.481	382.5
989.842	385.04
990.203	358.77
990.564	382.78
990.924	385.32
991.285	4545.92
991.646	470.58
992.006	355.66
992.367	369.79
992.727	386.74
993.087	363.85
993.448	367.53
993.808	350.86
994.168	356.51
994.528	386.45
994.888	373.46
995.248	390.97
995.608	388.15
995.967	374.03
996.327	374.87
996.687	350.86
997.046	387.02
997.406	360.75
997.765	351.42
998.125	359.33
998.484	386.45
998.843	398.32
999.202	364.99
999.561	323.16
999.92	379.68
1000.279	389.56
1000.638	368.94
1000.997	364.42
1001.356	357.92
1001.715	353.12
1002.073	383.35
1002.432	393.8
1002.79	379.39
1003.149	337.57
1003.507	413.85
1003.865	401.99
1004.224	378.55
1004.582	375.44
1004.94	377.13
1005.298	358.49
1005.656	364.7
1006.014	363.01
1006.371	368.94
1006.729	351.71
1007.087	413.85
1007.445	385.04
1007.802	359.62
1008.16	364.99
1008.517	374.87
1008.874	372.61
1009.232	346.05
1009.589	400.29
1009.946	368.94
1010.303	381.93
1010.66	376.29
1011.017	362.44
1011.374	388.15
1011.731	366.4
1012.087	339.55
1012.444	391.82
1012.801	382.78
1013.157	364.42
1013.513	350.57
1013.87	348.88
1014.226	389.84
1014.582	372.61
1014.939	368.09
1015.295	370.64
1015.651	346.05
1016.007	357.07
1016.363	407.63
1016.719	364.7
1017.074	379.68
1017.43	372.61
1017.786	389.84
1018.141	354.81
1018.497	369.51
1018.852	362.16
1019.208	406.51
1019.563	334.47
1019.918	364.42
1020.273	374.59
1020.628	339.84
1020.983	372.05
1021.338	357.36
1021.693	368.66
1022.048	361.88
1022.403	351.71
1022.757	348.31
1023.112	372.61
1023.467	374.87
1023.821	357.07
1024.175	349.16
1024.53	356.23
1024.884	351.14
1025.238	355.66
1025.592	359.33
1025.946	370.35
1026.3	374.03
1026.654	364.14
1027.008	362.72
1027.362	368.09
1027.716	359.05
1028.069	374.59
1028.423	376.29
1028.777	373.46
1029.13	367.81
1029.483	374.87
1029.837	400.86
1030.19	381.65
1030.543	374.87
1030.896	365.83
1031.249	363.57
1031.602	350.29
1031.955	374.03
1032.308	359.05
1032.661	401.7
1033.013	363.29
1033.366	373.46
1033.719	362.44
1034.071	335.03
1034.424	356.51
1034.776	349.73
1035.128	352.55
1035.48	369.22
1035.833	389
1036.185	373.46
1036.537	373.46
1036.889	373.46
