Data from SCSF78-405_irradiation_FLMS019251_03-59-10-384.txt Node
Date: Fri Feb 22 03:59:10 PST 2019
User: mu3e
Spectrometer: FLMS01925
Trigger mode: 0
Integration Time (sec): 3.659600E-1
Scans to average: 10
Electric dark correction enabled: true
Nonlinearity correction enabled: true
Boxcar width: 0
XAxis mode: Wavelengths
Number of Pixels in Spectrum: 2048
>>>>>Begin Spectral Data<<<<<
187.103	-120.53
187.574	-120.53
188.045	-120.53
188.516	-177.72
188.987	-101.77
189.458	-98.64
189.929	-137.88
190.4	-88.12
190.871	-78.74
191.342	-90.96
191.813	-83.57
192.284	-14.25
192.754	-55.15
193.225	8.46
193.696	12.72
194.166	22.37
194.637	75.15
195.107	107.19
195.578	125.9
196.048	140.92
196.518	153.67
196.989	163.3
197.459	194.46
197.929	203.52
198.399	321.5
198.869	294.64
199.339	308.21
199.809	326.3
200.279	376.32
200.749	341.85
201.219	350.89
201.689	364.17
202.159	375.19
202.628	382.25
203.098	381.97
203.568	382.54
204.037	386.21
204.507	403.72
204.976	435.9
205.445	419.53
205.915	403.15
206.384	376.89
206.853	410.21
207.323	433.93
207.792	406.54
208.261	371.24
208.73	392.99
209.199	400.05
209.668	419.25
210.137	420.66
210.606	386.77
211.075	414.45
211.543	431.38
212.012	394.12
212.481	395.53
212.95	356.26
213.418	421.79
213.887	378.58
214.355	394.96
214.824	376.6
215.292	371.52
215.76	367.28
216.229	384.23
216.697	388.47
217.165	392.42
217.633	342.13
218.101	391.86
218.569	440.7
219.037	389.03
219.505	415.58
219.973	385.36
220.441	355.98
220.909	368.13
221.377	370.95
221.844	391.57
222.312	339.59
222.78	359.65
223.247	368.41
223.715	332.24
224.182	351.46
224.65	353.44
225.117	380.28
225.584	371.52
226.052	333.94
226.519	368.69
226.986	350.89
227.453	353.44
227.92	373.21
228.387	398.35
228.854	346.09
229.321	347.5
229.788	384.79
230.255	408.52
230.722	439.29
231.189	375.19
231.655	379.99
232.122	394.96
232.589	342.13
233.055	370.11
233.522	418.12
233.988	377.45
234.454	391.86
234.921	414.45
235.387	419.25
235.853	389.6
236.32	363.61
236.786	394.12
237.252	364.74
237.718	430.82
238.184	375.19
238.65	352.02
239.116	387.62
239.582	395.81
240.047	383.1
240.513	377.73
240.979	366.43
241.445	370.67
241.91	361.91
242.376	346.09
242.841	383.38
243.307	367.56
243.772	372.93
244.238	380.56
244.703	407.67
245.168	395.24
245.633	380.84
246.099	355.98
246.564	362.2
247.029	381.69
247.494	344.68
247.959	374.06
248.424	360.78
248.889	365.3
249.353	370.95
249.818	390.16
250.283	374.63
250.748	391.29
251.212	385.92
251.677	370.67
252.141	400.61
252.606	405.13
253.07	357.96
253.535	376.32
253.999	348.35
254.463	387.62
254.927	352.02
255.392	402.59
255.856	405.98
256.32	378.86
256.784	360.78
257.248	416.71
257.712	375.19
258.176	433.93
258.64	387.05
259.103	386.77
259.567	367.56
260.031	358.24
260.495	417.83
260.958	407.39
261.422	408.23
261.885	399.48
262.349	372.65
262.812	374.06
263.275	393.55
263.739	377.45
264.202	393.55
264.665	369.26
265.128	397.79
265.591	407.95
266.054	368.69
266.517	412.75
266.98	413.03
267.443	362.76
267.906	378.3
268.369	376.04
268.832	411.62
269.294	368.69
269.757	392.99
270.22	394.4
270.682	380.84
271.145	404.28
271.607	434.77
272.07	458.48
272.532	385.08
272.994	399.76
273.456	434.77
273.919	418.96
274.381	383.95
274.843	458.76
275.305	429.97
275.767	394.12
276.229	406.26
276.691	387.34
277.153	401.18
277.614	402.59
278.076	384.23
278.538	397.5
279	386.21
279.461	371.24
279.923	453.12
280.384	381.69
280.846	383.95
281.307	382.54
281.769	403.15
282.23	398.63
282.691	414.16
283.152	393.83
283.613	386.49
284.075	383.1
284.536	390.44
284.997	405.41
285.458	372.65
285.918	375.19
286.379	407.95
286.84	416.14
287.301	389.6
287.762	390.16
288.222	388.47
288.683	368.13
289.143	367.28
289.604	391.57
290.064	424.61
290.525	387.62
290.985	469.2
291.445	388.18
291.906	375.19
292.366	402.3
292.826	384.79
293.286	419.53
293.746	418.4
294.206	422.63
294.666	396.09
295.126	415.01
295.586	399.76
296.046	386.49
296.506	411.62
296.965	431.1
297.425	378.86
297.884	420.66
298.344	393.27
298.804	410.78
299.263	395.81
299.722	416.14
300.182	385.92
300.641	403.43
301.1	378.3
301.559	416.71
302.019	378.58
302.478	395.24
302.937	416.42
303.396	437.03
303.855	439.85
304.314	392.7
304.772	507.56
305.231	387.62
305.69	382.25
306.149	427.72
306.607	378.58
307.066	413.88
307.524	435.34
307.983	424.33
308.441	439.01
308.9	457.91
309.358	395.53
309.816	459.04
310.275	378.02
310.733	360.78
311.191	394.96
311.649	406.54
312.107	429.97
312.565	402.3
313.023	399.2
313.481	386.21
313.939	428.28
314.397	397.22
314.854	426.02
315.312	393.55
315.77	422.92
316.227	400.33
316.685	393.83
317.142	385.92
317.6	447.76
318.057	397.79
318.514	409.36
318.972	407.39
319.429	437.88
319.886	402.02
320.343	367.56
320.8	392.42
321.257	391.29
321.714	434.77
322.171	427.43
322.628	404
323.085	417.55
323.542	367.56
323.998	410.78
324.455	377.17
324.912	387.9
325.368	421.79
325.825	427.43
326.281	397.5
326.738	411.06
327.194	368.13
327.65	408.52
328.107	409.65
328.563	409.36
329.019	453.4
329.475	417.55
329.931	415.29
330.387	430.26
330.843	420.09
331.299	430.54
331.755	396.09
332.211	394.4
332.666	396.37
333.122	397.5
333.578	427.15
334.033	408.52
334.489	424.05
334.944	398.92
335.4	470.89
335.855	418.68
336.31	411.91
336.766	410.21
337.221	411.91
337.676	418.96
338.131	443.24
338.586	454.81
339.041	398.63
339.496	454.25
339.951	409.36
340.406	427.72
340.861	418.4
341.316	440.7
341.771	440.42
342.225	401.46
342.68	413.32
343.134	386.77
343.589	419.81
344.043	442.68
344.498	411.34
344.952	416.99
345.406	611.82
345.861	398.07
346.315	402.3
346.769	379.43
347.223	427.15
347.677	389.03
348.131	407.11
348.585	405.69
349.039	393.27
349.493	384.51
349.947	420.66
350.401	409.36
350.854	407.67
351.308	466.38
351.762	405.41
352.215	436.75
352.669	405.41
353.122	430.54
353.575	438.72
354.029	414.16
354.482	413.32
354.935	418.12
355.388	416.99
355.842	413.32
356.295	448.6
356.748	392.7
357.201	421.22
357.654	412.19
358.106	433.36
358.559	416.99
359.012	388.47
359.465	407.95
359.917	448.88
360.37	391.86
360.823	439.57
361.275	446.91
361.728	449.17
362.18	411.06
362.632	452.55
363.085	422.92
363.537	409.93
363.989	400.33
364.441	397.5
364.893	429.13
365.345	401.18
365.797	402.87
366.249	422.07
366.701	415.86
367.153	398.92
367.605	411.06
368.057	427.15
368.508	418.96
368.96	423.76
369.411	397.22
369.863	425.17
370.314	437.88
370.766	406.26
371.217	445.5
371.669	412.75
372.12	477.66
372.571	434.49
373.022	405.41
373.473	445.78
373.924	450.58
374.375	431.1
374.826	421.5
375.277	418.4
375.728	399.2
376.179	438.72
376.63	420.94
377.08	406.82
377.531	406.54
377.981	406.82
378.432	428.56
378.883	435.34
379.333	414.73
379.783	409.65
380.234	440.7
380.684	410.21
381.134	434.49
381.584	429.13
382.034	470.89
382.485	461.86
382.935	434.49
383.385	468.64
383.834	382.82
384.284	431.95
384.734	402.3
385.184	416.99
385.634	409.93
386.083	431.38
386.533	414.45
386.982	421.79
387.432	451.99
387.881	407.95
388.331	396.37
388.78	444.09
389.229	416.99
389.679	415.01
390.128	461.3
390.577	421.5
391.026	453.68
391.475	409.93
391.924	442.11
392.373	420.09
392.822	424.61
393.27	413.03
393.719	419.81
394.168	425.74
394.617	420.66
395.065	425.17
395.514	489.23
395.962	472.59
396.411	429.69
396.859	442.96
397.307	507.56
397.756	457.91
398.204	420.94
398.652	481.9
399.1	456.5
399.548	448.04
399.996	500.79
400.444	463.28
400.892	456.79
401.34	478.51
401.788	439.29
402.236	429.13
402.683	456.5
403.131	495.72
403.579	472.59
404.026	444.65
404.474	438.72
404.921	467.51
405.369	488.38
405.816	458.2
406.263	459.32
406.71	504.46
407.158	480.77
407.605	477.38
408.052	519.69
408.499	535.75
408.946	540.83
409.393	520.81
409.84	545.34
410.286	525.89
410.733	521.09
411.18	558.3
411.626	640.54
412.073	650.39
412.52	714.54
412.966	874.1
413.413	927.96
413.859	1130.15
414.305	1312.85
414.752	1640.28
415.198	1971.05
415.644	2459.84
416.09	3013.53
416.536	3612.49
416.982	4339.17
417.428	5222.91
417.874	6166.27
418.32	7172.9
418.766	8321.13
419.211	9590.6
419.657	10895.95
420.103	12361.04
420.548	13496.02
420.994	15191.11
421.439	16569.95
421.885	17984.7
422.33	19931.14
422.776	21346.42
423.221	22777.06
423.666	24512.1
424.111	26186.13
424.556	27256.58
425.001	28998.04
425.446	30665.64
425.891	32103.4
426.336	32895.51
426.781	34343.89
427.226	36644.29
427.671	37082.81
428.115	37904.01
428.56	39683.75
429.005	41105.74
429.449	41230.15
429.894	42523.29
430.338	43583.77
430.782	43049.82
431.227	44485.84
431.671	44704.15
432.115	45996.15
432.559	46748.15
433.003	46258.98
433.447	46960.65
433.891	47210.49
434.335	47400.24
434.779	48021.61
435.223	48022.63
435.667	47856.27
436.111	48746.02
436.554	48193.11
436.998	47474.88
437.442	47589.25
437.885	49380.69
438.328	47907.85
438.772	48128.03
439.215	48606.67
439.659	48249.99
440.102	48530.49
440.545	47843.95
440.988	47585.41
441.431	48579.55
441.874	48125.97
442.317	48330.61
442.76	47734.21
443.203	47342.49
443.646	47912.21
444.089	47572.36
444.531	48029.06
444.974	46721.2
445.417	47935.83
445.859	46976.7
446.302	48138.83
446.744	47504.81
447.186	48916.66
447.629	47851.91
448.071	47813.43
448.513	47912.47
448.956	49437.49
449.398	48501.06
449.84	47340.45
450.282	48120.31
450.724	48825.74
451.166	48511.13
451.607	48379.58
452.049	48516.81
452.491	49822.03
452.933	49306.48
453.374	49929.19
453.816	50662.85
454.257	50134.74
454.699	51500.67
455.14	51154.92
455.582	50882.41
456.023	50872.05
456.464	51319.94
456.905	51681.4
457.347	51958.25
457.788	50999.63
458.229	51149.06
458.67	52194.11
459.111	50284.46
459.552	50468.79
459.992	50350.33
460.433	50298.42
460.874	49126.3
461.315	50622.89
461.755	49591.67
462.196	49041.14
462.636	48381.38
463.077	48135.23
463.517	48175.1
463.957	48562.5
464.398	48321.85
464.838	48421.35
465.278	47433.46
465.718	47653
466.158	46612.42
466.598	47110.24
467.038	46648.5
467.478	47284.01
467.918	47343
468.358	46788.08
468.798	46447.9
469.237	46427.09
469.677	46402.99
470.117	47287.07
470.556	44876.97
470.996	45470.55
471.435	45592.9
471.874	46416.44
472.314	46110.29
472.753	45224.62
473.192	45434.25
473.631	45075.12
474.07	45337.72
474.509	45522
474.948	45929.88
475.387	45299.17
475.826	44239.72
476.265	46209.06
476.704	45715.33
477.143	46147.51
477.581	45835.08
478.02	46624.37
478.458	45163.95
478.897	45855.8
479.335	47164.82
479.774	46642.66
480.212	46899.29
480.65	46856.27
481.089	46535.22
481.527	46168.02
481.965	45583.06
482.403	47837.8
482.841	47622.78
483.279	47764.2
483.717	47868.58
484.155	47445.22
484.592	47874.74
485.03	48174.33
485.468	47122.99
485.905	47247.75
486.343	47992.06
486.781	47255.41
487.218	46422.53
487.655	46411.62
488.093	45546.22
488.53	47263.84
488.967	46425.32
489.405	46267.34
489.842	45264.41
490.279	45314.54
490.716	44957.66
491.153	45422.65
491.59	44792.3
492.027	44187.88
492.463	43625.47
492.9	42798.85
493.337	42699.33
493.773	42841.16
494.21	41903.85
494.647	41656.23
495.083	40979.65
495.519	40529.1
495.956	40579.21
496.392	39865.51
496.828	39591.67
497.265	38800.79
497.701	39054.9
498.137	38652.18
498.573	37794.42
499.009	38449.38
499.445	37366.12
499.881	36755.6
500.316	37417.31
500.752	36191.16
501.188	35980.96
501.624	35935.51
502.059	34540.3
502.495	34387.32
502.93	34240.45
503.366	34958.11
503.801	33713.11
504.236	33365.61
504.672	32917.94
505.107	32667.55
505.542	31941.51
505.977	32060.49
506.412	31600.65
506.847	31809.12
507.282	31071.25
507.717	30785.65
508.152	30828.09
508.587	30635.88
509.021	29672.75
509.456	29433.98
509.891	29526.51
510.325	29481.83
510.76	29138.49
511.194	28779.13
511.628	28919.13
512.063	28147.51
512.497	28225.26
512.931	27588.03
513.366	27362.84
513.8	27398.34
514.234	26576.01
514.668	26716.69
515.102	26994.78
515.536	25930.23
515.969	26190.54
516.403	25641.56
516.837	25286.89
517.271	25357.4
517.704	24901.49
518.138	24710.15
518.571	24511.86
519.005	24062.81
519.438	23911.3
519.871	23790.56
520.305	23312.21
520.738	23232.77
521.171	22638.72
521.604	22843.98
522.037	22519.62
522.47	22157.18
522.903	21841.72
523.336	21633.51
523.769	21613.21
524.202	20849.8
524.634	20974.32
525.067	20570.61
525.5	20485.46
525.932	20451.19
526.365	19877.19
526.797	19651.34
527.23	19781.69
527.662	19018.91
528.094	18874.61
528.527	18807.55
528.959	18476.57
529.391	18169.53
529.823	17638.76
530.255	17711.03
530.687	17374.85
531.119	17003.56
531.551	16983.27
531.982	16617.85
532.414	16459.84
532.846	16082.33
533.277	15952.21
533.709	15450.12
534.14	15479.56
534.572	15258.84
535.003	15120.09
535.435	14839.39
535.866	14558.18
536.297	14290.86
536.728	14284.29
537.159	14187.8
537.59	13790.14
538.022	13693.23
538.452	13409.39
538.883	13224.15
539.314	13049.42
539.745	12769.72
540.176	12649.83
540.606	12242.21
541.037	12346.54
541.468	12103.73
541.898	11954.71
542.328	11867.29
542.759	11610.19
543.189	11545.62
543.619	11334.91
544.05	11096.36
544.48	10955.1
544.91	10884.68
545.34	10719.18
545.77	10561.75
546.2	10458.09
546.63	10271.41
547.06	10335.11
547.489	10055.22
547.919	9734.19
548.349	9810.96
548.778	9704.29
549.208	9510.12
549.637	9427.79
550.067	9266.62
550.496	9240.78
550.926	9107.37
551.355	8824.67
551.784	8952.36
552.213	8649.66
552.642	8567.66
553.071	8511.06
553.5	8429.77
553.929	8102.83
554.358	8188.21
554.787	8030.16
555.216	8005.66
555.645	7858.36
556.073	7752.67
556.502	7665.45
556.93	7490.58
557.359	7397.95
557.787	7421.5
558.216	7305.51
558.644	7203.84
559.072	7200.95
559.5	7022.03
559.929	7053.79
560.357	6999.98
560.785	6874.4
561.213	6913.56
561.641	6728.43
562.068	6771.58
562.496	6672.89
562.924	6593.08
563.352	6573.85
563.779	6484.22
564.207	6532.73
564.634	6404.82
565.062	6339.09
565.489	6315.85
565.917	6298.42
566.344	6254.03
566.771	6106.76
567.198	6050.12
567.625	6046.95
568.053	5902.31
568.48	5881.37
568.907	5865.73
569.333	5831.51
569.76	5557.97
570.187	5616.99
570.614	5518.07
571.04	11227.3
571.467	5435.84
571.894	5261.58
572.32	5134.83
572.747	5043.21
573.173	5018.88
573.599	4913.78
574.026	4837.21
574.452	4836.41
574.878	4676.13
575.304	4617.91
575.73	4546.22
576.156	4432.53
576.582	4394.88
577.008	4307.13
577.434	4259.46
577.86	4107.66
578.285	4124.12
578.711	4064.47
579.137	4003.17
579.562	3849.86
579.988	3875.02
580.413	3830.91
580.838	3694.39
581.264	3691.68
581.689	3670.54
582.114	3611.68
582.539	3991.55
582.964	3525.08
583.39	3456.34
583.814	3389.45
584.239	3301.55
584.664	3278.4
585.089	3216.28
585.514	3219.28
585.939	3141.56
586.363	3086.72
586.788	3083.44
587.212	2973.91
587.637	2967.07
588.061	2908.01
588.485	2876.27
588.91	2854.38
589.334	2851.09
589.758	2801.81
590.182	2766.47
590.606	2712.47
591.03	2710.55
591.454	2610.96
591.878	2570.05
592.302	2534.34
592.726	2551.37
593.15	2533.52
593.573	2439.77
593.997	2465.07
594.42	2323.05
594.844	2336.27
595.267	2331.86
595.691	2299.63
596.114	2288.88
596.537	2281.16
596.96	2273.45
597.384	2245.88
597.807	2146.83
598.23	2173.6
598.653	2168.08
599.076	2122.8
599.499	2133.57
599.921	2078.6
600.344	2060.09
600.767	2029.13
601.189	2041.85
601.612	2007.28
602.034	2026.92
602.457	2002.03
602.879	2112.86
603.302	1958.04
603.724	1958.87
604.146	1925.94
604.568	1917.63
604.991	1931.75
605.413	1940.88
605.835	1956.38
606.257	1874.15
606.678	1912.65
607.1	1906.83
607.522	1870.55
607.944	1899.91
608.365	1843.12
608.787	1834.8
609.209	1838.96
609.63	1758.27
610.051	1802.37
610.473	1752.17
610.894	1740.51
611.315	1686.94
611.737	1710.82
612.158	1656.39
612.579	1612.21
613	1715.81
613.421	1603.59
613.842	1605.26
614.263	1570.23
614.683	1524.05
615.104	1485.08
615.525	1491.77
615.945	1524.05
616.366	1479.24
616.787	1464.2
617.207	1405.98
617.627	1377.55
618.048	1388.42
618.468	1369.19
618.888	1336.84
619.308	1344.93
619.728	1319.26
620.148	1312.29
620.568	1296.66
620.988	1332.09
621.408	1245.01
621.828	1274.05
622.248	1239.71
622.668	1227.42
623.087	1209.82
623.507	1219.6
623.926	1192.22
624.346	1169.86
624.765	1197.81
625.185	1147.49
625.604	1132.11
626.023	1126.52
626.442	1085.95
626.861	1142.74
627.28	1049
627.699	1082.03
628.118	1048.44
628.537	1064.12
628.956	1052.64
629.375	1053.48
629.794	1035.28
630.212	1054.6
630.631	1046.48
631.049	996.07
631.468	997.75
631.886	981.5
632.305	955.99
632.723	949.27
633.141	949.27
633.559	936.65
633.978	949.83
634.396	940.86
634.814	938.89
635.232	885.6
635.65	887
636.067	924.59
636.485	895.7
636.903	861.75
637.321	850.24
637.738	906.08
638.156	839.57
638.573	838.73
638.991	902.43
639.408	882.23
639.825	796.89
640.243	854.45
640.66	783.96
641.077	828.62
641.494	798.01
641.911	818.23
642.328	816.55
642.745	786.77
643.162	807.84
643.579	801.1
643.995	761.2
644.412	823.85
644.829	730.28
645.245	721
645.662	764.01
646.078	746.59
646.495	744.06
646.911	726.07
647.327	744.06
647.743	728.88
648.159	744.06
648.576	720.16
648.992	715.94
649.408	736.19
649.824	707.22
650.239	688.94
650.655	665.87
651.071	679.1
651.487	693.44
651.902	691.47
652.318	678.81
652.733	695.69
653.149	687.82
653.564	684.44
653.979	662.21
654.395	668.12
654.81	639.42
655.225	655.46
655.64	659.96
656.055	677.13
656.47	652.93
656.885	656.02
657.3	645.33
657.715	679.38
658.13	635.76
658.544	610.98
658.959	605.91
659.374	612.67
659.788	627.87
660.202	616.05
660.617	654.9
661.031	608.44
661.445	605.63
661.86	589.57
662.274	636.6
662.688	608.73
663.102	550.97
663.516	655.46
663.93	582.25
664.344	580
664.758	589.86
665.171	566.47
665.585	574.64
665.999	548.44
666.412	557.17
666.826	573.24
667.239	591.83
667.653	571.54
668.066	553.23
668.479	565.91
668.892	565.35
669.306	567.6
669.719	567.04
670.132	569.57
670.545	558.3
670.958	559.71
671.37	586.19
671.783	518.84
672.196	563.37
672.609	536.88
673.021	527.58
673.434	548.16
673.846	541.39
674.259	512.35
674.671	485.56
675.084	569.57
675.496	543.65
675.908	534.06
676.32	499.38
676.732	511.51
677.144	509.82
677.556	506.71
677.968	516.3
678.38	532.94
678.792	525.89
679.204	507.56
679.615	549.28
680.027	490.92
680.439	493.46
680.85	541.11
681.262	569.01
681.673	509.25
682.084	505.87
682.496	472.3
682.907	521.94
683.318	501.07
683.729	504.46
684.14	502.77
684.551	490.64
684.962	497.13
685.373	501.36
685.784	506.71
686.194	518.56
686.605	448.04
687.016	474.28
687.426	508.41
687.837	460.45
688.247	465.81
688.657	471.18
689.068	483.02
689.478	481.9
689.888	465.81
690.298	487.25
690.708	470.05
691.118	469.76
691.528	430.82
691.938	478.23
692.348	446.63
692.758	457.07
693.168	474.56
693.577	479.92
693.987	448.04
694.396	462.99
694.806	452.83
695.215	476.82
695.625	440.42
696.034	464.12
696.443	442.39
696.852	505.59
697.262	448.6
697.671	436.18
698.08	458.76
698.489	473.71
698.897	432.51
699.306	462.43
699.715	458.2
700.124	450.86
700.532	433.36
700.941	456.79
701.35	441.26
701.758	460.17
702.166	470.89
702.575	445.78
702.983	449.73
703.391	449.45
703.799	446.91
704.208	448.6
704.616	424.33
705.024	467.79
705.432	486.97
705.839	435.9
706.247	460.17
706.655	494.31
707.063	415.86
707.47	422.35
707.878	428
708.285	413.88
708.693	430.82
709.1	440.42
709.508	424.05
709.915	452.83
710.322	453.12
710.729	507
711.136	461.02
711.543	413.6
711.95	417.27
712.357	457.63
712.764	400.05
713.171	419.81
713.578	411.06
713.984	441.26
714.391	431.67
714.797	399.2
715.204	423.48
715.61	435.62
716.017	420.09
716.423	445.78
716.829	431.38
717.236	435.9
717.642	423.76
718.048	453.12
718.454	461.02
718.86	415.29
719.266	494.02
719.671	408.52
720.077	450.58
720.483	432.23
720.889	441.83
721.294	397.22
721.7	426.59
722.105	420.09
722.511	405.98
722.916	424.33
723.321	413.6
723.726	467.23
724.132	433.08
724.537	412.47
724.942	435.05
725.347	402.02
725.752	428
726.156	411.91
726.561	415.86
726.966	426.3
727.371	430.82
727.775	433.93
728.18	395.24
728.584	397.79
728.989	403.15
729.393	507.56
729.798	439.57
730.202	434.21
730.606	407.39
731.01	399.76
731.414	405.41
731.818	403.43
732.222	439.29
732.626	419.53
733.03	426.87
733.434	396.09
733.837	427.15
734.241	389.31
734.645	418.4
735.048	406.82
735.452	433.64
735.855	434.49
736.258	393.55
736.662	444.09
737.065	435.62
737.468	438.72
737.871	420.66
738.274	429.41
738.677	416.99
739.08	419.81
739.483	421.79
739.886	430.26
740.289	438.44
740.691	386.49
741.094	390.44
741.497	424.89
741.899	459.61
742.302	395.81
742.704	403.72
743.106	395.81
743.508	423.48
743.911	392.14
744.313	409.36
744.715	392.42
745.117	411.06
745.519	405.98
745.921	402.3
746.323	391.57
746.724	379.99
747.126	390.44
747.528	421.79
747.929	382.25
748.331	403.72
748.732	398.07
749.134	385.36
749.535	429.69
749.936	455.66
750.338	380.84
750.739	441.55
751.14	387.34
751.541	415.58
751.942	400.61
752.343	398.92
752.744	422.35
753.144	392.14
753.545	387.62
753.946	420.09
754.346	376.32
754.747	437.59
755.148	522.22
755.548	415.86
755.948	353.72
756.349	402.59
756.749	409.65
757.149	392.99
757.549	426.59
757.949	426.87
758.349	415.86
758.749	383.66
759.149	400.61
759.549	400.05
759.949	382.54
760.348	485
760.748	382.82
761.148	405.41
761.547	391.01
761.947	372.37
762.346	384.23
762.745	445.78
763.145	400.05
763.544	389.6
763.943	400.61
764.342	396.09
764.741	408.8
765.14	389.88
765.539	387.62
765.938	433.64
766.336	386.77
766.735	355.7
767.134	409.93
767.532	387.05
767.931	402.02
768.329	456.5
768.728	396.09
769.126	425.74
769.525	450.58
769.923	392.99
770.321	402.59
770.719	421.79
771.117	390.73
771.515	380.84
771.913	418.12
772.311	394.12
772.709	405.69
773.106	392.14
773.504	357.67
773.902	401.74
774.299	410.78
774.697	515.17
775.094	406.54
775.491	405.98
775.889	400.05
776.286	373.78
776.683	362.2
777.08	369.26
777.477	381.41
777.874	413.03
778.271	397.5
778.668	387.9
779.065	392.7
779.462	381.41
779.858	403.43
780.255	430.82
780.652	378.86
781.048	418.12
781.444	391.57
781.841	389.31
782.237	419.53
782.633	376.32
783.03	365.02
783.426	362.2
783.822	373.21
784.218	421.22
784.614	383.1
785.01	359.37
785.405	399.76
785.801	390.16
786.197	385.64
786.593	397.22
786.988	381.97
787.384	412.75
787.779	386.49
788.174	396.94
788.57	402.59
788.965	374.91
789.36	375.47
789.755	366.72
790.15	372.08
790.545	401.46
790.94	364.74
791.335	394.4
791.73	365.02
792.125	435.9
792.52	415.01
792.914	418.96
793.309	364.46
793.703	404.28
794.098	378.02
794.492	400.33
794.887	361.35
795.281	432.51
795.675	421.79
796.069	420.94
796.463	388.18
796.857	384.51
797.251	404.56
797.645	381.12
798.039	389.31
798.433	396.37
798.826	396.09
799.22	377.45
799.614	426.3
800.007	394.12
800.401	419.53
800.794	361.06
801.187	381.12
801.581	370.95
801.974	400.89
802.367	375.19
802.76	367.56
803.153	364.17
803.546	376.89
803.939	390.16
804.332	367.85
804.725	372.08
805.117	370.39
805.51	420.94
805.903	399.48
806.295	378.3
806.688	407.11
807.08	358.52
807.472	415.58
807.865	375.76
808.257	383.1
808.649	434.21
809.041	373.21
809.433	364.74
809.825	381.97
810.217	366.72
810.609	406.54
811.001	401.46
811.392	372.37
811.784	411.91
812.175	393.27
812.567	423.76
812.958	410.49
813.35	390.73
813.741	384.23
814.132	385.92
814.524	416.71
814.915	385.92
815.306	382.25
815.697	373.21
816.088	404.56
816.479	401.46
816.87	399.2
817.26	397.79
817.651	443.8
818.042	421.22
818.432	398.63
818.823	412.19
819.213	392.7
819.604	348.35
819.994	404.56
820.384	384.51
820.775	420.66
821.165	394.4
821.555	406.54
821.945	391.86
822.335	387.62
822.725	403.72
823.114	389.31
823.504	380.84
823.894	377.17
824.284	416.99
824.673	390.44
825.063	369.54
825.452	376.89
825.842	396.66
826.231	428.84
826.62	378.58
827.009	405.98
827.399	406.26
827.788	398.63
828.177	381.41
828.566	431.95
828.954	472.59
829.343	374.63
829.732	361.63
830.121	453.12
830.509	436.18
830.898	384.23
831.286	375.19
831.675	394.12
832.063	409.65
832.452	372.93
832.84	359.93
833.228	412.47
833.616	371.52
834.004	422.63
834.392	402.3
834.78	428.84
835.168	355.41
835.556	391.86
835.944	366.15
836.331	398.07
836.719	417.27
837.107	396.94
837.494	399.48
837.881	357.11
838.269	382.25
838.656	364.74
839.043	374.63
839.431	455.94
839.818	382.54
840.205	369.26
840.592	400.61
840.979	404
841.366	364.17
841.752	370.11
842.139	391.86
842.526	375.76
842.912	396.09
843.299	370.95
843.685	405.13
844.072	411.62
844.458	422.07
844.844	402.02
845.231	378.02
845.617	360.78
846.003	386.77
846.389	375.47
846.775	364.46
847.161	385.64
847.547	335.07
847.933	356.83
848.318	406.54
848.704	358.52
849.09	366.15
849.475	373.5
849.861	419.25
850.246	374.63
850.631	430.26
851.017	402.59
851.402	370.11
851.787	383.1
852.172	431.1
852.557	394.12
852.942	390.16
853.327	384.51
853.712	393.55
854.097	399.2
854.481	389.31
854.866	422.35
855.25	369.26
855.635	372.37
856.019	359.09
856.404	363.04
856.788	385.92
857.172	361.35
857.557	404.28
857.941	399.2
858.325	378.86
858.709	395.53
859.093	392.42
859.477	389.03
859.86	402.87
860.244	362.48
860.628	445.5
861.012	420.66
861.395	398.07
861.779	398.63
862.162	381.97
862.545	343.55
862.929	372.65
863.312	396.09
863.695	368.98
864.078	363.33
864.461	366.15
864.844	405.13
865.227	436.75
865.61	376.32
865.993	385.36
866.376	380.56
866.758	385.92
867.141	411.06
867.523	405.13
867.906	371.8
868.288	388.18
868.671	404
869.053	400.61
869.435	400.89
869.817	415.86
870.199	372.93
870.581	392.99
870.963	379.43
871.345	405.69
871.727	418.68
872.109	367.28
872.491	371.52
872.872	385.92
873.254	370.11
873.635	357.67
874.017	442.96
874.398	372.37
874.779	413.88
875.161	387.05
875.542	391.86
875.923	376.6
876.304	366.15
876.685	399.76
877.066	360.5
877.447	388.75
877.828	362.48
878.208	380.28
878.589	401.18
878.97	454.81
879.35	386.77
879.731	382.54
880.111	394.12
880.491	361.35
880.872	379.99
881.252	379.71
881.632	365.59
882.012	400.89
882.392	413.6
882.772	415.29
883.152	374.91
883.532	391.57
883.912	373.21
884.291	403.43
884.671	393.83
885.051	396.09
885.43	390.16
885.81	405.13
886.189	396.66
886.568	382.54
886.948	371.24
887.327	410.49
887.706	373.78
888.085	426.59
888.464	372.65
888.843	432.23
889.222	382.82
889.601	408.23
889.979	359.09
890.358	365.59
890.737	400.05
891.115	392.7
891.494	364.46
891.872	371.24
892.25	333.09
892.629	412.75
893.007	406.82
893.385	377.73
893.763	369.82
894.141	382.54
894.519	382.54
894.897	369.82
895.275	408.52
895.653	369.82
896.03	400.33
896.408	406.26
896.786	393.27
897.163	358.52
897.541	364.74
897.918	419.81
898.295	366.43
898.673	356.83
899.05	379.99
899.427	543.08
899.804	384.79
900.181	368.41
900.558	425.74
900.935	386.21
901.312	374.63
901.688	368.98
902.065	373.5
902.442	377.45
902.818	371.52
903.195	351.46
903.571	356.54
903.947	368.69
904.324	395.53
904.7	376.89
905.076	428
905.452	364.46
905.828	407.67
906.204	392.14
906.58	375.76
906.956	366.15
907.331	448.32
907.707	406.82
908.083	404.28
908.458	417.27
908.834	376.89
909.209	360.78
909.585	379.71
909.96	389.6
910.335	367.56
910.71	394.96
911.086	416.14
911.461	407.39
911.836	350.89
912.21	355.41
912.585	396.09
912.96	388.18
913.335	355.41
913.709	380.84
914.084	374.91
914.459	398.07
914.833	353.72
915.207	365.3
915.582	360.22
915.956	371.8
916.33	383.38
916.704	362.76
917.078	378.58
917.452	393.27
917.826	357.39
918.2	366.43
918.574	378.58
918.948	390.44
919.321	343.55
919.695	364.74
920.068	382.54
920.442	390.16
920.815	420.94
921.189	368.41
921.562	400.05
921.935	391.01
922.308	354
922.681	395.81
923.054	354.85
923.427	410.78
923.8	378.02
924.173	346.94
924.546	371.24
924.919	386.21
925.291	394.96
925.664	373.78
926.036	368.69
926.409	376.04
926.781	368.41
927.153	379.99
927.526	395.81
927.898	372.65
928.27	363.89
928.642	357.39
929.014	383.95
929.386	349.76
929.758	365.3
930.129	364.46
930.501	419.53
930.873	368.69
931.244	389.88
931.616	356.26
931.987	382.82
932.359	389.31
932.73	402.87
933.101	367
933.472	366.15
933.843	367.56
934.214	409.65
934.585	365.87
934.956	346.09
935.327	442.96
935.698	361.63
936.069	370.95
936.439	383.38
936.81	356.54
937.18	398.92
937.551	347.5
937.921	418.12
938.292	393.55
938.662	363.61
939.032	408.52
939.402	376.32
939.772	380.84
940.142	366.15
940.512	385.36
940.882	390.16
941.252	391.01
941.621	371.8
941.991	367.56
942.361	435.9
942.73	365.87
943.1	391.57
943.469	372.93
943.838	420.09
944.208	408.52
944.577	365.87
944.946	365.59
945.315	376.6
945.684	369.82
946.053	351.46
946.422	390.16
946.791	377.17
947.159	382.54
947.528	350.61
947.897	402.59
948.265	375.19
948.634	389.88
949.002	346.09
949.371	360.5
949.739	345.81
950.107	388.75
950.475	385.64
950.843	385.08
951.211	396.94
951.579	384.51
951.947	370.11
952.315	383.66
952.683	349.48
953.05	353.44
953.418	429.13
953.785	367.85
954.153	343.55
954.52	378.02
954.888	381.41
955.255	365.59
955.622	384.23
955.989	376.32
956.356	392.7
956.723	374.91
957.09	337.89
957.457	380.84
957.824	354.28
958.191	392.99
958.557	418.4
958.924	326.3
959.291	360.22
959.657	363.89
960.023	462.43
960.39	346.09
960.756	348.63
961.122	383.38
961.488	367.56
961.855	374.34
962.221	361.35
962.586	374.34
962.952	414.16
963.318	370.11
963.684	433.93
964.05	424.89
964.415	364.46
964.781	373.21
965.146	358.24
965.512	437.31
965.877	357.39
966.242	369.82
966.608	397.5
966.973	337.61
967.338	365.02
967.703	407.67
968.068	396.66
968.433	375.19
968.797	433.93
969.162	365.02
969.527	383.66
969.891	373.78
970.256	368.98
970.62	363.89
970.985	390.73
971.349	400.33
971.714	386.77
972.078	370.11
972.442	394.96
972.806	396.37
973.17	348.63
973.534	360.5
973.898	363.33
974.262	378.3
974.625	416.71
974.989	379.15
975.353	403.15
975.716	389.31
976.08	350.04
976.443	353.15
976.806	396.37
977.17	367.28
977.533	372.93
977.896	370.95
978.259	384.79
978.622	511.23
978.985	404.56
979.348	365.3
979.711	349.48
980.073	360.22
980.436	360.78
980.799	356.54
981.161	391.01
981.524	374.06
981.886	370.95
982.248	371.52
982.611	365.3
982.973	359.93
983.335	358.24
983.697	357.96
984.059	364.74
984.421	359.09
984.783	397.5
985.145	349.48
985.506	354.28
985.868	386.49
986.23	367.28
986.591	352.59
986.953	400.33
987.314	348.35
987.675	341
988.037	4106.58
988.398	474.56
988.759	383.95
989.12	382.82
989.481	395.24
989.842	389.03
990.203	360.22
990.564	392.42
990.924	381.12
991.285	4583.01
991.646	466.66
992.006	331.96
992.367	369.82
992.727	384.79
993.087	353.15
993.448	334.78
993.808	378.3
994.168	343.83
994.528	354.28
994.888	396.37
995.248	357.39
995.608	351.18
995.967	354.28
996.327	368.13
996.687	363.89
997.046	362.76
997.406	338.74
997.765	355.41
998.125	374.06
998.484	371.24
998.843	404.56
999.202	384.23
999.561	340.44
999.92	347.5
1000.279	359.37
1000.638	357.11
1000.997	357.96
1001.356	355.98
1001.715	358.52
1002.073	372.65
1002.432	407.11
1002.79	379.71
1003.149	353.72
1003.507	380.56
1003.865	378.3
1004.224	367.28
1004.582	383.95
1004.94	380.84
1005.298	362.2
1005.656	336.2
1006.014	329.98
1006.371	360.22
1006.729	337.33
1007.087	396.66
1007.445	376.04
1007.802	383.66
1008.16	371.8
1008.517	376.6
1008.874	399.76
1009.232	342.98
1009.589	366.43
1009.946	372.37
1010.303	368.69
1010.66	353.44
1011.017	353.44
1011.374	418.68
1011.731	360.78
1012.087	366.15
1012.444	372.93
1012.801	382.25
1013.157	355.41
1013.513	354
1013.87	372.37
1014.226	355.13
1014.582	379.71
1014.939	362.76
1015.295	374.63
1015.651	351.46
1016.007	324.33
1016.363	392.14
1016.719	365.3
1017.074	370.11
1017.43	345.24
1017.786	383.95
1018.141	389.03
1018.497	346.37
1018.852	377.17
1019.208	384.51
1019.563	385.92
1019.918	342.7
1020.273	366.15
1020.628	371.8
1020.983	402.3
1021.338	339.31
1021.693	382.82
1022.048	369.82
1022.403	364.74
1022.757	389.88
1023.112	363.61
1023.467	349.2
1023.821	353.72
1024.175	367.85
1024.53	340.44
1024.884	365.59
1025.238	352.59
1025.592	366.15
1025.946	377.17
1026.3	353.72
1026.654	365.59
1027.008	335.07
1027.362	338.46
1027.716	387.62
1028.069	350.04
1028.423	371.8
1028.777	348.35
1029.13	357.39
1029.483	377.17
1029.837	400.89
1030.19	364.46
1030.543	368.13
1030.896	359.93
1031.249	365.87
1031.602	379.15
1031.955	342.7
1032.308	375.47
1032.661	409.08
1033.013	355.98
1033.366	362.48
1033.719	373.21
1034.071	375.19
1034.424	345.24
1034.776	338.18
1035.128	361.63
1035.48	343.55
1035.833	385.64
1036.185	344.68
1036.537	344.68
1036.889	344.68
