Data from SCSF78-405_irradiation_FLMS019251_03-15-12-077.txt Node
Date: Fri Feb 22 03:15:12 PST 2019
User: mu3e
Spectrometer: FLMS01925
Trigger mode: 0
Integration Time (sec): 3.659600E-1
Scans to average: 10
Electric dark correction enabled: true
Nonlinearity correction enabled: true
Boxcar width: 0
XAxis mode: Wavelengths
Number of Pixels in Spectrum: 2048
>>>>>Begin Spectral Data<<<<<
187.103	-119.72
187.574	-119.72
188.045	-119.72
188.516	-170.64
188.987	-118.86
189.458	-105.5
189.929	-112.89
190.4	-103.79
190.871	-113.18
191.342	-97.82
191.813	-75.08
192.284	4.45
192.754	-22.24
193.225	6.16
193.696	-10.31
194.166	25.18
194.637	94.4
195.107	98.08
195.578	127.85
196.048	136.92
196.518	146.84
196.989	203.2
197.459	191.59
197.929	212.83
198.399	302.8
198.869	290.93
199.339	322.03
199.809	322.88
200.279	339.55
200.749	371.2
201.219	359.33
201.689	361.59
202.159	371.77
202.628	365.83
203.098	373.74
203.568	363.01
204.037	392.39
204.507	412.43
204.976	414.13
205.445	399.16
205.915	367.53
206.384	400.29
206.853	385.61
207.323	422.32
207.792	376.29
208.261	384.19
208.73	378.26
209.199	421.47
209.668	403.68
210.137	417.52
210.606	389.56
211.075	384.48
211.543	404.53
212.012	420.62
212.481	361.88
212.95	376.29
213.418	400.01
213.887	404.53
214.355	390.13
214.824	367.81
215.292	376.29
215.76	360.18
216.229	364.99
216.697	359.33
217.165	373.74
217.633	344.92
218.101	361.59
218.569	449.7
219.037	347.75
219.505	404.81
219.973	358.77
220.441	335.6
220.909	366.68
221.377	365.83
221.844	383.91
222.312	364.14
222.78	354.53
223.247	369.79
223.715	339.55
224.182	358.77
224.65	389.84
225.117	412.15
225.584	372.61
226.052	364.7
226.519	373.18
226.986	353.4
227.453	355.1
227.92	381.37
228.387	390.13
228.854	362.72
229.321	350.01
229.788	362.16
230.255	390.13
230.722	396.62
231.189	374.59
231.655	367.25
232.122	387.02
232.589	372.33
233.055	364.7
233.522	382.78
233.988	372.33
234.454	394.93
234.921	355.38
235.387	424.29
235.853	367.25
236.32	372.33
236.786	361.88
237.252	360.18
237.718	391.82
238.184	372.33
238.65	369.22
239.116	397.75
239.582	376.85
240.047	366.12
240.513	366.12
240.979	391.54
241.445	365.27
241.91	358.2
242.376	370.92
242.841	373.74
243.307	328.25
243.772	382.5
244.238	357.92
244.703	396.62
245.168	372.9
245.633	379.96
246.099	356.79
246.564	373.74
247.029	374.59
247.494	358.77
247.959	364.99
248.424	366.68
248.889	353.4
249.353	413
249.818	399.73
250.283	372.9
250.748	363.57
251.212	391.26
251.677	366.68
252.141	377.13
252.606	389.28
253.07	378.26
253.535	387.87
253.999	372.33
254.463	349.44
254.927	343.79
255.392	405.94
255.856	405.38
256.32	384.76
256.784	378.55
257.248	403.4
257.712	398.88
258.176	420.9
258.64	359.62
259.103	368.38
259.567	391.26
260.031	379.11
260.495	389.28
260.958	418.08
261.422	379.39
261.885	376.57
262.349	363.01
262.812	369.51
263.275	388.71
263.739	374.31
264.202	413.85
264.665	389.56
265.128	402.55
265.591	374.03
266.054	388.43
266.517	386.45
266.98	379.68
267.443	380.24
267.906	365.83
268.369	371.48
268.832	392.1
269.294	379.39
269.757	404.53
270.22	383.06
270.682	387.3
271.145	396.62
271.607	384.19
272.07	468.88
272.532	389.84
272.994	385.89
273.456	415.26
273.919	452.8
274.381	381.37
274.843	420.34
275.305	403.68
275.767	383.63
276.229	405.38
276.691	398.88
277.153	390.13
277.614	394.93
278.076	376.29
278.538	380.8
279	397.47
279.461	405.94
279.923	438.97
280.384	388.43
280.846	405.38
281.307	388.43
281.769	369.22
282.23	367.25
282.691	423.45
283.152	400.29
283.613	385.04
284.075	401.7
284.536	385.04
284.997	409.33
285.458	392.95
285.918	387.87
286.379	406.22
286.84	424.86
287.301	358.2
287.762	393.8
288.222	400.29
288.683	399.45
289.143	366.68
289.604	403.96
290.064	392.39
290.525	386.74
290.985	473.11
291.445	393.23
291.906	382.78
292.366	406.79
292.826	391.82
293.286	433.61
293.746	377.98
294.206	416.95
294.666	390.13
295.126	435.87
295.586	377.98
296.046	394.64
296.506	408.48
296.965	386.45
297.425	393.8
297.884	414.98
298.344	410.74
298.804	398.03
299.263	377.13
299.722	413
300.182	400.58
300.641	390.97
301.1	387.58
301.559	411.87
302.019	393.51
302.478	380.24
302.937	397.19
303.396	390.69
303.855	483.27
304.314	396.62
304.772	535.72
305.231	430.5
305.69	406.51
306.149	398.03
306.607	394.36
307.066	444.33
307.524	425.42
307.983	409.05
308.441	441.51
308.9	451.95
309.358	425.7
309.816	479.89
310.275	392.67
310.733	403.4
311.191	400.29
311.649	399.16
312.107	425.99
312.565	391.82
313.023	399.73
313.481	425.14
313.939	396.62
314.397	382.78
314.854	398.6
315.312	413
315.77	396.06
316.227	401.99
316.685	391.82
317.142	361.31
317.6	440.1
318.057	401.42
318.514	421.75
318.972	418.93
319.429	414.13
319.886	408.76
320.343	408.2
320.8	366.12
321.257	402.55
321.714	459.29
322.171	439.25
322.628	413.85
323.085	391.26
323.542	386.45
323.998	410.74
324.455	404.25
324.912	433.04
325.368	420.06
325.825	454.21
326.281	408.76
326.738	422.03
327.194	389.84
327.65	430.5
328.107	377.7
328.563	388.43
329.019	443.49
329.475	390.97
329.931	413.85
330.387	398.03
330.843	420.62
331.299	420.06
331.755	408.48
332.211	408.48
332.666	394.64
333.122	414.13
333.578	438.41
334.033	393.8
334.489	404.25
334.944	383.06
335.4	471.14
335.855	462.68
336.31	381.65
336.766	415.82
337.221	423.45
337.676	421.47
338.131	449.7
338.586	445.74
339.041	425.7
339.496	435.02
339.951	417.23
340.406	427.12
340.861	423.16
341.316	455.06
341.771	396.62
342.225	418.65
342.68	407.63
343.134	405.38
343.589	408.2
344.043	420.9
344.498	413
344.952	411.02
345.406	610.1
345.861	398.88
346.315	375.72
346.769	397.47
347.223	405.66
347.677	403.4
348.131	394.64
348.585	393.23
349.039	414.13
349.493	399.73
349.947	385.89
350.401	382.5
350.854	419.49
351.308	457.31
351.762	399.73
352.215	448.85
352.669	411.59
353.122	400.01
353.575	405.66
354.029	430.5
354.482	380.8
354.935	416.67
355.388	419.21
355.842	425.7
356.295	398.32
356.748	382.22
357.201	387.3
357.654	410.46
358.106	424.57
358.559	387.87
359.012	392.95
359.465	412.72
359.917	407.63
360.37	391.82
360.823	425.7
361.275	436.71
361.728	423.73
362.18	413.85
362.632	425.7
363.085	380.24
363.537	420.34
363.989	419.78
364.441	426.27
364.893	411.31
365.345	411.02
365.797	411.87
366.249	425.99
366.701	407.35
367.153	425.7
367.605	406.79
368.057	413.28
368.508	389.56
368.96	387.3
369.411	395.21
369.863	431.91
370.314	405.38
370.766	404.25
371.217	420.34
371.669	432.76
372.12	444.9
372.571	433.33
373.022	417.8
373.473	411.31
373.924	392.67
374.375	427.12
374.826	428.53
375.277	405.09
375.728	405.09
376.179	414.41
376.63	418.65
377.08	431.63
377.531	412.72
377.981	397.19
378.432	429.66
378.883	432.2
379.333	423.45
379.783	429.09
380.234	439.82
380.684	399.73
381.134	437.28
381.584	451.39
382.034	468.6
382.485	451.11
382.935	415.26
383.385	464.93
383.834	417.8
384.284	438.41
384.734	409.05
385.184	435.87
385.634	410.46
386.083	442.08
386.533	392.39
386.982	415.54
387.432	485.53
387.881	413.85
388.331	442.92
388.78	442.92
389.229	418.65
389.679	408.2
390.128	436.71
390.577	437.56
391.026	427.68
391.475	398.88
391.924	423.45
392.373	435.58
392.822	407.63
393.27	421.47
393.719	407.63
394.168	413.85
394.617	443.2
395.065	400.86
395.514	463.24
395.962	472.83
396.411	430.22
396.859	440.38
397.307	462.39
397.756	478.19
398.204	451.39
398.652	492.58
399.1	440.66
399.548	469.45
399.996	504.71
400.444	465.5
400.892	436.71
401.34	462.39
401.788	449.98
402.236	433.61
402.683	441.23
403.131	456.47
403.579	485.81
404.026	466.34
404.474	454.21
404.921	484.96
405.369	454.21
405.816	469.45
406.263	461.26
406.71	508.37
407.158	479.6
407.605	481.58
408.052	493.14
408.499	513.45
408.946	491.45
409.393	504.14
409.84	495.96
410.286	528.95
410.733	527.83
411.18	552.07
411.626	612.07
412.073	684.69
412.52	730.25
412.966	815.11
413.413	920.63
413.859	1102.14
414.305	1306.39
414.752	1638.02
415.198	1935.87
415.644	2489.51
416.09	3039.17
416.536	3606.49
416.982	4375.47
417.428	5158.03
417.874	6146.93
418.32	7121.46
418.766	8265.71
419.211	9592.11
419.657	10824.97
420.103	12312.92
420.548	13428.61
420.994	15100.92
421.439	16613.8
421.885	17958.43
422.33	19822.45
422.776	21333
423.221	22707.12
423.666	24343.48
424.111	25943.7
424.556	27167.18
425.001	28912.01
425.446	30406.54
425.891	31979.76
426.336	32813.07
426.781	34287.26
427.226	36555.71
427.671	37060.75
428.115	37651.99
428.56	39549.05
429.005	40840.23
429.449	41122.77
429.894	42368.44
430.338	43301.52
430.782	43083.67
431.227	44277.52
431.671	44422.12
432.115	45653.44
432.559	46510.81
433.003	46069.25
433.447	46810.18
433.891	46901.8
434.335	47054.38
434.779	47834.69
435.223	47846.23
435.667	47859.57
436.111	48164.26
436.554	47919.88
436.998	47482.52
437.442	47227.05
437.885	49290.31
438.328	47906.27
438.772	47959.67
439.215	48355.06
439.659	47976.11
440.102	48403.52
440.545	47639.65
440.988	47573.86
441.431	48496.39
441.874	47929.89
442.317	48254.34
442.76	47439.31
443.203	47134.69
443.646	47818.78
444.089	47356.25
444.531	48034.68
444.974	46519.19
445.417	47810.83
445.859	46816.8
446.302	48160.14
446.744	47425
447.186	48553.69
447.629	47694.72
448.071	47624.03
448.513	47716.24
448.956	49326.23
449.398	48514.45
449.84	47249
450.282	48056.78
450.724	48582.36
451.166	48213.41
451.607	48311.77
452.049	48396.56
452.491	49737.99
452.933	49051.75
453.374	49688.04
453.816	50369.02
454.257	50029.37
454.699	51352.8
455.14	50973.53
455.582	50737.78
456.023	50614.12
456.464	51104.24
456.905	51698.04
457.347	51670.07
457.788	50721.35
458.229	50981.51
458.67	52234.53
459.111	50110.79
459.552	50318.41
459.992	50191.51
460.433	50111.05
460.874	49076.93
461.315	50362.69
461.755	49512.82
462.196	48990
462.636	48319.5
463.077	47978.93
463.517	48116.42
463.957	48593.98
464.398	48069.63
464.838	48262.58
465.278	47125.77
465.718	47565.41
466.158	46344.88
466.598	47134.18
467.038	46442.54
467.478	47081.15
467.918	47320.49
468.358	46663.21
468.798	46268.57
469.237	46137.6
469.677	46390.02
470.117	47216.84
470.556	44777.7
470.996	45234.91
471.435	45518.94
471.874	46332.2
472.314	45987.26
472.753	45128.68
473.192	45447.32
473.631	45054.71
474.07	45313.25
474.509	45361.37
474.948	45811.04
475.387	45062.76
475.826	44197.37
476.265	46068.24
476.704	45600.69
477.143	45917.21
477.581	45669.09
478.02	46487.46
478.458	45073.07
478.897	45828.22
479.335	46939.74
479.774	46459.54
480.212	46815.27
480.65	46812.22
481.089	46543.06
481.527	46031.79
481.965	45578.99
482.403	47750.33
482.841	47450.56
483.279	47602.27
483.717	47686.27
484.155	47300.06
484.592	47779.81
485.03	48106.14
485.468	46909.69
485.905	47283.21
486.343	47883.69
486.781	46982.53
487.218	46462.59
487.655	46453.7
488.093	45543.67
488.53	47273.76
488.967	46195.35
489.405	46095.83
489.842	45193.87
490.279	45077.6
490.716	44687.05
491.153	45320.55
491.59	44751.08
492.027	43920.34
492.463	43532.06
492.9	42881.2
493.337	42529.47
493.773	42773.44
494.21	41730.54
494.647	41599.47
495.083	40801.69
495.519	40383.96
495.956	40633
496.392	39609.36
496.828	39484.32
497.265	38582.9
497.701	38956.3
498.137	38580.94
498.573	37663.51
499.009	38253.01
499.445	37353.84
499.881	36706.88
500.316	37147.17
500.752	36023.94
501.188	35851.42
501.624	35843.35
502.059	34291.4
502.495	34322.88
502.93	34285.55
503.366	34874.85
503.801	33729.9
504.236	33468.72
504.672	32912.79
505.107	32416.41
505.542	31877.6
505.977	31969.03
506.412	31340.45
506.847	31705.71
507.282	31091.22
507.717	30660.98
508.152	30741.23
508.587	30455.33
509.021	29710.55
509.456	29422.23
509.891	29461.05
510.325	29189.5
510.76	29038.8
511.194	28681.11
511.628	28935.47
512.063	27874.76
512.497	28143.81
512.931	27536.12
513.366	27310.42
513.8	27319.72
514.234	26653.19
514.668	26533.33
515.102	26796.8
515.536	25868.6
515.969	26079.63
516.403	25648.16
516.837	25189.55
517.271	25258.85
517.704	24748.25
518.138	24677.41
518.571	24413.14
519.005	24015.24
519.438	23947.49
519.871	23740.99
520.305	23300.59
520.738	23083.19
521.171	22585.57
521.604	22770.85
522.037	22409.6
522.47	22081.46
522.903	21654.53
523.336	21538.13
523.769	21464.07
524.202	20800.4
524.634	20895.91
525.067	20645.8
525.5	20442.97
525.932	20332.95
526.365	19848.31
526.797	19602.55
527.23	19593.34
527.662	19057.75
528.094	18743.19
528.527	18722.99
528.959	18440.85
529.391	18161.26
529.823	17623.48
530.255	17660.49
530.687	17231.41
531.119	16944.91
531.551	16869.49
531.982	16560.64
532.414	16443
532.846	16080.03
533.277	15929.82
533.709	15464.18
534.14	15477.01
534.572	15121.32
535.003	15223.56
535.435	14819.44
535.866	14577.83
536.297	14152.4
536.728	14267.59
537.159	14167.3
537.59	13871.05
538.022	13632.71
538.452	13464.58
538.883	13152.36
539.314	13097.84
539.745	12764.1
540.176	12600.76
540.606	12234.04
541.037	12358.46
541.468	12034.93
541.898	11871.08
542.328	11865.22
542.759	11578.51
543.189	11510.35
543.619	11335.9
544.05	11160.79
544.48	10991.93
544.91	10861.6
545.34	10649.16
545.77	10579.67
546.2	10397.99
546.63	10297.06
547.06	10207.91
547.489	10045.41
547.919	9780.02
548.349	9823.29
548.778	9682.35
549.208	9508.79
549.637	9388.77
550.067	9255.74
550.496	9237.65
550.926	8994.53
551.355	8862.2
551.784	8855.98
552.213	8657.67
552.642	8537.77
553.071	8523.75
553.5	8392.06
553.929	8171.26
554.358	8129.09
554.787	8019.18
555.216	7926.13
555.645	7801.71
556.073	7725.49
556.502	7665.94
556.93	7523.24
557.359	7388.23
557.787	7371.21
558.216	7256.22
558.644	7263.56
559.072	7115.43
559.5	6991.02
559.929	6967.64
560.357	7026.2
560.785	6892.76
561.213	6833.88
561.641	6721.55
562.068	6748.66
562.496	6607.01
562.924	6567.49
563.352	6561.96
563.779	6471.79
564.207	6534.28
564.634	6430.91
565.062	6387.89
565.489	6260.08
565.917	6223.87
566.344	6226.25
566.771	6154.34
567.198	6137.15
567.625	5933.02
568.053	5839.7
568.48	5882.66
568.907	5774.17
569.333	5725.07
569.76	5567.24
570.187	5631.04
570.614	5420.1
571.04	11252.58
571.467	5414.51
571.894	5278.08
572.32	5152.42
572.747	5055.2
573.173	4980.89
573.599	4842
574.026	4802.09
574.452	4745.55
574.878	4675.56
575.304	4576.53
575.73	4562.57
576.156	4405.6
576.582	4373.86
577.008	4246.76
577.434	4184.77
577.86	4146.21
578.285	4097.1
578.711	4094.67
579.137	3961.25
579.562	3859.3
579.988	3830.07
580.413	3774.29
580.838	3717.67
581.264	3661.55
581.689	3685.14
582.114	3599.16
582.539	4010.7
582.964	3532.38
583.39	3471.25
583.814	3340.98
584.239	3315.94
584.664	3302.87
585.089	3225.24
585.514	3197.16
585.939	3174.53
586.363	3059.38
586.788	3031.52
587.212	2972.78
587.637	2993.55
588.061	2887.18
588.485	2855.16
588.91	2849.96
589.334	2788.35
589.758	2791.09
590.182	2790
590.606	2669.66
591.03	2662.25
591.454	2618.89
591.878	2595.56
592.302	2564.52
592.726	2571.12
593.15	2491.71
593.573	2428.45
593.997	2413.87
594.42	2348.9
594.844	2352.48
595.267	2318.05
595.691	2302.35
596.114	2240.33
596.537	2257.97
596.96	2237.02
597.384	2225.71
597.807	2140.72
598.23	2166.39
598.653	2158.11
599.076	2114.76
599.499	2091.83
599.921	2080.78
600.344	2047.89
600.767	2023.57
601.189	2051.76
601.612	1998.12
602.034	2016.38
602.457	2025.22
602.879	2110.62
603.302	1974.33
603.724	1949.15
604.146	1929.5
604.568	1891.84
604.991	1917.59
605.413	1933.1
605.835	1937.8
606.257	1897.1
606.678	1875.5
607.1	1899.32
607.522	1886.3
607.944	1892.12
608.365	1856.38
608.787	1808.71
609.209	1854.72
609.63	1773.77
610.051	1730.21
610.473	1770.16
610.894	1736.04
611.315	1687.18
611.737	1643.85
612.158	1621.9
612.579	1606.06
613	1687.46
613.421	1590.77
613.842	1621.07
614.263	1545.44
614.683	1519.56
615.104	1515.95
615.525	1497.58
615.945	1452.47
616.366	1412.63
616.787	1449.96
617.207	1389.5
617.627	1376.4
618.048	1353.81
618.468	1412.08
618.888	1338.75
619.308	1306.67
619.728	1314.48
620.148	1272.9
620.568	1323.97
620.988	1301.09
621.408	1273.74
621.828	1226.55
622.248	1254.19
622.668	1205.87
623.087	1201.4
623.507	1187.71
623.926	1195.81
624.346	1175.13
624.765	1162.83
625.185	1150.25
625.604	1108.3
626.023	1122.85
626.442	1100.75
626.861	1121.45
627.28	1090.95
627.699	1054.01
628.118	1041.69
628.537	1053.45
628.956	1052.61
629.375	1069.96
629.794	1021.81
630.212	1003.32
630.631	999.12
631.049	993.51
631.468	1015.08
631.886	960.44
632.305	987.07
632.723	927.64
633.141	942.78
633.559	971.94
633.978	942.5
634.396	954.84
634.814	924.56
635.232	895.95
635.65	913.9
636.067	897.07
636.485	835.05
636.903	858.35
637.321	875.75
637.738	914.18
638.156	877.99
638.573	856.1
638.991	900.44
639.408	867.05
639.825	795.45
640.243	865.64
640.66	788.99
641.077	824.38
641.494	820.16
641.911	808.65
642.328	795.45
642.745	806.4
643.162	792.64
643.579	789.27
643.995	773.53
644.412	848.52
644.829	740.09
645.245	766.51
645.662	747.12
646.078	733.9
646.495	700.72
646.911	741.21
647.327	772.69
647.743	704.66
648.159	746.55
648.576	677.37
648.992	718.72
649.408	702.97
649.824	701.85
650.239	685.81
650.655	705.78
651.071	679.34
651.487	681.87
651.902	714.5
652.318	687.5
652.733	639.94
653.149	670.62
653.564	652.05
653.979	661.62
654.395	647.54
654.81	630.65
655.225	670.9
655.64	632.62
656.055	643.04
656.47	655.14
656.885	610.66
657.3	608.69
657.715	691.44
658.13	648.39
658.544	608.69
658.959	608.13
659.374	625.59
659.788	651.77
660.202	622.49
660.617	656.27
661.031	597.99
661.445	609.25
661.86	620.52
662.274	625.3
662.688	623.05
663.102	584.47
663.516	586.44
663.93	593.2
664.344	601.93
664.758	582.22
665.171	595.45
665.585	587.57
665.999	590.38
666.412	530.08
666.826	575.45
667.239	586.44
667.653	594.33
668.066	557.14
668.479	572.07
668.892	511.19
669.306	582.78
669.719	549.53
670.132	569.82
670.545	538.82
670.958	520.78
671.37	552.91
671.783	528.67
672.196	584.19
672.609	550.38
673.021	528.95
673.434	564.47
673.846	524.16
674.259	528.95
674.671	517.96
675.084	529.24
675.496	548.68
675.908	521.91
676.32	541.36
676.732	526.13
677.144	528.11
677.556	514.01
677.968	536.56
678.38	549.53
678.792	537.41
679.204	513.73
679.615	526.13
680.027	503.58
680.439	490.04
680.85	519.37
681.262	532.05
681.673	511.19
682.084	499.91
682.496	509.22
682.907	503.86
683.318	493.42
683.729	484.12
684.14	497.37
684.551	483.83
684.962	506.96
685.373	499.35
685.784	466.91
686.194	477.63
686.605	470.01
687.016	473.96
687.426	484.96
687.837	486.37
688.247	510.63
688.657	449.7
689.068	469.73
689.478	490.6
689.888	455.06
690.298	459.29
690.708	476.78
691.118	497.09
691.528	486.94
691.938	461.26
692.348	477.35
692.758	490.89
693.168	456.47
693.577	483.83
693.987	446.31
694.396	462.68
694.806	459.01
695.215	440.38
695.625	457.31
696.034	457.6
696.443	448.85
696.852	471.99
697.262	454.49
697.671	441.79
698.08	471.7
698.489	464.37
698.897	461.55
699.306	433.33
699.715	448
700.124	456.47
700.532	453.36
700.941	459.85
701.35	436.99
701.758	451.67
702.166	430.5
702.575	458.73
702.983	416.67
703.391	446.03
703.799	465.78
704.208	441.23
704.616	441.23
705.024	484.12
705.432	438.69
705.839	419.49
706.247	458.73
706.655	517.39
707.063	440.66
707.47	396.06
707.878	430.78
708.285	440.38
708.693	440.38
709.1	405.94
709.508	412.43
709.915	418.36
710.322	396.06
710.729	499.07
711.136	430.22
711.543	421.47
711.95	422.32
712.357	395.49
712.764	441.23
713.171	450.82
713.578	398.32
713.984	431.63
714.391	401.7
714.797	420.34
715.204	400.86
715.61	448
716.017	394.36
716.423	457.31
716.829	432.76
717.236	427.68
717.642	421.47
718.048	448.85
718.454	431.07
718.86	395.77
719.266	495.4
719.671	421.47
720.077	453.36
720.483	398.03
720.889	438.12
721.294	424.29
721.7	429.09
722.105	433.89
722.511	414.41
722.916	405.38
723.321	418.93
723.726	425.7
724.132	417.52
724.537	431.91
724.942	421.19
725.347	401.99
725.752	411.59
726.156	386.17
726.561	408.48
726.966	395.49
727.371	424.01
727.775	447.44
728.18	409.05
728.584	399.16
728.989	403.12
729.393	524.72
729.798	407.92
730.202	423.16
730.606	409.33
731.01	390.41
731.414	428.24
731.818	409.33
732.222	430.5
732.626	407.07
733.03	434.45
733.434	398.6
733.837	428.53
734.241	401.7
734.645	417.8
735.048	396.9
735.452	411.87
735.855	382.5
736.258	400.86
736.662	464.09
737.065	458.44
737.468	413.28
737.871	426.55
738.274	424.57
738.677	448.57
739.08	409.61
739.483	416.95
739.886	403.68
740.289	426.83
740.691	383.91
741.094	396.9
741.497	408.48
741.899	428.81
742.302	392.67
742.704	380.52
743.106	407.07
743.508	379.96
743.911	400.29
744.313	399.73
744.715	368.38
745.117	385.04
745.519	372.9
745.921	398.88
746.323	416.11
746.724	404.53
747.126	394.08
747.528	425.99
747.929	372.61
748.331	403.96
748.732	401.7
749.134	387.58
749.535	400.58
749.936	426.83
750.338	384.19
750.739	423.16
751.14	383.63
751.541	410.18
751.942	397.19
752.343	403.4
752.744	396.34
753.144	404.25
753.545	368.38
753.946	412.72
754.346	397.75
754.747	412.15
755.148	492.3
755.548	391.26
755.948	406.79
756.349	397.19
756.749	402.83
757.149	377.98
757.549	426.27
757.949	431.63
758.349	409.33
758.749	422.6
759.149	390.13
759.549	382.78
759.949	403.96
760.348	470.29
760.748	405.38
761.148	381.65
761.547	398.88
761.947	390.97
762.346	430.78
762.745	449.41
763.145	389.28
763.544	393.8
763.943	389.56
764.342	392.67
764.741	376.29
765.14	392.1
765.539	400.58
765.938	465.22
766.336	379.11
766.735	396.34
767.134	362.72
767.532	370.64
767.931	385.32
768.329	449.41
768.728	358.49
769.126	380.52
769.525	469.73
769.923	396.06
770.321	400.58
770.719	401.7
771.117	407.63
771.515	412.43
771.913	411.59
772.311	383.63
772.709	372.05
773.106	365.83
773.504	385.04
773.902	375.72
774.299	394.64
774.697	494.83
775.094	398.6
775.491	406.79
775.889	387.02
776.286	358.49
776.683	384.76
777.08	363.29
777.477	384.19
777.874	402.83
778.271	394.64
778.668	390.41
779.065	413
779.462	408.48
779.858	384.76
780.255	395.21
780.652	399.45
781.048	445.18
781.444	400.58
781.841	387.87
782.237	367.25
782.633	389.28
783.03	394.64
783.426	404.53
783.822	368.94
784.218	362.16
784.614	370.92
785.01	390.13
785.405	406.51
785.801	392.39
786.197	381.37
786.593	376.57
786.988	380.8
787.384	408.2
787.779	384.48
788.174	377.42
788.57	399.16
788.965	401.7
789.36	387.87
789.755	364.14
790.15	366.12
790.545	376.29
790.94	364.14
791.335	381.65
791.73	374.31
792.125	426.27
792.52	396.9
792.914	405.09
793.309	389.28
793.703	413
794.098	374.59
794.492	412.15
794.887	387.58
795.281	429.09
795.675	386.45
796.069	397.19
796.463	390.13
796.857	385.61
797.251	393.51
797.645	375.16
798.039	377.42
798.433	408.2
798.826	387.3
799.22	390.97
799.614	407.63
800.007	388.15
800.401	387.58
800.794	366.96
801.187	379.96
801.581	393.8
801.974	403.96
802.367	401.14
802.76	381.65
803.153	377.98
803.546	384.48
803.939	402.83
804.332	363.85
804.725	362.44
805.117	364.7
805.51	415.26
805.903	379.68
806.295	407.35
806.688	374.59
807.08	363.57
807.472	432.2
807.865	373.18
808.257	379.39
808.649	418.65
809.041	380.52
809.433	369.22
809.825	374.59
810.217	382.78
810.609	386.45
811.001	389.28
811.392	375.72
811.784	411.02
812.175	365.55
812.567	366.12
812.958	381.65
813.35	404.25
813.741	350.29
814.132	377.7
814.524	383.63
814.915	390.41
815.306	367.53
815.697	403.96
816.088	407.07
816.479	424.29
816.87	393.51
817.26	386.17
817.651	401.99
818.042	374.31
818.432	371.48
818.823	396.34
819.213	397.75
819.604	374.31
819.994	388.71
820.384	396.62
820.775	390.13
821.165	394.08
821.555	385.61
821.945	373.46
822.335	365.27
822.725	407.07
823.114	394.93
823.504	389
823.894	368.66
824.284	409.89
824.673	386.45
825.063	395.49
825.452	379.11
825.842	372.05
826.231	429.94
826.62	368.09
827.009	412.72
827.399	385.61
827.788	353.68
828.177	398.6
828.566	387.02
828.954	473.68
829.343	390.13
829.732	390.97
830.121	444.05
830.509	434.45
830.898	368.09
831.286	374.31
831.675	409.33
832.063	403.68
832.452	382.78
832.84	375.16
833.228	439.54
833.616	367.81
834.004	398.32
834.392	391.54
834.78	425.7
835.168	376.85
835.556	389
835.944	403.4
836.331	417.52
836.719	378.83
837.107	375.72
837.494	410.18
837.881	394.08
838.269	385.04
838.656	349.16
839.043	368.94
839.431	444.62
839.818	397.75
840.205	356.51
840.592	378.26
840.979	362.44
841.366	384.19
841.752	382.5
842.139	384.19
842.526	385.04
842.912	389.56
843.299	351.42
843.685	399.16
844.072	380.24
844.458	401.14
844.844	360.75
845.231	370.92
845.617	378.26
846.003	396.34
846.389	381.65
846.775	353.12
847.161	346.62
847.547	374.03
847.933	362.16
848.318	408.2
848.704	384.48
849.09	382.5
849.475	362.72
849.861	360.75
850.246	380.24
850.631	397.75
851.017	380.24
851.402	391.54
851.787	366.4
852.172	409.33
852.557	372.33
852.942	376.57
853.327	399.73
853.712	406.22
854.097	417.52
854.481	382.22
854.866	391.26
855.25	388.15
855.635	403.68
856.019	363.85
856.404	361.88
856.788	363.57
857.172	355.94
857.557	392.95
857.941	389.84
858.325	357.36
858.709	389
859.093	376
859.477	379.11
859.86	408.2
860.244	369.51
860.628	409.61
861.012	383.35
861.395	388.43
861.779	381.65
862.162	383.35
862.545	371.2
862.929	359.05
863.312	389.84
863.695	351.14
864.078	394.64
864.461	389.84
864.844	368.94
865.227	414.98
865.61	366.4
865.993	365.83
866.376	390.41
866.758	396.06
867.141	377.7
867.523	397.75
867.906	375.16
868.288	389.56
868.671	372.9
869.053	399.73
869.435	387.3
869.817	409.61
870.199	367.25
870.581	359.62
870.963	406.79
871.345	414.98
871.727	402.83
872.109	339.55
872.491	368.09
872.872	369.79
873.254	382.5
873.635	370.35
874.017	395.49
874.398	381.37
874.779	377.42
875.161	390.41
875.542	405.38
875.923	385.04
876.304	377.7
876.685	368.66
877.066	345.49
877.447	353.12
877.828	400.29
878.208	389.56
878.589	417.52
878.97	416.67
879.35	335.88
879.731	351.99
880.111	353.12
880.491	368.66
880.872	395.21
881.252	364.42
881.632	364.7
882.012	394.64
882.392	393.23
882.772	425.14
883.152	394.93
883.532	379.39
883.912	386.45
884.291	380.24
884.671	377.98
885.051	400.29
885.43	362.44
885.81	394.36
886.189	353.4
886.568	376.57
886.948	408.76
887.327	372.05
887.706	382.22
888.085	411.59
888.464	368.94
888.843	436.99
889.222	396.62
889.601	395.77
889.979	383.91
890.358	396.34
890.737	371.48
891.115	372.61
891.494	389.84
891.872	358.2
892.25	359.9
892.629	402.55
893.007	427.12
893.385	387.58
893.763	368.94
894.141	391.82
894.519	406.51
894.897	354.53
895.275	352.55
895.653	400.29
896.03	369.22
896.408	373.74
896.786	388.71
897.163	357.92
897.541	389.28
897.918	423.73
898.295	365.27
898.673	366.68
899.05	357.36
899.427	546.43
899.804	363.29
900.181	376.29
900.558	401.14
900.935	368.94
901.312	373.18
901.688	363.57
902.065	415.26
902.442	390.41
902.818	383.63
903.195	364.99
903.571	357.64
903.947	387.3
904.324	366.4
904.7	370.64
905.076	400.58
905.452	397.47
905.828	404.53
906.204	364.14
906.58	374.31
906.956	378.26
907.331	418.65
907.707	401.99
908.083	417.23
908.458	355.94
908.834	389.28
909.209	384.48
909.585	372.33
909.96	370.64
910.335	375.44
910.71	356.51
911.086	411.87
911.461	407.07
911.836	356.23
912.21	374.03
912.585	388.15
912.96	389
913.335	355.94
913.709	385.61
914.084	373.18
914.459	367.81
914.833	366.4
915.207	338.99
915.582	366.68
915.956	357.92
916.33	383.35
916.704	370.92
917.078	348.03
917.452	405.38
917.826	353.4
918.2	379.96
918.574	358.49
918.948	365.83
919.321	377.7
919.695	383.91
920.068	366.12
920.442	362.44
920.815	379.68
921.189	363.01
921.562	395.21
921.935	384.19
922.308	363.01
922.681	365.27
923.054	374.31
923.427	407.92
923.8	375.44
924.173	333.62
924.546	374.03
924.919	361.59
925.291	368.94
925.664	353.97
926.036	385.04
926.409	355.94
926.781	359.62
927.153	357.36
927.526	395.21
927.898	361.31
928.27	354.25
928.642	374.87
929.014	361.59
929.386	353.12
929.758	349.44
930.129	349.44
930.501	393.51
930.873	352.84
931.244	389.28
931.616	342.94
931.987	396.9
932.359	409.33
932.73	393.51
933.101	402.83
933.472	384.19
933.843	389.84
934.214	397.19
934.585	357.92
934.956	367.53
935.327	424.01
935.698	354.25
936.069	372.61
936.439	350.29
936.81	360.18
937.18	396.62
937.551	352.84
937.921	403.12
938.292	379.68
938.662	379.11
939.032	398.03
939.402	362.16
939.772	393.8
940.142	350.57
940.512	358.2
940.882	379.11
941.252	383.06
941.621	345.77
941.991	374.03
942.361	397.47
942.73	359.33
943.1	325.42
943.469	367.81
943.838	420.9
944.208	377.13
944.577	342.94
944.946	363.85
945.315	360.46
945.684	362.16
946.053	346.62
946.422	370.92
946.791	355.38
947.159	378.26
947.528	339.84
947.897	355.1
948.265	351.71
948.634	379.39
949.002	350.57
949.371	366.12
949.739	328.53
950.107	365.27
950.475	368.94
950.843	382.78
951.211	371.48
951.579	415.26
951.947	338.71
952.315	393.23
952.683	357.92
953.05	361.31
953.418	405.66
953.785	364.14
954.153	357.64
954.52	372.33
954.888	371.48
955.255	389
955.622	375.44
955.989	331.07
956.356	401.99
956.723	346.05
957.09	357.92
957.457	387.02
957.824	363.01
958.191	365.27
958.557	382.78
958.924	370.92
959.291	372.05
959.657	351.14
960.023	470.29
960.39	363.85
960.756	337.86
961.122	398.03
961.488	374.31
961.855	377.7
962.221	357.07
962.586	364.14
962.952	418.36
963.318	368.38
963.684	449.7
964.05	387.02
964.415	339.27
964.781	377.13
965.146	360.46
965.512	411.87
965.877	366.96
966.242	343.79
966.608	358.2
966.973	392.95
967.338	366.96
967.703	403.12
968.068	343.79
968.433	408.48
968.797	428.81
969.162	371.48
969.527	380.24
969.891	358.2
970.256	373.46
970.62	367.53
970.985	369.79
971.349	390.13
971.714	385.32
972.078	358.77
972.442	366.12
972.806	374.59
973.17	354.53
973.534	357.64
973.898	372.05
974.262	381.93
974.625	383.35
974.989	357.92
975.353	380.52
975.716	378.55
976.08	340.4
976.443	351.42
976.806	382.5
977.17	373.74
977.533	382.78
977.896	373.74
978.259	348.6
978.622	500.48
978.985	371.77
979.348	370.07
979.711	383.63
980.073	370.07
980.436	362.72
980.799	378.26
981.161	405.66
981.524	365.83
981.886	383.06
982.248	361.03
982.611	381.37
982.973	369.22
983.335	363.29
983.697	353.68
984.059	370.35
984.421	364.99
984.783	363.57
985.145	385.61
985.506	392.1
985.868	386.45
986.23	348.6
986.591	354.81
986.953	382.5
987.314	397.47
987.675	369.22
988.037	5229.54
988.398	517.11
988.759	360.46
989.12	382.22
989.481	381.37
989.842	379.11
990.203	359.05
990.564	381.37
990.924	384.76
991.285	4275.86
991.646	442.08
992.006	361.31
992.367	389.56
992.727	379.68
993.087	359.62
993.448	335.88
993.808	348.03
994.168	348.03
994.528	353.97
994.888	363.01
995.248	370.64
995.608	367.81
995.967	332.2
996.327	380.52
996.687	382.5
997.046	366.4
997.406	343.51
997.765	350.01
998.125	355.1
998.484	343.79
998.843	414.98
999.202	362.44
999.561	373.46
999.92	344.64
1000.279	391.82
1000.638	354.81
1000.997	357.36
1001.356	343.23
1001.715	366.96
1002.073	367.81
1002.432	386.17
1002.79	336.16
1003.149	348.88
1003.507	391.54
1003.865	357.64
1004.224	361.59
1004.582	362.44
1004.94	390.97
1005.298	366.12
1005.656	393.8
1006.014	349.44
1006.371	354.25
1006.729	359.05
1007.087	382.78
1007.445	366.68
1007.802	368.38
1008.16	365.27
1008.517	382.22
1008.874	390.41
1009.232	359.62
1009.589	389.84
1009.946	369.51
1010.303	356.79
1010.66	381.37
1011.017	344.64
1011.374	398.32
1011.731	367.53
1012.087	382.5
1012.444	374.59
1012.801	351.71
1013.157	346.62
1013.513	374.59
1013.87	370.07
1014.226	387.87
1014.582	354.81
1014.939	340.4
1015.295	361.88
1015.651	348.03
1016.007	371.48
1016.363	377.98
1016.719	365.27
1017.074	394.64
1017.43	348.03
1017.786	370.92
1018.141	351.71
1018.497	344.92
1018.852	391.26
1019.208	370.07
1019.563	376.85
1019.918	374.87
1020.273	381.09
1020.628	360.18
1020.983	380.24
1021.338	347.75
1021.693	367.25
1022.048	347.75
1022.403	348.31
1022.757	377.42
1023.112	363.01
1023.467	318.92
1023.821	340.4
1024.175	349.16
1024.53	343.51
1024.884	360.18
1025.238	359.62
1025.592	366.96
1025.946	363.01
1026.3	364.42
1026.654	354.53
1027.008	311.85
1027.362	351.99
1027.716	347.75
1028.069	370.64
1028.423	370.64
1028.777	351.99
1029.13	355.66
1029.483	355.38
1029.837	371.77
1030.19	395.21
1030.543	336.44
1030.896	347.75
1031.249	365.27
1031.602	355.38
1031.955	385.32
1032.308	349.16
1032.661	422.32
1033.013	367.81
1033.366	345.77
1033.719	356.79
1034.071	357.07
1034.424	362.44
1034.776	354.25
1035.128	381.65
1035.48	343.23
1035.833	398.6
1036.185	337.01
1036.537	337.01
1036.889	337.01
