Data from SCSF78-405_irradiation_FLMS019251_04-08-11-950.txt Node
Date: Fri Feb 22 04:08:11 PST 2019
User: mu3e
Spectrometer: FLMS01925
Trigger mode: 0
Integration Time (sec): 3.659600E-1
Scans to average: 10
Electric dark correction enabled: true
Nonlinearity correction enabled: true
Boxcar width: 0
XAxis mode: Wavelengths
Number of Pixels in Spectrum: 2048
>>>>>Begin Spectral Data<<<<<
187.103	-135.82
187.574	-135.82
188.045	-135.82
188.516	-159.43
188.987	-92.03
189.458	-127.57
189.929	-136.96
190.4	-94.3
190.871	-104.54
191.342	-107.38
191.813	-62.47
192.284	-24.4
192.754	-9.64
193.225	-7.65
193.696	27.27
194.166	25.28
194.637	97.91
195.107	128.24
195.578	116.9
196.048	137.31
196.518	140.99
196.989	170.17
197.459	237
197.929	213.22
198.399	325.24
198.869	297.82
199.339	325.53
199.809	341.35
200.279	356.61
200.749	340.51
201.219	372.44
201.689	332.03
202.159	367.07
202.628	359.16
203.098	398.7
203.568	379.78
204.037	417.9
204.507	396.73
204.976	424.12
205.445	385.15
205.915	388.82
206.384	402.38
206.853	387.12
207.323	434.84
207.792	372.15
208.261	408.02
208.73	399.27
209.199	407.46
209.668	409.15
210.137	395.03
210.606	417.9
211.075	380.35
211.543	424.68
212.012	416.49
212.481	373.28
212.95	389.95
213.418	408.87
213.887	389.95
214.355	399.27
214.824	366.79
215.292	357.18
215.76	342.77
216.229	355.77
216.697	374.7
217.165	373
217.633	376.39
218.101	387.12
218.569	454.6
219.037	359.72
219.505	418.19
219.973	391.93
220.441	379.78
220.909	336.83
221.377	373.28
221.844	364.53
222.312	357.18
222.78	355.48
223.247	362.83
223.715	353.22
224.182	360.01
224.65	391.08
225.117	387.12
225.584	361.42
226.052	350.12
226.519	382.61
226.986	361.98
227.453	363.4
227.92	379.78
228.387	397.57
228.854	369.61
229.321	375.26
229.788	369.89
230.255	394.75
230.722	400.68
231.189	360.85
231.655	381.19
232.122	406.05
232.589	376.67
233.055	380.91
233.522	410.56
233.988	355.2
234.454	372.72
234.921	385.15
235.387	425.25
235.853	384.87
236.32	373
236.786	359.72
237.252	366.5
237.718	396.16
238.184	364.24
238.65	382.89
239.116	370.46
239.582	389.1
240.047	374.98
240.513	431.17
240.979	410.56
241.445	368.2
241.91	369.33
242.376	354.35
242.841	408.87
243.307	382.04
243.772	364.81
244.238	339.38
244.703	400.12
245.168	368.76
245.633	383.45
246.099	386
246.564	367.35
247.029	395.32
247.494	369.61
247.959	386.84
248.424	392.49
248.889	389.1
249.353	406.89
249.818	401.53
250.283	372.15
250.748	388.82
251.212	381.19
251.677	364.81
252.141	378.65
252.606	387.69
253.07	407.18
253.535	366.79
253.999	401.81
254.463	376.67
254.927	363.68
255.392	384.58
255.856	395.32
256.32	376.11
256.784	345.31
257.248	402.66
257.712	400.4
258.176	450.37
258.64	345.59
259.103	356.05
259.567	383.17
260.031	385.71
260.495	386.84
260.958	397.57
261.422	391.36
261.885	367.07
262.349	386.84
262.812	401.25
263.275	379.5
263.739	386.28
264.202	397.57
264.665	420.73
265.128	418.75
265.591	374.13
266.054	393.06
266.517	409.43
266.98	365.66
267.443	376.67
267.906	374.41
268.369	382.32
268.832	416.21
269.294	356.61
269.757	433.71
270.22	385.71
270.682	388.25
271.145	403.5
271.607	393.62
272.07	453.47
272.532	402.09
272.994	393.9
273.456	386.28
273.919	464.19
274.381	361.14
274.843	426.94
275.305	437.38
275.767	392.77
276.229	425.25
276.691	387.12
277.153	403.22
277.614	389.67
278.076	379.5
278.538	409.15
279	407.74
279.461	395.6
279.923	465.89
280.384	387.41
280.846	336.55
281.307	377.52
281.769	378.93
282.23	419.32
282.691	432.3
283.152	400.68
283.613	406.61
284.075	374.41
284.536	398.7
284.997	380.63
285.458	387.69
285.918	389.1
286.379	399.27
286.84	433.15
287.301	388.25
287.762	406.05
288.222	385.43
288.683	387.69
289.143	417.9
289.604	397.29
290.064	396.16
290.525	416.78
290.985	444.72
291.445	426.66
291.906	391.36
292.366	369.61
292.826	366.5
293.286	410.85
293.746	397.29
294.206	429.48
294.666	406.33
295.126	411.69
295.586	426.09
296.046	390.23
296.506	384.58
296.965	421.58
297.425	387.12
297.884	443.31
298.344	415.36
298.804	404.92
299.263	389.67
299.722	420.73
300.182	388.54
300.641	408.31
301.1	391.93
301.559	391.93
302.019	414.52
302.478	434.28
302.937	394.47
303.396	399.55
303.855	488.45
304.314	391.08
304.772	536.39
305.231	413.67
305.69	386.84
306.149	401.25
306.607	397.57
307.066	427.5
307.524	405.2
307.983	399.83
308.441	428.63
308.9	471.25
309.358	434.28
309.816	484.79
310.275	385.15
310.733	388.54
311.191	398.14
311.649	400.4
312.107	429.2
312.565	398.7
313.023	414.8
313.481	415.36
313.939	408.87
314.397	420.16
314.854	423.83
315.312	407.46
315.77	421.01
316.227	401.25
316.685	413.11
317.142	382.89
317.6	457.42
318.057	430.89
318.514	428.63
318.972	395.32
319.429	427.5
319.886	376.39
320.343	427.22
320.8	420.73
321.257	411.41
321.714	452.34
322.171	447.26
322.628	434.28
323.085	397.29
323.542	405.76
323.998	422.99
324.455	397.86
324.912	403.22
325.368	406.33
325.825	472.37
326.281	435.41
326.738	428.63
327.194	404.63
327.65	428.91
328.107	407.46
328.563	407.74
329.019	417.9
329.475	404.35
329.931	467.3
330.387	409.72
330.843	403.22
331.299	407.74
331.755	383.17
332.211	402.09
332.666	408.02
333.122	388.82
333.578	417.06
334.033	393.62
334.489	406.05
334.944	394.47
335.4	496.07
335.855	451.21
336.31	402.09
336.766	415.36
337.221	404.92
337.676	400.68
338.131	402.38
338.586	442.46
339.041	413.11
339.496	475.76
339.951	405.2
340.406	420.45
340.861	425.81
341.316	421.01
341.771	426.37
342.225	400.4
342.68	417.06
343.134	416.78
343.589	433.43
344.043	391.08
344.498	389.95
344.952	403.79
345.406	625.69
345.861	401.53
346.315	414.23
346.769	418.47
347.223	403.79
347.677	406.89
348.131	393.62
348.585	420.45
349.039	402.66
349.493	408.31
349.947	426.37
350.401	390.8
350.854	382.04
351.308	434.28
351.762	393.9
352.215	448.95
352.669	395.88
353.122	394.19
353.575	421.01
354.029	404.35
354.482	418.19
354.935	428.35
355.388	430.33
355.842	419.32
356.295	432.3
356.748	409.72
357.201	412.26
357.654	400.96
358.106	409.43
358.559	404.07
359.012	408.02
359.465	433.71
359.917	452.62
360.37	433.15
360.823	424.96
361.275	438.79
361.728	434
362.18	409.72
362.632	409.43
363.085	398.42
363.537	445.85
363.989	418.47
364.441	418.19
364.893	402.66
365.345	411.13
365.797	403.79
366.249	430.89
366.701	410.28
367.153	424.96
367.605	406.33
368.057	432.87
368.508	433.43
368.96	421.01
369.411	398.7
369.863	430.33
370.314	420.45
370.766	421.01
371.217	423.83
371.669	409.15
372.12	475.48
372.571	452.34
373.022	408.87
373.473	450.65
373.924	424.12
374.375	452.34
374.826	443.59
375.277	428.07
375.728	435.69
376.179	421.86
376.63	425.53
377.08	420.45
377.531	429.48
377.981	411.13
378.432	457.42
378.883	434.28
379.333	440.77
379.783	429.48
380.234	419.6
380.684	424.4
381.134	430.61
381.584	448.39
382.034	466.17
382.485	440.77
382.935	417.06
383.385	425.81
383.834	420.73
384.284	452.34
384.734	427.79
385.184	451.78
385.634	411.41
386.083	413.11
386.533	434
386.982	415.08
387.432	435.69
387.881	416.49
388.331	435.12
388.78	428.35
389.229	440.77
389.679	431.17
390.128	454.03
390.577	434.84
391.026	439.36
391.475	394.75
391.924	444.44
392.373	427.5
392.822	427.22
393.27	444.16
393.719	439.08
394.168	415.93
394.617	450.37
395.065	440.49
395.514	448.67
395.962	452.91
396.411	417.62
396.859	447.54
397.307	493.53
397.756	450.08
398.204	427.22
398.652	478.3
399.1	463.06
399.548	432.02
399.996	516.37
400.444	452.62
400.892	448.11
401.34	440.49
401.788	441.05
402.236	430.33
402.683	453.19
403.131	476.89
403.579	469.55
404.026	418.47
404.474	442.18
404.921	447.54
405.369	487.89
405.816	467.3
406.263	463.35
406.71	497.48
407.158	503.12
407.605	474.07
408.052	477.73
408.499	501.43
408.946	522.86
409.393	512.99
409.84	516.94
410.286	516.37
410.733	549.07
411.18	531.03
411.626	634.7
412.073	671.29
412.52	736.54
412.966	838.8
413.413	937
413.859	1098.89
414.305	1359.78
414.752	1611.72
415.198	1992.14
415.644	2460.19
416.09	3066.04
416.536	3615.81
416.982	4382.84
417.428	5234.44
417.874	6148.62
418.32	7201.28
418.766	8298.57
419.211	9624.19
419.657	10793.05
420.103	12277.4
420.548	13517.35
420.994	15209.55
421.439	16682.85
421.885	18031.73
422.33	19955.07
422.776	21340.03
423.221	22696.34
423.666	24484.85
424.111	26082.91
424.556	27322.75
425.001	29048.17
425.446	30616.92
425.891	32119.55
426.336	32965.06
426.781	34422.02
427.226	36637.01
427.671	37253.28
428.115	37907.75
428.56	39574.25
429.005	41177.53
429.449	41252.23
429.894	42384.93
430.338	43637.52
430.782	43224.82
431.227	44604.82
431.671	44644.72
432.115	45959.79
432.559	46729.65
433.003	46359.43
433.447	47080.48
433.891	47188.1
434.335	47349.2
434.779	48056.36
435.223	48076.15
435.667	47849.4
436.111	48815.19
436.554	47969.27
436.998	47491.06
437.442	47602.62
437.885	49510.04
438.328	47797.08
438.772	48124.23
439.215	48758.5
439.659	48225.09
440.102	48586.85
440.545	47832.22
440.988	47681.75
441.431	48475.06
441.874	48140.69
442.317	48411.1
442.76	47721.46
443.203	47247.82
443.646	47929.22
444.089	47539.41
444.531	48112.92
444.974	46759.66
445.417	47985.71
445.859	47054.48
446.302	48225.35
446.744	47651.53
447.186	48797.06
447.629	47922.8
448.071	47815.55
448.513	48073.33
448.956	49445.37
449.398	48556.89
449.84	47459.09
450.282	48015.5
450.724	48687.63
451.166	48485.39
451.607	48490.55
452.049	48566.7
452.491	49750.38
452.933	49323.98
453.374	50121.67
453.816	50744.51
454.257	50176.35
454.699	51371.63
455.14	51106.47
455.582	50985.07
456.023	50975.23
456.464	51198.74
456.905	51772.98
457.347	51758.97
457.788	50871.06
458.229	51152.06
458.67	52303.11
459.111	50317.98
459.552	50654.18
459.992	50281.1
460.433	50296.64
460.874	49321.12
461.315	50528.02
461.755	49732.33
462.196	49197.3
462.636	48307.23
463.077	48130.4
463.517	48241.82
463.957	48856.36
464.398	48362.63
464.838	48514.03
465.278	47393.91
465.718	47679.96
466.158	46514.71
466.598	47182.49
467.038	46655.17
467.478	47282.79
467.918	47397.23
468.358	46810.79
468.798	46436.8
469.237	46358.92
469.677	46504.31
470.117	47472.9
470.556	44823.01
470.996	45428.51
471.435	45646.97
471.874	46420.81
472.314	46252.2
472.753	45160.74
473.192	45463.81
473.631	45086.5
474.07	45501.64
474.509	45459.27
474.948	45878.37
475.387	45205.55
475.826	44267.09
476.265	46159.22
476.704	45721.46
477.143	46260.81
477.581	45930.2
478.02	46710.84
478.458	45044.24
478.897	45887.21
479.335	47228.93
479.774	46654.41
480.212	47088.13
480.65	46885.09
481.089	46727.87
481.527	46119.72
481.965	45842.22
482.403	47931.53
482.841	47675.35
483.279	47851.46
483.717	47976.72
484.155	47414.36
484.592	47935.89
485.03	48149.44
485.468	47073.85
485.905	47265.18
486.343	47991.36
486.781	47260.33
487.218	46636.88
487.655	46553.05
488.093	45603.81
488.53	47322.38
488.967	46411.17
489.405	46261.07
489.842	45322.41
490.279	45357.18
490.716	44880.56
491.153	45457.25
491.59	44917.5
492.027	44034.25
492.463	43785.68
492.9	42850.93
493.337	42691.68
493.773	42816.58
494.21	42023.22
494.647	41665.96
495.083	40950.3
495.519	40503.24
495.956	40600.75
496.392	39956.49
496.828	39708.19
497.265	38885.62
497.701	38913.88
498.137	38627.69
498.573	37693.5
499.009	38458.76
499.445	37495.52
499.881	36889.26
500.316	37250.58
500.752	36220.07
501.188	35982.49
501.624	35904.78
502.059	34538.16
502.495	34357.12
502.93	34194.16
503.366	34980.88
503.801	33747.07
504.236	33492.71
504.672	33018.21
505.107	32529.38
505.542	31993.01
505.977	31926.21
506.412	31462.95
506.847	31830.39
507.282	31183.01
507.717	30849.13
508.152	30864.25
508.587	30497.63
509.021	29759.95
509.456	29466.02
509.891	29494.34
510.325	29435.75
510.76	29099.71
511.194	28743.52
511.628	28918.21
512.063	28028.47
512.497	28152.21
512.931	27660.28
513.366	27454.95
513.8	27398.4
514.234	26816.98
514.668	26772.87
515.102	26921.11
515.536	25922.2
515.969	26150.62
516.403	25676.24
516.837	25213.24
517.271	25346.16
517.704	24822.37
518.138	24716.61
518.571	24538.49
519.005	24007.69
519.438	24050.8
519.871	23862.83
520.305	23258.74
520.738	23211.86
521.171	22671.89
521.604	23002.81
522.037	22512.76
522.47	22230.94
522.903	21792.27
523.336	21675.67
523.769	21516.43
524.202	20894.02
524.634	20944.62
525.067	20673.69
525.5	20380.97
525.932	20368.56
526.365	19825.53
526.797	19649.91
527.23	19746.43
527.662	19018.23
528.094	18886.39
528.527	18848.75
528.959	18440.95
529.391	18166.6
529.823	17594.31
530.255	17736.09
530.687	17346.39
531.119	17111.57
531.551	17085.52
531.982	16580.04
532.414	16429.79
532.846	16132.86
533.277	15999
533.709	15469.05
534.14	15450.18
534.572	15186.14
535.003	15159.44
535.435	14805.17
535.866	14653.61
536.297	14245.96
536.728	14284.35
537.159	14067.08
537.59	13877.21
538.022	13626.98
538.452	13535.84
538.883	13162.35
539.314	13120
539.745	12759.12
540.176	12656.25
540.606	12289.1
541.037	12317.85
541.468	12095.64
541.898	11987.9
542.328	11913.23
542.759	11562.27
543.189	11523.72
543.619	11354.65
544.05	11150.65
544.48	10961.3
544.91	10825.33
545.34	10646.95
545.77	10553.86
546.2	10456.87
546.63	10308.72
547.06	10291.25
547.489	10065.83
547.919	9731.67
548.349	9793.77
548.778	9765.43
549.208	9600.46
549.637	9421.66
550.067	9307.25
550.496	9346.26
550.926	9068.63
551.355	8917.73
551.784	8901.67
552.213	8735.57
552.642	8634.94
553.071	8556.3
553.5	8374.48
553.929	8164.59
554.358	8201.81
554.787	8010.16
555.216	7999.48
555.645	7859.47
556.073	7753.78
556.502	7688.24
556.93	7507.64
557.359	7465
557.787	7477.3
558.216	7311.6
558.644	7212.03
559.072	7130.22
559.5	7046.51
559.929	7101.88
560.357	7026.56
560.785	6863.16
561.213	6896.02
561.641	6670.06
562.068	6752.44
562.496	6651.1
562.924	6589.72
563.352	6595.26
563.779	6544.13
564.207	6516.72
564.634	6441.29
565.062	6427.57
565.489	6301.65
565.917	6239.83
566.344	6221.33
566.771	6175.33
567.198	6104.97
567.625	6053.1
568.053	5916.69
568.48	5940.28
568.907	5851.21
569.333	5812.22
569.76	5592.07
570.187	5632.73
570.614	5515.21
571.04	10931.61
571.467	5423.39
571.894	5266.18
572.32	5144.51
572.747	5041.4
573.173	4980.72
573.599	4871.82
574.026	4789.07
574.452	4826.03
574.878	4687.47
575.304	4567.77
575.73	4511.36
576.156	4398.17
576.582	4423.46
577.008	4295.35
577.434	4195.93
577.86	4130.93
578.285	4136.86
578.711	4017.01
579.137	3980.27
579.562	3909.71
579.988	3905.66
580.413	3798.23
580.838	3730.51
581.264	3718.58
581.689	3657.32
582.114	3598.99
582.539	4030.25
582.964	3489.29
583.39	3493.37
583.814	3360.41
584.239	3328.84
584.664	3267.57
585.089	3260.49
585.514	3211.98
585.939	3165.64
586.363	3076.14
586.788	3039
587.212	3015.78
587.637	2980.81
588.061	2947.18
588.485	2883.45
588.91	2874.42
589.334	2789.82
589.758	2795.03
590.182	2744.89
590.606	2690.88
591.03	2670.86
591.454	2615.7
591.878	2551.17
592.302	2567.92
592.726	2531.66
593.15	2483.84
593.573	2430.76
593.997	2435.71
594.42	2334.13
594.844	2331.38
595.267	2340.47
595.691	2313.47
596.114	2266.07
596.537	2265.8
596.96	2250.91
597.384	2257.25
597.807	2197.12
598.23	2175.33
598.653	2139.99
599.076	2106.3
599.499	2152.69
599.921	2063.75
600.344	2074.81
600.767	2082.54
601.189	2043.3
601.612	2009.01
602.034	1989.93
602.457	1980.8
602.879	2132.81
603.302	1966.97
603.724	1939.01
604.146	1920.47
604.568	1900.81
604.991	1928.22
605.413	1932.65
605.835	1896.1
606.257	1863.97
606.678	1845.4
607.1	1881.14
607.522	1883.64
607.944	1914.93
608.365	1880.59
608.787	1812.7
609.209	1865.35
609.63	1769.44
610.051	1755.56
610.473	1723.38
610.894	1746.13
611.315	1746.41
611.737	1700.61
612.158	1650.07
612.579	1612.56
613	1693.67
613.421	1589.48
613.842	1606.44
614.263	1582.53
614.683	1560.01
615.104	1541.93
615.525	1516.61
615.945	1499.63
616.366	1445.33
616.787	1474.02
617.207	1384.87
617.627	1389.61
618.048	1372.88
618.468	1360.89
618.888	1345.27
619.308	1326.03
619.728	1348.9
620.148	1286.4
620.568	1303.99
620.988	1293.1
621.408	1259.6
621.828	1232.8
622.248	1240.34
622.668	1236.71
623.087	1216.59
623.507	1193.12
623.926	1204.86
624.346	1166.29
624.765	1186.14
625.185	1159.3
625.604	1127.99
626.023	1107.29
626.442	1089.66
626.861	1138.89
627.28	1082.1
627.699	1100.85
628.118	1061.39
628.537	1061.67
628.956	1036.19
629.375	1059.15
629.794	1027.79
630.212	1044.31
630.631	1042.07
631.049	1013.23
631.468	1007.63
631.886	973.72
632.305	995.58
632.723	947.09
633.141	926.63
633.559	955.22
633.978	908.4
634.396	922.98
634.814	920.18
635.232	932.79
635.65	898.86
636.067	919.61
636.485	896.89
636.903	869.96
637.321	859.57
637.738	917.93
638.156	851.71
638.573	858.17
638.991	912.32
639.408	876.97
639.825	803.98
640.243	892.97
640.66	793.31
641.077	827.85
641.494	815.78
641.911	841.89
642.328	828.41
642.745	791.34
643.162	810.44
643.579	761.84
643.995	786
644.412	814.09
644.829	731.2
645.245	758.18
645.662	763.24
646.078	732.04
646.495	743.57
646.911	746.66
647.327	760.71
647.743	705.61
648.159	733.45
648.576	723.32
648.992	749.47
649.408	720.79
649.824	708.14
650.239	723.61
650.655	676.35
651.071	677.48
651.487	692.39
651.902	697.73
652.318	694.08
652.733	669.04
653.149	656.66
653.564	676.92
653.979	652.15
654.395	643.71
654.81	662.85
655.225	659.47
655.64	662
656.055	662.28
656.47	632.73
656.885	642.02
657.3	630.76
657.715	691.54
658.13	617.53
658.544	621.75
658.959	605.7
659.374	581.48
659.788	629.91
660.202	605.42
660.617	673.54
661.031	605.7
661.445	620.62
661.86	607.67
662.274	593.87
662.688	636.95
663.102	614.15
663.516	620.9
663.93	577.53
664.344	629.35
664.758	627.94
665.171	573.02
665.585	559.78
665.999	590.21
666.412	548.23
666.826	621.19
667.239	596.41
667.653	593.87
668.066	567.11
668.479	587.11
668.892	562.04
669.306	556.96
669.719	538.93
670.132	557.24
670.545	552.17
670.958	527.93
671.37	555.55
671.783	533.01
672.196	547.38
672.609	554.43
673.021	554.71
673.434	542.03
673.846	551.89
674.259	535.82
674.671	528.21
675.084	529.06
675.496	531.31
675.908	531.88
676.32	526.8
676.732	515.53
677.144	545.97
677.556	528.21
677.968	506.22
678.38	548.23
678.792	549.07
679.204	523.14
679.615	538.93
680.027	494.38
680.439	511.58
680.85	518.91
681.262	541.18
681.673	511.58
682.084	516.94
682.496	490.43
682.907	526.52
683.318	492.68
683.729	468.99
684.14	492.68
684.551	501.99
684.962	485.91
685.373	505.94
685.784	498.61
686.194	494.66
686.605	461.65
687.016	491.56
687.426	462.5
687.837	450.65
688.247	459.68
688.657	501.15
689.068	487.89
689.478	482.53
689.888	484.79
690.298	455.16
690.708	449.52
691.118	472.94
691.528	472.09
691.938	456.01
692.348	472.09
692.758	472.09
693.168	473.22
693.577	471.81
693.987	464.76
694.396	474.63
694.806	442.75
695.215	466.17
695.625	459.4
696.034	478.58
696.443	445
696.852	485.91
697.262	456.01
697.671	449.8
698.08	441.05
698.489	424.96
698.897	462.5
699.306	464.76
699.715	457.14
700.124	482.25
700.532	463.06
700.941	461.65
701.35	438.51
701.758	477.17
702.166	432.87
702.575	426.09
702.983	462.5
703.391	414.23
703.799	454.32
704.208	433.43
704.616	417.9
705.024	494.94
705.432	453.19
705.839	418.47
706.247	495.22
706.655	505.09
707.063	418.75
707.47	411.13
707.878	454.88
708.285	424.68
708.693	422.42
709.1	434.84
709.508	432.02
709.915	435.97
710.322	443.03
710.729	531.31
711.136	444.44
711.543	434.84
711.95	428.63
712.357	441.05
712.764	435.97
713.171	417.06
713.578	413.67
713.984	454.6
714.391	425.25
714.797	417.9
715.204	436.25
715.61	432.58
716.017	436.25
716.423	473.22
716.829	404.92
717.236	440.21
717.642	420.73
718.048	456.57
718.454	441.05
718.86	389.1
719.266	482.53
719.671	410.56
720.077	444.44
720.483	393.9
720.889	437.1
721.294	433.15
721.7	417.34
722.105	440.21
722.511	412.54
722.916	429.2
723.321	428.35
723.726	423.27
724.132	432.87
724.537	421.86
724.942	417.62
725.347	432.3
725.752	439.36
726.156	399.27
726.561	443.31
726.966	435.12
727.371	419.88
727.775	445
728.18	412.82
728.584	429.76
728.989	408.31
729.393	517.78
729.798	431.46
730.202	446.7
730.606	408.59
731.01	426.09
731.414	447.54
731.818	403.22
732.222	427.5
732.626	398.14
733.03	400.68
733.434	413.67
733.837	417.9
734.241	428.07
734.645	380.06
735.048	401.25
735.452	406.89
735.855	396.73
736.258	395.6
736.662	447.83
737.065	453.19
737.468	432.87
737.871	399.83
738.274	419.6
738.677	434.28
739.08	425.25
739.483	419.88
739.886	430.61
740.289	446.41
740.691	394.47
741.094	405.76
741.497	409.72
741.899	427.79
742.302	396.16
742.704	393.62
743.106	415.36
743.508	390.51
743.911	396.73
744.313	393.34
744.715	396.73
745.117	410
745.519	380.35
745.921	419.6
746.323	429.2
746.724	387.41
747.126	391.08
747.528	447.54
747.929	403.22
748.331	400.68
748.732	395.03
749.134	407.46
749.535	397.01
749.936	441.62
750.338	373.28
750.739	435.41
751.14	370.46
751.541	412.54
751.942	400.96
752.343	415.08
752.744	420.45
753.144	382.32
753.545	389.1
753.946	400.68
754.346	413.95
754.747	456.57
755.148	503.12
755.548	388.25
755.948	407.46
756.349	435.12
756.749	405.48
757.149	386.84
757.549	453.47
757.949	398.99
758.349	404.63
758.749	405.76
759.149	384.87
759.549	371.02
759.949	395.32
760.348	478.02
760.748	397.57
761.148	413.39
761.547	376.67
761.947	404.92
762.346	433.15
762.745	452.91
763.145	402.09
763.544	427.79
763.943	409.15
764.342	421.01
764.741	383.45
765.14	408.02
765.539	388.25
765.938	452.62
766.336	375.83
766.735	395.6
767.134	395.6
767.532	373
767.931	374.41
768.329	451.49
768.728	409.72
769.126	381.76
769.525	453.47
769.923	364.81
770.321	402.38
770.719	422.99
771.117	400.4
771.515	393.06
771.913	414.52
772.311	374.7
772.709	391.64
773.106	393.34
773.504	368.48
773.902	407.18
774.299	389.1
774.697	486.48
775.094	386.28
775.491	382.89
775.889	425.81
776.286	378.93
776.683	403.5
777.08	372.72
777.477	383.45
777.874	413.39
778.271	417.06
778.668	404.63
779.065	380.91
779.462	394.75
779.858	392.49
780.255	417.06
780.652	394.19
781.048	423.27
781.444	397.86
781.841	376.39
782.237	395.88
782.633	400.68
783.03	374.7
783.426	347.29
783.822	386.84
784.218	372.72
784.614	389.38
785.01	395.32
785.405	397.29
785.801	406.61
786.197	388.54
786.593	428.91
786.988	432.3
787.384	430.04
787.779	398.99
788.174	371.31
788.57	414.8
788.965	385.15
789.36	394.19
789.755	378.65
790.15	369.89
790.545	380.35
790.94	355.48
791.335	385.71
791.73	382.89
792.125	426.37
792.52	398.42
792.914	402.94
793.309	384.87
793.703	410
794.098	392.21
794.492	418.19
794.887	376.11
795.281	446.13
795.675	427.22
796.069	435.69
796.463	377.24
796.857	373.85
797.251	415.08
797.645	348.14
798.039	386.56
798.433	399.27
798.826	385.15
799.22	386
799.614	380.06
800.007	419.6
800.401	384.87
800.794	375.83
801.187	373
801.581	414.23
801.974	410.28
802.367	370.74
802.76	373.85
803.153	378.37
803.546	376.11
803.939	381.48
804.332	382.89
804.725	375.83
805.117	377.24
805.51	413.11
805.903	379.22
806.295	364.53
806.688	375.26
807.08	393.06
807.472	383.17
807.865	406.61
808.257	373.28
808.649	411.69
809.041	372.72
809.433	413.67
809.825	363.96
810.217	339.38
810.609	404.92
811.001	382.32
811.392	390.51
811.784	410.85
812.175	381.48
812.567	376.39
812.958	398.14
813.35	397.29
813.741	388.25
814.132	384.87
814.524	379.5
814.915	383.17
815.306	361.98
815.697	362.83
816.088	367.63
816.479	410.28
816.87	398.14
817.26	414.23
817.651	436.54
818.042	419.88
818.432	374.7
818.823	376.67
819.213	370.18
819.604	373.57
819.994	395.6
820.384	367.35
820.775	393.34
821.165	378.37
821.555	386.56
821.945	360.85
822.335	385.71
822.725	391.08
823.114	379.78
823.504	395.32
823.894	361.7
824.284	390.51
824.673	427.79
825.063	373
825.452	392.21
825.842	355.48
826.231	455.45
826.62	376.96
827.009	431.46
827.399	403.79
827.788	380.06
828.177	391.36
828.566	430.61
828.954	486.2
829.343	412.82
829.732	389.95
830.121	463.63
830.509	446.98
830.898	357.46
831.286	359.72
831.675	404.63
832.063	389.1
832.452	389.67
832.84	373.28
833.228	417.06
833.616	379.5
834.004	399.83
834.392	376.11
834.78	389.1
835.168	363.11
835.556	420.45
835.944	396.16
836.331	415.93
836.719	381.76
837.107	376.96
837.494	423.55
837.881	364.81
838.269	379.5
838.656	384.02
839.043	370.74
839.431	445.85
839.818	377.8
840.205	399.83
840.592	387.41
840.979	373.85
841.366	373.57
841.752	374.13
842.139	396.44
842.526	371.02
842.912	395.6
843.299	400.4
843.685	419.03
844.072	415.93
844.458	424.4
844.844	395.6
845.231	376.39
845.617	371.59
846.003	401.81
846.389	384.58
846.775	362.83
847.161	384.58
847.547	361.14
847.933	346.44
848.318	385.71
848.704	361.14
849.09	382.04
849.475	384.58
849.861	403.5
850.246	378.65
850.631	410.56
851.017	384.87
851.402	359.72
851.787	419.6
852.172	432.58
852.557	404.35
852.942	383.74
853.327	393.9
853.712	378.37
854.097	379.22
854.481	375.54
854.866	389.95
855.25	374.13
855.635	361.14
856.019	393.9
856.404	389.1
856.788	363.68
857.172	384.58
857.557	373.28
857.941	376.67
858.325	395.88
858.709	387.97
859.093	385.15
859.477	389.67
859.86	392.77
860.244	351.81
860.628	427.22
861.012	397.57
861.395	386
861.779	370.18
862.162	390.23
862.545	393.62
862.929	376.39
863.312	403.5
863.695	374.98
864.078	379.22
864.461	363.68
864.844	410.85
865.227	422.7
865.61	373.57
865.993	363.68
866.376	372.72
866.758	403.79
867.141	430.33
867.523	415.08
867.906	371.59
868.288	406.89
868.671	401.53
869.053	365.09
869.435	375.26
869.817	426.09
870.199	364.81
870.581	363.11
870.963	392.21
871.345	390.23
871.727	373
872.109	368.2
872.491	357.46
872.872	382.61
873.254	382.61
873.635	373.28
874.017	386.56
874.398	375.26
874.779	420.45
875.161	404.07
875.542	423.55
875.923	397.57
876.304	382.89
876.685	384.3
877.066	403.79
877.447	370.18
877.828	358.59
878.208	400.68
878.589	399.55
878.97	443.03
879.35	376.11
879.731	342.2
880.111	387.12
880.491	373.57
880.872	397.57
881.252	368.2
881.632	394.47
882.012	432.02
882.392	394.75
882.772	410.56
883.152	384.3
883.532	395.32
883.912	393.9
884.291	362.83
884.671	365.66
885.051	361.7
885.43	368.2
885.81	372.44
886.189	385.43
886.568	369.61
886.948	378.93
887.327	405.76
887.706	357.18
888.085	451.49
888.464	403.22
888.843	441.33
889.222	399.27
889.601	378.09
889.979	378.37
890.358	352.38
890.737	378.37
891.115	369.61
891.494	368.48
891.872	375.54
892.25	396.16
892.629	402.66
893.007	417.62
893.385	377.8
893.763	386
894.141	382.89
894.519	390.8
894.897	374.7
895.275	374.13
895.653	360.85
896.03	406.61
896.408	392.77
896.786	383.17
897.163	374.98
897.541	399.55
897.918	404.63
898.295	387.12
898.673	383.45
899.05	383.74
899.427	546.82
899.804	361.7
900.181	383.45
900.558	418.47
900.935	410.85
901.312	341.35
901.688	318.74
902.065	386
902.442	365.66
902.818	360.85
903.195	348.99
903.571	391.64
903.947	382.89
904.324	401.25
904.7	384.58
905.076	399.55
905.452	382.89
905.828	390.23
906.204	382.89
906.58	357.74
906.956	410.28
907.331	457.42
907.707	407.74
908.083	379.78
908.458	415.93
908.834	371.87
909.209	367.07
909.585	396.16
909.96	363.4
910.335	329.77
910.71	355.77
911.086	384.87
911.461	382.04
911.836	389.1
912.21	360.85
912.585	388.82
912.96	375.26
913.335	379.22
913.709	364.53
914.084	373.28
914.459	407.46
914.833	370.74
915.207	360.57
915.582	356.9
915.956	347.01
916.33	373.28
916.704	380.35
917.078	382.61
917.452	401.25
917.826	365.37
918.2	356.9
918.574	375.54
918.948	359.44
919.321	400.4
919.695	377.52
920.068	374.41
920.442	386
920.815	387.97
921.189	411.41
921.562	429.48
921.935	373.28
922.308	362.27
922.681	374.41
923.054	377.8
923.427	401.81
923.8	384.87
924.173	381.76
924.546	338.53
924.919	371.87
925.291	385.15
925.664	358.31
926.036	358.31
926.409	342.49
926.781	379.78
927.153	392.77
927.526	420.73
927.898	361.7
928.27	378.09
928.642	356.05
929.014	392.77
929.386	358.31
929.758	350.12
930.129	363.68
930.501	400.4
930.873	367.35
931.244	359.16
931.616	364.81
931.987	374.13
932.359	390.8
932.73	374.98
933.101	386.84
933.472	378.37
933.843	400.4
934.214	392.49
934.585	366.79
934.956	358.59
935.327	472.09
935.698	356.05
936.069	382.89
936.439	387.97
936.81	389.38
937.18	398.7
937.551	385.15
937.921	400.12
938.292	366.22
938.662	361.7
939.032	392.77
939.402	376.67
939.772	377.24
940.142	368.2
940.512	348.42
940.882	362.55
941.252	407.46
941.621	374.41
941.991	365.37
942.361	403.79
942.73	363.4
943.1	359.16
943.469	367.63
943.838	415.65
944.208	390.8
944.577	355.77
944.946	364.81
945.315	360.85
945.684	364.81
946.053	378.37
946.422	366.22
946.791	363.4
947.159	361.98
947.528	368.48
947.897	405.76
948.265	350.4
948.634	368.76
949.002	338.25
949.371	357.74
949.739	344.46
950.107	366.5
950.475	386
950.843	410.28
951.211	405.48
951.579	382.32
951.947	370.74
952.315	382.32
952.683	348.42
953.05	360.85
953.418	405.48
953.785	367.07
954.153	382.32
954.52	371.87
954.888	397.86
955.255	364.24
955.622	361.42
955.989	351.81
956.356	419.32
956.723	362.83
957.09	380.35
957.457	392.49
957.824	355.2
958.191	377.8
958.557	385.71
958.924	357.74
959.291	365.94
959.657	354.92
960.023	478.3
960.39	374.41
960.756	381.76
961.122	370.18
961.488	361.42
961.855	386.28
962.221	350.12
962.586	366.22
962.952	431.17
963.318	386.84
963.684	459.96
964.05	415.36
964.415	378.65
964.781	374.13
965.146	369.61
965.512	418.19
965.877	339.66
966.242	368.48
966.608	377.8
966.973	365.66
967.338	372.72
967.703	397.86
968.068	380.35
968.433	412.26
968.797	433.43
969.162	371.31
969.527	364.81
969.891	365.37
970.256	376.96
970.62	382.61
970.985	354.35
971.349	384.58
971.714	382.89
972.078	374.41
972.442	393.9
972.806	357.46
973.17	358.03
973.534	392.49
973.898	394.19
974.262	369.33
974.625	382.04
974.989	390.23
975.353	402.94
975.716	380.35
976.08	364.24
976.443	354.64
976.806	344.46
977.17	391.36
977.533	377.8
977.896	338.53
978.259	347.85
978.622	499.45
978.985	380.91
979.348	383.17
979.711	359.44
980.073	362.27
980.436	367.92
980.799	355.77
981.161	402.09
981.524	356.61
981.886	359.16
982.248	358.59
982.611	379.78
982.973	355.77
983.335	339.09
983.697	356.33
984.059	362.55
984.421	390.51
984.783	375.83
985.145	387.41
985.506	361.42
985.868	378.09
986.23	351.81
986.591	367.35
986.953	400.96
987.314	361.14
987.675	339.38
988.037	4977.51
988.398	504.25
988.759	360.01
989.12	378.09
989.481	409.43
989.842	375.54
990.203	363.11
990.564	346.72
990.924	362.55
991.285	4050.77
991.646	450.37
992.006	364.81
992.367	361.98
992.727	368.48
993.087	367.63
993.448	355.48
993.808	361.42
994.168	366.5
994.528	376.96
994.888	364.53
995.248	374.7
995.608	352.09
995.967	367.07
996.327	360.57
996.687	360.57
997.046	326.09
997.406	342.2
997.765	352.66
998.125	366.22
998.484	363.11
998.843	430.33
999.202	354.92
999.561	354.35
999.92	336.55
1000.279	373.57
1000.638	342.77
1000.997	356.9
1001.356	357.18
1001.715	359.44
1002.073	381.76
1002.432	393.06
1002.79	354.35
1003.149	341.92
1003.507	391.36
1003.865	376.96
1004.224	359.16
1004.582	378.93
1004.94	394.47
1005.298	353.79
1005.656	399.27
1006.014	340.51
1006.371	373.28
1006.729	356.61
1007.087	395.32
1007.445	372.44
1007.802	372.72
1008.16	391.36
1008.517	414.23
1008.874	367.63
1009.232	347.85
1009.589	387.12
1009.946	398.7
1010.303	405.2
1010.66	360.85
1011.017	371.87
1011.374	402.09
1011.731	364.24
1012.087	365.09
1012.444	356.9
1012.801	372.15
1013.157	340.79
1013.513	359.16
1013.87	340.22
1014.226	359.44
1014.582	389.38
1014.939	364.81
1015.295	366.22
1015.651	366.22
1016.007	360.85
1016.363	422.99
1016.719	368.2
1017.074	411.69
1017.43	361.42
1017.786	387.97
1018.141	360.57
1018.497	378.09
1018.852	374.7
1019.208	388.82
1019.563	383.45
1019.918	378.93
1020.273	367.07
1020.628	344.46
1020.983	397.01
1021.338	366.5
1021.693	384.3
1022.048	360.85
1022.403	326.09
1022.757	352.09
1023.112	351.81
1023.467	365.37
1023.821	381.19
1024.175	330.61
1024.53	340.22
1024.884	363.11
1025.238	364.24
1025.592	356.33
1025.946	351.53
1026.3	358.31
1026.654	368.48
1027.008	345.03
1027.362	339.09
1027.716	330.05
1028.069	361.14
1028.423	354.64
1028.777	352.94
1029.13	354.07
1029.483	361.14
1029.837	390.8
1030.19	355.48
1030.543	370.46
1030.896	380.06
1031.249	361.14
1031.602	346.44
1031.955	350.4
1032.308	364.53
1032.661	411.13
1033.013	355.48
1033.366	349.27
1033.719	332.88
1034.071	366.79
1034.424	322.7
1034.776	367.35
1035.128	368.76
1035.48	367.63
1035.833	378.09
1036.185	372.44
1036.537	372.44
1036.889	372.44
