Data from BCF20_2_FLMS019251_13-51-09-117.txt Node
Date: Mon Feb 11 13:51:09 CET 2019
User: luk
Spectrometer: FLMS01925
Trigger mode: 0
Integration Time (sec): 3.391600E-1
Scans to average: 1
Electric dark correction enabled: true
Nonlinearity correction enabled: true
Boxcar width: 0
XAxis mode: Wavelengths
Number of Pixels in Spectrum: 2048
>>>>>Begin Spectral Data<<<<<
187.103	-117.74
187.574	-117.74
188.045	-117.74
188.516	-194.57
188.987	-168.95
189.458	-63.73
189.929	-154.72
190.4	-52.37
190.871	-117.74
191.342	-146.19
191.813	-80.78
192.284	10.11
192.754	-18.28
193.225	-92.15
193.696	-26.8
194.166	12.95
194.637	120.75
195.107	123.58
195.578	86.72
196.048	140.58
196.518	256.68
196.989	219.89
197.459	149.09
197.929	123.58
198.399	299.11
198.869	208.57
199.339	242.53
199.809	284.97
200.279	245.36
200.749	333.03
201.219	259.51
201.689	333.03
202.159	358.47
202.628	389.54
203.098	253.85
203.568	386.72
204.037	299.11
204.507	253.85
204.976	434.72
205.445	423.43
205.915	381.07
206.384	440.36
206.853	389.54
207.323	304.76
207.792	400.84
208.261	412.13
208.73	386.72
209.199	219.89
209.668	313.25
210.137	355.64
210.606	361.29
211.075	341.51
211.543	395.19
212.012	440.36
212.481	338.69
212.95	324.55
213.418	341.51
213.887	381.07
214.355	318.9
214.824	284.97
215.292	276.48
215.76	341.51
216.229	270.83
216.697	381.07
217.165	318.9
217.633	333.03
218.101	369.77
218.569	318.9
219.037	395.19
219.505	375.42
219.973	304.76
220.441	287.8
220.909	256.68
221.377	335.86
221.844	268
222.312	296.28
222.78	372.6
223.247	253.85
223.715	349.99
224.182	310.42
224.65	347.17
225.117	307.59
225.584	225.55
226.052	284.97
226.519	327.38
226.986	372.6
227.453	284.97
227.92	347.17
228.387	352.82
228.854	375.42
229.321	245.36
229.788	324.55
230.255	361.29
230.722	335.86
231.189	290.63
231.655	321.73
232.122	383.89
232.589	268
233.055	355.64
233.522	372.6
233.988	327.38
234.454	392.37
234.921	282.14
235.387	383.89
235.853	426.25
236.32	324.55
236.786	304.76
237.252	318.9
237.718	443.19
238.184	299.11
238.65	349.99
239.116	352.82
239.582	454.48
240.047	301.94
240.513	395.19
240.979	318.9
241.445	284.97
241.91	301.94
242.376	344.34
242.841	352.82
243.307	296.28
243.772	318.9
244.238	276.48
244.703	293.45
245.168	352.82
245.633	330.21
246.099	364.12
246.564	231.21
247.029	364.12
247.494	369.77
247.959	335.86
248.424	369.77
248.889	248.19
249.353	375.42
249.818	378.25
250.283	321.73
250.748	406.49
251.212	352.82
251.677	313.25
252.141	389.54
252.606	423.43
253.07	420.6
253.535	256.68
253.999	321.73
254.463	400.84
254.927	316.07
255.392	318.9
255.856	333.03
256.32	293.45
256.784	310.42
257.248	409.31
257.712	301.94
258.176	395.19
258.64	414.96
259.103	333.03
259.567	324.55
260.031	361.29
260.495	381.07
260.958	349.99
261.422	412.13
261.885	338.69
262.349	369.77
262.812	287.8
263.275	392.37
263.739	383.89
264.202	352.82
264.665	333.03
265.128	310.42
265.591	400.84
266.054	307.59
266.517	318.9
266.98	321.73
267.443	355.64
267.906	310.42
268.369	403.66
268.832	403.66
269.294	316.07
269.757	344.34
270.22	333.03
270.682	417.78
271.145	321.73
271.607	290.63
272.07	389.54
272.532	344.34
272.994	330.21
273.456	366.95
273.919	524.99
274.381	355.64
274.843	383.89
275.305	324.55
275.767	366.95
276.229	423.43
276.691	344.34
277.153	352.82
277.614	265.17
278.076	333.03
278.538	383.89
279	327.38
279.461	381.07
279.923	406.49
280.384	349.99
280.846	318.9
281.307	341.51
281.769	349.99
282.23	381.07
282.691	364.12
283.152	414.96
283.613	443.19
284.075	352.82
284.536	299.11
284.997	313.25
285.458	383.89
285.918	352.82
286.379	335.86
286.84	383.89
287.301	344.34
287.762	307.59
288.222	364.12
288.683	395.19
289.143	381.07
289.604	327.38
290.064	341.51
290.525	420.6
290.985	324.55
291.445	316.07
291.906	364.12
292.366	403.66
292.826	341.51
293.286	446.01
293.746	369.77
294.206	352.82
294.666	349.99
295.126	347.17
295.586	338.69
296.046	299.11
296.506	375.42
296.965	352.82
297.425	333.03
297.884	426.25
298.344	349.99
298.804	426.25
299.263	245.36
299.722	316.07
300.182	361.29
300.641	392.37
301.1	355.64
301.559	383.89
302.019	409.31
302.478	364.12
302.937	462.94
303.396	355.64
303.855	409.31
304.314	398.02
304.772	471.4
305.231	296.28
305.69	440.36
306.149	324.55
306.607	381.07
307.066	338.69
307.524	409.31
307.983	347.17
308.441	361.29
308.9	417.78
309.358	341.51
309.816	454.48
310.275	366.95
310.733	284.97
311.191	358.47
311.649	307.59
312.107	347.17
312.565	355.64
313.023	375.42
313.481	344.34
313.939	375.42
314.397	417.78
314.854	349.99
315.312	364.12
315.77	338.69
316.227	364.12
316.685	335.86
317.142	341.51
317.6	301.94
318.057	352.82
318.514	273.65
318.972	349.99
319.429	347.17
319.886	316.07
320.343	324.55
320.8	386.72
321.257	369.77
321.714	355.64
322.171	347.17
322.628	395.19
323.085	296.28
323.542	372.6
323.998	355.64
324.455	395.19
324.912	392.37
325.368	443.19
325.825	443.19
326.281	395.19
326.738	414.96
327.194	293.45
327.65	335.86
328.107	381.07
328.563	386.72
329.019	446.01
329.475	437.54
329.931	282.14
330.387	389.54
330.843	437.54
331.299	355.64
331.755	304.76
332.211	392.37
332.666	344.34
333.122	389.54
333.578	412.13
334.033	347.17
334.489	338.69
334.944	321.73
335.4	378.25
335.855	395.19
336.31	389.54
336.766	347.17
337.221	372.6
337.676	378.25
338.131	386.72
338.586	451.65
339.041	406.49
339.496	431.9
339.951	372.6
340.406	352.82
340.861	364.12
341.316	358.47
341.771	381.07
342.225	330.21
342.68	341.51
343.134	335.86
343.589	406.49
344.043	293.45
344.498	414.96
344.952	307.59
345.406	643.3
345.861	375.42
346.315	284.97
346.769	361.29
347.223	341.51
347.677	409.31
348.131	414.96
348.585	386.72
349.039	403.66
349.493	341.51
349.947	273.65
350.401	338.69
350.854	375.42
351.308	412.13
351.762	347.17
352.215	409.31
352.669	279.31
353.122	409.31
353.575	316.07
354.029	383.89
354.482	465.76
354.935	429.07
355.388	364.12
355.842	358.47
356.295	443.19
356.748	352.82
357.201	307.59
357.654	375.42
358.106	378.25
358.559	296.28
359.012	392.37
359.465	448.83
359.917	307.59
360.37	366.95
360.823	330.21
361.275	344.34
361.728	310.42
362.18	386.72
362.632	395.19
363.085	426.25
363.537	372.6
363.989	423.43
364.441	341.51
364.893	364.12
365.345	361.29
365.797	313.25
366.249	429.07
366.701	386.72
367.153	301.94
367.605	364.12
368.057	355.64
368.508	341.51
368.96	347.17
369.411	327.38
369.863	330.21
370.314	327.38
370.766	358.47
371.217	400.84
371.669	318.9
372.12	443.19
372.571	369.77
373.022	338.69
373.473	395.19
373.924	414.96
374.375	358.47
374.826	417.78
375.277	324.55
375.728	381.07
376.179	406.49
376.63	383.89
377.08	375.42
377.531	383.89
377.981	321.73
378.432	335.86
378.883	414.96
379.333	313.25
379.783	375.42
380.234	344.34
380.684	423.43
381.134	400.84
381.584	316.07
382.034	347.17
382.485	361.29
382.935	429.07
383.385	440.36
383.834	398.02
384.284	344.34
384.734	398.02
385.184	398.02
385.634	352.82
386.083	296.28
386.533	479.87
386.982	448.83
387.432	431.9
387.881	347.17
388.331	381.07
388.78	366.95
389.229	282.14
389.679	358.47
390.128	440.36
390.577	372.6
391.026	333.03
391.475	392.37
391.924	293.45
392.373	392.37
392.822	431.9
393.27	434.72
393.719	316.07
394.168	369.77
394.617	383.89
395.065	488.33
395.514	446.01
395.962	398.02
396.411	344.34
396.859	358.47
397.307	420.6
397.756	361.29
398.204	398.02
398.652	423.43
399.1	366.95
399.548	409.31
399.996	358.47
400.444	398.02
400.892	395.19
401.34	434.72
401.788	386.72
402.236	349.99
402.683	392.37
403.131	369.77
403.579	366.95
404.026	381.07
404.474	414.96
404.921	372.6
405.369	293.45
405.816	417.78
406.263	321.73
406.71	372.6
407.158	364.12
407.605	369.77
408.052	392.37
408.499	378.25
408.946	324.55
409.393	409.31
409.84	361.29
410.286	423.43
410.733	361.29
411.18	214.23
411.626	364.12
412.073	477.05
412.52	338.69
412.966	369.77
413.413	403.66
413.859	409.31
414.305	454.48
414.752	414.96
415.198	310.42
415.644	287.8
416.09	426.25
416.536	307.59
416.982	349.99
417.428	485.51
417.874	423.43
418.32	333.03
418.766	409.31
419.211	381.07
419.657	381.07
420.103	293.45
420.548	338.69
420.994	352.82
421.439	366.95
421.885	270.83
422.33	352.82
422.776	403.66
423.221	369.77
423.666	383.89
424.111	347.17
424.556	431.9
425.001	344.34
425.446	276.48
425.891	341.51
426.336	355.64
426.781	539.08
427.226	321.73
427.671	344.34
428.115	381.07
428.56	372.6
429.005	417.78
429.449	338.69
429.894	361.29
430.338	446.01
430.782	335.86
431.227	335.86
431.671	431.9
432.115	409.31
432.559	383.89
433.003	423.43
433.447	417.78
433.891	352.82
434.335	335.86
434.779	381.07
435.223	372.6
435.667	477.05
436.111	747.38
436.554	372.6
436.998	378.25
437.442	318.9
437.885	352.82
438.328	381.07
438.772	414.96
439.215	344.34
439.659	386.72
440.102	335.86
440.545	366.95
440.988	287.8
441.431	468.58
441.874	448.83
442.317	355.64
442.76	287.8
443.203	293.45
443.646	383.89
444.089	316.07
444.531	265.17
444.974	327.38
445.417	381.07
445.859	437.54
446.302	352.82
446.744	321.73
447.186	364.12
447.629	429.07
448.071	304.76
448.513	426.25
448.956	366.95
449.398	324.55
449.84	431.9
450.282	443.19
450.724	389.54
451.166	395.19
451.607	349.99
452.049	341.51
452.491	431.9
452.933	299.11
453.374	381.07
453.816	437.54
454.257	437.54
454.699	420.6
455.14	333.03
455.582	406.49
456.023	406.49
456.464	372.6
456.905	301.94
457.347	429.07
457.788	335.86
458.229	335.86
458.67	335.86
459.111	242.53
459.552	324.55
459.992	389.54
460.433	349.99
460.874	462.94
461.315	327.38
461.755	355.64
462.196	259.51
462.636	358.47
463.077	414.96
463.517	369.77
463.957	372.6
464.398	358.47
464.838	440.36
465.278	389.54
465.718	406.49
466.158	335.86
466.598	446.01
467.038	296.28
467.478	366.95
467.918	488.33
468.358	491.15
468.798	462.94
469.237	341.51
469.677	349.99
470.117	448.83
470.556	423.43
470.996	324.55
471.435	381.07
471.874	318.9
472.314	389.54
472.753	316.07
473.192	366.95
473.631	389.54
474.07	454.48
474.509	321.73
474.948	279.31
475.387	378.25
475.826	378.25
476.265	341.51
476.704	406.49
477.143	338.69
477.581	333.03
478.02	366.95
478.458	369.77
478.897	420.6
479.335	403.66
479.774	333.03
480.212	355.64
480.65	355.64
481.089	443.19
481.527	355.64
481.965	406.49
482.403	378.25
482.841	333.03
483.279	398.02
483.717	383.89
484.155	318.9
484.592	406.49
485.03	366.95
485.468	386.72
485.905	392.37
486.343	392.37
486.781	460.12
487.218	457.3
487.655	392.37
488.093	299.11
488.53	412.13
488.967	383.89
489.405	417.78
489.842	412.13
490.279	474.23
490.716	344.34
491.153	296.28
491.59	358.47
492.027	333.03
492.463	330.21
492.9	361.29
493.337	369.77
493.773	355.64
494.21	383.89
494.647	313.25
495.083	375.42
495.519	378.25
495.956	361.29
496.392	392.37
496.828	361.29
497.265	341.51
497.701	440.36
498.137	386.72
498.573	299.11
499.009	324.55
499.445	251.02
499.881	318.9
500.316	313.25
500.752	265.17
501.188	412.13
501.624	296.28
502.059	375.42
502.495	400.84
502.93	361.29
503.366	716.45
503.801	398.02
504.236	375.42
504.672	378.25
505.107	347.17
505.542	321.73
505.977	347.17
506.412	414.96
506.847	349.99
507.282	378.25
507.717	429.07
508.152	321.73
508.587	378.25
509.021	352.82
509.456	479.87
509.891	398.02
510.325	253.85
510.76	344.34
511.194	347.17
511.628	333.03
512.063	318.9
512.497	316.07
512.931	468.58
513.366	344.34
513.8	361.29
514.234	318.9
514.668	426.25
515.102	389.54
515.536	316.07
515.969	398.02
516.403	324.55
516.837	440.36
517.271	366.95
517.704	369.77
518.138	364.12
518.571	406.49
519.005	386.72
519.438	378.25
519.871	434.72
520.305	409.31
520.738	313.25
521.171	330.21
521.604	434.72
522.037	412.13
522.47	341.51
522.903	366.95
523.336	341.51
523.769	457.3
524.202	429.07
524.634	426.25
525.067	304.76
525.5	347.17
525.932	429.07
526.365	398.02
526.797	366.95
527.23	307.59
527.662	440.36
528.094	358.47
528.527	392.37
528.959	400.84
529.391	403.66
529.823	409.31
530.255	440.36
530.687	513.71
531.119	333.03
531.551	395.19
531.982	375.42
532.414	386.72
532.846	389.54
533.277	412.13
533.709	335.86
534.14	358.47
534.572	392.37
535.003	366.95
535.435	412.13
535.866	327.38
536.297	361.29
536.728	383.89
537.159	349.99
537.59	383.89
538.022	381.07
538.452	414.96
538.883	352.82
539.314	324.55
539.745	313.25
540.176	395.19
540.606	378.25
541.037	352.82
541.468	400.84
541.898	378.25
542.328	448.83
542.759	446.01
543.189	313.25
543.619	395.19
544.05	349.99
544.48	383.89
544.91	293.45
545.34	333.03
545.77	358.47
546.2	381.07
546.63	398.02
547.06	443.19
547.489	366.95
547.919	276.48
548.349	304.76
548.778	352.82
549.208	431.9
549.637	395.19
550.067	406.49
550.496	369.77
550.926	448.83
551.355	341.51
551.784	313.25
552.213	386.72
552.642	417.78
553.071	412.13
553.5	313.25
553.929	355.64
554.358	352.82
554.787	448.83
555.216	412.13
555.645	344.34
556.073	378.25
556.502	403.66
556.93	338.69
557.359	344.34
557.787	361.29
558.216	366.95
558.644	366.95
559.072	375.42
559.5	440.36
559.929	313.25
560.357	389.54
560.785	395.19
561.213	443.19
561.641	448.83
562.068	349.99
562.496	293.45
562.924	414.96
563.352	324.55
563.779	412.13
564.207	386.72
564.634	284.97
565.062	378.25
565.489	406.49
565.917	316.07
566.344	403.66
566.771	431.9
567.198	355.64
567.625	369.77
568.053	420.6
568.48	383.89
568.907	313.25
569.333	361.29
569.76	219.89
570.187	364.12
570.614	358.47
571.04	5644.31
571.467	533.45
571.894	395.19
572.32	375.42
572.747	366.95
573.173	369.77
573.599	347.17
574.026	324.55
574.452	409.31
574.878	440.36
575.304	429.07
575.73	327.38
576.156	462.94
576.582	369.77
577.008	307.59
577.434	398.02
577.86	403.66
578.285	420.6
578.711	361.29
579.137	324.55
579.562	324.55
579.988	310.42
580.413	460.12
580.838	318.9
581.264	355.64
581.689	282.14
582.114	434.72
582.539	873.76
582.964	381.07
583.39	349.99
583.814	381.07
584.239	378.25
584.664	412.13
585.089	383.89
585.514	398.02
585.939	434.72
586.363	383.89
586.788	372.6
587.212	307.59
587.637	375.42
588.061	270.83
588.485	375.42
588.91	403.66
589.334	313.25
589.758	318.9
590.182	301.94
590.606	364.12
591.03	366.95
591.454	378.25
591.878	431.9
592.302	355.64
592.726	347.17
593.15	395.19
593.573	383.89
593.997	335.86
594.42	366.95
594.844	287.8
595.267	352.82
595.691	398.02
596.114	372.6
596.537	355.64
596.96	383.89
597.384	420.6
597.807	375.42
598.23	460.12
598.653	389.54
599.076	386.72
599.499	409.31
599.921	369.77
600.344	333.03
600.767	327.38
601.189	398.02
601.612	330.21
602.034	327.38
602.457	327.38
602.879	539.08
603.302	431.9
603.724	335.86
604.146	324.55
604.568	358.47
604.991	344.34
605.413	335.86
605.835	321.73
606.257	372.6
606.678	429.07
607.1	344.34
607.522	389.54
607.944	310.42
608.365	420.6
608.787	313.25
609.209	406.49
609.63	355.64
610.051	395.19
610.473	381.07
610.894	434.72
611.315	352.82
611.737	429.07
612.158	335.86
612.579	327.38
613	457.3
613.421	318.9
613.842	403.66
614.263	395.19
614.683	431.9
615.104	349.99
615.525	369.77
615.945	321.73
616.366	307.59
616.787	505.25
617.207	279.31
617.627	389.54
618.048	440.36
618.468	392.37
618.888	400.84
619.308	355.64
619.728	366.95
620.148	318.9
620.568	372.6
620.988	366.95
621.408	406.49
621.828	327.38
622.248	335.86
622.668	392.37
623.087	333.03
623.507	358.47
623.926	364.12
624.346	355.64
624.765	389.54
625.185	333.03
625.604	338.69
626.023	364.12
626.442	304.76
626.861	366.95
627.28	355.64
627.699	307.59
628.118	398.02
628.537	301.94
628.956	372.6
629.375	423.43
629.794	392.37
630.212	364.12
630.631	417.78
631.049	364.12
631.468	327.38
631.886	355.64
632.305	493.97
632.723	375.42
633.141	358.47
633.559	273.65
633.978	304.76
634.396	389.54
634.814	403.66
635.232	400.84
635.65	313.25
636.067	426.25
636.485	446.01
636.903	282.14
637.321	333.03
637.738	417.78
638.156	282.14
638.573	321.73
638.991	341.51
639.408	327.38
639.825	313.25
640.243	414.96
640.66	304.76
641.077	335.86
641.494	414.96
641.911	462.94
642.328	406.49
642.745	381.07
643.162	349.99
643.579	406.49
643.995	381.07
644.412	392.37
644.829	361.29
645.245	454.48
645.662	364.12
646.078	389.54
646.495	338.69
646.911	392.37
647.327	443.19
647.743	284.97
648.159	259.51
648.576	352.82
648.992	327.38
649.408	347.17
649.824	307.59
650.239	398.02
650.655	386.72
651.071	398.02
651.487	321.73
651.902	330.21
652.318	352.82
652.733	364.12
653.149	341.51
653.564	400.84
653.979	341.51
654.395	392.37
654.81	392.37
655.225	403.66
655.64	304.76
656.055	403.66
656.47	287.8
656.885	282.14
657.3	333.03
657.715	409.31
658.13	282.14
658.544	344.34
658.959	341.51
659.374	338.69
659.788	358.47
660.202	341.51
660.617	412.13
661.031	352.82
661.445	341.51
661.86	355.64
662.274	454.48
662.688	366.95
663.102	307.59
663.516	324.55
663.93	361.29
664.344	347.17
664.758	344.34
665.171	375.42
665.585	327.38
665.999	398.02
666.412	372.6
666.826	344.34
667.239	330.21
667.653	398.02
668.066	330.21
668.479	386.72
668.892	338.69
669.306	296.28
669.719	358.47
670.132	448.83
670.545	386.72
670.958	352.82
671.37	364.12
671.783	265.17
672.196	412.13
672.609	381.07
673.021	301.94
673.434	335.86
673.846	361.29
674.259	406.49
674.671	333.03
675.084	366.95
675.496	338.69
675.908	426.25
676.32	318.9
676.732	451.65
677.144	434.72
677.556	398.02
677.968	349.99
678.38	341.51
678.792	358.47
679.204	434.72
679.615	352.82
680.027	268
680.439	301.94
680.85	434.72
681.262	412.13
681.673	403.66
682.084	361.29
682.496	361.29
682.907	310.42
683.318	310.42
683.729	361.29
684.14	369.77
684.551	375.42
684.962	304.76
685.373	366.95
685.784	341.51
686.194	338.69
686.605	398.02
687.016	386.72
687.426	310.42
687.837	381.07
688.247	290.63
688.657	307.59
689.068	341.51
689.478	327.38
689.888	412.13
690.298	474.23
690.708	330.21
691.118	347.17
691.528	279.31
691.938	383.89
692.348	324.55
692.758	341.51
693.168	440.36
693.577	412.13
693.987	398.02
694.396	316.07
694.806	318.9
695.215	318.9
695.625	378.25
696.034	330.21
696.443	335.86
696.852	403.66
697.262	279.31
697.671	344.34
698.08	392.37
698.489	434.72
698.897	366.95
699.306	395.19
699.715	417.78
700.124	372.6
700.532	310.42
700.941	406.49
701.35	431.9
701.758	426.25
702.166	375.42
702.575	338.69
702.983	398.02
703.391	443.19
703.799	276.48
704.208	307.59
704.616	301.94
705.024	386.72
705.432	403.66
705.839	361.29
706.247	324.55
706.655	440.36
707.063	318.9
707.47	429.07
707.878	284.97
708.285	333.03
708.693	414.96
709.1	335.86
709.508	335.86
709.915	341.51
710.322	327.38
710.729	383.89
711.136	349.99
711.543	429.07
711.95	369.77
712.357	375.42
712.764	381.07
713.171	420.6
713.578	414.96
713.984	378.25
714.391	358.47
714.797	366.95
715.204	437.54
715.61	366.95
716.017	361.29
716.423	457.3
716.829	293.45
717.236	366.95
717.642	344.34
718.048	414.96
718.454	462.94
718.86	301.94
719.266	434.72
719.671	366.95
720.077	361.29
720.483	386.72
720.889	434.72
721.294	361.29
721.7	299.11
722.105	347.17
722.511	301.94
722.916	395.19
723.321	347.17
723.726	259.51
724.132	383.89
724.537	383.89
724.942	347.17
725.347	383.89
725.752	347.17
726.156	403.66
726.561	420.6
726.966	389.54
727.371	381.07
727.775	361.29
728.18	349.99
728.584	358.47
728.989	366.95
729.393	446.01
729.798	488.33
730.202	454.48
730.606	400.84
731.01	316.07
731.414	344.34
731.818	324.55
732.222	375.42
732.626	355.64
733.03	307.59
733.434	389.54
733.837	400.84
734.241	341.51
734.645	366.95
735.048	409.31
735.452	395.19
735.855	338.69
736.258	420.6
736.662	349.99
737.065	324.55
737.468	409.31
737.871	403.66
738.274	313.25
738.677	358.47
739.08	389.54
739.483	375.42
739.886	474.23
740.289	378.25
740.691	372.6
741.094	349.99
741.497	307.59
741.899	324.55
742.302	310.42
742.704	352.82
743.106	398.02
743.508	364.12
743.911	310.42
744.313	417.78
744.715	369.77
745.117	330.21
745.519	330.21
745.921	378.25
746.323	375.42
746.724	366.95
747.126	307.59
747.528	392.37
747.929	338.69
748.331	414.96
748.732	344.34
749.134	352.82
749.535	316.07
749.936	386.72
750.338	310.42
750.739	389.54
751.14	335.86
751.541	364.12
751.942	358.47
752.343	412.13
752.744	310.42
753.144	361.29
753.545	324.55
753.946	389.54
754.346	338.69
754.747	406.49
755.148	386.72
755.548	400.84
755.948	400.84
756.349	358.47
756.749	279.31
757.149	369.77
757.549	361.29
757.949	361.29
758.349	389.54
758.749	400.84
759.149	389.54
759.549	268
759.949	369.77
760.348	479.87
760.748	361.29
761.148	361.29
761.547	299.11
761.947	344.34
762.346	361.29
762.745	375.42
763.145	262.34
763.544	355.64
763.943	355.64
764.342	313.25
764.741	335.86
765.14	403.66
765.539	372.6
765.938	338.69
766.336	389.54
766.735	434.72
767.134	429.07
767.532	381.07
767.931	313.25
768.329	440.36
768.728	304.76
769.126	386.72
769.525	491.15
769.923	378.25
770.321	352.82
770.719	335.86
771.117	398.02
771.515	366.95
771.913	310.42
772.311	290.63
772.709	321.73
773.106	324.55
773.504	316.07
773.902	383.89
774.299	434.72
774.697	366.95
775.094	383.89
775.491	381.07
775.889	296.28
776.286	361.29
776.683	259.51
777.08	375.42
777.477	378.25
777.874	358.47
778.271	448.83
778.668	301.94
779.065	398.02
779.462	349.99
779.858	479.87
780.255	491.15
780.652	316.07
781.048	414.96
781.444	341.51
781.841	338.69
782.237	400.84
782.633	301.94
783.03	372.6
783.426	392.37
783.822	318.9
784.218	316.07
784.614	400.84
785.01	386.72
785.405	287.8
785.801	364.12
786.197	392.37
786.593	265.17
786.988	426.25
787.384	383.89
787.779	381.07
788.174	355.64
788.57	349.99
788.965	423.43
789.36	409.31
789.755	327.38
790.15	344.34
790.545	409.31
790.94	349.99
791.335	358.47
791.73	352.82
792.125	338.69
792.52	335.86
792.914	409.31
793.309	282.14
793.703	341.51
794.098	381.07
794.492	355.64
794.887	381.07
795.281	488.33
795.675	392.37
796.069	446.01
796.463	338.69
796.857	440.36
797.251	386.72
797.645	361.29
798.039	400.84
798.433	386.72
798.826	364.12
799.22	364.12
799.614	318.9
800.007	316.07
800.401	330.21
800.794	352.82
801.187	386.72
801.581	352.82
801.974	318.9
802.367	335.86
802.76	392.37
803.153	335.86
803.546	279.31
803.939	381.07
804.332	338.69
804.725	349.99
805.117	417.78
805.51	412.13
805.903	423.43
806.295	386.72
806.688	313.25
807.08	454.48
807.472	361.29
807.865	378.25
808.257	398.02
808.649	327.38
809.041	398.02
809.433	375.42
809.825	429.07
810.217	398.02
810.609	431.9
811.001	381.07
811.392	403.66
811.784	369.77
812.175	273.65
812.567	443.19
812.958	378.25
813.35	366.95
813.741	378.25
814.132	392.37
814.524	448.83
814.915	406.49
815.306	417.78
815.697	400.84
816.088	372.6
816.479	417.78
816.87	375.42
817.26	409.31
817.651	366.95
818.042	420.6
818.432	352.82
818.823	398.02
819.213	386.72
819.604	310.42
819.994	381.07
820.384	369.77
820.775	392.37
821.165	324.55
821.555	327.38
821.945	321.73
822.335	321.73
822.725	327.38
823.114	349.99
823.504	347.17
823.894	333.03
824.284	372.6
824.673	318.9
825.063	318.9
825.452	355.64
825.842	338.69
826.231	414.96
826.62	477.05
827.009	420.6
827.399	468.58
827.788	341.51
828.177	299.11
828.566	392.37
828.954	414.96
829.343	349.99
829.732	386.72
830.121	389.54
830.509	316.07
830.898	316.07
831.286	307.59
831.675	347.17
832.063	372.6
832.452	358.47
832.84	330.21
833.228	414.96
833.616	299.11
834.004	335.86
834.392	361.29
834.78	403.66
835.168	366.95
835.556	440.36
835.944	338.69
836.331	364.12
836.719	378.25
837.107	417.78
837.494	437.54
837.881	369.77
838.269	358.47
838.656	338.69
839.043	364.12
839.431	406.49
839.818	355.64
840.205	344.34
840.592	330.21
840.979	358.47
841.366	347.17
841.752	434.72
842.139	361.29
842.526	392.37
842.912	287.8
843.299	462.94
843.685	316.07
844.072	251.02
844.458	434.72
844.844	333.03
845.231	403.66
845.617	273.65
846.003	392.37
846.389	406.49
846.775	321.73
847.161	366.95
847.547	324.55
847.933	344.34
848.318	403.66
848.704	400.84
849.09	372.6
849.475	372.6
849.861	338.69
850.246	344.34
850.631	366.95
851.017	364.12
851.402	352.82
851.787	364.12
852.172	321.73
852.557	321.73
852.942	414.96
853.327	324.55
853.712	392.37
854.097	389.54
854.481	349.99
854.866	321.73
855.25	423.43
855.635	361.29
856.019	344.34
856.404	375.42
856.788	361.29
857.172	282.14
857.557	369.77
857.941	299.11
858.325	381.07
858.709	347.17
859.093	256.68
859.477	304.76
859.86	366.95
860.244	321.73
860.628	468.58
861.012	344.34
861.395	347.17
861.779	293.45
862.162	406.49
862.545	383.89
862.929	423.43
863.312	316.07
863.695	386.72
864.078	318.9
864.461	273.65
864.844	333.03
865.227	352.82
865.61	324.55
865.993	290.63
866.376	414.96
866.758	355.64
867.141	375.42
867.523	270.83
867.906	400.84
868.288	327.38
868.671	383.89
869.053	347.17
869.435	352.82
869.817	316.07
870.199	403.66
870.581	335.86
870.963	389.54
871.345	369.77
871.727	409.31
872.109	259.51
872.491	321.73
872.872	372.6
873.254	287.8
873.635	398.02
874.017	403.66
874.398	383.89
874.779	414.96
875.161	361.29
875.542	358.47
875.923	344.34
876.304	284.97
876.685	372.6
877.066	341.51
877.447	338.69
877.828	270.83
878.208	431.9
878.589	375.42
878.97	426.25
879.35	313.25
879.731	375.42
880.111	381.07
880.491	358.47
880.872	349.99
881.252	304.76
881.632	403.66
882.012	366.95
882.392	355.64
882.772	448.83
883.152	313.25
883.532	400.84
883.912	355.64
884.291	372.6
884.671	338.69
885.051	299.11
885.43	321.73
885.81	361.29
886.189	318.9
886.568	352.82
886.948	406.49
887.327	333.03
887.706	381.07
888.085	431.9
888.464	398.02
888.843	375.42
889.222	440.36
889.601	423.43
889.979	318.9
890.358	437.54
890.737	313.25
891.115	318.9
891.494	316.07
891.872	352.82
892.25	383.89
892.629	333.03
893.007	426.25
893.385	284.97
893.763	369.77
894.141	341.51
894.519	366.95
894.897	310.42
895.275	296.28
895.653	310.42
896.03	358.47
896.408	338.69
896.786	333.03
897.163	482.69
897.541	361.29
897.918	457.3
898.295	341.51
898.673	355.64
899.05	395.19
899.427	555.99
899.804	468.58
900.181	324.55
900.558	429.07
900.935	414.96
901.312	335.86
901.688	349.99
902.065	383.89
902.442	403.66
902.818	344.34
903.195	327.38
903.571	296.28
903.947	352.82
904.324	282.14
904.7	440.36
905.076	409.31
905.452	398.02
905.828	477.05
906.204	364.12
906.58	335.86
906.956	347.17
907.331	392.37
907.707	420.6
908.083	420.6
908.458	321.73
908.834	372.6
909.209	327.38
909.585	364.12
909.96	398.02
910.335	355.64
910.71	330.21
911.086	369.77
911.461	341.51
911.836	324.55
912.21	276.48
912.585	307.59
912.96	293.45
913.335	341.51
913.709	383.89
914.084	282.14
914.459	386.72
914.833	335.86
915.207	347.17
915.582	426.25
915.956	437.54
916.33	369.77
916.704	293.45
917.078	338.69
917.452	508.07
917.826	355.64
918.2	406.49
918.574	358.47
918.948	330.21
919.321	414.96
919.695	366.95
920.068	347.17
920.442	395.19
920.815	375.42
921.189	389.54
921.562	400.84
921.935	383.89
922.308	386.72
922.681	420.6
923.054	389.54
923.427	389.54
923.8	290.63
924.173	364.12
924.546	364.12
924.919	389.54
925.291	412.13
925.664	321.73
926.036	414.96
926.409	284.97
926.781	423.43
927.153	400.84
927.526	344.34
927.898	429.07
928.27	369.77
928.642	310.42
929.014	333.03
929.386	429.07
929.758	324.55
930.129	349.99
930.501	378.25
930.873	355.64
931.244	358.47
931.616	423.43
931.987	358.47
932.359	389.54
932.73	378.25
933.101	395.19
933.472	355.64
933.843	457.3
934.214	462.94
934.585	310.42
934.956	307.59
935.327	462.94
935.698	366.95
936.069	347.17
936.439	395.19
936.81	364.12
937.18	392.37
937.551	366.95
937.921	338.69
938.292	426.25
938.662	369.77
939.032	293.45
939.402	412.13
939.772	443.19
940.142	327.38
940.512	316.07
940.882	341.51
941.252	344.34
941.621	386.72
941.991	398.02
942.361	364.12
942.73	364.12
943.1	389.54
943.469	330.21
943.838	409.31
944.208	392.37
944.577	341.51
944.946	434.72
945.315	352.82
945.684	369.77
946.053	236.87
946.422	296.28
946.791	429.07
947.159	386.72
947.528	338.69
947.897	324.55
948.265	443.19
948.634	369.77
949.002	341.51
949.371	324.55
949.739	372.6
950.107	420.6
950.475	355.64
950.843	386.72
951.211	389.54
951.579	398.02
951.947	330.21
952.315	372.6
952.683	364.12
953.05	344.34
953.418	358.47
953.785	392.37
954.153	324.55
954.52	420.6
954.888	389.54
955.255	304.76
955.622	316.07
955.989	355.64
956.356	318.9
956.723	355.64
957.09	335.86
957.457	414.96
957.824	310.42
958.191	420.6
958.557	406.49
958.924	349.99
959.291	253.85
959.657	344.34
960.023	431.9
960.39	403.66
960.756	409.31
961.122	434.72
961.488	355.64
961.855	313.25
962.221	327.38
962.586	392.37
962.952	451.65
963.318	299.11
963.684	541.9
964.05	431.9
964.415	338.69
964.781	426.25
965.146	349.99
965.512	347.17
965.877	330.21
966.242	381.07
966.608	366.95
966.973	313.25
967.338	434.72
967.703	426.25
968.068	383.89
968.433	417.78
968.797	479.87
969.162	389.54
969.527	395.19
969.891	426.25
970.256	324.55
970.62	372.6
970.985	344.34
971.349	358.47
971.714	412.13
972.078	372.6
972.442	256.68
972.806	389.54
973.17	304.76
973.534	333.03
973.898	234.04
974.262	366.95
974.625	304.76
974.989	403.66
975.353	383.89
975.716	406.49
976.08	378.25
976.443	324.55
976.806	372.6
977.17	335.86
977.533	398.02
977.896	349.99
978.259	383.89
978.622	420.6
978.985	417.78
979.348	409.31
979.711	381.07
980.073	358.47
980.436	386.72
980.799	398.02
981.161	409.31
981.524	349.99
981.886	304.76
982.248	426.25
982.611	324.55
982.973	341.51
983.335	381.07
983.697	307.59
984.059	383.89
984.421	366.95
984.783	352.82
985.145	316.07
985.506	381.07
985.868	477.05
986.23	389.54
986.591	330.21
986.953	352.82
987.314	304.76
987.675	335.86
988.037	4290.93
988.398	544.72
988.759	460.12
989.12	392.37
989.481	349.99
989.842	282.14
990.203	381.07
990.564	355.64
990.924	338.69
991.285	3802.17
991.646	471.4
992.006	395.19
992.367	361.29
992.727	398.02
993.087	364.12
993.448	406.49
993.808	375.42
994.168	347.17
994.528	313.25
994.888	341.51
995.248	448.83
995.608	347.17
995.967	389.54
996.327	327.38
996.687	386.72
997.046	327.38
997.406	349.99
997.765	299.11
998.125	420.6
998.484	471.4
998.843	375.42
999.202	381.07
999.561	338.69
999.92	352.82
1000.279	349.99
1000.638	222.72
1000.997	293.45
1001.356	296.28
1001.715	398.02
1002.073	358.47
1002.432	400.84
1002.79	375.42
1003.149	386.72
1003.507	375.42
1003.865	344.34
1004.224	310.42
1004.582	347.17
1004.94	381.07
1005.298	296.28
1005.656	355.64
1006.014	259.51
1006.371	344.34
1006.729	333.03
1007.087	505.25
1007.445	479.87
1007.802	251.02
1008.16	344.34
1008.517	389.54
1008.874	383.89
1009.232	316.07
1009.589	550.36
1009.946	310.42
1010.303	366.95
1010.66	375.42
1011.017	268
1011.374	446.01
1011.731	412.13
1012.087	355.64
1012.444	324.55
1012.801	293.45
1013.157	355.64
1013.513	361.29
1013.87	333.03
1014.226	400.84
1014.582	364.12
1014.939	400.84
1015.295	364.12
1015.651	287.8
1016.007	316.07
1016.363	341.51
1016.719	406.49
1017.074	335.86
1017.43	361.29
1017.786	369.77
1018.141	290.63
1018.497	313.25
1018.852	361.29
1019.208	364.12
1019.563	446.01
1019.918	327.38
1020.273	417.78
1020.628	347.17
1020.983	352.82
1021.338	333.03
1021.693	358.47
1022.048	364.12
1022.403	361.29
1022.757	409.31
1023.112	344.34
1023.467	299.11
1023.821	324.55
1024.175	409.31
1024.53	301.94
1024.884	321.73
1025.238	383.89
1025.592	366.95
1025.946	307.59
1026.3	310.42
1026.654	378.25
1027.008	279.31
1027.362	327.38
1027.716	307.59
1028.069	304.76
1028.423	361.29
1028.777	327.38
1029.13	335.86
1029.483	352.82
1029.837	398.02
1030.19	358.47
1030.543	381.07
1030.896	242.53
1031.249	426.25
1031.602	369.77
1031.955	333.03
1032.308	372.6
1032.661	282.14
1033.013	338.69
1033.366	383.89
1033.719	344.34
1034.071	381.07
1034.424	431.9
1034.776	290.63
1035.128	347.17
1035.48	344.34
1035.833	299.11
1036.185	262.34
1036.537	262.34
1036.889	262.34
