Data from BCF20_2_FLMS019251_13-52-16-232.txt Node
Date: Mon Feb 11 13:52:16 CET 2019
User: luk
Spectrometer: FLMS01925
Trigger mode: 0
Integration Time (sec): 5.023490E-1
Scans to average: 1
Electric dark correction enabled: true
Nonlinearity correction enabled: true
Boxcar width: 0
XAxis mode: Wavelengths
Number of Pixels in Spectrum: 2048
>>>>>Begin Spectral Data<<<<<
187.103	-6.74
187.574	-6.74
188.045	-6.74
188.516	-120.41
188.987	-83.45
189.458	-97.66
189.929	-174.46
190.4	-83.45
190.871	-103.35
191.342	-29.46
191.813	-91.98
192.284	21.65
192.754	-40.82
193.225	-77.76
193.696	27.32
194.166	18.81
194.637	92.57
195.107	118.09
195.578	98.24
196.048	140.76
196.518	180.42
196.989	183.26
197.459	186.09
197.929	220.07
198.399	361.47
198.869	296.46
199.339	336.04
199.809	310.6
200.279	463.12
200.749	409.49
201.219	369.95
201.689	372.77
202.159	378.42
202.628	341.69
203.098	398.19
203.568	395.37
204.037	369.95
204.507	474.4
204.976	364.3
205.445	364.3
205.915	386.9
206.384	401.02
206.853	403.84
207.323	482.86
207.792	420.78
208.261	403.84
208.73	384.07
209.199	468.76
209.668	372.77
210.137	449.01
210.606	474.4
211.075	358.65
211.543	429.25
212.012	465.94
212.481	378.42
212.95	426.43
213.418	440.54
213.887	290.8
214.355	460.29
214.824	384.07
215.292	316.25
215.76	358.65
216.229	474.4
216.697	333.21
217.165	403.84
217.633	403.84
218.101	378.42
218.569	544.9
219.037	412.31
219.505	502.61
219.973	276.66
220.441	423.6
220.909	336.04
221.377	401.02
221.844	378.42
222.312	429.25
222.78	440.54
223.247	287.97
223.715	384.07
224.182	406.66
224.65	341.69
225.117	409.49
225.584	389.72
226.052	319.08
226.519	420.78
226.986	347.34
227.453	364.3
227.92	367.12
228.387	398.19
228.854	324.73
229.321	429.25
229.788	352.99
230.255	310.6
230.722	488.51
231.189	519.53
231.655	352.99
232.122	364.3
232.589	344.52
233.055	449.01
233.522	409.49
233.988	352.99
234.454	420.78
234.921	423.6
235.387	463.12
235.853	381.25
236.32	386.9
236.786	375.6
237.252	463.12
237.718	375.6
238.184	423.6
238.65	437.72
239.116	381.25
239.582	347.34
240.047	465.94
240.513	406.66
240.979	361.47
241.445	384.07
241.91	423.6
242.376	432.07
242.841	415.13
243.307	313.42
243.772	409.49
244.238	321.9
244.703	324.73
245.168	378.42
245.633	372.77
246.099	403.84
246.564	344.52
247.029	519.53
247.494	355.82
247.959	364.3
248.424	423.6
248.889	355.82
249.353	426.43
249.818	395.37
250.283	369.95
250.748	344.52
251.212	480.04
251.677	372.77
252.141	460.29
252.606	327.56
253.07	310.6
253.535	417.96
253.999	341.69
254.463	429.25
254.927	386.9
255.392	344.52
255.856	392.54
256.32	432.07
256.784	330.39
257.248	386.9
257.712	350.17
258.176	401.02
258.64	392.54
259.103	432.07
259.567	460.29
260.031	426.43
260.495	440.54
260.958	451.83
261.422	460.29
261.885	299.29
262.349	372.77
262.812	336.04
263.275	381.25
263.739	457.47
264.202	485.69
264.665	392.54
265.128	440.54
265.591	389.72
266.054	367.12
266.517	443.36
266.98	321.9
267.443	358.65
267.906	417.96
268.369	401.02
268.832	505.43
269.294	463.12
269.757	417.96
270.22	432.07
270.682	440.54
271.145	434.9
271.607	420.78
272.07	516.71
272.532	341.69
272.994	465.94
273.456	406.66
273.919	606.88
274.381	401.02
274.843	432.07
275.305	403.84
275.767	449.01
276.229	417.96
276.691	440.54
277.153	454.65
277.614	429.25
278.076	474.4
278.538	420.78
279	432.07
279.461	465.94
279.923	527.98
280.384	392.54
280.846	330.39
281.307	392.54
281.769	375.6
282.23	423.6
282.691	457.47
283.152	465.94
283.613	367.12
284.075	460.29
284.536	434.9
284.997	384.07
285.458	375.6
285.918	440.54
286.379	395.37
286.84	457.47
287.301	358.65
287.762	465.94
288.222	511.07
288.683	454.65
289.143	417.96
289.604	429.25
290.064	460.29
290.525	358.65
290.985	499.79
291.445	420.78
291.906	426.43
292.366	378.42
292.826	361.47
293.286	341.69
293.746	341.69
294.206	338.86
294.666	389.72
295.126	381.25
295.586	336.04
296.046	358.65
296.506	454.65
296.965	434.9
297.425	457.47
297.884	406.66
298.344	401.02
298.804	426.43
299.263	440.54
299.722	440.54
300.182	290.8
300.641	378.42
301.1	395.37
301.559	392.54
302.019	409.49
302.478	412.31
302.937	372.77
303.396	392.54
303.855	491.33
304.314	443.36
304.772	513.89
305.231	347.34
305.69	446.19
306.149	406.66
306.607	415.13
307.066	440.54
307.524	463.12
307.983	440.54
308.441	432.07
308.9	496.97
309.358	443.36
309.816	482.86
310.275	386.9
310.733	358.65
311.191	432.07
311.649	409.49
312.107	468.76
312.565	369.95
313.023	378.42
313.481	415.13
313.939	296.46
314.397	304.94
314.854	327.56
315.312	406.66
315.77	355.82
316.227	426.43
316.685	398.19
317.142	403.84
317.6	398.19
318.057	423.6
318.514	395.37
318.972	386.9
319.429	496.97
319.886	426.43
320.343	440.54
320.8	358.65
321.257	381.25
321.714	432.07
322.171	530.8
322.628	369.95
323.085	502.61
323.542	327.56
323.998	437.72
324.455	403.84
324.912	367.12
325.368	372.77
325.825	471.58
326.281	457.47
326.738	395.37
327.194	417.96
327.65	449.01
328.107	378.42
328.563	367.12
329.019	443.36
329.475	369.95
329.931	457.47
330.387	474.4
330.843	321.9
331.299	341.69
331.755	304.94
332.211	321.9
332.666	386.9
333.122	355.82
333.578	386.9
334.033	352.99
334.489	451.83
334.944	347.34
335.4	434.9
335.855	364.3
336.31	341.69
336.766	465.94
337.221	446.19
337.676	429.25
338.131	403.84
338.586	381.25
339.041	392.54
339.496	474.4
339.951	409.49
340.406	417.96
340.861	395.37
341.316	367.12
341.771	465.94
342.225	443.36
342.68	443.36
343.134	336.04
343.589	333.21
344.043	465.94
344.498	449.01
344.952	426.43
345.406	784.09
345.861	417.96
346.315	358.65
346.769	401.02
347.223	378.42
347.677	417.96
348.131	358.65
348.585	429.25
349.039	434.9
349.493	446.19
349.947	392.54
350.401	389.72
350.854	409.49
351.308	423.6
351.762	384.07
352.215	440.54
352.669	321.9
353.122	437.72
353.575	378.42
354.029	432.07
354.482	319.08
354.935	417.96
355.388	412.31
355.842	423.6
356.295	398.19
356.748	352.99
357.201	460.29
357.654	491.33
358.106	361.47
358.559	415.13
359.012	426.43
359.465	440.54
359.917	423.6
360.37	443.36
360.823	412.31
361.275	440.54
361.728	392.54
362.18	463.12
362.632	432.07
363.085	367.12
363.537	415.13
363.989	367.12
364.441	403.84
364.893	426.43
365.345	423.6
365.797	446.19
366.249	350.17
366.701	378.42
367.153	406.66
367.605	412.31
368.057	440.54
368.508	375.6
368.96	338.86
369.411	341.69
369.863	395.37
370.314	449.01
370.766	437.72
371.217	494.15
371.669	471.58
372.12	471.58
372.571	485.69
373.022	417.96
373.473	355.82
373.924	355.82
374.375	361.47
374.826	454.65
375.277	409.49
375.728	463.12
376.179	412.31
376.63	409.49
377.08	403.84
377.531	437.72
377.981	460.29
378.432	406.66
378.883	471.58
379.333	350.17
379.783	429.25
380.234	401.02
380.684	358.65
381.134	446.19
381.584	454.65
382.034	375.6
382.485	321.9
382.935	423.6
383.385	384.07
383.834	471.58
384.284	386.9
384.734	412.31
385.184	333.21
385.634	352.99
386.083	321.9
386.533	454.65
386.982	525.17
387.432	361.47
387.881	415.13
388.331	423.6
388.78	420.78
389.229	355.82
389.679	330.39
390.128	384.07
390.577	401.02
391.026	449.01
391.475	446.19
391.924	449.01
392.373	432.07
392.822	412.31
393.27	429.25
393.719	372.77
394.168	367.12
394.617	494.15
395.065	406.66
395.514	409.49
395.962	409.49
396.411	423.6
396.859	412.31
397.307	460.29
397.756	381.25
398.204	341.69
398.652	417.96
399.1	384.07
399.548	468.76
399.996	508.25
400.444	443.36
400.892	437.72
401.34	460.29
401.788	395.37
402.236	392.54
402.683	341.69
403.131	389.72
403.579	440.54
404.026	273.83
404.474	434.9
404.921	443.36
405.369	457.47
405.816	403.84
406.263	403.84
406.71	423.6
407.158	415.13
407.605	338.86
408.052	491.33
408.499	457.47
408.946	434.9
409.393	457.47
409.84	352.99
410.286	508.25
410.733	429.25
411.18	344.52
411.626	417.96
412.073	375.6
412.52	471.58
412.966	415.13
413.413	367.12
413.859	432.07
414.305	488.51
414.752	372.77
415.198	412.31
415.644	406.66
416.09	415.13
416.536	409.49
416.982	398.19
417.428	412.31
417.874	296.46
418.32	429.25
418.766	381.25
419.211	375.6
419.657	468.76
420.103	392.54
420.548	336.04
420.994	378.42
421.439	341.69
421.885	395.37
422.33	384.07
422.776	378.42
423.221	513.89
423.666	449.01
424.111	426.43
424.556	437.72
425.001	457.47
425.446	395.37
425.891	401.02
426.336	355.82
426.781	542.08
427.226	372.77
427.671	319.08
428.115	350.17
428.56	440.54
429.005	465.94
429.449	505.43
429.894	375.6
430.338	482.86
430.782	511.07
431.227	369.95
431.671	389.72
432.115	358.65
432.559	378.42
433.003	403.84
433.447	423.6
433.891	384.07
434.335	496.97
434.779	395.37
435.223	457.47
435.667	406.66
436.111	443.36
436.554	398.19
436.998	426.43
437.442	468.76
437.885	409.49
438.328	364.3
438.772	443.36
439.215	344.52
439.659	417.96
440.102	437.72
440.545	539.26
440.988	358.65
441.431	440.54
441.874	449.01
442.317	406.66
442.76	440.54
443.203	372.77
443.646	505.43
444.089	480.04
444.531	381.25
444.974	369.95
445.417	375.6
445.859	519.53
446.302	412.31
446.744	378.42
447.186	367.12
447.629	432.07
448.071	381.25
448.513	355.82
448.956	378.42
449.398	429.25
449.84	426.43
450.282	406.66
450.724	502.61
451.166	401.02
451.607	578.71
452.049	378.42
452.491	432.07
452.933	468.76
453.374	525.17
453.816	426.43
454.257	423.6
454.699	432.07
455.14	536.44
455.582	434.9
456.023	440.54
456.464	513.89
456.905	415.13
457.347	434.9
457.788	440.54
458.229	296.46
458.67	434.9
459.111	412.31
459.552	406.66
459.992	403.84
460.433	505.43
460.874	372.77
461.315	451.83
461.755	454.65
462.196	434.9
462.636	412.31
463.077	499.79
463.517	505.43
463.957	454.65
464.398	355.82
464.838	451.83
465.278	511.07
465.718	417.96
466.158	409.49
466.598	463.12
467.038	494.15
467.478	550.53
467.918	471.58
468.358	477.22
468.798	505.43
469.237	463.12
469.677	463.12
470.117	519.53
470.556	522.35
470.996	682.88
471.435	561.81
471.874	764.42
472.314	798.13
472.753	1005.72
473.192	1159.64
473.631	1299.29
474.07	1533.35
474.509	1844.35
474.948	2294.79
475.387	2674.2
475.826	3332.7
476.265	4026.79
476.704	4753.21
477.143	5641.82
477.581	6275.02
478.02	7664.52
478.458	8482.35
478.897	9675.02
479.335	11312.28
479.774	12276.17
480.212	14308.9
480.65	15345.04
481.089	16949.56
481.527	17902.85
481.965	19819.85
482.403	22079.37
482.841	23686.9
483.279	25541.97
483.717	27116.37
484.155	28254.22
484.592	30127.55
485.03	32405.33
485.468	33124.56
485.905	35215.29
486.343	36936.05
486.781	37420.85
487.218	38541.55
487.655	40157.92
488.093	40955.28
488.53	43443.1
488.967	43735.25
489.405	45119.26
489.842	45424.02
490.279	46118.75
490.716	47479.86
491.153	48190.39
491.59	49235.31
492.027	48370.67
492.463	49105.38
492.9	49670.68
493.337	50024.27
493.773	50466.53
494.21	50358.36
494.647	50834.47
495.083	50511.43
495.519	50845.09
495.956	50999.22
496.392	51487.92
496.828	51708.15
497.265	50839.78
497.701	51167.04
498.137	51538.88
498.573	50643.64
499.009	52015.69
499.445	50696.6
499.881	50310.92
500.316	51279.16
500.752	50055.77
501.188	50701.9
501.624	50964.64
502.059	49498.35
502.495	49527.05
502.93	49984.9
503.366	50988.58
503.801	49759.58
504.236	49245.71
504.672	48494.47
505.107	48445.45
505.542	48244.44
505.977	48401.6
506.412	47569.4
506.847	48115.79
507.282	47900
507.717	47733.3
508.152	47628.27
508.587	46826.86
509.021	46400.06
509.456	45989.68
509.891	46587.9
510.325	46686.99
510.76	45560.21
511.194	45767.22
511.628	46047.88
512.063	44777.34
512.497	45416.46
512.931	44208.03
513.366	44963.3
513.8	44576.51
514.234	43850.22
514.668	43697.77
515.102	44100.37
515.536	42715.61
515.969	43530.45
516.403	42611.15
516.837	42136.67
517.271	42765.37
517.704	42054.77
518.138	41573.85
518.571	41402.99
519.005	40940.45
519.438	40658.82
519.871	40784.78
520.305	39908.98
520.738	40002.62
521.171	39234.5
521.604	39867.1
522.037	39374.72
522.47	38652.05
522.903	38207.75
523.336	37844.79
523.769	37960.02
524.202	37126.98
524.634	37119.64
525.067	36710.94
525.5	36598.41
525.932	36520.14
526.365	35664.65
526.797	35137.16
527.23	35559.62
527.662	34414.75
528.094	34073.21
528.527	34002.47
528.959	33300.12
529.391	33290.37
529.823	32188.35
530.255	32081.07
530.687	31717.79
531.119	31566.62
531.551	31074.04
531.982	30454.49
532.414	30425.22
532.846	30025.05
533.277	29231.65
533.709	28872.57
534.14	29002.05
534.572	28127.07
535.003	27887.38
535.435	27640.26
535.866	27427.33
536.297	26991.46
536.728	26940.02
537.159	26604.31
537.59	26251.24
538.022	25735.95
538.452	25762.95
538.883	25026
539.314	24639.91
539.745	24265.83
540.176	23879.13
540.606	23371.28
541.037	23790.42
541.468	23235.59
541.898	22796.18
542.328	22860.39
542.759	22274.75
543.189	22153.58
543.619	21656.15
544.05	21737.86
544.48	21378.74
544.91	20952.35
545.34	20384
545.77	20453.54
546.2	20334.33
546.63	20061.01
547.06	19956.61
547.489	19630.8
547.919	18908.62
548.349	19078.07
548.778	18811.4
549.208	18349.9
549.637	18651.8
550.067	17980.31
550.496	17825.38
550.926	17970.32
551.355	17089.83
551.784	17440.27
552.213	16974.61
552.642	16656.32
553.071	17009.68
553.5	16488.29
553.929	15971.16
554.358	16214.76
554.787	15938.5
555.216	15835.48
555.645	15835.48
556.073	15385.31
556.502	15239.31
556.93	14889.16
557.359	15080.66
557.787	14894.2
558.216	14536.09
558.644	14331.62
559.072	14551.23
559.5	14379.6
559.929	14296.27
560.357	14036.04
560.785	14068.9
561.213	13841.35
561.641	13780.63
562.068	13565.51
562.496	13208.29
562.924	13365.42
563.352	13337.55
563.779	13616.14
564.207	13570.57
564.634	13020.61
565.062	13241.24
565.489	13025.69
565.917	12997.78
566.344	12853.12
566.771	12688.05
567.198	12667.73
567.625	12385.56
568.053	12123.44
568.48	12365.22
568.907	11748.84
569.333	11789.64
569.76	11355.72
570.187	11373.6
570.614	11345.5
571.04	19117.93
571.467	10836.39
571.894	10449.22
572.32	10361.93
572.747	10243.77
573.173	10014.95
573.599	9860.52
574.026	9819.31
574.452	9569.3
574.878	9401.57
575.304	9194.89
575.73	9096.62
576.156	8998.29
576.582	8902.5
577.008	8772.95
577.434	8715.91
577.86	8386.23
578.285	8144.34
578.711	8282.24
579.137	8128.72
579.562	7881.17
579.988	7748.09
580.413	7557.37
580.838	7570.45
581.264	7434.44
581.689	7316.63
582.114	7342.82
582.539	7792.46
582.964	6938.89
583.39	6860.06
583.814	6560
584.239	6509.91
584.664	6625.86
585.089	6422.87
585.514	6378.01
585.939	6126.98
586.363	5989.34
586.788	6253.89
587.212	6052.89
587.637	5843.57
588.061	5840.91
588.485	5570.05
588.91	5548.78
589.334	5660.41
589.758	5596.64
590.182	5442.35
590.606	5242.5
591.03	5157.11
591.454	5095.69
591.878	4999.49
592.302	4911.22
592.726	4846.97
593.15	4798.76
593.573	4586.89
593.997	4913.89
594.42	4449.86
594.844	4627.15
595.267	4468.68
595.691	4525.12
596.114	4215.65
596.537	4288.4
596.96	4253.38
597.384	4331.48
597.807	4024.08
598.23	4053.79
598.653	4256.08
599.076	4002.47
599.499	4094.28
599.921	3913.28
600.344	3815.87
600.767	3861.88
601.189	3956.54
601.612	3704.81
602.034	3653.3
602.457	3864.59
602.879	3886.23
603.302	3555.61
603.724	3504.01
604.146	3544.75
604.568	3449.66
604.991	3552.9
605.413	3441.51
605.835	3517.59
606.257	3506.73
606.678	3359.91
607.1	3351.75
607.522	3384.4
607.944	3324.53
608.365	3476.84
608.787	3229.21
609.209	3316.37
609.63	3180.14
610.051	3068.27
610.473	3302.75
610.894	3010.92
611.315	2950.79
611.737	3090.11
612.158	3005.45
612.579	2931.65
613	2967.19
613.421	2904.3
613.842	2819.45
614.263	2750.97
614.683	2707.11
615.104	2715.33
615.525	2665.97
615.945	2531.44
616.366	2605.59
616.787	2528.69
617.207	2418.7
617.627	2322.34
618.048	2236.9
618.468	2275.5
618.888	2214.83
619.308	2159.64
619.728	2231.38
620.148	2178.96
620.568	2154.12
620.988	2167.92
621.408	2178.96
621.828	2104.42
622.248	1960.65
622.668	2143.08
623.087	1949.58
623.507	2038.1
623.926	1841.58
624.346	1980.02
624.765	1921.9
625.185	1874.82
625.604	1808.31
626.023	1791.68
626.442	1827.72
626.861	1772.26
627.28	1758.39
627.699	1719.54
628.118	1700.11
628.537	1652.9
628.956	1708.44
629.375	1644.56
629.794	1625.11
630.212	1505.53
630.631	1641.79
631.049	1569.51
631.468	1544.48
631.886	1516.66
632.305	1508.31
632.723	1441.49
633.141	1433.13
633.559	1388.54
633.978	1480.47
634.396	1329.99
634.814	1447.06
635.232	1338.35
635.65	1271.38
636.067	1405.27
636.485	1240.67
636.903	1226.7
637.321	1212.74
637.738	1257.42
638.156	1195.97
638.573	1207.15
638.991	1212.74
639.408	1204.35
639.825	1165.23
640.243	1285.34
640.66	1179.2
641.077	1193.18
641.494	1156.84
641.911	1198.77
642.328	1078.52
642.745	1120.49
643.162	1022.52
643.579	1075.72
643.995	1058.92
644.412	1098.11
644.829	1047.73
645.245	1053.32
645.662	1070.12
646.078	1016.92
646.495	1008.52
646.911	1067.32
647.327	980.5
647.743	1000.11
648.159	916.02
648.576	913.22
648.992	1086.91
649.408	921.63
649.824	963.68
650.239	843.06
650.655	910.41
651.071	868.33
651.487	862.71
651.902	812.18
652.318	969.29
652.733	890.77
653.149	854.29
653.564	902
653.979	899.19
654.395	730.69
654.81	753.18
655.225	744.74
655.64	781.28
656.055	784.09
656.47	711
656.885	857.1
657.3	640.66
657.715	803.75
658.13	755.99
658.544	809.37
658.959	820.6
659.374	711
659.788	770.04
660.202	730.69
660.617	789.71
661.031	739.12
661.445	781.28
661.86	651.92
662.274	784.09
662.688	713.82
663.102	694.13
663.516	713.82
663.93	694.13
664.344	739.12
664.758	696.94
665.171	643.48
665.585	792.52
665.999	677.25
666.412	677.25
666.826	665.99
667.239	657.55
667.653	601.25
668.066	606.88
668.479	792.52
668.892	629.4
669.306	646.29
669.719	578.71
670.132	615.33
670.545	618.14
670.958	592.8
671.37	612.51
671.783	612.51
672.196	665.99
672.609	615.33
673.021	547.72
673.434	578.71
673.846	629.4
674.259	606.88
674.671	604.06
675.084	649.11
675.496	601.25
675.908	632.22
676.32	620.96
676.732	564.62
677.144	558.99
677.556	567.44
677.968	573.08
678.38	595.61
678.792	578.71
679.204	496.97
679.615	482.86
680.027	581.53
680.439	547.72
680.85	539.26
681.262	606.88
681.673	502.61
682.084	547.72
682.496	474.4
682.907	609.69
683.318	564.62
683.729	525.17
684.14	598.43
684.551	584.35
684.962	527.98
685.373	527.98
685.784	553.35
686.194	539.26
686.605	530.8
687.016	491.33
687.426	553.35
687.837	488.51
688.247	536.44
688.657	522.35
689.068	401.02
689.478	471.58
689.888	432.07
690.298	519.53
690.708	578.71
691.118	542.08
691.528	502.61
691.938	516.71
692.348	482.86
692.758	471.58
693.168	522.35
693.577	502.61
693.987	474.4
694.396	570.26
694.806	457.47
695.215	511.07
695.625	457.47
696.034	482.86
696.443	491.33
696.852	519.53
697.262	409.49
697.671	406.66
698.08	389.72
698.489	451.83
698.897	465.94
699.306	437.72
699.715	381.25
700.124	587.16
700.532	426.43
700.941	426.43
701.35	558.99
701.758	508.25
702.166	347.34
702.575	395.37
702.983	525.17
703.391	423.6
703.799	420.78
704.208	519.53
704.616	398.19
705.024	508.25
705.432	446.19
705.839	369.95
706.247	482.86
706.655	516.71
707.063	369.95
707.47	417.96
707.878	451.83
708.285	350.17
708.693	457.47
709.1	474.4
709.508	398.19
709.915	477.22
710.322	449.01
710.729	525.17
711.136	432.07
711.543	437.72
711.95	381.25
712.357	406.66
712.764	417.96
713.171	426.43
713.578	367.12
713.984	384.07
714.391	516.71
714.797	437.72
715.204	446.19
715.61	496.97
716.017	420.78
716.423	457.47
716.829	401.02
717.236	423.6
717.642	381.25
718.048	454.65
718.454	406.66
718.86	344.52
719.266	502.61
719.671	547.72
720.077	454.65
720.483	375.6
720.889	451.83
721.294	463.12
721.7	423.6
722.105	454.65
722.511	403.84
722.916	443.36
723.321	375.6
723.726	519.53
724.132	392.54
724.537	367.12
724.942	347.34
725.347	375.6
725.752	437.72
726.156	468.76
726.561	440.54
726.966	367.12
727.371	415.13
727.775	417.96
728.18	355.82
728.584	403.84
728.989	378.42
729.393	446.19
729.798	403.84
730.202	440.54
730.606	401.02
731.01	372.77
731.414	378.42
731.818	333.21
732.222	364.3
732.626	389.72
733.03	415.13
733.434	367.12
733.837	480.04
734.241	369.95
734.645	384.07
735.048	327.56
735.452	508.25
735.855	338.86
736.258	350.17
736.662	499.79
737.065	432.07
737.468	465.94
737.871	403.84
738.274	375.6
738.677	454.65
739.08	392.54
739.483	352.99
739.886	367.12
740.289	482.86
740.691	386.9
741.094	372.77
741.497	443.36
741.899	361.47
742.302	367.12
742.704	375.6
743.106	319.08
743.508	505.43
743.911	381.25
744.313	378.42
744.715	386.9
745.117	386.9
745.519	384.07
745.921	451.83
746.323	395.37
746.724	369.95
747.126	352.99
747.528	443.36
747.929	341.69
748.331	432.07
748.732	367.12
749.134	386.9
749.535	330.39
749.936	471.58
750.338	369.95
750.739	508.25
751.14	347.34
751.541	398.19
751.942	372.77
752.343	451.83
752.744	437.72
753.144	389.72
753.545	403.84
753.946	426.43
754.346	347.34
754.747	474.4
755.148	485.69
755.548	412.31
755.948	395.37
756.349	440.54
756.749	403.84
757.149	341.69
757.549	491.33
757.949	409.49
758.349	432.07
758.749	316.25
759.149	449.01
759.549	395.37
759.949	409.49
760.348	505.43
760.748	307.77
761.148	446.19
761.547	392.54
761.947	403.84
762.346	389.72
762.745	386.9
763.145	304.94
763.544	446.19
763.943	423.6
764.342	384.07
764.741	386.9
765.14	352.99
765.539	395.37
765.938	384.07
766.336	347.34
766.735	403.84
767.134	465.94
767.532	381.25
767.931	381.25
768.329	485.69
768.728	395.37
769.126	352.99
769.525	463.12
769.923	401.02
770.321	375.6
770.719	336.04
771.117	364.3
771.515	369.95
771.913	412.31
772.311	364.3
772.709	333.21
773.106	364.3
773.504	446.19
773.902	378.42
774.299	432.07
774.697	564.62
775.094	369.95
775.491	355.82
775.889	372.77
776.286	409.49
776.683	443.36
777.08	384.07
777.477	310.6
777.874	347.34
778.271	477.22
778.668	369.95
779.065	330.39
779.462	401.02
779.858	367.12
780.255	482.86
780.652	406.66
781.048	386.9
781.444	440.54
781.841	434.9
782.237	401.02
782.633	386.9
783.03	364.3
783.426	369.95
783.822	417.96
784.218	401.02
784.614	386.9
785.01	460.29
785.405	355.82
785.801	319.08
786.197	389.72
786.593	392.54
786.988	406.66
787.384	519.53
787.779	381.25
788.174	446.19
788.57	440.54
788.965	403.84
789.36	403.84
789.755	344.52
790.15	389.72
790.545	415.13
790.94	468.76
791.335	372.77
791.73	389.72
792.125	463.12
792.52	350.17
792.914	389.72
793.309	369.95
793.703	446.19
794.098	307.77
794.492	330.39
794.887	372.77
795.281	474.4
795.675	372.77
796.069	392.54
796.463	386.9
796.857	403.84
797.251	330.39
797.645	319.08
798.039	395.37
798.433	392.54
798.826	372.77
799.22	432.07
799.614	352.99
800.007	358.65
800.401	429.25
800.794	279.49
801.187	386.9
801.581	364.3
801.974	412.31
802.367	426.43
802.76	412.31
803.153	347.34
803.546	358.65
803.939	327.56
804.332	372.77
804.725	378.42
805.117	395.37
805.51	423.6
805.903	336.04
806.295	420.78
806.688	287.97
807.08	369.95
807.472	429.25
807.865	372.77
808.257	437.72
808.649	401.02
809.041	451.83
809.433	437.72
809.825	505.43
810.217	474.4
810.609	361.47
811.001	381.25
811.392	446.19
811.784	417.96
812.175	364.3
812.567	482.86
812.958	434.9
813.35	361.47
813.741	398.19
814.132	392.54
814.524	361.47
814.915	361.47
815.306	409.49
815.697	420.78
816.088	406.66
816.479	415.13
816.87	420.78
817.26	358.65
817.651	398.19
818.042	352.99
818.432	440.54
818.823	375.6
819.213	434.9
819.604	341.69
819.994	392.54
820.384	330.39
820.775	426.43
821.165	372.77
821.555	403.84
821.945	350.17
822.335	336.04
822.725	372.77
823.114	432.07
823.504	440.54
823.894	358.65
824.284	406.66
824.673	420.78
825.063	358.65
825.452	386.9
825.842	434.9
826.231	471.58
826.62	352.99
827.009	401.02
827.399	341.69
827.788	310.6
828.177	372.77
828.566	426.43
828.954	491.33
829.343	369.95
829.732	378.42
830.121	606.88
830.509	480.04
830.898	355.82
831.286	468.76
831.675	440.54
832.063	367.12
832.452	389.72
832.84	361.47
833.228	327.56
833.616	330.39
834.004	316.25
834.392	389.72
834.78	420.78
835.168	409.49
835.556	364.3
835.944	392.54
836.331	446.19
836.719	460.29
837.107	392.54
837.494	420.78
837.881	389.72
838.269	417.96
838.656	384.07
839.043	440.54
839.431	578.71
839.818	406.66
840.205	369.95
840.592	432.07
840.979	386.9
841.366	364.3
841.752	403.84
842.139	310.6
842.526	364.3
842.912	403.84
843.299	341.69
843.685	304.94
844.072	412.31
844.458	449.01
844.844	333.21
845.231	369.95
845.617	420.78
846.003	344.52
846.389	429.25
846.775	412.31
847.161	338.86
847.547	369.95
847.933	361.47
848.318	386.9
848.704	378.42
849.09	251.2
849.475	395.37
849.861	392.54
850.246	369.95
850.631	491.33
851.017	398.19
851.402	409.49
851.787	446.19
852.172	451.83
852.557	395.37
852.942	403.84
853.327	324.73
853.712	417.96
854.097	347.34
854.481	364.3
854.866	367.12
855.25	401.02
855.635	324.73
856.019	423.6
856.404	256.86
856.788	372.77
857.172	338.86
857.557	485.69
857.941	417.96
858.325	406.66
858.709	403.84
859.093	347.34
859.477	369.95
859.86	426.43
860.244	352.99
860.628	496.97
861.012	429.25
861.395	406.66
861.779	412.31
862.162	364.3
862.545	420.78
862.929	336.04
863.312	437.72
863.695	395.37
864.078	392.54
864.461	352.99
864.844	384.07
865.227	513.89
865.61	403.84
865.993	389.72
866.376	375.6
866.758	386.9
867.141	446.19
867.523	401.02
867.906	423.6
868.288	409.49
868.671	471.58
869.053	491.33
869.435	333.21
869.817	417.96
870.199	313.42
870.581	327.56
870.963	440.54
871.345	451.83
871.727	460.29
872.109	350.17
872.491	432.07
872.872	347.34
873.254	386.9
873.635	361.47
874.017	381.25
874.398	358.65
874.779	401.02
875.161	403.84
875.542	409.49
875.923	333.21
876.304	423.6
876.685	367.12
877.066	395.37
877.447	364.3
877.828	401.02
878.208	378.42
878.589	417.96
878.97	482.86
879.35	352.99
879.731	412.31
880.111	367.12
880.491	375.6
880.872	361.47
881.252	375.6
881.632	350.17
882.012	338.86
882.392	375.6
882.772	392.54
883.152	347.34
883.532	352.99
883.912	494.15
884.291	330.39
884.671	440.54
885.051	344.52
885.43	245.54
885.81	378.42
886.189	432.07
886.568	426.43
886.948	406.66
887.327	384.07
887.706	389.72
888.085	415.13
888.464	440.54
888.843	556.17
889.222	392.54
889.601	468.76
889.979	429.25
890.358	386.9
890.737	409.49
891.115	434.9
891.494	389.72
891.872	398.19
892.25	352.99
892.629	426.43
893.007	429.25
893.385	372.77
893.763	392.54
894.141	392.54
894.519	480.04
894.897	375.6
895.275	392.54
895.653	338.86
896.03	440.54
896.408	434.9
896.786	398.19
897.163	513.89
897.541	364.3
897.918	381.25
898.295	304.94
898.673	336.04
899.05	355.82
899.427	651.92
899.804	401.02
900.181	364.3
900.558	502.61
900.935	440.54
901.312	395.37
901.688	372.77
902.065	420.78
902.442	299.29
902.818	324.73
903.195	403.84
903.571	386.9
903.947	403.84
904.324	429.25
904.7	417.96
905.076	440.54
905.452	290.8
905.828	378.42
906.204	313.42
906.58	392.54
906.956	392.54
907.331	463.12
907.707	401.02
908.083	417.96
908.458	367.12
908.834	417.96
909.209	449.01
909.585	496.97
909.96	403.84
910.335	282.32
910.71	403.84
911.086	299.29
911.461	415.13
911.836	378.42
912.21	386.9
912.585	378.42
912.96	361.47
913.335	344.52
913.709	423.6
914.084	358.65
914.459	344.52
914.833	375.6
915.207	440.54
915.582	389.72
915.956	327.56
916.33	401.02
916.704	437.72
917.078	426.43
917.452	434.9
917.826	403.84
918.2	412.31
918.574	299.29
918.948	333.21
919.321	372.77
919.695	434.9
920.068	406.66
920.442	412.31
920.815	429.25
921.189	392.54
921.562	367.12
921.935	375.6
922.308	389.72
922.681	341.69
923.054	367.12
923.427	389.72
923.8	319.08
924.173	384.07
924.546	313.42
924.919	372.77
925.291	333.21
925.664	330.39
926.036	420.78
926.409	361.47
926.781	319.08
927.153	395.37
927.526	426.43
927.898	420.78
928.27	381.25
928.642	358.65
929.014	336.04
929.386	389.72
929.758	228.56
930.129	429.25
930.501	474.4
930.873	401.02
931.244	389.72
931.616	375.6
931.987	432.07
932.359	392.54
932.73	406.66
933.101	350.17
933.472	369.95
933.843	358.65
934.214	372.77
934.585	403.84
934.956	330.39
935.327	496.97
935.698	434.9
936.069	375.6
936.439	333.21
936.81	432.07
937.18	381.25
937.551	372.77
937.921	415.13
938.292	491.33
938.662	460.29
939.032	367.12
939.402	290.8
939.772	361.47
940.142	299.29
940.512	395.37
940.882	350.17
941.252	406.66
941.621	477.22
941.991	242.71
942.361	465.94
942.73	375.6
943.1	358.65
943.469	409.49
943.838	417.96
944.208	420.78
944.577	290.8
944.946	367.12
945.315	290.8
945.684	415.13
946.053	324.73
946.422	406.66
946.791	333.21
947.159	316.25
947.528	327.56
947.897	310.6
948.265	330.39
948.634	468.76
949.002	285.15
949.371	358.65
949.739	316.25
950.107	358.65
950.475	429.25
950.843	352.99
951.211	429.25
951.579	352.99
951.947	451.83
952.315	290.8
952.683	403.84
953.05	415.13
953.418	358.65
953.785	319.08
954.153	372.77
954.52	355.82
954.888	429.25
955.255	389.72
955.622	319.08
955.989	364.3
956.356	384.07
956.723	403.84
957.09	457.47
957.457	403.84
957.824	302.11
958.191	302.11
958.557	401.02
958.924	327.56
959.291	367.12
959.657	395.37
960.023	564.62
960.39	333.21
960.756	336.04
961.122	468.76
961.488	375.6
961.855	426.43
962.221	344.52
962.586	395.37
962.952	474.4
963.318	369.95
963.684	502.61
964.05	463.12
964.415	392.54
964.781	369.95
965.146	333.21
965.512	412.31
965.877	375.6
966.242	338.86
966.608	361.47
966.973	333.21
967.338	384.07
967.703	437.72
968.068	409.49
968.433	499.79
968.797	468.76
969.162	313.42
969.527	457.47
969.891	352.99
970.256	364.3
970.62	338.86
970.985	401.02
971.349	372.77
971.714	403.84
972.078	364.3
972.442	341.69
972.806	451.83
973.17	369.95
973.534	372.77
973.898	392.54
974.262	381.25
974.625	482.86
974.989	401.02
975.353	454.65
975.716	378.42
976.08	378.42
976.443	316.25
976.806	304.94
977.17	313.42
977.533	389.72
977.896	401.02
978.259	369.95
978.622	482.86
978.985	367.12
979.348	304.94
979.711	378.42
980.073	378.42
980.436	361.47
980.799	423.6
981.161	403.84
981.524	327.56
981.886	344.52
982.248	409.49
982.611	434.9
982.973	406.66
983.335	302.11
983.697	384.07
984.059	398.19
984.421	384.07
984.783	369.95
985.145	372.77
985.506	403.84
985.868	415.13
986.23	352.99
986.591	361.47
986.953	352.99
987.314	310.6
987.675	406.66
988.037	6778.53
988.398	601.25
988.759	375.6
989.12	384.07
989.481	409.49
989.842	364.3
990.203	358.65
990.564	336.04
990.924	403.84
991.285	5769.28
991.646	494.15
992.006	384.07
992.367	457.47
992.727	423.6
993.087	372.77
993.448	378.42
993.808	375.6
994.168	350.17
994.528	378.42
994.888	369.95
995.248	434.9
995.608	386.9
995.967	420.78
996.327	423.6
996.687	406.66
997.046	417.96
997.406	375.6
997.765	330.39
998.125	355.82
998.484	358.65
998.843	494.15
999.202	273.83
999.561	307.77
999.92	344.52
1000.279	350.17
1000.638	384.07
1000.997	352.99
1001.356	420.78
1001.715	287.97
1002.073	341.69
1002.432	432.07
1002.79	336.04
1003.149	381.25
1003.507	355.82
1003.865	381.25
1004.224	341.69
1004.582	406.66
1004.94	451.83
1005.298	321.9
1005.656	384.07
1006.014	381.25
1006.371	347.34
1006.729	279.49
1007.087	491.33
1007.445	415.13
1007.802	384.07
1008.16	304.94
1008.517	350.17
1008.874	344.52
1009.232	327.56
1009.589	505.43
1009.946	330.39
1010.303	352.99
1010.66	350.17
1011.017	392.54
1011.374	423.6
1011.731	330.39
1012.087	426.43
1012.444	449.01
1012.801	344.52
1013.157	333.21
1013.513	319.08
1013.87	378.42
1014.226	338.86
1014.582	310.6
1014.939	395.37
1015.295	375.6
1015.651	299.29
1016.007	302.11
1016.363	389.72
1016.719	313.42
1017.074	341.69
1017.43	389.72
1017.786	276.66
1018.141	338.86
1018.497	344.52
1018.852	358.65
1019.208	423.6
1019.563	417.96
1019.918	386.9
1020.273	406.66
1020.628	321.9
1020.983	384.07
1021.338	336.04
1021.693	375.6
1022.048	358.65
1022.403	355.82
1022.757	347.34
1023.112	372.77
1023.467	352.99
1023.821	321.9
1024.175	401.02
1024.53	316.25
1024.884	460.29
1025.238	330.39
1025.592	384.07
1025.946	271
1026.3	273.83
1026.654	338.86
1027.008	234.22
1027.362	336.04
1027.716	313.42
1028.069	324.73
1028.423	324.73
1028.777	372.77
1029.13	423.6
1029.483	412.31
1029.837	423.6
1030.19	384.07
1030.543	336.04
1030.896	333.21
1031.249	344.52
1031.602	316.25
1031.955	358.65
1032.308	451.83
1032.661	440.54
1033.013	321.9
1033.366	341.69
1033.719	480.04
1034.071	386.9
1034.424	330.39
1034.776	434.9
1035.128	347.34
1035.48	401.02
1035.833	409.49
1036.185	398.19
1036.537	398.19
1036.889	398.19
