Data from BCF12_new_1_FLMS019251_15-58-18-980.txt Node
Date: Wed Jun 12 15:58:18 CEST 2019
User: luk
Spectrometer: FLMS01925
Trigger mode: 0
Integration Time (sec): 3.767700E-1
Scans to average: 10
Electric dark correction enabled: true
Nonlinearity correction enabled: true
Boxcar width: 0
XAxis mode: Wavelengths
Number of Pixels in Spectrum: 2048
>>>>>Begin Spectral Data<<<<<
187.103	-104.91
187.574	-104.91
188.045	-104.91
188.516	-151.56
188.987	-84.44
189.458	-79.04
189.929	-107.47
190.4	-102.92
190.871	-109.75
191.342	-106.33
191.813	-85.87
192.284	-49.21
192.754	-57.73
193.225	16.68
193.696	31.44
194.166	72.86
194.637	81.37
195.107	110.01
195.578	106.32
196.048	136.94
196.518	141.75
196.989	167.82
197.459	175.18
197.929	199.54
198.399	311.3
198.869	240.59
199.339	271.14
199.809	272.28
200.279	326.85
200.749	325.72
201.219	319.78
201.689	342.96
202.159	326.57
202.628	335.33
203.098	357.94
203.568	344.38
204.037	353.7
204.507	362.18
204.976	371.22
205.445	361.33
205.915	383.08
206.384	372.91
206.853	385.91
207.323	382.23
207.792	360.76
208.261	379.13
208.73	358.5
209.199	389.01
209.668	370.94
210.137	388.73
210.606	370.37
211.075	376.02
211.543	389.86
212.012	362.46
212.481	354.55
212.95	356.24
213.418	399.18
213.887	368.68
214.355	371.5
214.824	300.28
215.292	326.29
215.76	319.5
216.229	355.4
216.697	339.57
217.165	343.81
217.633	319.5
218.101	349.46
218.569	423.18
219.037	378.56
219.505	363.87
219.973	325.16
220.441	338.16
220.909	313
221.377	345.79
221.844	334.48
222.312	307.91
222.78	350.87
223.247	321.2
223.715	305.08
224.182	353.7
224.65	348.61
225.117	346.92
225.584	315.26
226.052	330.53
226.519	347.2
226.986	318.94
227.453	324.31
227.92	347.77
228.387	358.5
228.854	336.46
229.321	304.23
229.788	325.72
230.255	331.37
230.722	365.29
231.189	332.79
231.655	353.42
232.122	376.59
232.589	311.3
233.055	340.7
233.522	390.14
233.988	358.79
234.454	374.04
234.921	353.98
235.387	375.74
235.853	347.48
236.32	346.92
236.786	314.98
237.252	358.5
237.718	376.3
238.184	303.39
238.65	335.05
239.116	333.64
239.582	352.57
240.047	332.79
240.513	370.09
240.979	334.48
241.445	331.94
241.91	341.83
242.376	342.4
242.841	348.61
243.307	347.2
243.772	344.09
244.238	322.05
244.703	358.79
245.168	331.66
245.633	332.79
246.099	342.96
246.564	319.5
247.029	354.55
247.494	320.07
247.959	345.79
248.424	346.07
248.889	320.63
249.353	378.85
249.818	319.22
250.283	333.35
250.748	322.33
251.212	366.13
251.677	333.07
252.141	348.05
252.606	332.79
253.07	339.85
253.535	338.16
253.999	351.44
254.463	306.21
254.927	321.2
255.392	370.09
255.856	375.17
256.32	348.05
256.784	339.29
257.248	338.16
257.712	340.98
258.176	399.18
258.64	356.53
259.103	320.35
259.567	344.38
260.031	324.59
260.495	371.5
260.958	371.78
261.422	352.57
261.885	320.07
262.349	350.59
262.812	348.61
263.275	340.14
263.739	368.68
264.202	355.4
264.665	361.33
265.128	350.87
265.591	361.05
266.054	356.53
266.517	375.46
266.98	352.29
267.443	346.64
267.906	336.46
268.369	338.44
268.832	414.43
269.294	341.55
269.757	364.44
270.22	338.72
270.682	360.76
271.145	398.05
271.607	340.98
272.07	408.5
272.532	348.33
272.994	332.79
273.456	381.67
273.919	524.74
274.381	346.92
274.843	396.36
275.305	376.59
275.767	378
276.229	387.32
276.691	395.79
277.153	365.85
277.614	351.72
278.076	352.01
278.538	356.24
279	353.7
279.461	349.18
279.923	503.88
280.384	329.96
280.846	342.96
281.307	346.07
281.769	364.44
282.23	352.29
282.691	401.72
283.152	353.42
283.613	345.51
284.075	329.68
284.536	383.08
284.997	347.48
285.458	329.68
285.918	380.26
286.379	336.74
286.84	383.65
287.301	347.77
287.762	346.35
288.222	361.89
288.683	380.26
289.143	385.06
289.604	349.18
290.064	335.9
290.525	372.35
290.985	449.15
291.445	374.89
291.906	368.39
292.366	363.59
292.826	344.94
293.286	355.68
293.746	362.74
294.206	372.07
294.666	361.33
295.126	383.93
295.586	357.09
296.046	371.22
296.506	394.38
296.965	363.59
297.425	361.89
297.884	378
298.344	378.28
298.804	377.72
299.263	355.68
299.722	366.42
300.182	372.63
300.641	320.07
301.1	349.74
301.559	360.48
302.019	363.87
302.478	352.29
302.937	373.48
303.396	377.15
303.855	437.01
304.314	341.83
304.772	490.34
305.231	369.81
305.69	370.37
306.149	412.17
306.607	352.29
307.066	376.02
307.524	380.54
307.983	378.56
308.441	398.33
308.9	423.18
309.358	335.33
309.816	450.84
310.275	378.56
310.733	357.09
311.191	357.37
311.649	357.37
312.107	408.22
312.565	366.98
313.023	377.43
313.481	386.19
313.939	368.96
314.397	373.48
314.854	359.63
315.312	383.08
315.77	365.85
316.227	356.24
316.685	367.83
317.142	340.7
317.6	384.21
318.057	369.24
318.514	381.11
318.972	372.07
319.429	389.58
319.886	361.61
320.343	356.53
320.8	350.59
321.257	385.62
321.714	397.49
322.171	410.48
322.628	353.14
323.085	367.55
323.542	340.14
323.998	341.55
324.455	349.18
324.912	363.31
325.368	379.13
325.825	419.51
326.281	373.48
326.738	399.46
327.194	355.11
327.65	374.89
328.107	311.02
328.563	363.02
329.019	407.09
329.475	389.86
329.931	382.8
330.387	364.16
330.843	362.18
331.299	379.41
331.755	364.16
332.211	369.52
332.666	359.63
333.122	331.66
333.578	378.85
334.033	364.72
334.489	370.37
334.944	321.48
335.4	460.15
335.855	425.16
336.31	366.7
336.766	390.99
337.221	350.87
337.676	353.98
338.131	379.41
338.586	414.15
339.041	380.26
339.496	408.22
339.951	374.04
340.406	367.26
340.861	361.61
341.316	363.31
341.771	390.43
342.225	395.51
342.68	380.82
343.134	354.55
343.589	363.59
344.043	363.31
344.498	372.07
344.952	368.68
345.406	544.47
345.861	357.09
346.315	357.09
346.769	384.49
347.223	364.72
347.677	366.98
348.131	351.72
348.585	348.61
349.039	355.11
349.493	412.45
349.947	377.43
350.401	379.69
350.854	366.42
351.308	436.17
351.762	366.13
352.215	413.58
352.669	344.66
353.122	361.33
353.575	380.54
354.029	389.86
354.482	356.53
354.935	381.39
355.388	374.61
355.842	365.85
356.295	386.19
356.748	381.11
357.201	379.41
357.654	394.66
358.106	379.69
358.559	354.55
359.012	369.52
359.465	363.02
359.917	396.07
360.37	352.85
360.823	353.98
361.275	403.42
361.728	362.18
362.18	402.57
362.632	387.04
363.085	362.46
363.537	363.02
363.989	350.87
364.441	351.72
364.893	351.72
365.345	367.83
365.797	340.98
366.249	377.72
366.701	350.03
367.153	357.66
367.605	344.66
368.057	355.68
368.508	367.26
368.96	381.11
369.411	366.42
369.863	386.19
370.314	397.49
370.766	385.34
371.217	415.28
371.669	372.63
372.12	411.89
372.571	413.58
373.022	352.85
373.473	389.3
373.924	392.69
374.375	370.65
374.826	402.85
375.277	384.21
375.728	362.74
376.179	389.3
376.63	376.02
377.08	383.36
377.531	358.5
377.981	388.17
378.432	428.83
378.883	435.32
379.333	376.87
379.783	390.14
380.234	363.31
380.684	366.98
381.134	388.45
381.584	406.81
382.034	412.45
382.485	392.12
382.935	386.47
383.385	424.31
383.834	375.17
384.284	383.93
384.734	354.27
385.184	381.95
385.634	376.87
386.083	408.5
386.533	360.2
386.982	361.89
387.432	398.05
387.881	373.76
388.331	373.76
388.78	411.32
389.229	377.43
389.679	348.9
390.128	386.19
390.577	372.63
391.026	367.26
391.475	372.91
391.924	374.89
392.373	376.59
392.822	390.43
393.27	373.48
393.719	381.39
394.168	369.81
394.617	364.44
395.065	345.79
395.514	406.52
395.962	378
396.411	383.93
396.859	387.32
397.307	412.73
397.756	385.91
398.204	366.7
398.652	394.66
399.1	376.59
399.548	377.43
399.996	405.96
400.444	365.85
400.892	360.76
401.34	356.81
401.788	363.31
402.236	364.16
402.683	358.22
403.131	387.32
403.579	366.98
404.026	348.33
404.474	381.39
404.921	364.44
405.369	355.4
405.816	376.3
406.263	357.37
406.71	393.81
407.158	385.06
407.605	363.02
408.052	361.89
408.499	392.12
408.946	392.97
409.393	389.3
409.84	391.56
410.286	368.96
410.733	379.41
411.18	367.83
411.626	402.57
412.073	383.08
412.52	379.41
412.966	422.33
413.413	373.48
413.859	378.28
414.305	403.13
414.752	358.5
415.198	371.5
415.644	417.53
416.09	361.33
416.536	358.22
416.982	378.85
417.428	392.12
417.874	386.19
418.32	369.81
418.766	414.71
419.211	380.54
419.657	359.92
420.103	366.98
420.548	415.56
420.994	396.07
421.439	381.67
421.885	368.11
422.33	407.65
422.776	403.98
423.221	448.02
423.666	413.02
424.111	424.87
424.556	439.27
425.001	401.72
425.446	391.27
425.891	371.22
426.336	404.26
426.781	482.72
427.226	396.36
427.671	403.7
428.115	394.38
428.56	413.02
429.005	420.36
429.449	404.26
429.894	389.01
430.338	455.36
430.782	424.31
431.227	384.78
431.671	416.41
432.115	424.03
432.559	364.72
433.003	407.09
433.447	390.71
433.891	399.46
434.335	410.48
434.779	415.84
435.223	418.38
435.667	416.12
436.111	473.13
436.554	410.19
436.998	422.33
437.442	397.2
437.885	399.75
438.328	419.51
438.772	413.86
439.215	406.52
439.659	387.32
440.102	427.13
440.545	405.96
440.988	397.49
441.431	408.5
441.874	391.27
442.317	384.49
442.76	395.23
443.203	398.9
443.646	406.52
444.089	413.02
444.531	407.65
444.974	412.17
445.417	429.96
445.859	438.71
446.302	447.17
446.744	397.77
447.186	416.12
447.629	409.91
448.071	390.43
448.513	432.5
448.956	410.19
449.398	408.5
449.84	429.67
450.282	407.93
450.724	387.04
451.166	415.84
451.607	459.87
452.049	379.69
452.491	391.27
452.933	405.39
453.374	466.08
453.816	412.73
454.257	411.61
454.699	432.78
455.14	402.85
455.582	424.31
456.023	411.89
456.464	400.03
456.905	401.16
457.347	440.12
457.788	404.55
458.229	389.3
458.67	405.39
459.111	393.81
459.552	428.26
459.992	393.25
460.433	413.02
460.874	389.01
461.315	422.05
461.755	411.89
462.196	378.85
462.636	420.64
463.077	428.83
463.517	430.52
463.957	410.19
464.398	403.42
464.838	431.93
465.278	397.49
465.718	390.43
466.158	410.19
466.598	400.03
467.038	396.07
467.478	428.26
467.918	377.43
468.358	421.2
468.798	409.63
469.237	383.65
469.677	355.68
470.117	406.81
470.556	395.23
470.996	400.03
471.435	377.43
471.874	388.73
472.314	374.89
472.753	385.91
473.192	385.06
473.631	385.06
474.07	398.9
474.509	402.57
474.948	381.11
475.387	389.86
475.826	433.63
476.265	383.93
476.704	393.25
477.143	399.46
477.581	443.5
478.02	424.03
478.458	397.77
478.897	433.91
479.335	421.49
479.774	410.19
480.212	421.2
480.65	397.49
481.089	399.46
481.527	432.5
481.965	392.97
482.403	379.13
482.841	385.62
483.279	402.85
483.717	423.18
484.155	389.3
484.592	431.65
485.03	419.23
485.468	429.96
485.905	416.41
486.343	408.5
486.781	409.91
487.218	404.83
487.655	422.33
488.093	369.52
488.53	391.56
488.967	411.61
489.405	415.28
489.842	426.29
490.279	465.23
490.716	451.41
491.153	392.69
491.59	374.04
492.027	391.56
492.463	392.69
492.9	392.4
493.337	405.11
493.773	390.14
494.21	422.05
494.647	410.19
495.083	387.04
495.519	411.89
495.956	405.68
496.392	442.66
496.828	427.42
497.265	413.86
497.701	395.79
498.137	414.43
498.573	401.72
499.009	410.19
499.445	416.69
499.881	419.79
500.316	410.76
500.752	378.85
501.188	389.58
501.624	387.6
502.059	384.78
502.495	397.49
502.93	398.9
503.366	801.93
503.801	400.88
504.236	375.17
504.672	417.82
505.107	397.2
505.542	380.26
505.977	373.2
506.412	404.26
506.847	394.1
507.282	401.16
507.717	375.74
508.152	400.88
508.587	391.84
509.021	407.37
509.456	384.21
509.891	394.38
510.325	385.34
510.76	395.23
511.194	365.57
511.628	402
512.063	400.03
512.497	400.59
512.931	366.42
513.366	388.73
513.8	383.65
514.234	383.65
514.668	409.91
515.102	375.17
515.536	376.3
515.969	413.86
516.403	374.33
516.837	406.52
517.271	405.39
517.704	397.77
518.138	415.56
518.571	376.87
519.005	419.51
519.438	404.83
519.871	411.32
520.305	389.58
520.738	354.83
521.171	406.52
521.604	402
522.037	394.38
522.47	429.96
522.903	399.46
523.336	393.25
523.769	398.05
524.202	387.88
524.634	374.61
525.067	383.65
525.5	390.43
525.932	438.14
526.365	430.24
526.797	407.93
527.23	391.84
527.662	372.91
528.094	420.64
528.527	387.88
528.959	378.56
529.391	405.68
529.823	387.6
530.255	399.75
530.687	435.32
531.119	398.33
531.551	403.42
531.982	393.53
532.414	387.88
532.846	414.71
533.277	372.07
533.709	366.98
534.14	390.99
534.572	400.31
535.003	405.96
535.435	373.2
535.866	405.39
536.297	379.69
536.728	433.91
537.159	393.53
537.59	390.71
538.022	431.65
538.452	439.55
538.883	411.61
539.314	405.96
539.745	383.36
540.176	421.2
540.606	375.74
541.037	386.19
541.468	375.17
541.898	393.53
542.328	378.56
542.759	428.83
543.189	402.29
543.619	401.16
544.05	440.68
544.48	405.68
544.91	414.99
545.34	410.76
545.77	386.75
546.2	408.78
546.63	432.21
547.06	405.96
547.489	417.53
547.919	390.14
548.349	403.42
548.778	382.8
549.208	382.8
549.637	375.17
550.067	396.92
550.496	399.46
550.926	368.11
551.355	359.63
551.784	394.66
552.213	357.66
552.642	385.06
553.071	375.17
553.5	381.39
553.929	332.79
554.358	371.5
554.787	372.35
555.216	363.59
555.645	392.12
556.073	419.79
556.502	387.04
556.93	372.63
557.359	374.89
557.787	344.94
558.216	371.5
558.644	388.17
559.072	378
559.5	372.35
559.929	393.53
560.357	378.85
560.785	379.13
561.213	413.86
561.641	417.82
562.068	425.44
562.496	368.11
562.924	402.29
563.352	403.13
563.779	370.94
564.207	389.86
564.634	392.97
565.062	406.52
565.489	411.89
565.917	382.8
566.344	367.55
566.771	370.94
567.198	380.54
567.625	370.65
568.053	374.33
568.48	402
568.907	383.36
569.333	376.59
569.76	379.41
570.187	384.78
570.614	372.35
571.04	6357.55
571.467	522.49
571.894	400.03
572.32	390.14
572.747	385.62
573.173	401.72
573.599	376.3
574.026	401.16
574.452	392.69
574.878	397.2
575.304	405.11
575.73	365.57
576.156	383.93
576.582	381.95
577.008	402.57
577.434	370.09
577.86	380.26
578.285	372.07
578.711	385.34
579.137	377.43
579.562	390.14
579.988	389.58
580.413	355.11
580.838	367.26
581.264	338.44
581.689	383.36
582.114	395.23
582.539	1050.11
582.964	385.62
583.39	402
583.814	388.73
584.239	381.95
584.664	384.78
585.089	400.03
585.514	432.5
585.939	398.9
586.363	396.92
586.788	382.8
587.212	388.73
587.637	401.16
588.061	373.48
588.485	380.82
588.91	388.17
589.334	367.55
589.758	392.97
590.182	396.36
590.606	391.84
591.03	419.23
591.454	376.59
591.878	357.09
592.302	368.96
592.726	374.61
593.15	392.69
593.573	365.29
593.997	411.04
594.42	369.52
594.844	376.02
595.267	374.61
595.691	389.58
596.114	348.61
596.537	393.81
596.96	393.53
597.384	391.27
597.807	381.39
598.23	376.3
598.653	386.75
599.076	371.5
599.499	379.98
599.921	374.61
600.344	356.24
600.767	392.12
601.189	417.25
601.612	371.22
602.034	372.63
602.457	383.65
602.879	494.01
603.302	381.11
603.724	378
604.146	390.99
604.568	369.24
604.991	370.37
605.413	374.89
605.835	412.45
606.257	372.35
606.678	348.9
607.1	413.58
607.522	385.62
607.944	429.39
608.365	374.33
608.787	376.59
609.209	461.85
609.63	359.35
610.051	353.42
610.473	386.19
610.894	403.13
611.315	392.97
611.737	415.56
612.158	389.01
612.579	362.74
613	461.56
613.421	365.85
613.842	406.81
614.263	430.24
614.683	404.83
615.104	358.5
615.525	427.98
615.945	367.26
616.366	404.55
616.787	396.36
617.207	391.27
617.627	349.46
618.048	352.57
618.468	379.41
618.888	362.46
619.308	379.13
619.728	376.87
620.148	360.76
620.568	393.25
620.988	431.65
621.408	367.83
621.828	359.07
622.248	393.53
622.668	398.33
623.087	404.55
623.507	376.02
623.926	370.09
624.346	381.67
624.765	400.59
625.185	386.75
625.604	367.55
626.023	378.56
626.442	372.63
626.861	424.03
627.28	347.2
627.699	358.22
628.118	345.79
628.537	402.29
628.956	391.27
629.375	398.9
629.794	356.53
630.212	400.03
630.631	402.57
631.049	348.33
631.468	388.45
631.886	385.91
632.305	396.36
632.723	366.13
633.141	382.52
633.559	409.35
633.978	368.11
634.396	395.23
634.814	340.14
635.232	401.72
635.65	367.83
636.067	365
636.485	366.42
636.903	378.85
637.321	367.55
637.738	391.84
638.156	365.85
638.573	357.09
638.991	405.68
639.408	438.14
639.825	366.98
640.243	420.64
640.66	346.07
641.077	385.06
641.494	372.35
641.911	409.35
642.328	381.95
642.745	393.25
643.162	391.27
643.579	383.93
643.995	379.98
644.412	435.32
644.829	346.64
645.245	386.47
645.662	370.94
646.078	380.54
646.495	366.42
646.911	379.13
647.327	420.36
647.743	383.93
648.159	403.7
648.576	348.61
648.992	392.97
649.408	382.23
649.824	363.31
650.239	352.57
650.655	370.94
651.071	365.57
651.487	378.28
651.902	375.74
652.318	354.27
652.733	364.16
653.149	363.02
653.564	377.43
653.979	364.44
654.395	389.01
654.81	373.48
655.225	370.65
655.64	369.24
656.055	355.11
656.47	402.57
656.885	366.13
657.3	372.07
657.715	411.32
658.13	378
658.544	395.51
658.959	340.7
659.374	385.06
659.788	378
660.202	346.92
660.617	423.46
661.031	373.2
661.445	429.39
661.86	372.35
662.274	410.48
662.688	406.24
663.102	371.5
663.516	394.94
663.93	344.09
664.344	398.9
664.758	368.39
665.171	365.85
665.585	362.46
665.999	374.33
666.412	388.73
666.826	391.84
667.239	414.71
667.653	360.2
668.066	373.48
668.479	408.22
668.892	368.96
669.306	388.17
669.719	368.39
670.132	376.59
670.545	360.48
670.958	355.68
671.37	371.22
671.783	363.87
672.196	383.93
672.609	352.85
673.021	376.3
673.434	364.72
673.846	378
674.259	378.28
674.671	395.79
675.084	364.16
675.496	368.68
675.908	354.27
676.32	366.98
676.732	359.63
677.144	352.85
677.556	377.15
677.968	355.11
678.38	384.78
678.792	391.27
679.204	355.11
679.615	394.94
680.027	382.8
680.439	359.63
680.85	390.43
681.262	425.44
681.673	385.62
682.084	385.91
682.496	392.69
682.907	397.49
683.318	348.33
683.729	385.91
684.14	362.46
684.551	384.78
684.962	396.92
685.373	354.27
685.784	376.3
686.194	358.5
686.605	355.96
687.016	376.87
687.426	359.63
687.837	365.57
688.247	337.31
688.657	364.44
689.068	374.04
689.478	348.61
689.888	361.61
690.298	369.24
690.708	381.39
691.118	375.17
691.528	375.74
691.938	394.94
692.348	380.54
692.758	404.55
693.168	366.13
693.577	400.31
693.987	378.85
694.396	371.5
694.806	363.87
695.215	371.78
695.625	374.04
696.034	378.56
696.443	362.74
696.852	387.6
697.262	374.04
697.671	365.85
698.08	357.66
698.489	363.87
698.897	359.92
699.306	354.55
699.715	414.15
700.124	445.2
700.532	363.59
700.941	378.56
701.35	374.89
701.758	391.56
702.166	388.17
702.575	392.69
702.983	369.81
703.391	379.41
703.799	381.67
704.208	363.02
704.616	356.81
705.024	402.85
705.432	396.64
705.839	394.94
706.247	392.69
706.655	418.95
707.063	363.87
707.47	361.61
707.878	370.94
708.285	366.42
708.693	397.77
709.1	400.03
709.508	376.3
709.915	389.86
710.322	377.15
710.729	453.38
711.136	355.96
711.543	367.55
711.95	370.94
712.357	381.67
712.764	354.55
713.171	390.99
713.578	363.31
713.984	371.5
714.391	360.2
714.797	372.07
715.204	358.79
715.61	402
716.017	362.18
716.423	365.57
716.829	378.56
717.236	381.11
717.642	368.96
718.048	425.16
718.454	420.08
718.86	390.43
719.266	447.17
719.671	365.29
720.077	381.39
720.483	375.74
720.889	441.81
721.294	357.37
721.7	385.91
722.105	383.36
722.511	385.06
722.916	381.39
723.321	390.14
723.726	402.57
724.132	374.33
724.537	396.64
724.942	376.02
725.347	380.82
725.752	375.46
726.156	365.85
726.561	359.35
726.966	378.28
727.371	416.97
727.775	394.94
728.18	332.79
728.584	355.96
728.989	372.91
729.393	416.69
729.798	377.15
730.202	391.84
730.606	362.18
731.01	393.53
731.414	389.3
731.818	368.96
732.222	415.84
732.626	392.12
733.03	414.99
733.434	333.64
733.837	389.86
734.241	376.02
734.645	344.38
735.048	348.61
735.452	366.7
735.855	358.79
736.258	369.24
736.662	407.93
737.065	421.77
737.468	400.03
737.871	389.86
738.274	394.66
738.677	365.85
739.08	374.33
739.483	396.92
739.886	387.6
740.289	402
740.691	360.48
741.094	343.81
741.497	363.87
741.899	398.62
742.302	335.9
742.704	349.74
743.106	373.48
743.508	346.35
743.911	355.4
744.313	380.54
744.715	366.98
745.117	376.02
745.519	370.09
745.921	385.06
746.323	379.98
746.724	369.52
747.126	374.04
747.528	395.23
747.929	352.29
748.331	373.48
748.732	348.9
749.134	396.07
749.535	352.85
749.936	407.65
750.338	381.67
750.739	399.18
751.14	383.08
751.541	393.81
751.942	388.45
752.343	356.24
752.744	378
753.144	387.32
753.545	379.41
753.946	394.1
754.346	367.55
754.747	390.99
755.148	485.26
755.548	374.61
755.948	388.45
756.349	351.44
756.749	381.11
757.149	353.14
757.549	400.03
757.949	383.36
758.349	350.03
758.749	374.04
759.149	350.59
759.549	348.61
759.949	378.85
760.348	407.09
760.748	367.26
761.148	387.32
761.547	333.35
761.947	398.33
762.346	368.39
762.745	404.26
763.145	371.22
763.544	356.24
763.943	386.19
764.342	383.93
764.741	390.71
765.14	370.09
765.539	364.72
765.938	434.75
766.336	375.17
766.735	340.7
767.134	361.33
767.532	358.22
767.931	371.78
768.329	425.16
768.728	359.63
769.126	392.12
769.525	421.49
769.923	357.66
770.321	373.2
770.719	408.5
771.117	357.37
771.515	376.59
771.913	400.03
772.311	370.94
772.709	375.74
773.106	360.76
773.504	362.74
773.902	351.16
774.299	392.69
774.697	499.36
775.094	374.61
775.491	392.4
775.889	380.26
776.286	371.22
776.683	380.82
777.08	383.08
777.477	360.2
777.874	482.44
778.271	412.17
778.668	389.01
779.065	377.72
779.462	392.69
779.858	344.38
780.255	380.82
780.652	361.05
781.048	402.29
781.444	360.2
781.841	377.72
782.237	379.41
782.633	326.29
783.03	365.29
783.426	367.26
783.822	351.72
784.218	378.28
784.614	359.92
785.01	368.39
785.405	383.36
785.801	368.39
786.197	361.89
786.593	385.91
786.988	367.55
787.384	405.11
787.779	340.98
788.174	355.11
788.57	379.69
788.965	383.93
789.36	367.83
789.755	363.02
790.15	352.29
790.545	356.24
790.94	325.72
791.335	370.65
791.73	366.7
792.125	394.1
792.52	367.83
792.914	378
793.309	353.14
793.703	396.36
794.098	365
794.492	397.2
794.887	356.81
795.281	404.83
795.675	412.73
796.069	415.56
796.463	378.28
796.857	350.87
797.251	376.87
797.645	368.96
798.039	364.72
798.433	365.85
798.826	361.61
799.22	350.03
799.614	401.72
800.007	381.11
800.401	383.93
800.794	333.35
801.187	388.73
801.581	362.18
801.974	396.36
802.367	382.23
802.76	379.13
803.153	345.79
803.546	353.14
803.939	382.23
804.332	360.2
804.725	380.82
805.117	336.18
805.51	404.83
805.903	348.33
806.295	368.11
806.688	387.32
807.08	349.46
807.472	395.51
807.865	392.12
808.257	383.93
808.649	399.75
809.041	363.87
809.433	400.59
809.825	383.36
810.217	366.42
810.609	362.46
811.001	377.15
811.392	362.74
811.784	404.26
812.175	383.36
812.567	398.05
812.958	398.62
813.35	381.95
813.741	363.59
814.132	394.94
814.524	370.37
814.915	376.02
815.306	378
815.697	367.83
816.088	377.15
816.479	392.97
816.87	397.2
817.26	370.37
817.651	403.42
818.042	363.59
818.432	383.65
818.823	404.26
819.213	392.4
819.604	357.09
819.994	400.88
820.384	332.22
820.775	382.52
821.165	357.94
821.555	341.27
821.945	374.89
822.335	358.79
822.725	398.62
823.114	360.76
823.504	354.27
823.894	378.56
824.284	378.85
824.673	368.96
825.063	404.83
825.452	374.04
825.842	366.13
826.231	434.19
826.62	381.67
827.009	355.68
827.399	404.83
827.788	371.22
828.177	335.05
828.566	402.85
828.954	465.8
829.343	402.85
829.732	346.35
830.121	457.61
830.509	409.91
830.898	357.37
831.286	382.23
831.675	362.74
832.063	400.03
832.452	399.18
832.84	365.57
833.228	419.23
833.616	360.76
834.004	381.11
834.392	379.69
834.78	411.89
835.168	352.29
835.556	386.75
835.944	386.47
836.331	395.79
836.719	391.27
837.107	394.1
837.494	379.41
837.881	378
838.269	363.31
838.656	359.63
839.043	353.98
839.431	431.93
839.818	391.27
840.205	352.85
840.592	370.37
840.979	358.79
841.366	346.35
841.752	375.74
842.139	376.3
842.526	386.19
842.912	379.69
843.299	365.85
843.685	402.29
844.072	353.42
844.458	384.21
844.844	361.05
845.231	363.87
845.617	339.29
846.003	394.94
846.389	374.89
846.775	373.76
847.161	361.61
847.547	335.9
847.933	382.8
848.318	405.11
848.704	355.4
849.09	347.48
849.475	366.98
849.861	422.9
850.246	377.15
850.631	441.25
851.017	387.32
851.402	345.22
851.787	395.79
852.172	427.98
852.557	399.18
852.942	379.98
853.327	384.78
853.712	405.96
854.097	346.07
854.481	362.18
854.866	396.92
855.25	359.35
855.635	392.69
856.019	367.26
856.404	350.31
856.788	368.39
857.172	363.02
857.557	378.85
857.941	363.02
858.325	364.72
858.709	361.33
859.093	376.59
859.477	391.56
859.86	394.1
860.244	382.8
860.628	424.31
861.012	386.75
861.395	380.82
861.779	338.16
862.162	370.09
862.545	383.65
862.929	379.13
863.312	397.2
863.695	358.5
864.078	365
864.461	364.72
864.844	363.31
865.227	402.85
865.61	377.72
865.993	351.72
866.376	376.02
866.758	387.6
867.141	390.99
867.523	377.43
867.906	356.24
868.288	385.91
868.671	390.99
869.053	359.35
869.435	370.09
869.817	408.22
870.199	374.89
870.581	388.45
870.963	400.03
871.345	383.93
871.727	391.56
872.109	351.16
872.491	359.92
872.872	385.62
873.254	377.72
873.635	374.04
874.017	416.97
874.398	357.37
874.779	371.5
875.161	389.01
875.542	414.99
875.923	369.81
876.304	347.2
876.685	349.18
877.066	368.39
877.447	348.33
877.828	370.65
878.208	363.02
878.589	398.05
878.97	405.39
879.35	378.85
879.731	346.35
880.111	346.07
880.491	385.06
880.872	365.29
881.252	361.33
881.632	375.74
882.012	415.84
882.392	387.32
882.772	402.29
883.152	368.68
883.532	378.28
883.912	378.56
884.291	370.65
884.671	387.04
885.051	369.81
885.43	371.5
885.81	358.22
886.189	353.7
886.568	378.85
886.948	381.95
887.327	411.04
887.706	362.74
888.085	402
888.464	404.55
888.843	466.08
889.222	388.45
889.601	379.69
889.979	351.72
890.358	355.11
890.737	390.43
891.115	357.09
891.494	392.97
891.872	372.35
892.25	371.78
892.629	370.94
893.007	417.25
893.385	378.28
893.763	356.81
894.141	375.74
894.519	384.49
894.897	379.69
895.275	358.22
895.653	368.68
896.03	395.23
896.408	353.98
896.786	361.89
897.163	366.13
897.541	372.91
897.918	388.73
898.295	359.63
898.673	388.73
899.05	389.3
899.427	531.79
899.804	371.78
900.181	340.14
900.558	397.77
900.935	368.96
901.312	364.72
901.688	347.2
902.065	388.73
902.442	390.14
902.818	351.44
903.195	356.24
903.571	405.68
903.947	375.17
904.324	374.33
904.7	368.68
905.076	407.93
905.452	388.45
905.828	390.14
906.204	363.59
906.58	358.5
906.956	383.65
907.331	389.3
907.707	392.69
908.083	383.65
908.458	376.87
908.834	377.72
909.209	372.35
909.585	383.36
909.96	389.58
910.335	336.74
910.71	342.96
911.086	381.67
911.461	387.32
911.836	350.59
912.21	381.39
912.585	394.94
912.96	358.5
913.335	348.05
913.709	371.22
914.084	352.01
914.459	399.75
914.833	365.57
915.207	383.93
915.582	356.81
915.956	387.88
916.33	359.35
916.704	339.57
917.078	364.16
917.452	381.39
917.826	359.63
918.2	360.48
918.574	358.22
918.948	345.51
919.321	371.22
919.695	366.42
920.068	374.89
920.442	381.11
920.815	383.93
921.189	374.61
921.562	403.98
921.935	371.78
922.308	365.85
922.681	396.36
923.054	374.61
923.427	379.41
923.8	390.99
924.173	377.15
924.546	360.2
924.919	366.98
925.291	363.87
925.664	368.96
926.036	352.29
926.409	356.24
926.781	370.65
927.153	393.81
927.526	398.9
927.898	351.72
928.27	361.61
928.642	343.24
929.014	393.81
929.386	378.85
929.758	369.81
930.129	372.63
930.501	407.09
930.873	364.72
931.244	372.35
931.616	345.22
931.987	369.24
932.359	397.49
932.73	372.91
933.101	381.11
933.472	363.02
933.843	376.02
934.214	418.66
934.585	365.85
934.956	372.91
935.327	467.49
935.698	374.33
936.069	389.01
936.439	362.74
936.81	358.5
937.18	401.44
937.551	368.68
937.921	413.02
938.292	372.07
938.662	390.99
939.032	397.2
939.402	358.5
939.772	381.11
940.142	370.65
940.512	387.88
940.882	365.57
941.252	388.17
941.621	342.4
941.991	373.76
942.361	382.23
942.73	379.69
943.1	359.07
943.469	346.64
943.838	414.71
944.208	391.27
944.577	368.68
944.946	369.52
945.315	378.56
945.684	368.68
946.053	365.85
946.422	357.09
946.791	377.72
947.159	364.44
947.528	341.83
947.897	387.32
948.265	346.35
948.634	378.56
949.002	362.46
949.371	358.79
949.739	342.68
950.107	379.41
950.475	344.94
950.843	363.31
951.211	394.94
951.579	394.94
951.947	334.48
952.315	378.56
952.683	359.92
953.05	337.88
953.418	401.44
953.785	354.83
954.153	392.97
954.52	378
954.888	383.65
955.255	378.85
955.622	354.27
955.989	375.74
956.356	400.59
956.723	348.61
957.09	368.96
957.457	377.43
957.824	391.84
958.191	362.18
958.557	390.71
958.924	366.98
959.291	359.63
959.657	331.94
960.023	452.53
960.39	409.63
960.756	376.87
961.122	388.73
961.488	381.11
961.855	367.83
962.221	362.46
962.586	336.46
962.952	404.55
963.318	392.69
963.684	439.55
964.05	422.05
964.415	374.33
964.781	372.35
965.146	370.09
965.512	411.89
965.877	359.63
966.242	370.09
966.608	377.15
966.973	363.87
967.338	372.07
967.703	393.25
968.068	343.81
968.433	395.23
968.797	422.33
969.162	376.3
969.527	370.37
969.891	381.39
970.256	380.54
970.62	341.27
970.985	362.18
971.349	361.33
971.714	396.36
972.078	370.09
972.442	385.62
972.806	364.44
973.17	342.96
973.534	394.66
973.898	383.36
974.262	348.05
974.625	386.75
974.989	352.29
975.353	418.95
975.716	398.05
976.08	339.85
976.443	353.7
976.806	330.24
977.17	373.2
977.533	367.83
977.896	372.07
978.259	364.72
978.622	490.62
978.985	383.65
979.348	378.56
979.711	343.24
980.073	360.48
980.436	381.39
980.799	398.62
981.161	388.73
981.524	359.35
981.886	396.92
982.248	382.52
982.611	384.78
982.973	380.82
983.335	373.76
983.697	376.3
984.059	397.2
984.421	350.03
984.783	358.22
985.145	380.82
985.506	360.48
985.868	368.96
986.23	369.52
986.591	378.85
986.953	381.67
987.314	352.29
987.675	368.96
988.037	2771.93
988.398	395.51
988.759	369.52
989.12	386.47
989.481	409.63
989.842	378
990.203	347.48
990.564	336.74
990.924	381.67
991.285	4361.5
991.646	467.21
992.006	345.22
992.367	389.3
992.727	373.48
993.087	366.7
993.448	363.59
993.808	357.09
994.168	342.4
994.528	369.81
994.888	366.42
995.248	356.81
995.608	389.58
995.967	379.41
996.327	368.68
996.687	367.83
997.046	353.7
997.406	355.4
997.765	332.79
998.125	348.05
998.484	337.31
998.843	421.2
999.202	374.89
999.561	379.69
999.92	381.67
1000.279	360.2
1000.638	349.18
1000.997	361.61
1001.356	374.89
1001.715	373.48
1002.073	321.48
1002.432	393.81
1002.79	361.89
1003.149	335.33
1003.507	403.42
1003.865	344.09
1004.224	352.57
1004.582	414.43
1004.94	398.05
1005.298	422.33
1005.656	352.01
1006.014	363.87
1006.371	368.39
1006.729	342.68
1007.087	418.95
1007.445	402.85
1007.802	372.91
1008.16	345.22
1008.517	365.57
1008.874	359.63
1009.232	375.17
1009.589	502.75
1009.946	393.25
1010.303	364.16
1010.66	379.98
1011.017	373.2
1011.374	403.42
1011.731	368.68
1012.087	360.2
1012.444	345.51
1012.801	381.67
1013.157	333.07
1013.513	387.32
1013.87	378.28
1014.226	356.24
1014.582	372.07
1014.939	384.49
1015.295	371.22
1015.651	353.42
1016.007	354.55
1016.363	395.51
1016.719	337.03
1017.074	369.52
1017.43	367.83
1017.786	389.01
1018.141	360.2
1018.497	363.02
1018.852	352.85
1019.208	348.33
1019.563	354.83
1019.918	353.14
1020.273	365.29
1020.628	375.17
1020.983	393.25
1021.338	344.66
1021.693	368.39
1022.048	384.78
1022.403	354.27
1022.757	389.3
1023.112	364.72
1023.467	358.22
1023.821	363.31
1024.175	366.7
1024.53	347.48
1024.884	367.55
1025.238	366.7
1025.592	348.05
1025.946	368.68
1026.3	363.59
1026.654	357.66
1027.008	348.05
1027.362	365.29
1027.716	371.5
1028.069	360.48
1028.423	383.08
1028.777	349.18
1029.13	348.33
1029.483	376.3
1029.837	364.44
1030.19	378
1030.543	382.52
1030.896	363.59
1031.249	405.68
1031.602	353.7
1031.955	356.81
1032.308	342.4
1032.661	411.61
1033.013	355.4
1033.366	366.13
1033.719	377.43
1034.071	350.59
1034.424	358.79
1034.776	356.81
1035.128	370.65
1035.48	370.37
1035.833	399.46
1036.185	366.98
1036.537	366.98
1036.889	366.98
