Data from BCF12_new_1_FLMS019251_15-55-26-935.txt Node
Date: Wed Jun 12 15:55:26 CEST 2019
User: luk
Spectrometer: FLMS01925
Trigger mode: 0
Integration Time (sec): 2.729000E-2
Scans to average: 20
Electric dark correction enabled: true
Nonlinearity correction enabled: true
Boxcar width: 0
XAxis mode: Wavelengths
Number of Pixels in Spectrum: 2048
>>>>>Begin Spectral Data<<<<<
187.103	-78.18
187.574	-78.18
188.045	-78.18
188.516	-90.97
188.987	-90.83
189.458	-118.84
189.929	-109.45
190.4	-94.38
190.871	-94.53
191.342	-74.49
191.813	-68.23
192.284	-33.43
192.754	-28.74
193.225	5.76
193.696	23.36
194.166	37.41
194.637	70.6
195.107	85.21
195.578	120.22
196.048	137.65
196.518	141.05
196.989	171.51
197.459	201.67
197.929	218.24
198.399	274.41
198.869	285.44
199.339	293.64
199.809	318.24
200.279	351.31
200.749	346.08
201.219	355.97
201.689	346.22
202.159	384.08
202.628	377.87
203.098	391.99
203.568	372.64
204.037	391.71
204.507	401.31
204.976	388.46
205.445	394.25
205.915	415.99
206.384	397.5
206.853	418.81
207.323	417.12
207.792	428.13
208.261	391.56
208.73	400.88
209.199	409.5
209.668	417.26
210.137	401.31
210.606	404.13
211.075	412.46
211.543	390.72
212.012	388.03
212.481	394.95
212.95	405.68
213.418	385.21
213.887	377.16
214.355	379.28
214.824	384.64
215.292	375.32
215.76	381.26
216.229	375.89
216.697	376.17
217.165	376.17
217.633	377.02
218.101	354.27
218.569	372.64
219.037	356.82
219.505	367.13
219.973	368.83
220.441	367.84
220.909	372.5
221.377	378.71
221.844	379.14
222.312	353.29
222.78	351.87
223.247	370.24
223.715	367.41
224.182	366.85
224.65	372.36
225.117	378.15
225.584	376.59
226.052	355.26
226.519	379.28
226.986	363.74
227.453	369.67
227.92	369.39
228.387	363.32
228.854	361.34
229.321	378.57
229.788	365.86
230.255	368.68
230.722	349.33
231.189	386.34
231.655	372.22
232.122	379.56
232.589	384.64
233.055	389.45
233.522	372.92
233.988	375.61
234.454	393.12
234.921	378.29
235.387	391.42
235.853	386.48
236.32	366.99
236.786	358.37
237.252	373.2
237.718	392.27
238.184	392.84
238.65	382.81
239.116	402.86
239.582	379.14
240.047	373.06
240.513	371.37
240.979	385.35
241.445	386.2
241.91	383.09
242.376	379.28
242.841	379.28
243.307	374.19
243.772	376.88
244.238	392.27
244.703	390.58
245.168	387.19
245.633	384.08
246.099	385.63
246.564	379.84
247.029	373.06
247.494	399.33
247.959	395.8
248.424	373.91
248.889	405.83
249.353	392.41
249.818	380.27
250.283	380.83
250.748	391.85
251.212	384.93
251.677	382.24
252.141	376.88
252.606	379.7
253.07	379.98
253.535	378.85
253.999	395.24
254.463	398.77
254.927	387.47
255.392	389.87
255.856	378.71
256.32	383.94
256.784	385.77
257.248	391.99
257.712	387.89
258.176	402.01
258.64	398.2
259.103	376.74
259.567	394.25
260.031	379.98
260.495	398.62
260.958	377.87
261.422	396.37
261.885	397.64
262.349	390.01
262.812	392.13
263.275	392.55
263.739	397.64
264.202	366.57
264.665	395.24
265.128	398.91
265.591	401.87
266.054	382.38
266.517	380.27
266.98	376.88
267.443	421.07
267.906	396.51
268.369	392.69
268.832	390.58
269.294	382.53
269.757	396.93
270.22	398.91
270.682	395.24
271.145	401.03
271.607	411.76
272.07	397.78
272.532	381.82
272.994	385.21
273.456	403
273.919	408.37
274.381	392.98
274.843	392.13
275.305	407.66
275.767	404.13
276.229	403.71
276.691	399.61
277.153	403.43
277.614	414.86
278.076	406.53
278.538	383.23
279	400.46
279.461	391.56
279.923	403.85
280.384	400.88
280.846	393.97
281.307	409.07
281.769	402.01
282.23	399.9
282.691	404.41
283.152	411.19
283.613	414.16
284.075	411.47
284.536	418.95
284.997	397.5
285.458	393.54
285.918	423.75
286.379	395.66
286.84	410.2
287.301	394.67
287.762	404.84
288.222	402.58
288.683	412.74
289.143	410.63
289.604	369.11
290.064	387.75
290.525	408.51
290.985	414.44
291.445	403.14
291.906	411.47
292.366	417.12
292.826	407.94
293.286	408.51
293.746	404.84
294.206	412.04
294.666	411.61
295.126	393.97
295.586	416.13
296.046	412.32
296.506	416.41
296.965	395.66
297.425	427.85
297.884	402.58
298.344	410.91
298.804	402.15
299.263	418.11
299.722	407.38
300.182	392.41
300.641	381.4
301.1	398.91
301.559	399.19
302.019	408.51
302.478	402.58
302.937	423.05
303.396	414.16
303.855	411.9
304.314	403.14
304.772	414.86
305.231	393.54
305.69	400.88
306.149	396.65
306.607	418.67
307.066	411.9
307.524	414.01
307.983	423.61
308.441	414.86
308.9	417.4
309.358	419.1
309.816	424.88
310.275	418.11
310.733	429.82
311.191	401.31
311.649	406.11
312.107	419.66
312.565	407.8
313.023	422.06
313.481	414.86
313.939	418.53
314.397	408.23
314.854	411.61
315.312	415.71
315.77	415.14
316.227	411.61
316.685	424.74
317.142	395.09
317.6	398.06
318.057	414.44
318.514	407.1
318.972	415.71
319.429	433.78
319.886	430.81
320.343	411.9
320.8	427
321.257	416.7
321.714	429.12
322.171	412.04
322.628	408.08
323.085	419.8
323.542	422.2
323.998	432.93
324.455	411.19
324.912	399.19
325.368	419.66
325.825	407.1
326.281	414.58
326.738	417.12
327.194	429.82
327.65	413.45
328.107	423.47
328.563	405.97
329.019	415
329.475	399.19
329.931	411.47
330.387	429.12
330.843	412.88
331.299	426.44
331.755	404.98
332.211	401.59
332.666	424.04
333.122	425.31
333.578	406.39
334.033	414.86
334.489	422.91
334.944	393.54
335.4	414.01
335.855	403.99
336.31	406.81
336.766	416.27
337.221	415
337.676	418.25
338.131	421.21
338.586	398.62
339.041	417.83
339.496	414.01
339.951	417.26
340.406	419.94
340.861	421.5
341.316	427
341.771	410.2
342.225	419.94
342.68	414.16
343.134	413.73
343.589	430.67
344.043	434.76
344.498	427.71
344.952	417.26
345.406	442.24
345.861	407.52
346.315	435.47
346.769	394.53
347.223	410.63
347.677	420.65
348.131	440.41
348.585	420.79
349.039	428.55
349.493	425.73
349.947	404.98
350.401	417.54
350.854	422.34
351.308	438.15
351.762	440.41
352.215	430.81
352.669	418.67
353.122	414.44
353.575	430.11
354.029	429.26
354.482	432.51
354.935	425.17
355.388	411.9
355.842	421.21
356.295	429.4
356.748	425.59
357.201	433.78
357.654	439.56
358.106	426.58
358.559	416.84
359.012	448.17
359.465	431.8
359.917	425.02
360.37	412.6
360.823	433.21
361.275	411.9
361.728	424.18
362.18	432.08
362.632	419.38
363.085	437.44
363.537	428.27
363.989	438.15
364.441	414.86
364.893	440.97
365.345	419.24
365.797	425.31
366.249	423.05
366.701	451.7
367.153	417.83
367.605	437.44
368.057	429.12
368.508	423.61
368.96	418.39
369.411	430.81
369.863	419.38
370.314	430.67
370.766	436.03
371.217	441.26
371.669	439.98
372.12	427.57
372.571	420.08
373.022	430.39
373.473	433.07
373.924	425.17
374.375	432.93
374.826	438.29
375.277	422.48
375.728	421.35
376.179	428.27
376.63	430.67
377.08	415.28
377.531	427
377.981	439.7
378.432	432.51
378.883	431.66
379.333	436.6
379.783	422.77
380.234	426.01
380.684	426.29
381.134	437.59
381.584	424.74
382.034	447.89
382.485	424.74
382.935	429.54
383.385	437.59
383.834	442.81
384.284	451.56
384.734	431.09
385.184	452.54
385.634	429.54
386.083	437.3
386.533	438.86
386.982	422.34
387.432	438.71
387.881	419.38
388.331	420.79
388.78	426.01
389.229	446.19
389.679	435.61
390.128	442.24
390.577	439.28
391.026	437.59
391.475	435.05
391.924	453.67
392.373	447.46
392.822	439.14
393.27	424.32
393.719	444.5
394.168	462.84
394.617	430.67
395.065	453.67
395.514	443.37
395.962	444.5
396.411	452.26
396.859	441.54
397.307	434.34
397.756	444.78
398.204	443.8
398.652	463.69
399.1	451.56
399.548	461.86
399.996	462.42
400.444	459.88
400.892	468.49
401.34	465.52
401.788	467.92
402.236	467.64
402.683	448.88
403.131	473.28
403.579	461.29
404.026	455.51
404.474	457.06
404.921	471.73
405.369	482.59
405.816	463.69
406.263	484.57
406.71	470.32
407.158	485.69
407.605	475.68
408.052	475.82
408.499	489.08
408.946	491.05
409.393	490.77
409.84	497.4
410.286	492.89
410.733	518.55
411.18	531.66
411.626	522.21
412.073	580.97
412.52	600.97
412.966	656.44
413.413	725.78
413.859	849.11
414.305	994.94
414.752	1175.02
415.198	1423.11
415.644	1744.39
416.09	2137.15
416.536	2576.09
416.982	3143.06
417.428	3812.23
417.874	4545.41
418.32	5321.16
418.766	6223.11
419.211	7306.68
419.657	8342.96
420.103	9609.93
420.548	10559.17
420.994	12027.31
421.439	13321.34
421.885	14550.86
422.33	16164.56
422.776	17403.37
423.221	18600.56
423.666	20076.8
424.111	21666.68
424.556	22690.1
425.001	24430.14
425.446	25877.58
425.891	27281.8
426.336	28216.45
426.781	29544.82
427.226	31638.32
427.671	32207.86
428.115	33174.56
428.56	34773.71
429.005	36302.88
429.449	36762.44
429.894	38056.9
430.338	39174.14
430.782	39071.98
431.227	40530.08
431.671	40868.55
432.115	42188.18
432.559	43254.91
433.003	42962.76
433.447	43916.86
433.891	44227.57
434.335	44399.21
434.779	45359.25
435.223	45405.25
435.667	45421.51
436.111	45932.53
436.554	45819.15
436.998	45377.02
437.442	45428.69
437.885	47612.79
438.328	45954.02
438.772	46364.18
439.215	46942.31
439.659	46481.01
440.102	46977.58
440.545	46220.96
440.988	46167.76
441.431	47009.3
441.874	46618.01
442.317	47051.22
442.76	46506.9
443.203	45996.01
443.646	46879.42
444.089	46558.7
444.531	47230.9
444.974	45802.98
445.417	47133.06
445.859	46292.3
446.302	47603.19
446.744	46747.13
447.186	48329.57
447.629	47271.1
448.071	47415.82
448.513	47541.77
448.956	48973.56
449.398	48123.26
449.84	46965.99
450.282	47614.97
450.724	48411.02
451.166	48120.3
451.607	48063.87
452.049	48316.95
452.491	49306.47
452.933	49017
453.374	49656.7
453.816	50433.81
454.257	49863.14
454.699	51106.8
455.14	50744.83
455.582	50453.21
456.023	50678.73
456.464	51007.08
456.905	51561.02
457.347	51688.78
457.788	50764.45
458.229	50993.77
458.67	52260.49
459.111	50144.46
459.552	50587.43
459.992	50258.51
460.433	50058.8
460.874	49232.72
461.315	50497.96
461.755	49462.64
462.196	48903.56
462.636	48047.04
463.077	48022.24
463.517	48078.91
463.957	48379.18
464.398	47964.83
464.838	48149.75
465.278	46941.42
465.718	47317.2
466.158	46191.32
466.598	46786.93
467.038	46303.58
467.478	46777.39
467.918	47131.27
468.358	46202.34
468.798	46069.52
469.237	45962.62
469.677	45896.88
470.117	46829.67
470.556	44190.63
470.996	44761.27
471.435	45146.07
471.874	45647.28
472.314	45494.75
472.753	44452.86
473.192	44722.98
473.631	44338.43
474.07	44668.25
474.509	44522.96
474.948	44973.37
475.387	44238.84
475.826	43383.1
476.265	45092.59
476.704	44648.29
477.143	45052.09
477.581	44720.34
478.02	45601.97
478.458	44066.09
478.897	44837.39
479.335	46114.2
479.774	45506.1
480.212	45995.38
480.65	45676.82
481.089	45578.25
481.527	44973.5
481.965	44720.72
482.403	46722.46
482.841	46453.22
483.279	46578.76
483.717	46602.76
484.155	46132.18
484.592	46714.84
485.03	46930.59
485.468	45949.22
485.905	46070.92
486.343	46695.39
486.781	45816.62
487.218	45376.39
487.655	45465
488.093	44548.92
488.53	46048.64
488.967	44991.1
489.405	44960.92
489.842	44220.68
490.279	44073.09
490.716	43761.49
491.153	44216.8
491.59	43557.05
492.027	42730.05
492.463	42306.99
492.9	41595.78
493.337	41478.76
493.773	41662.42
494.21	40533.29
494.647	40488.98
495.083	39659.98
495.519	39306.95
495.956	39283.83
496.392	38603.31
496.828	38370.21
497.265	37558.17
497.701	37516.03
498.137	37260.92
498.573	36415.97
499.009	36899.96
499.445	35995.37
499.881	35489.65
500.316	35653.06
500.752	34749.18
501.188	34520.53
501.624	34657.79
502.059	33191.14
502.495	32964.14
502.93	32984.62
503.366	33119.33
503.801	32402.17
504.236	32137.89
504.672	31608.93
505.107	31309.38
505.542	30579.04
505.977	30676.61
506.412	30156.71
506.847	30365.45
507.282	29883.75
507.717	29456.55
508.152	29501.84
508.587	29257.54
509.021	28420.35
509.456	28103.72
509.891	28281.86
510.325	28147.86
510.76	27679.18
511.194	27546.17
511.628	27534.92
512.063	26763.98
512.497	26866.04
512.931	26328.86
513.366	26145.52
513.8	26168.58
514.234	25347.69
514.668	25453.81
515.102	25629.77
515.536	24671.16
515.969	24980.4
516.403	24340.3
516.837	23888.14
517.271	24114.03
517.704	23677.67
518.138	23453.91
518.571	23315.41
519.005	22956.2
519.438	22743.09
519.871	22677.75
520.305	22036.95
520.738	22020.87
521.171	21540.14
521.604	21707.29
522.037	21458.89
522.47	21018.58
522.903	20578.05
523.336	20555.59
523.769	20453.17
524.202	19810.16
524.634	19939.34
525.067	19581.54
525.5	19421.38
525.932	19314.95
526.365	18881.33
526.797	18716.41
527.23	18746.83
527.662	18039.65
528.094	17855.38
528.527	17806.26
528.959	17513.08
529.391	17244.57
529.823	16693.56
530.255	16812.88
530.687	16406.51
531.119	16155.52
531.551	16132.16
531.982	15750.15
532.414	15485.71
532.846	15193.37
533.277	15100.94
533.709	14700.45
534.14	14645.46
534.572	14353.22
535.003	14261.3
535.435	13972.47
535.866	13824.79
536.297	13477.27
536.728	13458.4
537.159	13393.04
537.59	13094.69
538.022	12962.9
538.452	12741.78
538.883	12456.53
539.314	12403.63
539.745	12148.79
540.176	11951.26
540.606	11640.55
541.037	11676.02
541.468	11487.14
541.898	11356.75
542.328	11274.07
542.759	11000.78
543.189	10894.15
543.619	10826.41
544.05	10535.44
544.48	10412
544.91	10373.49
545.34	10185.19
545.77	10028.59
546.2	9883.05
546.63	9775.4
547.06	9682.89
547.489	9511.4
547.919	9258.35
548.349	9314.54
548.778	9251.37
549.208	9013.06
549.637	8936.69
550.067	8791.49
550.496	8848.11
550.926	8609.44
551.355	8442.23
551.784	8457.43
552.213	8280.56
552.642	8115.32
553.071	8072.87
553.5	8007.35
553.929	7744.05
554.358	7795.86
554.787	7578.3
555.216	7616.72
555.645	7465.98
556.073	7358.93
556.502	7249.7
556.93	7067.83
557.359	7129.49
557.787	7060.61
558.216	6944.95
558.644	6811.29
559.072	6810.37
559.5	6701.71
559.929	6710.65
560.357	6622.58
560.785	6524.68
561.213	6531.01
561.641	6393.86
562.068	6355.05
562.496	6244.78
562.924	6217.29
563.352	6237.77
563.779	6173.4
564.207	6194.95
564.634	6119.71
565.062	6044.56
565.489	5983.92
565.917	5946.03
566.344	5909.99
566.771	5891.17
567.198	5815.46
567.625	5724.43
568.053	5652.85
568.48	5631.59
568.907	5561.02
569.333	5478.15
569.76	5340.21
570.187	5360.33
570.614	5244.1
571.04	5609.8
571.467	5083.95
571.894	5043.2
572.32	4918.05
572.747	4842.16
573.173	4792.07
573.599	4724.67
574.026	4594.01
574.452	4566.49
574.878	4504.57
575.304	4367.83
575.73	4352.22
576.156	4260.93
576.582	4223.07
577.008	4129.51
577.434	4079.72
577.86	3983.43
578.285	4007.08
578.711	3882.72
579.137	3843.76
579.562	3701.57
579.988	3761.59
580.413	3637.58
580.838	3627.27
581.264	3578.83
581.689	3494.24
582.114	3446.68
582.539	3472.37
582.964	3398.83
583.39	3336.38
583.814	3267.09
584.239	3221.86
584.664	3162.56
585.089	3116.59
585.514	3086.98
585.939	3025.54
586.363	2974.44
586.788	2941.23
587.212	2897.74
587.637	2863.13
588.061	2856.97
588.485	2784.82
588.91	2764.41
589.334	2724.8
589.758	2683.81
590.182	2648.42
590.606	2572.1
591.03	2557.27
591.454	2511.93
591.878	2508.36
592.302	2491.32
592.726	2439.48
593.15	2412.52
593.573	2373.57
593.997	2353.47
594.42	2311.33
594.844	2278.4
595.267	2277.71
595.691	2198.43
596.114	2187.11
596.537	2204.22
596.96	2184.22
597.384	2166.83
597.807	2100.97
598.23	2090.75
598.653	2085.78
599.076	2054.28
599.499	2027.6
599.921	1976.3
600.344	2021.24
600.767	1985.56
601.189	1996.9
601.612	1966.75
602.034	1940.6
602.457	1910.42
602.879	1928
603.302	1921.22
603.724	1894.08
604.146	1879.13
604.568	1838.26
604.991	1859.46
605.413	1862.92
605.835	1847.54
606.257	1817.89
606.678	1827.03
607.1	1822.74
607.522	1786.28
607.944	1766.03
608.365	1782.81
608.787	1771.3
609.209	1719.27
609.63	1699.42
610.051	1724.27
610.473	1704.98
610.894	1668.74
611.315	1683.32
611.737	1617.2
612.158	1622.9
612.579	1580.37
613	1584.26
613.421	1571.05
613.842	1552.14
614.263	1521.12
614.683	1529.33
615.104	1518.2
615.525	1484.1
615.945	1492.31
616.366	1423.25
616.787	1427.01
617.207	1403.32
617.627	1390.5
618.048	1367.92
618.468	1347.15
618.888	1343.8
619.308	1324.83
619.728	1312.28
620.148	1286.05
620.568	1277.67
620.988	1249.61
621.408	1258.27
621.828	1266.79
622.248	1223.5
622.668	1219.87
623.087	1209.25
623.507	1176.98
623.926	1182.01
624.346	1183.12
624.765	1183.12
625.185	1142.31
625.604	1152.65
626.023	1138.95
626.442	1116.72
626.861	1112.24
627.28	1096.99
627.699	1093.5
628.118	1099.93
628.537	1079.51
628.956	1058.93
629.375	1041.29
629.794	1020.01
630.212	1028.27
630.631	1014.83
631.049	1032.05
631.468	1001.66
631.886	999.42
632.305	973.22
632.723	968.04
633.141	962.43
633.559	966.08
633.978	965.38
634.396	926.69
634.814	944.63
635.232	903.69
635.65	922.34
636.067	896.25
636.485	905.09
636.903	909.02
637.321	879.28
637.738	850.23
638.156	854.44
638.573	879.42
638.991	837.88
639.408	837.32
639.825	848.27
640.243	838.58
640.66	816.96
641.077	827.07
641.494	833.53
641.911	811.91
642.328	824.26
642.745	788.17
643.162	799.13
643.579	797.72
643.995	781.43
644.412	768.64
644.829	757.54
645.245	766.82
645.662	768.92
646.078	758.1
646.495	762.32
646.911	774.68
647.327	746.3
647.743	733.09
648.159	725.35
648.576	724.79
648.992	729.85
649.408	721.28
649.824	707.5
650.239	710.31
650.655	714.95
651.071	713.83
651.487	705.67
651.902	687.25
652.318	690.9
652.733	686.12
653.149	683.17
653.564	685.56
653.979	689.36
654.395	675.01
654.81	658.69
655.225	666.85
655.64	669.1
656.055	654.89
656.47	676.41
656.885	667.13
657.3	641.94
657.715	662.77
658.13	639.69
658.544	656.29
658.959	648.98
659.374	650.38
659.788	643.91
660.202	646.16
660.617	643.35
661.031	607.03
661.445	637.72
661.86	618.57
662.274	617.17
662.688	615.34
663.102	611.25
663.516	605.76
663.93	612.94
664.344	613.08
664.758	615.62
665.171	611.25
665.585	587.45
665.999	572.24
666.412	590.27
666.826	593.79
667.239	591.26
667.653	584.64
668.066	594.5
668.479	588.86
668.892	580.69
669.306	605.76
669.719	561.53
670.132	583.79
670.545	582.66
670.958	575.9
671.37	569.42
671.783	560.55
672.196	583.51
672.609	555.19
673.021	533.77
673.434	572.1
673.846	563.51
674.259	555.05
674.671	548.01
675.084	546.03
675.496	554.35
675.908	539.13
676.32	552.37
676.732	525.74
677.144	546.74
677.556	554.07
677.968	525.46
678.38	538.14
678.792	544.06
679.204	524.33
679.615	542.65
680.027	544.91
680.439	546.88
680.85	544.48
681.262	528.84
681.673	532.64
682.084	518.13
682.496	517.14
682.907	516.57
683.318	501.07
683.729	526.44
684.14	513.05
684.551	515.17
684.962	520.24
685.373	505.86
685.784	524.19
686.194	517.56
686.605	504.03
687.016	517.56
687.426	495.14
687.837	504.45
688.247	506.28
688.657	508.26
689.068	489.93
689.478	491.05
689.888	486.4
690.298	511.64
690.708	508.12
691.118	484.99
691.528	484.99
691.938	476.95
692.348	515.73
692.758	480.33
693.168	483.86
693.577	496.41
693.987	473.85
694.396	470.6
694.806	482.59
695.215	479.07
695.625	481.04
696.034	496.27
696.443	459.32
696.852	490.35
697.262	471.87
697.671	470.04
698.08	459.03
698.489	471.03
698.897	468.63
699.306	448.45
699.715	461.01
700.124	489.64
700.532	445.21
700.941	461.29
701.35	456.64
701.758	457.62
702.166	451.13
702.575	454.24
702.983	459.46
703.391	443.94
703.799	443.94
704.208	469.47
704.616	453.53
705.024	468.06
705.432	452.68
705.839	455.51
706.247	472.01
706.655	457.2
707.063	461.15
707.47	466.79
707.878	450.71
708.285	461.57
708.693	447.18
709.1	442.38
709.508	442.67
709.915	444.78
710.322	431.8
710.729	441.68
711.136	444.78
711.543	437.59
711.95	435.61
712.357	445.77
712.764	438.71
713.171	426.29
713.578	422.2
713.984	426.01
714.391	439.56
714.797	431.52
715.204	425.59
715.61	428.98
716.017	431.8
716.423	429.12
716.829	421.07
717.236	405.68
717.642	443.8
718.048	438.71
718.454	431.8
718.86	417.83
719.266	425.73
719.671	431.66
720.077	443.94
720.483	431.94
720.889	434.48
721.294	432.22
721.7	426.15
722.105	431.23
722.511	420.37
722.916	434.62
723.321	431.23
723.726	430.39
724.132	448.59
724.537	442.1
724.942	425.02
725.347	441.26
725.752	408.93
726.156	418.11
726.561	442.53
726.966	442.38
727.371	431.66
727.775	439.98
728.18	447.61
728.584	437.59
728.989	424.32
729.393	416.84
729.798	441.11
730.202	445.49
730.606	424.6
731.01	418.95
731.414	423.33
731.818	429.26
732.222	430.39
732.626	433.35
733.03	424.32
733.434	416.7
733.837	426.44
734.241	421.92
734.645	435.89
735.048	426.29
735.452	422.62
735.855	435.61
736.258	433.78
736.662	436.03
737.065	419.52
737.468	411.19
737.871	415.85
738.274	420.79
738.677	416.41
739.08	434.9
739.483	419.52
739.886	430.25
740.289	402.3
740.691	422.91
741.094	421.5
741.497	410.2
741.899	434.76
742.302	409.92
742.704	434.76
743.106	419.52
743.508	412.04
743.911	430.53
744.313	415.57
744.715	413.45
745.117	420.65
745.519	412.18
745.921	412.88
746.323	406.96
746.724	422.06
747.126	418.95
747.528	425.73
747.929	413.31
748.331	407.66
748.732	409.78
749.134	397.78
749.535	427.85
749.936	422.2
750.338	436.6
750.739	417.12
751.14	415.99
751.541	394.81
751.942	429.26
752.343	420.93
752.744	422.2
753.144	408.93
753.545	405.54
753.946	406.67
754.346	411.76
754.747	415.99
755.148	419.8
755.548	418.81
755.948	418.39
756.349	382.81
756.749	434.9
757.149	414.58
757.549	412.46
757.949	409.5
758.349	422.91
758.749	417.4
759.149	419.8
759.549	412.88
759.949	420.23
760.348	425.59
760.748	399.61
761.148	411.05
761.547	413.45
761.947	400.46
762.346	420.37
762.745	411.47
763.145	422.48
763.544	401.31
763.943	405.12
764.342	409.78
764.741	418.39
765.14	417.4
765.539	422.2
765.938	395.8
766.336	402.72
766.735	401.87
767.134	429.96
767.532	427.14
767.931	407.1
768.329	418.39
768.728	421.92
769.126	413.87
769.525	397.35
769.923	412.74
770.321	418.81
770.719	404.7
771.117	399.05
771.515	409.21
771.913	414.01
772.311	404.55
772.709	411.33
773.106	408.37
773.504	405.97
773.902	416.41
774.299	400.74
774.697	405.26
775.094	391.42
775.491	407.24
775.889	398.2
776.286	413.87
776.683	395.24
777.08	415.43
777.477	408.23
777.874	436.03
778.271	409.36
778.668	392.41
779.065	395.52
779.462	419.1
779.858	397.5
780.255	409.5
780.652	412.6
781.048	401.73
781.444	415.28
781.841	399.61
782.237	397.92
782.633	402.15
783.03	399.9
783.426	412.46
783.822	389.02
784.218	396.79
784.614	406.67
785.01	411.33
785.405	396.37
785.801	404.13
786.197	419.38
786.593	416.41
786.988	408.51
787.384	405.83
787.779	393.26
788.174	399.47
788.57	408.08
788.965	410.77
789.36	401.03
789.755	398.2
790.15	409.07
790.545	414.58
790.94	399.47
791.335	410.77
791.73	406.67
792.125	395.8
792.52	414.16
792.914	394.81
793.309	400.88
793.703	393.4
794.098	394.39
794.492	418.53
794.887	408.23
795.281	405.83
795.675	406.25
796.069	397.64
796.463	417.4
796.857	412.04
797.251	397.64
797.645	395.94
798.039	398.06
798.433	389.45
798.826	400.18
799.22	412.32
799.614	408.79
800.007	405.26
800.401	419.38
800.794	403.28
801.187	396.22
801.581	402.72
801.974	418.53
802.367	395.8
802.76	394.39
803.153	401.73
803.546	424.04
803.939	414.16
804.332	394.67
804.725	393.82
805.117	389.73
805.51	390.72
805.903	396.51
806.295	404.41
806.688	403.14
807.08	391.71
807.472	392.55
807.865	397.5
808.257	411.33
808.649	406.67
809.041	407.8
809.433	396.93
809.825	402.15
810.217	386.9
810.609	392.55
811.001	387.05
811.392	401.45
811.784	397.5
812.175	398.2
812.567	407.24
812.958	398.77
813.35	385.21
813.741	374.33
814.132	413.73
814.524	399.19
814.915	423.61
815.306	403.28
815.697	389.45
816.088	399.9
816.479	405.83
816.87	403.71
817.26	399.05
817.651	415.57
818.042	375.89
818.432	391.42
818.823	379.84
819.213	400.32
819.604	403.99
819.994	406.25
820.384	402.86
820.775	411.9
821.165	397.21
821.555	402.86
821.945	372.22
822.335	405.12
822.725	412.88
823.114	402.86
823.504	382.53
823.894	400.74
824.284	400.6
824.673	401.31
825.063	408.93
825.452	394.11
825.842	390.29
826.231	385.35
826.62	397.5
827.009	413.17
827.399	415.28
827.788	402.58
828.177	399.75
828.566	397.21
828.954	409.78
829.343	413.73
829.732	382.67
830.121	399.05
830.509	391.85
830.898	406.39
831.286	385.63
831.675	407.94
832.063	408.93
832.452	397.35
832.84	401.59
833.228	402.3
833.616	401.59
834.004	383.8
834.392	395.66
834.78	406.25
835.168	391.99
835.556	400.74
835.944	393.97
836.331	411.76
836.719	383.09
837.107	381.82
837.494	409.36
837.881	401.45
838.269	392.13
838.656	403
839.043	392.13
839.431	404.41
839.818	374.9
840.205	385.21
840.592	382.1
840.979	388.74
841.366	374.05
841.752	397.5
842.139	387.75
842.526	386.9
842.912	407.94
843.299	387.33
843.685	415.99
844.072	384.36
844.458	398.62
844.844	391.42
845.231	395.24
845.617	366
846.003	392.41
846.389	399.05
846.775	402.3
847.161	392.41
847.547	399.33
847.933	383.94
848.318	401.17
848.704	400.32
849.09	380.13
849.475	391.71
849.861	395.52
850.246	395.8
850.631	394.95
851.017	395.52
851.402	409.5
851.787	396.08
852.172	400.46
852.557	415.28
852.942	388.03
853.327	401.03
853.712	381.68
854.097	394.67
854.481	396.08
854.866	380.83
855.25	396.93
855.635	394.25
856.019	384.93
856.404	401.87
856.788	380.41
857.172	391.28
857.557	382.53
857.941	405.4
858.325	390.01
858.709	389.59
859.093	388.46
859.477	393.12
859.86	409.92
860.244	398.2
860.628	388.74
861.012	398.91
861.395	391.56
861.779	399.33
862.162	396.51
862.545	392.13
862.929	412.46
863.312	403.57
863.695	386.62
864.078	402.86
864.461	386.76
864.844	398.91
865.227	396.79
865.61	385.07
865.993	394.95
866.376	421.21
866.758	402.3
867.141	405.83
867.523	386.34
867.906	385.49
868.288	390.29
868.671	403.71
869.053	385.92
869.435	384.64
869.817	394.39
870.199	379.14
870.581	386.2
870.963	391.71
871.345	386.76
871.727	387.47
872.109	398.62
872.491	393.12
872.872	400.6
873.254	396.08
873.635	376.03
874.017	379.56
874.398	385.49
874.779	387.33
875.161	380.97
875.542	398.06
875.923	393.54
876.304	391.56
876.685	389.45
877.066	398.62
877.447	368.4
877.828	385.77
878.208	372.22
878.589	379.84
878.97	393.54
879.35	394.11
879.731	388.6
880.111	380.55
880.491	399.47
880.872	392.98
881.252	408.79
881.632	384.93
882.012	401.73
882.392	379.14
882.772	377.16
883.152	407.52
883.532	387.75
883.912	389.3
884.291	392.84
884.671	408.51
885.051	395.24
885.43	377.02
885.81	384.64
886.189	390.01
886.568	407.66
886.948	385.63
887.327	395.8
887.706	401.17
888.085	395.66
888.464	377.58
888.843	398.2
889.222	394.95
889.601	390.29
889.979	381.4
890.358	391.42
890.737	378.43
891.115	381.68
891.494	380.27
891.872	395.8
892.25	374.19
892.629	391.42
893.007	392.41
893.385	382.67
893.763	410.34
894.141	409.07
894.519	395.52
894.897	394.11
895.275	396.93
895.653	402.3
896.03	394.53
896.408	405.97
896.786	396.65
897.163	403.14
897.541	389.02
897.918	379.84
898.295	393.26
898.673	381.68
899.05	384.93
899.427	421.07
899.804	391.28
900.181	398.91
900.558	405.97
900.935	393.54
901.312	386.34
901.688	398.77
902.065	399.9
902.442	385.49
902.818	391
903.195	402.01
903.571	396.51
903.947	382.95
904.324	396.65
904.7	398.2
905.076	380.41
905.452	370.94
905.828	380.69
906.204	401.17
906.58	386.9
906.956	382.67
907.331	382.38
907.707	389.02
908.083	391.42
908.458	395.24
908.834	391
909.209	362.61
909.585	381.4
909.96	397.5
910.335	392.69
910.71	394.25
911.086	382.53
911.461	387.05
911.836	385.77
912.21	389.02
912.585	392.84
912.96	380.13
913.335	388.6
913.709	386.9
914.084	399.33
914.459	370.66
914.833	392.41
915.207	367.41
915.582	396.93
915.956	386.48
916.33	379.84
916.704	375.18
917.078	389.45
917.452	388.32
917.826	379.56
918.2	395.38
918.574	391.28
918.948	376.03
919.321	364.31
919.695	372.78
920.068	392.27
920.442	383.51
920.815	384.22
921.189	371.65
921.562	378.85
921.935	381.82
922.308	393.4
922.681	382.81
923.054	381.96
923.427	383.8
923.8	381.26
924.173	378.71
924.546	391.71
924.919	397.07
925.291	394.67
925.664	375.89
926.036	392.69
926.409	390.58
926.781	385.07
927.153	381.4
927.526	374.19
927.898	397.21
928.27	387.05
928.642	394.81
929.014	386.48
929.386	392.84
929.758	388.46
930.129	380.27
930.501	392.84
930.873	382.1
931.244	402.58
931.616	388.32
931.987	393.82
932.359	391
932.73	387.75
933.101	393.68
933.472	397.5
933.843	390.58
934.214	385.35
934.585	387.61
934.956	383.09
935.327	373.35
935.698	380.97
936.069	390.86
936.439	386.62
936.81	389.45
937.18	399.9
937.551	378.57
937.921	386.2
938.292	384.36
938.662	382.1
939.032	380.27
939.402	384.64
939.772	384.36
940.142	399.75
940.512	383.23
940.882	387.47
941.252	391
941.621	381.26
941.991	384.64
942.361	376.31
942.73	372.78
943.1	386.76
943.469	362.19
943.838	421.5
944.208	393.54
944.577	380.97
944.946	379
945.315	379
945.684	369.53
946.053	385.92
946.422	389.16
946.791	387.33
947.159	380.41
947.528	370.52
947.897	391.71
948.265	380.69
948.634	381.26
949.002	390.29
949.371	380.69
949.739	398.48
950.107	391.71
950.475	384.64
950.843	387.75
951.211	392.98
951.579	395.94
951.947	356.54
952.315	389.73
952.683	388.46
953.05	376.59
953.418	378.57
953.785	379.98
954.153	378.01
954.52	389.45
954.888	387.19
955.255	372.92
955.622	380.13
955.989	392.69
956.356	381.26
956.723	387.47
957.09	399.9
957.457	388.32
957.824	382.67
958.191	386.06
958.557	403.57
958.924	384.93
959.291	390.72
959.657	384.93
960.023	391.85
960.39	378.01
960.756	378.01
961.122	383.51
961.488	388.74
961.855	381.26
962.221	381.26
962.586	382.24
962.952	391
963.318	384.64
963.684	384.36
964.05	403.43
964.415	387.61
964.781	381.26
965.146	379.42
965.512	380.41
965.877	380.69
966.242	371.09
966.608	379.84
966.973	373.91
967.338	393.26
967.703	387.47
968.068	372.92
968.433	381.82
968.797	388.18
969.162	376.59
969.527	377.87
969.891	372.36
970.256	379.28
970.62	390.86
970.985	383.37
971.349	386.06
971.714	369.53
972.078	367.41
972.442	394.39
972.806	376.17
973.17	369.96
973.534	385.92
973.898	360.63
974.262	384.79
974.625	374.19
974.989	387.47
975.353	379.7
975.716	377.3
976.08	389.87
976.443	407.38
976.806	381.96
977.17	367.7
977.533	390.29
977.896	387.19
978.259	380.27
978.622	395.38
978.985	386.34
979.348	379
979.711	377.16
980.073	386.2
980.436	366.42
980.799	398.34
981.161	381.26
981.524	391.42
981.886	390.01
982.248	384.22
982.611	380.55
982.973	373.91
983.335	386.34
983.697	392.55
984.059	383.09
984.421	384.36
984.783	367.27
985.145	389.59
985.506	379.42
985.868	387.05
986.23	379.98
986.591	378.71
986.953	387.19
987.314	384.22
987.675	376.31
988.037	607.59
988.398	401.73
988.759	382.67
989.12	383.37
989.481	366.99
989.842	391.56
990.203	391.28
990.564	382.24
990.924	380.13
991.285	648.7
991.646	392.98
992.006	384.79
992.367	378.71
992.727	379.7
993.087	377.3
993.448	365.29
993.808	378.15
994.168	379.56
994.528	372.64
994.888	360.49
995.248	396.51
995.608	379.42
995.967	379.98
996.327	384.64
996.687	388.46
997.046	358.09
997.406	371.93
997.765	367.84
998.125	365.44
998.484	370.52
998.843	388.18
999.202	379.84
999.561	388.88
999.92	381.96
1000.279	378.01
1000.638	377.02
1000.997	369.53
1001.356	370.38
1001.715	379.42
1002.073	384.64
1002.432	392.27
1002.79	383.94
1003.149	378.43
1003.507	379.56
1003.865	387.75
1004.224	379.28
1004.582	367.7
1004.94	383.37
1005.298	395.94
1005.656	381.54
1006.014	390.58
1006.371	401.31
1006.729	383.51
1007.087	377.87
1007.445	388.03
1007.802	371.37
1008.16	380.83
1008.517	366
1008.874	366.85
1009.232	367.7
1009.589	395.24
1009.946	359.08
1010.303	372.36
1010.66	373.91
1011.017	385.49
1011.374	385.77
1011.731	378.57
1012.087	362.61
1012.444	378.43
1012.801	391.85
1013.157	377.3
1013.513	378.71
1013.87	382.24
1014.226	384.93
1014.582	379.84
1014.939	373.06
1015.295	369.11
1015.651	372.78
1016.007	382.81
1016.363	386.62
1016.719	388.6
1017.074	386.48
1017.43	386.76
1017.786	376.88
1018.141	378.29
1018.497	375.75
1018.852	388.18
1019.208	373.49
1019.563	373.77
1019.918	388.03
1020.273	370.52
1020.628	357.81
1020.983	382.67
1021.338	376.17
1021.693	377.02
1022.048	370.8
1022.403	385.21
1022.757	370.66
1023.112	379
1023.467	389.73
1023.821	386.48
1024.175	380.97
1024.53	391.71
1024.884	379.84
1025.238	384.22
1025.592	361.9
1025.946	356.39
1026.3	375.04
1026.654	384.36
1027.008	383.23
1027.362	373.63
1027.716	365.86
1028.069	361.9
1028.423	362.75
1028.777	377.58
1029.13	365.72
1029.483	368.83
1029.837	384.36
1030.19	377.58
1030.543	385.07
1030.896	375.61
1031.249	379.84
1031.602	370.8
1031.955	383.23
1032.308	379.56
1032.661	389.3
1033.013	389.87
1033.366	385.92
1033.719	367.7
1034.071	386.48
1034.424	373.2
1034.776	372.78
1035.128	380.13
1035.48	372.92
1035.833	382.24
1036.185	380.27
1036.537	380.27
1036.889	380.27
