Data from NOL11_short_2_FLMS019251_15-59-08-015.txt Node
Date: Thu Feb 14 15:59:08 CET 2019
User: luk
Spectrometer: FLMS01925
Trigger mode: 0
Integration Time (sec): 1.200000E1
Scans to average: 1
Electric dark correction enabled: true
Nonlinearity correction enabled: true
Boxcar width: 0
XAxis mode: Wavelengths
Number of Pixels in Spectrum: 2048
>>>>>Begin Spectral Data<<<<<
187.103	-1292.16
187.574	-1292.16
188.045	-1292.16
188.516	-1483.13
188.987	1031.62
189.458	56.41
189.929	-624.79
190.4	249.08
190.871	-213.61
191.342	-684.95
191.813	-538.94
192.284	852.19
192.754	-487.47
193.225	-159.52
193.696	-270.58
194.166	64.92
194.637	559.69
195.107	1026.02
195.578	149.97
196.048	299.99
196.518	-304.78
196.989	-40.11
197.459	348.05
197.929	-324.74
198.399	2298.23
198.869	384.78
199.339	565.33
199.809	675.14
200.279	1695.25
200.749	463.82
201.219	212.28
201.689	359.35
202.159	81.94
202.628	138.64
203.098	528.69
203.568	2.48
204.037	692.02
204.507	283.02
204.976	891.48
205.445	-25.91
205.915	135.8
206.384	39.38
206.853	-71.37
207.323	-54.32
207.792	110.29
208.261	115.96
208.73	152.8
209.199	1151.95
209.668	565.33
210.137	1090.41
210.606	254.74
211.075	717.33
211.543	1098.8
212.012	804.45
212.481	-162.37
212.95	203.79
213.418	1667.48
213.887	773.55
214.355	1165.93
214.824	274.54
215.292	-48.64
215.76	-136.76
216.229	-74.21
216.697	181.13
217.165	435.6
217.633	302.82
218.101	810.07
218.569	7688.68
219.037	444.07
219.505	2160.33
219.973	855
220.441	98.95
220.909	432.78
221.377	1126.78
221.844	776.36
222.312	138.64
222.78	302.82
223.247	463.82
223.715	-190.83
224.182	539.96
224.65	767.93
225.117	1185.49
225.584	393.25
226.052	271.71
226.519	398.9
226.986	217.94
227.453	226.44
227.92	393.25
228.387	1196.67
228.854	260.39
229.321	-182.29
229.788	680.77
230.255	972.79
230.722	1082.02
231.189	787.6
231.655	81.94
232.122	728.58
232.589	39.38
233.055	25.19
233.522	1709.13
233.988	-85.58
234.454	739.82
234.921	683.58
235.387	1667.48
235.853	266.05
236.32	-17.39
236.786	-51.48
237.252	33.71
237.718	2143.77
238.184	339.57
238.65	390.43
239.116	266.05
239.582	647
240.047	-176.6
240.513	787.6
240.979	458.18
241.445	-170.91
241.91	5.32
242.376	-68.53
242.841	989.61
243.307	62.08
243.772	13.84
244.238	-51.48
244.703	759.5
245.168	274.54
245.633	525.87
246.099	-199.37
246.564	175.47
247.029	717.33
247.494	-216.45
247.959	118.8
248.424	33.71
248.889	-239.24
249.353	1244.16
249.818	381.95
250.283	16.68
250.748	-25.91
251.212	342.4
251.677	-79.9
252.141	472.29
252.606	497.67
253.07	-8.87
253.535	118.8
253.999	-276.28
254.463	-94.11
254.927	-247.78
255.392	345.22
255.856	582.23
256.32	206.62
256.784	-65.69
257.248	616.03
257.712	599.13
258.176	2221.04
258.64	215.11
259.103	198.12
259.567	118.8
260.031	-77.05
260.495	779.17
260.958	1269.29
261.422	260.39
261.885	271.71
262.349	-40.11
262.812	-162.37
263.275	200.96
263.739	573.78
264.202	556.87
264.665	621.66
265.128	500.49
265.591	472.29
266.054	178.3
266.517	941.96
266.98	138.64
267.443	-153.83
267.906	-207.91
268.369	-77.05
268.832	384.78
269.294	-57.16
269.757	367.83
270.22	-242.09
270.682	407.37
271.145	776.36
271.607	178.3
272.07	2595.3
272.532	-3.19
272.994	263.22
273.456	793.22
273.919	6900.14
274.381	-91.27
274.843	1620.25
275.305	1216.23
275.767	22.36
276.229	714.52
276.691	748.26
277.153	22.36
277.614	562.51
278.076	-116.86
278.538	458.18
279	203.79
279.461	36.55
279.923	2405.63
280.384	-8.87
280.846	-85.58
281.307	-71.37
281.769	198.12
282.23	576.6
282.691	1322.31
283.152	-11.71
283.613	-156.68
284.075	-199.37
284.536	697.64
284.997	141.47
285.458	-54.32
285.918	-233.54
286.379	435.6
286.84	1514.57
287.301	-85.58
287.762	11
288.222	124.47
288.683	90.44
289.143	183.96
289.604	158.47
290.064	274.54
290.525	257.56
290.985	2350.57
291.445	384.78
291.906	-99.79
292.366	-45.8
292.826	-71.37
293.286	508.95
293.746	155.64
294.206	582.23
294.666	432.78
295.126	703.27
295.586	-99.79
296.046	-378.94
296.506	559.69
296.965	857.8
297.425	-233.54
297.884	1327.89
298.344	387.6
298.804	981.2
299.263	155.64
299.722	254.74
300.182	-60
300.641	-239.24
301.1	-196.52
301.559	438.42
302.019	-23.07
302.478	348.05
302.937	263.22
303.396	325.44
303.855	3129
304.314	381.95
304.772	5344.47
305.231	-68.53
305.69	93.28
306.149	711.71
306.607	-54.32
307.066	697.64
307.524	1202.26
307.983	599.13
308.441	944.76
308.9	2138.25
309.358	285.85
309.816	2800.97
310.275	36.55
310.733	-259.18
311.191	359.35
311.649	762.31
312.107	1009.22
312.565	-62.84
313.023	-11.71
313.481	-54.32
313.939	-11.71
314.397	-23.07
314.854	299.99
315.312	325.44
315.77	835.34
316.227	-168.06
316.685	-173.75
317.142	-182.29
317.6	1174.31
318.057	708.89
318.514	333.92
318.972	217.94
319.429	1023.22
319.886	192.46
320.343	166.97
320.8	-6.03
321.257	215.11
321.714	1408.75
322.171	1842.27
322.628	200.96
323.085	79.1
323.542	-270.58
323.998	101.79
324.455	-165.21
324.912	365
325.368	104.62
325.825	1700.8
326.281	251.91
326.738	829.73
327.194	118.8
327.65	469.46
328.107	-153.83
328.563	237.76
329.019	1244.16
329.475	152.8
329.931	554.06
330.387	666.7
330.843	-310.48
331.299	627.29
331.755	-250.63
332.211	70.59
332.666	59.24
333.122	-196.52
333.578	458.18
334.033	-20.23
334.489	745.45
334.944	-210.76
335.4	2872.15
335.855	1545.18
336.31	-40.11
336.766	-31.59
337.221	198.12
337.676	-88.42
338.131	638.55
338.586	801.65
339.041	186.8
339.496	1422.68
339.951	356.53
340.406	350.87
340.861	98.95
341.316	226.44
341.771	492.03
342.225	-45.8
342.68	613.21
343.134	127.3
343.589	556.87
344.043	446.89
344.498	376.3
344.952	435.6
345.406	7573.71
345.861	-102.64
346.315	-222.15
346.769	22.36
347.223	16.68
347.677	-65.69
348.131	-247.78
348.585	-170.91
349.039	172.64
349.493	141.47
349.947	260.39
350.401	181.13
350.854	-196.52
351.308	1894.91
351.762	-262.03
352.215	1341.84
352.669	-230.69
353.122	-179.44
353.575	-128.23
354.029	285.85
354.482	-96.95
354.935	737.01
355.388	767.93
355.842	922.33
356.295	570.96
356.748	-187.98
357.201	124.47
357.654	725.77
358.106	-25.91
358.559	-216.45
359.012	-85.58
359.465	59.24
359.917	829.73
360.37	-185.14
360.823	121.63
361.275	930.74
361.728	333.92
362.18	463.82
362.632	883.06
363.085	-185.14
363.537	124.47
363.989	-45.8
364.441	115.96
364.893	-91.27
365.345	-139.61
365.797	-321.89
366.249	455.36
366.701	-227.84
367.153	81.94
367.605	-225
368.057	8.16
368.508	-74.21
368.96	-179.44
369.411	101.79
369.863	610.4
370.314	1403.18
370.766	520.23
371.217	435.6
371.669	348.05
372.12	1886.6
372.571	838.15
373.022	-185.14
373.473	514.59
373.924	888.67
374.375	203.79
374.826	706.08
375.277	149.97
375.728	-23.07
376.179	19.52
376.63	115.96
377.08	-170.91
377.531	-153.83
377.981	-316.19
378.432	972.79
378.883	2165.85
379.333	511.77
379.783	237.76
380.234	192.46
380.684	62.08
381.134	644.18
381.584	559.69
382.034	1380.88
382.485	523.05
382.935	-40.11
383.385	1107.2
383.834	-91.27
384.284	263.22
384.734	-210.76
385.184	666.7
385.634	130.13
386.083	911.11
386.533	186.8
386.982	627.29
387.432	933.55
387.881	-222.15
388.331	53.57
388.78	1422.68
389.229	164.14
389.679	-390.36
390.128	913.92
390.577	240.59
391.026	-40.11
391.475	-296.23
391.924	-207.91
392.373	-390.36
392.822	-85.58
393.27	936.35
393.719	-71.37
394.168	-156.68
394.617	466.64
395.065	-381.8
395.514	793.22
395.962	899.89
396.411	-250.63
396.859	-233.54
397.307	1277.66
397.756	480.75
398.204	-173.75
398.652	1213.43
399.1	311.3
399.548	-165.21
399.996	2215.52
400.444	635.74
400.892	-3.19
401.34	-119.7
401.788	45.06
402.236	-310.48
402.683	-193.68
403.131	624.48
403.579	446.89
404.026	-418.91
404.474	-378.94
404.921	302.82
405.369	-290.53
405.816	-45.8
406.263	-159.52
406.71	601.95
407.158	-48.64
407.605	-319.04
408.052	-162.37
408.499	877.45
408.946	525.87
409.393	121.63
409.84	70.59
410.286	-213.61
410.733	449.71
411.18	-68.53
411.626	855
412.073	469.46
412.52	226.44
412.966	1403.18
413.413	144.3
413.859	155.64
414.305	215.11
414.752	30.87
415.198	-179.44
415.644	624.48
416.09	285.85
416.536	-77.05
416.982	319.78
417.428	683.58
417.874	-284.83
418.32	-165.21
418.766	655.44
419.211	-17.39
419.657	33.71
420.103	-339
420.548	356.53
420.994	472.29
421.439	-102.64
421.885	76.26
422.33	-17.39
422.776	288.68
423.221	1692.47
423.666	195.29
424.111	523.05
424.556	1121.18
425.001	407.37
425.446	-185.14
425.891	-227.84
426.336	390.43
426.781	3208.08
427.226	149.97
427.671	53.57
428.115	-225
428.56	508.95
429.005	1450.54
429.449	226.44
429.894	370.65
430.338	2419.39
430.782	860.61
431.227	200.96
431.671	483.57
432.115	314.13
432.559	-296.23
433.003	401.72
433.447	-133.92
433.891	-54.32
434.335	528.69
434.779	-219.3
435.223	835.34
435.667	328.27
436.111	1928.13
436.554	-150.99
436.998	223.6
437.442	30.87
437.885	195.29
438.328	155.64
438.772	149.97
439.215	-94.11
439.659	455.36
440.102	249.08
440.545	573.78
440.988	28.03
441.431	-356.12
441.874	384.78
442.317	172.64
442.76	76.26
443.203	-34.43
443.646	-128.23
444.089	415.84
444.531	101.79
444.974	8.16
445.417	838.15
445.859	1084.81
446.302	331.09
446.744	-247.78
447.186	500.49
447.629	1014.82
448.071	-267.73
448.513	599.13
448.956	384.78
449.398	554.06
449.84	630.11
450.282	1154.74
450.724	-77.05
451.166	47.9
451.607	2350.57
452.049	161.3
452.491	604.77
452.933	1065.22
453.374	2149.29
453.816	1098.8
454.257	683.58
454.699	885.86
455.14	722.96
455.582	967.19
456.023	305.65
456.464	311.3
456.905	964.39
457.347	1670.26
457.788	-122.54
458.229	-321.89
458.67	254.74
459.111	-159.52
459.552	523.05
459.992	147.14
460.433	1090.41
460.874	-193.68
461.315	240.59
461.755	1177.11
462.196	-77.05
462.636	590.68
463.077	630.11
463.517	807.26
463.957	-96.95
464.398	-341.85
464.838	689.21
465.278	76.26
465.718	-284.83
466.158	226.44
466.598	596.32
467.038	13.84
467.478	1397.6
467.918	-25.91
468.358	1403.18
468.798	843.77
469.237	-136.76
469.677	-330.44
470.117	984
470.556	517.41
470.996	967.19
471.435	-196.52
471.874	-242.09
472.314	-199.37
472.753	-60
473.192	-122.54
473.631	25.19
474.07	-304.78
474.509	158.47
474.948	-207.91
475.387	-199.37
475.826	1143.56
476.265	-153.83
476.704	-116.86
477.143	787.6
477.581	1833.95
478.02	891.48
478.458	655.44
478.897	1185.49
479.335	444.07
479.774	576.6
480.212	647
480.65	-88.42
481.089	-79.9
481.527	638.55
481.965	-94.11
482.403	-142.45
482.841	45.06
483.279	297.17
483.717	880.25
484.155	-321.89
484.592	316.96
485.03	444.07
485.468	520.23
485.905	325.44
486.343	483.57
486.781	686.39
487.218	514.59
487.655	115.96
488.093	-88.42
488.53	-122.54
488.967	19.52
489.405	458.18
489.842	209.45
490.279	1833.95
490.716	1478.39
491.153	466.64
491.59	215.11
492.027	-0.35
492.463	-11.71
492.9	203.79
493.337	531.51
493.773	115.96
494.21	720.14
494.647	483.57
495.083	115.96
495.519	624.48
495.956	260.39
496.392	669.51
496.828	494.85
497.265	101.79
497.701	249.08
498.137	-65.69
498.573	-148.14
499.009	703.27
499.445	47.9
499.881	189.63
500.316	288.68
500.752	-236.39
501.188	452.53
501.624	-57.16
502.059	370.65
502.495	1054.02
502.93	130.13
503.366	16451.29
503.801	229.27
504.236	-20.23
504.672	672.33
505.107	79.1
505.542	274.54
505.977	-347.56
506.412	621.66
506.847	130.13
507.282	-230.69
507.717	-102.64
508.152	413.02
508.587	166.97
509.021	796.03
509.456	-31.59
509.891	-54.32
510.325	-131.08
510.76	70.59
511.194	-193.68
511.628	192.46
512.063	542.78
512.497	113.13
512.931	-119.7
513.366	2.48
513.8	229.27
514.234	234.93
514.668	-139.61
515.102	-324.74
515.536	-301.93
515.969	1299.99
516.403	25.19
516.837	1079.22
517.271	1121.18
517.704	107.46
518.138	593.5
518.571	67.76
519.005	1040.03
519.438	-23.07
519.871	28.03
520.305	1188.29
520.738	53.57
521.171	565.33
521.604	1157.54
522.037	840.96
522.47	2016.67
522.903	415.84
523.336	223.6
523.769	607.58
524.202	339.57
524.634	115.96
525.067	-299.08
525.5	87.61
525.932	2471.65
526.365	1280.46
526.797	141.47
527.23	-20.23
527.662	494.85
528.094	1115.59
528.527	138.64
528.959	-125.39
529.391	1750.76
529.823	455.36
530.255	70.59
530.687	969.99
531.119	427.13
531.551	585.05
531.982	-131.08
532.414	683.58
532.846	1825.64
533.277	-99.79
533.709	-247.78
534.14	90.44
534.572	367.83
535.003	556.87
535.435	390.43
535.866	796.03
536.297	-196.52
536.728	1165.93
537.159	413.02
537.59	-11.71
538.022	446.89
538.452	2052.61
538.883	1054.02
539.314	480.75
539.745	-378.94
540.176	1143.56
540.606	339.57
541.037	373.48
541.468	33.71
541.898	144.3
542.328	5.32
542.759	995.21
543.189	387.6
543.619	-42.96
544.05	1330.68
544.48	-40.11
544.91	599.13
545.34	751.07
545.77	418.66
546.2	322.61
546.63	1177.11
547.06	432.78
547.489	941.96
547.919	-293.38
548.349	328.27
548.778	627.29
549.208	-216.45
549.637	232.1
550.067	756.69
550.496	444.07
550.926	271.71
551.355	36.55
551.784	-205.06
552.213	-253.48
552.642	192.46
553.071	444.07
553.5	390.43
553.929	-407.49
554.358	-150.99
554.787	-88.42
555.216	192.46
555.645	497.67
556.073	288.68
556.502	212.28
556.93	-461.75
557.359	-236.39
557.787	-128.23
558.216	-176.6
558.644	234.93
559.072	-45.8
559.5	-102.64
559.929	359.35
560.357	384.78
560.785	461
561.213	843.77
561.641	669.51
562.068	1559.09
562.496	-60
562.924	178.3
563.352	302.82
563.779	203.79
564.207	195.29
564.634	-71.37
565.062	376.3
565.489	601.95
565.917	115.96
566.344	-239.24
566.771	-179.44
567.198	390.43
567.625	-461.75
568.053	-421.76
568.48	285.85
568.907	-296.23
569.333	446.89
569.76	-28.75
570.187	36.55
570.614	401.72
571.04	65745.53
571.467	18000.92
571.894	885.86
572.32	271.71
572.747	503.31
573.173	714.52
573.599	531.51
574.026	1087.61
574.452	1012.02
574.878	356.53
575.304	429.96
575.73	42.22
576.156	96.12
576.582	36.55
577.008	79.1
577.434	-230.69
577.86	36.55
578.285	101.79
578.711	-148.14
579.137	410.19
579.562	506.13
579.988	-256.33
580.413	483.57
580.838	-247.78
581.264	-233.54
581.689	432.78
582.114	717.33
582.539	22431.12
582.964	694.83
583.39	1165.93
583.814	-102.64
584.239	384.78
584.664	-11.71
585.089	96.12
585.514	1333.47
585.939	978.4
586.363	387.6
586.788	753.88
587.212	16.68
587.637	73.43
588.061	161.3
588.485	-131.08
588.91	-213.61
589.334	203.79
589.758	1126.78
590.182	869.03
590.606	130.13
591.03	1216.23
591.454	804.45
591.878	93.28
592.302	-225
592.726	2254.13
593.15	144.3
593.573	11
593.997	1171.52
594.42	-410.34
594.844	-159.52
595.267	13.84
595.691	70.59
596.114	-253.48
596.537	438.42
596.96	432.78
597.384	67.76
597.807	28.03
598.23	545.6
598.653	686.39
599.076	-376.09
599.499	348.05
599.921	-182.29
600.344	-279.13
600.767	742.64
601.189	1051.23
601.612	-230.69
602.034	-361.82
602.457	373.48
602.879	5259.16
603.302	158.47
603.724	398.9
604.146	-301.93
604.568	-71.37
604.991	370.65
605.413	-293.38
605.835	689.21
606.257	175.47
606.678	-179.44
607.1	798.84
607.522	322.61
607.944	2052.61
608.365	835.34
608.787	-91.27
609.209	2041.55
609.63	-68.53
610.051	-324.74
610.473	348.05
610.894	291.51
611.315	-307.63
611.737	1112.79
612.158	-74.21
612.579	-276.28
613	3199.91
613.421	-25.91
613.842	1453.32
614.263	846.57
614.683	-31.59
615.104	172.64
615.525	1235.78
615.945	299.99
616.366	-441.76
616.787	919.53
617.207	-85.58
617.627	-111.17
618.048	-23.07
618.468	-85.58
618.888	-153.83
619.308	-501.76
619.728	169.8
620.148	-373.24
620.568	508.95
620.988	1756.31
621.408	155.64
621.828	-145.3
622.248	480.75
622.668	675.14
623.087	745.45
623.507	-247.78
623.926	-34.43
624.346	209.45
624.765	590.68
625.185	-111.17
625.604	-74.21
626.023	-3.19
626.442	-153.83
626.861	1177.11
627.28	-170.91
627.699	-381.8
628.118	-339
628.537	130.13
628.956	1595.23
629.375	804.45
629.794	322.61
630.212	700.46
630.631	1160.33
631.049	-3.19
631.468	616.03
631.886	-85.58
632.305	821.3
632.723	-190.83
633.141	-99.79
633.559	-125.39
633.978	-301.93
634.396	978.4
634.814	525.87
635.232	181.13
635.65	240.59
636.067	446.89
636.485	115.96
636.903	-404.63
637.321	-225
637.738	2347.82
638.156	33.71
638.573	-370.38
638.991	2011.14
639.408	1878.29
639.825	-173.75
640.243	1336.26
640.66	-193.68
641.077	565.33
641.494	435.6
641.911	1219.02
642.328	432.78
642.745	251.91
643.162	849.38
643.579	328.27
643.995	-34.43
644.412	2226.55
644.829	-34.43
645.245	-28.75
645.662	-196.52
646.078	-168.06
646.495	-179.44
646.911	76.26
647.327	1205.05
647.743	149.97
648.159	621.66
648.576	-364.68
648.992	989.61
649.408	166.97
649.824	-148.14
650.239	138.64
650.655	53.57
651.071	-116.86
651.487	641.37
651.902	183.96
652.318	-142.45
652.733	-310.48
653.149	-276.28
653.564	76.26
653.979	-119.7
654.395	-102.64
654.81	-54.32
655.225	-48.64
655.64	47.9
656.055	919.53
656.47	348.05
656.885	-199.37
657.3	-270.58
657.715	1811.78
658.13	147.14
658.544	387.6
658.959	-438.9
659.374	-227.84
659.788	796.03
660.202	-225
660.617	2016.67
661.031	45.06
661.445	663.88
661.86	-256.33
662.274	1283.25
662.688	1090.41
663.102	-48.64
663.516	1341.84
663.93	271.71
664.344	652.63
664.758	427.13
665.171	2.48
665.585	118.8
665.999	115.96
666.412	-99.79
666.826	663.88
667.239	1037.23
667.653	-176.6
668.066	-210.76
668.479	1177.11
668.892	-259.18
669.306	2.48
669.719	232.1
670.132	305.65
670.545	-125.39
670.958	-68.53
671.37	152.8
671.783	-347.56
672.196	866.22
672.609	-242.09
673.021	421.49
673.434	-199.37
673.846	-182.29
674.259	-447.47
674.671	-333.3
675.084	-216.45
675.496	-142.45
675.908	19.52
676.32	-264.88
676.732	25.19
677.144	200.96
677.556	-353.26
677.968	-133.92
678.38	871.83
678.792	582.23
679.204	-71.37
679.615	1135.17
680.027	-23.07
680.439	-193.68
680.85	1059.62
681.262	1775.73
681.673	30.87
682.084	568.15
682.496	-14.55
682.907	523.05
683.318	192.46
683.729	8.16
684.14	96.12
684.551	121.63
684.962	28.03
685.373	-42.96
685.784	13.84
686.194	829.73
686.605	-190.83
687.016	288.68
687.426	124.47
687.837	-296.23
688.247	-330.44
688.657	-148.14
689.068	56.41
689.478	-259.18
689.888	-259.18
690.298	-48.64
690.708	-225
691.118	-60
691.528	-239.24
691.938	203.79
692.348	-71.37
692.758	-244.93
693.168	206.62
693.577	579.42
693.987	64.92
694.396	217.94
694.806	-273.43
695.215	5.32
695.625	254.74
696.034	477.93
696.443	-410.34
696.852	1023.22
697.262	-148.14
697.671	-244.93
698.08	254.74
698.489	121.63
698.897	42.22
699.306	-213.61
699.715	-142.45
700.124	33.71
700.532	-293.38
700.941	212.28
701.35	-119.7
701.758	1806.23
702.166	-230.69
702.575	237.76
702.983	-413.2
703.391	254.74
703.799	132.97
704.208	166.97
704.616	-316.19
705.024	978.4
705.432	429.96
705.839	-310.48
706.247	1090.41
706.655	2160.33
707.063	30.87
707.47	-168.06
707.878	-356.12
708.285	25.19
708.693	-37.27
709.1	274.54
709.508	-313.33
709.915	-71.37
710.322	576.6
710.729	3167.19
711.136	220.77
711.543	-114.01
711.95	13.84
712.357	675.14
712.764	59.24
713.171	5.32
713.578	104.62
713.984	232.1
714.391	-225
714.797	-330.44
715.204	130.13
715.61	874.64
716.017	-199.37
716.423	520.23
716.829	477.93
717.236	79.1
717.642	-91.27
718.048	1104.4
718.454	770.74
718.86	367.83
719.266	2587.06
719.671	-196.52
720.077	641.37
720.483	-62.84
720.889	1205.05
721.294	-356.12
721.7	-94.11
722.105	115.96
722.511	-148.14
722.916	477.93
723.321	183.96
723.726	1135.17
724.132	-74.21
724.537	421.49
724.942	587.87
725.347	384.78
725.752	172.64
726.156	101.79
726.561	62.08
726.966	449.71
727.371	866.22
727.775	835.34
728.18	-225
728.584	-421.76
728.989	8.16
729.393	2937.8
729.798	36.55
730.202	919.53
730.606	-37.27
731.01	19.52
731.414	36.55
731.818	-273.43
732.222	829.73
732.626	2.48
733.03	263.22
733.434	-244.93
733.837	601.95
734.241	11
734.645	-233.54
735.048	-290.53
735.452	158.47
735.855	-193.68
736.258	81.94
736.662	1639.7
737.065	1394.81
737.468	916.72
737.871	229.27
738.274	801.65
738.677	98.95
739.08	30.87
739.483	198.12
739.886	531.51
740.289	950.37
740.691	-88.42
741.094	-424.62
741.497	-142.45
741.899	1168.72
742.302	-244.93
742.704	-450.33
743.106	-71.37
743.508	-108.32
743.911	-327.59
744.313	50.73
744.715	-45.8
745.117	-122.54
745.519	-165.21
745.921	356.53
746.323	141.47
746.724	-447.47
747.126	-233.54
747.528	1327.89
747.929	-467.47
748.331	249.08
748.732	-270.58
749.134	-433.19
749.535	-396.07
749.936	1375.3
750.338	-122.54
750.739	1461.68
751.14	166.97
751.541	118.8
751.942	-6.03
752.343	-74.21
752.744	127.3
753.144	-71.37
753.545	135.8
753.946	266.05
754.346	-119.7
754.747	1739.66
755.148	3943.7
755.548	-105.48
755.948	-28.75
756.349	169.8
756.749	647
757.149	-250.63
757.549	1135.17
757.949	537.15
758.349	19.52
758.749	-28.75
759.149	-196.52
759.549	-25.91
759.949	-79.9
760.348	2218.28
760.748	192.46
761.148	-37.27
761.547	-156.68
761.947	-276.28
762.346	475.11
762.745	1575.77
763.145	246.25
763.544	277.37
763.943	455.36
764.342	-185.14
764.741	-34.43
765.14	-207.91
765.539	11
765.938	2038.79
766.336	-281.98
766.735	-202.22
767.134	-133.92
767.532	-344.7
767.931	76.26
768.329	2320.27
768.728	-91.27
769.126	203.79
769.525	1742.44
769.923	240.59
770.321	367.83
770.719	961.58
771.117	285.85
771.515	435.6
771.913	582.23
772.311	45.06
772.709	266.05
773.106	-279.13
773.504	-34.43
773.902	294.34
774.299	500.49
774.697	4086.86
775.094	339.57
775.491	-242.09
775.889	234.93
776.286	-353.26
776.683	-125.39
777.08	-350.41
777.477	-316.19
777.874	770.74
778.271	36.55
778.668	-116.86
779.065	-68.53
779.462	367.83
779.858	232.1
780.255	1221.82
780.652	285.85
781.048	1347.42
781.444	141.47
781.841	-233.54
782.237	266.05
782.633	-193.68
783.03	-464.61
783.426	-193.68
783.822	-222.15
784.218	-23.07
784.614	-264.88
785.01	-6.03
785.405	206.62
785.801	45.06
786.197	-71.37
786.593	189.63
786.988	198.12
787.384	1003.62
787.779	-173.75
788.174	183.96
788.57	370.65
788.965	-79.9
789.36	-20.23
789.755	53.57
790.15	-256.33
790.545	2.48
790.94	-378.94
791.335	-478.9
791.73	-213.61
792.125	1405.96
792.52	520.23
792.914	483.57
793.309	-464.61
793.703	728.58
794.098	-219.3
794.492	692.02
794.887	8.16
795.281	1850.58
795.675	1160.33
796.069	1475.6
796.463	232.1
796.857	59.24
797.251	93.28
797.645	-281.98
798.039	492.03
798.433	-222.15
798.826	-284.83
799.22	50.73
799.614	299.99
800.007	169.8
800.401	345.22
800.794	-350.41
801.187	96.12
801.581	-114.01
801.974	472.29
802.367	902.7
802.76	-85.58
803.153	-473.18
803.546	-333.3
803.939	308.48
804.332	-310.48
804.725	-239.24
805.117	-91.27
805.51	832.54
805.903	-85.58
806.295	319.78
806.688	-316.19
807.08	-122.54
807.472	517.41
807.865	717.33
808.257	446.89
808.649	1042.83
809.041	130.13
809.433	725.77
809.825	2973.34
810.217	-102.64
810.609	237.76
811.001	463.82
811.392	-11.71
811.784	1056.82
812.175	36.55
812.567	511.77
812.958	618.85
813.35	81.94
813.741	-344.7
814.132	-40.11
814.524	56.41
814.915	-48.64
815.306	-125.39
815.697	-77.05
816.088	226.44
816.479	579.42
816.87	703.27
817.26	528.69
817.651	1955.81
818.042	669.51
818.432	271.71
818.823	745.45
819.213	336.74
819.604	-131.08
819.994	198.12
820.384	-418.91
820.775	551.24
821.165	-150.99
821.555	-62.84
821.945	-6.03
822.335	-262.03
822.725	888.67
823.114	64.92
823.504	-51.48
823.894	33.71
824.284	618.85
824.673	251.91
825.063	53.57
825.452	186.8
825.842	-77.05
826.231	2240.34
826.62	-131.08
827.009	748.26
827.399	711.71
827.788	-227.84
828.177	-205.06
828.566	969.99
828.954	3322.49
829.343	855
829.732	-14.55
830.121	2779.05
830.509	1881.06
830.898	-65.69
831.286	-37.27
831.675	528.69
832.063	846.57
832.452	-168.06
832.84	-507.48
833.228	1308.36
833.616	36.55
834.004	663.88
834.392	152.8
834.78	969.99
835.168	-165.21
835.556	1031.62
835.944	404.55
836.331	812.88
836.719	978.4
837.107	661.07
837.494	1087.61
837.881	-65.69
838.269	161.3
838.656	-230.69
839.043	-176.6
839.431	2402.88
839.818	-102.64
840.205	-153.83
840.592	483.57
840.979	-11.71
841.366	-264.88
841.752	-321.89
842.139	-96.95
842.526	76.26
842.912	647
843.299	53.57
843.685	720.14
844.072	130.13
844.458	624.48
844.844	135.8
845.231	-321.89
845.617	-299.08
846.003	237.76
846.389	79.1
846.775	-361.82
847.161	121.63
847.547	-111.17
847.933	-162.37
848.318	556.87
848.704	-438.9
849.09	-350.41
849.475	-199.37
849.861	832.54
850.246	107.46
850.631	1405.96
851.017	593.5
851.402	-114.01
851.787	596.32
852.172	1767.41
852.557	579.42
852.942	67.76
853.327	172.64
853.712	461
854.097	520.23
854.481	-187.98
854.866	217.94
855.25	-68.53
855.635	308.48
856.019	-25.91
856.404	-57.16
856.788	-205.06
857.172	-350.41
857.557	621.66
857.941	398.9
858.325	30.87
858.709	25.19
859.093	-170.91
859.477	-219.3
859.86	992.41
860.244	-213.61
860.628	1977.95
861.012	843.77
861.395	-8.87
861.779	-20.23
862.162	-0.35
862.545	-108.32
862.929	-88.42
863.312	677.95
863.695	-267.73
864.078	308.48
864.461	-216.45
864.844	424.31
865.227	1636.92
865.61	-136.76
865.993	-74.21
866.376	212.28
866.758	1104.4
867.141	1157.54
867.523	787.6
867.906	-85.58
868.288	381.95
868.671	461
869.053	-71.37
869.435	206.62
869.817	1355.78
870.199	-281.98
870.581	-77.05
870.963	263.22
871.345	717.33
871.727	503.31
872.109	-358.97
872.491	-28.75
872.872	480.75
873.254	5.32
873.635	-91.27
874.017	1578.55
874.398	84.77
874.779	919.53
875.161	-131.08
875.542	1045.63
875.923	50.73
876.304	-102.64
876.685	-96.95
877.066	62.08
877.447	-344.7
877.828	45.06
878.208	798.84
878.589	857.8
878.97	1411.54
879.35	-225
879.731	-88.42
880.111	-156.68
880.491	-202.22
880.872	616.03
881.252	-301.93
881.632	73.43
882.012	936.35
882.392	1076.42
882.772	1054.02
883.152	283.02
883.532	345.22
883.912	720.14
884.291	50.73
884.671	316.96
885.051	449.71
885.43	-17.39
885.81	-168.06
886.189	203.79
886.568	200.96
886.948	274.54
887.327	958.78
887.706	33.71
888.085	1603.57
888.464	398.9
888.843	2902.25
889.222	871.83
889.601	916.72
889.979	297.17
890.358	169.8
890.737	480.75
891.115	198.12
891.494	-96.95
891.872	-85.58
892.25	-162.37
892.629	1014.82
893.007	1817.32
893.385	413.02
893.763	-6.03
894.141	686.39
894.519	725.77
894.897	-60
895.275	232.1
895.653	-153.83
896.03	590.68
896.408	452.53
896.786	-71.37
897.163	101.79
897.541	67.76
897.918	1578.55
898.295	-293.38
898.673	-105.48
899.05	59.24
899.427	5200.48
899.804	-11.71
900.181	-96.95
900.558	1447.75
900.935	587.87
901.312	-239.24
901.688	-333.3
902.065	880.25
902.442	421.49
902.818	-213.61
903.195	-242.09
903.571	87.61
903.947	2.48
904.324	147.14
904.7	113.13
905.076	1603.57
905.452	-37.27
905.828	1165.93
906.204	212.28
906.58	-14.55
906.956	500.49
907.331	1753.54
907.707	1042.83
908.083	1196.67
908.458	500.49
908.834	79.1
909.209	16.68
909.585	576.6
909.96	683.58
910.335	5.32
910.71	-185.14
911.086	294.34
911.461	1129.58
911.836	147.14
912.21	-6.03
912.585	263.22
912.96	387.6
913.335	-23.07
913.709	-20.23
914.084	33.71
914.459	525.87
914.833	-51.48
915.207	-236.39
915.582	79.1
915.956	-185.14
916.33	39.38
916.704	-244.93
917.078	237.76
917.452	871.83
917.826	-356.12
918.2	-205.06
918.574	333.92
918.948	-339
919.321	-23.07
919.695	36.55
920.068	466.64
920.442	362.18
920.815	356.53
921.189	110.29
921.562	1861.67
921.935	986.81
922.308	-48.64
922.681	655.44
923.054	-42.96
923.427	1224.61
923.8	-45.8
924.173	866.22
924.546	-304.78
924.919	644.18
925.291	93.28
925.664	-88.42
926.036	110.29
926.409	-28.75
926.781	-20.23
927.153	328.27
927.526	1154.74
927.898	-156.68
928.27	130.13
928.642	-324.74
929.014	285.85
929.386	-250.63
929.758	-450.33
930.129	-62.84
930.501	1344.63
930.873	-176.6
931.244	285.85
931.616	-210.76
931.987	62.08
932.359	1037.23
932.73	429.96
933.101	345.22
933.472	283.02
933.843	941.96
934.214	1397.6
934.585	2.48
934.956	16.68
935.327	2811.92
935.698	333.92
936.069	661.07
936.439	1216.23
936.81	-131.08
937.18	739.82
937.551	22.36
937.921	1689.7
938.292	793.22
938.662	-45.8
939.032	773.55
939.402	59.24
939.772	593.5
940.142	-28.75
940.512	-25.91
940.882	-34.43
941.252	514.59
941.621	118.8
941.991	294.34
942.361	1017.62
942.73	314.13
943.1	-416.05
943.469	-176.6
943.838	1875.52
944.208	1210.64
944.577	-105.48
944.946	198.12
945.315	-279.13
945.684	-153.83
946.053	-62.84
946.422	251.91
946.791	-62.84
947.159	141.47
947.528	-222.15
947.897	722.96
948.265	-381.8
948.634	418.66
949.002	-353.26
949.371	-40.11
949.739	-321.89
950.107	401.72
950.475	-8.87
950.843	528.69
951.211	992.41
951.579	658.26
951.947	-239.24
952.315	288.68
952.683	-219.3
953.05	-77.05
953.418	1322.31
953.785	8.16
954.153	-119.7
954.52	308.48
954.888	638.55
955.255	-233.54
955.622	13.84
955.989	192.46
956.356	1467.25
956.723	-11.71
957.09	356.53
957.457	503.31
957.824	-122.54
958.191	-205.06
958.557	826.92
958.924	118.8
959.291	67.76
959.657	-153.83
960.023	3520.99
960.39	158.47
960.756	67.76
961.122	742.64
961.488	-74.21
961.855	130.13
962.221	-225
962.586	-270.58
962.952	1881.06
963.318	604.77
963.684	2726.99
964.05	1661.93
964.415	492.03
964.781	246.25
965.146	237.76
965.512	1778.5
965.877	753.88
966.242	113.13
966.608	398.9
966.973	274.54
967.338	73.43
967.703	927.94
968.068	-133.92
968.433	1344.63
968.797	2710.54
969.162	113.13
969.527	-23.07
969.891	-227.84
970.256	-102.64
970.62	-8.87
970.985	64.92
971.349	590.68
971.714	669.51
972.078	376.3
972.442	299.99
972.806	720.14
973.17	141.47
973.534	311.3
973.898	266.05
974.262	96.12
974.625	1151.95
974.989	33.71
975.353	1628.59
975.716	661.07
976.08	-153.83
976.443	-358.97
976.806	336.74
977.17	506.13
977.533	305.65
977.896	-17.39
978.259	209.45
978.622	5077.66
978.985	826.92
979.348	291.51
979.711	130.13
980.073	135.8
980.436	331.09
980.799	418.66
981.161	387.6
981.524	-233.54
981.886	132.97
982.248	73.43
982.611	240.59
982.973	135.8
983.335	101.79
983.697	477.93
984.059	429.96
984.421	90.44
984.783	-150.99
985.145	98.95
985.506	-193.68
985.868	76.26
986.23	53.57
986.591	-213.61
986.953	815.69
987.314	-219.3
987.675	-413.2
988.037	65745.53
988.398	19412.41
988.759	711.71
989.12	336.74
989.481	860.61
989.842	692.02
990.203	-42.96
990.564	-156.68
990.924	669.51
991.285	65745.53
991.646	17731.01
992.006	198.12
992.367	514.59
992.727	554.06
993.087	161.3
993.448	-153.83
993.808	96.12
994.168	-324.74
994.528	-333.3
994.888	305.65
995.248	537.15
995.608	-23.07
995.967	90.44
996.327	-213.61
996.687	308.48
997.046	-244.93
997.406	-60
997.765	-242.09
998.125	-307.63
998.484	-131.08
998.843	1656.37
999.202	506.13
999.561	-213.61
999.92	-361.82
1000.279	169.8
1000.638	-307.63
1000.997	-54.32
1001.356	-6.03
1001.715	-376.09
1002.073	127.3
1002.432	933.55
1002.79	-57.16
1003.149	-290.53
1003.507	815.69
1003.865	-142.45
1004.224	36.55
1004.582	528.69
1004.94	1070.82
1005.298	-79.9
1005.656	-79.9
1006.014	-79.9
1006.371	155.64
1006.729	-333.3
1007.087	1809.01
1007.445	601.95
1007.802	489.21
1008.16	-190.83
1008.517	415.84
1008.874	627.29
1009.232	-182.29
1009.589	5373.77
1009.946	638.55
1010.303	-116.86
1010.66	559.69
1011.017	263.22
1011.374	1528.48
1011.731	305.65
1012.087	-54.32
1012.444	-239.24
1012.801	350.87
1013.157	-470.32
1013.513	-99.79
1013.87	514.59
1014.226	331.09
1014.582	183.96
1014.939	-14.55
1015.295	135.8
1015.651	-262.03
1016.007	-279.13
1016.363	1171.52
1016.719	-236.39
1017.074	641.37
1017.43	-253.48
1017.786	582.23
1018.141	-8.87
1018.497	28.03
1018.852	444.07
1019.208	737.01
1019.563	11
1019.918	-324.74
1020.273	39.38
1020.628	254.74
1020.983	1372.51
1021.338	19.52
1021.693	666.7
1022.048	-170.91
1022.403	-336.15
1022.757	280.2
1023.112	302.82
1023.467	-196.52
1023.821	-333.3
1024.175	-119.7
1024.53	-287.68
1024.884	-253.48
1025.238	-88.42
1025.592	229.27
1025.946	-148.14
1026.3	-242.09
1026.654	-236.39
1027.008	-438.9
1027.362	249.08
1027.716	-65.69
1028.069	-225
1028.423	203.79
1028.777	-307.63
1029.13	-287.68
1029.483	587.87
1029.837	672.33
1030.19	-14.55
1030.543	-281.98
1030.896	-281.98
1031.249	381.95
1031.602	-301.93
1031.955	-14.55
1032.308	345.22
1032.661	1333.47
1033.013	-111.17
1033.366	-159.52
1033.719	81.94
1034.071	-68.53
1034.424	-96.95
1034.776	-262.03
1035.128	-133.92
1035.48	-267.73
1035.833	1330.68
1036.185	16.68
1036.537	16.68
1036.889	16.68
