Data from SCSF81_FLMS019251_18-20-17-681.txt Node
Date: Tue Feb 19 18:20:17 CET 2019
User: luk
Spectrometer: FLMS01925
Trigger mode: 0
Integration Time (sec): 2.743000E-2
Scans to average: 10
Electric dark correction enabled: true
Nonlinearity correction enabled: true
Boxcar width: 0
XAxis mode: Wavelengths
Number of Pixels in Spectrum: 2048
>>>>>Begin Spectral Data<<<<<
187.103	-58.32
187.574	-58.32
188.045	-58.32
188.516	-97.25
188.987	-87.3
189.458	-128.82
189.929	-101.23
190.4	-118.29
190.871	-81.34
191.342	-69.11
191.813	-56.61
192.284	-48.66
192.754	-18.26
193.225	24.89
193.696	16.38
194.166	36.53
194.637	70.86
195.107	73.69
195.578	114.81
196.048	128.42
196.518	155.9
196.989	167.24
197.459	192.16
197.929	238.02
198.399	277.07
198.869	305.35
199.339	287.82
199.809	311.57
200.279	332.2
200.749	320.61
201.219	343.23
201.689	341.53
202.159	379.96
202.628	370.35
203.098	376.57
203.568	409.33
204.037	396.34
204.507	425.7
204.976	413.56
205.445	400.58
205.915	407.35
206.384	377.13
206.853	410.18
207.323	426.27
207.792	413.28
208.261	404.53
208.73	408.48
209.199	396.06
209.668	421.47
210.137	400.01
210.606	400.29
211.075	390.97
211.543	406.79
212.012	392.95
212.481	407.92
212.95	396.62
213.418	396.06
213.887	374.03
214.355	367.25
214.824	375.72
215.292	360.75
215.76	368.66
216.229	382.22
216.697	374.87
217.165	350.29
217.633	357.92
218.101	370.07
218.569	364.99
219.037	340.97
219.505	372.61
219.973	349.73
220.441	371.77
220.909	342.66
221.377	358.77
221.844	357.07
222.312	374.59
222.78	344.08
223.247	347.47
223.715	357.92
224.182	337.86
224.65	334.47
225.117	345.21
225.584	366.96
226.052	340.4
226.519	335.88
226.986	344.64
227.453	365.83
227.92	381.37
228.387	387.3
228.854	365.55
229.321	377.98
229.788	382.78
230.255	359.9
230.722	370.35
231.189	405.66
231.655	371.2
232.122	397.19
232.589	353.4
233.055	376.85
233.522	384.76
233.988	370.92
234.454	362.16
234.921	389.28
235.387	373.74
235.853	355.1
236.32	364.7
236.786	377.13
237.252	393.51
237.718	356.51
238.184	370.35
238.65	331.36
239.116	373.74
239.582	381.37
240.047	359.33
240.513	392.1
240.979	356.23
241.445	382.22
241.91	360.46
242.376	373.18
242.841	382.78
243.307	363.29
243.772	369.51
244.238	392.67
244.703	380.24
245.168	375.72
245.633	362.72
246.099	368.66
246.564	376.57
247.029	380.24
247.494	366.68
247.959	378.83
248.424	372.33
248.889	392.1
249.353	377.7
249.818	367.53
250.283	392.95
250.748	394.64
251.212	414.98
251.677	353.97
252.141	382.5
252.606	362.72
253.07	399.45
253.535	372.9
253.999	401.99
254.463	371.48
254.927	376.85
255.392	383.06
255.856	401.14
256.32	374.31
256.784	360.18
257.248	401.14
257.712	364.7
258.176	393.23
258.64	392.67
259.103	401.7
259.567	384.19
260.031	377.7
260.495	389
260.958	373.46
261.422	363.29
261.885	374.59
262.349	368.66
262.812	378.83
263.275	370.92
263.739	393.8
264.202	385.04
264.665	385.61
265.128	414.13
265.591	400.86
266.054	399.16
266.517	389.56
266.98	382.22
267.443	396.06
267.906	400.01
268.369	414.98
268.832	388.15
269.294	416.11
269.757	400.58
270.22	398.03
270.682	398.6
271.145	350.86
271.607	410.46
272.07	396.9
272.532	379.96
272.994	401.42
273.456	409.89
273.919	419.49
274.381	403.96
274.843	392.67
275.305	385.32
275.767	396.06
276.229	392.1
276.691	364.14
277.153	398.32
277.614	413.28
278.076	388.43
278.538	389.28
279	397.19
279.461	399.16
279.923	383.35
280.384	391.26
280.846	394.36
281.307	393.8
281.769	386.45
282.23	401.7
282.691	414.98
283.152	380.24
283.613	388.15
284.075	394.93
284.536	401.99
284.997	400.86
285.458	377.13
285.918	392.1
286.379	394.93
286.84	390.69
287.301	394.36
287.762	409.33
288.222	387.58
288.683	379.68
289.143	385.04
289.604	392.67
290.064	405.94
290.525	387.3
290.985	400.29
291.445	412.72
291.906	395.21
292.366	434.45
292.826	397.47
293.286	403.4
293.746	403.96
294.206	396.34
294.666	414.98
295.126	402.55
295.586	389.56
296.046	407.07
296.506	383.35
296.965	401.7
297.425	415.82
297.884	409.33
298.344	394.64
298.804	429.37
299.263	389.84
299.722	418.65
300.182	409.33
300.641	422.6
301.1	389
301.559	401.7
302.019	412.43
302.478	438.69
302.937	394.93
303.396	398.03
303.855	416.39
304.314	428.81
304.772	395.77
305.231	417.23
305.69	397.75
306.149	410.18
306.607	420.9
307.066	400.29
307.524	456.75
307.983	425.99
308.441	427.96
308.9	426.55
309.358	424.57
309.816	408.2
310.275	399.16
310.733	416.39
311.191	417.8
311.649	398.03
312.107	427.12
312.565	435.02
313.023	392.67
313.481	400.29
313.939	422.88
314.397	395.49
314.854	428.81
315.312	417.8
315.77	400.58
316.227	421.19
316.685	391.26
317.142	400.29
317.6	417.8
318.057	403.96
318.514	415.26
318.972	395.21
319.429	395.77
319.886	394.93
320.343	400.29
320.8	385.04
321.257	424.29
321.714	398.32
322.171	410.18
322.628	393.51
323.085	411.59
323.542	430.78
323.998	423.45
324.455	397.75
324.912	397.47
325.368	420.9
325.825	394.93
326.281	413.85
326.738	387.02
327.194	392.39
327.65	423.16
328.107	413.28
328.563	389.56
329.019	427.12
329.475	427.4
329.931	431.63
330.387	401.14
330.843	411.31
331.299	404.53
331.755	418.36
332.211	424.57
332.666	427.4
333.122	391.82
333.578	439.25
334.033	379.11
334.489	378.26
334.944	436.71
335.4	403.12
335.855	405.66
336.31	390.41
336.766	416.39
337.221	429.09
337.676	415.54
338.131	407.63
338.586	420.9
339.041	403.4
339.496	426.55
339.951	400.86
340.406	427.68
340.861	414.98
341.316	414.13
341.771	404.81
342.225	397.47
342.68	394.08
343.134	432.76
343.589	406.22
344.043	394.08
344.498	403.4
344.952	401.42
345.406	431.35
345.861	410.46
346.315	416.39
346.769	410.46
347.223	423.45
347.677	421.19
348.131	409.33
348.585	426.27
349.039	404.25
349.493	449.98
349.947	409.33
350.401	396.62
350.854	412.72
351.308	417.23
351.762	414.41
352.215	425.42
352.669	424.57
353.122	417.23
353.575	424.57
354.029	408.48
354.482	428.24
354.935	438.69
355.388	395.49
355.842	439.25
356.295	417.8
356.748	427.12
357.201	399.45
357.654	393.51
358.106	403.96
358.559	424.29
359.012	423.16
359.465	453.08
359.917	391.54
360.37	413.28
360.823	409.61
361.275	430.5
361.728	429.09
362.18	432.48
362.632	429.37
363.085	441.23
363.537	425.7
363.989	420.62
364.441	413.85
364.893	406.22
365.345	444.05
365.797	415.54
366.249	447.44
366.701	418.65
367.153	413.28
367.605	425.42
368.057	429.94
368.508	420.34
368.96	422.32
369.411	424.29
369.863	412.43
370.314	418.93
370.766	393.8
371.217	448
371.669	415.26
372.12	462.96
372.571	413
373.022	434.74
373.473	431.63
373.924	436.99
374.375	434.17
374.826	444.9
375.277	446.03
375.728	416.39
376.179	414.13
376.63	422.6
377.08	451.95
377.531	434.45
377.981	420.9
378.432	439.82
378.883	405.38
379.333	419.78
379.783	427.12
380.234	406.79
380.684	418.08
381.134	438.41
381.584	414.98
382.034	408.2
382.485	438.97
382.935	414.41
383.385	418.36
383.834	447.72
384.284	440.1
384.734	404.81
385.184	420.34
385.634	425.7
386.083	457.88
386.533	427.4
386.982	425.99
387.432	440.66
387.881	436.71
388.331	428.53
388.78	427.96
389.229	415.26
389.679	427.96
390.128	423.45
390.577	398.88
391.026	419.21
391.475	451.11
391.924	446.03
392.373	442.92
392.822	437.84
393.27	418.08
393.719	439.82
394.168	429.09
394.617	454.21
395.065	423.45
395.514	434.74
395.962	437.28
396.411	456.19
396.859	439.82
397.307	440.38
397.756	437.56
398.204	452.8
398.652	443.77
399.1	420.9
399.548	439.54
399.996	430.5
400.444	436.71
400.892	427.96
401.34	454.77
401.788	439.82
402.236	451.39
402.683	436.99
403.131	460.14
403.579	454.49
404.026	442.64
404.474	437.28
404.921	436.15
405.369	462.68
405.816	444.62
406.263	448.57
406.71	414.13
407.158	455.62
407.605	475.65
408.052	474.53
408.499	441.23
408.946	455.06
409.393	443.2
409.84	460.7
410.286	471.14
410.733	469.17
411.18	491.45
411.626	486.09
412.073	479.89
412.52	484.96
412.966	505.55
413.413	478.19
413.859	483.55
414.305	501.32
414.752	471.99
415.198	482.71
415.644	492.01
416.09	525.85
416.536	514.57
416.982	506.4
417.428	514.57
417.874	512.88
418.32	567.85
418.766	561.08
419.211	555.45
419.657	580.81
420.103	603.9
420.548	667.81
420.994	743.46
421.439	832.24
421.885	1024.33
422.33	1248.89
422.776	1572.7
423.221	1991.76
423.666	2495.55
424.111	3169.08
424.556	3878.23
425.001	4907.32
425.446	5933.55
425.891	7123.03
426.336	8312.78
426.781	9782.08
427.226	11629.05
427.671	13092.26
428.115	14761.2
428.56	16753.95
429.005	18897.01
429.449	20581.26
429.894	22786.41
430.338	24929.49
430.782	26401.42
431.227	28992.88
431.671	30797.57
432.115	33246.58
432.559	35483.03
433.003	36788.36
433.447	38722.4
433.891	40338.07
434.335	41844.06
434.779	43700.88
435.223	44770.42
435.667	45729.7
436.111	47011.32
436.554	47493.27
436.998	47561.06
437.442	47878.81
437.885	50367.7
438.328	48886.31
438.772	49384.56
439.215	49886.43
439.659	49108.35
440.102	49528.73
440.545	48448.14
440.988	47926.3
441.431	48364.85
441.874	47535.22
442.317	47186.22
442.76	46240.44
443.203	45233.65
443.646	45393.88
444.089	44463.24
444.531	44606.73
444.974	42833.16
445.417	43456.93
445.859	42144.72
446.302	42745.07
446.744	41789.53
447.186	42511.07
447.629	41023.87
448.071	40869.88
448.513	40755.25
448.956	41685.19
449.398	40708.81
449.84	39671.9
450.282	39960.84
450.724	40450.83
451.166	40242.61
451.607	40082.59
452.049	40340.54
452.491	41373.15
452.933	41137.86
453.374	41765.23
453.816	42299.15
454.257	42252.46
454.699	43340.92
455.14	43457.43
455.582	43408.78
456.023	43782.34
456.464	44182.34
456.905	45026.53
457.347	45560.57
457.788	45007.17
458.229	45385.56
458.67	46996.03
459.111	45451.36
459.552	45975.37
459.992	46085.7
460.433	46234.11
460.874	45620.37
461.315	47407.36
461.755	46719.39
462.196	46654.06
462.636	46216.12
463.077	46162.93
463.517	46767.19
463.957	47318.45
464.398	46936.94
464.838	47336.58
465.278	46306.85
465.718	46731.85
466.158	45862.35
466.598	46428.33
467.038	45849.96
467.478	46483.65
467.918	46801.02
468.358	45946.54
468.798	45634
469.237	45480.1
469.677	45253.55
470.117	45943
470.556	43140.73
470.996	43596.72
471.435	43634.93
471.874	43876.33
472.314	43529.56
472.753	42268.6
473.192	42189.65
473.631	41313.51
474.07	41208.11
474.509	41028.56
474.948	40865.93
475.387	40058.43
475.826	38678.92
476.265	40012.84
476.704	39339.64
477.143	39211.74
477.581	38655.84
478.02	39233.63
478.458	37601.51
478.897	37960.13
479.335	38727.8
479.774	37773.07
480.212	37776.5
480.65	37668.9
481.089	37177.77
481.527	36593.87
481.965	35934.25
482.403	37482.93
482.841	37190.5
483.279	37097.71
483.717	36901.65
484.155	36438.32
484.592	36763.4
485.03	36925.39
485.468	36039.83
485.905	36013.43
486.343	36614.9
486.781	35929.61
487.218	35593.92
487.655	35620.55
488.093	34834.09
488.53	36124.89
488.967	35437.61
489.405	35281.81
489.842	34669.84
490.279	34829.21
490.716	34801.39
491.153	35210.02
491.59	34474.63
492.027	33990.87
492.463	34003.56
492.9	33387.28
493.337	33348.02
493.773	33451.9
494.21	32780.89
494.647	32639.73
495.083	32258.18
495.519	31901.01
495.956	32092.64
496.392	31461.64
496.828	31439.2
497.265	30799.53
497.701	31156.58
498.137	30695.37
498.573	30054.2
499.009	30455.09
499.445	29805.51
499.881	29456.9
500.316	29650.74
500.752	28818.68
501.188	28716.06
501.624	28780.32
502.059	27501.85
502.495	27377.01
502.93	27341.27
503.366	27502.34
503.801	26810.52
504.236	26547.3
504.672	25936.34
505.107	25870.81
505.542	25209.46
505.977	25034.22
506.412	24538.65
506.847	24682.57
507.282	24060.8
507.717	23663.35
508.152	23707.47
508.587	23298.86
509.021	22559.37
509.456	22282.03
509.891	22167.54
510.325	22096.05
510.76	21565.38
511.194	21332.26
511.628	21251.22
512.063	20428.56
512.497	20510.75
512.931	20014.39
513.366	19702.31
513.8	19641.11
514.234	18979.01
514.668	18820.48
515.102	18982.75
515.536	18149.03
515.969	18155.52
516.403	17687.24
516.837	17405.35
517.271	17343.29
517.704	16916.1
518.138	16794.06
518.571	16555.87
519.005	16225.41
519.438	16070.74
519.871	15997.4
520.305	15456.38
520.738	15357.23
521.171	15085.8
521.604	15162.37
522.037	14847.93
522.47	14621.73
522.903	14193.83
523.336	14217.83
523.769	14015.93
524.202	13605.37
524.634	13574.23
525.067	13393.15
525.5	13193.94
525.932	13169.86
526.365	12775.28
526.797	12597.45
527.23	12780.36
527.662	12271.45
528.094	12129.92
528.527	12087.4
528.959	11875.16
529.391	11669.11
529.823	11348.16
530.255	11300.12
530.687	11094.54
531.119	10891.82
531.551	10866.73
531.982	10639.93
532.414	10486.28
532.846	10290.9
533.277	10153.16
533.709	9876.34
534.14	9843.89
534.572	9773.83
535.003	9756.06
535.435	9532.27
535.866	9401.68
536.297	9186.21
536.728	9244.88
537.159	9121.05
537.59	8966.83
538.022	8889.92
538.452	8729.51
538.883	8647.03
539.314	8615.38
539.745	8398.04
540.176	8242.56
540.606	8049.66
541.037	8088.21
541.468	7906.06
541.898	7812.93
542.328	7749.51
542.759	7552.26
543.189	7530.56
543.619	7445.54
544.05	7309.93
544.48	7168.67
544.91	7129.33
545.34	6984.98
545.77	6883.3
546.2	6856.23
546.63	6709.18
547.06	6657.06
547.489	6547.99
547.919	6311.59
548.349	6312.65
548.778	6301.82
549.208	6124.71
549.637	6025.2
550.067	5936.47
550.496	5895.92
550.926	5796.46
551.355	5669.03
551.784	5666.11
552.213	5527.35
552.642	5390.54
553.071	5412.91
553.5	5274.61
553.929	5116.64
554.358	5096.61
554.787	4997.73
555.216	4998.27
555.645	4893.14
556.073	4764.31
556.502	4669.66
556.93	4574.92
557.359	4543.5
557.787	4524.16
558.216	4492.72
558.644	4341.02
559.072	4346.41
559.5	4268.86
559.929	4215.77
560.357	4159.42
560.785	4141.35
561.213	4084.68
561.641	4003.94
562.068	3948.27
562.496	3924.75
562.924	3840.08
563.352	3808.14
563.779	3798.67
564.207	3789.73
564.634	3811.39
565.062	3711.17
565.489	3691.92
565.917	3630.36
566.344	3598.35
566.771	3529.39
567.198	3515.54
567.625	3475.87
568.053	3404.38
568.48	3363.03
568.907	3342.07
569.333	3291.71
569.76	3155.17
570.187	3219.24
570.614	3124.07
571.04	3491.63
571.467	3044.63
571.894	2988.63
572.32	2910.44
572.747	2879.79
573.173	2789.45
573.599	2779.04
574.026	2695.16
574.452	2709.15
574.878	2683.37
575.304	2651.27
575.73	2617.79
576.156	2543.92
576.582	2514.25
577.008	2479.06
577.434	2476.58
577.86	2395.43
578.285	2375.89
578.711	2340.09
579.137	2294.08
579.562	2253.84
579.988	2253.84
580.413	2186.81
580.838	2131.05
581.264	2161.97
581.689	2102.88
582.114	2067.79
582.539	2074.7
582.964	2025.5
583.39	1996.74
583.814	1991.48
584.239	1886.86
584.664	1929.78
585.089	1918.43
585.514	1862.2
585.939	1807.6
586.363	1823.68
586.788	1813.7
587.212	1753.52
587.637	1727.16
588.061	1719.66
588.485	1697.46
588.91	1702.73
589.334	1647.74
589.758	1651.63
590.182	1598.83
590.606	1580.48
591.03	1550.72
591.454	1520.95
591.878	1548.5
592.302	1490.62
592.726	1486.44
593.15	1475.31
593.573	1426.29
593.997	1410.4
594.42	1415.42
594.844	1403.44
595.267	1383.37
595.691	1358.56
596.114	1317.55
596.537	1328.15
596.96	1273.74
597.384	1282.39
597.807	1246.93
598.23	1256.43
598.653	1239.39
599.076	1241.63
599.499	1249.73
599.921	1200.01
600.344	1214.81
600.767	1194.42
601.189	1167.87
601.612	1122.29
602.034	1136.83
602.457	1109.14
602.879	1136.55
603.302	1120.33
603.724	1120.33
604.146	1097.11
604.568	1050.93
604.991	1064.09
605.413	1042.81
605.835	1060.17
606.257	1029.37
606.678	1022.09
607.1	1010.04
607.522	1010.32
607.944	1018.72
608.365	1004.44
608.787	1015.92
609.209	976.42
609.63	982.86
610.051	968.29
610.473	910.25
610.894	961.28
611.315	960.44
611.737	936.9
612.158	931.57
612.579	909.69
613	940.82
613.421	901.84
613.842	894.26
614.263	884.44
614.683	860.03
615.104	847.4
615.525	865.08
615.945	844.31
616.366	827.18
616.787	866.2
617.207	837.01
617.627	834.77
618.048	797.69
618.468	841.22
618.888	832.8
619.308	806.68
619.728	779.71
620.148	788.42
620.568	784.21
620.988	772.69
621.408	755.55
621.828	746.83
622.248	761.17
622.668	770.16
623.087	750.77
623.507	746.83
623.926	713.66
624.346	736.71
624.765	715.91
625.185	696.5
625.604	720.13
626.023	677.94
626.442	693.69
626.861	686.09
627.28	671.75
627.699	683.28
628.118	642.76
628.537	663.3
628.956	661.9
629.375	655.99
629.794	655.99
630.212	657.39
630.631	652.89
631.049	656.83
631.468	638.82
631.886	640.22
632.305	632.34
632.723	603.34
633.141	619.11
633.559	617.14
633.978	634.03
634.396	606.72
634.814	590.95
635.232	623.61
635.65	613.2
636.067	583.62
636.485	587.85
636.903	577.99
637.321	586.72
637.738	572.64
638.156	591.79
638.573	620.24
638.991	576.58
639.408	549.53
639.825	559.96
640.243	590.38
640.66	545.02
641.077	568.97
641.494	548.68
641.911	548.4
642.328	564.47
642.745	550.66
643.162	553.19
643.579	564.75
643.995	532.34
644.412	557.14
644.829	532.9
645.245	508.94
645.662	549.25
646.078	550.94
646.495	507.53
646.911	518.52
647.327	504.14
647.743	517.68
648.159	519.65
648.576	504.42
648.992	544.46
649.408	488.35
649.824	508.94
650.239	522.47
650.655	501.6
651.071	504.99
651.487	469.45
651.902	522.19
652.318	492.3
652.733	499.07
653.149	499.63
653.564	510.63
653.979	506.96
654.395	500.76
654.81	488.07
655.225	462.11
655.64	487.78
656.055	505.27
656.47	497.09
656.885	504.99
657.3	501.6
657.715	495.12
658.13	493.42
658.544	492.3
658.959	507.24
659.374	485.81
659.788	474.24
660.202	493.71
660.617	480.73
661.031	475.37
661.445	471.42
661.86	477.06
662.274	469.45
662.688	457.88
663.102	470.01
663.516	489.19
663.93	467.75
664.344	469.17
664.758	449.7
665.171	462.39
665.585	482.99
665.999	472.55
666.412	439.82
666.826	440.95
667.239	465.78
667.653	449.98
668.066	474.81
668.479	478.19
668.892	466.63
669.306	459.85
669.719	448
670.132	448
670.545	449.98
670.958	468.04
671.37	442.08
671.783	443.49
672.196	451.67
672.609	446.31
673.021	463.52
673.434	449.41
673.846	475.09
674.259	430.78
674.671	462.96
675.084	442.64
675.496	446.87
675.908	434.74
676.32	432.76
676.732	424.86
677.144	423.73
677.556	433.33
677.968	437.56
678.38	449.41
678.792	447.16
679.204	437.84
679.615	451.11
680.027	444.33
680.439	460.14
680.85	425.7
681.262	438.97
681.673	425.14
682.084	433.04
682.496	448
682.907	441.79
683.318	424.86
683.729	453.08
684.14	443.2
684.551	469.17
684.962	472.83
685.373	444.9
685.784	410.18
686.194	428.53
686.605	455.9
687.016	442.64
687.426	433.04
687.837	405.94
688.247	409.89
688.657	431.07
689.068	413
689.478	416.67
689.888	403.96
690.298	411.59
690.708	400.58
691.118	388.15
691.528	420.9
691.938	435.87
692.348	422.32
692.758	397.19
693.168	434.17
693.577	434.74
693.987	394.36
694.396	411.87
694.806	417.8
695.215	434.74
695.625	391.82
696.034	390.69
696.443	408.48
696.852	420.06
697.262	406.22
697.671	435.87
698.08	413.85
698.489	448.57
698.897	425.99
699.306	419.49
699.715	433.61
700.124	411.87
700.532	422.32
700.941	421.75
701.35	375.44
701.758	401.14
702.166	434.45
702.575	413.56
702.983	409.61
703.391	396.9
703.799	435.02
704.208	411.59
704.616	404.25
705.024	407.92
705.432	418.93
705.839	397.19
706.247	407.07
706.655	408.76
707.063	395.49
707.47	409.61
707.878	407.07
708.285	420.34
708.693	406.51
709.1	418.08
709.508	389.28
709.915	423.73
710.322	409.33
710.729	414.41
711.136	408.76
711.543	394.08
711.95	400.58
712.357	436.43
712.764	420.34
713.171	401.99
713.578	422.6
713.984	432.76
714.391	363.85
714.797	404.25
715.204	406.51
715.61	424.29
716.017	416.95
716.423	423.45
716.829	399.45
717.236	412.43
717.642	439.82
718.048	422.88
718.454	398.88
718.86	388.43
719.266	413.85
719.671	395.77
720.077	416.67
720.483	388.15
720.889	407.63
721.294	390.41
721.7	390.69
722.105	416.11
722.511	408.2
722.916	388.15
723.321	403.12
723.726	391.26
724.132	401.99
724.537	383.63
724.942	413.85
725.347	457.03
725.752	405.09
726.156	437.84
726.561	405.09
726.966	415.54
727.371	425.99
727.775	391.54
728.18	402.27
728.584	402.55
728.989	402.83
729.393	403.68
729.798	409.61
730.202	406.51
730.606	426.27
731.01	405.09
731.414	401.99
731.818	416.11
732.222	424.86
732.626	427.12
733.03	390.13
733.434	410.46
733.837	402.27
734.241	383.91
734.645	385.89
735.048	398.6
735.452	397.75
735.855	383.35
736.258	389.28
736.662	403.96
737.065	414.41
737.468	395.77
737.871	407.92
738.274	418.93
738.677	409.89
739.08	413.85
739.483	403.4
739.886	384.76
740.289	404.53
740.691	413
741.094	412.43
741.497	395.77
741.899	397.19
742.302	398.6
742.704	372.33
743.106	390.97
743.508	378.83
743.911	394.08
744.313	384.48
744.715	420.62
745.117	376.57
745.519	411.31
745.921	405.09
746.323	399.73
746.724	407.92
747.126	422.03
747.528	421.47
747.929	401.42
748.331	392.39
748.732	400.86
749.134	427.4
749.535	400.58
749.936	390.41
750.338	404.25
750.739	413
751.14	395.21
751.541	396.34
751.942	413.56
752.343	385.89
752.744	394.64
753.144	407.07
753.545	393.8
753.946	400.58
754.346	387.87
754.747	401.42
755.148	415.26
755.548	415.82
755.948	413
756.349	395.77
756.749	405.94
757.149	365.83
757.549	386.17
757.949	380.8
758.349	369.22
758.749	392.95
759.149	423.73
759.549	372.9
759.949	416.67
760.348	408.48
760.748	399.45
761.148	382.78
761.547	392.67
761.947	389.56
762.346	407.92
762.745	408.76
763.145	377.98
763.544	385.04
763.943	415.82
764.342	403.12
764.741	417.8
765.14	437.56
765.539	393.51
765.938	385.04
766.336	384.19
766.735	389.56
767.134	384.19
767.532	403.96
767.931	399.45
768.329	403.68
768.728	407.92
769.126	374.03
769.525	400.01
769.923	406.79
770.321	400.01
770.719	389.56
771.117	408.2
771.515	390.69
771.913	414.98
772.311	416.11
772.709	389
773.106	378.26
773.504	388.71
773.902	390.13
774.299	381.93
774.697	381.93
775.094	382.78
775.491	402.83
775.889	407.07
776.286	404.53
776.683	409.89
777.08	398.6
777.477	409.61
777.874	414.13
778.271	390.69
778.668	403.4
779.065	400.58
779.462	428.53
779.858	420.06
780.255	377.7
780.652	426.55
781.048	425.42
781.444	387.58
781.841	410.18
782.237	385.61
782.633	383.63
783.03	397.47
783.426	387.02
783.822	395.49
784.218	406.79
784.614	391.26
785.01	404.25
785.405	398.6
785.801	404.53
786.197	399.45
786.593	374.31
786.988	389.28
787.384	419.78
787.779	398.32
788.174	370.64
788.57	383.91
788.965	416.11
789.36	370.92
789.755	377.7
790.15	405.38
790.545	408.48
790.94	382.78
791.335	405.66
791.73	396.9
792.125	399.73
792.52	409.61
792.914	403.12
793.309	381.65
793.703	399.16
794.098	385.04
794.492	392.95
794.887	392.39
795.281	411.31
795.675	394.36
796.069	402.27
796.463	371.48
796.857	368.38
797.251	394.08
797.645	402.55
798.039	385.61
798.433	393.23
798.826	398.32
799.22	387.3
799.614	402.27
800.007	395.77
800.401	413.85
800.794	401.7
801.187	372.9
801.581	388.71
801.974	393.8
802.367	401.99
802.76	385.89
803.153	413
803.546	379.68
803.939	394.64
804.332	409.89
804.725	393.51
805.117	383.91
805.51	401.14
805.903	396.34
806.295	398.32
806.688	399.16
807.08	404.25
807.472	390.69
807.865	402.83
808.257	403.4
808.649	420.06
809.041	394.36
809.433	394.93
809.825	392.39
810.217	397.47
810.609	424.29
811.001	402.55
811.392	395.49
811.784	388.71
812.175	424.57
812.567	407.07
812.958	384.48
813.35	400.86
813.741	386.45
814.132	418.36
814.524	394.36
814.915	397.47
815.306	411.59
815.697	411.87
816.088	400.29
816.479	407.07
816.87	395.21
817.26	415.26
817.651	400.58
818.042	394.36
818.432	366.12
818.823	376.57
819.213	402.83
819.604	370.64
819.994	379.96
820.384	388.15
820.775	419.21
821.165	401.99
821.555	390.13
821.945	404.53
822.335	393.51
822.725	383.63
823.114	388.43
823.504	372.61
823.894	394.36
824.284	408.48
824.673	411.31
825.063	407.35
825.452	392.39
825.842	427.96
826.231	404.81
826.62	372.61
827.009	399.45
827.399	399.73
827.788	375.16
828.177	413
828.566	355.38
828.954	397.75
829.343	415.82
829.732	366.12
830.121	416.11
830.509	404.53
830.898	376.29
831.286	394.08
831.675	385.04
832.063	402.27
832.452	373.46
832.84	368.66
833.228	421.19
833.616	376.85
834.004	396.34
834.392	395.77
834.78	401.99
835.168	393.23
835.556	403.12
835.944	384.76
836.331	393.51
836.719	393.8
837.107	385.61
837.494	395.49
837.881	392.1
838.269	396.62
838.656	398.03
839.043	390.41
839.431	399.45
839.818	371.2
840.205	379.96
840.592	394.36
840.979	398.6
841.366	384.19
841.752	400.86
842.139	398.32
842.526	388.71
842.912	368.38
843.299	399.73
843.685	397.47
844.072	372.9
844.458	405.38
844.844	401.99
845.231	377.13
845.617	424.01
846.003	391.82
846.389	407.92
846.775	387.3
847.161	375.44
847.547	371.2
847.933	390.41
848.318	385.04
848.704	379.96
849.09	398.32
849.475	385.04
849.861	388.43
850.246	392.95
850.631	391.82
851.017	396.62
851.402	396.34
851.787	386.17
852.172	386.74
852.557	402.27
852.942	414.69
853.327	384.76
853.712	409.33
854.097	377.98
854.481	393.23
854.866	398.6
855.25	375.72
855.635	379.11
856.019	407.92
856.404	379.39
856.788	397.19
857.172	400.29
857.557	398.88
857.941	374.03
858.325	413
858.709	382.22
859.093	379.68
859.477	388.43
859.86	391.54
860.244	372.33
860.628	396.9
861.012	378.26
861.395	392.95
861.779	374.31
862.162	356.79
862.545	382.5
862.929	390.41
863.312	433.89
863.695	387.58
864.078	366.68
864.461	409.33
864.844	383.91
865.227	396.62
865.61	392.95
865.993	367.53
866.376	411.31
866.758	380.52
867.141	399.73
867.523	401.7
867.906	363.01
868.288	353.97
868.671	400.58
869.053	405.66
869.435	385.61
869.817	399.16
870.199	400.58
870.581	387.02
870.963	381.09
871.345	374.31
871.727	381.65
872.109	403.96
872.491	391.54
872.872	398.03
873.254	369.79
873.635	394.93
874.017	387.58
874.398	406.79
874.779	392.1
875.161	386.45
875.542	388.71
875.923	399.45
876.304	376.29
876.685	372.9
877.066	363.29
877.447	369.22
877.828	384.76
878.208	376.57
878.589	415.26
878.97	394.64
879.35	412.43
879.731	392.95
880.111	369.79
880.491	360.18
880.872	373.74
881.252	387.58
881.632	409.89
882.012	405.09
882.392	400.86
882.772	391.26
883.152	372.33
883.532	370.64
883.912	429.94
884.291	381.93
884.671	409.61
885.051	405.09
885.43	370.64
885.81	399.73
886.189	389.84
886.568	376
886.948	406.51
887.327	390.13
887.706	389.56
888.085	408.76
888.464	361.03
888.843	416.11
889.222	376.29
889.601	384.48
889.979	384.19
890.358	390.13
890.737	381.09
891.115	379.11
891.494	377.42
891.872	383.91
892.25	381.65
892.629	401.14
893.007	411.31
893.385	371.77
893.763	389.84
894.141	391.26
894.519	387.02
894.897	375.44
895.275	405.09
895.653	363.57
896.03	388.71
896.408	399.45
896.786	396.9
897.163	384.76
897.541	411.02
897.918	367.53
898.295	387.87
898.673	378.83
899.05	398.32
899.427	398.88
899.804	386.17
900.181	368.94
900.558	388.43
900.935	384.76
901.312	383.35
901.688	396.9
902.065	400.58
902.442	375.44
902.818	409.61
903.195	362.44
903.571	387.3
903.947	375.44
904.324	404.81
904.7	401.7
905.076	401.7
905.452	370.07
905.828	397.47
906.204	368.38
906.58	387.3
906.956	371.2
907.331	381.65
907.707	394.64
908.083	393.8
908.458	376.85
908.834	401.99
909.209	383.91
909.585	367.53
909.96	382.5
910.335	406.79
910.71	408.48
911.086	391.82
911.461	390.13
911.836	387.02
912.21	388.43
912.585	394.93
912.96	375.44
913.335	376
913.709	360.18
914.084	350.01
914.459	392.67
914.833	384.48
915.207	392.95
915.582	392.39
915.956	369.51
916.33	397.75
916.704	374.31
917.078	372.33
917.452	390.13
917.826	363.01
918.2	421.19
918.574	389
918.948	367.53
919.321	376.57
919.695	403.12
920.068	392.67
920.442	401.14
920.815	361.88
921.189	380.52
921.562	392.67
921.935	396.9
922.308	384.19
922.681	378.83
923.054	375.16
923.427	393.8
923.8	384.48
924.173	383.91
924.546	363.01
924.919	375.72
925.291	413.56
925.664	391.82
926.036	366.68
926.409	385.61
926.781	377.98
927.153	406.79
927.526	402.27
927.898	370.07
928.27	366.96
928.642	375.44
929.014	362.72
929.386	380.52
929.758	389.28
930.129	388.71
930.501	364.14
930.873	377.7
931.244	370.92
931.616	385.32
931.987	385.89
932.359	406.51
932.73	387.87
933.101	391.82
933.472	379.39
933.843	405.09
934.214	373.46
934.585	387.3
934.956	377.7
935.327	396.06
935.698	393.51
936.069	384.76
936.439	385.04
936.81	391.82
937.18	381.37
937.551	397.19
937.921	377.7
938.292	380.8
938.662	389.28
939.032	358.49
939.402	409.89
939.772	394.64
940.142	391.26
940.512	410.74
940.882	409.89
941.252	398.03
941.621	388.71
941.991	390.69
942.361	372.05
942.73	388.15
943.1	373.74
943.469	366.68
943.838	403.96
944.208	373.74
944.577	376
944.946	367.25
945.315	401.14
945.684	387.3
946.053	368.94
946.422	388.71
946.791	388.71
947.159	364.42
947.528	366.96
947.897	394.64
948.265	376.85
948.634	380.52
949.002	354.81
949.371	382.5
949.739	367.25
950.107	411.31
950.475	368.38
950.843	381.93
951.211	388.71
951.579	381.65
951.947	383.63
952.315	406.22
952.683	381.65
953.05	358.2
953.418	377.13
953.785	375.72
954.153	375.16
954.52	374.59
954.888	380.52
955.255	363.29
955.622	395.21
955.989	399.16
956.356	388.71
956.723	403.4
957.09	379.96
957.457	380.24
957.824	369.22
958.191	375.72
958.557	407.35
958.924	382.5
959.291	370.07
959.657	373.18
960.023	379.68
960.39	380.8
960.756	407.92
961.122	382.5
961.488	375.44
961.855	381.09
962.221	372.9
962.586	372.05
962.952	376.57
963.318	376.29
963.684	392.95
964.05	397.75
964.415	382.5
964.781	386.74
965.146	399.45
965.512	401.7
965.877	381.65
966.242	376.57
966.608	419.21
966.973	369.22
967.338	368.38
967.703	387.87
968.068	379.68
968.433	378.55
968.797	373.18
969.162	414.69
969.527	376.57
969.891	372.61
970.256	376.29
970.62	387.02
970.985	403.96
971.349	390.97
971.714	410.18
972.078	361.31
972.442	374.59
972.806	384.76
973.17	369.51
973.534	376.85
973.898	363.85
974.262	352.84
974.625	397.75
974.989	392.1
975.353	359.62
975.716	433.04
976.08	381.09
976.443	381.93
976.806	371.77
977.17	394.36
977.533	387.87
977.896	376.85
978.259	378.55
978.622	399.73
978.985	366.4
979.348	380.8
979.711	353.12
980.073	375.44
980.436	392.1
980.799	369.51
981.161	352.84
981.524	368.38
981.886	375.16
982.248	382.78
982.611	395.49
982.973	391.54
983.335	350.86
983.697	370.92
984.059	398.6
984.421	388.43
984.783	381.09
985.145	355.66
985.506	374.87
985.868	377.42
986.23	372.9
986.591	408.48
986.953	400.29
987.314	385.89
987.675	376
988.037	629.53
988.398	366.68
988.759	366.12
989.12	367.81
989.481	384.76
989.842	366.68
990.203	388.15
990.564	402.83
990.924	413
991.285	589.26
991.646	390.69
992.006	352.84
992.367	353.97
992.727	364.42
993.087	360.46
993.448	358.77
993.808	372.61
994.168	394.64
994.528	385.04
994.888	368.66
995.248	384.19
995.608	378.26
995.967	386.74
996.327	379.11
996.687	402.55
997.046	383.63
997.406	359.9
997.765	363.85
998.125	382.5
998.484	379.11
998.843	393.8
999.202	374.87
999.561	378.83
999.92	382.22
1000.279	373.46
1000.638	405.38
1000.997	345.49
1001.356	376.57
1001.715	400.29
1002.073	391.82
1002.432	407.07
1002.79	353.12
1003.149	370.92
1003.507	389.28
1003.865	380.8
1004.224	387.02
1004.582	381.37
1004.94	378.26
1005.298	370.64
1005.656	399.16
1006.014	372.9
1006.371	390.97
1006.729	346.9
1007.087	383.91
1007.445	401.42
1007.802	391.26
1008.16	378.26
1008.517	383.63
1008.874	387.58
1009.232	386.74
1009.589	383.06
1009.946	380.24
1010.303	383.63
1010.66	413.85
1011.017	397.75
1011.374	399.73
1011.731	370.07
1012.087	374.31
1012.444	371.2
1012.801	364.14
1013.157	379.11
1013.513	379.96
1013.87	376
1014.226	376.85
1014.582	369.22
1014.939	413.85
1015.295	375.44
1015.651	414.41
1016.007	367.81
1016.363	381.09
1016.719	403.12
1017.074	375.72
1017.43	361.59
1017.786	359.33
1018.141	380.52
1018.497	402.55
1018.852	375.72
1019.208	365.27
1019.563	384.48
1019.918	380.52
1020.273	382.78
1020.628	369.79
1020.983	382.22
1021.338	377.7
1021.693	383.06
1022.048	370.07
1022.403	371.2
1022.757	380.24
1023.112	356.23
1023.467	357.07
1023.821	398.03
1024.175	401.7
1024.53	367.81
1024.884	364.42
1025.238	369.79
1025.592	381.09
1025.946	372.05
1026.3	386.74
1026.654	376.85
1027.008	370.07
1027.362	397.75
1027.716	384.48
1028.069	376.29
1028.423	382.5
1028.777	376.29
1029.13	381.37
1029.483	364.7
1029.837	392.39
1030.19	389.56
1030.543	393.8
1030.896	367.53
1031.249	393.23
1031.602	384.48
1031.955	414.98
1032.308	372.33
1032.661	386.17
1033.013	376
1033.366	382.22
1033.719	383.91
1034.071	381.93
1034.424	394.08
1034.776	366.4
1035.128	339.27
1035.48	378.26
1035.833	371.2
1036.185	372.9
1036.537	372.9
1036.889	372.9
