Data from BCF12_8_FLMS019251_16-06-35-256.txt Node
Date: Mon Feb 11 16:06:35 CET 2019
User: luk
Spectrometer: FLMS01925
Trigger mode: 0
Integration Time (sec): 8.613000E-1
Scans to average: 1
Electric dark correction enabled: true
Nonlinearity correction enabled: true
Boxcar width: 0
XAxis mode: Wavelengths
Number of Pixels in Spectrum: 2048
>>>>>Begin Spectral Data<<<<<
187.103	-152.59
187.574	-152.59
188.045	-152.59
188.516	-192.43
188.987	-38.87
189.458	-72.97
189.929	-132.67
190.4	-41.71
190.871	-36.03
191.342	-107.08
191.813	-61.6
192.284	-72.97
192.754	-90.02
193.225	26.44
193.696	-27.51
194.166	74.67
194.637	69
195.107	168.21
195.578	125.71
196.048	114.37
196.518	63.32
196.989	185.2
197.459	190.87
197.929	258.8
198.399	383.19
198.869	340.81
199.339	329.5
199.809	258.8
200.279	371.89
200.749	264.46
201.219	349.29
201.689	321.02
202.159	343.63
202.628	360.59
203.098	442.48
203.568	388.84
204.037	481.98
204.507	419.9
204.976	349.29
205.445	326.68
205.915	442.48
206.384	323.85
206.853	360.59
207.323	315.37
207.792	377.54
208.261	360.59
208.73	306.89
209.199	388.84
209.668	366.24
210.137	436.84
210.606	287.09
211.075	417.08
211.543	357.76
212.012	397.31
212.481	289.92
212.95	346.46
213.418	371.89
213.887	391.66
214.355	405.78
214.824	391.66
215.292	295.57
215.76	405.78
216.229	312.54
216.697	360.59
217.165	414.25
217.633	298.4
218.101	422.72
218.569	594.73
219.037	377.54
219.505	527.1
219.973	386.01
220.441	363.41
220.909	414.25
221.377	352.11
221.844	380.36
222.312	315.37
222.78	292.75
223.247	244.65
223.715	275.78
224.182	312.54
224.65	383.19
225.117	428.37
225.584	261.63
226.052	369.06
226.519	391.66
226.986	343.63
227.453	360.59
227.92	287.09
228.387	431.19
228.854	380.36
229.321	346.46
229.788	366.24
230.255	453.77
230.722	405.78
231.189	380.36
231.655	380.36
232.122	363.41
232.589	304.06
233.055	354.94
233.522	459.41
233.988	318.19
234.454	450.95
234.921	394.49
235.387	476.34
235.853	340.81
236.32	224.84
236.786	315.37
237.252	371.89
237.718	473.52
238.184	298.4
238.65	428.37
239.116	304.06
239.582	411.43
240.047	292.75
240.513	352.11
240.979	349.29
241.445	309.71
241.91	284.26
242.376	264.46
242.841	349.29
243.307	332.33
243.772	318.19
244.238	343.63
244.703	329.5
245.168	360.59
245.633	380.36
246.099	275.78
246.564	323.85
247.029	479.16
247.494	287.09
247.959	414.25
248.424	408.61
248.889	267.29
249.353	493.27
249.818	346.46
250.283	425.55
250.748	343.63
251.212	476.34
251.677	284.26
252.141	335.15
252.606	386.01
253.07	306.89
253.535	315.37
253.999	304.06
254.463	329.5
254.927	405.78
255.392	388.84
255.856	377.54
256.32	428.37
256.784	349.29
257.248	400.13
257.712	335.15
258.176	459.41
258.64	371.89
259.103	321.02
259.567	357.76
260.031	408.61
260.495	425.55
260.958	354.94
261.422	408.61
261.885	419.9
262.349	456.59
262.812	369.06
263.275	312.54
263.739	417.08
264.202	388.84
264.665	402.96
265.128	391.66
265.591	340.81
266.054	439.66
266.517	369.06
266.98	374.71
267.443	380.36
267.906	337.98
268.369	428.37
268.832	329.5
269.294	377.54
269.757	346.46
270.22	332.33
270.682	343.63
271.145	434.01
271.607	425.55
272.07	510.19
272.532	312.54
272.994	397.31
273.456	431.19
273.919	757.92
274.381	309.71
274.843	538.38
275.305	405.78
275.767	349.29
276.229	326.68
276.691	459.41
277.153	414.25
277.614	394.49
278.076	360.59
278.538	275.78
279	352.11
279.461	329.5
279.923	563.74
280.384	349.29
280.846	357.76
281.307	388.84
281.769	332.33
282.23	496.09
282.691	422.72
283.152	374.71
283.613	312.54
284.075	329.5
284.536	394.49
284.997	397.31
285.458	388.84
285.918	397.31
286.379	394.49
286.84	417.08
287.301	360.59
287.762	346.46
288.222	349.29
288.683	411.43
289.143	354.94
289.604	343.63
290.064	408.61
290.525	377.54
290.985	487.62
291.445	386.01
291.906	329.5
292.366	326.68
292.826	369.06
293.286	371.89
293.746	428.37
294.206	405.78
294.666	309.71
295.126	431.19
295.586	360.59
296.046	298.4
296.506	287.09
296.965	374.71
297.425	332.33
297.884	462.23
298.344	436.84
298.804	419.9
299.263	400.13
299.722	306.89
300.182	326.68
300.641	391.66
301.1	337.98
301.559	414.25
302.019	337.98
302.478	434.01
302.937	386.01
303.396	332.33
303.855	459.41
304.314	405.78
304.772	701.69
305.231	298.4
305.69	267.29
306.149	391.66
306.607	371.89
307.066	479.16
307.524	391.66
307.983	442.48
308.441	419.9
308.9	496.09
309.358	397.31
309.816	600.37
310.275	275.78
310.733	309.71
311.191	388.84
311.649	484.8
312.107	383.19
312.565	295.57
313.023	386.01
313.481	250.31
313.939	366.24
314.397	422.72
314.854	371.89
315.312	388.84
315.77	496.09
316.227	284.26
316.685	431.19
317.142	343.63
317.6	470.7
318.057	422.72
318.514	439.66
318.972	405.78
319.429	481.98
319.886	323.85
320.343	306.89
320.8	394.49
321.257	326.68
321.714	386.01
322.171	442.48
322.628	337.98
323.085	400.13
323.542	309.71
323.998	315.37
324.455	315.37
324.912	332.33
325.368	380.36
325.825	487.62
326.281	377.54
326.738	439.66
327.194	318.19
327.65	465.06
328.107	304.06
328.563	306.89
329.019	405.78
329.475	434.01
329.931	405.78
330.387	467.88
330.843	417.08
331.299	326.68
331.755	267.29
332.211	422.72
332.666	357.76
333.122	371.89
333.578	417.08
334.033	301.23
334.489	431.19
334.944	335.15
335.4	518.65
335.855	445.3
336.31	312.54
336.766	360.59
337.221	402.96
337.676	337.98
338.131	380.36
338.586	425.55
339.041	445.3
339.496	419.9
339.951	366.24
340.406	374.71
340.861	363.41
341.316	391.66
341.771	366.24
342.225	306.89
342.68	371.89
343.134	405.78
343.589	408.61
344.043	402.96
344.498	298.4
344.952	383.19
345.406	878.67
345.861	394.49
346.315	323.85
346.769	402.96
347.223	343.63
347.677	383.19
348.131	281.43
348.585	301.23
349.039	419.9
349.493	363.41
349.947	388.84
350.401	383.19
350.854	335.15
351.308	479.16
351.762	304.06
352.215	470.7
352.669	417.08
353.122	329.5
353.575	402.96
354.029	405.78
354.482	295.57
354.935	332.33
355.388	450.95
355.842	510.19
356.295	371.89
356.748	349.29
357.201	363.41
357.654	371.89
358.106	360.59
358.559	366.24
359.012	354.94
359.465	377.54
359.917	490.45
360.37	275.78
360.823	374.71
361.275	335.15
361.728	391.66
362.18	380.36
362.632	352.11
363.085	400.13
363.537	357.76
363.989	436.84
364.441	369.06
364.893	343.63
365.345	255.97
365.797	436.84
366.249	340.81
366.701	289.92
367.153	346.46
367.605	391.66
368.057	346.46
368.508	349.29
368.96	352.11
369.411	408.61
369.863	335.15
370.314	448.13
370.766	371.89
371.217	456.59
371.669	434.01
372.12	510.19
372.571	419.9
373.022	241.82
373.473	448.13
373.924	419.9
374.375	366.24
374.826	388.84
375.277	357.76
375.728	380.36
376.179	417.08
376.63	301.23
377.08	391.66
377.531	352.11
377.981	335.15
378.432	462.23
378.883	544.02
379.333	374.71
379.783	337.98
380.234	352.11
380.684	321.02
381.134	513.01
381.584	422.72
382.034	467.88
382.485	428.37
382.935	357.76
383.385	487.62
383.834	335.15
384.284	414.25
384.734	366.24
385.184	352.11
385.634	366.24
386.083	487.62
386.533	380.36
386.982	459.41
387.432	377.54
387.881	301.23
388.331	417.08
388.78	470.7
389.229	453.77
389.679	346.46
390.128	436.84
390.577	383.19
391.026	408.61
391.475	304.06
391.924	357.76
392.373	329.5
392.822	479.16
393.27	349.29
393.719	281.43
394.168	346.46
394.617	349.29
395.065	352.11
395.514	456.59
395.962	383.19
396.411	408.61
396.859	309.71
397.307	496.09
397.756	380.36
398.204	417.08
398.652	490.45
399.1	374.71
399.548	292.75
399.996	527.1
400.444	388.84
400.892	352.11
401.34	349.29
401.788	371.89
402.236	391.66
402.683	306.89
403.131	405.78
403.579	388.84
404.026	366.24
404.474	414.25
404.921	366.24
405.369	377.54
405.816	369.06
406.263	391.66
406.71	369.06
407.158	414.25
407.605	352.11
408.052	374.71
408.499	431.19
408.946	431.19
409.393	436.84
409.84	400.13
410.286	292.75
410.733	354.94
411.18	394.49
411.626	363.41
412.073	374.71
412.52	332.33
412.966	414.25
413.413	388.84
413.859	326.68
414.305	428.37
414.752	301.23
415.198	335.15
415.644	425.55
416.09	400.13
416.536	388.84
416.982	346.46
417.428	431.19
417.874	329.5
418.32	397.31
418.766	357.76
419.211	352.11
419.657	394.49
420.103	332.33
420.548	321.02
420.994	397.31
421.439	377.54
421.885	405.78
422.33	419.9
422.776	386.01
423.221	484.8
423.666	408.61
424.111	428.37
424.556	479.16
425.001	450.95
425.446	360.59
425.891	309.71
426.336	411.43
426.781	560.93
427.226	349.29
427.671	349.29
428.115	408.61
428.56	431.19
429.005	380.36
429.449	411.43
429.894	377.54
430.338	575.01
430.782	388.84
431.227	425.55
431.671	352.11
432.115	391.66
432.559	360.59
433.003	414.25
433.447	346.46
433.891	275.78
434.335	419.9
434.779	377.54
435.223	459.41
435.667	357.76
436.111	1418.33
436.554	315.37
436.998	340.81
437.442	397.31
437.885	397.31
438.328	388.84
438.772	371.89
439.215	394.49
439.659	394.49
440.102	371.89
440.545	436.84
440.988	366.24
441.431	354.94
441.874	309.71
442.317	315.37
442.76	374.71
443.203	357.76
443.646	397.31
444.089	374.71
444.531	377.54
444.974	354.94
445.417	386.01
445.859	496.09
446.302	337.98
446.744	431.19
447.186	380.36
447.629	377.54
448.071	270.12
448.513	366.24
448.956	388.84
449.398	431.19
449.84	448.13
450.282	552.47
450.724	318.19
451.166	352.11
451.607	501.73
452.049	419.9
452.491	484.8
452.933	422.72
453.374	535.56
453.816	470.7
454.257	377.54
454.699	394.49
455.14	481.98
455.582	408.61
456.023	419.9
456.464	312.54
456.905	439.66
457.347	397.31
457.788	321.02
458.229	343.63
458.67	369.06
459.111	388.84
459.552	411.43
459.992	419.9
460.433	504.55
460.874	340.81
461.315	340.81
461.755	436.84
462.196	354.94
462.636	414.25
463.077	360.59
463.517	360.59
463.957	346.46
464.398	419.9
464.838	470.7
465.278	417.08
465.718	321.02
466.158	357.76
466.598	445.3
467.038	369.06
467.478	411.43
467.918	431.19
468.358	431.19
468.798	470.7
469.237	335.15
469.677	374.71
470.117	422.72
470.556	405.78
470.996	436.84
471.435	369.06
471.874	394.49
472.314	352.11
472.753	371.89
473.192	374.71
473.631	414.25
474.07	321.02
474.509	405.78
474.948	394.49
475.387	394.49
475.826	391.66
476.265	386.01
476.704	354.94
477.143	456.59
477.581	597.55
478.02	374.71
478.458	422.72
478.897	442.48
479.335	380.36
479.774	343.63
480.212	405.78
480.65	329.5
481.089	400.13
481.527	448.13
481.965	419.9
482.403	337.98
482.841	501.73
483.279	419.9
483.717	476.34
484.155	321.02
484.592	349.29
485.03	352.11
485.468	360.59
485.905	434.01
486.343	431.19
486.781	490.45
487.218	445.3
487.655	326.68
488.093	369.06
488.53	411.43
488.967	352.11
489.405	335.15
489.842	332.33
490.279	532.74
490.716	515.83
491.153	439.66
491.59	470.7
492.027	397.31
492.463	366.24
492.9	346.46
493.337	422.72
493.773	301.23
494.21	400.13
494.647	504.55
495.083	318.19
495.519	408.61
495.956	357.76
496.392	419.9
496.828	470.7
497.265	400.13
497.701	321.02
498.137	301.23
498.573	219.18
499.009	436.84
499.445	402.96
499.881	436.84
500.316	414.25
500.752	363.41
501.188	419.9
501.624	431.19
502.059	431.19
502.495	481.98
502.93	394.49
503.366	1432.26
503.801	354.94
504.236	343.63
504.672	374.71
505.107	394.49
505.542	436.84
505.977	369.06
506.412	408.61
506.847	400.13
507.282	315.37
507.717	323.85
508.152	470.7
508.587	309.71
509.021	414.25
509.456	445.3
509.891	346.46
510.325	453.77
510.76	374.71
511.194	295.57
511.628	402.96
512.063	374.71
512.497	479.16
512.931	439.66
513.366	366.24
513.8	340.81
514.234	360.59
514.668	352.11
515.102	343.63
515.536	431.19
515.969	490.45
516.403	388.84
516.837	439.66
517.271	465.06
517.704	354.94
518.138	397.31
518.571	414.25
519.005	400.13
519.438	411.43
519.871	238.99
520.305	405.78
520.738	408.61
521.171	419.9
521.604	515.83
522.037	439.66
522.47	597.55
522.903	484.8
523.336	349.29
523.769	402.96
524.202	315.37
524.634	394.49
525.067	445.3
525.5	315.37
525.932	617.26
526.365	490.45
526.797	383.19
527.23	459.41
527.662	377.54
528.094	476.34
528.527	436.84
528.959	315.37
529.391	521.46
529.823	306.89
530.255	292.75
530.687	436.84
531.119	371.89
531.551	343.63
531.982	309.71
532.414	383.19
532.846	459.41
533.277	360.59
533.709	289.92
534.14	414.25
534.572	287.09
535.003	414.25
535.435	507.37
535.866	425.55
536.297	425.55
536.728	402.96
537.159	402.96
537.59	434.01
538.022	414.25
538.452	465.06
538.883	414.25
539.314	419.9
539.745	323.85
540.176	397.31
540.606	366.24
541.037	419.9
541.468	354.94
541.898	380.36
542.328	377.54
542.759	465.06
543.189	405.78
543.619	391.66
544.05	589.1
544.48	323.85
544.91	360.59
545.34	388.84
545.77	448.13
546.2	371.89
546.63	380.36
547.06	354.94
547.489	504.55
547.919	318.19
548.349	366.24
548.778	453.77
549.208	386.01
549.637	363.41
550.067	394.49
550.496	419.9
550.926	360.59
551.355	343.63
551.784	258.8
552.213	360.59
552.642	417.08
553.071	422.72
553.5	380.36
553.929	360.59
554.358	349.29
554.787	405.78
555.216	448.13
555.645	402.96
556.073	501.73
556.502	377.54
556.93	292.75
557.359	397.31
557.787	278.61
558.216	261.63
558.644	369.06
559.072	383.19
559.5	332.33
559.929	470.7
560.357	422.72
560.785	419.9
561.213	445.3
561.641	425.55
562.068	431.19
562.496	329.5
562.924	405.78
563.352	414.25
563.779	363.41
564.207	371.89
564.634	439.66
565.062	417.08
565.489	487.62
565.917	332.33
566.344	349.29
566.771	360.59
567.198	434.01
567.625	354.94
568.053	408.61
568.48	383.19
568.907	326.68
569.333	448.13
569.76	306.89
570.187	371.89
570.614	400.13
571.04	15683.86
571.467	741.05
571.894	371.89
572.32	292.75
572.747	329.5
573.173	425.55
573.599	493.27
574.026	428.37
574.452	388.84
574.878	400.13
575.304	408.61
575.73	481.98
576.156	343.63
576.582	402.96
577.008	374.71
577.434	332.33
577.86	284.26
578.285	340.81
578.711	374.71
579.137	467.88
579.562	425.55
579.988	354.94
580.413	439.66
580.838	337.98
581.264	374.71
581.689	408.61
582.114	442.48
582.539	1882.27
582.964	383.19
583.39	400.13
583.814	388.84
584.239	377.54
584.664	377.54
585.089	264.46
585.514	402.96
585.939	431.19
586.363	318.19
586.788	380.36
587.212	408.61
587.637	425.55
588.061	360.59
588.485	326.68
588.91	363.41
589.334	405.78
589.758	532.74
590.182	360.59
590.606	349.29
591.03	513.01
591.454	546.83
591.878	400.13
592.302	411.43
592.726	473.52
593.15	329.5
593.573	386.01
593.997	436.84
594.42	301.23
594.844	332.33
595.267	349.29
595.691	360.59
596.114	391.66
596.537	436.84
596.96	340.81
597.384	315.37
597.807	354.94
598.23	386.01
598.653	414.25
599.076	400.13
599.499	445.3
599.921	425.55
600.344	315.37
600.767	408.61
601.189	419.9
601.612	357.76
602.034	284.26
602.457	450.95
602.879	687.62
603.302	349.29
603.724	453.77
604.146	394.49
604.568	394.49
604.991	383.19
605.413	298.4
605.835	439.66
606.257	411.43
606.678	383.19
607.1	445.3
607.522	391.66
607.944	518.65
608.365	402.96
608.787	394.49
609.209	572.2
609.63	408.61
610.051	349.29
610.473	465.06
610.894	496.09
611.315	312.54
611.737	354.94
612.158	270.12
612.579	309.71
613	614.45
613.421	414.25
613.842	402.96
614.263	456.59
614.683	431.19
615.104	323.85
615.525	465.06
615.945	352.11
616.366	408.61
616.787	354.94
617.207	289.92
617.627	332.33
618.048	450.95
618.468	484.8
618.888	306.89
619.308	278.61
619.728	442.48
620.148	287.09
620.568	405.78
620.988	417.08
621.408	425.55
621.828	332.33
622.248	425.55
622.668	439.66
623.087	411.43
623.507	402.96
623.926	340.81
624.346	425.55
624.765	326.68
625.185	369.06
625.604	352.11
626.023	337.98
626.442	329.5
626.861	394.49
627.28	306.89
627.699	417.08
628.118	417.08
628.537	326.68
628.956	558.11
629.375	473.52
629.794	417.08
630.212	445.3
630.631	490.45
631.049	363.41
631.468	417.08
631.886	371.89
632.305	470.7
632.723	402.96
633.141	377.54
633.559	287.09
633.978	292.75
634.396	408.61
634.814	453.77
635.232	391.66
635.65	419.9
636.067	434.01
636.485	343.63
636.903	411.43
637.321	323.85
637.738	501.73
638.156	431.19
638.573	312.54
638.991	515.83
639.408	527.1
639.825	306.89
640.243	467.88
640.66	363.41
641.077	419.9
641.494	329.5
641.911	371.89
642.328	453.77
642.745	400.13
643.162	417.08
643.579	450.95
643.995	326.68
644.412	541.2
644.829	312.54
645.245	405.78
645.662	388.84
646.078	417.08
646.495	354.94
646.911	380.36
647.327	462.23
647.743	369.06
648.159	388.84
648.576	386.01
648.992	408.61
649.408	411.43
649.824	408.61
650.239	369.06
650.655	417.08
651.071	366.24
651.487	380.36
651.902	315.37
652.318	391.66
652.733	264.46
653.149	374.71
653.564	380.36
653.979	360.59
654.395	380.36
654.81	374.71
655.225	371.89
655.64	397.31
656.055	377.54
656.47	369.06
656.885	332.33
657.3	298.4
657.715	456.59
658.13	419.9
658.544	312.54
658.959	357.76
659.374	397.31
659.788	442.48
660.202	349.29
660.617	470.7
661.031	357.76
661.445	513.01
661.86	253.14
662.274	501.73
662.688	414.25
663.102	363.41
663.516	386.01
663.93	431.19
664.344	357.76
664.758	397.31
665.171	462.23
665.585	394.49
665.999	405.78
666.412	323.85
666.826	388.84
667.239	405.78
667.653	343.63
668.066	321.02
668.479	572.2
668.892	397.31
669.306	371.89
669.719	386.01
670.132	352.11
670.545	318.19
670.958	354.94
671.37	366.24
671.783	332.33
672.196	337.98
672.609	371.89
673.021	295.57
673.434	363.41
673.846	369.06
674.259	309.71
674.671	326.68
675.084	343.63
675.496	337.98
675.908	386.01
676.32	380.36
676.732	445.3
677.144	312.54
677.556	315.37
677.968	292.75
678.38	352.11
678.792	374.71
679.204	391.66
679.615	332.33
680.027	349.29
680.439	315.37
680.85	450.95
681.262	476.34
681.673	352.11
682.084	450.95
682.496	321.02
682.907	383.19
683.318	417.08
683.729	366.24
684.14	321.02
684.551	374.71
684.962	422.72
685.373	332.33
685.784	374.71
686.194	386.01
686.605	304.06
687.016	419.9
687.426	397.31
687.837	298.4
688.247	349.29
688.657	383.19
689.068	309.71
689.478	383.19
689.888	397.31
690.298	332.33
690.708	332.33
691.118	380.36
691.528	371.89
691.938	354.94
692.348	301.23
692.758	267.29
693.168	329.5
693.577	366.24
693.987	436.84
694.396	414.25
694.806	312.54
695.215	360.59
695.625	363.41
696.034	402.96
696.443	301.23
696.852	408.61
697.262	309.71
697.671	445.3
698.08	323.85
698.489	380.36
698.897	388.84
699.306	323.85
699.715	363.41
700.124	374.71
700.532	340.81
700.941	448.13
701.35	369.06
701.758	484.8
702.166	439.66
702.575	377.54
702.983	301.23
703.391	352.11
703.799	343.63
704.208	507.37
704.616	295.57
705.024	436.84
705.432	394.49
705.839	357.76
706.247	434.01
706.655	501.73
707.063	453.77
707.47	354.94
707.878	323.85
708.285	357.76
708.693	329.5
709.1	371.89
709.508	465.06
709.915	363.41
710.322	442.48
710.729	501.73
711.136	360.59
711.543	309.71
711.95	360.59
712.357	354.94
712.764	414.25
713.171	383.19
713.578	289.92
713.984	422.72
714.391	425.55
714.797	318.19
715.204	434.01
715.61	453.77
716.017	374.71
716.423	414.25
716.829	434.01
717.236	363.41
717.642	371.89
718.048	428.37
718.454	431.19
718.86	369.06
719.266	490.45
719.671	326.68
720.077	321.02
720.483	371.89
720.889	363.41
721.294	329.5
721.7	411.43
722.105	312.54
722.511	343.63
722.916	332.33
723.321	360.59
723.726	397.31
724.132	357.76
724.537	397.31
724.942	380.36
725.347	479.16
725.752	360.59
726.156	357.76
726.561	405.78
726.966	363.41
727.371	380.36
727.775	417.08
728.18	397.31
728.584	343.63
728.989	377.54
729.393	577.83
729.798	354.94
730.202	496.09
730.606	340.81
731.01	408.61
731.414	315.37
731.818	391.66
732.222	383.19
732.626	258.8
733.03	456.59
733.434	422.72
733.837	453.77
734.241	388.84
734.645	354.94
735.048	448.13
735.452	374.71
735.855	332.33
736.258	402.96
736.662	493.27
737.065	470.7
737.468	524.28
737.871	306.89
738.274	493.27
738.677	380.36
739.08	352.11
739.483	369.06
739.886	450.95
740.289	481.98
740.691	431.19
741.094	366.24
741.497	312.54
741.899	501.73
742.302	329.5
742.704	332.33
743.106	380.36
743.508	301.23
743.911	352.11
744.313	326.68
744.715	346.46
745.117	312.54
745.519	261.63
745.921	456.59
746.323	287.09
746.724	340.81
747.126	369.06
747.528	422.72
747.929	357.76
748.331	391.66
748.732	326.68
749.134	295.57
749.535	340.81
749.936	498.91
750.338	369.06
750.739	496.09
751.14	394.49
751.541	400.13
751.942	411.43
752.343	374.71
752.744	349.29
753.144	439.66
753.545	504.55
753.946	408.61
754.346	343.63
754.747	456.59
755.148	749.49
755.548	267.29
755.948	377.54
756.349	402.96
756.749	352.11
757.149	369.06
757.549	453.77
757.949	386.01
758.349	329.5
758.749	298.4
759.149	340.81
759.549	366.24
759.949	388.84
760.348	434.01
760.748	340.81
761.148	332.33
761.547	352.11
761.947	329.5
762.346	340.81
762.745	456.59
763.145	419.9
763.544	366.24
763.943	326.68
764.342	388.84
764.741	380.36
765.14	332.33
765.539	340.81
765.938	524.28
766.336	442.48
766.735	346.46
767.134	386.01
767.532	383.19
767.931	357.76
768.329	507.37
768.728	323.85
769.126	360.59
769.525	484.8
769.923	402.96
770.321	383.19
770.719	436.84
771.117	439.66
771.515	484.8
771.913	425.55
772.311	360.59
772.709	340.81
773.106	394.49
773.504	309.71
773.902	329.5
774.299	450.95
774.697	614.45
775.094	417.08
775.491	363.41
775.889	337.98
776.286	366.24
776.683	301.23
777.08	321.02
777.477	326.68
777.874	383.19
778.271	436.84
778.668	391.66
779.065	414.25
779.462	360.59
779.858	371.89
780.255	425.55
780.652	369.06
781.048	391.66
781.444	400.13
781.841	315.37
782.237	397.31
782.633	335.15
783.03	301.23
783.426	402.96
783.822	287.09
784.218	343.63
784.614	352.11
785.01	295.57
785.405	453.77
785.801	431.19
786.197	329.5
786.593	394.49
786.988	377.54
787.384	473.52
787.779	360.59
788.174	349.29
788.57	383.19
788.965	312.54
789.36	349.29
789.755	337.98
790.15	354.94
790.545	292.75
790.94	329.5
791.335	275.78
791.73	315.37
792.125	442.48
792.52	422.72
792.914	434.01
793.309	431.19
793.703	371.89
794.098	337.98
794.492	448.13
794.887	346.46
795.281	524.28
795.675	496.09
796.069	456.59
796.463	391.66
796.857	442.48
797.251	380.36
797.645	394.49
798.039	504.55
798.433	414.25
798.826	388.84
799.22	391.66
799.614	400.13
800.007	323.85
800.401	402.96
800.794	289.92
801.187	301.23
801.581	352.11
801.974	402.96
802.367	408.61
802.76	318.19
803.153	261.63
803.546	349.29
803.939	419.9
804.332	337.98
804.725	287.09
805.117	287.09
805.51	343.63
805.903	456.59
806.295	439.66
806.688	340.81
807.08	346.46
807.472	397.31
807.865	448.13
808.257	479.16
808.649	422.72
809.041	436.84
809.433	354.94
809.825	278.61
810.217	306.89
810.609	244.65
811.001	386.01
811.392	380.36
811.784	442.48
812.175	354.94
812.567	402.96
812.958	456.59
813.35	329.5
813.741	258.8
814.132	386.01
814.524	402.96
814.915	318.19
815.306	360.59
815.697	445.3
816.088	366.24
816.479	521.46
816.87	422.72
817.26	405.78
817.651	402.96
818.042	402.96
818.432	400.13
818.823	419.9
819.213	366.24
819.604	374.71
819.994	363.41
820.384	340.81
820.775	371.89
821.165	380.36
821.555	405.78
821.945	360.59
822.335	247.48
822.725	383.19
823.114	363.41
823.504	366.24
823.894	298.4
824.284	411.43
824.673	405.78
825.063	388.84
825.452	346.46
825.842	272.95
826.231	544.02
826.62	321.02
827.009	374.71
827.399	397.31
827.788	377.54
828.177	337.98
828.566	369.06
828.954	575.01
829.343	400.13
829.732	340.81
830.121	524.28
830.509	504.55
830.898	360.59
831.286	369.06
831.675	422.72
832.063	453.77
832.452	306.89
832.84	360.59
833.228	386.01
833.616	323.85
834.004	332.33
834.392	354.94
834.78	439.66
835.168	298.4
835.556	414.25
835.944	402.96
836.331	391.66
836.719	400.13
837.107	408.61
837.494	465.06
837.881	363.41
838.269	419.9
838.656	352.11
839.043	298.4
839.431	524.28
839.818	332.33
840.205	377.54
840.592	343.63
840.979	363.41
841.366	363.41
841.752	289.92
842.139	306.89
842.526	284.26
842.912	337.98
843.299	360.59
843.685	369.06
844.072	411.43
844.458	360.59
844.844	354.94
845.231	354.94
845.617	397.31
846.003	374.71
846.389	337.98
846.775	414.25
847.161	436.84
847.547	428.37
847.933	326.68
848.318	326.68
848.704	414.25
849.09	391.66
849.475	304.06
849.861	394.49
850.246	354.94
850.631	414.25
851.017	312.54
851.402	371.89
851.787	354.94
852.172	476.34
852.557	318.19
852.942	425.55
853.327	354.94
853.712	346.46
854.097	366.24
854.481	349.29
854.866	374.71
855.25	318.19
855.635	408.61
856.019	380.36
856.404	326.68
856.788	270.12
857.172	349.29
857.557	417.08
857.941	357.76
858.325	450.95
858.709	354.94
859.093	315.37
859.477	371.89
859.86	397.31
860.244	343.63
860.628	386.01
861.012	388.84
861.395	343.63
861.779	337.98
862.162	352.11
862.545	332.33
862.929	363.41
863.312	374.71
863.695	315.37
864.078	422.72
864.461	397.31
864.844	400.13
865.227	535.56
865.61	292.75
865.993	312.54
866.376	337.98
866.758	414.25
867.141	408.61
867.523	326.68
867.906	346.46
868.288	304.06
868.671	318.19
869.053	309.71
869.435	383.19
869.817	436.84
870.199	343.63
870.581	383.19
870.963	402.96
871.345	445.3
871.727	414.25
872.109	329.5
872.491	337.98
872.872	380.36
873.254	386.01
873.635	278.61
874.017	479.16
874.398	321.02
874.779	431.19
875.161	383.19
875.542	476.34
875.923	312.54
876.304	357.76
876.685	366.24
877.066	343.63
877.447	366.24
877.828	425.55
878.208	295.57
878.589	436.84
878.97	504.55
879.35	312.54
879.731	402.96
880.111	405.78
880.491	272.95
880.872	397.31
881.252	346.46
881.632	380.36
882.012	473.52
882.392	422.72
882.772	428.37
883.152	340.81
883.532	408.61
883.912	428.37
884.291	453.77
884.671	349.29
885.051	315.37
885.43	366.24
885.81	388.84
886.189	377.54
886.568	394.49
886.948	298.4
887.327	346.46
887.706	272.95
888.085	391.66
888.464	337.98
888.843	544.02
889.222	374.71
889.601	473.52
889.979	306.89
890.358	501.73
890.737	388.84
891.115	349.29
891.494	354.94
891.872	371.89
892.25	391.66
892.629	436.84
893.007	467.88
893.385	448.13
893.763	405.78
894.141	397.31
894.519	363.41
894.897	386.01
895.275	357.76
895.653	309.71
896.03	411.43
896.408	445.3
896.786	371.89
897.163	402.96
897.541	419.9
897.918	470.7
898.295	414.25
898.673	371.89
899.05	374.71
899.427	693.25
899.804	357.76
900.181	340.81
900.558	462.23
900.935	400.13
901.312	318.19
901.688	323.85
902.065	417.08
902.442	394.49
902.818	318.19
903.195	332.33
903.571	352.11
903.947	371.89
904.324	326.68
904.7	287.09
905.076	465.06
905.452	354.94
905.828	417.08
906.204	405.78
906.58	335.15
906.956	343.63
907.331	532.74
907.707	377.54
908.083	383.19
908.458	481.98
908.834	306.89
909.209	253.14
909.585	402.96
909.96	405.78
910.335	386.01
910.71	388.84
911.086	442.48
911.461	419.9
911.836	388.84
912.21	275.78
912.585	340.81
912.96	417.08
913.335	434.01
913.709	329.5
914.084	408.61
914.459	388.84
914.833	309.71
915.207	284.26
915.582	253.14
915.956	354.94
916.33	374.71
916.704	363.41
917.078	405.78
917.452	386.01
917.826	335.15
918.2	275.78
918.574	337.98
918.948	343.63
919.321	343.63
919.695	402.96
920.068	425.55
920.442	428.37
920.815	380.36
921.189	318.19
921.562	481.98
921.935	527.1
922.308	434.01
922.681	436.84
923.054	405.78
923.427	380.36
923.8	346.46
924.173	425.55
924.546	380.36
924.919	349.29
925.291	419.9
925.664	414.25
926.036	340.81
926.409	227.67
926.781	332.33
927.153	332.33
927.526	481.98
927.898	360.59
928.27	321.02
928.642	284.26
929.014	436.84
929.386	374.71
929.758	360.59
930.129	346.46
930.501	462.23
930.873	357.76
931.244	349.29
931.616	366.24
931.987	369.06
932.359	383.19
932.73	425.55
933.101	417.08
933.472	318.19
933.843	414.25
934.214	467.88
934.585	380.36
934.956	422.72
935.327	620.08
935.698	465.06
936.069	386.01
936.439	391.66
936.81	272.95
937.18	394.49
937.551	349.29
937.921	558.11
938.292	369.06
938.662	343.63
939.032	360.59
939.402	326.68
939.772	352.11
940.142	391.66
940.512	346.46
940.882	388.84
941.252	371.89
941.621	411.43
941.991	402.96
942.361	498.91
942.73	487.62
943.1	411.43
943.469	374.71
943.838	521.46
944.208	371.89
944.577	349.29
944.946	323.85
945.315	377.54
945.684	304.06
946.053	360.59
946.422	360.59
946.791	352.11
947.159	386.01
947.528	258.8
947.897	405.78
948.265	337.98
948.634	394.49
949.002	304.06
949.371	405.78
949.739	298.4
950.107	411.43
950.475	377.54
950.843	417.08
951.211	411.43
951.579	425.55
951.947	402.96
952.315	352.11
952.683	343.63
953.05	431.19
953.418	329.5
953.785	436.84
954.153	383.19
954.52	284.26
954.888	411.43
955.255	354.94
955.622	357.76
955.989	366.24
956.356	479.16
956.723	267.29
957.09	380.36
957.457	323.85
957.824	340.81
958.191	397.31
958.557	442.48
958.924	329.5
959.291	255.97
959.657	377.54
960.023	586.28
960.39	394.49
960.756	366.24
961.122	419.9
961.488	357.76
961.855	388.84
962.221	388.84
962.586	323.85
962.952	535.56
963.318	386.01
963.684	498.91
964.05	515.83
964.415	380.36
964.781	369.06
965.146	321.02
965.512	490.45
965.877	340.81
966.242	386.01
966.608	386.01
966.973	357.76
967.338	295.57
967.703	462.23
968.068	321.02
968.433	417.08
968.797	560.93
969.162	467.88
969.527	405.78
969.891	323.85
970.256	383.19
970.62	380.36
970.985	369.06
971.349	405.78
971.714	431.19
972.078	332.33
972.442	408.61
972.806	431.19
973.17	388.84
973.534	411.43
973.898	374.71
974.262	405.78
974.625	473.52
974.989	408.61
975.353	481.98
975.716	501.73
976.08	388.84
976.443	309.71
976.806	383.19
977.17	335.15
977.533	369.06
977.896	289.92
978.259	363.41
978.622	777.59
978.985	369.06
979.348	267.29
979.711	374.71
980.073	343.63
980.436	400.13
980.799	436.84
981.161	255.97
981.524	337.98
981.886	414.25
982.248	397.31
982.611	340.81
982.973	357.76
983.335	371.89
983.697	318.19
984.059	360.59
984.421	298.4
984.783	397.31
985.145	354.94
985.506	298.4
985.868	394.49
986.23	419.9
986.591	428.37
986.953	448.13
987.314	363.41
987.675	366.24
988.037	10692.09
988.398	625.71
988.759	329.5
989.12	354.94
989.481	453.77
989.842	470.7
990.203	363.41
990.564	332.33
990.924	391.66
991.285	7179.54
991.646	527.1
992.006	270.12
992.367	453.77
992.727	391.66
993.087	431.19
993.448	346.46
993.808	354.94
994.168	281.43
994.528	295.57
994.888	281.43
995.248	414.25
995.608	295.57
995.967	321.02
996.327	349.29
996.687	371.89
997.046	335.15
997.406	383.19
997.765	295.57
998.125	360.59
998.484	360.59
998.843	436.84
999.202	405.78
999.561	377.54
999.92	405.78
1000.279	371.89
1000.638	414.25
1000.997	411.43
1001.356	363.41
1001.715	309.71
1002.073	388.84
1002.432	397.31
1002.79	363.41
1003.149	360.59
1003.507	414.25
1003.865	386.01
1004.224	349.29
1004.582	388.84
1004.94	388.84
1005.298	255.97
1005.656	354.94
1006.014	360.59
1006.371	346.46
1006.729	363.41
1007.087	470.7
1007.445	408.61
1007.802	360.59
1008.16	346.46
1008.517	332.33
1008.874	363.41
1009.232	264.46
1009.589	682
1009.946	481.98
1010.303	335.15
1010.66	428.37
1011.017	397.31
1011.374	397.31
1011.731	369.06
1012.087	357.76
1012.444	377.54
1012.801	360.59
1013.157	349.29
1013.513	312.54
1013.87	340.81
1014.226	267.29
1014.582	270.12
1014.939	383.19
1015.295	386.01
1015.651	309.71
1016.007	289.92
1016.363	417.08
1016.719	400.13
1017.074	456.59
1017.43	391.66
1017.786	510.19
1018.141	343.63
1018.497	306.89
1018.852	397.31
1019.208	408.61
1019.563	315.37
1019.918	340.81
1020.273	405.78
1020.628	326.68
1020.983	552.47
1021.338	422.72
1021.693	354.94
1022.048	417.08
1022.403	326.68
1022.757	287.09
1023.112	352.11
1023.467	374.71
1023.821	281.43
1024.175	275.78
1024.53	369.06
1024.884	309.71
1025.238	405.78
1025.592	349.29
1025.946	323.85
1026.3	261.63
1026.654	301.23
1027.008	258.8
1027.362	354.94
1027.716	346.46
1028.069	332.33
1028.423	323.85
1028.777	366.24
1029.13	329.5
1029.483	408.61
1029.837	402.96
1030.19	397.31
1030.543	278.61
1030.896	388.84
1031.249	309.71
1031.602	284.26
1031.955	292.75
1032.308	340.81
1032.661	363.41
1033.013	397.31
1033.366	326.68
1033.719	400.13
1034.071	343.63
1034.424	304.06
1034.776	349.29
1035.128	360.59
1035.48	414.25
1035.833	476.34
1036.185	422.72
1036.537	422.72
1036.889	422.72
