Data from BCF12_8_FLMS019251_16-26-45-627.txt Node
Date: Mon Feb 11 16:26:45 CET 2019
User: luk
Spectrometer: FLMS01925
Trigger mode: 0
Integration Time (sec): 1.215820E0
Scans to average: 1
Electric dark correction enabled: true
Nonlinearity correction enabled: true
Boxcar width: 0
XAxis mode: Wavelengths
Number of Pixels in Spectrum: 2048
>>>>>Begin Spectral Data<<<<<
187.103	-223.22
187.574	-223.22
188.045	-223.22
188.516	-340.07
188.987	-80.96
189.458	-29.82
189.929	-149.21
190.4	-9.94
190.871	-66.75
191.342	-140.68
191.813	-69.59
192.284	18.45
192.754	-95.17
193.225	52.51
193.696	-46.86
194.166	-49.7
194.637	168.74
195.107	151.74
195.578	129.07
196.048	75.2
196.518	61.02
196.989	137.57
197.459	140.41
197.929	163.07
198.399	366.77
198.869	231.03
199.339	245.19
199.809	298.93
200.279	349.82
200.749	395.02
201.219	310.24
201.689	310.24
202.159	248.02
202.628	346.99
203.098	239.53
203.568	310.24
204.037	400.66
204.507	318.72
204.976	355.47
205.445	380.89
205.915	338.51
206.384	298.93
206.853	307.42
207.323	298.93
207.792	293.28
208.261	363.94
208.73	264.99
209.199	375.24
209.668	406.31
210.137	363.94
210.606	335.68
211.075	355.47
211.543	375.24
212.012	437.37
212.481	216.88
212.95	259.33
213.418	502.26
213.887	403.49
214.355	485.33
214.824	307.42
215.292	273.48
215.76	248.02
216.229	259.33
216.697	250.84
217.165	301.76
217.633	233.87
218.101	392.19
218.569	657.2
219.037	352.64
219.505	417.6
219.973	293.28
220.441	264.99
220.909	211.22
221.377	346.99
221.844	352.64
222.312	262.16
222.78	287.62
223.247	259.33
223.715	281.96
224.182	313.07
224.65	307.42
225.117	468.41
225.584	279.14
226.052	363.94
226.519	248.02
226.986	431.72
227.453	242.36
227.92	355.47
228.387	392.19
228.854	358.29
229.321	301.76
229.788	355.47
230.255	474.05
230.722	411.96
231.189	276.31
231.655	321.55
232.122	378.07
232.589	335.68
233.055	270.65
233.522	440.19
233.988	248.02
234.454	349.82
234.921	361.12
235.387	516.35
235.853	307.42
236.32	307.42
236.786	245.19
237.252	313.07
237.718	389.37
238.184	267.82
238.65	369.59
239.116	315.9
239.582	304.59
240.047	304.59
240.513	310.24
240.979	327.21
241.445	239.53
241.91	324.38
242.376	239.53
242.841	349.82
243.307	313.07
243.772	346.99
244.238	355.47
244.703	375.24
245.168	307.42
245.633	310.24
246.099	315.9
246.564	270.65
247.029	341.34
247.494	222.54
247.959	276.31
248.424	284.79
248.889	296.1
249.353	459.94
249.818	344.16
250.283	253.67
250.748	290.45
251.212	318.72
251.677	327.21
252.141	327.21
252.606	395.02
253.07	293.28
253.535	330.03
253.999	279.14
254.463	358.29
254.927	256.5
255.392	346.99
255.856	397.84
256.32	304.59
256.784	327.21
257.248	366.77
257.712	332.86
258.176	505.08
258.64	386.54
259.103	290.45
259.567	304.59
260.031	355.47
260.495	378.07
260.958	420.43
261.422	411.96
261.885	313.07
262.349	310.24
262.812	293.28
263.275	386.54
263.739	338.51
264.202	344.16
264.665	366.77
265.128	403.49
265.591	352.64
266.054	346.99
266.517	423.25
266.98	298.93
267.443	310.24
267.906	256.5
268.369	242.36
268.832	378.07
269.294	281.96
269.757	298.93
270.22	276.31
270.682	349.82
271.145	372.42
271.607	307.42
272.07	553
272.532	344.16
272.994	369.59
273.456	313.07
273.919	1010.97
274.381	245.19
274.843	389.37
275.305	434.54
275.767	332.86
276.229	372.42
276.691	406.31
277.153	264.99
277.614	304.59
278.076	248.02
278.538	375.24
279	296.1
279.461	332.86
279.923	533.27
280.384	307.42
280.846	262.16
281.307	324.38
281.769	389.37
282.23	352.64
282.691	482.51
283.152	358.29
283.613	321.55
284.075	293.28
284.536	363.94
284.997	417.6
285.458	349.82
285.918	315.9
286.379	459.94
286.84	516.35
287.301	228.2
287.762	318.72
288.222	239.53
288.683	287.62
289.143	327.21
289.604	290.45
290.064	318.72
290.525	318.72
290.985	524.81
291.445	369.59
291.906	264.99
292.366	363.94
292.826	296.1
293.286	428.9
293.746	321.55
294.206	423.25
294.666	426.07
295.126	369.59
295.586	307.42
296.046	270.65
296.506	310.24
296.965	389.37
297.425	293.28
297.884	414.78
298.344	369.59
298.804	321.55
299.263	349.82
299.722	313.07
300.182	355.47
300.641	157.41
301.1	270.65
301.559	346.99
302.019	321.55
302.478	321.55
302.937	313.07
303.396	369.59
303.855	536.09
304.314	355.47
304.772	750.01
305.231	349.82
305.69	321.55
306.149	344.16
306.607	349.82
307.066	276.31
307.524	386.54
307.983	349.82
308.441	496.62
308.9	595.26
309.358	423.25
309.816	544.54
310.275	318.72
310.733	273.48
311.191	366.77
311.649	417.6
312.107	471.23
312.565	279.14
313.023	273.48
313.481	315.9
313.939	397.84
314.397	327.21
314.854	327.21
315.312	380.89
315.77	454.3
316.227	250.84
316.685	296.1
317.142	262.16
317.6	434.54
318.057	386.54
318.514	267.82
318.972	301.76
319.429	437.37
319.886	372.42
320.343	403.49
320.8	332.86
321.257	310.24
321.714	451.48
322.171	426.07
322.628	281.96
323.085	304.59
323.542	219.71
323.998	346.99
324.455	259.33
324.912	386.54
325.368	267.82
325.825	575.54
326.281	327.21
326.738	346.99
327.194	352.64
327.65	457.12
328.107	341.34
328.563	380.89
329.019	462.76
329.475	335.68
329.931	434.54
330.387	488.15
330.843	270.65
331.299	403.49
331.755	298.93
332.211	361.12
332.666	358.29
333.122	307.42
333.578	361.12
334.033	366.77
334.489	375.24
334.944	264.99
335.4	623.42
335.855	521.99
336.31	270.65
336.766	386.54
337.221	293.28
337.676	369.59
338.131	392.19
338.586	346.99
339.041	279.14
339.496	471.23
339.951	327.21
340.406	406.31
340.861	434.54
341.316	248.02
341.771	389.37
342.225	352.64
342.68	330.03
343.134	298.93
343.589	397.84
344.043	417.6
344.498	363.94
344.952	324.38
345.406	1064.17
345.861	262.16
346.315	324.38
346.769	341.34
347.223	349.82
347.677	287.62
348.131	256.5
348.585	298.93
349.039	262.16
349.493	273.48
349.947	310.24
350.401	400.66
350.854	327.21
351.308	420.43
351.762	324.38
352.215	434.54
352.669	236.7
353.122	307.42
353.575	330.03
354.029	361.12
354.482	276.31
354.935	358.29
355.388	324.38
355.842	420.43
356.295	352.64
356.748	242.36
357.201	270.65
357.654	383.72
358.106	335.68
358.559	245.19
359.012	366.77
359.465	256.5
359.917	431.72
360.37	276.31
360.823	451.48
361.275	389.37
361.728	293.28
362.18	471.23
362.632	406.31
363.085	301.76
363.537	276.31
363.989	307.42
364.441	310.24
364.893	335.68
365.345	264.99
365.797	242.36
366.249	358.29
366.701	315.9
367.153	248.02
367.605	293.28
368.057	338.51
368.508	242.36
368.96	324.38
369.411	318.72
369.863	403.49
370.314	476.87
370.766	298.93
371.217	423.25
371.669	313.07
372.12	468.41
372.571	414.78
373.022	310.24
373.473	406.31
373.924	417.6
374.375	327.21
374.826	327.21
375.277	321.55
375.728	284.79
376.179	341.34
376.63	324.38
377.08	448.65
377.531	298.93
377.981	284.79
378.432	471.23
378.883	513.54
379.333	395.02
379.783	338.51
380.234	313.07
380.684	378.07
381.134	440.19
381.584	324.38
382.034	454.3
382.485	315.9
382.935	372.42
383.385	403.49
383.834	344.16
384.284	346.99
384.734	341.34
385.184	426.07
385.634	315.9
386.083	338.51
386.533	270.65
386.982	313.07
387.432	434.54
387.881	392.19
388.331	239.53
388.78	397.84
389.229	304.59
389.679	276.31
390.128	349.82
390.577	301.76
391.026	397.84
391.475	262.16
391.924	276.31
392.373	307.42
392.822	332.86
393.27	426.07
393.719	335.68
394.168	287.62
394.617	403.49
395.065	281.96
395.514	445.83
395.962	383.72
396.411	321.55
396.859	276.31
397.307	482.51
397.756	344.16
398.204	313.07
398.652	411.96
399.1	378.07
399.548	298.93
399.996	541.73
400.444	321.55
400.892	208.39
401.34	315.9
401.788	293.28
402.236	284.79
402.683	242.36
403.131	327.21
403.579	358.29
404.026	330.03
404.474	352.64
404.921	287.62
405.369	352.64
405.816	332.86
406.263	313.07
406.71	341.34
407.158	310.24
407.605	239.53
408.052	304.59
408.499	428.9
408.946	375.24
409.393	327.21
409.84	358.29
410.286	284.79
410.733	239.53
411.18	307.42
411.626	459.94
412.073	310.24
412.52	392.19
412.966	431.72
413.413	346.99
413.859	344.16
414.305	395.02
414.752	293.28
415.198	284.79
415.644	264.99
416.09	361.12
416.536	352.64
416.982	363.94
417.428	426.07
417.874	315.9
418.32	313.07
418.766	476.87
419.211	363.94
419.657	298.93
420.103	296.1
420.548	270.65
420.994	346.99
421.439	426.07
421.885	332.86
422.33	324.38
422.776	346.99
423.221	507.9
423.666	406.31
424.111	395.02
424.556	445.83
425.001	411.96
425.446	335.68
425.891	262.16
426.336	386.54
426.781	569.91
427.226	366.77
427.671	315.9
428.115	301.76
428.56	459.94
429.005	361.12
429.449	361.12
429.894	420.43
430.338	541.73
430.782	349.82
431.227	414.78
431.671	346.99
432.115	397.84
432.559	307.42
433.003	414.78
433.447	344.16
433.891	411.96
434.335	380.89
434.779	335.68
435.223	389.37
435.667	366.77
436.111	1877.25
436.554	338.51
436.998	355.47
437.442	293.28
437.885	372.42
438.328	395.02
438.772	307.42
439.215	298.93
439.659	403.49
440.102	352.64
440.545	443.01
440.988	369.59
441.431	366.77
441.874	327.21
442.317	313.07
442.76	341.34
443.203	264.99
443.646	321.55
444.089	397.84
444.531	304.59
444.974	296.1
445.417	406.31
445.859	496.62
446.302	335.68
446.744	375.24
447.186	369.59
447.629	510.72
448.071	346.99
448.513	417.6
448.956	358.29
449.398	298.93
449.84	443.01
450.282	411.96
450.724	330.03
451.166	253.67
451.607	541.73
452.049	307.42
452.491	411.96
452.933	346.99
453.374	564.27
453.816	578.36
454.257	403.49
454.699	423.25
455.14	485.33
455.582	476.87
456.023	392.19
456.464	372.42
456.905	400.66
457.347	437.37
457.788	313.07
458.229	378.07
458.67	324.38
459.111	248.02
459.552	338.51
459.992	349.82
460.433	366.77
460.874	332.86
461.315	426.07
461.755	420.43
462.196	409.13
462.636	434.54
463.077	338.51
463.517	298.93
463.957	284.79
464.398	369.59
464.838	417.6
465.278	358.29
465.718	225.37
466.158	341.34
466.598	423.25
467.038	352.64
467.478	457.12
467.918	352.64
468.358	521.99
468.798	344.16
469.237	256.5
469.677	242.36
470.117	459.94
470.556	324.38
470.996	366.77
471.435	321.55
471.874	264.99
472.314	304.59
472.753	361.12
473.192	264.99
473.631	366.77
474.07	344.16
474.509	403.49
474.948	245.19
475.387	287.62
475.826	451.48
476.265	304.59
476.704	327.21
477.143	389.37
477.581	411.96
478.02	521.99
478.458	409.13
478.897	493.79
479.335	298.93
479.774	327.21
480.212	409.13
480.65	171.57
481.089	361.12
481.527	361.12
481.965	290.45
482.403	233.87
482.841	341.34
483.279	324.38
483.717	414.78
484.155	338.51
484.592	315.9
485.03	352.64
485.468	445.83
485.905	344.16
486.343	426.07
486.781	459.94
487.218	426.07
487.655	327.21
488.093	411.96
488.53	372.42
488.967	332.86
489.405	383.72
489.842	301.76
490.279	490.97
490.716	521.99
491.153	372.42
491.59	459.94
492.027	276.31
492.463	281.96
492.9	307.42
493.337	352.64
493.773	395.02
494.21	400.66
494.647	426.07
495.083	279.14
495.519	358.29
495.956	222.54
496.392	383.72
496.828	315.9
497.265	321.55
497.701	440.19
498.137	389.37
498.573	346.99
499.009	414.78
499.445	400.66
499.881	386.54
500.316	327.21
500.752	197.06
501.188	349.82
501.624	366.77
502.059	363.94
502.495	414.78
502.93	344.16
503.366	1819.05
503.801	332.86
504.236	358.29
504.672	366.77
505.107	383.72
505.542	330.03
505.977	276.31
506.412	434.54
506.847	327.21
507.282	262.16
507.717	233.87
508.152	428.9
508.587	321.55
509.021	397.84
509.456	279.14
509.891	310.24
510.325	341.34
510.76	349.82
511.194	290.45
511.628	310.24
512.063	355.47
512.497	330.03
512.931	375.24
513.366	327.21
513.8	372.42
514.234	378.07
514.668	369.59
515.102	279.14
515.536	262.16
515.969	448.65
516.403	327.21
516.837	490.97
517.271	474.05
517.704	273.48
518.138	366.77
518.571	346.99
519.005	457.12
519.438	330.03
519.871	386.54
520.305	411.96
520.738	361.12
521.171	457.12
521.604	538.91
522.037	471.23
522.47	490.97
522.903	403.49
523.336	417.6
523.769	389.37
524.202	366.77
524.634	344.16
525.067	298.93
525.5	330.03
525.932	569.91
526.365	479.69
526.797	400.66
527.23	281.96
527.662	307.42
528.094	468.41
528.527	366.77
528.959	378.07
529.391	550.18
529.823	307.42
530.255	395.02
530.687	400.66
531.119	338.51
531.551	355.47
531.982	307.42
532.414	375.24
532.846	457.12
533.277	330.03
533.709	293.28
534.14	301.76
534.572	318.72
535.003	344.16
535.435	318.72
535.866	443.01
536.297	355.47
536.728	335.68
537.159	344.16
537.59	330.03
538.022	369.59
538.452	592.44
538.883	406.31
539.314	378.07
539.745	256.5
540.176	428.9
540.606	327.21
541.037	380.89
541.468	355.47
541.898	338.51
542.328	352.64
542.759	510.72
543.189	293.28
543.619	349.82
544.05	431.72
544.48	324.38
544.91	358.29
545.34	330.03
545.77	375.24
546.2	471.23
546.63	445.83
547.06	423.25
547.489	397.84
547.919	318.72
548.349	327.21
548.778	428.9
549.208	372.42
549.637	307.42
550.067	403.49
550.496	420.43
550.926	369.59
551.355	318.72
551.784	324.38
552.213	321.55
552.642	296.1
553.071	338.51
553.5	341.34
553.929	276.31
554.358	321.55
554.787	397.84
555.216	324.38
555.645	397.84
556.073	434.54
556.502	332.86
556.93	358.29
557.359	321.55
557.787	222.54
558.216	372.42
558.644	293.28
559.072	338.51
559.5	332.86
559.929	338.51
560.357	369.59
560.785	324.38
561.213	301.76
561.641	440.19
562.068	555.82
562.496	321.55
562.924	321.55
563.352	434.54
563.779	380.89
564.207	307.42
564.634	304.59
565.062	411.96
565.489	389.37
565.917	259.33
566.344	403.49
566.771	296.1
567.198	315.9
567.625	287.62
568.053	301.76
568.48	321.55
568.907	301.76
569.333	476.87
569.76	332.86
570.187	428.9
570.614	344.16
571.04	20669.2
571.467	786.55
571.894	417.6
572.32	324.38
572.747	378.07
573.173	417.6
573.599	400.66
574.026	437.37
574.452	428.9
574.878	344.16
575.304	307.42
575.73	338.51
576.156	366.77
576.582	330.03
577.008	293.28
577.434	346.99
577.86	335.68
578.285	338.51
578.711	313.07
579.137	420.43
579.562	298.93
579.988	287.62
580.413	409.13
580.838	287.62
581.264	279.14
581.689	338.51
582.114	383.72
582.539	2525.6
582.964	462.76
583.39	530.45
583.814	273.48
584.239	386.54
584.664	392.19
585.089	284.79
585.514	499.44
585.939	363.94
586.363	409.13
586.788	383.72
587.212	335.68
587.637	341.34
588.061	296.1
588.485	290.45
588.91	245.19
589.334	383.72
589.758	420.43
590.182	341.34
590.606	372.42
591.03	451.48
591.454	358.29
591.878	392.19
592.302	262.16
592.726	533.27
593.15	420.43
593.573	281.96
593.997	536.09
594.42	341.34
594.844	330.03
595.267	301.76
595.691	386.54
596.114	293.28
596.537	313.07
596.96	363.94
597.384	383.72
597.807	352.64
598.23	358.29
598.653	406.31
599.076	335.68
599.499	369.59
599.921	273.48
600.344	304.59
600.767	380.89
601.189	468.41
601.612	327.21
602.034	335.68
602.457	346.99
602.879	733.15
603.302	355.47
603.724	318.72
604.146	248.02
604.568	225.37
604.991	239.53
605.413	281.96
605.835	488.15
606.257	330.03
606.678	307.42
607.1	392.19
607.522	380.89
607.944	567.09
608.365	426.07
608.787	250.84
609.209	530.45
609.63	310.24
610.051	262.16
610.473	344.16
610.894	397.84
611.315	386.54
611.737	395.02
612.158	397.84
612.579	338.51
613	505.08
613.421	307.42
613.842	437.37
614.263	409.13
614.683	443.01
615.104	315.9
615.525	510.72
615.945	327.21
616.366	279.14
616.787	392.19
617.207	397.84
617.627	341.34
618.048	369.59
618.468	293.28
618.888	315.9
619.308	182.9
619.728	301.76
620.148	310.24
620.568	330.03
620.988	516.35
621.408	375.24
621.828	259.33
622.248	344.16
622.668	386.54
623.087	457.12
623.507	324.38
623.926	409.13
624.346	411.96
624.765	330.03
625.185	259.33
625.604	355.47
626.023	324.38
626.442	281.96
626.861	369.59
627.28	284.79
627.699	259.33
628.118	327.21
628.537	267.82
628.956	468.41
629.375	426.07
629.794	363.94
630.212	443.01
630.631	524.81
631.049	315.9
631.468	372.42
631.886	307.42
632.305	335.68
632.723	259.33
633.141	284.79
633.559	375.24
633.978	256.5
634.396	451.48
634.814	386.54
635.232	335.68
635.65	318.72
636.067	281.96
636.485	324.38
636.903	296.1
637.321	287.62
637.738	583.99
638.156	358.29
638.573	310.24
638.991	414.78
639.408	468.41
639.825	281.96
640.243	372.42
640.66	315.9
641.077	344.16
641.494	423.25
641.911	386.54
642.328	352.64
642.745	358.29
643.162	355.47
643.579	451.48
643.995	341.34
644.412	476.87
644.829	259.33
645.245	236.7
645.662	273.48
646.078	318.72
646.495	335.68
646.911	341.34
647.327	403.49
647.743	397.84
648.159	397.84
648.576	327.21
648.992	403.49
649.408	434.54
649.824	335.68
650.239	358.29
650.655	335.68
651.071	338.51
651.487	378.07
651.902	428.9
652.318	332.86
652.733	270.65
653.149	301.76
653.564	264.99
653.979	330.03
654.395	214.05
654.81	352.64
655.225	270.65
655.64	231.03
656.055	284.79
656.47	358.29
656.885	222.54
657.3	250.84
657.715	490.97
658.13	358.29
658.544	400.66
658.959	264.99
659.374	307.42
659.788	338.51
660.202	298.93
660.617	564.27
661.031	287.62
661.445	346.99
661.86	256.5
662.274	490.97
662.688	397.84
663.102	372.42
663.516	434.54
663.93	321.55
664.344	338.51
664.758	448.65
665.171	363.94
665.585	389.37
665.999	327.21
666.412	262.16
666.826	383.72
667.239	409.13
667.653	321.55
668.066	250.84
668.479	572.72
668.892	313.07
669.306	307.42
669.719	361.12
670.132	437.37
670.545	338.51
670.958	298.93
671.37	363.94
671.783	380.89
672.196	423.25
672.609	284.79
673.021	366.77
673.434	318.72
673.846	338.51
674.259	253.67
674.671	301.76
675.084	287.62
675.496	330.03
675.908	324.38
676.32	304.59
676.732	321.55
677.144	372.42
677.556	313.07
677.968	259.33
678.38	375.24
678.792	332.86
679.204	363.94
679.615	383.72
680.027	324.38
680.439	211.22
680.85	445.83
681.262	420.43
681.673	296.1
682.084	395.02
682.496	321.55
682.907	417.6
683.318	330.03
683.729	335.68
684.14	369.59
684.551	321.55
684.962	318.72
685.373	290.45
685.784	264.99
686.194	479.69
686.605	264.99
687.016	279.14
687.426	372.42
687.837	236.7
688.247	270.65
688.657	259.33
689.068	383.72
689.478	403.49
689.888	346.99
690.298	301.76
690.708	346.99
691.118	290.45
691.528	287.62
691.938	327.21
692.348	349.82
692.758	259.33
693.168	287.62
693.577	344.16
693.987	256.5
694.396	296.1
694.806	307.42
695.215	344.16
695.625	281.96
696.034	383.72
696.443	279.14
696.852	369.59
697.262	366.77
697.671	307.42
698.08	488.15
698.489	310.24
698.897	321.55
699.306	344.16
699.715	296.1
700.124	397.84
700.532	315.9
700.941	264.99
701.35	287.62
701.758	505.08
702.166	403.49
702.575	301.76
702.983	231.03
703.391	378.07
703.799	310.24
704.208	395.02
704.616	270.65
705.024	451.48
705.432	349.82
705.839	298.93
706.247	414.78
706.655	493.79
707.063	324.38
707.47	250.84
707.878	231.03
708.285	355.47
708.693	344.16
709.1	366.77
709.508	267.82
709.915	264.99
710.322	468.41
710.729	592.44
711.136	327.21
711.543	293.28
711.95	281.96
712.357	349.82
712.764	338.51
713.171	358.29
713.578	335.68
713.984	358.29
714.391	273.48
714.797	301.76
715.204	321.55
715.61	490.97
716.017	338.51
716.423	380.89
716.829	315.9
717.236	315.9
717.642	231.03
718.048	363.94
718.454	451.48
718.86	307.42
719.266	488.15
719.671	281.96
720.077	380.89
720.483	301.76
720.889	426.07
721.294	318.72
721.7	352.64
722.105	310.24
722.511	219.71
722.916	355.47
723.321	482.51
723.726	533.27
724.132	383.72
724.537	400.66
724.942	332.86
725.347	304.59
725.752	346.99
726.156	420.43
726.561	383.72
726.966	338.51
727.371	454.3
727.775	457.12
728.18	296.1
728.584	330.03
728.989	313.07
729.393	617.79
729.798	298.93
730.202	358.29
730.606	279.14
731.01	281.96
731.414	355.47
731.818	298.93
732.222	383.72
732.626	321.55
733.03	279.14
733.434	225.37
733.837	389.37
734.241	386.54
734.645	406.31
735.048	310.24
735.452	375.24
735.855	287.62
736.258	296.1
736.662	459.94
737.065	417.6
737.468	386.54
737.871	327.21
738.274	346.99
738.677	378.07
739.08	363.94
739.483	341.34
739.886	324.38
740.289	462.76
740.691	304.59
741.094	352.64
741.497	307.42
741.899	541.73
742.302	341.34
742.704	216.88
743.106	279.14
743.508	160.24
743.911	284.79
744.313	262.16
744.715	279.14
745.117	287.62
745.519	290.45
745.921	448.65
746.323	307.42
746.724	310.24
747.126	355.47
747.528	502.26
747.929	293.28
748.331	414.78
748.732	315.9
749.134	191.4
749.535	383.72
749.936	437.37
750.338	270.65
750.739	431.72
751.14	284.79
751.541	363.94
751.942	287.62
752.343	386.54
752.744	352.64
753.144	313.07
753.545	380.89
753.946	378.07
754.346	245.19
754.747	465.59
755.148	660.01
755.548	395.02
755.948	361.12
756.349	276.31
756.749	279.14
757.149	281.96
757.549	426.07
757.949	352.64
758.349	378.07
758.749	366.77
759.149	262.16
759.549	372.42
759.949	335.68
760.348	519.17
760.748	344.16
761.148	307.42
761.547	397.84
761.947	383.72
762.346	346.99
762.745	445.83
763.145	352.64
763.544	414.78
763.943	363.94
764.342	344.16
764.741	248.02
765.14	284.79
765.539	287.62
765.938	555.82
766.336	259.33
766.735	358.29
767.134	392.19
767.532	361.12
767.931	296.1
768.329	561.45
768.728	315.9
769.126	327.21
769.525	516.35
769.923	335.68
770.321	349.82
770.719	437.37
771.117	290.45
771.515	411.96
771.913	383.72
772.311	352.64
772.709	411.96
773.106	287.62
773.504	298.93
773.902	318.72
774.299	341.34
774.697	710.65
775.094	293.28
775.491	349.82
775.889	256.5
776.286	262.16
776.683	335.68
777.08	341.34
777.477	330.03
777.874	248.02
778.271	341.34
778.668	310.24
779.065	296.1
779.462	397.84
779.858	216.88
780.255	369.59
780.652	276.31
781.048	448.65
781.444	284.79
781.841	335.68
782.237	321.55
782.633	321.55
783.03	242.36
783.426	380.89
783.822	281.96
784.218	259.33
784.614	355.47
785.01	225.37
785.405	253.67
785.801	346.99
786.197	363.94
786.593	321.55
786.988	296.1
787.384	445.83
787.779	451.48
788.174	341.34
788.57	332.86
788.965	290.45
789.36	366.77
789.755	279.14
790.15	324.38
790.545	428.9
790.94	315.9
791.335	332.86
791.73	293.28
792.125	395.02
792.52	335.68
792.914	301.76
793.309	293.28
793.703	409.13
794.098	256.5
794.492	417.6
794.887	293.28
795.281	488.15
795.675	369.59
796.069	321.55
796.463	324.38
796.857	307.42
797.251	318.72
797.645	344.16
798.039	389.37
798.433	281.96
798.826	307.42
799.22	267.82
799.614	287.62
800.007	428.9
800.401	375.24
800.794	250.84
801.187	406.31
801.581	287.62
801.974	318.72
802.367	369.59
802.76	330.03
803.153	250.84
803.546	338.51
803.939	392.19
804.332	298.93
804.725	279.14
805.117	245.19
805.51	392.19
805.903	321.55
806.295	361.12
806.688	219.71
807.08	225.37
807.472	423.25
807.865	440.19
808.257	290.45
808.649	304.59
809.041	301.76
809.433	445.83
809.825	352.64
810.217	287.62
810.609	363.94
811.001	479.69
811.392	332.86
811.784	296.1
812.175	276.31
812.567	392.19
812.958	310.24
813.35	287.62
813.741	239.53
814.132	327.21
814.524	293.28
814.915	378.07
815.306	281.96
815.697	346.99
816.088	358.29
816.479	392.19
816.87	344.16
817.26	392.19
817.651	457.12
818.042	361.12
818.432	293.28
818.823	349.82
819.213	468.41
819.604	344.16
819.994	420.43
820.384	307.42
820.775	397.84
821.165	270.65
821.555	344.16
821.945	205.56
822.335	279.14
822.725	426.07
823.114	279.14
823.504	264.99
823.894	352.64
824.284	344.16
824.673	315.9
825.063	411.96
825.452	281.96
825.842	273.48
826.231	620.61
826.62	335.68
827.009	400.66
827.399	380.89
827.788	346.99
828.177	414.78
828.566	361.12
828.954	614.97
829.343	355.47
829.732	327.21
830.121	626.24
830.509	578.36
830.898	276.31
831.286	270.65
831.675	358.29
832.063	462.76
832.452	267.82
832.84	304.59
833.228	448.65
833.616	310.24
834.004	392.19
834.392	372.42
834.78	448.65
835.168	287.62
835.556	366.77
835.944	423.25
836.331	363.94
836.719	406.31
837.107	355.47
837.494	474.05
837.881	372.42
838.269	239.53
838.656	273.48
839.043	287.62
839.431	583.99
839.818	267.82
840.205	324.38
840.592	245.19
840.979	287.62
841.366	355.47
841.752	298.93
842.139	293.28
842.526	310.24
842.912	389.37
843.299	315.9
843.685	383.72
844.072	358.29
844.458	395.02
844.844	321.55
845.231	279.14
845.617	228.2
846.003	293.28
846.389	352.64
846.775	298.93
847.161	293.28
847.547	290.45
847.933	301.76
848.318	313.07
848.704	315.9
849.09	386.54
849.475	281.96
849.861	327.21
850.246	383.72
850.631	437.37
851.017	375.24
851.402	262.16
851.787	352.64
852.172	572.72
852.557	417.6
852.942	352.64
853.327	290.45
853.712	318.72
854.097	406.31
854.481	233.87
854.866	380.89
855.25	332.86
855.635	330.03
856.019	324.38
856.404	315.9
856.788	332.86
857.172	264.99
857.557	426.07
857.941	264.99
858.325	307.42
858.709	327.21
859.093	332.86
859.477	361.12
859.86	406.31
860.244	301.76
860.628	583.99
861.012	462.76
861.395	296.1
861.779	307.42
862.162	293.28
862.545	395.02
862.929	307.42
863.312	437.37
863.695	267.82
864.078	392.19
864.461	330.03
864.844	324.38
865.227	445.83
865.61	281.96
865.993	276.31
866.376	307.42
866.758	490.97
867.141	434.54
867.523	363.94
867.906	315.9
868.288	318.72
868.671	395.02
869.053	310.24
869.435	330.03
869.817	335.68
870.199	324.38
870.581	307.42
870.963	383.72
871.345	318.72
871.727	400.66
872.109	219.71
872.491	301.76
872.872	313.07
873.254	318.72
873.635	361.12
874.017	428.9
874.398	304.59
874.779	434.54
875.161	335.68
875.542	409.13
875.923	363.94
876.304	324.38
876.685	321.55
877.066	361.12
877.447	290.45
877.828	284.79
878.208	366.77
878.589	338.51
878.97	431.72
879.35	332.86
879.731	290.45
880.111	366.77
880.491	245.19
880.872	313.07
881.252	191.4
881.632	264.99
882.012	400.66
882.392	445.83
882.772	462.76
883.152	358.29
883.532	400.66
883.912	361.12
884.291	321.55
884.671	296.1
885.051	298.93
885.43	395.02
885.81	318.72
886.189	276.31
886.568	426.07
886.948	366.77
887.327	476.87
887.706	352.64
888.085	558.64
888.464	366.77
888.843	609.34
889.222	363.94
889.601	459.94
889.979	372.42
890.358	395.02
890.737	403.49
891.115	335.68
891.494	281.96
891.872	296.1
892.25	250.84
892.629	428.9
893.007	547.36
893.385	471.23
893.763	358.29
894.141	397.84
894.519	420.43
894.897	287.62
895.275	344.16
895.653	264.99
896.03	403.49
896.408	420.43
896.786	344.16
897.163	293.28
897.541	287.62
897.918	406.31
898.295	352.64
898.673	259.33
899.05	330.03
899.427	817.44
899.804	352.64
900.181	313.07
900.558	369.59
900.935	341.34
901.312	344.16
901.688	380.89
902.065	366.77
902.442	298.93
902.818	358.29
903.195	225.37
903.571	253.67
903.947	366.77
904.324	361.12
904.7	298.93
905.076	499.44
905.452	276.31
905.828	445.83
906.204	324.38
906.58	315.9
906.956	324.38
907.331	485.33
907.707	423.25
908.083	372.42
908.458	301.76
908.834	281.96
909.209	330.03
909.585	361.12
909.96	409.13
910.335	310.24
910.71	397.84
911.086	386.54
911.461	471.23
911.836	307.42
912.21	293.28
912.585	318.72
912.96	307.42
913.335	310.24
913.709	256.5
914.084	284.79
914.459	403.49
914.833	324.38
915.207	259.33
915.582	310.24
915.956	267.82
916.33	400.66
916.704	355.47
917.078	335.68
917.452	349.82
917.826	310.24
918.2	372.42
918.574	366.77
918.948	304.59
919.321	262.16
919.695	315.9
920.068	318.72
920.442	315.9
920.815	380.89
921.189	363.94
921.562	516.35
921.935	459.94
922.308	318.72
922.681	417.6
923.054	228.2
923.427	361.12
923.8	315.9
924.173	330.03
924.546	313.07
924.919	296.1
925.291	363.94
925.664	324.38
926.036	228.2
926.409	287.62
926.781	301.76
927.153	380.89
927.526	372.42
927.898	290.45
928.27	383.72
928.642	270.65
929.014	287.62
929.386	352.64
929.758	219.71
930.129	363.94
930.501	397.84
930.873	264.99
931.244	335.68
931.616	304.59
931.987	262.16
932.359	409.13
932.73	332.86
933.101	372.42
933.472	375.24
933.843	341.34
934.214	375.24
934.585	298.93
934.956	318.72
935.327	640.31
935.698	267.82
936.069	386.54
936.439	310.24
936.81	296.1
937.18	383.72
937.551	315.9
937.921	369.59
938.292	355.47
938.662	318.72
939.032	397.84
939.402	414.78
939.772	383.72
940.142	332.86
940.512	279.14
940.882	245.19
941.252	395.02
941.621	318.72
941.991	355.47
942.361	372.42
942.73	332.86
943.1	307.42
943.469	313.07
943.838	519.17
944.208	431.72
944.577	406.31
944.946	346.99
945.315	281.96
945.684	335.68
946.053	256.5
946.422	313.07
946.791	304.59
947.159	346.99
947.528	270.65
947.897	338.51
948.265	321.55
948.634	409.13
949.002	231.03
949.371	313.07
949.739	267.82
950.107	315.9
950.475	352.64
950.843	332.86
951.211	332.86
951.579	355.47
951.947	290.45
952.315	386.54
952.683	264.99
953.05	264.99
953.418	315.9
953.785	276.31
954.153	330.03
954.52	366.77
954.888	411.96
955.255	228.2
955.622	276.31
955.989	409.13
956.356	451.48
956.723	349.82
957.09	346.99
957.457	428.9
957.824	290.45
958.191	290.45
958.557	414.78
958.924	304.59
959.291	414.78
959.657	310.24
960.023	721.9
960.39	355.47
960.756	228.2
961.122	428.9
961.488	417.6
961.855	431.72
962.221	344.16
962.586	358.29
962.952	510.72
963.318	386.54
963.684	476.87
964.05	547.36
964.415	281.96
964.781	301.76
965.146	267.82
965.512	533.27
965.877	400.66
966.242	352.64
966.608	321.55
966.973	344.16
967.338	307.42
967.703	372.42
968.068	318.72
968.433	428.9
968.797	637.5
969.162	330.03
969.527	279.14
969.891	318.72
970.256	267.82
970.62	298.93
970.985	307.42
971.349	411.96
971.714	346.99
972.078	355.47
972.442	372.42
972.806	392.19
973.17	281.96
973.534	417.6
973.898	293.28
974.262	392.19
974.625	378.07
974.989	262.16
975.353	454.3
975.716	403.49
976.08	298.93
976.443	327.21
976.806	346.99
977.17	284.79
977.533	378.07
977.896	321.55
978.259	233.87
978.622	823.06
978.985	307.42
979.348	395.02
979.711	372.42
980.073	287.62
980.436	392.19
980.799	341.34
981.161	313.07
981.524	284.79
981.886	298.93
982.248	389.37
982.611	256.5
982.973	327.21
983.335	369.59
983.697	383.72
984.059	411.96
984.421	293.28
984.783	386.54
985.145	434.54
985.506	313.07
985.868	349.82
986.23	335.68
986.591	346.99
986.953	502.26
987.314	298.93
987.675	330.03
988.037	15281.8
988.398	761.26
988.759	417.6
989.12	327.21
989.481	369.59
989.842	468.41
990.203	383.72
990.564	313.07
990.924	392.19
991.285	11352.84
991.646	569.91
992.006	335.68
992.367	287.62
992.727	395.02
993.087	386.54
993.448	310.24
993.808	417.6
994.168	293.28
994.528	375.24
994.888	301.76
995.248	406.31
995.608	301.76
995.967	352.64
996.327	307.42
996.687	372.42
997.046	335.68
997.406	338.51
997.765	279.14
998.125	330.03
998.484	296.1
998.843	428.9
999.202	330.03
999.561	270.65
999.92	330.03
1000.279	290.45
1000.638	267.82
1000.997	267.82
1001.356	375.24
1001.715	228.2
1002.073	270.65
1002.432	389.37
1002.79	310.24
1003.149	318.72
1003.507	448.65
1003.865	369.59
1004.224	349.82
1004.582	389.37
1004.94	437.37
1005.298	315.9
1005.656	287.62
1006.014	301.76
1006.371	259.33
1006.729	242.36
1007.087	544.54
1007.445	383.72
1007.802	428.9
1008.16	301.76
1008.517	298.93
1008.874	493.79
1009.232	267.82
1009.589	842.71
1009.946	332.86
1010.303	366.77
1010.66	355.47
1011.017	474.05
1011.374	451.48
1011.731	349.82
1012.087	281.96
1012.444	315.9
1012.801	363.94
1013.157	273.48
1013.513	216.88
1013.87	352.64
1014.226	341.34
1014.582	296.1
1014.939	313.07
1015.295	307.42
1015.651	279.14
1016.007	233.87
1016.363	482.51
1016.719	264.99
1017.074	330.03
1017.43	338.51
1017.786	338.51
1018.141	315.9
1018.497	248.02
1018.852	392.19
1019.208	414.78
1019.563	301.76
1019.918	273.48
1020.273	397.84
1020.628	395.02
1020.983	361.12
1021.338	202.73
1021.693	431.72
1022.048	352.64
1022.403	318.72
1022.757	358.29
1023.112	375.24
1023.467	335.68
1023.821	296.1
1024.175	346.99
1024.53	304.59
1024.884	233.87
1025.238	298.93
1025.592	426.07
1025.946	293.28
1026.3	296.1
1026.654	310.24
1027.008	355.47
1027.362	310.24
1027.716	313.07
1028.069	256.5
1028.423	366.77
1028.777	281.96
1029.13	270.65
1029.483	349.82
1029.837	361.12
1030.19	293.28
1030.543	301.76
1030.896	296.1
1031.249	392.19
1031.602	324.38
1031.955	233.87
1032.308	332.86
1032.661	414.78
1033.013	383.72
1033.366	242.36
1033.719	264.99
1034.071	264.99
1034.424	259.33
1034.776	290.45
1035.128	389.37
1035.48	293.28
1035.833	440.19
1036.185	296.1
1036.537	296.1
1036.889	296.1
