Data from BCF12_8_FLMS019251_16-04-43-170.txt Node
Date: Mon Feb 11 16:04:43 CET 2019
User: luk
Spectrometer: FLMS01925
Trigger mode: 0
Integration Time (sec): 7.823200E-1
Scans to average: 1
Electric dark correction enabled: true
Nonlinearity correction enabled: true
Boxcar width: 0
XAxis mode: Wavelengths
Number of Pixels in Spectrum: 2048
>>>>>Begin Spectral Data<<<<<
187.103	-148.5
187.574	-148.5
188.045	-148.5
188.516	-290.88
188.987	-40.47
189.458	-97.31
189.929	-179.8
190.4	-120.05
190.871	-145.65
191.342	-71.72
191.813	-134.27
192.284	22
192.754	-20.59
193.225	-23.43
193.696	115.61
194.166	-12.07
194.637	107.1
195.107	175.11
195.578	50.38
196.048	192.11
196.518	141.12
196.989	211.93
197.459	200.6
197.929	160.95
198.399	401.37
198.869	217.59
199.339	291.16
199.809	398.55
200.279	418.31
200.749	313.78
201.219	384.42
201.689	342.04
202.159	271.36
202.628	333.56
203.098	409.84
203.568	299.64
204.037	378.77
204.507	299.64
204.976	319.43
205.445	407.02
205.915	342.04
206.384	398.55
206.853	336.39
207.323	277.01
207.792	373.12
208.261	305.29
208.73	322.26
209.199	443.72
209.668	375.95
210.137	361.82
210.606	333.56
211.075	438.07
211.543	423.96
212.012	367.47
212.481	293.98
212.95	353.35
213.418	426.78
213.887	353.35
214.355	426.78
214.824	248.72
215.292	339.22
215.76	319.43
216.229	282.67
216.697	325.08
217.165	316.6
217.633	339.22
218.101	322.26
218.569	553.7
219.037	336.39
219.505	548.07
219.973	390.07
220.441	330.74
220.909	361.82
221.377	342.04
221.844	387.25
222.312	392.9
222.78	293.98
223.247	271.36
223.715	288.33
224.182	356.17
224.65	342.04
225.117	429.6
225.584	356.17
226.052	319.43
226.519	347.7
226.986	327.91
227.453	344.87
227.92	381.6
228.387	378.77
228.854	381.6
229.321	282.67
229.788	279.84
230.255	432.43
230.722	466.29
231.189	342.04
231.655	316.6
232.122	336.39
232.589	293.98
233.055	356.17
233.522	401.37
233.988	322.26
234.454	409.84
234.921	333.56
235.387	432.43
235.853	359
236.32	257.21
236.786	339.22
237.252	330.74
237.718	497.32
238.184	381.6
238.65	364.65
239.116	277.01
239.582	384.42
240.047	367.47
240.513	432.43
240.979	333.56
241.445	421.13
241.91	333.56
242.376	319.43
242.841	367.47
243.307	240.23
243.772	367.47
244.238	274.19
244.703	407.02
245.168	313.78
245.633	339.22
246.099	364.65
246.564	390.07
247.029	378.77
247.494	296.81
247.959	373.12
248.424	350.52
248.889	302.47
249.353	432.43
249.818	373.12
250.283	293.98
250.748	327.91
251.212	353.35
251.677	305.29
252.141	350.52
252.606	384.42
253.07	327.91
253.535	327.91
253.999	339.22
254.463	260.04
254.927	310.95
255.392	401.37
255.856	378.77
256.32	423.96
256.784	310.95
257.248	353.35
257.712	359
258.176	500.14
258.64	330.74
259.103	296.81
259.567	390.07
260.031	336.39
260.495	373.12
260.958	423.96
261.422	412.66
261.885	359
262.349	313.78
262.812	299.64
263.275	359
263.739	381.6
264.202	359
264.665	381.6
265.128	466.29
265.591	308.12
266.054	308.12
266.517	460.65
266.98	370.3
267.443	350.52
267.906	322.26
268.369	316.6
268.832	302.47
269.294	353.35
269.757	339.22
270.22	296.81
270.682	502.96
271.145	415.49
271.607	356.17
272.07	440.89
272.532	333.56
272.994	415.49
273.456	325.08
273.919	776.01
274.381	356.17
274.843	438.07
275.305	387.25
275.767	296.81
276.229	398.55
276.691	285.5
277.153	387.25
277.614	390.07
278.076	322.26
278.538	373.12
279	395.72
279.461	384.42
279.923	573.43
280.384	353.35
280.846	305.29
281.307	384.42
281.769	407.02
282.23	296.81
282.691	390.07
283.152	378.77
283.613	452.18
284.075	299.64
284.536	435.25
284.997	415.49
285.458	375.95
285.918	395.72
286.379	398.55
286.84	438.07
287.301	392.9
287.762	350.52
288.222	395.72
288.683	469.11
289.143	409.84
289.604	409.84
290.064	339.22
290.525	378.77
290.985	517.06
291.445	418.31
291.906	265.7
292.366	378.77
292.826	342.04
293.286	342.04
293.746	344.87
294.206	438.07
294.666	494.5
295.126	407.02
295.586	350.52
296.046	262.87
296.506	375.95
296.965	477.58
297.425	395.72
297.884	423.96
298.344	384.42
298.804	378.77
299.263	378.77
299.722	390.07
300.182	285.5
300.641	293.98
301.1	387.25
301.559	381.6
302.019	392.9
302.478	356.17
302.937	390.07
303.396	463.47
303.855	505.78
304.314	364.65
304.772	657.9
305.231	308.12
305.69	350.52
306.149	387.25
306.607	390.07
307.066	356.17
307.524	356.17
307.983	361.82
308.441	469.11
308.9	466.29
309.358	347.7
309.816	556.52
310.275	316.6
310.733	455
311.191	271.36
311.649	375.95
312.107	384.42
312.565	418.31
313.023	390.07
313.481	452.18
313.939	469.11
314.397	373.12
314.854	356.17
315.312	409.84
315.77	401.37
316.227	313.78
316.685	418.31
317.142	364.65
317.6	429.6
318.057	364.65
318.514	313.78
318.972	282.67
319.429	384.42
319.886	373.12
320.343	299.64
320.8	375.95
321.257	356.17
321.714	435.25
322.171	390.07
322.628	404.19
323.085	395.72
323.542	302.47
323.998	330.74
324.455	308.12
324.912	364.65
325.368	327.91
325.825	511.42
326.281	390.07
326.738	457.83
327.194	339.22
327.65	395.72
328.107	356.17
328.563	421.13
329.019	438.07
329.475	378.77
329.931	395.72
330.387	387.25
330.843	401.37
331.299	432.43
331.755	291.16
332.211	395.72
332.666	378.77
333.122	330.74
333.578	322.26
334.033	398.55
334.489	469.11
334.944	364.65
335.4	514.24
335.855	449.36
336.31	429.6
336.766	319.43
337.221	356.17
337.676	364.65
338.131	359
338.586	469.11
339.041	384.42
339.496	415.49
339.951	469.11
340.406	409.84
340.861	359
341.316	367.47
341.771	432.43
342.225	387.25
342.68	395.72
343.134	364.65
343.589	387.25
344.043	373.12
344.498	429.6
344.952	418.31
345.406	767.58
345.861	390.07
346.315	367.47
346.769	418.31
347.223	378.77
347.677	378.77
348.131	488.86
348.585	404.19
349.039	356.17
349.493	336.39
349.947	381.6
350.401	333.56
350.854	325.08
351.308	438.07
351.762	381.6
352.215	409.84
352.669	398.55
353.122	426.78
353.575	404.19
354.029	392.9
354.482	265.7
354.935	412.66
355.388	449.36
355.842	330.74
356.295	296.81
356.748	347.7
357.201	415.49
357.654	381.6
358.106	277.01
358.559	367.47
359.012	392.9
359.465	296.81
359.917	426.78
360.37	291.16
360.823	245.89
361.275	404.19
361.728	390.07
362.18	342.04
362.632	375.95
363.085	381.6
363.537	353.35
363.989	409.84
364.441	390.07
364.893	310.95
365.345	325.08
365.797	350.52
366.249	316.6
366.701	381.6
367.153	353.35
367.605	364.65
368.057	412.66
368.508	344.87
368.96	381.6
369.411	361.82
369.863	356.17
370.314	392.9
370.766	353.35
371.217	325.08
371.669	333.56
372.12	488.86
372.571	353.35
373.022	344.87
373.473	370.3
373.924	370.3
374.375	344.87
374.826	395.72
375.277	455
375.728	342.04
376.179	262.87
376.63	325.08
377.08	446.54
377.531	310.95
377.981	344.87
378.432	395.72
378.883	590.33
379.333	409.84
379.783	325.08
380.234	336.39
380.684	469.11
381.134	412.66
381.584	446.54
382.034	426.78
382.485	409.84
382.935	347.7
383.385	398.55
383.834	409.84
384.284	392.9
384.734	350.52
385.184	364.65
385.634	384.42
386.083	435.25
386.533	398.55
386.982	429.6
387.432	373.12
387.881	344.87
388.331	432.43
388.78	395.72
389.229	429.6
389.679	350.52
390.128	353.35
390.577	407.02
391.026	390.07
391.475	390.07
391.924	322.26
392.373	339.22
392.822	412.66
393.27	398.55
393.719	381.6
394.168	313.78
394.617	390.07
395.065	359
395.514	373.12
395.962	308.12
396.411	336.39
396.859	336.39
397.307	342.04
397.756	327.91
398.204	299.64
398.652	449.36
399.1	409.84
399.548	390.07
399.996	446.54
400.444	449.36
400.892	342.04
401.34	305.29
401.788	443.72
402.236	342.04
402.683	359
403.131	373.12
403.579	395.72
404.026	322.26
404.474	384.42
404.921	302.47
405.369	305.29
405.816	361.82
406.263	381.6
406.71	440.89
407.158	279.84
407.605	316.6
408.052	299.64
408.499	387.25
408.946	378.77
409.393	449.36
409.84	333.56
410.286	409.84
410.733	452.18
411.18	319.43
411.626	409.84
412.073	302.47
412.52	350.52
412.966	401.37
413.413	390.07
413.859	390.07
414.305	449.36
414.752	384.42
415.198	375.95
415.644	370.3
416.09	336.39
416.536	404.19
416.982	395.72
417.428	350.52
417.874	353.35
418.32	443.72
418.766	375.95
419.211	401.37
419.657	429.6
420.103	293.98
420.548	339.22
420.994	452.18
421.439	347.7
421.885	248.72
422.33	378.77
422.776	373.12
423.221	435.25
423.666	398.55
424.111	378.77
424.556	466.29
425.001	350.52
425.446	313.78
425.891	373.12
426.336	443.72
426.781	587.51
427.226	305.29
427.671	364.65
428.115	401.37
428.56	367.47
429.005	486.04
429.449	435.25
429.894	390.07
430.338	567.79
430.782	325.08
431.227	373.12
431.671	415.49
432.115	251.55
432.559	373.12
433.003	432.43
433.447	350.52
433.891	319.43
434.335	452.18
434.779	310.95
435.223	457.83
435.667	401.37
436.111	502.96
436.554	327.91
436.998	279.84
437.442	359
437.885	364.65
438.328	387.25
438.772	333.56
439.215	234.57
439.659	460.65
440.102	378.77
440.545	378.77
440.988	375.95
441.431	274.19
441.874	375.95
442.317	313.78
442.76	319.43
443.203	277.01
443.646	288.33
444.089	446.54
444.531	387.25
444.974	407.02
445.417	353.35
445.859	415.49
446.302	443.72
446.744	401.37
447.186	367.47
447.629	412.66
448.071	319.43
448.513	412.66
448.956	398.55
449.398	364.65
449.84	325.08
450.282	446.54
450.724	364.65
451.166	463.47
451.607	452.18
452.049	398.55
452.491	359
452.933	429.6
453.374	469.11
453.816	452.18
454.257	350.52
454.699	443.72
455.14	497.32
455.582	421.13
456.023	502.96
456.464	407.02
456.905	367.47
457.347	429.6
457.788	350.52
458.229	279.84
458.67	373.12
459.111	347.7
459.552	344.87
459.992	327.91
460.433	426.78
460.874	305.29
461.315	409.84
461.755	517.06
462.196	395.72
462.636	415.49
463.077	350.52
463.517	440.89
463.957	347.7
464.398	373.12
464.838	494.5
465.278	367.47
465.718	339.22
466.158	302.47
466.598	407.02
467.038	342.04
467.478	573.43
467.918	378.77
468.358	438.07
468.798	407.02
469.237	299.64
469.677	347.7
470.117	392.9
470.556	409.84
470.996	390.07
471.435	313.78
471.874	279.84
472.314	364.65
472.753	407.02
473.192	347.7
473.631	359
474.07	438.07
474.509	384.42
474.948	299.64
475.387	426.78
475.826	460.65
476.265	364.65
476.704	322.26
477.143	404.19
477.581	409.84
478.02	500.14
478.458	497.32
478.897	359
479.335	392.9
479.774	384.42
480.212	486.04
480.65	469.11
481.089	392.9
481.527	364.65
481.965	350.52
482.403	339.22
482.841	325.08
483.279	364.65
483.717	429.6
484.155	339.22
484.592	423.96
485.03	359
485.468	418.31
485.905	339.22
486.343	457.83
486.781	438.07
487.218	438.07
487.655	373.12
488.093	293.98
488.53	319.43
488.967	353.35
489.405	359
489.842	395.72
490.279	446.54
490.716	384.42
491.153	367.47
491.59	353.35
492.027	361.82
492.463	274.19
492.9	457.83
493.337	392.9
493.773	486.04
494.21	440.89
494.647	429.6
495.083	392.9
495.519	387.25
495.956	401.37
496.392	440.89
496.828	395.72
497.265	387.25
497.701	373.12
498.137	409.84
498.573	299.64
499.009	452.18
499.445	401.37
499.881	361.82
500.316	395.72
500.752	375.95
501.188	339.22
501.624	359
502.059	418.31
502.495	429.6
502.93	395.72
503.366	1277.31
503.801	398.55
504.236	316.6
504.672	486.04
505.107	310.95
505.542	375.95
505.977	339.22
506.412	390.07
506.847	361.82
507.282	302.47
507.717	322.26
508.152	407.02
508.587	449.36
509.021	440.89
509.456	353.35
509.891	325.08
510.325	373.12
510.76	426.78
511.194	373.12
511.628	401.37
512.063	438.07
512.497	407.02
512.931	364.65
513.366	322.26
513.8	404.19
514.234	364.65
514.668	395.72
515.102	322.26
515.536	347.7
515.969	370.3
516.403	435.25
516.837	440.89
517.271	449.36
517.704	313.78
518.138	392.9
518.571	432.43
519.005	457.83
519.438	426.78
519.871	415.49
520.305	455
520.738	384.42
521.171	398.55
521.604	449.36
522.037	449.36
522.47	508.6
522.903	469.11
523.336	474.75
523.769	426.78
524.202	398.55
524.634	412.66
525.067	319.43
525.5	361.82
525.932	449.36
526.365	474.75
526.797	336.39
527.23	356.17
527.662	429.6
528.094	466.29
528.527	333.56
528.959	347.7
529.391	500.14
529.823	452.18
530.255	350.52
530.687	466.29
531.119	375.95
531.551	327.91
531.982	367.47
532.414	412.66
532.846	486.04
533.277	384.42
533.709	339.22
534.14	387.25
534.572	342.04
535.003	390.07
535.435	423.96
535.866	457.83
536.297	407.02
536.728	469.11
537.159	370.3
537.59	387.25
538.022	426.78
538.452	440.89
538.883	460.65
539.314	432.43
539.745	361.82
540.176	404.19
540.606	333.56
541.037	392.9
541.468	305.29
541.898	282.67
542.328	483.22
542.759	432.43
543.189	364.65
543.619	435.25
544.05	457.83
544.48	443.72
544.91	395.72
545.34	440.89
545.77	477.58
546.2	336.39
546.63	390.07
547.06	390.07
547.489	401.37
547.919	350.52
548.349	455
548.778	477.58
549.208	426.78
549.637	347.7
550.067	418.31
550.496	429.6
550.926	361.82
551.355	353.35
551.784	359
552.213	367.47
552.642	435.25
553.071	412.66
553.5	474.75
553.929	426.78
554.358	342.04
554.787	342.04
555.216	302.47
555.645	429.6
556.073	421.13
556.502	293.98
556.93	299.64
557.359	296.81
557.787	384.42
558.216	418.31
558.644	327.91
559.072	409.84
559.5	446.54
559.929	384.42
560.357	474.75
560.785	344.87
561.213	407.02
561.641	364.65
562.068	452.18
562.496	333.56
562.924	364.65
563.352	322.26
563.779	373.12
564.207	457.83
564.634	359
565.062	322.26
565.489	347.7
565.917	373.12
566.344	330.74
566.771	336.39
567.198	460.65
567.625	455
568.053	378.77
568.48	356.17
568.907	387.25
569.333	471.93
569.76	367.47
570.187	347.7
570.614	438.07
571.04	12703.61
571.467	646.65
571.894	443.72
572.32	415.49
572.747	421.13
573.173	455
573.599	452.18
574.026	457.83
574.452	398.55
574.878	344.87
575.304	361.82
575.73	407.02
576.156	347.7
576.582	452.18
577.008	449.36
577.434	356.17
577.86	310.95
578.285	392.9
578.711	367.47
579.137	291.16
579.562	443.72
579.988	359
580.413	392.9
580.838	330.74
581.264	330.74
581.689	423.96
582.114	426.78
582.539	1669.91
582.964	429.6
583.39	497.32
583.814	268.53
584.239	409.84
584.664	308.12
585.089	412.66
585.514	423.96
585.939	471.93
586.363	327.91
586.788	480.4
587.212	319.43
587.637	392.9
588.061	415.49
588.485	356.17
588.91	285.5
589.334	446.54
589.758	471.93
590.182	404.19
590.606	387.25
591.03	435.25
591.454	387.25
591.878	364.65
592.302	375.95
592.726	508.6
593.15	336.39
593.573	435.25
593.997	469.11
594.42	378.77
594.844	384.42
595.267	398.55
595.691	364.65
596.114	359
596.537	421.13
596.96	350.52
597.384	344.87
597.807	373.12
598.23	409.84
598.653	457.83
599.076	288.33
599.499	308.12
599.921	339.22
600.344	310.95
600.767	387.25
601.189	483.22
601.612	339.22
602.034	310.95
602.457	455
602.879	666.35
603.302	342.04
603.724	367.47
604.146	240.23
604.568	327.91
604.991	361.82
605.413	260.04
605.835	359
606.257	344.87
606.678	390.07
607.1	378.77
607.522	333.56
607.944	471.93
608.365	443.72
608.787	370.3
609.209	477.58
609.63	404.19
610.051	302.47
610.473	373.12
610.894	466.29
611.315	350.52
611.737	409.84
612.158	347.7
612.579	361.82
613	531.16
613.421	356.17
613.842	435.25
614.263	511.42
614.683	356.17
615.104	316.6
615.525	500.14
615.945	285.5
616.366	243.06
616.787	460.65
617.207	299.64
617.627	350.52
618.048	367.47
618.468	353.35
618.888	375.95
619.308	291.16
619.728	412.66
620.148	330.74
620.568	384.42
620.988	446.54
621.408	409.84
621.828	336.39
622.248	344.87
622.668	390.07
623.087	296.81
623.507	344.87
623.926	370.3
624.346	330.74
624.765	438.07
625.185	440.89
625.604	308.12
626.023	330.74
626.442	339.22
626.861	398.55
627.28	378.77
627.699	407.02
628.118	322.26
628.537	469.11
628.956	463.47
629.375	438.07
629.794	384.42
630.212	257.21
630.631	426.78
631.049	350.52
631.468	517.06
631.886	429.6
632.305	398.55
632.723	325.08
633.141	367.47
633.559	347.7
633.978	322.26
634.396	407.02
634.814	392.9
635.232	285.5
635.65	415.49
636.067	381.6
636.485	486.04
636.903	291.16
637.321	316.6
637.738	392.9
638.156	426.78
638.573	378.77
638.991	488.86
639.408	440.89
639.825	359
640.243	449.36
640.66	302.47
641.077	407.02
641.494	423.96
641.911	426.78
642.328	342.04
642.745	364.65
643.162	401.37
643.579	522.7
643.995	415.49
644.412	531.16
644.829	361.82
645.245	370.3
645.662	310.95
646.078	359
646.495	293.98
646.911	384.42
647.327	483.22
647.743	308.12
648.159	455
648.576	282.67
648.992	446.54
649.408	353.35
649.824	316.6
650.239	271.36
650.655	344.87
651.071	426.78
651.487	412.66
651.902	316.6
652.318	367.47
652.733	381.6
653.149	330.74
653.564	409.84
653.979	401.37
654.395	359
654.81	342.04
655.225	395.72
655.64	316.6
656.055	432.43
656.47	347.7
656.885	333.56
657.3	378.77
657.715	463.47
658.13	316.6
658.544	347.7
658.959	336.39
659.374	375.95
659.788	418.31
660.202	407.02
660.617	500.14
661.031	319.43
661.445	322.26
661.86	299.64
662.274	491.68
662.688	395.72
663.102	322.26
663.516	387.25
663.93	392.9
664.344	364.65
664.758	350.52
665.171	336.39
665.585	384.42
665.999	296.81
666.412	361.82
666.826	452.18
667.239	432.43
667.653	367.47
668.066	316.6
668.479	457.83
668.892	350.52
669.306	407.02
669.719	392.9
670.132	491.68
670.545	353.35
670.958	327.91
671.37	407.02
671.783	353.35
672.196	392.9
672.609	407.02
673.021	350.52
673.434	384.42
673.846	344.87
674.259	347.7
674.671	254.38
675.084	435.25
675.496	305.29
675.908	257.21
676.32	291.16
676.732	319.43
677.144	415.49
677.556	305.29
677.968	353.35
678.38	302.47
678.792	480.4
679.204	375.95
679.615	390.07
680.027	316.6
680.439	409.84
680.85	449.36
681.262	508.6
681.673	392.9
682.084	423.96
682.496	271.36
682.907	387.25
683.318	327.91
683.729	421.13
684.14	336.39
684.551	361.82
684.962	344.87
685.373	435.25
685.784	288.33
686.194	392.9
686.605	327.91
687.016	392.9
687.426	336.39
687.837	353.35
688.247	359
688.657	356.17
689.068	364.65
689.478	370.3
689.888	333.56
690.298	325.08
690.708	387.25
691.118	344.87
691.528	336.39
691.938	296.81
692.348	375.95
692.758	265.7
693.168	409.84
693.577	415.49
693.987	384.42
694.396	288.33
694.806	319.43
695.215	277.01
695.625	364.65
696.034	378.77
696.443	325.08
696.852	491.68
697.262	347.7
697.671	254.38
698.08	404.19
698.489	381.6
698.897	392.9
699.306	353.35
699.715	342.04
700.124	370.3
700.532	313.78
700.941	404.19
701.35	361.82
701.758	491.68
702.166	370.3
702.575	319.43
702.983	342.04
703.391	327.91
703.799	375.95
704.208	296.81
704.616	395.72
705.024	463.47
705.432	367.47
705.839	384.42
706.247	457.83
706.655	469.11
707.063	378.77
707.47	392.9
707.878	356.17
708.285	364.65
708.693	421.13
709.1	438.07
709.508	319.43
709.915	319.43
710.322	429.6
710.729	570.61
711.136	426.78
711.543	277.01
711.95	373.12
712.357	373.12
712.764	370.3
713.171	404.19
713.578	404.19
713.984	412.66
714.391	418.31
714.797	392.9
715.204	364.65
715.61	460.65
716.017	330.74
716.423	412.66
716.829	415.49
717.236	373.12
717.642	319.43
718.048	480.4
718.454	460.65
718.86	370.3
719.266	519.88
719.671	282.67
720.077	342.04
720.483	342.04
720.889	387.25
721.294	316.6
721.7	412.66
722.105	361.82
722.511	350.52
722.916	333.56
723.321	361.82
723.726	381.6
724.132	350.52
724.537	429.6
724.942	421.13
725.347	248.72
725.752	313.78
726.156	310.95
726.561	418.31
726.966	322.26
727.371	395.72
727.775	409.84
728.18	387.25
728.584	327.91
728.989	353.35
729.393	525.52
729.798	378.77
730.202	491.68
730.606	316.6
731.01	412.66
731.414	268.53
731.818	359
732.222	279.84
732.626	384.42
733.03	421.13
733.434	313.78
733.837	342.04
734.241	392.9
734.645	407.02
735.048	407.02
735.452	381.6
735.855	412.66
736.258	455
736.662	525.52
737.065	508.6
737.468	483.22
737.871	415.49
738.274	418.31
738.677	330.74
739.08	339.22
739.483	443.72
739.886	415.49
740.289	446.54
740.691	361.82
741.094	378.77
741.497	373.12
741.899	398.55
742.302	392.9
742.704	390.07
743.106	353.35
743.508	373.12
743.911	277.01
744.313	336.39
744.715	285.5
745.117	288.33
745.519	344.87
745.921	432.43
746.323	342.04
746.724	333.56
747.126	291.16
747.528	455
747.929	373.12
748.331	299.64
748.732	398.55
749.134	274.19
749.535	322.26
749.936	548.07
750.338	342.04
750.739	514.24
751.14	288.33
751.541	398.55
751.942	336.39
752.343	237.4
752.744	392.9
753.144	342.04
753.545	412.66
753.946	325.08
754.346	333.56
754.747	517.06
755.148	564.98
755.548	404.19
755.948	421.13
756.349	268.53
756.749	353.35
757.149	367.47
757.549	460.65
757.949	378.77
758.349	359
758.749	350.52
759.149	381.6
759.549	325.08
759.949	359
760.348	494.5
760.748	367.47
761.148	387.25
761.547	308.12
761.947	285.5
762.346	387.25
762.745	415.49
763.145	350.52
763.544	390.07
763.943	407.02
764.342	356.17
764.741	319.43
765.14	429.6
765.539	262.87
765.938	474.75
766.336	336.39
766.735	350.52
767.134	412.66
767.532	305.29
767.931	378.77
768.329	562.16
768.728	418.31
769.126	381.6
769.525	423.96
769.923	387.25
770.321	375.95
770.719	486.04
771.117	392.9
771.515	432.43
771.913	344.87
772.311	418.31
772.709	395.72
773.106	319.43
773.504	339.22
773.902	347.7
774.299	429.6
774.697	638.2
775.094	384.42
775.491	401.37
775.889	353.35
776.286	373.12
776.683	409.84
777.08	367.47
777.477	302.47
777.874	288.33
778.271	356.17
778.668	412.66
779.065	330.74
779.462	330.74
779.858	375.95
780.255	415.49
780.652	353.35
781.048	429.6
781.444	310.95
781.841	327.91
782.237	381.6
782.633	282.67
783.03	333.56
783.426	364.65
783.822	260.04
784.218	353.35
784.614	339.22
785.01	381.6
785.405	361.82
785.801	429.6
786.197	395.72
786.593	395.72
786.988	359
787.384	378.77
787.779	271.36
788.174	429.6
788.57	316.6
788.965	387.25
789.36	404.19
789.755	344.87
790.15	378.77
790.545	378.77
790.94	373.12
791.335	330.74
791.73	409.84
792.125	421.13
792.52	370.3
792.914	384.42
793.309	277.01
793.703	418.31
794.098	356.17
794.492	381.6
794.887	361.82
795.281	460.65
795.675	384.42
796.069	477.58
796.463	359
796.857	373.12
797.251	342.04
797.645	310.95
798.039	373.12
798.433	375.95
798.826	260.04
799.22	333.56
799.614	353.35
800.007	418.31
800.401	361.82
800.794	356.17
801.187	353.35
801.581	378.77
801.974	361.82
802.367	350.52
802.76	364.65
803.153	333.56
803.546	325.08
803.939	322.26
804.332	327.91
804.725	356.17
805.117	359
805.51	483.22
805.903	313.78
806.295	333.56
806.688	381.6
807.08	392.9
807.472	387.25
807.865	488.86
808.257	370.3
808.649	471.93
809.041	285.5
809.433	305.29
809.825	299.64
810.217	398.55
810.609	342.04
811.001	491.68
811.392	361.82
811.784	375.95
812.175	327.91
812.567	327.91
812.958	353.35
813.35	435.25
813.741	322.26
814.132	305.29
814.524	435.25
814.915	378.77
815.306	347.7
815.697	313.78
816.088	293.98
816.479	375.95
816.87	381.6
817.26	409.84
817.651	550.89
818.042	418.31
818.432	356.17
818.823	438.07
819.213	435.25
819.604	415.49
819.994	390.07
820.384	381.6
820.775	364.65
821.165	325.08
821.555	347.7
821.945	274.19
822.335	375.95
822.725	401.37
823.114	370.3
823.504	347.7
823.894	373.12
824.284	457.83
824.673	364.65
825.063	319.43
825.452	438.07
825.842	356.17
826.231	432.43
826.62	305.29
827.009	418.31
827.399	381.6
827.788	296.81
828.177	299.64
828.566	401.37
828.954	548.07
829.343	455
829.732	344.87
830.121	528.34
830.509	505.78
830.898	353.35
831.286	333.56
831.675	387.25
832.063	432.43
832.452	353.35
832.84	288.33
833.228	398.55
833.616	412.66
834.004	457.83
834.392	418.31
834.78	404.19
835.168	350.52
835.556	409.84
835.944	387.25
836.331	457.83
836.719	353.35
837.107	423.96
837.494	429.6
837.881	339.22
838.269	336.39
838.656	333.56
839.043	296.81
839.431	542.43
839.818	469.11
840.205	308.12
840.592	415.49
840.979	327.91
841.366	339.22
841.752	325.08
842.139	384.42
842.526	392.9
842.912	390.07
843.299	390.07
843.685	409.84
844.072	390.07
844.458	432.43
844.844	398.55
845.231	359
845.617	361.82
846.003	432.43
846.389	344.87
846.775	243.06
847.161	364.65
847.547	333.56
847.933	373.12
848.318	336.39
848.704	359
849.09	384.42
849.475	342.04
849.861	401.37
850.246	370.3
850.631	449.36
851.017	327.91
851.402	344.87
851.787	432.43
852.172	409.84
852.557	483.22
852.942	474.75
853.327	325.08
853.712	378.77
854.097	333.56
854.481	381.6
854.866	356.17
855.25	387.25
855.635	404.19
856.019	313.78
856.404	455
856.788	375.95
857.172	356.17
857.557	370.3
857.941	375.95
858.325	390.07
858.709	384.42
859.093	375.95
859.477	387.25
859.86	457.83
860.244	421.13
860.628	502.96
861.012	457.83
861.395	423.96
861.779	319.43
862.162	401.37
862.545	274.19
862.929	336.39
863.312	460.65
863.695	373.12
864.078	415.49
864.461	378.77
864.844	426.78
865.227	375.95
865.61	299.64
865.993	353.35
866.376	426.78
866.758	370.3
867.141	384.42
867.523	302.47
867.906	350.52
868.288	364.65
868.671	460.65
869.053	305.29
869.435	336.39
869.817	474.75
870.199	339.22
870.581	392.9
870.963	474.75
871.345	353.35
871.727	356.17
872.109	265.7
872.491	336.39
872.872	390.07
873.254	350.52
873.635	375.95
874.017	483.22
874.398	330.74
874.779	488.86
875.161	344.87
875.542	401.37
875.923	325.08
876.304	384.42
876.685	446.54
877.066	359
877.447	404.19
877.828	455
878.208	463.47
878.589	381.6
878.97	449.36
879.35	302.47
879.731	322.26
880.111	344.87
880.491	285.5
880.872	364.65
881.252	426.78
881.632	319.43
882.012	466.29
882.392	322.26
882.772	423.96
883.152	381.6
883.532	344.87
883.912	316.6
884.291	330.74
884.671	409.84
885.051	415.49
885.43	404.19
885.81	440.89
886.189	373.12
886.568	350.52
886.948	381.6
887.327	398.55
887.706	361.82
888.085	480.4
888.464	356.17
888.843	466.29
889.222	418.31
889.601	367.47
889.979	370.3
890.358	426.78
890.737	344.87
891.115	395.72
891.494	308.12
891.872	392.9
892.25	296.81
892.629	398.55
893.007	474.75
893.385	350.52
893.763	364.65
894.141	378.77
894.519	316.6
894.897	350.52
895.275	418.31
895.653	288.33
896.03	359
896.408	310.95
896.786	316.6
897.163	378.77
897.541	364.65
897.918	438.07
898.295	262.87
898.673	350.52
899.05	336.39
899.427	722.6
899.804	387.25
900.181	401.37
900.558	457.83
900.935	494.5
901.312	395.72
901.688	412.66
902.065	426.78
902.442	375.95
902.818	302.47
903.195	390.07
903.571	409.84
903.947	364.65
904.324	395.72
904.7	375.95
905.076	432.43
905.452	435.25
905.828	384.42
906.204	327.91
906.58	339.22
906.956	344.87
907.331	494.5
907.707	367.47
908.083	423.96
908.458	333.56
908.834	319.43
909.209	398.55
909.585	342.04
909.96	505.78
910.335	370.3
910.71	356.17
911.086	401.37
911.461	423.96
911.836	359
912.21	364.65
912.585	330.74
912.96	392.9
913.335	325.08
913.709	409.84
914.084	412.66
914.459	401.37
914.833	443.72
915.207	296.81
915.582	373.12
915.956	421.13
916.33	302.47
916.704	310.95
917.078	395.72
917.452	350.52
917.826	293.98
918.2	455
918.574	375.95
918.948	395.72
919.321	344.87
919.695	277.01
920.068	435.25
920.442	361.82
920.815	316.6
921.189	370.3
921.562	455
921.935	438.07
922.308	378.77
922.681	390.07
923.054	381.6
923.427	350.52
923.8	251.55
924.173	370.3
924.546	240.23
924.919	296.81
925.291	367.47
925.664	418.31
926.036	398.55
926.409	310.95
926.781	288.33
927.153	370.3
927.526	452.18
927.898	339.22
928.27	285.5
928.642	330.74
929.014	387.25
929.386	356.17
929.758	356.17
930.129	237.4
930.501	457.83
930.873	316.6
931.244	404.19
931.616	274.19
931.987	361.82
932.359	483.22
932.73	344.87
933.101	370.3
933.472	390.07
933.843	333.56
934.214	438.07
934.585	336.39
934.956	308.12
935.327	522.7
935.698	455
936.069	443.72
936.439	387.25
936.81	288.33
937.18	502.96
937.551	350.52
937.921	519.88
938.292	423.96
938.662	291.16
939.032	432.43
939.402	305.29
939.772	429.6
940.142	392.9
940.512	370.3
940.882	305.29
941.252	327.91
941.621	333.56
941.991	381.6
942.361	449.36
942.73	288.33
943.1	350.52
943.469	319.43
943.838	466.29
944.208	460.65
944.577	325.08
944.946	339.22
945.315	293.98
945.684	333.56
946.053	364.65
946.422	381.6
946.791	339.22
947.159	277.01
947.528	330.74
947.897	395.72
948.265	330.74
948.634	373.12
949.002	325.08
949.371	316.6
949.739	423.96
950.107	407.02
950.475	327.91
950.843	336.39
951.211	429.6
951.579	409.84
951.947	361.82
952.315	373.12
952.683	330.74
953.05	401.37
953.418	361.82
953.785	390.07
954.153	299.64
954.52	429.6
954.888	387.25
955.255	305.29
955.622	443.72
955.989	347.7
956.356	452.18
956.723	288.33
957.09	373.12
957.457	378.77
957.824	364.65
958.191	316.6
958.557	426.78
958.924	378.77
959.291	370.3
959.657	333.56
960.023	542.43
960.39	336.39
960.756	359
961.122	308.12
961.488	347.7
961.855	429.6
962.221	426.78
962.586	381.6
962.952	452.18
963.318	285.5
963.684	525.52
964.05	477.58
964.415	336.39
964.781	373.12
965.146	361.82
965.512	432.43
965.877	395.72
966.242	359
966.608	277.01
966.973	361.82
967.338	407.02
967.703	390.07
968.068	274.19
968.433	415.49
968.797	502.96
969.162	265.7
969.527	336.39
969.891	305.29
970.256	353.35
970.62	381.6
970.985	426.78
971.349	421.13
971.714	457.83
972.078	435.25
972.442	296.81
972.806	375.95
973.17	322.26
973.534	364.65
973.898	347.7
974.262	339.22
974.625	418.31
974.989	392.9
975.353	474.75
975.716	449.36
976.08	344.87
976.443	271.36
976.806	415.49
977.17	384.42
977.533	347.7
977.896	342.04
978.259	327.91
978.622	708.54
978.985	384.42
979.348	415.49
979.711	322.26
980.073	277.01
980.436	336.39
980.799	350.52
981.161	404.19
981.524	359
981.886	398.55
982.248	342.04
982.611	344.87
982.973	415.49
983.335	291.16
983.697	361.82
984.059	367.47
984.421	302.47
984.783	438.07
985.145	308.12
985.506	350.52
985.868	375.95
986.23	359
986.591	257.21
986.953	412.66
987.314	395.72
987.675	265.7
988.037	11335.59
988.398	584.7
988.759	421.13
989.12	401.37
989.481	415.49
989.842	469.11
990.203	387.25
990.564	299.64
990.924	375.95
991.285	8451.51
991.646	579.06
992.006	401.37
992.367	449.36
992.727	429.6
993.087	282.67
993.448	395.72
993.808	319.43
994.168	342.04
994.528	327.91
994.888	260.04
995.248	327.91
995.608	333.56
995.967	407.02
996.327	248.72
996.687	429.6
997.046	282.67
997.406	370.3
997.765	327.91
998.125	260.04
998.484	299.64
998.843	384.42
999.202	313.78
999.561	452.18
999.92	327.91
1000.279	387.25
1000.638	254.38
1000.997	409.84
1001.356	373.12
1001.715	288.33
1002.073	423.96
1002.432	494.5
1002.79	333.56
1003.149	378.77
1003.507	432.43
1003.865	359
1004.224	426.78
1004.582	353.35
1004.94	438.07
1005.298	271.36
1005.656	325.08
1006.014	313.78
1006.371	423.96
1006.729	370.3
1007.087	508.6
1007.445	375.95
1007.802	359
1008.16	285.5
1008.517	364.65
1008.874	367.47
1009.232	401.37
1009.589	776.01
1009.946	395.72
1010.303	429.6
1010.66	404.19
1011.017	381.6
1011.374	511.42
1011.731	344.87
1012.087	333.56
1012.444	381.6
1012.801	370.3
1013.157	350.52
1013.513	398.55
1013.87	336.39
1014.226	296.81
1014.582	347.7
1014.939	316.6
1015.295	339.22
1015.651	325.08
1016.007	288.33
1016.363	449.36
1016.719	390.07
1017.074	429.6
1017.43	364.65
1017.786	375.95
1018.141	387.25
1018.497	325.08
1018.852	293.98
1019.208	333.56
1019.563	412.66
1019.918	333.56
1020.273	342.04
1020.628	367.47
1020.983	330.74
1021.338	353.35
1021.693	302.47
1022.048	378.77
1022.403	409.84
1022.757	339.22
1023.112	356.17
1023.467	381.6
1023.821	274.19
1024.175	440.89
1024.53	322.26
1024.884	432.43
1025.238	387.25
1025.592	418.31
1025.946	277.01
1026.3	285.5
1026.654	344.87
1027.008	384.42
1027.362	356.17
1027.716	364.65
1028.069	350.52
1028.423	381.6
1028.777	316.6
1029.13	268.53
1029.483	322.26
1029.837	407.02
1030.19	347.7
1030.543	316.6
1030.896	359
1031.249	387.25
1031.602	378.77
1031.955	342.04
1032.308	423.96
1032.661	415.49
1033.013	356.17
1033.366	330.74
1033.719	350.52
1034.071	381.6
1034.424	375.95
1034.776	387.25
1035.128	305.29
1035.48	407.02
1035.833	438.07
1036.185	378.77
1036.537	378.77
1036.889	378.77
