Data from BCF12_8_FLMS019251_16-29-28-053.txt Node
Date: Mon Feb 11 16:29:28 CET 2019
User: luk
Spectrometer: FLMS01925
Trigger mode: 0
Integration Time (sec): 1.648740E0
Scans to average: 1
Electric dark correction enabled: true
Nonlinearity correction enabled: true
Boxcar width: 0
XAxis mode: Wavelengths
Number of Pixels in Spectrum: 2048
>>>>>Begin Spectral Data<<<<<
187.103	-235.68
187.574	-235.68
188.045	-235.68
188.516	-247.07
188.987	11.71
189.458	-127.52
189.929	-170.19
190.4	-42.25
190.871	-64.98
191.342	-212.89
191.813	-147.43
192.284	139.34
192.754	-121.83
193.225	71.3
193.696	-25.2
194.166	-2.48
194.637	71.3
195.107	269.59
195.578	20.23
196.048	249.78
196.518	91.15
196.989	116.67
197.459	181.84
197.929	142.18
198.399	518.12
198.869	229.97
199.339	303.53
199.809	326.15
200.279	419.37
200.749	396.78
201.219	360.06
201.689	295.04
202.159	227.14
202.628	263.93
203.098	388.31
203.568	351.58
204.037	529.39
204.507	393.96
204.976	478.63
205.445	331.8
205.915	275.25
206.384	306.36
206.853	255.44
207.323	326.15
207.792	377.01
208.261	371.36
208.73	348.76
209.199	498.38
209.668	396.78
210.137	478.63
210.606	430.66
211.075	413.72
211.543	456.06
212.012	444.77
212.481	229.97
212.95	382.66
213.418	475.81
213.887	478.63
214.355	461.71
214.824	258.27
215.292	351.58
215.76	314.84
216.229	190.34
216.697	272.42
217.165	334.62
217.633	337.45
218.101	295.04
218.569	689.91
219.037	354.41
219.505	622.37
219.973	345.93
220.441	269.59
220.909	467.35
221.377	450.42
221.844	309.18
222.312	261.1
222.78	278.07
223.247	348.76
223.715	238.46
224.182	252.61
224.65	410.9
225.117	560.4
225.584	340.28
226.052	286.56
226.519	320.49
226.986	354.41
227.453	328.97
227.92	275.25
228.387	467.35
228.854	382.66
229.321	258.27
229.788	286.56
230.255	371.36
230.722	405.25
231.189	453.24
231.655	295.04
232.122	393.96
232.589	396.78
233.055	306.36
233.522	608.29
233.988	252.61
234.454	255.44
234.921	450.42
235.387	427.84
235.853	306.36
236.32	286.56
236.786	334.62
237.252	295.04
237.718	520.94
238.184	354.41
238.65	286.56
239.116	312.01
239.582	382.66
240.047	252.61
240.513	377.01
240.979	365.71
241.445	317.66
241.91	289.39
242.376	354.41
242.841	320.49
243.307	252.61
243.772	263.93
244.238	328.97
244.703	393.96
245.168	343.1
245.633	280.9
246.099	258.27
246.564	326.15
247.029	317.66
247.494	309.18
247.959	227.14
248.424	345.93
248.889	272.42
249.353	506.84
249.818	337.45
250.283	343.1
250.748	266.76
251.212	371.36
251.677	227.14
252.141	368.53
252.606	365.71
253.07	261.1
253.535	300.7
253.999	263.93
254.463	272.42
254.927	292.22
255.392	331.8
255.856	379.83
256.32	241.29
256.784	326.15
257.248	323.32
257.712	405.25
258.176	470.17
258.64	348.76
259.103	227.14
259.567	334.62
260.031	306.36
260.495	374.18
260.958	441.95
261.422	354.41
261.885	351.58
262.349	365.71
262.812	224.31
263.275	331.8
263.739	365.71
264.202	354.41
264.665	377.01
265.128	408.08
265.591	343.1
266.054	360.06
266.517	360.06
266.98	292.22
267.443	275.25
267.906	224.31
268.369	272.42
268.832	317.66
269.294	232.8
269.757	286.56
270.22	312.01
270.682	263.93
271.145	371.36
271.607	306.36
272.07	726.47
272.532	317.66
272.994	314.84
273.456	328.97
273.919	1264.4
274.381	360.06
274.843	478.63
275.305	419.37
275.767	263.93
276.229	461.71
276.691	492.74
277.153	348.76
277.614	371.36
278.076	241.29
278.538	323.32
279	385.48
279.461	328.97
279.923	667.4
280.384	292.22
280.846	300.7
281.307	212.99
281.769	360.06
282.23	399.6
282.691	481.45
283.152	244.12
283.613	261.1
284.075	215.82
284.536	410.9
284.997	295.04
285.458	396.78
285.918	179.01
286.379	405.25
286.84	484.28
287.301	326.15
287.762	309.18
288.222	368.53
288.683	272.42
289.143	345.93
289.604	328.97
290.064	326.15
290.525	357.23
290.985	619.55
291.445	323.32
291.906	365.71
292.366	312.01
292.826	362.88
293.286	317.66
293.746	385.48
294.206	314.84
294.666	368.53
295.126	410.9
295.586	297.87
296.046	269.59
296.506	379.83
296.965	425.02
297.425	286.56
297.884	393.96
298.344	295.04
298.804	300.7
299.263	323.32
299.722	314.84
300.182	391.13
300.641	354.41
301.1	244.12
301.559	419.37
302.019	334.62
302.478	385.48
302.937	337.45
303.396	328.97
303.855	709.6
304.314	312.01
304.772	1012.72
305.231	295.04
305.69	382.66
306.149	419.37
306.607	402.43
307.066	425.02
307.524	506.84
307.983	430.66
308.441	416.55
308.9	661.77
309.358	385.48
309.816	729.28
310.275	252.61
310.733	368.53
311.191	385.48
311.649	371.36
312.107	425.02
312.565	326.15
313.023	300.7
313.481	360.06
313.939	266.76
314.397	249.78
314.854	345.93
315.312	425.02
315.77	362.88
316.227	300.7
316.685	246.95
317.142	261.1
317.6	492.74
318.057	371.36
318.514	430.66
318.972	238.46
319.429	422.19
319.886	396.78
320.343	300.7
320.8	269.59
321.257	371.36
321.714	439.13
322.171	580.12
322.628	334.62
323.085	362.88
323.542	249.78
323.998	272.42
324.455	337.45
324.912	227.14
325.368	354.41
325.825	568.85
326.281	309.18
326.738	419.37
327.194	229.97
327.65	309.18
328.107	263.93
328.563	309.18
329.019	484.28
329.475	292.22
329.931	433.48
330.387	427.84
330.843	292.22
331.299	379.83
331.755	272.42
332.211	348.76
332.666	227.14
333.122	300.7
333.578	317.66
334.033	382.66
334.489	436.31
334.944	263.93
335.4	644.89
335.855	518.12
336.31	295.04
336.766	238.46
337.221	365.71
337.676	320.49
338.131	441.95
338.586	365.71
339.041	326.15
339.496	450.42
339.951	275.25
340.406	297.87
340.861	365.71
341.316	402.43
341.771	357.23
342.225	331.8
342.68	382.66
343.134	314.84
343.589	402.43
344.043	413.72
344.498	410.9
344.952	295.04
345.406	1278.36
345.861	306.36
346.315	351.58
346.769	309.18
347.223	303.53
347.677	328.97
348.131	275.25
348.585	377.01
349.039	360.06
349.493	289.39
349.947	343.1
350.401	393.96
350.854	258.27
351.308	526.57
351.762	266.76
352.215	489.92
352.669	283.73
353.122	306.36
353.575	334.62
354.029	340.28
354.482	326.15
354.935	393.96
355.388	456.06
355.842	487.1
356.295	343.1
356.748	221.48
357.201	357.23
357.654	444.77
358.106	229.97
358.559	292.22
359.012	278.07
359.465	289.39
359.917	422.19
360.37	229.97
360.823	227.14
361.275	391.13
361.728	385.48
362.18	348.76
362.632	461.71
363.085	326.15
363.537	300.7
363.989	275.25
364.441	447.6
364.893	340.28
365.345	261.1
365.797	255.44
366.249	427.84
366.701	244.12
367.153	246.95
367.605	343.1
368.057	323.32
368.508	295.04
368.96	289.39
369.411	323.32
369.863	439.13
370.314	537.85
370.766	416.55
371.217	323.32
371.669	340.28
372.12	504.02
372.571	351.58
373.022	300.7
373.473	374.18
373.924	518.12
374.375	340.28
374.826	405.25
375.277	385.48
375.728	331.8
376.179	289.39
376.63	405.25
377.08	419.37
377.531	326.15
377.981	229.97
378.432	368.53
378.883	628
379.333	388.31
379.783	345.93
380.234	343.1
380.684	306.36
381.134	475.81
381.584	405.25
382.034	509.66
382.485	439.13
382.935	360.06
383.385	405.25
383.834	323.32
384.284	326.15
384.734	289.39
385.184	436.31
385.634	328.97
386.083	374.18
386.533	368.53
386.982	408.08
387.432	487.1
387.881	235.63
388.331	246.95
388.78	453.24
389.229	343.1
389.679	297.87
390.128	379.83
390.577	351.58
391.026	292.22
391.475	269.59
391.924	320.49
392.373	232.8
392.822	263.93
393.27	458.88
393.719	295.04
394.168	218.65
394.617	295.04
395.065	286.56
395.514	504.02
395.962	382.66
396.411	252.61
396.859	354.41
397.307	478.63
397.756	306.36
398.204	368.53
398.652	478.63
399.1	360.06
399.548	280.9
399.996	563.22
400.444	408.08
400.892	246.95
401.34	328.97
401.788	408.08
402.236	283.73
402.683	280.9
403.131	436.31
403.579	371.36
404.026	297.87
404.474	246.95
404.921	328.97
405.369	334.62
405.816	323.32
406.263	365.71
406.71	492.74
407.158	393.96
407.605	340.28
408.052	345.93
408.499	410.9
408.946	425.02
409.393	295.04
409.84	292.22
410.286	312.01
410.733	410.9
411.18	334.62
411.626	467.35
412.073	334.62
412.52	357.23
412.966	461.71
413.413	323.32
413.859	269.59
414.305	295.04
414.752	391.13
415.198	425.02
415.644	374.18
416.09	283.73
416.536	320.49
416.982	396.78
417.428	396.78
417.874	297.87
418.32	348.76
418.766	427.84
419.211	348.76
419.657	348.76
420.103	241.29
420.548	261.1
420.994	441.95
421.439	379.83
421.885	345.93
422.33	173.34
422.776	303.53
423.221	546.31
423.666	408.08
424.111	391.13
424.556	365.71
425.001	408.08
425.446	320.49
425.891	258.27
426.336	425.02
426.781	647.7
427.226	275.25
427.671	320.49
428.115	345.93
428.56	391.13
429.005	518.12
429.449	365.71
429.894	326.15
430.338	673.03
430.782	334.62
431.227	345.93
431.671	382.66
432.115	193.17
432.559	295.04
433.003	289.39
433.447	295.04
433.891	340.28
434.335	399.6
434.779	229.97
435.223	413.72
435.667	393.96
436.111	2466.84
436.554	365.71
436.998	416.55
437.442	255.44
437.885	368.53
438.328	312.01
438.772	382.66
439.215	357.23
439.659	475.81
440.102	328.97
440.545	334.62
440.988	306.36
441.431	261.1
441.874	405.25
442.317	326.15
442.76	408.08
443.203	354.41
443.646	343.1
444.089	289.39
444.531	419.37
444.974	303.53
445.417	472.99
445.859	472.99
446.302	334.62
446.744	377.01
447.186	385.48
447.629	391.13
448.071	328.97
448.513	385.48
448.956	275.25
449.398	337.45
449.84	402.43
450.282	433.48
450.724	410.9
451.166	343.1
451.607	622.37
452.049	266.76
452.491	343.1
452.933	360.06
453.374	585.75
453.816	506.84
454.257	362.88
454.699	472.99
455.14	441.95
455.582	379.83
456.023	351.58
456.464	303.53
456.905	549.12
457.347	456.06
457.788	261.1
458.229	218.65
458.67	379.83
459.111	300.7
459.552	405.25
459.992	343.1
460.433	472.99
460.874	323.32
461.315	453.24
461.755	481.45
462.196	263.93
462.636	447.6
463.077	328.97
463.517	393.96
463.957	210.16
464.398	331.8
464.838	447.6
465.278	292.22
465.718	345.93
466.158	345.93
466.598	410.9
467.038	272.42
467.478	492.74
467.918	368.53
468.358	526.57
468.798	405.25
469.237	337.45
469.677	391.13
470.117	498.38
470.556	385.48
470.996	464.53
471.435	170.51
471.874	232.8
472.314	314.84
472.753	303.53
473.192	360.06
473.631	377.01
474.07	306.36
474.509	295.04
474.948	374.18
475.387	300.7
475.826	535.03
476.265	258.27
476.704	382.66
477.143	546.31
477.581	504.02
478.02	484.28
478.458	464.53
478.897	520.94
479.335	388.31
479.774	391.13
480.212	289.39
480.65	326.15
481.089	320.49
481.527	529.39
481.965	334.62
482.403	289.39
482.841	328.97
483.279	314.84
483.717	368.53
484.155	198.83
484.592	340.28
485.03	314.84
485.468	385.48
485.905	402.43
486.343	362.88
486.781	343.1
487.218	351.58
487.655	377.01
488.093	306.36
488.53	371.36
488.967	337.45
489.405	314.84
489.842	360.06
490.279	551.94
490.716	447.6
491.153	453.24
491.59	408.08
492.027	368.53
492.463	289.39
492.9	295.04
493.337	365.71
493.773	405.25
494.21	492.74
494.647	396.78
495.083	348.76
495.519	484.28
495.956	323.32
496.392	453.24
496.828	439.13
497.265	340.28
497.701	362.88
498.137	312.01
498.573	258.27
499.009	481.45
499.445	399.6
499.881	444.77
500.316	340.28
500.752	300.7
501.188	368.53
501.624	286.56
502.059	405.25
502.495	501.2
502.93	334.62
503.366	2293.41
503.801	371.36
504.236	351.58
504.672	433.48
505.107	351.58
505.542	348.76
505.977	300.7
506.412	377.01
506.847	439.13
507.282	309.18
507.717	328.97
508.152	334.62
508.587	326.15
509.021	436.31
509.456	348.76
509.891	280.9
510.325	255.44
510.76	345.93
511.194	306.36
511.628	362.88
512.063	379.83
512.497	345.93
512.931	266.76
513.366	280.9
513.8	405.25
514.234	328.97
514.668	266.76
515.102	266.76
515.536	278.07
515.969	566.03
516.403	320.49
516.837	425.02
517.271	543.49
517.704	328.97
518.138	337.45
518.571	337.45
519.005	487.1
519.438	410.9
519.871	309.18
520.305	396.78
520.738	300.7
521.171	405.25
521.604	433.48
522.037	450.42
522.47	642.07
522.903	408.08
523.336	272.42
523.769	360.06
524.202	419.37
524.634	328.97
525.067	314.84
525.5	427.84
525.932	718.03
526.365	501.2
526.797	365.71
527.23	317.66
527.662	385.48
528.094	492.74
528.527	377.01
528.959	292.22
529.391	529.39
529.823	467.35
530.255	323.32
530.687	371.36
531.119	385.48
531.551	340.28
531.982	331.8
532.414	453.24
532.846	549.12
533.277	275.25
533.709	331.8
534.14	286.56
534.572	422.19
535.003	413.72
535.435	484.28
535.866	518.12
536.297	393.96
536.728	506.84
537.159	362.88
537.59	368.53
538.022	408.08
538.452	515.3
538.883	374.18
539.314	343.1
539.745	283.73
540.176	523.76
540.606	362.88
541.037	382.66
541.468	258.27
541.898	320.49
542.328	269.59
542.759	512.48
543.189	362.88
543.619	244.12
544.05	580.12
544.48	244.12
544.91	348.76
545.34	427.84
545.77	441.95
546.2	410.9
546.63	526.57
547.06	408.08
547.489	571.67
547.919	348.76
548.349	371.36
548.778	430.66
549.208	314.84
549.637	351.58
550.067	464.53
550.496	402.43
550.926	405.25
551.355	340.28
551.784	229.97
552.213	303.53
552.642	430.66
553.071	374.18
553.5	377.01
553.929	360.06
554.358	351.58
554.787	371.36
555.216	371.36
555.645	382.66
556.073	566.03
556.502	297.87
556.93	323.32
557.359	295.04
557.787	266.76
558.216	303.53
558.644	297.87
559.072	312.01
559.5	286.56
559.929	351.58
560.357	436.31
560.785	388.31
561.213	458.88
561.641	456.06
562.068	501.2
562.496	328.97
562.924	393.96
563.352	357.23
563.779	297.87
564.207	280.9
564.634	297.87
565.062	334.62
565.489	402.43
565.917	326.15
566.344	328.97
566.771	354.41
567.198	300.7
567.625	306.36
568.053	272.42
568.48	354.41
568.907	246.95
569.333	396.78
569.76	297.87
570.187	297.87
570.614	461.71
571.04	27939.97
571.467	928.64
571.894	405.25
572.32	337.45
572.747	391.13
573.173	441.95
573.599	331.8
574.026	515.3
574.452	379.83
574.878	306.36
575.304	405.25
575.73	314.84
576.156	413.72
576.582	272.42
577.008	309.18
577.434	261.1
577.86	289.39
578.285	312.01
578.711	297.87
579.137	275.25
579.562	439.13
579.988	176.18
580.413	402.43
580.838	207.33
581.264	320.49
581.689	340.28
582.114	300.7
582.539	3186.96
582.964	382.66
583.39	478.63
583.814	360.06
584.239	385.48
584.664	272.42
585.089	396.78
585.514	495.56
585.939	379.83
586.363	382.66
586.788	461.71
587.212	360.06
587.637	278.07
588.061	317.66
588.485	323.32
588.91	272.42
589.334	345.93
589.758	436.31
590.182	405.25
590.606	323.32
591.03	551.94
591.454	413.72
591.878	334.62
592.302	379.83
592.726	549.12
593.15	272.42
593.573	323.32
593.997	396.78
594.42	255.44
594.844	368.53
595.267	303.53
595.691	334.62
596.114	263.93
596.537	328.97
596.96	374.18
597.384	312.01
597.807	261.1
598.23	337.45
598.653	450.42
599.076	241.29
599.499	379.83
599.921	320.49
600.344	295.04
600.767	509.66
601.189	501.2
601.612	283.73
602.034	252.61
602.457	314.84
602.879	995.91
603.302	326.15
603.724	360.06
604.146	207.33
604.568	289.39
604.991	320.49
605.413	266.76
605.835	368.53
606.257	360.06
606.678	357.23
607.1	365.71
607.522	334.62
607.944	554.76
608.365	430.66
608.787	385.48
609.209	563.22
609.63	227.14
610.051	348.76
610.473	286.56
610.894	377.01
611.315	261.1
611.737	439.13
612.158	295.04
612.579	269.59
613	715.22
613.421	275.25
613.842	396.78
614.263	405.25
614.683	266.76
615.104	377.01
615.525	439.13
615.945	354.41
616.366	244.12
616.787	509.66
617.207	303.53
617.627	295.04
618.048	326.15
618.468	289.39
618.888	286.56
619.308	187.51
619.728	416.55
620.148	272.42
620.568	425.02
620.988	529.39
621.408	272.42
621.828	289.39
622.248	405.25
622.668	374.18
623.087	402.43
623.507	292.22
623.926	436.31
624.346	317.66
624.765	354.41
625.185	198.83
625.604	278.07
626.023	334.62
626.442	371.36
626.861	484.28
627.28	312.01
627.699	306.36
628.118	295.04
628.537	328.97
628.956	644.89
629.375	408.08
629.794	377.01
630.212	354.41
630.631	444.77
631.049	309.18
631.468	422.19
631.886	286.56
632.305	478.63
632.723	263.93
633.141	292.22
633.559	360.06
633.978	292.22
634.396	456.06
634.814	212.99
635.232	425.02
635.65	362.88
636.067	396.78
636.485	331.8
636.903	289.39
637.321	447.6
637.738	608.29
638.156	275.25
638.573	218.65
638.991	644.89
639.408	464.53
639.825	249.78
640.243	501.2
640.66	343.1
641.077	410.9
641.494	456.06
641.911	399.6
642.328	360.06
642.745	416.55
643.162	416.55
643.579	337.45
643.995	297.87
644.412	633.63
644.829	249.78
645.245	345.93
645.662	312.01
646.078	326.15
646.495	258.27
646.911	246.95
647.327	526.57
647.743	357.23
648.159	481.45
648.576	283.73
648.992	385.48
649.408	374.18
649.824	317.66
650.239	408.08
650.655	331.8
651.071	241.29
651.487	416.55
651.902	314.84
652.318	303.53
652.733	297.87
653.149	246.95
653.564	278.07
653.979	334.62
654.395	323.32
654.81	246.95
655.225	345.93
655.64	328.97
656.055	181.84
656.47	340.28
656.885	328.97
657.3	215.82
657.715	529.39
658.13	201.66
658.544	382.66
658.959	343.1
659.374	297.87
659.788	396.78
660.202	193.17
660.617	537.85
661.031	416.55
661.445	405.25
661.86	280.9
662.274	489.92
662.688	396.78
663.102	334.62
663.516	554.76
663.93	351.58
664.344	422.19
664.758	393.96
665.171	323.32
665.585	326.15
665.999	331.8
666.412	309.18
666.826	357.23
667.239	458.88
667.653	244.12
668.066	303.53
668.479	630.81
668.892	289.39
669.306	328.97
669.719	357.23
670.132	323.32
670.545	368.53
670.958	283.73
671.37	360.06
671.783	345.93
672.196	396.78
672.609	283.73
673.021	320.49
673.434	312.01
673.846	323.32
674.259	292.22
674.671	280.9
675.084	212.99
675.496	289.39
675.908	328.97
676.32	232.8
676.732	334.62
677.144	249.78
677.556	340.28
677.968	309.18
678.38	425.02
678.792	385.48
679.204	331.8
679.615	472.99
680.027	292.22
680.439	295.04
680.85	410.9
681.262	568.85
681.673	368.53
682.084	357.23
682.496	393.96
682.907	461.71
683.318	326.15
683.729	362.88
684.14	295.04
684.551	283.73
684.962	379.83
685.373	306.36
685.784	354.41
686.194	343.1
686.605	303.53
687.016	402.43
687.426	371.36
687.837	207.33
688.247	252.61
688.657	170.51
689.068	391.13
689.478	475.81
689.888	405.25
690.298	337.45
690.708	337.45
691.118	334.62
691.528	337.45
691.938	306.36
692.348	261.1
692.758	210.16
693.168	244.12
693.577	379.83
693.987	280.9
694.396	309.18
694.806	340.28
695.215	334.62
695.625	334.62
696.034	278.07
696.443	246.95
696.852	461.71
697.262	289.39
697.671	312.01
698.08	368.53
698.489	362.88
698.897	312.01
699.306	283.73
699.715	402.43
700.124	317.66
700.532	286.56
700.941	413.72
701.35	360.06
701.758	419.37
702.166	337.45
702.575	371.36
702.983	306.36
703.391	345.93
703.799	292.22
704.208	351.58
704.616	232.8
705.024	416.55
705.432	385.48
705.839	249.78
706.247	535.03
706.655	543.49
707.063	283.73
707.47	314.84
707.878	309.18
708.285	348.76
708.693	303.53
709.1	405.25
709.508	227.14
709.915	410.9
710.322	425.02
710.729	678.66
711.136	295.04
711.543	297.87
711.95	331.8
712.357	408.08
712.764	309.18
713.171	309.18
713.578	331.8
713.984	343.1
714.391	320.49
714.797	280.9
715.204	348.76
715.61	399.6
716.017	218.65
716.423	382.66
716.829	351.58
717.236	266.76
717.642	331.8
718.048	393.96
718.454	447.6
718.86	348.76
719.266	644.89
719.671	297.87
720.077	396.78
720.483	300.7
720.889	441.95
721.294	309.18
721.7	297.87
722.105	343.1
722.511	351.58
722.916	320.49
723.321	512.48
723.726	461.71
724.132	326.15
724.537	365.71
724.942	416.55
725.347	410.9
725.752	351.58
726.156	323.32
726.561	280.9
726.966	300.7
727.371	433.48
727.775	360.06
728.18	176.18
728.584	266.76
728.989	289.39
729.393	777.06
729.798	385.48
730.202	475.81
730.606	289.39
731.01	204.5
731.414	317.66
731.818	241.29
732.222	388.31
732.626	278.07
733.03	416.55
733.434	218.65
733.837	422.19
734.241	314.84
734.645	272.42
735.048	272.42
735.452	337.45
735.855	269.59
736.258	368.53
736.662	613.92
737.065	535.03
737.468	447.6
737.871	317.66
738.274	475.81
738.677	258.27
739.08	269.59
739.483	408.08
739.886	377.01
740.289	388.31
740.691	312.01
741.094	227.14
741.497	246.95
741.899	506.84
742.302	331.8
742.704	266.76
743.106	354.41
743.508	306.36
743.911	306.36
744.313	297.87
744.715	357.23
745.117	337.45
745.519	280.9
745.921	450.42
746.323	320.49
746.724	249.78
747.126	272.42
747.528	453.24
747.929	300.7
748.331	410.9
748.732	292.22
749.134	179.01
749.535	224.31
749.936	689.91
750.338	269.59
750.739	577.3
751.14	419.37
751.541	351.58
751.942	337.45
752.343	340.28
752.744	405.25
753.144	297.87
753.545	371.36
753.946	334.62
754.346	258.27
754.747	475.81
755.148	878.15
755.548	334.62
755.948	345.93
756.349	227.14
756.749	303.53
757.149	170.51
757.549	526.57
757.949	283.73
758.349	337.45
758.749	278.07
759.149	320.49
759.549	345.93
759.949	297.87
760.348	661.77
760.748	357.23
761.148	320.49
761.547	357.23
761.947	292.22
762.346	323.32
762.745	487.1
763.145	405.25
763.544	357.23
763.943	385.48
764.342	317.66
764.741	360.06
765.14	334.62
765.539	295.04
765.938	642.07
766.336	280.9
766.735	210.16
767.134	323.32
767.532	377.01
767.931	283.73
768.329	633.63
768.728	300.7
769.126	323.32
769.525	478.63
769.923	320.49
770.321	399.6
770.719	475.81
771.117	402.43
771.515	416.55
771.913	354.41
772.311	320.49
772.709	388.31
773.106	176.18
773.504	317.66
773.902	337.45
774.299	320.49
774.697	838.85
775.094	351.58
775.491	269.59
775.889	351.58
776.286	190.34
776.683	258.27
777.08	280.9
777.477	232.8
777.874	348.76
778.271	306.36
778.668	244.12
779.065	232.8
779.462	283.73
779.858	357.23
780.255	416.55
780.652	340.28
781.048	492.74
781.444	337.45
781.841	289.39
782.237	385.48
782.633	393.96
783.03	266.76
783.426	317.66
783.822	334.62
784.218	258.27
784.614	283.73
785.01	289.39
785.405	354.41
785.801	357.23
786.197	249.78
786.593	309.18
786.988	425.02
787.384	478.63
787.779	283.73
788.174	297.87
788.57	263.93
788.965	328.97
789.36	275.25
789.755	320.49
790.15	297.87
790.545	292.22
790.94	235.63
791.335	320.49
791.73	309.18
792.125	478.63
792.52	283.73
792.914	351.58
793.309	275.25
793.703	444.77
794.098	337.45
794.492	405.25
794.887	235.63
795.281	512.48
795.675	489.92
796.069	509.66
796.463	238.46
796.857	266.76
797.251	331.8
797.645	286.56
798.039	399.6
798.433	252.61
798.826	351.58
799.22	314.84
799.614	314.84
800.007	365.71
800.401	371.36
800.794	382.66
801.187	295.04
801.581	340.28
801.974	331.8
802.367	475.81
802.76	334.62
803.153	280.9
803.546	314.84
803.939	280.9
804.332	235.63
804.725	312.01
805.117	317.66
805.51	425.02
805.903	340.28
806.295	317.66
806.688	278.07
807.08	252.61
807.472	408.08
807.865	348.76
808.257	484.28
808.649	487.1
809.041	320.49
809.433	354.41
809.825	295.04
810.217	368.53
810.609	348.76
811.001	343.1
811.392	314.84
811.784	563.22
812.175	289.39
812.567	487.1
812.958	377.01
813.35	238.46
813.741	210.16
814.132	396.78
814.524	258.27
814.915	309.18
815.306	218.65
815.697	374.18
816.088	320.49
816.479	475.81
816.87	439.13
817.26	365.71
817.651	574.49
818.042	416.55
818.432	286.56
818.823	345.93
819.213	314.84
819.604	328.97
819.994	362.88
820.384	354.41
820.775	391.13
821.165	289.39
821.555	337.45
821.945	246.95
822.335	337.45
822.725	453.24
823.114	221.48
823.504	266.76
823.894	261.1
824.284	582.94
824.673	331.8
825.063	261.1
825.452	379.83
825.842	343.1
826.231	582.94
826.62	275.25
827.009	444.77
827.399	419.37
827.788	297.87
828.177	227.14
828.566	393.96
828.954	709.6
829.343	326.15
829.732	258.27
830.121	687.1
830.509	611.1
830.898	283.73
831.286	312.01
831.675	340.28
832.063	464.53
832.452	286.56
832.84	218.65
833.228	515.3
833.616	365.71
834.004	331.8
834.392	320.49
834.78	439.13
835.168	323.32
835.556	399.6
835.944	405.25
836.331	377.01
836.719	419.37
837.107	402.43
837.494	416.55
837.881	357.23
838.269	309.18
838.656	196
839.043	266.76
839.431	706.79
839.818	340.28
840.205	377.01
840.592	275.25
840.979	312.01
841.366	283.73
841.752	337.45
842.139	320.49
842.526	309.18
842.912	402.43
843.299	269.59
843.685	402.43
844.072	275.25
844.458	399.6
844.844	266.76
845.231	261.1
845.617	317.66
846.003	348.76
846.389	326.15
846.775	187.51
847.161	360.06
847.547	297.87
847.933	312.01
848.318	396.78
848.704	221.48
849.09	244.12
849.475	303.53
849.861	453.24
850.246	326.15
850.631	504.02
851.017	374.18
851.402	340.28
851.787	405.25
852.172	571.67
852.557	413.72
852.942	427.84
853.327	297.87
853.712	385.48
854.097	295.04
854.481	295.04
854.866	323.32
855.25	269.59
855.635	399.6
856.019	212.99
856.404	309.18
856.788	266.76
857.172	232.8
857.557	422.19
857.941	334.62
858.325	314.84
858.709	227.14
859.093	283.73
859.477	286.56
859.86	481.45
860.244	283.73
860.628	563.22
861.012	416.55
861.395	309.18
861.779	266.76
862.162	314.84
862.545	334.62
862.929	351.58
863.312	450.42
863.695	244.12
864.078	204.5
864.461	295.04
864.844	393.96
865.227	504.02
865.61	283.73
865.993	218.65
866.376	331.8
866.758	543.49
867.141	464.53
867.523	461.71
867.906	258.27
868.288	393.96
868.671	377.01
869.053	348.76
869.435	306.36
869.817	509.66
870.199	317.66
870.581	309.18
870.963	391.13
871.345	405.25
871.727	377.01
872.109	263.93
872.491	297.87
872.872	470.17
873.254	475.81
873.635	303.53
874.017	625.18
874.398	280.9
874.779	436.31
875.161	343.1
875.542	509.66
875.923	280.9
876.304	312.01
876.685	312.01
877.066	360.06
877.447	275.25
877.828	368.53
878.208	408.08
878.589	447.6
878.97	509.66
879.35	314.84
879.731	255.44
880.111	275.25
880.491	289.39
880.872	393.96
881.252	334.62
881.632	306.36
882.012	484.28
882.392	458.88
882.772	447.6
883.152	249.78
883.532	399.6
883.912	458.88
884.291	306.36
884.671	289.39
885.051	303.53
885.43	275.25
885.81	391.13
886.189	241.29
886.568	323.32
886.948	425.02
887.327	348.76
887.706	345.93
888.085	568.85
888.464	408.08
888.843	644.89
889.222	430.66
889.601	402.43
889.979	337.45
890.358	320.49
890.737	354.41
891.115	280.9
891.494	278.07
891.872	345.93
892.25	275.25
892.629	456.06
893.007	571.67
893.385	362.88
893.763	328.97
894.141	331.8
894.519	382.66
894.897	300.7
895.275	331.8
895.653	348.76
896.03	377.01
896.408	402.43
896.786	198.83
897.163	303.53
897.541	328.97
897.918	563.22
898.295	334.62
898.673	351.58
899.05	391.13
899.427	1051.92
899.804	368.53
900.181	300.7
900.558	439.13
900.935	458.88
901.312	297.87
901.688	238.46
902.065	408.08
902.442	244.12
902.818	266.76
903.195	235.63
903.571	309.18
903.947	377.01
904.324	323.32
904.7	345.93
905.076	498.38
905.452	269.59
905.828	405.25
906.204	385.48
906.58	295.04
906.956	365.71
907.331	498.38
907.707	379.83
908.083	461.71
908.458	433.48
908.834	314.84
909.209	354.41
909.585	413.72
909.96	458.88
910.335	314.84
910.71	300.7
911.086	405.25
911.461	413.72
911.836	289.39
912.21	278.07
912.585	306.36
912.96	458.88
913.335	328.97
913.709	283.73
914.084	227.14
914.459	331.8
914.833	334.62
915.207	292.22
915.582	275.25
915.956	348.76
916.33	382.66
916.704	295.04
917.078	340.28
917.452	382.66
917.826	323.32
918.2	408.08
918.574	303.53
918.948	275.25
919.321	272.42
919.695	374.18
920.068	422.19
920.442	351.58
920.815	427.84
921.189	354.41
921.562	619.55
921.935	377.01
922.308	303.53
922.681	430.66
923.054	326.15
923.427	357.23
923.8	286.56
924.173	328.97
924.546	275.25
924.919	295.04
925.291	300.7
925.664	320.49
926.036	348.76
926.409	309.18
926.781	365.71
927.153	413.72
927.526	422.19
927.898	278.07
928.27	354.41
928.642	275.25
929.014	255.44
929.386	218.65
929.758	244.12
930.129	280.9
930.501	439.13
930.873	266.76
931.244	314.84
931.616	272.42
931.987	374.18
932.359	458.88
932.73	425.02
933.101	328.97
933.472	314.84
933.843	422.19
934.214	515.3
934.585	379.83
934.956	320.49
935.327	779.87
935.698	388.31
936.069	357.23
936.439	492.74
936.81	286.56
937.18	467.35
937.551	354.41
937.921	481.45
938.292	441.95
938.662	292.22
939.032	410.9
939.402	399.6
939.772	504.02
940.142	303.53
940.512	283.73
940.882	348.76
941.252	297.87
941.621	283.73
941.991	345.93
942.361	461.71
942.73	328.97
943.1	286.56
943.469	314.84
943.838	571.67
944.208	458.88
944.577	292.22
944.946	297.87
945.315	266.76
945.684	323.32
946.053	312.01
946.422	362.88
946.791	360.06
947.159	334.62
947.528	351.58
947.897	374.18
948.265	371.36
948.634	408.08
949.002	193.17
949.371	246.95
949.739	286.56
950.107	317.66
950.475	348.76
950.843	320.49
951.211	436.31
951.579	399.6
951.947	348.76
952.315	413.72
952.683	331.8
953.05	323.32
953.418	343.1
953.785	374.18
954.153	312.01
954.52	292.22
954.888	453.24
955.255	297.87
955.622	377.01
955.989	368.53
956.356	487.1
956.723	320.49
957.09	365.71
957.457	377.01
957.824	328.97
958.191	297.87
958.557	489.92
958.924	309.18
959.291	269.59
959.657	326.15
960.023	664.59
960.39	410.9
960.756	331.8
961.122	464.53
961.488	357.23
961.855	328.97
962.221	365.71
962.586	326.15
962.952	478.63
963.318	379.83
963.684	687.1
964.05	585.75
964.415	374.18
964.781	377.01
965.146	323.32
965.512	554.76
965.877	430.66
966.242	365.71
966.608	320.49
966.973	317.66
967.338	303.53
967.703	393.96
968.068	246.95
968.433	563.22
968.797	597.02
969.162	379.83
969.527	278.07
969.891	317.66
970.256	362.88
970.62	295.04
970.985	408.08
971.349	504.02
971.714	456.06
972.078	246.95
972.442	303.53
972.806	393.96
973.17	351.58
973.534	365.71
973.898	362.88
974.262	278.07
974.625	543.49
974.989	297.87
975.353	563.22
975.716	405.25
976.08	312.01
976.443	297.87
976.806	365.71
977.17	351.58
977.533	328.97
977.896	244.12
978.259	326.15
978.622	979.1
978.985	478.63
979.348	393.96
979.711	351.58
980.073	368.53
980.436	340.28
980.799	314.84
981.161	391.13
981.524	292.22
981.886	391.13
982.248	360.06
982.611	385.48
982.973	351.58
983.335	340.28
983.697	312.01
984.059	402.43
984.421	314.84
984.783	348.76
985.145	371.36
985.506	283.73
985.868	391.13
986.23	300.7
986.591	278.07
986.953	368.53
987.314	286.56
987.675	198.83
988.037	23214.62
988.398	819.2
988.759	379.83
989.12	388.31
989.481	402.43
989.842	419.37
990.203	317.66
990.564	334.62
990.924	360.06
991.285	18381.1
991.646	709.6
992.006	326.15
992.367	345.93
992.727	441.95
993.087	351.58
993.448	312.01
993.808	306.36
994.168	238.46
994.528	326.15
994.888	377.01
995.248	379.83
995.608	252.61
995.967	297.87
996.327	278.07
996.687	467.35
997.046	278.07
997.406	331.8
997.765	224.31
998.125	283.73
998.484	263.93
998.843	605.47
999.202	337.45
999.561	317.66
999.92	320.49
1000.279	343.1
1000.638	210.16
1000.997	278.07
1001.356	286.56
1001.715	252.61
1002.073	320.49
1002.432	430.66
1002.79	249.78
1003.149	212.99
1003.507	450.42
1003.865	320.49
1004.224	343.1
1004.582	399.6
1004.94	436.31
1005.298	266.76
1005.656	303.53
1006.014	405.25
1006.371	343.1
1006.729	261.1
1007.087	537.85
1007.445	396.78
1007.802	334.62
1008.16	201.66
1008.517	348.76
1008.874	447.6
1009.232	286.56
1009.589	1065.92
1009.946	458.88
1010.303	283.73
1010.66	340.28
1011.017	314.84
1011.374	447.6
1011.731	340.28
1012.087	326.15
1012.444	235.63
1012.801	278.07
1013.157	221.48
1013.513	292.22
1013.87	306.36
1014.226	345.93
1014.582	300.7
1014.939	295.04
1015.295	374.18
1015.651	360.06
1016.007	227.14
1016.363	537.85
1016.719	263.93
1017.074	393.96
1017.43	272.42
1017.786	433.48
1018.141	362.88
1018.497	326.15
1018.852	396.78
1019.208	360.06
1019.563	343.1
1019.918	297.87
1020.273	272.42
1020.628	382.66
1020.983	532.21
1021.338	343.1
1021.693	371.36
1022.048	309.18
1022.403	295.04
1022.757	252.61
1023.112	337.45
1023.467	306.36
1023.821	229.97
1024.175	292.22
1024.53	280.9
1024.884	244.12
1025.238	190.34
1025.592	297.87
1025.946	300.7
1026.3	278.07
1026.654	328.97
1027.008	198.83
1027.362	224.31
1027.716	295.04
1028.069	266.76
1028.423	337.45
1028.777	249.78
1029.13	295.04
1029.483	433.48
1029.837	408.08
1030.19	238.46
1030.543	280.9
1030.896	303.53
1031.249	388.31
1031.602	309.18
1031.955	297.87
1032.308	334.62
1032.661	492.74
1033.013	297.87
1033.366	280.9
1033.719	343.1
1034.071	215.82
1034.424	238.46
1034.776	196
1035.128	317.66
1035.48	297.87
1035.833	512.48
1036.185	320.49
1036.537	320.49
1036.889	320.49
