Data from BCF12_8_FLMS019251_16-44-00-159.txt Node
Date: Mon Feb 11 16:44:00 CET 2019
User: luk
Spectrometer: FLMS01925
Trigger mode: 0
Integration Time (sec): 1.000000E1
Scans to average: 1
Electric dark correction enabled: true
Nonlinearity correction enabled: true
Boxcar width: 0
XAxis mode: Wavelengths
Number of Pixels in Spectrum: 2048
>>>>>Begin Spectral Data<<<<<
187.103	-1072.68
187.574	-1072.68
188.045	-1072.68
188.516	-1188.02
188.987	824.29
189.458	82.11
189.929	-435.86
190.4	220.95
190.871	-293.2
191.342	-453
191.813	-395.89
192.284	717.51
192.754	-381.62
193.225	-139.43
193.696	-99.62
194.166	-93.93
194.637	339.75
195.107	723.13
195.578	56.59
196.048	365.18
196.518	-227.67
196.989	82.11
197.459	263.4
197.929	-88.25
198.399	1853.53
198.869	319.96
199.339	545.78
199.809	641.54
200.279	1325.28
200.749	506.31
201.219	297.34
201.689	404.72
202.159	186.97
202.628	186.97
203.098	514.77
203.568	144.48
204.037	751.24
204.507	339.75
204.976	751.24
205.445	147.31
205.915	107.63
206.384	147.31
206.853	127.48
207.323	147.31
207.792	263.4
208.261	147.31
208.73	195.47
209.199	995.39
209.668	602.13
210.137	832.71
210.606	257.74
211.075	709.07
211.543	1068.2
212.012	905.68
212.481	-147.96
212.95	152.98
213.418	1472.99
213.887	779.35
214.355	1051.4
214.824	438.6
215.292	79.28
215.76	-37.1
216.229	-3.02
216.697	235.1
217.165	621.84
217.633	325.62
218.101	700.63
218.569	2831.26
219.037	711.88
219.505	1731.51
219.973	835.52
220.441	291.69
220.909	393.43
221.377	1000.99
221.844	782.16
222.312	257.74
222.78	334.09
223.247	486.57
223.715	-102.46
224.182	489.39
224.65	683.76
225.117	1020.6
225.584	331.27
226.052	257.74
226.519	500.67
226.986	356.7
227.453	334.09
227.92	455.53
228.387	1166.1
228.854	297.34
229.321	-5.86
229.788	723.13
230.255	916.9
230.722	1020.6
231.189	742.81
231.655	232.27
232.122	630.28
232.589	218.12
233.055	45.24
233.522	1639.88
233.988	73.61
234.454	784.97
234.921	619.02
235.387	1414.5
235.853	489.39
236.32	124.64
236.786	-17.21
237.252	243.59
237.718	1806.41
238.184	319.96
238.65	387.78
239.116	288.86
239.582	537.32
240.047	65.1
240.513	568.32
240.979	534.5
241.445	28.21
241.91	130.31
242.376	11.18
242.841	787.77
243.307	144.48
243.772	209.63
244.238	152.98
244.703	709.07
245.168	413.19
245.633	452.71
246.099	-39.94
246.564	175.65
247.029	700.63
247.494	16.86
247.959	116.14
248.424	152.98
248.889	-119.52
249.353	1258.3
249.818	300.17
250.283	76.44
250.748	209.63
251.212	537.32
251.677	-79.72
252.141	469.64
252.606	384.95
253.07	135.98
253.535	192.64
253.999	8.34
254.463	113.3
254.927	-8.7
255.392	466.82
255.856	483.75
256.32	339.75
256.784	36.72
257.248	365.18
257.712	624.65
258.176	1823.04
258.64	382.13
259.103	252.08
259.567	246.42
260.031	116.14
260.495	554.23
260.958	1048.6
261.422	387.78
261.885	334.09
262.349	342.57
262.812	87.79
263.275	319.96
263.739	630.28
264.202	503.49
264.665	602.13
265.128	678.13
265.591	551.41
266.054	198.3
266.517	880.43
266.98	286.03
267.443	8.34
267.906	45.24
268.369	107.63
268.832	483.75
269.294	93.46
269.757	464
270.22	-25.73
270.682	509.13
271.145	717.51
271.607	399.07
272.07	2356.25
272.532	124.64
272.994	246.42
273.456	796.2
273.919	5504.39
274.381	101.96
274.843	1330.86
275.305	1132.55
275.767	215.29
276.229	773.73
276.691	523.23
277.153	133.15
277.614	565.5
278.076	-8.7
278.538	469.64
279	195.47
279.461	56.59
279.923	2003.02
280.384	116.14
280.846	90.62
281.307	133.15
281.769	280.37
282.23	559.87
282.691	1168.9
283.152	110.47
283.613	-147.96
284.075	-51.3
284.536	740
284.997	175.65
285.458	101.96
285.918	-65.51
286.379	447.07
286.84	1143.73
287.301	-5.86
287.762	201.13
288.222	104.8
288.683	192.64
289.143	249.25
289.604	158.65
290.064	181.31
290.525	297.34
290.985	2119.09
291.445	421.66
291.906	53.75
292.366	42.4
292.826	138.81
293.286	489.39
293.746	155.81
294.206	497.85
294.666	992.58
295.126	675.31
295.586	133.15
296.046	-153.65
296.506	568.32
296.965	799.01
297.425	-142.28
297.884	1171.69
298.344	390.6
298.804	393.43
299.263	356.7
299.722	305.82
300.182	93.46
300.641	-102.46
301.1	-0.18
301.559	373.65
302.019	53.75
302.478	303
302.937	342.57
303.396	438.6
303.855	2515.81
304.314	407.55
304.772	4038.43
305.231	-31.42
305.69	220.95
306.149	652.8
306.607	246.42
307.066	669.69
307.524	928.11
307.983	678.13
308.441	813.06
308.9	1884
309.358	269.06
309.816	2433.32
310.275	269.06
310.733	303
311.191	365.18
311.649	768.11
312.107	919.7
312.565	152.98
313.023	237.93
313.481	59.42
313.939	144.48
314.397	101.96
314.854	152.98
315.312	793.39
315.77	911.29
316.227	16.86
316.685	133.15
317.142	-17.21
317.6	1146.53
318.057	638.73
318.514	418.84
318.972	294.51
319.429	807.44
319.886	243.59
320.343	209.63
320.8	104.8
321.257	291.69
321.714	1188.46
322.171	1562.04
322.628	164.31
323.085	184.14
323.542	-51.3
323.998	305.82
324.455	36.72
324.912	413.19
325.368	178.48
325.825	1445.14
326.281	274.72
326.738	787.77
327.194	158.65
327.65	497.85
328.107	11.18
328.563	212.46
329.019	1076.59
329.475	252.08
329.931	528.87
330.387	540.14
330.843	-39.94
331.299	588.04
331.755	-76.88
332.211	79.28
332.666	147.31
333.122	62.26
333.578	573.96
334.033	87.79
334.489	624.65
334.944	-122.37
335.4	2342.48
335.855	1355.96
336.31	73.61
336.766	150.15
337.221	359.53
337.676	-45.62
338.131	514.77
338.586	841.13
339.041	246.42
339.496	1205.23
339.951	399.07
340.406	373.65
340.861	254.91
341.316	198.3
341.771	438.6
342.225	19.69
342.68	568.32
343.134	152.98
343.589	469.64
344.043	435.78
344.498	334.09
344.952	472.46
345.406	5963.68
345.861	5.5
346.315	-74.03
346.769	16.86
347.223	90.62
347.677	31.05
348.131	-85.4
348.585	-34.26
349.039	232.27
349.493	76.44
349.947	175.65
350.401	254.91
350.854	-37.1
351.308	1712.08
351.762	-28.58
352.215	1126.95
352.669	-62.67
353.122	-113.83
353.575	45.24
354.029	401.9
354.482	150.15
354.935	565.5
355.388	641.54
355.842	804.63
356.295	452.71
356.748	-3.02
357.201	291.69
357.654	700.63
358.106	172.81
358.559	-76.88
359.012	56.59
359.465	181.31
359.917	978.57
360.37	82.11
360.823	161.48
361.275	782.16
361.728	229.44
362.18	537.32
362.632	883.23
363.085	65.1
363.537	161.48
363.989	116.14
364.441	124.64
364.893	-8.7
365.345	135.98
365.797	-167.88
366.249	432.95
366.701	25.37
367.153	155.81
367.605	-65.51
368.057	201.13
368.508	65.1
368.96	-167.88
369.411	90.62
369.863	652.8
370.314	1261.09
370.766	509.13
371.217	382.13
371.669	353.88
372.12	1500.83
372.571	872.01
373.022	-48.46
373.473	548.6
373.924	714.7
374.375	243.59
374.826	759.68
375.277	237.93
375.728	181.31
376.179	104.8
376.63	181.31
377.08	1023.4
377.531	2.66
377.981	-162.19
378.432	849.56
378.883	1809.18
379.333	503.49
379.783	286.03
380.234	226.61
380.684	286.03
381.134	692.19
381.584	644.36
382.034	1202.43
382.485	495.03
382.935	99.13
383.385	894.46
383.834	-20.05
384.284	362.35
384.734	-153.65
385.184	554.23
385.634	133.15
386.083	274.72
386.533	184.14
386.982	627.47
387.432	815.86
387.881	5.5
388.331	155.81
388.78	1230.37
389.229	441.42
389.679	-88.25
390.128	520.41
390.577	322.79
391.026	172.81
391.475	-99.62
391.924	-82.56
392.373	-173.57
392.822	73.61
393.27	619.02
393.719	8.34
394.168	50.91
394.617	919.7
395.065	-125.21
395.514	818.67
395.962	706.26
396.411	56.59
396.859	33.89
397.307	1051.4
397.756	447.07
398.204	67.93
398.652	1118.56
399.1	348.23
399.548	19.69
399.996	1684.32
400.444	551.41
400.892	14.02
401.34	-79.72
401.788	192.64
402.236	-71.19
402.683	28.21
403.131	635.91
403.579	568.32
404.026	-179.27
404.474	-79.72
404.921	277.54
405.369	-65.51
405.816	-54.14
406.263	70.77
406.71	630.28
407.158	152.98
407.605	-150.81
408.052	116.14
408.499	680.94
408.946	509.13
409.393	198.3
409.84	226.61
410.286	-31.42
410.733	427.31
411.18	25.37
411.626	1177.28
412.073	449.89
412.52	223.78
412.966	1082.19
413.413	110.47
413.859	232.27
414.305	215.29
414.752	266.23
415.198	-110.99
415.644	588.04
416.09	379.3
416.536	8.34
416.982	322.79
417.428	664.06
417.874	-37.1
418.32	-39.94
418.766	695.01
419.211	96.29
419.657	90.62
420.103	-11.54
420.548	430.13
420.994	599.31
421.439	62.26
421.885	195.47
422.33	178.48
422.776	404.72
423.221	1509.18
423.666	305.82
424.111	523.23
424.556	1261.09
425.001	526.05
425.446	93.46
425.891	252.08
426.336	652.8
426.781	3014.5
427.226	655.62
427.671	725.94
428.115	376.48
428.56	1071
429.005	1828.58
429.449	911.29
429.894	1336.44
430.338	2927.03
430.782	1185.67
431.227	1392.2
431.671	1684.32
432.115	1712.08
432.559	1439.57
433.003	2141.18
433.447	1723.18
433.891	1991.95
434.335	2589.98
434.779	2301.16
435.223	3172.81
435.667	2951.64
436.111	4480.27
436.554	3047.28
436.998	3333.55
437.442	3374.37
437.885	3786.94
438.328	3781.52
438.772	4070.83
439.215	4262.31
439.659	4603.83
440.102	4603.83
440.545	5056.45
440.988	4944.16
441.431	5096.53
441.874	5533.65
442.317	5512.37
442.76	5687.81
443.203	5849.7
443.646	6212.43
444.089	6681.99
444.531	7091.99
444.974	6816.18
445.417	7879.37
445.859	8246.64
446.302	8061.82
446.744	7743.68
447.186	8714.13
447.629	9415.28
448.071	8605.18
448.513	9562.37
448.956	9910.24
449.398	10344.76
449.84	10460.28
450.282	11305.41
450.724	10734.7
451.166	11182.7
451.607	13389.02
452.049	12052.93
452.491	12686.3
452.933	13596.68
453.374	15139.37
453.816	14746.24
454.257	14350.09
454.699	15298
455.14	15529.51
455.582	16230.61
456.023	15924.21
456.464	16466.5
456.905	17568.63
457.347	18373.14
457.788	17436.05
458.229	17458.56
458.67	18607.69
459.111	18133.46
459.552	19362.78
459.992	19195.93
460.433	20667.81
460.874	19400.12
461.315	20764.59
461.755	21451.36
462.196	20623.13
462.636	21624.74
463.077	21622.26
463.517	22287.89
463.957	22367.01
464.398	22774.72
464.838	23623.58
465.278	23263.5
465.718	23524.96
466.158	23593.99
466.598	24566.87
467.038	24566.87
467.478	26573.21
467.918	25535.37
468.358	27021.62
468.798	26734.97
469.237	26533.98
469.677	26810.93
470.117	28675.42
470.556	27136.73
470.996	28462.79
471.435	27839.22
471.874	28621.65
472.314	29591.35
472.753	29102.96
473.192	29657.26
473.631	30496.73
474.07	30443.06
474.509	31074.8
474.948	32367.08
475.387	31657.6
475.826	32418.28
476.265	33274.06
476.704	33425.24
477.143	34593.63
477.581	35799.79
478.02	36215.26
478.458	35594.58
478.897	37397.12
479.335	38012.29
479.774	37406.91
480.212	39053.32
480.65	39370.56
481.089	39437
481.527	40203.08
481.965	39318.9
482.403	42231.77
482.841	42100.22
483.279	42778.59
483.717	44041.09
484.155	43137.16
484.592	44572.28
485.03	45566.04
485.468	44486.99
485.905	45591.27
486.343	46657.29
486.781	46319.7
487.218	46840.38
487.655	47299.22
488.093	46324.77
488.53	47903.37
488.967	47947.01
489.405	48304.48
489.842	48026.63
490.279	49621.85
490.716	48707.11
491.153	49387.08
491.59	48820.96
492.027	48474.63
492.463	48852.04
492.9	48577.89
493.337	49010.15
493.773	48562.39
494.21	48751.08
494.647	48748.49
495.083	48188.62
495.519	48743.32
495.956	48722.63
496.392	48222.08
496.828	48676.08
497.265	47726.41
497.701	48214.36
498.137	48374.05
498.573	46550.59
499.009	49355.83
499.445	48570.14
499.881	47826.4
500.316	48404.99
500.752	47588.11
501.188	47276.23
501.624	47762.3
502.059	46619.17
502.495	46771.69
502.93	46271.54
503.366	58471.53
503.801	46779.32
504.236	46378.02
504.672	46636.96
505.107	46322.23
505.542	45465.15
505.977	46099.29
506.412	45717.49
506.847	46601.39
507.282	45487.84
507.717	45200.59
508.152	45861.51
508.587	45684.67
509.021	45188
509.456	44534.64
509.891	45014.38
510.325	45142.69
510.76	44662.62
511.194	44529.63
511.628	44655.09
512.063	44529.63
512.497	45326.52
512.931	44329.05
513.366	43891
513.8	44178.76
514.234	43756.02
514.668	43843.5
515.102	44486.99
515.536	42905.52
515.969	44803.25
516.403	42957.81
516.837	43578.67
517.271	43971.03
517.704	42865.69
518.138	43179.53
518.571	42858.22
519.005	42514.97
519.438	42144.89
519.871	42273.99
520.305	41255.28
520.738	41220.64
521.171	40817.67
521.604	42043.14
522.037	41369.11
522.47	41847.21
522.903	39779.19
523.336	39877.72
523.769	40356
524.202	39380.41
524.634	38593.88
525.067	38422.02
525.5	38790.37
525.932	40259.8
526.365	38620.89
526.797	37448.56
527.23	37588.21
527.662	36998.01
528.094	37042.07
528.527	35841.32
528.959	35257.56
529.391	36506.23
529.823	34144.71
530.255	33800.8
530.687	34398.43
531.119	33486.21
531.551	33159.46
531.982	32223.24
532.414	32837.62
532.846	33188.72
533.277	31455.22
533.709	30589.43
534.14	31106.51
534.572	30882.13
535.003	30769.94
535.435	30787.01
535.866	30718.71
536.297	29527.87
536.728	30235.67
537.159	29925.76
537.59	29144.49
538.022	29066.32
538.452	30496.73
538.883	29044.34
539.314	28736.51
539.745	27337.52
540.176	28237.87
540.606	27413.41
541.037	27503.98
541.468	27114.69
541.898	26747.22
542.328	26663.9
542.759	26950.58
543.189	26472.7
543.619	25500.99
544.05	26445.73
544.48	24940.72
544.91	25606.59
545.34	25331.5
545.77	24736.61
546.2	24635.76
546.63	24889.09
547.06	24141.02
547.489	24126.24
547.919	22604.27
548.349	23554.54
548.778	23312.84
549.208	22290.36
549.637	21991.08
550.067	22374.42
550.496	22381.84
550.926	22082.62
551.355	21471.18
551.784	21270.48
552.213	20580.93
552.642	21362.17
553.071	21109.35
553.5	20831.58
553.929	19683.83
554.358	20029.48
554.787	19439.95
555.216	19835.55
555.645	19910.15
556.073	20151.26
556.502	19430
556.93	18170.92
557.359	18645.1
557.787	18423.06
558.216	18263.31
558.644	18310.74
559.072	18150.95
559.5	17908.63
559.929	17896.13
560.357	18320.73
560.785	18001.08
561.213	18125.97
561.641	17803.66
562.068	18418.07
562.496	17050.54
562.924	17185.76
563.352	17238.34
563.779	17260.87
564.207	16847.61
564.634	16830.07
565.062	17148.21
565.489	17022.99
565.917	16544.26
566.344	16471.52
566.771	16423.85
567.198	16506.64
567.625	15760.86
568.053	15728.18
568.48	16012.14
568.907	15345.83
569.333	15818.67
569.76	14675.63
570.187	15121.74
570.614	15008.39
571.04	66080.79
571.467	32040.39
571.894	14589.86
572.32	13910.42
572.747	13746
573.173	13978.69
573.599	13581.49
574.026	13546.05
574.452	13556.17
574.878	12828.52
575.304	12737.1
575.73	12360.92
576.156	12266.79
576.582	12170.07
577.008	12114.05
577.434	11614.42
577.86	11302.85
578.285	11471.46
578.711	11172.47
579.137	11272.18
579.562	10944.74
579.988	10624.47
580.413	10832.07
580.838	10136.63
581.264	10121.2
581.689	10254.85
582.114	10580.87
582.539	27197.95
582.964	10182.9
583.39	10755.2
583.814	9624.27
584.239	9593.32
584.664	9133.64
585.089	9112.95
585.514	9814.97
585.939	9521.1
586.363	8936.97
586.788	9229.3
587.212	8545.48
587.637	8348.05
588.061	8485.76
588.485	7952.38
588.91	7769.79
589.334	8093.08
589.758	8701.16
590.182	8324.66
590.606	7712.35
591.03	8506.54
591.454	7913.28
591.878	7010.63
592.302	7094.62
592.726	8711.53
593.15	7050.01
593.573	6976.49
593.997	7571.26
594.42	6077.53
594.844	6426.34
595.267	6447.44
595.691	6357.72
596.114	6037.83
596.537	6476.46
596.96	6333.96
597.384	6096.06
597.807	6019.3
598.23	6141.03
598.653	6355.08
599.076	5413.89
599.499	6106.64
599.921	5429.87
600.344	5246
600.767	5908.03
601.189	6146.32
601.612	4904.02
602.034	5000.32
602.457	5411.23
602.879	8936.97
603.302	5067.14
603.724	5096.53
604.146	4442.63
604.568	4665.56
604.991	4938.81
605.413	4528.64
605.835	5005.67
606.257	4523.27
606.678	4606.52
607.1	4668.24
607.522	4442.63
607.944	5865.61
608.365	4869.23
608.787	4211.11
609.209	5703.74
609.63	4097.82
610.051	3822.13
610.473	4337.71
610.894	4429.19
611.315	3984.41
611.737	5027.05
612.158	3970.89
612.579	3670.42
613	6563.46
613.421	4165.27
613.842	4746
614.263	4619.94
614.683	4062.73
615.104	4275.78
615.525	4925.43
615.945	4135.6
616.366	3515.73
616.787	4660.19
617.207	3889.78
617.627	3708.37
618.048	3732.76
618.468	3594.46
618.888	3578.18
619.308	3096.42
619.728	3659.57
620.148	3295.44
620.568	3889.78
620.988	4550.13
621.408	3450.51
621.828	3270.92
622.248	3773.4
622.668	3814.01
623.087	3860.02
623.507	2978.98
623.926	3243.68
624.346	3349.88
624.765	3548.32
625.185	3050.01
625.604	2781.97
626.023	3104.61
626.442	2864.11
626.861	3789.64
627.28	2779.23
627.699	2579
628.118	2647.62
628.537	2817.57
628.956	3976.3
629.375	3390.69
629.794	2834
630.212	3058.2
630.631	3355.32
631.049	2493.82
631.468	2921.56
631.886	2367.27
632.305	3000.84
632.723	2174.31
633.141	2268.09
633.559	2328.71
633.978	2116.33
634.396	2880.53
634.814	2735.38
635.232	2265.33
635.65	2284.63
636.067	2433.32
636.485	2259.82
636.903	1698.2
637.321	1750.94
637.738	3786.94
638.156	1983.65
638.573	1731.51
638.991	3450.51
639.408	3298.16
639.825	1728.74
640.243	2877.79
640.66	1714.86
641.077	2188.11
641.494	2055.55
641.911	2658.6
642.328	2108.04
642.745	1944.91
643.162	2193.62
643.579	2005.78
643.995	1564.82
644.412	3254.58
644.829	1411.71
645.245	1403.35
645.662	1358.75
646.078	1275.05
646.495	1445.14
646.911	1523.09
647.327	2502.07
647.743	1461.85
648.159	2052.78
648.576	1031.8
648.992	2094.23
649.408	1459.07
649.824	1219.2
650.239	1381.05
650.655	1355.96
651.071	1258.3
651.487	1867.38
651.902	1575.95
652.318	1082.19
652.733	1082.19
653.149	1043
653.564	1355.96
653.979	1135.34
654.395	1045.8
654.81	1308.54
655.225	1143.73
655.64	1316.91
656.055	1037.4
656.47	1417.28
656.885	1012.19
657.3	829.9
657.715	2422.31
658.13	1208.02
658.544	1392.2
658.959	919.7
659.374	863.59
659.788	1673.21
660.202	843.94
660.617	2557.02
661.031	1188.46
661.445	1645.43
661.86	900.07
662.274	2011.31
662.688	1859.07
663.102	986.98
663.516	2050.02
663.93	998.19
664.344	1328.07
664.758	1277.84
665.171	981.38
665.585	1045.8
665.999	908.48
666.412	832.71
666.826	1400.56
667.239	1781.45
667.653	813.06
668.066	689.38
668.479	2891.47
668.892	661.25
669.306	936.53
669.719	922.51
670.132	1291.79
670.545	1003.79
670.958	886.04
671.37	939.33
671.783	588.04
672.196	1528.66
672.609	652.8
673.021	790.58
673.434	607.76
673.846	664.06
674.259	573.96
674.671	492.21
675.084	680.94
675.496	717.51
675.908	790.58
676.32	497.85
676.732	975.77
677.144	855.17
677.556	644.36
677.968	697.82
678.38	1241.54
678.792	1082.19
679.204	678.13
679.615	1575.95
680.027	711.88
680.439	517.59
680.85	1319.7
681.262	2058.31
681.673	573.96
682.084	1029
682.496	627.47
682.907	894.46
683.318	751.24
683.729	633.1
684.14	754.05
684.551	678.13
684.962	596.49
685.373	554.23
685.784	590.86
686.194	762.49
686.605	432.95
687.016	869.2
687.426	754.05
687.837	308.65
688.247	413.19
688.657	613.39
689.068	534.5
689.478	998.19
689.888	387.78
690.298	447.07
690.708	286.03
691.118	489.39
691.528	237.93
691.938	675.31
692.348	582.41
692.758	99.13
693.168	641.54
693.577	978.57
693.987	254.91
694.396	548.6
694.806	169.98
695.215	497.85
695.625	655.62
696.034	666.87
696.443	90.62
696.852	1308.54
697.262	393.43
697.671	212.46
698.08	714.7
698.489	455.53
698.897	376.48
699.306	198.3
699.715	288.86
700.124	286.03
700.532	167.15
700.941	641.54
701.35	288.86
701.758	1700.98
702.166	184.14
702.575	520.41
702.983	33.89
703.391	542.96
703.799	356.7
704.208	325.62
704.616	-14.37
705.024	1152.12
705.432	399.07
705.839	90.62
706.247	1311.33
706.655	1933.84
707.063	252.08
707.47	-14.37
707.878	8.34
708.285	243.59
708.693	118.97
709.1	342.57
709.508	-113.83
709.915	113.3
710.322	559.87
710.729	2611.94
711.136	427.31
711.543	144.48
711.95	269.06
712.357	700.63
712.764	189.81
713.171	152.98
713.578	107.63
713.984	345.4
714.391	-25.73
714.797	-39.94
715.204	220.95
715.61	852.36
716.017	-136.59
716.423	633.1
716.829	430.13
717.236	141.65
717.642	22.53
718.048	832.71
718.454	855.17
718.86	-93.93
719.266	2000.25
719.671	-42.78
720.077	672.5
720.483	135.98
720.889	998.19
721.294	-153.65
721.7	82.11
722.105	396.25
722.511	42.4
722.916	565.5
723.321	509.13
723.726	1118.56
724.132	229.44
724.537	655.62
724.942	596.49
725.347	472.46
725.752	314.31
726.156	223.78
726.561	240.76
726.966	559.87
727.371	1015
727.775	874.82
728.18	113.3
728.584	-48.46
728.989	339.75
729.393	2521.3
729.798	322.79
730.202	928.11
730.606	147.31
731.01	189.81
731.414	260.57
731.818	67.93
732.222	161.48
732.626	269.06
733.03	441.42
733.434	-76.88
733.837	652.8
734.241	155.81
734.645	62.26
735.048	104.8
735.452	303
735.855	11.18
736.258	232.27
736.662	1511.96
737.065	1392.2
737.468	886.04
737.871	314.31
738.274	841.13
738.677	317.13
739.08	101.96
739.483	356.7
739.886	588.04
740.289	846.75
740.691	104.8
741.094	-37.1
741.497	16.86
741.899	1140.94
742.302	93.46
742.704	-110.99
743.106	107.63
743.508	16.86
743.911	-37.1
744.313	195.47
744.715	110.47
745.117	28.21
745.519	90.62
745.921	874.82
746.323	138.81
746.724	-227.67
747.126	33.89
747.528	1191.26
747.929	-142.28
748.331	286.03
748.732	-54.14
749.134	-76.88
749.535	-221.97
749.936	1656.54
750.338	19.69
750.739	1308.54
751.14	336.92
751.541	266.23
751.942	130.31
752.343	5.5
752.744	269.06
753.144	5.5
753.545	260.57
753.946	497.85
754.346	113.3
754.747	1305.75
755.148	3131.9
755.548	116.14
755.948	42.4
756.349	291.69
756.749	517.59
757.149	-56.98
757.549	1023.4
757.949	379.3
758.349	84.95
758.749	28.21
759.149	-14.37
759.549	73.61
759.949	22.53
760.348	1906.16
760.748	220.95
761.148	101.96
761.547	-45.62
761.947	-110.99
762.346	438.6
762.745	1300.17
763.145	404.72
763.544	286.03
763.943	449.89
764.342	-22.89
764.741	-5.86
765.14	-102.46
765.539	42.4
765.938	1800.86
766.336	-110.99
766.735	-45.62
767.134	-3.02
767.532	-68.35
767.931	90.62
768.329	2008.55
768.728	31.05
769.126	243.59
769.525	1542.57
769.923	365.18
770.321	579.59
770.719	897.26
771.117	220.95
771.515	562.69
771.913	596.49
772.311	189.81
772.709	158.65
773.106	-51.3
773.504	73.61
773.902	288.86
774.299	435.78
774.697	3249.13
775.094	396.25
775.491	-5.86
775.889	441.42
776.286	-216.27
776.683	14.02
777.08	-139.43
777.477	-142.28
777.874	-184.96
778.271	-42.78
778.668	76.44
779.065	-17.21
779.462	345.4
779.858	152.98
780.255	1090.59
780.652	328.44
781.048	1205.23
781.444	209.63
781.841	45.24
782.237	237.93
782.633	-59.83
783.03	-270.4
783.426	-74.03
783.822	-105.3
784.218	-133.74
784.614	-159.35
785.01	36.72
785.405	254.91
785.801	39.56
786.197	212.46
786.593	314.31
786.988	155.81
787.384	958.95
787.779	147.31
788.174	277.54
788.57	226.61
788.965	90.62
789.36	133.15
789.755	87.79
790.15	101.96
790.545	206.8
790.94	-145.12
791.335	-204.89
791.73	-182.11
792.125	1235.96
792.52	568.32
792.914	410.37
793.309	-173.57
793.703	776.54
794.098	-108.15
794.492	596.49
794.887	257.74
795.281	1606.53
795.675	970.17
796.069	1244.33
796.463	311.48
796.857	56.59
797.251	218.12
797.645	-42.78
798.039	362.35
798.433	-74.03
798.826	-122.37
799.22	53.75
799.614	336.92
800.007	353.88
800.401	418.84
800.794	-173.57
801.187	215.29
801.581	22.53
801.974	376.48
802.367	810.25
802.76	84.95
803.153	-179.27
803.546	-179.27
803.939	416.02
804.332	-165.04
804.725	-45.62
805.117	8.34
805.51	849.56
805.903	39.56
806.295	300.17
806.688	-133.74
807.08	-17.21
807.472	534.5
807.865	942.13
808.257	396.25
808.649	827.1
809.041	107.63
809.433	658.43
809.825	317.13
810.217	-54.14
810.609	325.62
811.001	424.49
811.392	31.05
811.784	905.68
812.175	53.75
812.567	441.42
812.958	514.77
813.35	215.29
813.741	-224.82
814.132	130.31
814.524	110.47
814.915	56.59
815.306	-31.42
815.697	48.07
816.088	209.63
816.479	514.77
816.87	675.31
817.26	534.5
817.651	1564.82
818.042	509.13
818.432	362.35
818.823	537.32
819.213	416.02
819.604	31.05
819.994	348.23
820.384	53.75
820.775	497.85
821.165	39.56
821.555	130.31
821.945	73.61
822.335	-56.98
822.725	725.94
823.114	50.91
823.504	124.64
823.894	118.97
824.284	1447.93
824.673	325.62
825.063	141.65
825.452	269.06
825.842	118.97
826.231	1800.86
826.62	50.91
827.009	824.29
827.399	773.73
827.788	-28.58
828.177	-28.58
828.566	835.52
828.954	2647.62
829.343	773.73
829.732	11.18
830.121	2447.07
830.509	1525.88
830.898	-59.83
831.286	-17.21
831.675	590.86
832.063	804.63
832.452	39.56
832.84	-182.11
833.228	1277.84
833.616	138.81
834.004	545.78
834.392	226.61
834.78	905.68
835.168	-0.18
835.556	821.48
835.944	376.48
836.331	793.39
836.719	506.31
837.107	438.6
837.494	942.13
837.881	2.66
838.269	127.48
838.656	-45.62
839.043	-0.18
839.431	2342.48
839.818	65.1
840.205	65.1
840.592	438.6
840.979	206.8
841.366	-68.35
841.752	-130.9
842.139	-62.67
842.526	237.93
842.912	652.8
843.299	161.48
843.685	678.13
844.072	130.31
844.458	545.78
844.844	181.31
845.231	-65.51
845.617	-139.43
846.003	356.7
846.389	-37.1
846.775	-162.19
847.161	178.48
847.547	-34.26
847.933	-28.58
848.318	458.36
848.704	-119.52
849.09	-170.73
849.475	-71.19
849.861	661.25
850.246	181.31
850.631	1255.5
851.017	624.65
851.402	22.53
851.787	413.19
852.172	1509.18
852.557	813.06
852.942	172.81
853.327	161.48
853.712	604.94
854.097	461.18
854.481	-48.46
854.866	235.1
855.25	93.46
855.635	339.75
856.019	84.95
856.404	135.98
856.788	-125.21
857.172	-59.83
857.557	382.13
857.941	396.25
858.325	2.66
858.709	70.77
859.093	-68.35
859.477	-119.52
859.86	838.33
860.244	-76.88
860.628	1486.91
861.012	725.94
861.395	164.31
861.779	-8.7
862.162	201.13
862.545	-3.02
862.929	189.81
863.312	689.38
863.695	-14.37
864.078	435.78
864.461	-34.26
864.844	362.35
865.227	1364.32
865.61	-45.62
865.993	62.26
866.376	286.03
866.758	933.72
867.141	1012.19
867.523	444.24
867.906	28.21
868.288	319.96
868.671	610.57
869.053	62.26
869.435	252.08
869.817	1110.17
870.199	-156.5
870.581	76.44
870.963	317.13
871.345	528.87
871.727	413.19
872.109	-88.25
872.491	67.93
872.872	444.24
873.254	118.97
873.635	-5.86
874.017	1308.54
874.398	121.81
874.779	770.92
875.161	130.31
875.542	1015
875.923	195.47
876.304	45.24
876.685	8.34
877.066	260.57
877.447	-156.5
877.828	93.46
878.208	686.57
878.589	796.2
878.97	1079.39
879.35	-173.57
879.731	-25.73
880.111	-91.09
880.491	-182.11
880.872	526.05
881.252	-74.03
881.632	232.27
882.012	956.15
882.392	984.18
882.772	914.09
883.152	334.09
883.532	311.48
883.912	829.9
884.291	229.44
884.671	314.31
885.051	300.17
885.43	-0.18
885.81	610.57
886.189	336.92
886.568	232.27
886.948	322.79
887.327	855.17
887.706	150.15
888.085	1495.26
888.464	368
888.843	2320.45
889.222	846.75
889.601	810.25
889.979	280.37
890.358	260.57
890.737	469.64
891.115	223.78
891.494	-125.21
891.872	5.5
892.25	-150.81
892.629	796.2
893.007	1484.13
893.385	410.37
893.763	181.31
894.141	175.65
894.519	700.63
894.897	19.69
895.275	314.31
895.653	-122.37
896.03	447.07
896.408	382.13
896.786	-22.89
897.163	175.65
897.541	161.48
897.918	1361.54
898.295	-113.83
898.673	14.02
899.05	90.62
899.427	4364.62
899.804	82.11
900.181	36.72
900.558	1118.56
900.935	742.81
901.312	-14.37
901.688	-25.73
902.065	742.81
902.442	382.13
902.818	-113.83
903.195	-165.04
903.571	101.96
903.947	90.62
904.324	226.61
904.7	150.15
905.076	1484.13
905.452	-20.05
905.828	866.4
906.204	252.08
906.58	-3.02
906.956	590.86
907.331	1464.64
907.707	790.58
908.083	860.78
908.458	497.85
908.834	127.48
909.209	189.81
909.585	438.6
909.96	709.07
910.335	25.37
910.71	-156.5
911.086	390.6
911.461	936.53
911.836	232.27
912.21	14.02
912.585	404.72
912.96	509.13
913.335	-8.7
913.709	124.64
914.084	31.05
914.459	486.57
914.833	42.4
915.207	-93.93
915.582	116.14
915.956	16.86
916.33	172.81
916.704	-56.98
917.078	384.95
917.452	866.4
917.826	-142.28
918.2	-37.1
918.574	269.06
918.948	-230.51
919.321	79.28
919.695	79.28
920.068	447.07
920.442	435.78
920.815	356.7
921.189	235.1
921.562	1609.31
921.935	818.67
922.308	28.21
922.681	497.85
923.054	84.95
923.427	905.68
923.8	-45.62
924.173	633.1
924.546	-59.83
924.919	135.98
925.291	223.78
925.664	53.75
926.036	53.75
926.409	39.56
926.781	-8.7
927.153	317.13
927.526	964.56
927.898	-39.94
928.27	90.62
928.642	-162.19
929.014	291.69
929.386	-79.72
929.758	-221.97
930.129	82.11
930.501	992.58
930.873	-182.11
931.244	297.34
931.616	-39.94
931.987	263.4
932.359	978.57
932.73	528.87
933.101	399.07
933.472	130.31
933.843	624.65
934.214	1098.98
934.585	79.28
934.956	155.81
935.327	2408.55
935.698	331.27
936.069	582.41
936.439	59.42
936.81	-56.98
937.18	790.58
937.551	206.8
937.921	1495.26
938.292	754.05
938.662	36.72
939.032	799.01
939.402	82.11
939.772	573.96
940.142	45.24
940.512	19.69
940.882	79.28
941.252	466.82
941.621	192.64
941.991	382.13
942.361	829.9
942.73	348.23
943.1	-184.96
943.469	-8.7
943.838	1584.29
944.208	1115.77
944.577	28.21
944.946	192.64
945.315	-139.43
945.684	-31.42
946.053	36.72
946.422	390.6
946.791	-31.42
947.159	232.27
947.528	-207.73
947.897	686.57
948.265	-187.8
948.634	540.14
949.002	-187.8
949.371	169.98
949.739	-210.58
950.107	480.93
950.475	73.61
950.843	548.6
951.211	916.9
951.579	571.14
951.947	-130.9
952.315	322.79
952.683	73.61
953.05	-42.78
953.418	-39.94
953.785	50.91
954.153	-45.62
954.52	283.2
954.888	568.32
955.255	-142.28
955.622	113.3
955.989	144.48
956.356	1252.71
956.723	25.37
957.09	452.71
957.457	506.31
957.824	-56.98
958.191	2.66
958.557	787.77
958.924	161.48
959.291	16.86
959.657	-8.7
960.023	2834
960.39	152.98
960.756	93.46
961.122	571.14
961.488	195.47
961.855	138.81
962.221	-22.89
962.586	-116.68
962.952	1500.83
963.318	370.83
963.684	2196.38
964.05	1425.64
964.415	413.19
964.781	181.31
965.146	118.97
965.512	1681.54
965.877	790.58
966.242	294.51
966.608	252.08
966.973	260.57
967.338	254.91
967.703	709.07
968.068	-8.7
968.433	1208.02
968.797	2119.09
969.162	175.65
969.527	16.86
969.891	25.37
970.256	-25.73
970.62	8.34
970.985	118.97
971.349	559.87
971.714	686.57
972.078	486.57
972.442	384.95
972.806	813.06
973.17	135.98
973.534	215.29
973.898	399.07
974.262	110.47
974.625	1202.43
974.989	161.48
975.353	1358.75
975.716	495.03
976.08	-34.26
976.443	-176.42
976.806	438.6
977.17	435.78
977.533	311.48
977.896	93.46
978.259	124.64
978.622	3973.6
978.985	706.26
979.348	339.75
979.711	138.81
980.073	246.42
980.436	325.62
980.799	413.19
981.161	263.4
981.524	25.37
981.886	135.98
982.248	266.23
982.611	288.86
982.973	195.47
983.335	252.08
983.697	82.11
984.059	260.57
984.421	-0.18
984.783	36.72
985.145	178.48
985.506	-54.14
985.868	235.1
986.23	144.48
986.591	-25.73
986.953	706.26
987.314	-76.88
987.675	-261.85
988.037	66080.79
988.398	18081.01
988.759	897.26
989.12	314.31
989.481	810.25
989.842	821.48
990.203	5.5
990.564	-62.67
990.924	554.23
991.285	66080.79
991.646	16167.84
992.006	271.89
992.367	418.84
992.727	590.86
993.087	152.98
993.448	-113.83
993.808	87.79
994.168	-122.37
994.528	-150.81
994.888	407.55
995.248	528.87
995.608	-17.21
995.967	257.74
996.327	-153.65
996.687	257.74
997.046	-142.28
997.406	-91.09
997.765	-113.83
998.125	-0.18
998.484	-68.35
998.843	1478.56
999.202	319.96
999.561	-31.42
999.92	-145.12
1000.279	370.83
1000.638	-17.21
1000.997	42.4
1001.356	93.46
1001.715	-173.57
1002.073	164.31
1002.432	762.49
1002.79	-5.86
1003.149	-128.05
1003.507	700.63
1003.865	39.56
1004.224	101.96
1004.582	464
1004.94	857.98
1005.298	31.05
1005.656	-5.86
1006.014	87.79
1006.371	229.44
1006.729	-241.91
1007.087	1439.57
1007.445	542.96
1007.802	390.6
1008.16	-71.19
1008.517	356.7
1008.874	596.49
1009.232	-93.93
1009.589	4426.5
1009.946	396.25
1010.303	-51.3
1010.66	565.5
1011.017	339.75
1011.374	1202.43
1011.731	184.14
1012.087	50.91
1012.444	-76.88
1012.801	336.92
1013.157	-187.8
1013.513	-82.56
1013.87	130.31
1014.226	121.81
1014.582	181.31
1014.939	73.61
1015.295	181.31
1015.651	-125.21
1016.007	-221.97
1016.363	989.78
1016.719	-68.35
1017.074	624.65
1017.43	-82.56
1017.786	695.01
1018.141	101.96
1018.497	59.42
1018.852	399.07
1019.208	565.5
1019.563	22.53
1019.918	-71.19
1020.273	189.81
1020.628	178.48
1020.983	1107.37
1021.338	-37.1
1021.693	384.95
1022.048	-45.62
1022.403	-210.58
1022.757	229.44
1023.112	311.48
1023.467	-54.14
1023.821	-190.65
1024.175	-28.58
1024.53	-213.43
1024.884	-85.4
1025.238	36.72
1025.592	201.13
1025.946	-68.35
1026.3	-116.68
1026.654	-142.28
1027.008	-327.41
1027.362	113.3
1027.716	-3.02
1028.069	-28.58
1028.423	198.3
1028.777	-207.73
1029.13	-167.88
1029.483	559.87
1029.837	542.96
1030.19	22.53
1030.543	-204.89
1030.896	-230.51
1031.249	322.79
1031.602	-145.12
1031.955	14.02
1032.308	455.53
1032.661	1132.55
1033.013	39.56
1033.366	-59.83
1033.719	144.48
1034.071	31.05
1034.424	-68.35
1034.776	-307.45
1035.128	-85.4
1035.48	-136.59
1035.833	1154.92
1036.185	201.13
1036.537	201.13
1036.889	201.13
