Data from BCF12_8_FLMS019251_16-05-55-638.txt Node
Date: Mon Feb 11 16:05:55 CET 2019
User: luk
Spectrometer: FLMS01925
Trigger mode: 0
Integration Time (sec): 8.613000E-1
Scans to average: 1
Electric dark correction enabled: true
Nonlinearity correction enabled: true
Boxcar width: 0
XAxis mode: Wavelengths
Number of Pixels in Spectrum: 2048
>>>>>Begin Spectral Data<<<<<
187.103	-183.18
187.574	-183.18
188.045	-183.18
188.516	-163.26
188.987	-60.89
189.458	-117.74
189.929	-171.79
190.4	-137.65
190.871	-63.73
191.342	-143.34
191.813	-29.64
192.284	-26.8
192.754	-157.57
193.225	-29.64
193.696	106.57
194.166	78.21
194.637	89.56
195.107	171.75
195.578	89.56
196.048	174.58
196.518	166.08
196.989	143.42
197.459	132.08
197.929	132.08
198.399	378.25
198.869	265.17
199.339	316.07
199.809	349.99
200.279	423.43
200.749	366.95
201.219	361.29
201.689	313.25
202.159	324.55
202.628	361.29
203.098	366.95
203.568	307.59
204.037	496.79
204.507	406.49
204.976	426.25
205.445	355.64
205.915	488.33
206.384	403.66
206.853	392.37
207.323	299.11
207.792	383.89
208.261	420.6
208.73	417.78
209.199	440.36
209.668	434.72
210.137	392.37
210.606	431.9
211.075	426.25
211.543	454.48
212.012	451.65
212.481	282.14
212.95	398.02
213.418	429.07
213.887	324.55
214.355	398.02
214.824	392.37
215.292	301.94
215.76	347.17
216.229	349.99
216.697	398.02
217.165	417.78
217.633	468.58
218.101	366.95
218.569	527.81
219.037	437.54
219.505	499.61
219.973	344.34
220.441	333.03
220.909	417.78
221.377	349.99
221.844	437.54
222.312	395.19
222.78	310.42
223.247	296.28
223.715	341.51
224.182	321.73
224.65	454.48
225.117	378.25
225.584	465.76
226.052	324.55
226.519	333.03
226.986	392.37
227.453	310.42
227.92	369.77
228.387	423.43
228.854	333.03
229.321	259.51
229.788	491.15
230.255	417.78
230.722	474.23
231.189	440.36
231.655	347.17
232.122	338.69
232.589	341.51
233.055	313.25
233.522	471.4
233.988	349.99
234.454	341.51
234.921	375.42
235.387	366.95
235.853	389.54
236.32	471.4
236.786	318.9
237.252	381.07
237.718	417.78
238.184	440.36
238.65	282.14
239.116	341.51
239.582	400.84
240.047	307.59
240.513	369.77
240.979	409.31
241.445	403.66
241.91	355.64
242.376	341.51
242.841	417.78
243.307	341.51
243.772	366.95
244.238	361.29
244.703	471.4
245.168	482.69
245.633	403.66
246.099	310.42
246.564	369.77
247.029	366.95
247.494	361.29
247.959	366.95
248.424	338.69
248.889	389.54
249.353	327.38
249.818	335.86
250.283	361.29
250.748	256.68
251.212	434.72
251.677	313.25
252.141	406.49
252.606	352.82
253.07	446.01
253.535	321.73
253.999	310.42
254.463	443.19
254.927	335.86
255.392	327.38
255.856	434.72
256.32	429.07
256.784	420.6
257.248	383.89
257.712	437.54
258.176	553.18
258.64	403.66
259.103	392.37
259.567	448.83
260.031	378.25
260.495	369.77
260.958	446.01
261.422	338.69
261.885	400.84
262.349	468.58
262.812	423.43
263.275	338.69
263.739	437.54
264.202	400.84
264.665	479.87
265.128	440.36
265.591	471.4
266.054	457.3
266.517	389.54
266.98	429.07
267.443	358.47
267.906	287.8
268.369	395.19
268.832	344.34
269.294	318.9
269.757	412.13
270.22	316.07
270.682	420.6
271.145	462.94
271.607	347.17
272.07	485.51
272.532	330.21
272.994	403.66
273.456	426.25
273.919	856.92
274.381	318.9
274.843	493.97
275.305	446.01
275.767	429.07
276.229	443.19
276.691	426.25
277.153	366.95
277.614	361.29
278.076	431.9
278.538	341.51
279	361.29
279.461	389.54
279.923	561.63
280.384	301.94
280.846	375.42
281.307	381.07
281.769	366.95
282.23	406.49
282.691	485.51
283.152	398.02
283.613	344.34
284.075	316.07
284.536	471.4
284.997	330.21
285.458	313.25
285.918	349.99
286.379	403.66
286.84	372.6
287.301	279.31
287.762	361.29
288.222	392.37
288.683	378.25
289.143	330.21
289.604	423.43
290.064	335.86
290.525	446.01
290.985	491.15
291.445	341.51
291.906	361.29
292.366	383.89
292.826	412.13
293.286	412.13
293.746	414.96
294.206	431.9
294.666	381.07
295.126	389.54
295.586	412.13
296.046	412.13
296.506	392.37
296.965	423.43
297.425	389.54
297.884	468.58
298.344	423.43
298.804	496.79
299.263	361.29
299.722	429.07
300.182	440.36
300.641	321.73
301.1	375.42
301.559	448.83
302.019	392.37
302.478	414.96
302.937	468.58
303.396	403.66
303.855	524.99
304.314	321.73
304.772	722.08
305.231	349.99
305.69	344.34
306.149	361.29
306.607	417.78
307.066	364.12
307.524	454.48
307.983	508.07
308.441	454.48
308.9	482.69
309.358	392.37
309.816	572.9
310.275	398.02
310.733	347.17
311.191	440.36
311.649	457.3
312.107	474.23
312.565	324.55
313.023	372.6
313.481	318.9
313.939	395.19
314.397	341.51
314.854	491.15
315.312	493.97
315.77	420.6
316.227	352.82
316.685	409.31
317.142	468.58
317.6	496.79
318.057	443.19
318.514	307.59
318.972	403.66
319.429	479.87
319.886	369.77
320.343	437.54
320.8	465.76
321.257	446.01
321.714	513.71
322.171	547.54
322.628	412.13
323.085	301.94
323.542	316.07
323.998	355.64
324.455	440.36
324.912	310.42
325.368	446.01
325.825	522.17
326.281	479.87
326.738	381.07
327.194	355.64
327.65	451.65
328.107	296.28
328.563	457.3
329.019	479.87
329.475	412.13
329.931	414.96
330.387	454.48
330.843	412.13
331.299	508.07
331.755	338.69
332.211	366.95
332.666	352.82
333.122	383.89
333.578	403.66
334.033	364.12
334.489	491.15
334.944	403.66
335.4	612.33
335.855	496.79
336.31	431.9
336.766	395.19
337.221	355.64
337.676	460.12
338.131	448.83
338.586	488.33
339.041	448.83
339.496	479.87
339.951	361.29
340.406	457.3
340.861	375.42
341.316	423.43
341.771	338.69
342.225	375.42
342.68	383.89
343.134	375.42
343.589	349.99
344.043	386.72
344.498	448.83
344.952	341.51
345.406	882.18
345.861	426.25
346.315	426.25
346.769	406.49
347.223	392.37
347.677	290.63
348.131	344.34
348.585	366.95
349.039	454.48
349.493	361.29
349.947	429.07
350.401	406.49
350.854	366.95
351.308	482.69
351.762	392.37
352.215	477.05
352.669	313.25
353.122	270.83
353.575	349.99
354.029	451.65
354.482	381.07
354.935	496.79
355.388	555.99
355.842	420.6
356.295	347.17
356.748	451.65
357.201	409.31
357.654	522.17
358.106	324.55
358.559	395.19
359.012	335.86
359.465	313.25
359.917	347.17
360.37	417.78
360.823	392.37
361.275	446.01
361.728	310.42
362.18	457.3
362.632	488.33
363.085	321.73
363.537	417.78
363.989	366.95
364.441	400.84
364.893	375.42
365.345	417.78
365.797	403.66
366.249	446.01
366.701	395.19
367.153	431.9
367.605	437.54
368.057	446.01
368.508	361.29
368.96	369.77
369.411	375.42
369.863	412.13
370.314	468.58
370.766	409.31
371.217	372.6
371.669	460.12
372.12	496.79
372.571	423.43
373.022	364.12
373.473	403.66
373.924	468.58
374.375	454.48
374.826	451.65
375.277	403.66
375.728	383.89
376.179	400.84
376.63	488.33
377.08	505.25
377.531	383.89
377.981	324.55
378.432	406.49
378.883	499.61
379.333	423.43
379.783	414.96
380.234	474.23
380.684	454.48
381.134	448.83
381.584	429.07
382.034	417.78
382.485	493.97
382.935	381.07
383.385	389.54
383.834	341.51
384.284	398.02
384.734	446.01
385.184	496.79
385.634	429.07
386.083	414.96
386.533	414.96
386.982	457.3
387.432	471.4
387.881	392.37
388.331	400.84
388.78	598.25
389.229	429.07
389.679	344.34
390.128	338.69
390.577	491.15
391.026	364.12
391.475	307.59
391.924	417.78
392.373	420.6
392.822	434.72
393.27	493.97
393.719	358.47
394.168	381.07
394.617	398.02
395.065	383.89
395.514	541.9
395.962	429.07
396.411	457.3
396.859	381.07
397.307	522.17
397.756	544.72
398.204	364.12
398.652	479.87
399.1	434.72
399.548	398.02
399.996	589.8
400.444	527.81
400.892	434.72
401.34	496.79
401.788	358.47
402.236	364.12
402.683	412.13
403.131	446.01
403.579	550.36
404.026	474.23
404.474	460.12
404.921	479.87
405.369	457.3
405.816	462.94
406.263	482.69
406.71	502.43
407.158	519.35
407.605	570.08
408.052	730.51
408.499	840.08
408.946	896.21
409.393	1083.94
409.84	1299.12
410.286	1527.62
410.733	1988.15
411.18	2402.02
411.626	2986.15
412.073	3674.82
412.52	4379.76
412.966	5495.41
413.413	6224.65
413.859	7109.38
414.305	8125.95
414.752	9401.41
415.198	10541.43
415.644	11837.93
416.09	13236.01
416.536	14543.5
416.982	16013.71
417.428	17345.03
417.874	18993.2
418.32	19827.16
418.766	21410.79
419.211	22731.81
419.657	24147.48
420.103	25500.07
420.548	26557.58
420.994	28420.31
421.439	28901.74
421.885	30642.18
422.33	31824.92
422.776	33000.06
423.221	33799.88
423.666	34690.33
424.111	36331.69
424.556	36431.95
425.001	38330.29
425.446	39357.34
425.891	40002.47
426.336	40806.86
426.781	42171.26
427.226	43922.57
427.671	43580.23
428.115	43437.95
428.56	45033.56
429.005	46260.45
429.449	46791.09
429.894	47423.45
430.338	47712.64
430.782	47751.08
431.227	49151.97
431.671	49016.96
432.115	49636.54
432.559	50163.35
433.003	49856.28
433.447	50229.12
433.891	50181.76
434.335	50273.87
434.779	50871.47
435.223	50844.92
435.667	50323.93
436.111	51228.25
436.554	50003.11
436.998	49848.43
437.442	49318.4
437.885	50858.2
438.328	49782.97
438.772	49404.34
439.215	50100.26
439.659	49474.72
440.102	49498.19
440.545	48921.02
440.988	49011.77
441.431	49717.57
441.874	48716.48
442.317	48923.61
442.76	48244.28
443.203	48017.96
443.646	48349.89
444.089	48025.67
444.531	48633.75
444.974	47502.71
445.417	48721.66
445.859	47535.97
446.302	48282.91
446.744	48087.35
447.186	49177.95
447.629	48373.09
448.071	47938.35
448.513	48267.46
448.956	49022.15
449.398	48007.69
449.84	47510.39
450.282	48146.5
450.724	48677.7
451.166	48476.24
451.607	48344.74
452.049	48316.39
452.491	49159.76
452.933	48928.79
453.374	49927.04
453.816	50318.66
454.257	49459.08
454.699	50611.72
455.14	50252.81
455.582	50318.66
456.023	50247.54
456.464	50505.98
456.905	50980.43
457.347	50397.75
457.788	50126.54
458.229	49900.83
458.67	51241.6
459.111	48809.64
459.552	49438.22
459.992	48587.25
460.433	48807.05
460.874	47265.07
461.315	48685.45
461.755	47622.99
462.196	46542.02
462.636	46222.44
463.077	46359.32
463.517	46113.53
463.957	46379.61
464.398	46035.07
464.838	45986.99
465.278	45197.13
465.718	44729.47
466.158	43722.6
466.598	43717.6
467.038	43425.48
467.478	44242.93
467.918	44536.21
468.358	43777.57
468.798	43410.51
469.237	43430.47
469.677	42844.84
470.117	43395.54
470.556	41293.94
470.996	41856.2
471.435	42208.5
471.874	42645.81
472.314	42722.92
472.753	41197.45
473.192	41878.51
473.631	41727.3
474.07	41623.23
474.509	41311.26
474.948	41781.83
475.387	41251.88
475.826	40310.67
476.265	42064.54
476.704	41491.97
477.143	41444.92
477.581	41254.35
478.02	42186.15
478.458	40384.68
478.897	41340.96
479.335	42541.38
479.774	41905.79
480.212	41940.51
480.65	42183.67
481.089	41477.11
481.527	41491.97
481.965	41081.21
482.403	42566.24
482.841	42563.76
483.279	42817.47
483.717	42387.31
484.155	42022.37
484.592	42432.03
485.03	42869.73
485.468	41600.94
485.905	42332.66
486.343	42638.35
486.781	41219.72
487.218	41516.73
487.655	41246.93
488.093	40532.75
488.53	41615.8
488.967	40794.51
489.405	40695.71
489.842	40431.57
490.279	39933.47
490.716	39605.9
491.153	39615.75
491.59	39133.53
492.027	38165.89
492.463	38035.89
492.9	37516.23
493.337	37075.42
493.773	37119.48
494.21	36456.4
494.647	36502.87
495.083	35007.62
495.519	34748.9
495.956	34697.65
496.392	34509.75
496.828	34043.79
497.265	33395.07
497.701	33670.63
498.137	32661.17
498.573	32351.54
499.009	32744.06
499.445	31849.3
499.881	31600.61
500.316	31573.78
500.752	30732.43
501.188	30473.86
501.624	30383.59
502.059	29458.59
502.495	28804.01
502.93	28926.17
503.366	30500.69
503.801	28315.19
504.236	28390.98
504.672	27544.67
505.107	27708.63
505.542	27145.61
505.977	27250.91
506.412	26699.74
506.847	26569.83
507.282	25770.16
507.717	25816.8
508.152	25701.42
508.587	25622.85
509.021	24873.41
509.456	24590.55
509.891	24620.07
510.325	24487.2
510.76	24221.35
511.194	24226.28
511.628	23561.02
512.063	23299.58
512.497	23385.92
512.931	22877.52
513.366	22716.99
513.8	22823.19
514.234	21920.87
514.668	22242.45
515.102	21755.03
515.536	21410.79
515.969	21569.32
516.403	21219.98
516.837	20706.58
517.271	20776.07
517.704	20483.18
518.138	20329.2
518.571	20259.65
519.005	19891.81
519.438	19364.34
519.871	19326.99
520.305	18771.35
520.738	18566.84
521.171	18407.15
521.604	18681.58
522.037	18214.93
522.47	18264.87
522.903	17667.72
523.336	18107.55
523.769	17565.19
524.202	17267.44
524.634	16946.9
525.067	16580.94
525.5	16746.42
525.932	16706.31
526.365	16315.01
526.797	16003.66
527.23	16237.2
527.662	15470.7
528.094	15249.23
528.527	14972.16
528.959	14856.23
529.391	14646.94
529.823	14245.6
530.255	14149.6
530.687	14010.6
531.119	13694.45
531.551	13600.8
531.982	13276.57
532.414	13334.86
532.846	13104.16
533.277	12649.78
533.709	12568.47
534.14	12517.63
534.572	12164.02
535.003	11998.48
535.435	11814.98
535.866	11677.25
536.297	11416.87
536.728	11521.57
537.159	11559.86
537.59	11140.82
538.022	11035.93
538.452	10802.93
538.883	10610.69
539.314	10495.25
539.745	10279.58
540.176	10197.36
540.606	10037.94
541.037	9947.88
541.468	9594.93
541.898	9667.13
542.328	9383.33
542.759	9256.76
543.189	9264.51
543.619	9184.38
544.05	9034.37
544.48	8596.42
544.91	8471.8
545.34	8666.47
545.77	8565.27
546.2	8276.87
546.63	8258.67
547.06	8201.43
547.489	8040.01
547.919	7742.7
548.349	7849.7
548.778	7677.42
549.208	7429.04
549.637	7410.72
550.067	7329.56
550.496	7436.89
550.926	7182.81
551.355	6988.64
551.784	6986.01
552.213	6802.04
552.642	6809.93
553.071	6617.8
553.5	6699.43
553.929	6288.07
554.358	6480.74
554.787	6478.11
555.216	6325.04
555.645	6243.15
556.073	6095.07
556.502	5997.12
556.93	5814.22
557.359	5949.43
557.787	5957.38
558.216	5787.69
558.644	5753.19
559.072	5476.78
559.5	5468.8
559.929	5474.12
560.357	5601.79
560.785	5386.26
561.213	5519.35
561.641	5335.64
562.068	5402.24
562.496	5167.62
562.924	5410.23
563.352	5183.63
563.779	5167.62
564.207	5103.54
564.634	5108.88
565.062	5130.24
565.489	4972.58
565.917	4943.16
566.344	4916.4
566.771	4972.58
567.198	4828.06
567.625	4787.88
568.053	4809.31
568.48	4849.48
568.907	4503.45
569.333	4511.51
569.76	4371.69
570.187	4253.21
570.614	4360.92
571.04	19603.28
571.467	4541.07
571.894	4191.22
572.32	4061.72
572.747	4002.31
573.173	4072.52
573.599	3831.95
574.026	3899.59
574.452	3818.41
574.878	3810.29
575.304	3666.69
575.73	3563.59
576.156	3541.87
576.582	3577.16
577.008	3389.67
577.434	3283.52
577.86	3248.11
578.285	3057.18
578.711	3272.63
579.137	3100.86
579.562	3038.06
579.988	2953.35
580.413	3092.67
580.838	2780.94
581.264	2917.8
581.689	2887.71
582.114	2997.08
582.539	4331.32
582.964	2764.5
583.39	2674.03
583.814	2531.27
584.239	2580.71
584.664	2717.9
585.089	2542.26
585.514	2555.99
585.939	2512.03
586.363	2437.79
586.788	2462.54
587.212	2440.54
587.637	2322.17
588.061	2393.76
588.485	2256.03
588.91	2330.43
589.334	2131.86
589.758	2330.43
590.182	2245
590.606	2137.39
591.03	2159.47
591.454	2087.67
591.878	2060.04
592.302	2159.47
592.726	2156.71
593.15	1858.03
593.573	1960.48
593.997	2029.63
594.42	1841.4
594.844	1916.19
595.267	1844.17
595.691	1846.94
596.114	1780.41
596.537	1780.41
596.96	1935.57
597.384	1788.73
597.807	1716.59
598.23	1816.46
598.653	1866.34
599.076	1783.18
599.499	1694.38
599.921	1535.96
600.344	1524.83
600.767	1561
601.189	1663.84
601.612	1597.15
602.034	1549.87
602.457	1655.5
602.879	1974.32
603.302	1558.22
603.724	1691.61
604.146	1508.14
604.568	1533.18
604.991	1647.17
605.413	1566.56
605.835	1538.74
606.257	1485.87
606.678	1516.48
607.1	1488.65
607.522	1666.61
607.944	1574.9
608.365	1663.84
608.787	1452.45
609.209	1538.74
609.63	1388.37
610.051	1318.65
610.473	1424.6
610.894	1480.3
611.315	1363.28
611.737	1321.44
612.158	1430.17
612.579	1377.22
613	1572.12
613.421	1229.32
613.842	1416.24
614.263	1296.33
614.683	1243.29
615.104	1223.74
615.525	1268.42
615.945	1123.11
616.366	1067.15
616.787	1209.77
617.207	1181.82
617.627	1153.87
618.048	1109.12
618.468	1137.09
618.888	1086.74
619.308	1061.55
619.728	1075.54
620.148	1092.33
620.568	1117.51
620.988	1193
621.408	1100.73
621.828	1075.54
622.248	1033.55
622.668	1061.55
623.087	1078.34
623.507	1002.74
623.926	963.51
624.346	1064.35
624.765	899.02
625.185	924.26
625.604	960.71
626.023	935.48
626.442	929.87
626.861	1025.15
627.28	826.04
627.699	792.34
628.118	915.85
628.537	873.76
628.956	1011.14
629.375	977.52
629.794	803.58
630.212	887.79
630.631	851.31
631.049	884.99
631.468	840.08
631.886	854.12
632.305	856.92
632.723	761.43
633.141	806.38
633.559	823.24
633.978	772.67
634.396	820.43
634.814	727.7
635.232	727.7
635.65	876.57
636.067	755.81
636.485	789.53
636.903	727.7
637.321	710.83
637.738	952.3
638.156	685.51
638.573	708.02
638.991	772.67
639.408	848.5
639.825	767.05
640.243	761.43
640.66	677.07
641.077	767.05
641.494	786.72
641.911	758.62
642.328	800.77
642.745	747.38
643.162	679.89
643.579	620.78
643.995	617.97
644.412	814.81
644.829	691.14
645.245	606.7
645.662	651.75
646.078	586.99
646.495	657.38
646.911	663
647.327	654.56
647.743	648.93
648.159	679.89
648.576	584.17
648.992	738.95
649.408	589.8
649.824	553.18
650.239	668.63
650.655	677.07
651.071	598.25
651.487	668.63
651.902	651.75
652.318	533.45
652.733	510.89
653.149	572.9
653.564	533.45
653.979	553.18
654.395	589.8
654.81	595.44
655.225	508.07
655.64	527.81
656.055	522.17
656.47	623.6
656.885	558.81
657.3	493.97
657.715	693.95
658.13	578.54
658.544	634.86
658.959	479.87
659.374	536.27
659.788	575.72
660.202	544.72
660.617	736.13
661.031	446.01
661.445	575.72
661.86	544.72
662.274	657.38
662.688	623.6
663.102	553.18
663.516	584.17
663.93	516.53
664.344	589.8
664.758	550.36
665.171	550.36
665.585	519.35
665.999	508.07
666.412	414.96
666.826	570.08
667.239	570.08
667.653	493.97
668.066	443.19
668.479	716.45
668.892	519.35
669.306	547.54
669.719	513.71
670.132	460.12
670.545	508.07
670.958	612.33
671.37	502.43
671.783	462.94
672.196	553.18
672.609	505.25
673.021	471.4
673.434	440.36
673.846	454.48
674.259	420.6
674.671	462.94
675.084	603.89
675.496	431.9
675.908	493.97
676.32	426.25
676.732	522.17
677.144	468.58
677.556	465.76
677.968	434.72
678.38	457.3
678.792	499.61
679.204	400.84
679.615	493.97
680.027	536.27
680.439	485.51
680.85	510.89
681.262	575.72
681.673	474.23
682.084	434.72
682.496	510.89
682.907	471.4
683.318	392.37
683.729	443.19
684.14	457.3
684.551	522.17
684.962	378.25
685.373	474.23
685.784	477.05
686.194	508.07
686.605	392.37
687.016	434.72
687.426	454.48
687.837	386.72
688.247	398.02
688.657	440.36
689.068	400.84
689.478	471.4
689.888	460.12
690.298	460.12
690.708	398.02
691.118	468.58
691.528	530.63
691.938	434.72
692.348	440.36
692.758	431.9
693.168	474.23
693.577	561.63
693.987	389.54
694.396	448.83
694.806	398.02
695.215	369.77
695.625	491.15
696.034	446.01
696.443	429.07
696.852	516.53
697.262	355.64
697.671	406.49
698.08	513.71
698.489	403.66
698.897	412.13
699.306	361.29
699.715	437.54
700.124	361.29
700.532	412.13
700.941	378.25
701.35	335.86
701.758	485.51
702.166	392.37
702.575	412.13
702.983	378.25
703.391	299.11
703.799	392.37
704.208	429.07
704.616	440.36
705.024	479.87
705.432	412.13
705.839	462.94
706.247	465.76
706.655	601.07
707.063	440.36
707.47	417.78
707.878	335.86
708.285	426.25
708.693	409.31
709.1	392.37
709.508	403.66
709.915	372.6
710.322	400.84
710.729	539.08
711.136	395.19
711.543	372.6
711.95	369.77
712.357	451.65
712.764	383.89
713.171	516.53
713.578	403.66
713.984	406.49
714.391	369.77
714.797	454.48
715.204	400.84
715.61	389.54
716.017	386.72
716.423	406.49
716.829	381.07
717.236	400.84
717.642	338.69
718.048	443.19
718.454	409.31
718.86	338.69
719.266	586.99
719.671	284.97
720.077	488.33
720.483	381.07
720.889	465.76
721.294	398.02
721.7	352.82
722.105	409.31
722.511	355.64
722.916	488.33
723.321	352.82
723.726	516.53
724.132	392.37
724.537	485.51
724.942	443.19
725.347	335.86
725.752	429.07
726.156	412.13
726.561	375.42
726.966	426.25
727.371	457.3
727.775	420.6
728.18	395.19
728.584	364.12
728.989	361.29
729.393	581.35
729.798	318.9
730.202	465.76
730.606	437.54
731.01	477.05
731.414	333.03
731.818	273.65
732.222	352.82
732.626	474.23
733.03	414.96
733.434	361.29
733.837	493.97
734.241	386.72
734.645	296.28
735.048	400.84
735.452	414.96
735.855	457.3
736.258	364.12
736.662	522.17
737.065	491.15
737.468	457.3
737.871	429.07
738.274	392.37
738.677	398.02
739.08	395.19
739.483	417.78
739.886	375.42
740.289	412.13
740.691	324.55
741.094	307.59
741.497	335.86
741.899	584.17
742.302	383.89
742.704	400.84
743.106	358.47
743.508	372.6
743.911	282.14
744.313	460.12
744.715	333.03
745.117	366.95
745.519	403.66
745.921	398.02
746.323	423.43
746.724	429.07
747.126	372.6
747.528	434.72
747.929	341.51
748.331	412.13
748.732	352.82
749.134	392.37
749.535	378.25
749.936	431.9
750.338	429.07
750.739	465.76
751.14	338.69
751.541	429.07
751.942	386.72
752.343	296.28
752.744	403.66
753.144	386.72
753.545	358.47
753.946	392.37
754.346	364.12
754.747	412.13
755.148	634.86
755.548	355.64
755.948	316.07
756.349	364.12
756.749	417.78
757.149	414.96
757.549	457.3
757.949	482.69
758.349	454.48
758.749	364.12
759.149	412.13
759.549	321.73
759.949	417.78
760.348	555.99
760.748	477.05
761.148	327.38
761.547	366.95
761.947	330.21
762.346	392.37
762.745	375.42
763.145	341.51
763.544	451.65
763.943	482.69
764.342	355.64
764.741	335.86
765.14	398.02
765.539	381.07
765.938	547.54
766.336	434.72
766.735	310.42
767.134	313.25
767.532	366.95
767.931	304.76
768.329	592.62
768.728	383.89
769.126	434.72
769.525	457.3
769.923	409.31
770.321	378.25
770.719	454.48
771.117	434.72
771.515	355.64
771.913	330.21
772.311	355.64
772.709	403.66
773.106	423.43
773.504	389.54
773.902	358.47
774.299	406.49
774.697	598.25
775.094	378.25
775.491	327.38
775.889	395.19
776.286	375.42
776.683	403.66
777.08	327.38
777.477	313.25
777.874	324.55
778.271	398.02
778.668	372.6
779.065	296.28
779.462	400.84
779.858	400.84
780.255	477.05
780.652	409.31
781.048	398.02
781.444	395.19
781.841	333.03
782.237	420.6
782.633	318.9
783.03	381.07
783.426	437.54
783.822	304.76
784.218	318.9
784.614	364.12
785.01	333.03
785.405	423.43
785.801	352.82
786.197	471.4
786.593	420.6
786.988	338.69
787.384	412.13
787.779	324.55
788.174	321.73
788.57	403.66
788.965	420.6
789.36	400.84
789.755	344.34
790.15	349.99
790.545	400.84
790.94	330.21
791.335	338.69
791.73	316.07
792.125	493.97
792.52	474.23
792.914	369.77
793.309	335.86
793.703	493.97
794.098	310.42
794.492	431.9
794.887	349.99
795.281	446.01
795.675	519.35
796.069	395.19
796.463	324.55
796.857	403.66
797.251	383.89
797.645	414.96
798.039	318.9
798.433	304.76
798.826	338.69
799.22	318.9
799.614	344.34
800.007	386.72
800.401	460.12
800.794	369.77
801.187	341.51
801.581	412.13
801.974	477.05
802.367	344.34
802.76	327.38
803.153	324.55
803.546	378.25
803.939	330.21
804.332	383.89
804.725	330.21
805.117	361.29
805.51	412.13
805.903	398.02
806.295	364.12
806.688	403.66
807.08	398.02
807.472	389.54
807.865	375.42
808.257	347.17
808.649	508.07
809.041	381.07
809.433	451.65
809.825	431.9
810.217	361.29
810.609	335.86
811.001	457.3
811.392	369.77
811.784	403.66
812.175	296.28
812.567	485.51
812.958	366.95
813.35	344.34
813.741	361.29
814.132	347.17
814.524	375.42
814.915	349.99
815.306	349.99
815.697	398.02
816.088	412.13
816.479	437.54
816.87	426.25
817.26	403.66
817.651	471.4
818.042	412.13
818.432	304.76
818.823	434.72
819.213	400.84
819.604	287.8
819.994	366.95
820.384	318.9
820.775	400.84
821.165	299.11
821.555	361.29
821.945	344.34
822.335	307.59
822.725	451.65
823.114	344.34
823.504	398.02
823.894	412.13
824.284	522.17
824.673	335.86
825.063	276.48
825.452	437.54
825.842	372.6
826.231	555.99
826.62	429.07
827.009	502.43
827.399	383.89
827.788	341.51
828.177	234.04
828.566	431.9
828.954	558.81
829.343	386.72
829.732	375.42
830.121	620.78
830.509	488.33
830.898	400.84
831.286	375.42
831.675	341.51
832.063	375.42
832.452	290.63
832.84	310.42
833.228	460.12
833.616	375.42
834.004	426.25
834.392	400.84
834.78	378.25
835.168	355.64
835.556	426.25
835.944	372.6
836.331	383.89
836.719	361.29
837.107	395.19
837.494	457.3
837.881	369.77
838.269	420.6
838.656	279.31
839.043	352.82
839.431	570.08
839.818	316.07
840.205	284.97
840.592	434.72
840.979	369.77
841.366	265.17
841.752	392.37
842.139	392.37
842.526	406.49
842.912	372.6
843.299	366.95
843.685	395.19
844.072	395.19
844.458	392.37
844.844	290.63
845.231	344.34
845.617	352.82
846.003	403.66
846.389	389.54
846.775	270.83
847.161	293.45
847.547	358.47
847.933	446.01
848.318	412.13
848.704	307.59
849.09	398.02
849.475	355.64
849.861	434.72
850.246	383.89
850.631	307.59
851.017	403.66
851.402	355.64
851.787	361.29
852.172	578.54
852.557	465.76
852.942	361.29
853.327	333.03
853.712	482.69
854.097	335.86
854.481	273.65
854.866	386.72
855.25	338.69
855.635	344.34
856.019	383.89
856.404	369.77
856.788	347.17
857.172	392.37
857.557	423.43
857.941	386.72
858.325	355.64
858.709	361.29
859.093	366.95
859.477	372.6
859.86	460.12
860.244	236.87
860.628	414.96
861.012	389.54
861.395	352.82
861.779	423.43
862.162	256.68
862.545	468.58
862.929	446.01
863.312	381.07
863.695	333.03
864.078	321.73
864.461	316.07
864.844	366.95
865.227	474.23
865.61	389.54
865.993	270.83
866.376	437.54
866.758	349.99
867.141	448.83
867.523	378.25
867.906	414.96
868.288	344.34
868.671	403.66
869.053	355.64
869.435	383.89
869.817	451.65
870.199	395.19
870.581	338.69
870.963	400.84
871.345	386.72
871.727	341.51
872.109	307.59
872.491	318.9
872.872	378.25
873.254	386.72
873.635	414.96
874.017	460.12
874.398	245.36
874.779	547.54
875.161	358.47
875.542	434.72
875.923	395.19
876.304	434.72
876.685	338.69
877.066	383.89
877.447	372.6
877.828	403.66
878.208	400.84
878.589	448.83
878.97	420.6
879.35	426.25
879.731	282.14
880.111	338.69
880.491	344.34
880.872	398.02
881.252	310.42
881.632	273.65
882.012	426.25
882.392	508.07
882.772	471.4
883.152	361.29
883.532	375.42
883.912	440.36
884.291	381.07
884.671	406.49
885.051	369.77
885.43	318.9
885.81	369.77
886.189	366.95
886.568	381.07
886.948	378.25
887.327	505.25
887.706	293.45
888.085	491.15
888.464	383.89
888.843	586.99
889.222	406.49
889.601	392.37
889.979	355.64
890.358	324.55
890.737	448.83
891.115	347.17
891.494	491.15
891.872	372.6
892.25	333.03
892.629	434.72
893.007	508.07
893.385	333.03
893.763	324.55
894.141	355.64
894.519	383.89
894.897	335.86
895.275	293.45
895.653	304.76
896.03	389.54
896.408	341.51
896.786	299.11
897.163	386.72
897.541	347.17
897.918	502.43
898.295	256.68
898.673	333.03
899.05	409.31
899.427	767.05
899.804	372.6
900.181	355.64
900.558	462.94
900.935	364.12
901.312	375.42
901.688	330.21
902.065	383.89
902.442	369.77
902.818	335.86
903.195	398.02
903.571	313.25
903.947	375.42
904.324	429.07
904.7	361.29
905.076	403.66
905.452	389.54
905.828	505.25
906.204	409.31
906.58	369.77
906.956	372.6
907.331	468.58
907.707	457.3
908.083	414.96
908.458	423.43
908.834	386.72
909.209	372.6
909.585	378.25
909.96	440.36
910.335	316.07
910.71	324.55
911.086	426.25
911.461	462.94
911.836	398.02
912.21	313.25
912.585	316.07
912.96	366.95
913.335	335.86
913.709	426.25
914.084	344.34
914.459	358.47
914.833	462.94
915.207	344.34
915.582	457.3
915.956	372.6
916.33	389.54
916.704	420.6
917.078	344.34
917.452	344.34
917.826	284.97
918.2	338.69
918.574	330.21
918.948	248.19
919.321	400.84
919.695	318.9
920.068	448.83
920.442	352.82
920.815	386.72
921.189	310.42
921.562	443.19
921.935	366.95
922.308	341.51
922.681	364.12
923.054	276.48
923.427	409.31
923.8	361.29
924.173	431.9
924.546	273.65
924.919	310.42
925.291	301.94
925.664	398.02
926.036	477.05
926.409	335.86
926.781	355.64
927.153	338.69
927.526	381.07
927.898	296.28
928.27	355.64
928.642	265.17
929.014	318.9
929.386	462.94
929.758	330.21
930.129	265.17
930.501	412.13
930.873	420.6
931.244	386.72
931.616	318.9
931.987	429.07
932.359	446.01
932.73	341.51
933.101	426.25
933.472	414.96
933.843	386.72
934.214	468.58
934.585	364.12
934.956	265.17
935.327	530.63
935.698	409.31
936.069	479.87
936.439	403.66
936.81	372.6
937.18	431.9
937.551	381.07
937.921	558.81
938.292	355.64
938.662	335.86
939.032	398.02
939.402	366.95
939.772	434.72
940.142	316.07
940.512	400.84
940.882	318.9
941.252	389.54
941.621	225.55
941.991	398.02
942.361	406.49
942.73	381.07
943.1	299.11
943.469	347.17
943.838	488.33
944.208	341.51
944.577	321.73
944.946	282.14
945.315	491.15
945.684	341.51
946.053	245.36
946.422	400.84
946.791	352.82
947.159	355.64
947.528	364.12
947.897	372.6
948.265	270.83
948.634	398.02
949.002	299.11
949.371	358.47
949.739	301.94
950.107	409.31
950.475	493.97
950.843	355.64
951.211	412.13
951.579	389.54
951.947	381.07
952.315	412.13
952.683	282.14
953.05	383.89
953.418	333.03
953.785	310.42
954.153	378.25
954.52	409.31
954.888	330.21
955.255	225.55
955.622	389.54
955.989	270.83
956.356	437.54
956.723	307.59
957.09	324.55
957.457	400.84
957.824	335.86
958.191	389.54
958.557	431.9
958.924	338.69
959.291	400.84
959.657	316.07
960.023	620.78
960.39	409.31
960.756	313.25
961.122	378.25
961.488	364.12
961.855	347.17
962.221	301.94
962.586	378.25
962.952	502.43
963.318	403.66
963.684	468.58
964.05	496.79
964.415	378.25
964.781	344.34
965.146	310.42
965.512	474.23
965.877	426.25
966.242	372.6
966.608	468.58
966.973	389.54
967.338	398.02
967.703	451.65
968.068	364.12
968.433	434.72
968.797	558.81
969.162	335.86
969.527	341.51
969.891	262.34
970.256	349.99
970.62	400.84
970.985	383.89
971.349	420.6
971.714	431.9
972.078	347.17
972.442	406.49
972.806	454.48
973.17	381.07
973.534	268
973.898	304.76
974.262	448.83
974.625	358.47
974.989	316.07
975.353	451.65
975.716	437.54
976.08	333.03
976.443	276.48
976.806	426.25
977.17	426.25
977.533	344.34
977.896	355.64
978.259	355.64
978.622	693.95
978.985	327.38
979.348	406.49
979.711	389.54
980.073	378.25
980.436	451.65
980.799	409.31
981.161	431.9
981.524	389.54
981.886	327.38
982.248	307.59
982.611	398.02
982.973	375.42
983.335	355.64
983.697	386.72
984.059	426.25
984.421	313.25
984.783	364.12
985.145	361.29
985.506	364.12
985.868	395.19
986.23	338.69
986.591	239.7
986.953	426.25
987.314	347.17
987.675	307.59
988.037	12064.71
988.398	679.89
988.759	333.03
989.12	400.84
989.481	460.12
989.842	372.6
990.203	318.9
990.564	310.42
990.924	338.69
991.285	6991.26
991.646	567.27
992.006	358.47
992.367	248.19
992.727	443.19
993.087	321.73
993.448	324.55
993.808	406.49
994.168	273.65
994.528	352.82
994.888	389.54
995.248	412.13
995.608	330.21
995.967	307.59
996.327	290.63
996.687	333.03
997.046	349.99
997.406	313.25
997.765	301.94
998.125	310.42
998.484	338.69
998.843	443.19
999.202	412.13
999.561	276.48
999.92	253.85
1000.279	358.47
1000.638	262.34
1000.997	338.69
1001.356	299.11
1001.715	282.14
1002.073	344.34
1002.432	335.86
1002.79	324.55
1003.149	355.64
1003.507	454.48
1003.865	389.54
1004.224	383.89
1004.582	321.73
1004.94	372.6
1005.298	375.42
1005.656	372.6
1006.014	301.94
1006.371	423.43
1006.729	358.47
1007.087	454.48
1007.445	335.86
1007.802	479.87
1008.16	349.99
1008.517	389.54
1008.874	369.77
1009.232	338.69
1009.589	767.05
1009.946	358.47
1010.303	406.49
1010.66	366.95
1011.017	330.21
1011.374	426.25
1011.731	417.78
1012.087	290.63
1012.444	344.34
1012.801	381.07
1013.157	338.69
1013.513	358.47
1013.87	321.73
1014.226	321.73
1014.582	366.95
1014.939	324.55
1015.295	383.89
1015.651	338.69
1016.007	304.76
1016.363	395.19
1016.719	372.6
1017.074	352.82
1017.43	335.86
1017.786	454.48
1018.141	341.51
1018.497	358.47
1018.852	347.17
1019.208	479.87
1019.563	279.31
1019.918	313.25
1020.273	327.38
1020.628	333.03
1020.983	423.43
1021.338	349.99
1021.693	395.19
1022.048	437.54
1022.403	304.76
1022.757	293.45
1023.112	381.07
1023.467	279.31
1023.821	287.8
1024.175	341.51
1024.53	284.97
1024.884	349.99
1025.238	355.64
1025.592	440.36
1025.946	352.82
1026.3	341.51
1026.654	347.17
1027.008	321.73
1027.362	364.12
1027.716	352.82
1028.069	381.07
1028.423	406.49
1028.777	338.69
1029.13	307.59
1029.483	392.37
1029.837	406.49
1030.19	386.72
1030.543	330.21
1030.896	307.59
1031.249	344.34
1031.602	347.17
1031.955	426.25
1032.308	279.31
1032.661	471.4
1033.013	333.03
1033.366	395.19
1033.719	406.49
1034.071	366.95
1034.424	299.11
1034.776	333.03
1035.128	398.02
1035.48	358.47
1035.833	440.36
1036.185	338.69
1036.537	338.69
1036.889	338.69
