Data from BCF12_8_FLMS019251_16-38-55-668.txt Node
Date: Mon Feb 11 16:38:55 CET 2019
User: luk
Spectrometer: FLMS01925
Trigger mode: 0
Integration Time (sec): 5.500000E0
Scans to average: 1
Electric dark correction enabled: true
Nonlinearity correction enabled: true
Boxcar width: 0
XAxis mode: Wavelengths
Number of Pixels in Spectrum: 2048
>>>>>Begin Spectral Data<<<<<
187.103	-600.45
187.574	-600.45
188.045	-600.45
188.516	-769.54
188.987	403.13
189.458	-21.65
189.929	-209.33
190.4	80.52
190.871	-203.64
191.342	-323.31
191.813	-252.06
192.284	295.75
192.754	-212.18
193.225	-81.32
193.696	-44.38
194.166	-92.69
194.637	253.32
195.107	594.91
195.578	94.7
196.048	162.72
196.518	-47.22
196.989	74.85
197.459	182.55
197.929	-141.03
198.399	1021.82
198.869	208.03
199.339	357.94
199.809	439.84
200.279	696.24
200.749	386.19
201.219	244.83
201.689	380.54
202.159	128.72
202.628	188.21
203.098	490.62
203.568	267.47
204.037	482.16
204.507	318.37
204.976	544.19
205.445	205.2
205.915	227.85
206.384	290.1
206.853	225.02
207.323	140.05
207.792	326.85
208.261	179.72
208.73	244.83
209.199	732.8
209.668	414.43
210.137	676.55
210.606	275.95
211.075	521.64
211.543	676.55
212.012	572.37
212.481	32.29
212.95	244.83
213.418	772.15
213.887	479.34
214.355	662.48
214.824	236.34
215.292	148.55
215.76	171.22
216.229	176.88
216.697	307.06
217.165	513.18
217.633	315.54
218.101	563.92
218.569	1679.98
219.037	490.62
219.505	1089.01
219.973	484.98
220.441	315.54
220.909	340.98
221.377	656.85
221.844	459.59
222.312	264.64
222.78	309.89
223.247	394.66
223.715	15.26
224.182	363.59
224.65	493.44
225.117	690.61
225.584	338.16
226.052	216.53
226.519	292.92
226.986	244.83
227.453	270.3
227.92	394.66
228.387	862.01
228.854	230.68
229.321	148.55
229.788	496.26
230.255	699.05
230.722	634.33
231.189	476.52
231.655	219.36
232.122	383.36
232.589	225.02
233.055	168.39
233.522	934.95
233.988	210.87
234.454	541.37
234.921	428.54
235.387	991.01
235.853	366.42
236.32	193.88
236.786	230.68
237.252	247.66
237.718	1052.62
238.184	391.84
238.65	366.42
239.116	295.75
239.582	422.9
240.047	182.55
240.513	431.37
240.979	403.13
241.445	128.72
241.91	159.89
242.376	117.38
242.841	558.28
243.307	159.89
243.772	222.19
244.238	168.39
244.703	482.16
245.168	357.94
245.633	360.76
246.099	114.54
246.564	253.32
247.029	499.08
247.494	114.54
247.959	360.76
248.424	264.64
248.889	148.55
249.353	721.55
249.818	264.64
250.283	134.39
250.748	256.15
251.212	343.81
251.677	20.94
252.141	391.84
252.606	422.9
253.07	120.21
253.535	210.87
253.999	37.96
254.463	148.55
254.927	125.88
255.392	324.02
255.856	414.43
256.32	307.06
256.784	106.04
257.248	343.81
257.712	572.37
258.176	1038.63
258.64	405.96
259.103	290.1
259.567	267.47
260.031	97.53
260.495	468.05
260.958	575.19
261.422	290.1
261.885	312.72
262.349	312.72
262.812	165.55
263.275	270.3
263.739	425.72
264.202	425.72
264.665	420.08
265.128	397.49
265.591	377.72
266.054	273.12
266.517	527.28
266.98	287.27
267.443	140.05
267.906	103.2
268.369	134.39
268.832	340.98
269.294	86.19
269.757	227.85
270.22	134.39
270.682	377.72
271.145	541.37
271.607	233.51
272.07	1265.1
272.532	145.72
272.994	312.72
273.456	608.99
273.919	3111.26
274.381	120.21
274.843	996.61
275.305	701.86
275.767	196.71
276.229	583.64
276.691	363.59
277.153	176.88
277.614	552.65
278.076	148.55
278.538	352.29
279	191.05
279.461	340.98
279.923	1287.43
280.384	287.27
280.846	94.7
281.307	174.05
281.769	191.05
282.23	448.3
282.691	797.43
283.152	86.19
283.613	91.86
284.075	89.03
284.536	516
284.997	227.85
285.458	250.49
285.918	208.03
286.379	332.5
286.84	786.19
287.301	94.7
287.762	315.54
288.222	165.55
288.683	284.44
289.143	267.47
289.604	222.19
290.064	191.05
290.525	318.37
290.985	1226.01
291.445	324.02
291.906	103.2
292.366	185.38
292.826	106.04
293.286	428.54
293.746	239.17
294.206	462.41
294.666	673.73
295.126	606.17
295.586	106.04
296.046	15.26
296.506	496.26
296.965	487.8
297.425	40.8
297.884	690.61
298.344	346.64
298.804	360.76
299.263	304.23
299.722	335.33
300.182	174.05
300.641	69.17
301.1	123.05
301.559	428.54
302.019	154.22
302.478	329.68
302.937	332.5
303.396	298.58
303.855	1482.56
304.314	284.44
304.772	2335.42
305.231	148.55
305.69	307.06
306.149	479.34
306.607	168.39
307.066	541.37
307.524	783.39
307.983	524.46
308.441	600.54
308.9	1069.42
309.358	264.64
309.816	1368.33
310.275	273.12
310.733	309.89
311.191	281.61
311.649	465.23
312.107	600.54
312.565	208.03
313.023	125.88
313.481	219.36
313.939	253.32
314.397	213.7
314.854	340.98
315.312	558.28
315.77	459.59
316.227	114.54
316.685	49.31
317.142	83.35
317.6	662.48
318.057	487.8
318.514	468.05
318.972	216.53
319.429	617.44
319.886	227.85
320.343	219.36
320.8	210.87
321.257	281.61
321.714	808.67
322.171	1069.42
322.628	273.12
323.085	154.22
323.542	89.03
323.998	222.19
324.455	162.72
324.912	360.76
325.368	188.21
325.825	923.73
326.281	312.72
326.738	594.91
327.194	230.68
327.65	386.19
328.107	66.34
328.563	256.15
329.019	679.36
329.475	318.37
329.931	439.84
330.387	451.12
330.843	63.5
331.299	355.11
331.755	49.31
332.211	157.05
332.666	140.05
333.122	74.85
333.578	346.64
334.033	193.88
334.489	580.82
334.944	108.87
335.4	1346.02
335.855	735.61
336.31	100.37
336.766	267.47
337.221	318.37
337.676	148.55
338.131	507.54
338.586	592.09
339.041	222.19
339.496	839.56
339.951	270.3
340.406	366.42
340.861	227.85
341.316	273.12
341.771	363.59
342.225	157.05
342.68	482.16
343.134	309.89
343.589	405.96
344.043	338.16
344.498	298.58
344.952	278.78
345.406	3823.32
345.861	157.05
346.315	179.72
346.769	131.55
347.223	210.87
347.677	106.04
348.131	168.39
348.585	43.64
349.039	295.75
349.493	205.2
349.947	250.49
350.401	332.5
350.854	100.37
351.308	1164.53
351.762	145.72
352.215	738.42
352.669	216.53
353.122	32.29
353.575	154.22
354.029	304.23
354.482	244.83
354.935	462.41
355.388	513.18
355.842	499.08
356.295	417.25
356.748	171.22
357.201	326.85
357.654	623.07
358.106	236.34
358.559	43.64
359.012	145.72
359.465	264.64
359.917	625.88
360.37	213.7
360.823	196.71
361.275	518.82
361.728	295.75
362.18	431.37
362.632	496.26
363.085	165.55
363.537	309.89
363.989	174.05
364.441	225.02
364.893	179.72
365.345	227.85
365.797	46.48
366.249	403.13
366.701	100.37
367.153	151.39
367.605	117.38
368.057	185.38
368.508	120.21
368.96	94.7
369.411	114.54
369.863	521.64
370.314	808.67
370.766	391.84
371.217	284.44
371.669	366.42
372.12	1047.03
372.571	583.64
373.022	137.22
373.473	383.36
373.924	611.81
374.375	349.46
374.826	544.19
375.277	304.23
375.728	196.71
376.179	247.66
376.63	230.68
377.08	699.05
377.531	117.38
377.981	12.42
378.432	727.17
378.883	1100.2
379.333	394.66
379.783	216.53
380.234	264.64
380.684	239.17
381.134	369.24
381.584	445.48
382.034	923.73
382.485	487.8
382.935	145.72
383.385	639.96
383.834	125.88
384.284	309.89
384.734	128.72
385.184	513.18
385.634	227.85
386.083	366.42
386.533	261.81
386.982	487.8
387.432	634.33
387.881	157.05
388.331	216.53
388.78	839.56
389.229	140.05
389.679	-13.13
390.128	479.34
390.577	343.81
391.026	148.55
391.475	108.87
391.924	128.72
392.373	-44.38
392.822	159.89
393.27	530.1
393.719	210.87
394.168	171.22
394.617	547.01
395.065	123.05
395.514	608.99
395.962	482.16
396.411	100.37
396.859	108.87
397.307	665.29
397.756	377.72
398.204	199.54
398.652	732.8
399.1	284.44
399.548	264.64
399.996	1077.82
400.444	369.24
400.892	185.38
401.34	162.72
401.788	176.88
402.236	40.8
402.683	91.86
403.131	442.66
403.579	329.68
404.026	40.8
404.474	148.55
404.921	360.76
405.369	60.66
405.816	162.72
406.263	86.19
406.71	428.54
407.158	258.98
407.605	159.89
408.052	154.22
408.499	561.1
408.946	417.25
409.393	253.32
409.84	360.76
410.286	182.55
410.733	380.54
411.18	106.04
411.626	617.44
412.073	445.48
412.52	134.39
412.966	836.75
413.413	250.49
413.859	295.75
414.305	278.78
414.752	242
415.198	174.05
415.644	451.12
416.09	326.85
416.536	171.22
416.982	374.89
417.428	532.92
417.874	134.39
418.32	191.05
418.766	468.05
419.211	208.03
419.657	281.61
420.103	49.31
420.548	343.81
420.994	363.59
421.439	137.22
421.885	287.27
422.33	205.2
422.776	352.29
423.221	946.16
423.666	321.2
424.111	431.37
424.556	766.53
425.001	394.66
425.446	202.37
425.891	137.22
426.336	360.76
426.781	1566.04
427.226	230.68
427.671	253.32
428.115	151.39
428.56	417.25
429.005	780.58
429.449	176.88
429.894	448.3
430.338	1256.73
430.782	275.95
431.227	292.92
431.671	425.72
432.115	278.78
432.559	142.89
433.003	420.08
433.447	247.66
433.891	176.88
434.335	437.01
434.779	125.88
435.223	614.62
435.667	411.61
436.111	7161.34
436.554	307.06
436.998	349.46
437.442	193.88
437.885	154.22
438.328	193.88
438.772	270.3
439.215	140.05
439.659	360.76
440.102	250.49
440.545	400.31
440.988	213.7
441.431	120.21
441.874	400.31
442.317	225.02
442.76	273.12
443.203	236.34
443.646	142.89
444.089	340.98
444.531	253.32
444.974	230.68
445.417	569.55
445.859	679.36
446.302	383.36
446.744	182.55
447.186	431.37
447.629	578.01
448.071	128.72
448.513	411.61
448.956	264.64
449.398	355.11
449.84	445.48
450.282	639.96
450.724	86.19
451.166	239.17
451.607	1212.04
452.049	278.78
452.491	476.52
452.933	476.52
453.374	1170.12
453.816	684.99
454.257	510.36
454.699	479.34
455.14	541.37
455.582	563.92
456.023	352.29
456.464	247.66
456.905	617.44
457.347	760.91
457.788	145.72
458.229	111.71
458.67	326.85
459.111	176.88
459.552	391.84
459.992	287.27
460.433	693.43
460.874	145.72
461.315	312.72
461.755	662.48
462.196	244.83
462.636	465.23
463.077	462.41
463.517	453.95
463.957	176.88
464.398	57.83
464.838	608.99
465.278	60.66
465.718	20.94
466.158	233.51
466.598	451.12
467.038	304.23
467.478	842.36
467.918	179.72
468.358	758.09
468.798	484.98
469.237	179.72
469.677	80.52
470.117	805.86
470.556	451.12
470.996	637.15
471.435	151.39
471.874	145.72
472.314	239.17
472.753	270.3
473.192	273.12
473.631	227.85
474.07	151.39
474.509	332.5
474.948	72.01
475.387	60.66
475.826	744.04
476.265	137.22
476.704	108.87
477.143	617.44
477.581	1066.62
478.02	637.15
478.458	417.25
478.897	707.49
479.335	448.3
479.774	171.22
480.212	414.43
480.65	168.39
481.089	199.54
481.527	482.16
481.965	168.39
482.403	171.22
482.841	264.64
483.279	357.94
483.717	679.36
484.155	77.68
484.592	451.12
485.03	437.01
485.468	307.06
485.905	315.54
486.343	411.61
486.781	473.7
487.218	420.08
487.655	264.64
488.093	89.03
488.53	154.22
488.967	287.27
489.405	366.42
489.842	414.43
490.279	957.38
490.716	780.58
491.153	403.13
491.59	278.78
492.027	329.68
492.463	151.39
492.9	281.61
493.337	403.13
493.773	318.37
494.21	484.98
494.647	386.19
495.083	230.68
495.519	572.37
495.956	355.11
496.392	558.28
496.828	456.77
497.265	176.88
497.701	346.64
498.137	171.22
498.573	233.51
499.009	690.61
499.445	493.44
499.881	386.19
500.316	394.66
500.752	142.89
501.188	428.54
501.624	210.87
502.059	400.31
502.495	732.8
502.93	329.68
503.366	7163.97
503.801	369.24
504.236	216.53
504.672	462.41
505.107	270.3
505.542	349.46
505.977	176.88
506.412	321.2
506.847	196.71
507.282	106.04
507.717	202.37
508.152	470.88
508.587	307.06
509.021	555.47
509.456	205.2
509.891	275.95
510.325	74.85
510.76	287.27
511.194	66.34
511.628	343.81
512.063	357.94
512.497	329.68
512.931	216.53
513.366	281.61
513.8	324.02
514.234	357.94
514.668	145.72
515.102	94.7
515.536	157.05
515.969	780.58
516.403	227.85
516.837	592.09
517.271	690.61
517.704	253.32
518.138	473.7
518.571	162.72
519.005	690.61
519.438	168.39
519.871	46.48
520.305	507.54
520.738	250.49
521.171	434.19
521.604	873.24
522.037	558.28
522.47	1080.62
522.903	372.07
523.336	273.12
523.769	476.52
524.202	335.33
524.634	242
525.067	66.34
525.5	253.32
525.932	1214.83
526.365	836.75
526.797	301.41
527.23	202.37
527.662	408.78
528.094	654.03
528.527	304.23
528.959	154.22
529.391	890.07
529.823	422.9
530.255	185.38
530.687	642.78
531.119	352.29
531.551	417.25
531.982	159.89
532.414	476.52
532.846	934.95
533.277	128.72
533.709	77.68
534.14	202.37
534.572	355.11
535.003	456.77
535.435	487.8
535.866	906.91
536.297	162.72
536.728	673.73
537.159	831.13
537.59	270.3
538.022	369.24
538.452	1184.09
538.883	741.23
539.314	420.08
539.745	26.61
540.176	696.24
540.606	292.92
541.037	386.19
541.468	174.05
541.898	244.83
542.328	290.1
542.759	676.55
543.189	389.01
543.619	312.72
544.05	741.23
544.48	137.22
544.91	479.34
545.34	628.7
545.77	437.01
546.2	510.36
546.63	850.78
547.06	453.95
547.489	707.49
547.919	91.86
548.349	292.92
548.778	408.78
549.208	54.99
549.637	369.24
550.067	468.05
550.496	428.54
550.926	174.05
551.355	247.66
551.784	91.86
552.213	148.55
552.642	242
553.071	414.43
553.5	292.92
553.929	9.58
554.358	106.04
554.787	222.19
555.216	284.44
555.645	428.54
556.073	547.01
556.502	363.59
556.93	35.13
557.359	111.71
557.787	106.04
558.216	69.17
558.644	162.72
559.072	236.34
559.5	123.05
559.929	448.3
560.357	400.31
560.785	374.89
561.213	490.62
561.641	372.07
562.068	769.34
562.496	148.55
562.924	321.2
563.352	227.85
563.779	287.27
564.207	111.71
564.634	219.36
565.062	397.49
565.489	456.77
565.917	267.47
566.344	94.7
566.771	193.88
567.198	394.66
567.625	-4.61
568.053	57.83
568.48	284.44
568.907	-18.81
569.333	422.9
569.76	239.17
570.187	208.03
570.614	400.31
571.04	66866.31
571.467	9026.12
571.894	654.03
572.32	318.37
572.747	391.84
573.173	462.41
573.599	442.66
574.026	642.78
574.452	710.3
574.878	363.59
575.304	377.72
575.73	111.71
576.156	191.05
576.582	225.02
577.008	275.95
577.434	-15.97
577.86	230.68
578.285	264.64
578.711	191.05
579.137	369.24
579.562	437.01
579.988	142.89
580.413	459.59
580.838	37.96
581.264	91.86
581.689	346.64
582.114	493.44
582.539	9872.75
582.964	538.56
583.39	744.04
583.814	278.78
584.239	357.94
584.664	46.48
585.089	199.54
585.514	760.91
585.939	555.47
586.363	295.75
586.788	473.7
587.212	205.2
587.637	267.47
588.061	326.85
588.485	128.72
588.91	106.04
589.334	247.66
589.758	639.96
590.182	592.09
590.606	261.81
591.03	763.72
591.454	547.01
591.878	205.2
592.302	120.21
592.726	1069.42
593.15	199.54
593.573	108.87
593.997	727.17
594.42	63.5
594.844	230.68
595.267	244.83
595.691	250.49
596.114	159.89
596.537	391.84
596.96	453.95
597.384	233.51
597.807	258.98
598.23	411.61
598.653	516
599.076	49.31
599.499	391.84
599.921	128.72
600.344	86.19
600.767	527.28
601.189	673.73
601.612	52.15
602.034	80.52
602.457	374.89
602.879	2453.78
603.302	250.49
603.724	437.01
604.146	128.72
604.568	106.04
604.991	397.49
605.413	32.29
605.835	504.72
606.257	324.02
606.678	261.81
607.1	575.19
607.522	258.98
607.944	1100.2
608.365	611.81
608.787	94.7
609.209	1052.62
609.63	72.01
610.051	-4.61
610.473	309.89
610.894	244.83
611.315	148.55
611.737	746.85
612.158	97.53
612.579	165.55
613	1607.74
613.421	162.72
613.842	642.78
614.263	555.47
614.683	205.2
615.104	140.05
615.525	623.07
615.945	242
616.366	77.68
616.787	620.25
617.207	114.54
617.627	185.38
618.048	125.88
618.468	117.38
618.888	202.37
619.308	-52.9
619.728	199.54
620.148	49.31
620.568	465.23
620.988	934.95
621.408	324.02
621.828	159.89
622.248	346.64
622.668	547.01
623.087	530.1
623.507	18.1
623.926	123.05
624.346	318.37
624.765	561.1
625.185	100.37
625.604	193.88
626.023	230.68
626.442	202.37
626.861	679.36
627.28	230.68
627.699	66.34
628.118	46.48
628.537	270.3
628.956	873.24
629.375	578.01
629.794	270.3
630.212	417.25
630.631	693.43
631.049	233.51
631.468	552.65
631.886	174.05
632.305	648.41
632.723	6.74
633.141	159.89
633.559	162.72
633.978	108.87
634.396	696.24
634.814	527.28
635.232	196.71
635.65	369.24
636.067	369.24
636.485	199.54
636.903	18.1
637.321	165.55
637.738	1306.97
638.156	137.22
638.573	29.45
638.991	977
639.408	1016.22
639.825	225.02
640.243	732.8
640.66	176.88
641.077	369.24
641.494	535.74
641.911	699.05
642.328	417.25
642.745	335.33
643.162	561.1
643.579	307.06
643.995	208.03
644.412	1130.97
644.829	-15.97
645.245	210.87
645.662	117.38
646.078	142.89
646.495	233.51
646.911	284.44
647.327	803.05
647.743	222.19
648.159	465.23
648.576	6.74
648.992	608.99
649.408	157.05
649.824	125.88
650.239	236.34
650.655	125.88
651.071	191.05
651.487	462.41
651.902	287.27
652.318	134.39
652.733	-7.45
653.149	196.71
653.564	275.95
653.979	137.22
654.395	174.05
654.81	188.21
655.225	233.51
655.64	324.02
656.055	20.94
656.47	284.44
656.885	108.87
657.3	52.15
657.715	982.6
658.13	270.3
658.544	242
658.959	80.52
659.374	199.54
659.788	603.36
660.202	106.04
660.617	1089.01
661.031	270.3
661.445	482.16
661.86	35.13
662.274	741.23
662.688	634.33
663.102	134.39
663.516	808.67
663.93	140.05
664.344	499.08
664.758	445.48
665.171	168.39
665.585	408.78
665.999	256.15
666.412	168.39
666.826	414.43
667.239	699.05
667.653	83.35
668.066	142.89
668.479	1281.85
668.892	120.21
669.306	225.02
669.719	256.15
670.132	363.59
670.545	287.27
670.958	125.88
671.37	315.54
671.783	23.77
672.196	603.36
672.609	120.21
673.021	168.39
673.434	117.38
673.846	94.7
674.259	23.77
674.671	-27.33
675.084	117.38
675.496	188.21
675.908	171.22
676.32	89.03
676.732	227.85
677.144	324.02
677.556	52.15
677.968	196.71
678.38	575.19
678.792	405.96
679.204	137.22
679.615	679.36
680.027	250.49
680.439	174.05
680.85	631.52
681.262	1035.83
681.673	168.39
682.084	343.81
682.496	267.47
682.907	422.9
683.318	287.27
683.729	242
684.14	369.24
684.551	239.17
684.962	273.12
685.373	125.88
685.784	261.81
686.194	216.53
686.605	111.71
687.016	439.84
687.426	326.85
687.837	111.71
688.247	100.37
688.657	174.05
689.068	151.39
689.478	541.37
689.888	106.04
690.298	128.72
690.708	35.13
691.118	148.55
691.528	100.37
691.938	340.98
692.348	165.55
692.758	106.04
693.168	332.5
693.577	473.7
693.987	179.72
694.396	239.17
694.806	52.15
695.215	199.54
695.625	230.68
696.034	321.2
696.443	3.9
696.852	684.99
697.262	142.89
697.671	57.83
698.08	374.89
698.489	256.15
698.897	142.89
699.306	154.22
699.715	174.05
700.124	292.92
700.532	1.06
700.941	380.54
701.35	171.22
701.758	982.6
702.166	179.72
702.575	372.07
702.983	137.22
703.391	281.61
703.799	247.66
704.208	292.92
704.616	20.94
705.024	513.18
705.432	275.95
705.839	26.61
706.247	738.42
706.655	1214.83
707.063	125.88
707.47	97.53
707.878	35.13
708.285	216.53
708.693	106.04
709.1	213.7
709.508	69.17
709.915	253.32
710.322	389.01
710.729	1624.42
711.136	270.3
711.543	242
711.95	199.54
712.357	549.83
712.764	301.41
713.171	162.72
713.578	256.15
713.984	340.98
714.391	125.88
714.797	91.86
715.204	290.1
715.61	600.54
716.017	134.39
716.423	400.31
716.829	355.11
717.236	233.51
717.642	151.39
718.048	648.41
718.454	594.91
718.86	29.45
719.266	1284.64
719.671	57.83
720.077	397.49
720.483	233.51
720.889	662.48
721.294	43.64
721.7	162.72
722.105	242
722.511	154.22
722.916	386.19
723.321	349.46
723.726	814.28
724.132	227.85
724.537	414.43
724.942	366.42
725.347	366.42
725.752	270.3
726.156	213.7
726.561	267.47
726.966	414.43
727.371	628.7
727.775	558.28
728.18	157.05
728.584	-33.01
728.989	205.2
729.393	1418.5
729.798	205.2
730.202	603.36
730.606	151.39
731.01	208.03
731.414	191.05
731.818	111.71
732.222	227.85
732.626	239.17
733.03	267.47
733.434	54.99
733.837	530.1
734.241	111.71
734.645	54.99
735.048	69.17
735.452	287.27
735.855	145.72
736.258	225.02
736.662	951.77
737.065	789
737.468	578.01
737.871	281.61
738.274	524.46
738.677	256.15
739.08	134.39
739.483	292.92
739.886	326.85
740.289	578.01
740.691	148.55
741.094	20.94
741.497	185.38
741.899	755.28
742.302	26.61
742.704	3.9
743.106	145.72
743.508	131.55
743.911	174.05
744.313	239.17
744.715	176.88
745.117	162.72
745.519	97.53
745.921	459.59
746.323	230.68
746.724	69.17
747.126	69.17
747.528	758.09
747.929	52.15
748.331	250.49
748.732	9.58
749.134	37.96
749.535	-18.81
749.936	1044.23
750.338	123.05
750.739	862.01
751.14	363.59
751.541	233.51
751.942	176.88
752.343	242
752.744	278.78
753.144	83.35
753.545	301.41
753.946	391.84
754.346	227.85
754.747	797.43
755.148	1768.79
755.548	69.17
755.948	227.85
756.349	326.85
756.749	307.06
757.149	97.53
757.549	659.66
757.949	332.5
758.349	213.7
758.749	213.7
759.149	114.54
759.549	176.88
759.949	148.55
760.348	1259.52
760.748	298.58
761.148	157.05
761.547	222.19
761.947	208.03
762.346	389.01
762.745	853.59
763.145	338.16
763.544	278.78
763.943	301.41
764.342	165.55
764.741	250.49
765.14	134.39
765.539	120.21
765.938	1016.22
766.336	-10.29
766.735	-35.85
767.134	281.61
767.532	182.55
767.931	157.05
768.329	1281.85
768.728	117.38
769.126	411.61
769.525	1019.02
769.923	445.48
770.321	236.34
770.719	774.96
771.117	284.44
771.515	538.56
771.913	453.95
772.311	219.36
772.709	244.83
773.106	89.03
773.504	284.44
773.902	281.61
774.299	425.72
774.697	2012.52
775.094	332.5
775.491	54.99
775.889	287.27
776.286	131.55
776.683	142.89
777.08	6.74
777.477	54.99
777.874	103.2
778.271	159.89
778.668	131.55
779.065	103.2
779.462	321.2
779.858	236.34
780.255	744.04
780.652	318.37
781.048	744.04
781.444	290.1
781.841	72.01
782.237	360.76
782.633	100.37
783.03	20.94
783.426	103.2
783.822	250.49
784.218	77.68
784.614	49.31
785.01	208.03
785.405	247.66
785.801	309.89
786.197	168.39
786.593	250.49
786.988	250.49
787.384	654.03
787.779	210.87
788.174	304.23
788.57	281.61
788.965	219.36
789.36	202.37
789.755	233.51
790.15	145.72
790.545	145.72
790.94	18.1
791.335	77.68
791.73	57.83
792.125	749.66
792.52	343.81
792.914	391.84
793.309	20.94
793.703	563.92
794.098	108.87
794.492	561.1
794.887	261.81
795.281	1007.82
795.675	755.28
796.069	763.72
796.463	261.81
796.857	151.39
797.251	290.1
797.645	72.01
798.039	312.72
798.433	134.39
798.826	159.89
799.22	176.88
799.614	380.54
800.007	312.72
800.401	321.2
800.794	3.9
801.187	239.17
801.581	137.22
801.974	408.78
802.367	521.64
802.76	131.55
803.153	-24.49
803.546	83.35
803.939	400.31
804.332	66.34
804.725	35.13
805.117	134.39
805.51	611.81
805.903	176.88
806.295	405.96
806.688	106.04
807.08	123.05
807.472	405.96
807.865	470.88
808.257	372.07
808.649	566.74
809.041	321.2
809.433	400.31
809.825	216.53
810.217	89.03
810.609	213.7
811.001	335.33
811.392	159.89
811.784	625.88
812.175	100.37
812.567	411.61
812.958	403.13
813.35	258.98
813.741	69.17
814.132	253.32
814.524	137.22
814.915	199.54
815.306	89.03
815.697	191.05
816.088	335.33
816.479	434.19
816.87	459.59
817.26	445.48
817.651	1007.82
818.042	431.37
818.432	380.54
818.823	420.08
819.213	295.75
819.604	137.22
819.994	366.42
820.384	114.54
820.775	439.84
821.165	145.72
821.555	208.03
821.945	210.87
822.335	66.34
822.725	513.18
823.114	185.38
823.504	182.55
823.894	205.2
824.284	862.01
824.673	301.41
825.063	250.49
825.452	247.66
825.842	106.04
826.231	1122.58
826.62	193.88
827.009	558.28
827.399	575.19
827.788	74.85
828.177	69.17
828.566	496.26
828.954	1613.3
829.343	569.55
829.732	148.55
830.121	1359.97
830.509	1002.22
830.898	165.55
831.286	154.22
831.675	389.01
832.063	648.41
832.452	157.05
832.84	40.8
833.228	814.28
833.616	222.19
834.004	487.8
834.392	309.89
834.78	634.33
835.168	49.31
835.556	628.7
835.944	383.36
836.331	656.85
836.719	462.41
837.107	346.64
837.494	606.17
837.881	77.68
838.269	230.68
838.656	134.39
839.043	137.22
839.431	1463.07
839.818	123.05
840.205	193.88
840.592	343.81
840.979	236.34
841.366	106.04
841.752	111.71
842.139	179.72
842.526	307.06
842.912	530.1
843.299	273.12
843.685	360.76
844.072	309.89
844.458	434.19
844.844	270.3
845.231	9.58
845.617	145.72
846.003	318.37
846.389	188.21
846.775	72.01
847.161	281.61
847.547	117.38
847.933	89.03
848.318	403.13
848.704	63.5
849.09	54.99
849.475	63.5
849.861	530.1
850.246	227.85
850.631	819.9
851.017	360.76
851.402	120.21
851.787	366.42
852.172	940.56
852.557	499.08
852.942	145.72
853.327	188.21
853.712	420.08
854.097	363.59
854.481	94.7
854.866	292.92
855.25	148.55
855.635	343.81
856.019	196.71
856.404	205.2
856.788	54.99
857.172	117.38
857.557	414.43
857.941	335.33
858.325	247.66
858.709	242
859.093	18.1
859.477	74.85
859.86	566.74
860.244	117.38
860.628	1027.42
861.012	611.81
861.395	137.22
861.779	208.03
862.162	233.51
862.545	106.04
862.929	219.36
863.312	456.77
863.695	120.21
864.078	335.33
864.461	114.54
864.844	357.94
865.227	847.98
865.61	52.15
865.993	227.85
866.376	326.85
866.758	645.59
867.141	648.41
867.523	425.72
867.906	111.71
868.288	349.46
868.671	411.61
869.053	216.53
869.435	301.41
869.817	800.24
870.199	100.37
870.581	159.89
870.963	360.76
871.345	482.16
871.727	411.61
872.109	83.35
872.491	174.05
872.872	349.46
873.254	86.19
873.635	295.75
874.017	937.75
874.398	216.53
874.779	558.28
875.161	193.88
875.542	586.46
875.923	236.34
876.304	162.72
876.685	103.2
877.066	309.89
877.447	83.35
877.828	157.05
878.208	420.08
878.589	592.09
878.97	881.66
879.35	108.87
879.731	89.03
880.111	54.99
880.491	35.13
880.872	479.34
881.252	35.13
881.632	253.32
882.012	699.05
882.392	738.42
882.772	668.1
883.152	360.76
883.532	312.72
883.912	580.82
884.291	239.17
884.671	315.54
885.051	411.61
885.43	159.89
885.81	335.33
886.189	264.64
886.568	292.92
886.948	335.33
887.327	637.15
887.706	284.44
888.085	937.75
888.464	411.61
888.843	1396.21
889.222	589.28
889.601	625.88
889.979	326.85
890.358	250.49
890.737	326.85
891.115	258.98
891.494	165.55
891.872	140.05
892.25	77.68
892.629	783.39
893.007	923.73
893.385	346.64
893.763	256.15
894.141	360.76
894.519	493.44
894.897	94.7
895.275	210.87
895.653	97.53
896.03	490.62
896.408	295.75
896.786	74.85
897.163	290.1
897.541	210.87
897.918	876.04
898.295	94.7
898.673	210.87
899.05	137.22
899.427	2673.51
899.804	193.88
900.181	182.55
900.558	786.19
900.935	501.9
901.312	171.22
901.688	77.68
902.065	468.05
902.442	346.64
902.818	154.22
903.195	151.39
903.571	213.7
903.947	233.51
904.324	324.02
904.7	295.75
905.076	932.15
905.452	196.71
905.828	589.28
906.204	267.47
906.58	128.72
906.956	493.44
907.331	904.1
907.707	637.15
908.083	701.86
908.458	459.59
908.834	233.51
909.209	258.98
909.585	312.72
909.96	507.54
910.335	97.53
910.71	80.52
911.086	417.25
911.461	662.48
911.836	281.61
912.21	210.87
912.585	434.19
912.96	524.46
913.335	244.83
913.709	275.95
914.084	165.55
914.459	414.43
914.833	222.19
915.207	23.77
915.582	182.55
915.956	74.85
916.33	261.81
916.704	69.17
917.078	275.95
917.452	682.17
917.826	40.8
918.2	111.71
918.574	304.23
918.948	23.77
919.321	244.83
919.695	165.55
920.068	400.31
920.442	439.84
920.815	332.5
921.189	227.85
921.562	1033.03
921.935	561.1
922.308	162.72
922.681	459.59
923.054	275.95
923.427	803.05
923.8	182.55
924.173	572.37
924.546	52.15
924.919	188.21
925.291	196.71
925.664	145.72
926.036	250.49
926.409	125.88
926.781	205.2
927.153	250.49
927.526	676.55
927.898	145.72
928.27	100.37
928.642	43.64
929.014	253.32
929.386	77.68
929.758	66.34
930.129	94.7
930.501	699.05
930.873	108.87
931.244	287.27
931.616	89.03
931.987	284.44
932.359	693.43
932.73	510.36
933.101	340.98
933.472	309.89
933.843	608.99
934.214	803.05
934.585	191.05
934.956	253.32
935.327	1457.5
935.698	275.95
936.069	468.05
936.439	196.71
936.81	120.21
937.18	634.33
937.551	108.87
937.921	988.21
938.292	572.37
938.662	142.89
939.032	642.78
939.402	278.78
939.772	414.43
940.142	193.88
940.512	131.55
940.882	185.38
941.252	403.13
941.621	210.87
941.991	264.64
942.361	673.73
942.73	307.06
943.1	69.17
943.469	216.53
943.838	1005.02
944.208	808.67
944.577	287.27
944.946	219.36
945.315	-47.22
945.684	128.72
946.053	142.89
946.422	340.98
946.791	142.89
947.159	258.98
947.528	97.53
947.897	437.01
948.265	106.04
948.634	346.64
949.002	117.38
949.371	171.22
949.739	40.8
950.107	403.13
950.475	199.54
950.843	408.78
951.211	654.03
951.579	465.23
951.947	222.19
952.315	363.59
952.683	225.02
953.05	89.03
953.418	134.39
953.785	154.22
954.153	72.01
954.52	298.58
954.888	422.9
955.255	157.05
955.622	216.53
955.989	267.47
956.356	859.21
956.723	199.54
957.09	377.72
957.457	439.84
957.824	131.55
958.191	162.72
958.557	476.52
958.924	227.85
959.291	236.34
959.657	216.53
960.023	1718.85
960.39	174.05
960.756	128.72
961.122	496.26
961.488	264.64
961.855	292.92
962.221	103.2
962.586	148.55
962.952	1019.02
963.318	420.08
963.684	1404.57
964.05	1052.62
964.415	309.89
964.781	273.12
965.146	242
965.512	996.61
965.877	527.28
966.242	335.33
966.608	355.11
966.973	295.75
967.338	273.12
967.703	628.7
968.068	154.22
968.433	870.43
968.797	1270.68
969.162	230.68
969.527	222.19
969.891	80.52
970.256	264.64
970.62	168.39
970.985	273.12
971.349	504.72
971.714	524.46
972.078	493.44
972.442	258.98
972.806	569.55
973.17	222.19
973.534	312.72
973.898	340.98
974.262	151.39
974.625	774.96
974.989	239.17
975.353	724.36
975.716	479.34
976.08	227.85
976.443	86.19
976.806	383.36
977.17	501.9
977.533	307.06
977.896	174.05
978.259	199.54
978.622	2269.29
978.985	583.64
979.348	287.27
979.711	227.85
980.073	284.44
980.436	372.07
980.799	324.02
981.161	459.59
981.524	145.72
981.886	179.72
982.248	332.5
982.611	425.72
982.973	142.89
983.335	202.37
983.697	230.68
984.059	335.33
984.421	193.88
984.783	216.53
985.145	292.92
985.506	171.22
985.868	273.12
986.23	219.36
986.591	185.38
986.953	434.19
987.314	37.96
987.675	-18.81
988.037	50299.72
988.398	1005.02
988.759	397.49
989.12	431.37
989.481	482.16
989.842	563.92
990.203	151.39
990.564	123.05
990.924	451.12
991.285	59948.08
991.646	850.78
992.006	86.19
992.367	400.31
992.727	451.12
993.087	225.02
993.448	176.88
993.808	131.55
994.168	57.83
994.528	66.34
994.888	349.46
995.248	448.3
995.608	244.83
995.967	236.34
996.327	134.39
996.687	326.85
997.046	154.22
997.406	148.55
997.765	117.38
998.125	134.39
998.484	20.94
998.843	977
999.202	394.66
999.561	171.22
999.92	123.05
1000.279	270.3
1000.638	46.48
1000.997	225.02
1001.356	185.38
1001.715	32.29
1002.073	219.36
1002.432	552.65
1002.79	134.39
1003.149	1.06
1003.507	507.54
1003.865	108.87
1004.224	292.92
1004.582	394.66
1004.94	642.78
1005.298	117.38
1005.656	216.53
1006.014	258.98
1006.371	174.05
1006.729	26.61
1007.087	1089.01
1007.445	479.34
1007.802	360.76
1008.16	74.85
1008.517	335.33
1008.874	425.72
1009.232	159.89
1009.589	2517.01
1009.946	352.29
1010.303	125.88
1010.66	448.3
1011.017	360.76
1011.374	774.96
1011.731	292.92
1012.087	162.72
1012.444	142.89
1012.801	213.7
1013.157	103.2
1013.513	-52.9
1013.87	176.88
1014.226	233.51
1014.582	270.3
1014.939	191.05
1015.295	244.83
1015.651	57.83
1016.007	74.85
1016.363	715.93
1016.719	111.71
1017.074	453.95
1017.43	128.72
1017.786	431.37
1018.141	188.21
1018.497	208.03
1018.852	343.81
1019.208	510.36
1019.563	134.39
1019.918	216.53
1020.273	256.15
1020.628	222.19
1020.983	766.53
1021.338	174.05
1021.693	383.36
1022.048	57.83
1022.403	57.83
1022.757	315.54
1023.112	188.21
1023.467	151.39
1023.821	66.34
1024.175	162.72
1024.53	72.01
1024.884	125.88
1025.238	176.88
1025.592	366.42
1025.946	91.86
1026.3	86.19
1026.654	32.29
1027.008	12.42
1027.362	250.49
1027.716	247.66
1028.069	216.53
1028.423	236.34
1028.777	117.38
1029.13	208.03
1029.483	1035.83
1029.837	468.05
1030.19	134.39
1030.543	74.85
1030.896	69.17
1031.249	338.16
1031.602	29.45
1031.955	219.36
1032.308	369.24
1032.661	682.17
1033.013	106.04
1033.366	40.8
1033.719	188.21
1034.071	63.5
1034.424	125.88
1034.776	40.8
1035.128	148.55
1035.48	40.8
1035.833	718.74
1036.185	264.64
1036.537	264.64
1036.889	264.64
