Data from BCF12_new_3_FLMS019251_17-02-36-650.txt Node
Date: Wed Jun 12 17:02:36 CEST 2019
User: luk
Spectrometer: FLMS01925
Trigger mode: 0
Integration Time (sec): 3.186800E-1
Scans to average: 10
Electric dark correction enabled: true
Nonlinearity correction enabled: true
Boxcar width: 0
XAxis mode: Wavelengths
Number of Pixels in Spectrum: 2048
>>>>>Begin Spectral Data<<<<<
187.103	-119.86
187.574	-119.86
188.045	-119.86
188.516	-139.48
188.987	-99.39
189.458	-102.23
189.929	-119.29
190.4	-111.04
190.871	-84.6
191.342	-87.45
191.813	-64.14
192.284	-29.48
192.754	-55.33
193.225	-5.91
193.696	23.33
194.166	74.4
194.637	82.06
195.107	88.3
195.578	98.51
196.048	162.28
196.518	129.69
196.989	167.09
197.459	180.97
197.929	213.25
198.399	315.67
198.869	252.31
199.339	257.69
199.809	306.9
200.279	339.98
200.749	315.1
201.219	319.34
201.689	329.52
202.159	350.72
202.628	339.13
203.098	381.23
203.568	360.32
204.037	376.43
204.507	367.67
204.976	358.35
205.445	374.45
205.915	390.27
206.384	388.01
206.853	359.48
207.323	388.29
207.792	383.21
208.261	391.96
208.73	354.11
209.199	388.85
209.668	372.19
210.137	347.89
210.606	366.82
211.075	367.1
211.543	374.73
212.012	346.76
212.481	347.04
212.95	352.13
213.418	385.75
213.887	344.78
214.355	354.39
214.824	327.82
215.292	307.19
215.76	319.06
216.229	360.61
216.697	340.54
217.165	328.11
217.633	322.45
218.101	353.54
218.569	435.44
219.037	372.75
219.505	404.67
219.973	332.91
220.441	324.43
220.909	318.78
221.377	337.43
221.844	359.76
222.312	354.11
222.78	326.98
223.247	353.26
223.715	325
224.182	324.43
224.65	338.56
225.117	367.1
225.584	326.98
226.052	291.92
226.519	347.61
226.986	339.69
227.453	333.48
227.92	364.84
228.387	350.43
228.854	357.78
229.321	316.52
229.788	345.06
230.255	358.63
230.722	370.49
231.189	358.35
231.655	376.99
232.122	331.5
232.589	333.19
233.055	318.49
233.522	391.96
233.988	316.23
234.454	363.15
234.921	361.74
235.387	368.23
235.853	359.76
236.32	343.93
236.786	345.06
237.252	345.06
237.718	382.36
238.184	346.76
238.65	336.3
239.116	353.26
239.582	375.58
240.047	343.93
240.513	363.15
240.979	359.19
241.445	341.67
241.91	349.02
242.376	334.04
242.841	371.06
243.307	353.54
243.772	340.83
244.238	324.43
244.703	342.52
245.168	328.11
245.633	329.52
246.099	332.35
246.564	372.75
247.029	339.69
247.494	322.17
247.959	326.13
248.424	342.52
248.889	325.84
249.353	400.43
249.818	360.61
250.283	359.76
250.748	357.5
251.212	390.55
251.677	355.52
252.141	343.09
252.606	375.58
253.07	338.56
253.535	334.61
253.999	328.95
254.463	347.32
254.927	324.71
255.392	335.46
255.856	364.56
256.32	356.65
256.784	346.48
257.248	369.65
257.712	374.17
258.176	412.29
258.64	338
259.103	356.37
259.567	311.14
260.031	325
260.495	373.6
260.958	376.99
261.422	343.09
261.885	355.24
262.349	352.41
262.812	339.41
263.275	350.43
263.739	349.3
264.202	388.01
264.665	336.02
265.128	373.88
265.591	379.53
266.054	342.24
266.517	389.7
266.98	348.46
267.443	339.69
267.906	330.65
268.369	332.63
268.832	393.37
269.294	347.32
269.757	357.22
270.22	356.65
270.682	364.28
271.145	347.89
271.607	349.87
272.07	441.65
272.532	330.37
272.994	394.79
273.456	369.36
273.919	577.57
274.381	347.04
274.843	388.01
275.305	373.88
275.767	362.87
276.229	373.6
276.691	389.42
277.153	345.35
277.614	378.4
278.076	335.46
278.538	372.47
279	395.63
279.461	360.89
279.923	504.85
280.384	353.26
280.846	358.91
281.307	367.67
281.769	375.3
282.23	373.04
282.691	394.5
283.152	342.24
283.613	364
284.075	353.26
284.536	351.85
284.997	367.39
285.458	360.61
285.918	363.43
286.379	383.49
286.84	411.16
287.301	355.52
287.762	335.46
288.222	358.06
288.683	359.48
289.143	350.72
289.604	345.35
290.064	350.72
290.525	356.08
290.985	426.97
291.445	372.47
291.906	397.89
292.366	367.95
292.826	345.63
293.286	364.28
293.746	352.13
294.206	373.6
294.666	347.61
295.126	368.52
295.586	350.43
296.046	355.8
296.506	367.1
296.965	357.5
297.425	355.52
297.884	395.07
298.344	349.87
298.804	385.47
299.263	360.04
299.722	359.19
300.182	359.19
300.641	339.41
301.1	361.45
301.559	363.71
302.019	362.87
302.478	371.62
302.937	346.19
303.396	359.19
303.855	432.9
304.314	381.23
304.772	503.15
305.231	331.78
305.69	364.56
306.149	388.01
306.607	341.67
307.066	382.36
307.524	405.52
307.983	375.01
308.441	391.96
308.9	404.1
309.358	367.39
309.816	428.67
310.275	384.62
310.733	372.75
311.191	372.47
311.649	425.56
312.107	380.1
312.565	358.35
313.023	371.91
313.481	376.71
313.939	377.84
314.397	374.73
314.854	356.08
315.312	389.42
315.77	359.76
316.227	356.08
316.685	378.97
317.142	352.41
317.6	425.56
318.057	379.25
318.514	365.69
318.972	389.7
319.429	395.92
319.886	383.77
320.343	366.54
320.8	363.15
321.257	354.11
321.714	402.13
322.171	448.14
322.628	384.9
323.085	361.74
323.542	370.78
323.998	350.15
324.455	373.04
324.912	365.41
325.368	374.45
325.825	445.6
326.281	371.91
326.738	398.17
327.194	355.52
327.65	390.55
328.107	357.5
328.563	363.71
329.019	402.13
329.475	362.02
329.931	395.63
330.387	393.94
330.843	381.51
331.299	385.75
331.755	353.26
332.211	367.1
332.666	366.54
333.122	372.75
333.578	391.68
334.033	341.67
334.489	395.07
334.944	358.06
335.4	430.08
335.855	385.75
336.31	371.06
336.766	365.69
337.221	356.37
337.676	356.08
338.131	375.3
338.586	420.2
339.041	378.4
339.496	419.35
339.951	354.67
340.406	365.41
340.861	376.14
341.316	379.53
341.771	373.6
342.225	362.02
342.68	371.91
343.134	375.01
343.589	398.74
344.043	383.77
344.498	390.83
344.952	368.23
345.406	610.8
345.861	356.93
346.315	354.39
346.769	378.12
347.223	383.77
347.677	349.59
348.131	383.21
348.585	357.22
349.039	372.75
349.493	358.91
349.947	371.91
350.401	376.43
350.854	349.59
351.308	443.06
351.762	376.14
352.215	406.36
352.669	369.93
353.122	366.54
353.575	376.99
354.029	376.99
354.482	385.47
354.935	387.73
355.388	393.66
355.842	418.22
356.295	398.17
356.748	367.67
357.201	358.63
357.654	375.01
358.106	359.48
358.559	336.87
359.012	339.69
359.465	372.47
359.917	392.81
360.37	371.62
360.823	387.44
361.275	395.07
361.728	381.23
362.18	399.3
362.632	402.13
363.085	362.87
363.537	382.08
363.989	390.27
364.441	384.62
364.893	353.26
365.345	404.95
365.797	372.47
366.249	390.83
366.701	352.69
367.153	356.93
367.605	366.82
368.057	382.36
368.508	354.67
368.96	376.14
369.411	386.6
369.863	372.47
370.314	392.53
370.766	403.82
371.217	408.06
371.669	406.93
372.12	419.35
372.571	397.05
373.022	344.5
373.473	395.35
373.924	393.37
374.375	381.79
374.826	404.1
375.277	381.51
375.728	352.41
376.179	388.01
376.63	354.67
377.08	393.66
377.531	369.36
377.981	347.89
378.432	408.06
378.883	426.97
379.333	385.75
379.783	364.28
380.234	370.21
380.684	349.59
381.134	426.69
381.584	377.27
382.034	409.47
382.485	360.32
382.935	361.45
383.385	426.41
383.834	357.5
384.284	371.91
384.734	364.84
385.184	394.5
385.634	367.39
386.083	400.43
386.533	378.97
386.982	390.55
387.432	401.28
387.881	359.48
388.331	371.62
388.78	402.41
389.229	395.07
389.679	339.41
390.128	378.97
390.577	372.47
391.026	371.62
391.475	360.32
391.924	364.56
392.373	345.06
392.822	375.3
393.27	377.56
393.719	387.16
394.168	388.57
394.617	362.87
395.065	338.28
395.514	416.53
395.962	384.9
396.411	385.75
396.859	373.04
397.307	432.06
397.756	381.79
398.204	390.27
398.652	420.48
399.1	385.47
399.548	375.86
399.996	418.5
400.444	406.36
400.892	356.08
401.34	381.51
401.788	394.5
402.236	361.74
402.683	372.19
403.131	404.67
403.579	390.27
404.026	371.62
404.474	371.91
404.921	347.32
405.369	367.1
405.816	371.34
406.263	381.51
406.71	401.28
407.158	365.97
407.605	369.08
408.052	361.45
408.499	412.29
408.946	373.88
409.393	371.06
409.84	376.71
410.286	376.99
410.733	392.24
411.18	373.88
411.626	387.73
412.073	407.49
412.52	401
412.966	430.08
413.413	384.05
413.859	401.85
414.305	365.13
414.752	384.34
415.198	350.43
415.644	371.34
416.09	390.27
416.536	413.99
416.982	395.92
417.428	393.37
417.874	377.84
418.32	370.78
418.766	386.31
419.211	374.17
419.657	373.04
420.103	387.44
420.548	381.23
420.994	405.23
421.439	372.47
421.885	367.39
422.33	376.99
422.776	404.1
423.221	416.25
423.666	391.96
424.111	379.82
424.556	436.01
425.001	394.5
425.446	336.87
425.891	403.82
426.336	391.4
426.781	483.41
427.226	375.01
427.671	409.19
428.115	381.23
428.56	402.69
429.005	470.43
429.449	413.71
429.894	419.35
430.338	469.87
430.782	384.34
431.227	411.73
431.671	410.03
432.115	396.2
432.559	375.3
433.003	446.17
433.447	416.25
433.891	399.02
434.335	408.62
434.779	384.62
435.223	391.11
435.667	415.4
436.111	465.92
436.554	399.3
436.998	413.71
437.442	397.61
437.885	415.96
438.328	399.59
438.772	400.43
439.215	411.16
439.659	403.26
440.102	383.21
440.545	406.93
440.988	382.92
441.431	422.17
441.874	386.03
442.317	384.05
442.76	406.93
443.203	416.25
443.646	432.34
444.089	403.26
444.531	422.17
444.974	414.83
445.417	425
445.859	432.34
446.302	434.88
446.744	409.19
447.186	425.56
447.629	412.86
448.071	379.82
448.513	416.53
448.956	394.79
449.398	411.16
449.84	410.6
450.282	403.82
450.724	393.37
451.166	381.51
451.607	463.38
452.049	415.4
452.491	396.2
452.933	394.22
453.374	455.76
453.816	435.44
454.257	415.12
454.699	430.08
455.14	432.62
455.582	458.3
456.023	424.15
456.464	398.46
456.905	426.69
457.347	460
457.788	414.83
458.229	420.48
458.67	399.59
459.111	394.79
459.552	432.06
459.992	418.79
460.433	429.23
460.874	395.92
461.315	419.07
461.755	421.05
462.196	398.46
462.636	401
463.077	416.25
463.517	436.01
463.957	389.98
464.398	385.75
464.838	417.66
465.278	401.56
465.718	407.78
466.158	408.34
466.598	408.06
467.038	408.91
467.478	415.96
467.918	394.5
468.358	424.43
468.798	428.67
469.237	375.01
469.677	393.37
470.117	419.35
470.556	398.46
470.996	430.93
471.435	350.15
471.874	389.7
472.314	409.75
472.753	398.74
473.192	390.83
473.631	397.05
474.07	386.6
474.509	408.91
474.948	402.69
475.387	376.99
475.826	428.1
476.265	413.99
476.704	405.8
477.143	415.68
477.581	462.25
478.02	407.21
478.458	422.46
478.897	437.14
479.335	417.66
479.774	421.33
480.212	411.73
480.65	430.36
481.089	405.52
481.527	396.48
481.965	413.42
482.403	389.98
482.841	394.5
483.279	434.88
483.717	408.91
484.155	401.85
484.592	438.55
485.03	431.21
485.468	395.07
485.905	414.27
486.343	421.61
486.781	417.66
487.218	409.47
487.655	398.74
488.093	383.77
488.53	373.32
488.967	404.95
489.405	417.09
489.842	429.51
490.279	458.02
490.716	435.72
491.153	412.58
491.59	394.5
492.027	422.46
492.463	404.39
492.9	426.13
493.337	423.59
493.773	413.14
494.21	381.23
494.647	413.99
495.083	419.92
495.519	409.75
495.956	426.69
496.392	434.6
496.828	425.28
497.265	380.66
497.701	394.5
498.137	399.59
498.573	388.29
499.009	451.53
499.445	407.21
499.881	411.45
500.316	396.76
500.752	373.6
501.188	408.34
501.624	397.05
502.059	396.48
502.495	402.41
502.93	396.2
503.366	811.6
503.801	407.78
504.236	372.47
504.672	439.68
505.107	402.13
505.542	420.76
505.977	387.73
506.412	415.68
506.847	412.86
507.282	394.5
507.717	402.69
508.152	427.54
508.587	412.01
509.021	395.92
509.456	415.4
509.891	401.85
510.325	384.05
510.76	402.13
511.194	391.4
511.628	367.1
512.063	418.5
512.497	382.92
512.931	379.82
513.366	390.27
513.8	386.03
514.234	423.59
514.668	411.45
515.102	373.88
515.536	375.86
515.969	430.64
516.403	386.03
516.837	414.27
517.271	432.34
517.704	404.1
518.138	434.6
518.571	371.91
519.005	420.2
519.438	380.95
519.871	414.83
520.305	415.12
520.738	402.13
521.171	408.06
521.604	434.03
522.037	427.82
522.47	443.91
522.903	397.33
523.336	378.97
523.769	404.39
524.202	420.76
524.634	396.48
525.067	382.36
525.5	372.47
525.932	420.76
526.365	437.42
526.797	408.62
527.23	374.17
527.662	393.94
528.094	426.13
528.527	398.17
528.959	388.85
529.391	420.48
529.823	420.48
530.255	387.44
530.687	396.76
531.119	391.96
531.551	405.52
531.982	381.23
532.414	383.21
532.846	414.55
533.277	362.87
533.709	391.4
534.14	379.25
534.572	397.89
535.003	368.8
535.435	401.85
535.866	404.39
536.297	375.86
536.728	421.89
537.159	397.33
537.59	397.89
538.022	394.22
538.452	445.32
538.883	427.82
539.314	416.25
539.745	381.23
540.176	403.54
540.606	383.49
541.037	410.88
541.468	391.96
541.898	404.95
542.328	407.49
542.759	420.76
543.189	401.56
543.619	383.49
544.05	430.08
544.48	400.72
544.91	421.05
545.34	411.16
545.77	396.48
546.2	408.91
546.63	459.71
547.06	421.05
547.489	447.58
547.919	399.59
548.349	417.66
548.778	415.4
549.208	402.69
549.637	383.77
550.067	428.95
550.496	390.27
550.926	376.71
551.355	360.04
551.784	372.47
552.213	413.71
552.642	377.56
553.071	388.01
553.5	394.22
553.929	386.88
554.358	394.79
554.787	419.07
555.216	394.22
555.645	356.93
556.073	371.91
556.502	391.4
556.93	376.71
557.359	365.41
557.787	360.61
558.216	376.99
558.644	371.06
559.072	364.56
559.5	384.34
559.929	381.51
560.357	411.73
560.785	399.02
561.213	424.15
561.641	399.3
562.068	415.4
562.496	368.8
562.924	376.71
563.352	377.27
563.779	363.43
564.207	414.83
564.634	376.99
565.062	408.06
565.489	402.69
565.917	391.11
566.344	373.6
566.771	365.41
567.198	401.56
567.625	362.02
568.053	363.43
568.48	384.9
568.907	379.25
569.333	381.23
569.76	406.08
570.187	367.39
570.614	390.83
571.04	6289.54
571.467	532.2
571.894	402.98
572.32	386.6
572.747	411.73
573.173	402.69
573.599	416.25
574.026	433.75
574.452	417.66
574.878	402.69
575.304	383.21
575.73	390.55
576.156	397.33
576.582	365.97
577.008	383.49
577.434	384.62
577.86	386.88
578.285	356.93
578.711	355.8
579.137	397.61
579.562	387.73
579.988	373.04
580.413	412.86
580.838	380.95
581.264	365.97
581.689	393.37
582.114	405.52
582.539	1058.91
582.964	419.07
583.39	397.89
583.814	385.75
584.239	376.99
584.664	363.71
585.089	383.21
585.514	435.44
585.939	391.96
586.363	391.96
586.788	398.17
587.212	365.69
587.637	368.52
588.061	398.46
588.485	376.99
588.91	381.79
589.334	353.54
589.758	409.75
590.182	406.93
590.606	398.74
591.03	412.29
591.454	400.43
591.878	402.98
592.302	397.05
592.726	395.35
593.15	405.23
593.573	369.93
593.997	420.2
594.42	384.62
594.844	395.92
595.267	392.24
595.691	401
596.114	383.77
596.537	404.95
596.96	419.07
597.384	374.45
597.807	357.22
598.23	431.49
598.653	404.95
599.076	375.86
599.499	395.92
599.921	392.24
600.344	378.97
600.767	386.88
601.189	400.43
601.612	376.43
602.034	362.3
602.457	398.46
602.879	510.2
603.302	385.47
603.724	396.48
604.146	386.6
604.568	398.17
604.991	383.21
605.413	382.36
605.835	415.12
606.257	395.63
606.678	358.63
607.1	399.87
607.522	356.08
607.944	448.14
608.365	408.62
608.787	366.82
609.209	455.76
609.63	357.5
610.051	383.21
610.473	377.27
610.894	380.66
611.315	394.79
611.737	458.58
612.158	401.28
612.579	387.16
613	465.36
613.421	374.17
613.842	407.78
614.263	389.7
614.683	401.56
615.104	382.64
615.525	418.22
615.945	396.76
616.366	377.56
616.787	371.91
617.207	371.06
617.627	378.97
618.048	363.43
618.468	373.88
618.888	371.06
619.308	360.61
619.728	412.01
620.148	374.73
620.568	430.36
620.988	433.47
621.408	382.92
621.828	362.58
622.248	375.86
622.668	395.63
623.087	400.43
623.507	379.82
623.926	372.19
624.346	375.58
624.765	407.78
625.185	360.89
625.604	373.04
626.023	388.85
626.442	354.11
626.861	410.6
627.28	373.04
627.699	361.74
628.118	401.28
628.537	402.98
628.956	398.74
629.375	382.92
629.794	380.1
630.212	392.81
630.631	378.97
631.049	380.95
631.468	400.72
631.886	391.4
632.305	380.38
632.723	354.39
633.141	376.71
633.559	351
633.978	353.54
634.396	405.8
634.814	415.12
635.232	376.71
635.65	387.16
636.067	391.96
636.485	399.59
636.903	366.54
637.321	358.63
637.738	417.09
638.156	405.52
638.573	365.97
638.991	460.28
639.408	461.41
639.825	360.04
640.243	405.52
640.66	383.77
641.077	369.08
641.494	395.07
641.911	420.48
642.328	414.83
642.745	384.34
643.162	411.73
643.579	394.22
643.995	371.62
644.412	439.68
644.829	366.82
645.245	357.22
645.662	346.19
646.078	360.32
646.495	378.12
646.911	386.03
647.327	416.53
647.743	389.42
648.159	391.96
648.576	349.87
648.992	397.61
649.408	378.69
649.824	384.05
650.239	349.3
650.655	384.05
651.071	387.73
651.487	388.29
651.902	387.73
652.318	370.49
652.733	380.66
653.149	382.92
653.564	357.5
653.979	376.14
654.395	383.49
654.81	394.79
655.225	365.41
655.64	395.07
656.055	363.71
656.47	363.71
656.885	365.13
657.3	374.45
657.715	434.03
658.13	373.88
658.544	407.21
658.959	386.31
659.374	363.15
659.788	390.83
660.202	363.15
660.617	418.79
661.031	391.4
661.445	394.79
661.86	354.11
662.274	397.61
662.688	415.4
663.102	373.04
663.516	422.74
663.93	368.52
664.344	426.13
664.758	389.7
665.171	356.65
665.585	378.12
665.999	380.95
666.412	386.6
666.826	407.21
667.239	420.76
667.653	388.85
668.066	376.14
668.479	369.65
668.892	375.3
669.306	381.51
669.719	368.8
670.132	384.34
670.545	354.95
670.958	394.79
671.37	356.65
671.783	368.23
672.196	391.96
672.609	378.4
673.021	383.21
673.434	361.74
673.846	391.96
674.259	363.43
674.671	334.04
675.084	369.93
675.496	375.86
675.908	376.14
676.32	356.37
676.732	403.54
677.144	394.5
677.556	372.75
677.968	375.3
678.38	387.44
678.792	381.23
679.204	376.99
679.615	396.2
680.027	384.9
680.439	346.48
680.85	406.08
681.262	426.69
681.673	361.45
682.084	380.66
682.496	399.87
682.907	401.85
683.318	376.99
683.729	365.13
684.14	382.64
684.551	357.78
684.962	370.49
685.373	360.04
685.784	409.75
686.194	394.22
686.605	383.21
687.016	389.98
687.426	376.71
687.837	401.28
688.247	358.91
688.657	354.67
689.068	370.49
689.478	371.91
689.888	360.32
690.298	367.95
690.708	349.59
691.118	375.86
691.528	388.01
691.938	382.92
692.348	378.4
692.758	398.74
693.168	383.77
693.577	414.83
693.987	397.05
694.396	396.76
694.806	359.48
695.215	373.04
695.625	365.69
696.034	406.36
696.443	376.43
696.852	409.19
697.262	391.11
697.671	341.96
698.08	394.22
698.489	373.6
698.897	361.17
699.306	363.71
699.715	395.92
700.124	455.2
700.532	371.62
700.941	351.56
701.35	378.97
701.758	399.02
702.166	338.28
702.575	379.53
702.983	376.43
703.391	368.52
703.799	402.98
704.208	375.58
704.616	363.43
705.024	406.36
705.432	372.47
705.839	348.17
706.247	416.53
706.655	415.4
707.063	354.11
707.47	355.52
707.878	376.99
708.285	378.69
708.693	386.31
709.1	367.1
709.508	338
709.915	362.02
710.322	392.81
710.729	458.58
711.136	389.14
711.543	370.78
711.95	384.9
712.357	410.03
712.764	381.79
713.171	386.88
713.578	360.04
713.984	376.43
714.391	367.67
714.797	364
715.204	344.78
715.61	389.42
716.017	359.76
716.423	393.94
716.829	372.47
717.236	395.92
717.642	367.67
718.048	414.55
718.454	406.36
718.86	343.65
719.266	454.63
719.671	373.88
720.077	366.82
720.483	366.26
720.889	393.09
721.294	359.48
721.7	377.27
722.105	380.66
722.511	360.89
722.916	414.55
723.321	358.35
723.726	408.06
724.132	379.25
724.537	382.92
724.942	386.31
725.347	391.68
725.752	370.78
726.156	389.42
726.561	391.96
726.966	387.44
727.371	412.86
727.775	371.06
728.18	372.47
728.584	349.02
728.989	345.91
729.393	438.27
729.798	402.98
730.202	376.99
730.606	388.57
731.01	361.74
731.414	377.84
731.818	359.48
732.222	410.6
732.626	381.23
733.03	375.58
733.434	377.27
733.837	382.36
734.241	368.52
734.645	376.14
735.048	386.88
735.452	391.4
735.855	384.05
736.258	378.4
736.662	414.27
737.065	415.12
737.468	378.69
737.871	373.32
738.274	381.23
738.677	376.71
739.08	359.48
739.483	389.98
739.886	374.73
740.289	387.44
740.691	366.54
741.094	348.46
741.497	369.65
741.899	410.6
742.302	348.17
742.704	339.13
743.106	367.1
743.508	361.17
743.911	399.59
744.313	384.05
744.715	386.03
745.117	366.26
745.519	381.23
745.921	379.25
746.323	368.23
746.724	367.67
747.126	376.43
747.528	417.94
747.929	336.02
748.331	384.62
748.732	365.97
749.134	402.69
749.535	362.02
749.936	401
750.338	377.27
750.739	410.32
751.14	362.02
751.541	354.95
751.942	389.98
752.343	386.03
752.744	379.82
753.144	341.96
753.545	379.25
753.946	386.6
754.346	378.12
754.747	425
755.148	476.64
755.548	373.04
755.948	344.78
756.349	380.95
756.749	411.45
757.149	368.23
757.549	395.07
757.949	374.17
758.349	366.82
758.749	387.73
759.149	339.13
759.549	367.67
759.949	357.78
760.348	432.62
760.748	370.21
761.148	358.63
761.547	342.52
761.947	353.82
762.346	386.03
762.745	395.07
763.145	394.5
763.544	373.04
763.943	372.19
764.342	354.39
764.741	357.78
765.14	370.49
765.539	368.52
765.938	433.18
766.336	338
766.735	347.61
767.134	376.71
767.532	345.91
767.931	338
768.329	426.41
768.728	390.55
769.126	399.87
769.525	421.33
769.923	365.97
770.321	388.57
770.719	401.28
771.117	392.53
771.515	391.11
771.913	383.77
772.311	369.65
772.709	373.88
773.106	376.43
773.504	367.95
773.902	377.56
774.299	383.77
774.697	493.57
775.094	379.53
775.491	378.69
775.889	360.04
776.286	375.3
776.683	382.64
777.08	375.86
777.477	351
777.874	415.12
778.271	395.07
778.668	388.01
779.065	356.65
779.462	376.14
779.858	352.13
780.255	415.12
780.652	375.3
781.048	404.39
781.444	361.45
781.841	373.6
782.237	375.3
782.633	393.09
783.03	349.87
783.426	364.28
783.822	362.02
784.218	389.98
784.614	343.37
785.01	360.32
785.405	369.65
785.801	378.12
786.197	386.6
786.593	364.28
786.988	401.28
787.384	393.09
787.779	361.45
788.174	366.54
788.57	386.88
788.965	380.1
789.36	371.62
789.755	356.93
790.15	378.12
790.545	376.43
790.94	367.67
791.335	334.04
791.73	349.87
792.125	412.29
792.52	389.42
792.914	412.01
793.309	340.83
793.703	399.02
794.098	336.3
794.492	399.3
794.887	356.37
795.281	447.86
795.675	449.84
796.069	416.25
796.463	339.13
796.857	359.76
797.251	366.82
797.645	375.86
798.039	352.69
798.433	372.47
798.826	362.02
799.22	375.01
799.614	396.2
800.007	399.02
800.401	388.29
800.794	358.91
801.187	385.47
801.581	370.78
801.974	380.1
802.367	413.14
802.76	370.78
803.153	349.02
803.546	372.19
803.939	380.1
804.332	360.89
804.725	326.13
805.117	369.93
805.51	415.12
805.903	375.58
806.295	349.3
806.688	371.06
807.08	357.78
807.472	395.35
807.865	368.8
808.257	378.12
808.649	395.35
809.041	390.27
809.433	370.78
809.825	386.6
810.217	388.85
810.609	411.73
811.001	376.43
811.392	374.17
811.784	393.94
812.175	386.88
812.567	352.98
812.958	379.82
813.35	374.45
813.741	359.48
814.132	387.73
814.524	372.19
814.915	350.72
815.306	344.78
815.697	398.74
816.088	383.49
816.479	396.76
816.87	378.69
817.26	366.26
817.651	422.17
818.042	400.15
818.432	384.05
818.823	394.22
819.213	392.53
819.604	371.91
819.994	380.95
820.384	355.8
820.775	387.44
821.165	372.75
821.555	356.65
821.945	375.3
822.335	354.11
822.725	384.9
823.114	361.74
823.504	386.88
823.894	367.39
824.284	366.82
824.673	382.64
825.063	396.2
825.452	355.8
825.842	365.41
826.231	427.26
826.62	362.87
827.009	381.23
827.399	403.82
827.788	352.41
828.177	373.32
828.566	398.74
828.954	444.19
829.343	386.88
829.732	366.54
830.121	469.87
830.509	427.54
830.898	381.51
831.286	383.21
831.675	390.55
832.063	383.21
832.452	353.26
832.84	362.3
833.228	378.4
833.616	367.95
834.004	382.92
834.392	381.79
834.78	371.34
835.168	370.49
835.556	400.15
835.944	377.84
836.331	415.68
836.719	400.15
837.107	401.28
837.494	417.38
837.881	338
838.269	358.35
838.656	356.37
839.043	338
839.431	438.27
839.818	361.45
840.205	358.06
840.592	400.72
840.979	368.52
841.366	368.52
841.752	372.75
842.139	383.21
842.526	393.09
842.912	380.95
843.299	374.73
843.685	378.12
844.072	387.44
844.458	387.44
844.844	385.47
845.231	352.13
845.617	356.37
846.003	400.72
846.389	359.48
846.775	384.34
847.161	370.78
847.547	353.26
847.933	372.75
848.318	356.08
848.704	354.67
849.09	358.06
849.475	382.36
849.861	407.78
850.246	385.18
850.631	417.09
851.017	386.88
851.402	367.67
851.787	379.82
852.172	406.65
852.557	402.69
852.942	378.4
853.327	381.51
853.712	376.14
854.097	378.12
854.481	371.91
854.866	405.8
855.25	363.15
855.635	400.72
856.019	365.69
856.404	393.09
856.788	382.64
857.172	373.32
857.557	326.13
857.941	376.14
858.325	387.73
858.709	374.17
859.093	365.41
859.477	394.5
859.86	403.54
860.244	354.39
860.628	411.45
861.012	372.47
861.395	372.19
861.779	373.32
862.162	356.65
862.545	368.23
862.929	371.91
863.312	398.17
863.695	362.58
864.078	345.91
864.461	362.87
864.844	399.02
865.227	437.98
865.61	349.59
865.993	355.8
866.376	361.45
866.758	395.92
867.141	391.11
867.523	380.95
867.906	341.39
868.288	383.21
868.671	376.71
869.053	352.13
869.435	376.99
869.817	384.62
870.199	373.88
870.581	349.3
870.963	373.04
871.345	391.96
871.727	363.15
872.109	383.21
872.491	392.24
872.872	387.44
873.254	383.49
873.635	365.13
874.017	419.63
874.398	355.8
874.779	376.14
875.161	384.9
875.542	400.43
875.923	350.72
876.304	338.28
876.685	357.78
877.066	380.1
877.447	358.91
877.828	365.69
878.208	380.38
878.589	369.36
878.97	405.23
879.35	358.63
879.731	362.3
880.111	353.54
880.491	373.6
880.872	380.1
881.252	375.86
881.632	354.67
882.012	390.55
882.392	409.19
882.772	399.59
883.152	368.23
883.532	372.19
883.912	379.82
884.291	382.08
884.671	369.93
885.051	385.75
885.43	372.47
885.81	368.8
886.189	382.64
886.568	360.32
886.948	364.84
887.327	409.75
887.706	372.75
888.085	418.5
888.464	376.71
888.843	439.96
889.222	392.53
889.601	385.18
889.979	365.41
890.358	363.71
890.737	373.6
891.115	352.98
891.494	362.58
891.872	361.45
892.25	340.83
892.629	412.29
893.007	425
893.385	371.06
893.763	367.39
894.141	406.36
894.519	399.3
894.897	366.54
895.275	369.08
895.653	359.48
896.03	379.82
896.408	394.5
896.786	367.1
897.163	365.69
897.541	367.39
897.918	403.54
898.295	360.04
898.673	367.39
899.05	359.76
899.427	546.85
899.804	337.43
900.181	368.23
900.558	375.01
900.935	388.85
901.312	346.76
901.688	373.32
902.065	373.32
902.442	366.82
902.818	384.9
903.195	368.8
903.571	352.69
903.947	368.23
904.324	373.88
904.7	388.85
905.076	419.07
905.452	373.04
905.828	430.08
906.204	369.36
906.58	340.83
906.956	356.08
907.331	404.95
907.707	372.47
908.083	405.23
908.458	382.08
908.834	386.31
909.209	382.64
909.585	390.55
909.96	372.47
910.335	377.27
910.71	349.02
911.086	375.58
911.461	402.98
911.836	363.43
912.21	373.88
912.585	379.82
912.96	356.65
913.335	371.34
913.709	378.4
914.084	335.74
914.459	410.88
914.833	388.85
915.207	387.73
915.582	342.52
915.956	357.22
916.33	374.73
916.704	341.67
917.078	351.28
917.452	396.2
917.826	348.17
918.2	341.67
918.574	385.75
918.948	362.58
919.321	365.41
919.695	359.76
920.068	388.01
920.442	364
920.815	374.73
921.189	371.91
921.562	403.82
921.935	389.14
922.308	360.61
922.681	380.38
923.054	375.58
923.427	375.3
923.8	357.22
924.173	383.21
924.546	362.3
924.919	372.75
925.291	374.45
925.664	361.74
926.036	360.32
926.409	374.17
926.781	368.8
927.153	386.31
927.526	382.08
927.898	376.43
928.27	339.13
928.642	341.11
929.014	382.92
929.386	388.57
929.758	335.46
930.129	378.97
930.501	413.14
930.873	371.62
931.244	396.2
931.616	360.04
931.987	349.87
932.359	403.26
932.73	393.94
933.101	386.31
933.472	349.59
933.843	384.34
934.214	389.98
934.585	365.41
934.956	346.19
935.327	437.98
935.698	356.08
936.069	384.05
936.439	411.16
936.81	355.8
937.18	379.53
937.551	377.27
937.921	420.48
938.292	397.89
938.662	385.18
939.032	362.3
939.402	351.28
939.772	395.63
940.142	373.32
940.512	360.32
940.882	368.52
941.252	375.01
941.621	369.65
941.991	358.91
942.361	384.05
942.73	378.69
943.1	369.36
943.469	362.3
943.838	423.59
944.208	410.88
944.577	369.36
944.946	397.05
945.315	366.26
945.684	370.21
946.053	373.88
946.422	369.36
946.791	361.17
947.159	391.68
947.528	346.76
947.897	395.92
948.265	362.02
948.634	370.78
949.002	380.38
949.371	355.52
949.739	370.49
950.107	393.94
950.475	389.42
950.843	389.98
951.211	404.39
951.579	399.3
951.947	354.67
952.315	352.98
952.683	400.43
953.05	370.78
953.418	400.15
953.785	357.5
954.153	339.13
954.52	369.93
954.888	399.59
955.255	344.5
955.622	380.95
955.989	387.44
956.356	403.82
956.723	352.98
957.09	398.74
957.457	385.75
957.824	339.98
958.191	358.35
958.557	393.94
958.924	359.19
959.291	370.49
959.657	362.02
960.023	452.94
960.39	392.81
960.756	393.37
961.122	381.23
961.488	376.14
961.855	369.08
962.221	353.26
962.586	371.06
962.952	423.59
963.318	355.24
963.684	418.5
964.05	411.73
964.415	379.25
964.781	345.06
965.146	388.85
965.512	430.08
965.877	392.81
966.242	380.66
966.608	393.09
966.973	367.95
967.338	386.31
967.703	395.92
968.068	348.74
968.433	404.39
968.797	442.22
969.162	387.16
969.527	355.24
969.891	375.3
970.256	379.53
970.62	396.76
970.985	369.93
971.349	373.32
971.714	390.55
972.078	349.87
972.442	397.61
972.806	370.21
973.17	383.49
973.534	365.13
973.898	388.57
974.262	366.54
974.625	394.79
974.989	362.3
975.353	405.23
975.716	405.23
976.08	356.08
976.443	369.65
976.806	376.43
977.17	364.56
977.533	377.56
977.896	356.93
978.259	362.58
978.622	478.33
978.985	384.62
979.348	372.47
979.711	365.13
980.073	367.1
980.436	394.5
980.799	371.34
981.161	390.27
981.524	382.92
981.886	370.49
982.248	364
982.611	371.62
982.973	375.58
983.335	360.89
983.697	360.32
984.059	375.86
984.421	367.95
984.783	340.83
985.145	392.81
985.506	377.56
985.868	375.58
986.23	365.41
986.591	350.15
986.953	394.5
987.314	362.02
987.675	369.93
988.037	2475.07
988.398	432.9
988.759	384.9
989.12	383.77
989.481	382.92
989.842	399.3
990.203	365.97
990.564	349.87
990.924	394.5
991.285	3542.56
991.646	404.67
992.006	363.71
992.367	382.36
992.727	364.28
993.087	376.99
993.448	378.12
993.808	366.54
994.168	364.84
994.528	362.58
994.888	397.61
995.248	369.08
995.608	373.04
995.967	370.78
996.327	378.97
996.687	348.46
997.046	350.43
997.406	352.41
997.765	371.06
998.125	346.76
998.484	338.28
998.843	418.5
999.202	356.65
999.561	360.61
999.92	367.1
1000.279	374.17
1000.638	349.02
1000.997	369.36
1001.356	354.67
1001.715	362.3
1002.073	375.58
1002.432	423.59
1002.79	366.82
1003.149	381.23
1003.507	413.99
1003.865	371.06
1004.224	362.02
1004.582	383.49
1004.94	377.56
1005.298	383.21
1005.656	357.22
1006.014	356.37
1006.371	376.99
1006.729	356.65
1007.087	390.83
1007.445	393.66
1007.802	412.58
1008.16	366.82
1008.517	381.23
1008.874	389.98
1009.232	351.28
1009.589	513.31
1009.946	393.94
1010.303	378.12
1010.66	363.43
1011.017	365.69
1011.374	412.58
1011.731	338.28
1012.087	362.87
1012.444	358.91
1012.801	378.4
1013.157	333.19
1013.513	368.8
1013.87	350.72
1014.226	376.43
1014.582	386.03
1014.939	369.08
1015.295	353.54
1015.651	367.95
1016.007	347.32
1016.363	402.98
1016.719	365.69
1017.074	375.58
1017.43	360.61
1017.786	389.42
1018.141	377.84
1018.497	373.88
1018.852	379.82
1019.208	384.9
1019.563	354.11
1019.918	361.74
1020.273	381.51
1020.628	374.73
1020.983	412.86
1021.338	372.75
1021.693	367.39
1022.048	391.4
1022.403	347.89
1022.757	390.27
1023.112	395.35
1023.467	358.35
1023.821	372.75
1024.175	367.67
1024.53	361.17
1024.884	364
1025.238	321.6
1025.592	372.47
1025.946	362.3
1026.3	360.32
1026.654	358.91
1027.008	341.11
1027.362	376.43
1027.716	382.64
1028.069	339.13
1028.423	390.27
1028.777	364.84
1029.13	368.8
1029.483	399.02
1029.837	391.11
1030.19	373.04
1030.543	366.54
1030.896	343.65
1031.249	378.4
1031.602	368.52
1031.955	366.26
1032.308	377.56
1032.661	381.79
1033.013	367.67
1033.366	351
1033.719	404.67
1034.071	347.32
1034.424	371.91
1034.776	368.23
1035.128	351.28
1035.48	358.35
1035.833	366.54
1036.185	360.32
1036.537	360.32
1036.889	360.32
