Data from BCF12_new_3_FLMS019251_16-58-48-879.txt Node
Date: Wed Jun 12 16:58:48 CEST 2019
User: luk
Spectrometer: FLMS01925
Trigger mode: 0
Integration Time (sec): 2.427000E-2
Scans to average: 10
Electric dark correction enabled: true
Nonlinearity correction enabled: true
Boxcar width: 0
XAxis mode: Wavelengths
Number of Pixels in Spectrum: 2048
>>>>>Begin Spectral Data<<<<<
187.103	-41.69
187.574	-41.69
188.045	-41.69
188.516	-120.43
188.987	-124.98
189.458	-136.64
189.929	-94.27
190.4	-82.05
190.871	-88.3
191.342	-49.93
191.813	-64.43
192.284	-49.37
192.754	-7.61
193.225	1.47
193.696	23.33
194.166	59.94
194.637	57.38
195.107	85.18
195.578	79.79
196.048	124.02
196.518	140.74
196.989	171.91
197.459	194
197.929	188.62
198.399	281.73
198.869	280.32
199.339	295.87
199.809	336.02
200.279	323.58
200.749	354.95
201.219	341.11
201.689	373.88
202.159	381.23
202.628	386.6
203.098	395.07
203.568	395.92
204.037	374.45
204.507	393.09
204.976	434.6
205.445	411.73
205.915	420.2
206.384	399.59
206.853	416.25
207.323	412.58
207.792	387.16
208.261	405.23
208.73	394.79
209.199	378.12
209.668	387.16
210.137	394.22
210.606	418.22
211.075	392.81
211.543	375.58
212.012	377.84
212.481	382.08
212.95	382.64
213.418	393.94
213.887	380.66
214.355	385.47
214.824	374.17
215.292	370.78
215.76	387.44
216.229	389.7
216.697	362.02
217.165	375.01
217.633	387.73
218.101	337.15
218.569	353.82
219.037	349.87
219.505	358.63
219.973	366.54
220.441	359.19
220.909	342.8
221.377	364.84
221.844	361.45
222.312	364
222.78	366.54
223.247	370.78
223.715	370.78
224.182	353.82
224.65	383.49
225.117	383.49
225.584	367.39
226.052	382.08
226.519	378.69
226.986	352.13
227.453	402.13
227.92	388.29
228.387	360.89
228.854	358.91
229.321	360.32
229.788	381.79
230.255	391.68
230.722	382.08
231.189	352.41
231.655	363.15
232.122	371.06
232.589	387.73
233.055	349.02
233.522	357.22
233.988	398.17
234.454	385.47
234.921	366.82
235.387	381.51
235.853	382.36
236.32	397.33
236.786	354.95
237.252	391.96
237.718	373.04
238.184	393.66
238.65	357.22
239.116	396.76
239.582	368.52
240.047	386.88
240.513	378.97
240.979	370.21
241.445	363.15
241.91	373.6
242.376	377.56
242.841	359.48
243.307	359.76
243.772	398.46
244.238	358.91
244.703	392.24
245.168	383.49
245.633	378.12
246.099	405.23
246.564	386.31
247.029	371.62
247.494	358.63
247.959	371.06
248.424	399.59
248.889	387.73
249.353	386.88
249.818	390.55
250.283	408.62
250.748	406.36
251.212	385.18
251.677	383.49
252.141	379.25
252.606	393.66
253.07	376.99
253.535	382.08
253.999	373.88
254.463	394.79
254.927	369.65
255.392	390.55
255.856	390.27
256.32	386.31
256.784	385.18
257.248	389.98
257.712	380.95
258.176	386.31
258.64	395.07
259.103	378.69
259.567	378.97
260.031	413.42
260.495	365.97
260.958	391.11
261.422	371.34
261.885	400.15
262.349	369.36
262.812	377.84
263.275	399.02
263.739	379.53
264.202	390.83
264.665	395.07
265.128	390.27
265.591	386.6
266.054	396.48
266.517	411.45
266.98	391.68
267.443	408.62
267.906	397.33
268.369	401
268.832	387.44
269.294	381.79
269.757	384.62
270.22	383.21
270.682	392.81
271.145	400.72
271.607	392.81
272.07	392.81
272.532	422.17
272.994	389.98
273.456	382.36
273.919	421.89
274.381	376.71
274.843	404.39
275.305	388.01
275.767	401.85
276.229	385.47
276.691	404.67
277.153	394.79
277.614	375.3
278.076	399.87
278.538	400.72
279	403.54
279.461	376.99
279.923	407.21
280.384	417.66
280.846	378.12
281.307	431.21
281.769	419.07
282.23	398.74
282.691	412.29
283.152	384.62
283.613	401.85
284.075	398.46
284.536	387.16
284.997	393.09
285.458	403.82
285.918	400.15
286.379	397.33
286.84	405.8
287.301	413.71
287.762	395.92
288.222	422.74
288.683	422.17
289.143	389.14
289.604	391.11
290.064	399.59
290.525	415.68
290.985	410.03
291.445	419.35
291.906	412.01
292.366	426.13
292.826	413.14
293.286	401.56
293.746	412.58
294.206	436.85
294.666	413.71
295.126	379.25
295.586	412.01
296.046	406.08
296.506	393.94
296.965	412.01
297.425	407.78
297.884	408.06
298.344	399.87
298.804	378.97
299.263	419.63
299.722	436.57
300.182	399.3
300.641	410.6
301.1	430.08
301.559	388.01
302.019	402.41
302.478	409.19
302.937	385.75
303.396	399.02
303.855	421.89
304.314	399.3
304.772	411.45
305.231	412.86
305.69	385.18
306.149	419.35
306.607	404.95
307.066	419.63
307.524	420.76
307.983	394.22
308.441	379.25
308.9	409.47
309.358	413.71
309.816	421.33
310.275	408.91
310.733	395.92
311.191	422.17
311.649	403.82
312.107	419.35
312.565	438.83
313.023	424.72
313.481	393.66
313.939	397.33
314.397	412.86
314.854	385.18
315.312	416.25
315.77	411.16
316.227	450.68
316.685	408.91
317.142	422.46
317.6	419.35
318.057	425.84
318.514	406.93
318.972	438.83
319.429	412.58
319.886	422.17
320.343	406.65
320.8	390.55
321.257	437.42
321.714	392.53
322.171	431.77
322.628	414.27
323.085	432.62
323.542	443.06
323.998	402.98
324.455	412.29
324.912	410.6
325.368	428.95
325.825	419.63
326.281	408.91
326.738	418.5
327.194	416.81
327.65	419.92
328.107	430.36
328.563	405.8
329.019	428.39
329.475	405.23
329.931	408.34
330.387	396.48
330.843	399.3
331.299	414.55
331.755	417.38
332.211	413.42
332.666	411.73
333.122	404.95
333.578	398.17
334.033	417.38
334.489	394.22
334.944	421.61
335.4	413.42
335.855	421.89
336.31	415.12
336.766	410.88
337.221	424.72
337.676	404.67
338.131	417.38
338.586	435.16
339.041	449.55
339.496	419.35
339.951	447.58
340.406	418.22
340.861	400.15
341.316	397.05
341.771	428.1
342.225	432.06
342.68	428.1
343.134	406.08
343.589	425.28
344.043	421.33
344.498	403.82
344.952	408.62
345.406	447.3
345.861	411.16
346.315	411.45
346.769	404.1
347.223	420.76
347.677	408.62
348.131	414.83
348.585	418.79
349.039	416.53
349.493	435.16
349.947	433.75
350.401	447.01
350.854	409.47
351.308	434.03
351.762	443.06
352.215	421.61
352.669	439.39
353.122	394.22
353.575	423.02
354.029	403.82
354.482	410.6
354.935	421.61
355.388	426.97
355.842	430.36
356.295	424.72
356.748	435.72
357.201	415.68
357.654	452.94
358.106	431.49
358.559	399.59
359.012	408.34
359.465	415.12
359.917	412.58
360.37	451.81
360.823	411.45
361.275	431.77
361.728	455.2
362.18	435.72
362.632	447.58
363.085	426.69
363.537	402.41
363.989	410.03
364.441	433.75
364.893	420.48
365.345	426.97
365.797	403.26
366.249	423.3
366.701	431.21
367.153	415.68
367.605	448.43
368.057	449.84
368.508	422.17
368.96	401
369.411	432.06
369.863	476.64
370.314	458.02
370.766	435.72
371.217	442.22
371.669	421.89
372.12	438.27
372.571	419.63
373.022	423.3
373.473	433.75
373.924	425.56
374.375	409.19
374.826	425.28
375.277	418.5
375.728	424.72
376.179	425.28
376.63	425
377.08	407.21
377.531	436.85
377.981	425.84
378.432	444.19
378.883	439.96
379.333	459.43
379.783	420.48
380.234	456.33
380.684	428.95
381.134	432.62
381.584	435.44
382.034	423.87
382.485	432.62
382.935	432.34
383.385	466.48
383.834	444.76
384.284	438.27
384.734	424.15
385.184	452.66
385.634	461.69
386.083	463.66
386.533	454.35
386.982	440.52
387.432	443.06
387.881	426.13
388.331	449.27
388.78	463.38
389.229	448.14
389.679	442.22
390.128	443.35
390.577	464.79
391.026	438.55
391.475	436.01
391.924	458.02
392.373	445.04
392.822	434.03
393.27	467.9
393.719	483.13
394.168	441.93
394.617	451.25
395.065	466.48
395.514	471.85
395.962	444.47
396.411	432.06
396.859	490.46
397.307	479.18
397.756	495.82
398.204	449.27
398.652	469.87
399.1	445.6
399.548	476.92
399.996	467.9
400.444	479.74
400.892	490.46
401.34	493.57
401.788	498.64
402.236	498.92
402.683	478.05
403.131	506.26
403.579	491.03
404.026	542.62
404.474	515.84
404.921	488.77
405.369	521.2
405.816	524.02
406.263	554.46
406.71	574.75
407.158	606.02
407.605	654.72
408.052	713.8
408.499	816.37
408.946	941.24
409.393	1061.71
409.84	1318.53
410.286	1608.14
410.733	2015.96
411.18	2470.67
411.626	2970.18
412.073	3631.58
412.52	4339.27
412.966	5187.79
413.413	6190.43
413.859	7263.95
414.305	8220.83
414.752	9582.18
415.198	10680.57
415.644	12000.41
416.09	13389.47
416.536	14642.54
416.982	16050.27
417.428	17473.78
417.874	19118.42
418.32	20441.1
418.766	21781.41
419.211	23523.68
419.657	24746.65
420.103	26382.42
420.548	27109.5
420.994	28831.02
421.439	30030.41
421.885	31174.99
422.33	32968.5
422.776	33912.21
423.221	34764.17
423.666	36080.03
424.111	37327.51
424.556	37765.35
425.001	39287.37
425.446	40482.79
425.891	41397.78
426.336	41799.32
426.781	42823.08
427.226	44833.85
427.671	45065.4
428.115	45386.95
428.56	46864
429.005	48042.77
429.449	48002.18
429.894	49027.23
430.338	49789.4
430.782	49142.24
431.227	50478.92
431.671	50311.95
432.115	51340.1
432.559	52185.26
433.003	51417.7
433.447	52055.18
433.891	51991.06
434.335	52015.13
434.779	52700.27
435.223	52349.39
435.667	52100.94
436.111	52331.16
436.554	52035.96
436.998	51397.36
437.442	51235.88
437.885	53274.07
438.328	51228.67
438.772	51518.47
439.215	51916.48
439.659	51319.51
440.102	51517.4
440.545	50620.87
440.988	50336.2
441.431	51280.75
441.874	50546.29
442.317	51078.27
442.76	50278.24
443.203	49576.62
443.646	50307.48
444.089	49803.54
444.531	50342.79
444.974	48836.45
445.417	50020.84
445.859	49037.87
446.302	50053.92
446.744	49249.6
447.186	50658.72
447.629	49510.34
448.071	49503.29
448.513	49567.22
448.956	51032.73
449.398	50276.66
449.84	48613.75
450.282	49433.42
450.724	50101.2
451.166	49738.12
451.607	49604.82
452.049	49756.69
452.491	50711.95
452.933	50257.7
453.374	50754.88
453.816	51390.4
454.257	50892.6
454.699	51970.24
455.14	51577.24
455.582	51336.08
456.023	51341.17
456.464	51565.16
456.905	52136.71
457.347	52340.41
457.788	51160.09
458.229	51543.96
458.67	52641.39
459.111	50421.91
459.552	50675.93
459.992	50528.06
460.433	50095.95
460.874	49028
461.315	50455.69
461.755	49374.27
462.196	48904.58
462.636	47853.28
463.077	47647.46
463.517	47677.43
463.957	47924.88
464.398	47456.31
464.838	47531.25
465.278	46349.82
465.718	46700.19
466.158	45513.02
466.598	45994.22
467.038	45558.42
467.478	46065.07
467.918	46226.64
468.358	45244.36
468.798	45200.54
469.237	44791.64
469.677	44857.97
470.117	45717.7
470.556	43053.65
470.996	43560.4
471.435	43778.46
471.874	44420.99
472.314	44098.6
472.753	43198.92
473.192	43288.43
473.631	42837.77
474.07	43102.23
474.509	42982.66
474.948	43182.47
475.387	42556.44
475.826	41829.06
476.265	43428.61
476.704	42828.31
477.143	43350.53
477.581	42894.27
478.02	43627.32
478.458	42294.8
478.897	42905.97
479.335	44109.36
479.774	43412.39
480.212	43880.45
480.65	43629.06
481.089	43309.12
481.527	42929.62
481.965	42548.73
482.403	44431.02
482.841	44346.8
483.279	44388.41
483.717	44261.61
484.155	43829.45
484.592	44312.22
485.03	44463.87
485.468	43489.25
485.905	43784.96
486.343	44028.53
486.781	43395.93
487.218	42764.36
487.655	42793.97
488.093	41960.49
488.53	43459.3
488.967	42553.95
489.405	42624.07
489.842	41623.87
490.279	41618.17
490.716	41162.47
491.153	41538.41
491.59	41008.66
492.027	40116.73
492.463	39880.88
492.9	39133.91
493.337	39036.8
493.773	39134.4
494.21	38273.99
494.647	38038.24
495.083	37185.73
495.519	36865.8
495.956	36838.15
496.392	36091.28
496.828	35961.99
497.265	35079.04
497.701	35179.38
498.137	34946
498.573	34152.96
499.009	34497.2
499.445	33670.03
499.881	33123.33
500.316	33383.99
500.752	32386.54
501.188	32204.67
501.624	32244.65
502.059	30899.16
502.495	30836.23
502.93	30821.6
503.366	30942.09
503.801	30261.98
504.236	29752.42
504.672	29359.35
505.107	29169.84
505.542	28414.83
505.977	28507.47
506.412	28032.66
506.847	28176.94
507.282	27659.58
507.717	27261.33
508.152	27323.27
508.587	27103.87
509.021	26316.46
509.456	25923.94
509.891	26126.61
510.325	25950.94
510.76	25586.16
511.194	25302.95
511.628	25408.84
512.063	24642.35
512.497	24846.99
512.931	24305.69
513.366	24079.15
513.8	24032.35
514.234	23348.57
514.668	23390.99
515.102	23603.07
515.536	22818.64
515.969	22928.77
516.403	22532.07
516.837	21923.73
517.271	22101.12
517.704	21690.06
518.138	21536.28
518.571	21390.12
519.005	21036.9
519.438	20943.16
519.871	20691.83
520.305	20224.51
520.738	20279.42
521.171	19651.69
521.604	19820.33
522.037	19562.36
522.47	19180.69
522.903	18768
523.336	18743.06
523.769	18766.5
524.202	18135.16
524.634	18101.2
525.067	17886.09
525.5	17733.12
525.932	17626.6
526.365	17239.04
526.797	17114.6
527.23	17070.78
527.662	16486.02
528.094	16428.07
528.527	16299.59
528.959	16110.55
529.391	15804.8
529.823	15363.4
530.255	15365.16
530.687	15131.02
531.119	14784.77
531.551	14782.76
531.982	14396.75
532.414	14204.82
532.846	13985.72
533.277	13792.76
533.709	13439.38
534.14	13288.88
534.572	13184.18
535.003	13026.43
535.435	12809.18
535.866	12595.8
536.297	12304.65
536.728	12288.11
537.159	12123.17
537.59	11931.11
538.022	11682.5
538.452	11565.62
538.883	11327.59
539.314	11294.11
539.745	10940.09
540.176	10829.2
540.606	10594.67
541.037	10526.7
541.468	10411.72
541.898	10340.86
542.328	10157.66
542.759	9976.85
543.189	9906.33
543.619	9825.22
544.05	9531.88
544.48	9424.01
544.91	9263.36
545.34	9162.81
545.77	9064.78
546.2	8959.97
546.63	8831.5
547.06	8878.91
547.489	8591.12
547.919	8385.43
548.349	8381.27
548.778	8341.77
549.208	8122.71
549.637	8035.46
550.067	7853.5
550.496	7982.05
550.926	7825.33
551.355	7667.38
551.784	7641.25
552.213	7431.28
552.642	7317.66
553.071	7312.94
553.5	7223.6
553.929	6984.84
554.358	6978.28
554.787	6829.8
555.216	6831.64
555.645	6694.05
556.073	6596.34
556.502	6575.26
556.93	6384.07
557.359	6367.7
557.787	6344.73
558.216	6267.08
558.644	6157.65
559.072	6116.65
559.5	6006.01
559.929	6063.46
560.357	6014.74
560.785	5910.63
561.213	5847.79
561.641	5741.13
562.068	5761.04
562.496	5654.82
562.924	5644.72
563.352	5609.64
563.779	5563.12
564.207	5612.04
564.634	5516.58
565.062	5462.83
565.489	5370.69
565.917	5392.27
566.344	5278.75
566.771	5253.41
567.198	5243.01
567.625	5162.7
568.053	5079.91
568.48	5019.52
568.907	4995.46
569.333	4880.15
569.76	4773.29
570.187	4816.96
570.614	4719.95
571.04	5071.1
571.467	4562.17
571.894	4560.29
572.32	4432.9
572.747	4321.78
573.173	4314.51
573.599	4238.55
574.026	4130.42
574.452	4171.69
574.878	4092.38
575.304	3934.62
575.73	3923.81
576.156	3834.26
576.582	3816.94
577.008	3707.24
577.434	3678.23
577.86	3538.49
578.285	3581.11
578.711	3523.28
579.137	3448.02
579.562	3387.38
579.988	3353.37
580.413	3297.02
580.838	3211.2
581.264	3228.92
581.689	3170.58
582.114	3114.11
582.539	3111.38
582.964	3034.94
583.39	2985.21
583.814	2938.74
584.239	2872
584.664	2851.47
585.089	2824.37
585.514	2757.25
585.939	2710.11
586.363	2695.03
586.788	2692.28
587.212	2611.89
587.637	2615.73
588.061	2570.16
588.485	2468.47
588.91	2492.12
589.334	2466.27
589.758	2431.07
590.182	2406.3
590.606	2358.95
591.03	2328.93
591.454	2267.76
591.878	2266.93
592.302	2273.55
592.726	2183.91
593.15	2185.02
593.573	2165.15
593.997	2119.04
594.42	2112.14
594.844	2066.55
595.267	2043.06
595.691	2011.54
596.114	1981.94
596.537	1946.25
596.96	1973.09
597.384	1958.7
597.807	1917.46
598.23	1930.75
598.653	1863.73
599.076	1882.01
599.499	1857.63
599.921	1831.03
600.344	1833.52
600.767	1820.22
601.189	1796.09
601.612	1812.45
602.034	1778.9
602.457	1743.67
602.879	1747
603.302	1765.86
603.724	1733.96
604.146	1730.9
604.568	1722.02
604.991	1695.1
605.413	1701.76
605.835	1708.98
606.257	1686.49
606.678	1655.1
607.1	1626.76
607.522	1665.38
607.944	1593.69
608.365	1622.87
608.787	1598.97
609.209	1596.75
609.63	1584.79
610.051	1581.45
610.473	1524.99
610.894	1542.8
611.315	1541.96
611.737	1523.6
612.158	1494.38
612.579	1494.1
613	1456.79
613.421	1476.56
613.842	1421.41
614.263	1396.89
614.683	1392.15
615.104	1389.36
615.525	1340.85
615.945	1362.32
616.366	1345.03
616.787	1332.76
617.207	1288.39
617.627	1254.61
618.048	1251.54
618.468	1242.05
618.888	1224.17
619.308	1183.94
619.728	1194.28
620.148	1196.23
620.568	1185.33
620.988	1134.73
621.408	1162.97
621.828	1144.52
622.248	1109.28
622.668	1114.31
623.087	1093.33
623.507	1107.88
623.926	1106.76
624.346	1068.14
624.765	1077.66
625.185	1067.58
625.604	1030.63
626.023	1023.91
626.442	998.7
626.861	1029.79
627.28	1015.5
627.699	977.12
628.118	997.57
628.537	982.16
628.956	968.43
629.375	978.8
629.794	971.8
630.212	972.36
630.631	929.18
631.049	919.37
631.468	913.48
631.886	912.64
632.305	923.58
632.723	897.21
633.141	895.53
633.559	880.1
633.978	871.68
634.396	882.9
634.814	855.4
635.232	839.68
635.65	848.66
636.067	829.85
636.485	835.19
636.903	855.12
637.321	843.89
637.738	807.39
638.156	813
638.573	797.27
638.991	755.69
639.408	782.38
639.825	800.64
640.243	800.08
640.66	782.38
641.077	785.47
641.494	750.63
641.911	745.29
642.328	773.11
642.745	748.38
643.162	738.26
643.579	764.12
643.995	740.23
644.412	723.92
644.829	705.92
645.245	712.96
645.662	717.74
646.078	725.33
646.495	726.73
646.911	714.08
647.327	687.92
647.743	692.99
648.159	683.42
648.576	704.52
648.992	667.67
649.408	674.42
649.824	677.79
650.239	679.48
650.655	681.17
651.071	668.79
651.487	669.92
651.902	659.22
652.318	661.19
652.733	664.29
653.149	626.85
653.564	656.13
653.979	625.16
654.395	630.23
654.81	651.91
655.225	629.67
655.64	644.31
656.055	615.59
656.47	612.21
656.885	619.25
657.3	623.47
657.715	633.05
658.13	605.73
658.544	618.69
658.959	609.96
659.374	619.81
659.788	615.87
660.202	607.42
660.617	584.33
661.031	572.5
661.445	609.4
661.86	592.22
662.274	582.92
662.688	570.81
663.102	570.52
663.516	583.2
663.93	582.36
664.344	569.68
664.758	569.68
665.171	569.96
665.585	575.88
665.999	563.76
666.412	592.78
666.826	578.13
667.239	562.92
667.653	537.83
668.066	579.82
668.479	555.59
668.892	557.28
669.306	527.12
669.719	560.66
670.132	530.79
670.545	541.22
670.958	555.03
671.37	551.36
671.783	540.09
672.196	527.12
672.609	541.22
673.021	552.49
673.434	531.07
673.846	536.42
674.259	502.59
674.671	523.46
675.084	531.63
675.496	555.31
675.908	527.4
676.32	511.9
676.732	527.68
677.144	518.95
677.556	528.53
677.968	498.92
678.38	531.07
678.792	527.97
679.204	544.32
679.615	541.5
680.027	505.41
680.439	510.2
680.85	524.02
681.262	509.08
681.673	513.31
682.084	494.69
682.496	494.13
682.907	474.1
683.318	507.38
683.729	494.41
684.14	500.62
684.551	487.64
684.962	489.62
685.373	481.72
685.784	490.75
686.194	499.21
686.605	491.03
687.016	497.51
687.426	493.28
687.837	499.21
688.247	480.31
688.657	469.02
689.068	475.51
689.478	493.28
689.888	476.08
690.298	488.77
690.708	472.41
691.118	486.23
691.528	481.44
691.938	494.41
692.348	460.56
692.758	477.49
693.168	474.38
693.577	468.74
693.987	478.62
694.396	464.51
694.806	475.79
695.215	483.98
695.625	465.07
696.034	481.72
696.443	441.37
696.852	473.54
697.262	481.44
697.671	472.13
698.08	458.02
698.489	512.18
698.897	475.23
699.306	456.61
699.715	467.05
700.124	474.38
700.532	450.68
700.941	493
701.35	470.72
701.758	461.41
702.166	456.04
702.575	445.32
702.983	456.89
703.391	443.63
703.799	473.54
704.208	454.92
704.616	463.1
705.024	454.92
705.432	471.85
705.839	463.66
706.247	434.6
706.655	436.29
707.063	450.97
707.47	424.43
707.878	448.71
708.285	460.56
708.693	431.49
709.1	436.29
709.508	474.67
709.915	421.33
710.322	457.17
710.729	428.67
711.136	420.48
711.543	451.25
711.95	439.96
712.357	459.15
712.764	464.79
713.171	446.45
713.578	420.48
713.984	424.15
714.391	439.96
714.797	407.78
715.204	433.75
715.61	442.22
716.017	434.03
716.423	458.02
716.829	414.55
717.236	449.55
717.642	441.37
718.048	446.73
718.454	445.04
718.86	431.49
719.266	459.71
719.671	425
720.077	410.88
720.483	412.58
720.889	415.68
721.294	428.39
721.7	440.52
722.105	436.29
722.511	417.09
722.916	443.35
723.321	456.04
723.726	432.34
724.132	432.06
724.537	419.63
724.942	419.35
725.347	397.61
725.752	428.67
726.156	425
726.561	419.35
726.966	437.14
727.371	408.91
727.775	439.68
728.18	444.47
728.584	432.9
728.989	414.27
729.393	440.24
729.798	406.93
730.202	432.06
730.606	417.09
731.01	426.69
731.414	429.8
731.818	417.38
732.222	417.94
732.626	438.27
733.03	429.23
733.434	418.22
733.837	411.73
734.241	427.54
734.645	437.14
735.048	395.92
735.452	436.29
735.855	446.17
736.258	397.89
736.662	416.81
737.065	407.78
737.468	422.74
737.871	417.38
738.274	449.84
738.677	436.57
739.08	410.32
739.483	437.7
739.886	439.96
740.289	393.09
740.691	428.39
741.094	421.05
741.497	396.48
741.899	442.22
742.302	425
742.704	420.76
743.106	421.89
743.508	419.92
743.911	423.02
744.313	423.87
744.715	433.18
745.117	421.61
745.519	394.5
745.921	428.1
746.323	411.16
746.724	409.47
747.126	412.58
747.528	432.34
747.929	419.92
748.331	415.4
748.732	428.67
749.134	389.98
749.535	410.32
749.936	413.14
750.338	401.56
750.739	441.37
751.14	432.06
751.541	415.68
751.942	407.21
752.343	419.63
752.744	410.6
753.144	409.75
753.545	427.82
753.946	437.42
754.346	414.55
754.747	413.42
755.148	416.53
755.548	399.02
755.948	435.72
756.349	439.68
756.749	422.74
757.149	412.86
757.549	401.85
757.949	382.36
758.349	401.56
758.749	410.32
759.149	380.95
759.549	429.23
759.949	418.79
760.348	404.95
760.748	413.71
761.148	399.3
761.547	423.59
761.947	411.45
762.346	401.28
762.745	378.12
763.145	410.88
763.544	395.63
763.943	401.56
764.342	414.83
764.741	427.26
765.14	395.35
765.539	412.29
765.938	422.74
766.336	413.42
766.735	381.51
767.134	407.21
767.532	421.33
767.931	396.2
768.329	393.66
768.728	386.31
769.126	422.74
769.525	410.88
769.923	386.03
770.321	404.95
770.719	388.01
771.117	382.08
771.515	410.88
771.913	414.55
772.311	396.48
772.709	398.46
773.106	386.31
773.504	393.66
773.902	373.88
774.299	399.59
774.697	422.46
775.094	390.83
775.491	396.76
775.889	423.3
776.286	419.07
776.683	384.05
777.08	407.21
777.477	389.7
777.874	384.05
778.271	421.05
778.668	373.6
779.065	387.73
779.462	411.45
779.858	393.66
780.255	411.45
780.652	389.14
781.048	406.36
781.444	421.89
781.841	427.54
782.237	404.39
782.633	393.37
783.03	398.46
783.426	397.61
783.822	419.07
784.218	390.27
784.614	413.71
785.01	417.94
785.405	402.41
785.801	411.45
786.197	399.87
786.593	386.88
786.988	392.24
787.384	425
787.779	370.21
788.174	375.01
788.57	392.24
788.965	431.49
789.36	390.55
789.755	389.42
790.15	405.8
790.545	426.97
790.94	421.05
791.335	394.5
791.73	391.11
792.125	393.66
792.52	422.74
792.914	422.17
793.309	390.55
793.703	406.65
794.098	389.42
794.492	367.67
794.887	385.18
795.281	418.79
795.675	400.43
796.069	407.49
796.463	421.61
796.857	417.09
797.251	391.4
797.645	395.07
798.039	400.15
798.433	402.13
798.826	393.37
799.22	375.86
799.614	388.57
800.007	397.05
800.401	383.77
800.794	424.43
801.187	404.39
801.581	414.55
801.974	421.61
802.367	373.04
802.76	388.57
803.153	388.85
803.546	416.25
803.939	414.55
804.332	391.96
804.725	414.27
805.117	412.86
805.51	410.88
805.903	382.64
806.295	397.61
806.688	395.35
807.08	391.96
807.472	393.09
807.865	390.83
808.257	399.3
808.649	389.98
809.041	363.15
809.433	382.08
809.825	395.35
810.217	396.2
810.609	387.44
811.001	388.85
811.392	399.87
811.784	398.74
812.175	411.45
812.567	372.19
812.958	408.06
813.35	371.34
813.741	390.83
814.132	403.54
814.524	390.27
814.915	400.43
815.306	391.11
815.697	411.45
816.088	388.57
816.479	386.88
816.87	380.1
817.26	402.98
817.651	400.43
818.042	399.59
818.432	392.24
818.823	389.42
819.213	399.02
819.604	406.36
819.994	379.25
820.384	394.22
820.775	405.52
821.165	369.93
821.555	385.47
821.945	390.83
822.335	395.92
822.725	388.01
823.114	361.17
823.504	382.36
823.894	398.17
824.284	379.25
824.673	385.18
825.063	417.09
825.452	402.98
825.842	375.3
826.231	410.03
826.62	388.29
827.009	397.61
827.399	419.92
827.788	400.43
828.177	393.09
828.566	402.69
828.954	401.28
829.343	389.42
829.732	429.51
830.121	405.23
830.509	367.67
830.898	381.23
831.286	393.37
831.675	409.75
832.063	398.17
832.452	411.16
832.84	404.95
833.228	362.58
833.616	386.6
834.004	381.23
834.392	404.67
834.78	402.41
835.168	375.01
835.556	395.63
835.944	392.24
836.331	393.94
836.719	407.21
837.107	391.11
837.494	380.95
837.881	391.68
838.269	387.73
838.656	382.36
839.043	406.36
839.431	404.67
839.818	383.49
840.205	412.01
840.592	401.56
840.979	369.65
841.366	406.36
841.752	393.09
842.139	397.33
842.526	401.56
842.912	387.16
843.299	404.95
843.685	411.73
844.072	410.6
844.458	397.61
844.844	379.25
845.231	380.95
845.617	392.53
846.003	419.63
846.389	396.2
846.775	394.22
847.161	422.17
847.547	374.45
847.933	405.52
848.318	400.43
848.704	381.23
849.09	389.98
849.475	405.8
849.861	393.66
850.246	385.75
850.631	359.76
851.017	406.36
851.402	374.17
851.787	399.02
852.172	399.3
852.557	407.49
852.942	386.88
853.327	377.56
853.712	365.69
854.097	406.65
854.481	389.42
854.866	397.61
855.25	417.94
855.635	395.63
856.019	399.59
856.404	372.19
856.788	387.73
857.172	410.03
857.557	416.53
857.941	401.28
858.325	394.79
858.709	383.21
859.093	389.42
859.477	407.49
859.86	387.16
860.244	379.25
860.628	384.9
861.012	396.48
861.395	384.9
861.779	388.29
862.162	380.1
862.545	399.87
862.929	393.09
863.312	386.6
863.695	399.3
864.078	402.69
864.461	414.27
864.844	367.1
865.227	384.05
865.61	345.91
865.993	378.12
866.376	391.96
866.758	403.82
867.141	404.95
867.523	377.27
867.906	397.33
868.288	369.93
868.671	411.73
869.053	393.09
869.435	387.16
869.817	382.36
870.199	403.26
870.581	393.66
870.963	380.95
871.345	375.86
871.727	419.92
872.109	381.23
872.491	391.96
872.872	407.78
873.254	389.7
873.635	390.27
874.017	397.05
874.398	389.42
874.779	376.71
875.161	387.16
875.542	391.68
875.923	398.17
876.304	371.91
876.685	407.78
877.066	393.09
877.447	389.98
877.828	380.95
878.208	397.05
878.589	365.41
878.97	393.37
879.35	389.98
879.731	365.69
880.111	384.9
880.491	376.43
880.872	362.3
881.252	368.52
881.632	369.36
882.012	406.65
882.392	363.15
882.772	384.9
883.152	385.18
883.532	368.52
883.912	387.44
884.291	394.79
884.671	401.56
885.051	367.39
885.43	382.36
885.81	403.82
886.189	376.99
886.568	391.96
886.948	400.15
887.327	384.62
887.706	364
888.085	392.81
888.464	375.01
888.843	372.19
889.222	406.08
889.601	367.67
889.979	391.11
890.358	395.63
890.737	404.1
891.115	401.85
891.494	380.66
891.872	390.55
892.25	401.85
892.629	384.05
893.007	392.81
893.385	372.47
893.763	395.35
894.141	395.92
894.519	392.53
894.897	379.53
895.275	407.49
895.653	384.9
896.03	370.21
896.408	347.32
896.786	380.66
897.163	382.64
897.541	370.78
897.918	394.79
898.295	384.34
898.673	388.85
899.05	369.65
899.427	441.09
899.804	400.72
900.181	392.53
900.558	371.06
900.935	386.88
901.312	397.61
901.688	373.88
902.065	391.4
902.442	379.25
902.818	400.72
903.195	385.18
903.571	387.73
903.947	357.22
904.324	354.95
904.7	366.26
905.076	372.47
905.452	397.05
905.828	384.9
906.204	400.43
906.58	386.88
906.956	397.61
907.331	396.2
907.707	384.34
908.083	393.66
908.458	410.88
908.834	370.49
909.209	372.47
909.585	375.58
909.96	379.53
910.335	356.93
910.71	380.95
911.086	392.24
911.461	389.14
911.836	384.05
912.21	391.96
912.585	413.71
912.96	388.57
913.335	398.74
913.709	386.6
914.084	398.74
914.459	382.64
914.833	364.28
915.207	362.87
915.582	358.91
915.956	400.15
916.33	375.58
916.704	391.96
917.078	387.16
917.452	398.46
917.826	389.98
918.2	375.01
918.574	432.9
918.948	375.86
919.321	374.73
919.695	400.43
920.068	400.15
920.442	377.56
920.815	395.63
921.189	382.36
921.562	345.63
921.935	407.78
922.308	402.13
922.681	401.85
923.054	383.77
923.427	405.23
923.8	374.45
924.173	391.11
924.546	395.63
924.919	387.73
925.291	371.62
925.664	391.11
926.036	392.81
926.409	376.99
926.781	375.58
927.153	402.13
927.526	360.04
927.898	365.13
928.27	359.76
928.642	399.3
929.014	387.16
929.386	359.48
929.758	374.17
930.129	373.04
930.501	364.28
930.873	386.03
931.244	385.47
931.616	371.91
931.987	374.17
932.359	390.27
932.73	396.48
933.101	374.73
933.472	379.25
933.843	356.37
934.214	415.12
934.585	383.21
934.956	367.39
935.327	388.85
935.698	408.91
936.069	384.34
936.439	399.87
936.81	398.46
937.18	360.89
937.551	384.9
937.921	385.47
938.292	381.79
938.662	384.9
939.032	379.53
939.402	361.45
939.772	387.16
940.142	377.84
940.512	385.47
940.882	379.25
941.252	366.54
941.621	373.6
941.991	386.88
942.361	377.56
942.73	371.06
943.1	382.08
943.469	409.19
943.838	402.98
944.208	380.1
944.577	388.29
944.946	389.98
945.315	367.95
945.684	374.17
946.053	386.88
946.422	384.62
946.791	392.53
947.159	369.65
947.528	372.75
947.897	364.28
948.265	394.22
948.634	393.37
949.002	395.35
949.371	373.32
949.739	380.1
950.107	374.73
950.475	369.08
950.843	386.03
951.211	367.39
951.579	364.28
951.947	404.1
952.315	358.91
952.683	405.52
953.05	369.36
953.418	386.6
953.785	386.88
954.153	378.12
954.52	347.61
954.888	382.64
955.255	374.73
955.622	380.1
955.989	381.79
956.356	395.07
956.723	409.75
957.09	376.71
957.457	394.22
957.824	386.03
958.191	383.77
958.557	378.12
958.924	405.23
959.291	373.32
959.657	379.25
960.023	394.79
960.39	394.22
960.756	384.62
961.122	349.87
961.488	389.7
961.855	383.49
962.221	391.68
962.586	358.06
962.952	402.98
963.318	404.95
963.684	395.63
964.05	371.91
964.415	383.49
964.781	401.85
965.146	378.4
965.512	362.3
965.877	373.88
966.242	374.73
966.608	383.77
966.973	350.72
967.338	353.82
967.703	384.05
968.068	386.03
968.433	377.27
968.797	412.58
969.162	368.52
969.527	364.84
969.891	364.84
970.256	365.97
970.62	392.53
970.985	411.45
971.349	422.74
971.714	401.85
972.078	367.67
972.442	381.23
972.806	387.44
973.17	393.37
973.534	378.12
973.898	360.04
974.262	348.74
974.625	385.18
974.989	375.58
975.353	381.79
975.716	389.42
976.08	376.99
976.443	417.66
976.806	387.73
977.17	406.08
977.533	383.49
977.896	374.73
978.259	390.55
978.622	396.48
978.985	374.73
979.348	382.08
979.711	395.63
980.073	381.51
980.436	388.29
980.799	351
981.161	393.37
981.524	376.99
981.886	387.16
982.248	342.8
982.611	383.77
982.973	386.6
983.335	364.56
983.697	390.55
984.059	383.77
984.421	394.5
984.783	393.66
985.145	365.69
985.506	365.13
985.868	411.73
986.23	393.37
986.591	376.71
986.953	377.27
987.314	371.06
987.675	380.38
988.037	531.35
988.398	367.67
988.759	391.96
989.12	367.1
989.481	401.56
989.842	393.66
990.203	389.42
990.564	394.79
990.924	376.71
991.285	607.14
991.646	394.79
992.006	388.01
992.367	338.85
992.727	371.34
993.087	367.67
993.448	383.49
993.808	372.75
994.168	381.79
994.528	390.55
994.888	356.37
995.248	387.73
995.608	378.12
995.967	378.4
996.327	384.62
996.687	361.17
997.046	359.19
997.406	371.62
997.765	371.62
998.125	378.69
998.484	378.4
998.843	389.7
999.202	399.87
999.561	378.4
999.92	366.54
1000.279	365.69
1000.638	369.65
1000.997	362.58
1001.356	381.79
1001.715	377.56
1002.073	384.05
1002.432	408.06
1002.79	401.56
1003.149	374.17
1003.507	368.8
1003.865	394.22
1004.224	381.51
1004.582	372.75
1004.94	360.32
1005.298	388.01
1005.656	382.64
1006.014	395.07
1006.371	363.15
1006.729	385.18
1007.087	393.37
1007.445	374.45
1007.802	389.7
1008.16	358.35
1008.517	413.71
1008.874	410.03
1009.232	370.21
1009.589	363.15
1009.946	389.7
1010.303	384.34
1010.66	377.56
1011.017	369.65
1011.374	370.78
1011.731	389.7
1012.087	360.32
1012.444	391.96
1012.801	385.75
1013.157	385.47
1013.513	378.69
1013.87	376.43
1014.226	381.79
1014.582	360.61
1014.939	385.18
1015.295	371.06
1015.651	385.75
1016.007	362.02
1016.363	369.08
1016.719	375.01
1017.074	347.89
1017.43	378.69
1017.786	385.75
1018.141	398.17
1018.497	399.02
1018.852	389.98
1019.208	353.54
1019.563	367.95
1019.918	381.51
1020.273	392.81
1020.628	349.02
1020.983	375.3
1021.338	380.38
1021.693	380.95
1022.048	387.16
1022.403	388.57
1022.757	377.56
1023.112	389.7
1023.467	389.98
1023.821	385.75
1024.175	377.56
1024.53	392.53
1024.884	377.84
1025.238	400.43
1025.592	344.5
1025.946	374.45
1026.3	398.17
1026.654	381.51
1027.008	350.15
1027.362	383.49
1027.716	393.66
1028.069	369.08
1028.423	356.08
1028.777	375.58
1029.13	402.69
1029.483	373.6
1029.837	352.98
1030.19	379.25
1030.543	352.98
1030.896	381.51
1031.249	376.43
1031.602	388.85
1031.955	375.3
1032.308	386.6
1032.661	379.53
1033.013	382.64
1033.366	358.06
1033.719	363.71
1034.071	381.23
1034.424	378.69
1034.776	359.76
1035.128	386.31
1035.48	362.87
1035.833	371.34
1036.185	347.04
1036.537	347.04
1036.889	347.04
