Data from NOL_irradiation_FLMS019251_07-49-04-253.txt Node
Date: Wed Feb 20 07:49:04 PST 2019
User: mu3e
Spectrometer: FLMS01925
Trigger mode: 0
Integration Time (sec): 6.500000E-2
Scans to average: 10
Electric dark correction enabled: true
Nonlinearity correction enabled: true
Boxcar width: 0
XAxis mode: Wavelengths
Number of Pixels in Spectrum: 2048
>>>>>Begin Spectral Data<<<<<
187.103	-83.56
187.574	-83.56
188.045	-83.56
188.516	-130.76
188.987	-114.54
189.458	-111.99
189.929	-116.82
190.4	-122.51
190.871	-100.9
191.342	-65.93
191.813	-47.18
192.284	-57.98
192.754	-20.2
193.225	15.01
193.696	28.07
194.166	57.86
194.637	54.46
195.107	99.84
195.578	107.21
196.048	128.47
196.518	151.71
196.989	165.02
197.459	209.2
197.929	227.04
198.399	251.94
198.869	289.28
199.339	294.66
199.809	327.17
200.279	309.92
200.749	288.15
201.219	354.58
201.689	312.19
202.159	359.1
202.628	346.11
203.098	391.87
203.568	365.89
204.037	391.87
204.507	372.1
204.976	404.3
205.445	395.83
205.915	400.06
206.384	409.38
206.853	372.1
207.323	392.16
207.792	384.53
208.261	366.73
208.73	387.35
209.199	387.35
209.668	371.54
210.137	378.6
210.606	380.01
211.075	369.28
211.543	363.06
212.012	379.73
212.481	381.14
212.95	345.82
213.418	374.64
213.887	381.99
214.355	350.35
214.824	332.82
215.292	343
215.76	357.13
216.229	345.54
216.697	324.91
217.165	359.95
217.633	381.42
218.101	379.16
218.569	365.89
219.037	356.84
219.505	340.74
219.973	319.54
220.441	332.54
220.909	322.08
221.377	348.08
221.844	374.93
222.312	359.67
222.78	320.39
223.247	339.32
223.715	345.82
224.182	357.41
224.65	339.04
225.117	343
225.584	345.26
226.052	363.34
226.519	343.28
226.986	340.17
227.453	333.95
227.92	323.49
228.387	355.43
228.854	364.76
229.321	348.37
229.788	352.61
230.255	342.43
230.722	345.26
231.189	358.82
231.655	330.84
232.122	365.04
232.589	365.89
233.055	333.95
233.522	388.2
233.988	358.54
234.454	367.58
234.921	348.93
235.387	330
235.853	356.28
236.32	346.39
236.786	343.85
237.252	363.91
237.718	354.3
238.184	358.82
238.65	327.74
239.116	360.8
239.582	349.21
240.047	363.91
240.513	367.02
240.979	350.06
241.445	345.82
241.91	344.41
242.376	354.87
242.841	343.28
243.307	365.32
243.772	358.82
244.238	367.3
244.703	338.76
245.168	388.48
245.633	322.93
246.099	356
246.564	342.72
247.029	373.8
247.494	367.02
247.959	361.08
248.424	359.1
248.889	337.91
249.353	369.28
249.818	348.08
250.283	337.91
250.748	375.77
251.212	377.75
251.677	348.65
252.141	368.43
252.606	370.97
253.07	352.89
253.535	336.78
253.999	370.12
254.463	388.48
254.927	336.78
255.392	338.19
255.856	368.15
256.32	367.02
256.784	356.56
257.248	376.34
257.712	356.28
258.176	373.8
258.64	393.85
259.103	359.1
259.567	370.97
260.031	380.58
260.495	361.65
260.958	373.8
261.422	386.22
261.885	368.99
262.349	366.73
262.812	373.51
263.275	373.8
263.739	361.65
264.202	364.76
264.665	382.55
265.128	383.12
265.591	357.41
266.054	357.13
266.517	364.19
266.98	369.84
267.443	359.67
267.906	359.95
268.369	385.09
268.832	377.47
269.294	390.46
269.757	376.9
270.22	369.28
270.682	383.4
271.145	389.9
271.607	343
272.07	402.32
272.532	369.84
272.994	380.01
273.456	372.67
273.919	401.76
274.381	367.58
274.843	364.19
275.305	397.8
275.767	342.43
276.229	367.86
276.691	370.41
277.153	366.73
277.614	347.24
278.076	359.1
278.538	372.95
279	374.36
279.461	388.77
279.923	369.84
280.384	376.62
280.846	393.57
281.307	374.08
281.769	379.45
282.23	377.19
282.691	393
283.152	362.5
283.613	368.71
284.075	378.32
284.536	375.77
284.997	370.69
285.458	376.9
285.918	398.09
286.379	347.24
286.84	404.86
287.301	389.33
287.762	408.82
288.222	353.74
288.683	373.51
289.143	370.12
289.604	366.45
290.064	343.28
290.525	379.16
290.985	387.92
291.445	374.93
291.906	388.77
292.366	399.5
292.826	365.89
293.286	380.86
293.746	394.98
294.206	350.91
294.666	374.36
295.126	398.09
295.586	389.61
296.046	372.1
296.506	385.66
296.965	383.96
297.425	378.88
297.884	380.86
298.344	395.83
298.804	400.63
299.263	376.06
299.722	376.62
300.182	393.57
300.641	396.67
301.1	393.29
301.559	387.64
302.019	378.03
302.478	364.19
302.937	385.94
303.396	401.19
303.855	406.84
304.314	388.48
304.772	409.95
305.231	383.96
305.69	405.43
306.149	406.28
306.607	383.68
307.066	396.11
307.524	420.39
307.983	391.87
308.441	400.63
308.9	375.49
309.358	380.58
309.816	410.23
310.275	425.19
310.733	373.8
311.191	360.8
311.649	398.65
312.107	394.42
312.565	383.4
313.023	365.6
313.481	374.08
313.939	398.09
314.397	389.61
314.854	376.62
315.312	393.57
315.77	394.98
316.227	365.32
316.685	393.57
317.142	390.74
317.6	375.77
318.057	409.38
318.514	390.46
318.972	402.04
319.429	373.51
319.886	384.25
320.343	373.51
320.8	388.2
321.257	359.1
321.714	417.57
322.171	380.01
322.628	371.25
323.085	387.92
323.542	370.69
323.998	375.21
324.455	380.58
324.912	386.22
325.368	394.98
325.825	404.86
326.281	398.93
326.738	405.15
327.194	409.38
327.65	370.97
328.107	370.12
328.563	396.96
329.019	390.74
329.475	408.25
329.931	393.85
330.387	366.45
330.843	394.98
331.299	364.76
331.755	394.42
332.211	421.8
332.666	412.21
333.122	370.41
333.578	418.42
334.033	384.81
334.489	394.42
334.944	374.93
335.4	415.88
335.855	386.51
336.31	382.84
336.766	381.42
337.221	393.29
337.676	354.02
338.131	381.99
338.586	391.59
339.041	402.89
339.496	394.13
339.951	395.26
340.406	377.47
340.861	400.91
341.316	373.8
341.771	376.62
342.225	386.22
342.68	387.07
343.134	370.97
343.589	397.24
344.043	446.64
344.498	389.05
344.952	379.73
345.406	448.05
345.861	398.37
346.315	393.85
346.769	388.77
347.223	407.41
347.677	368.43
348.131	397.8
348.585	378.03
349.039	420.68
349.493	380.58
349.947	374.93
350.401	385.38
350.854	380.29
351.308	396.67
351.762	388.48
352.215	396.11
352.669	380.01
353.122	376.34
353.575	389.05
354.029	418.42
354.482	398.93
354.935	402.89
355.388	403.73
355.842	395.83
356.295	379.73
356.748	393.85
357.201	426.04
357.654	385.94
358.106	386.51
358.559	393.85
359.012	381.71
359.465	387.92
359.917	411.64
360.37	391.87
360.823	386.22
361.275	418.42
361.728	412.77
362.18	411.92
362.632	435.92
363.085	408.25
363.537	395.83
363.989	362.21
364.441	371.25
364.893	402.04
365.345	400.63
365.797	377.19
366.249	399.5
366.701	396.39
367.153	403.73
367.605	405.15
368.057	420.96
368.508	389.33
368.96	396.39
369.411	408.25
369.863	387.92
370.314	384.25
370.766	382.55
371.217	405.71
371.669	392.72
372.12	421.24
372.571	384.25
373.022	376.9
373.473	397.52
373.924	397.52
374.375	413.33
374.826	413.62
375.277	371.82
375.728	421.24
376.179	404.86
376.63	398.65
377.08	418.13
377.531	410.23
377.981	385.66
378.432	403.73
378.883	378.88
379.333	412.77
379.783	410.51
380.234	420.68
380.684	422.93
381.134	398.65
381.584	390.46
382.034	405.99
382.485	402.89
382.935	411.36
383.385	375.77
383.834	412.77
384.284	420.11
384.734	399.78
385.184	421.24
385.634	405.15
386.083	404.86
386.533	404.86
386.982	413.9
387.432	407.12
387.881	409.1
388.331	402.6
388.78	417.29
389.229	413.05
389.679	387.07
390.128	392.16
390.577	409.1
391.026	418.13
391.475	382.84
391.924	410.23
392.373	405.43
392.822	428.86
393.27	408.82
393.719	401.48
394.168	424.06
394.617	418.98
395.065	406.28
395.514	429.14
395.962	439.59
396.411	458.78
396.859	441
397.307	426.6
397.756	440.43
398.204	424.35
398.652	428.3
399.1	410.79
399.548	431.97
399.996	438.74
400.444	461.04
400.892	441.28
401.34	473.17
401.788	441.28
402.236	439.31
402.683	422.93
403.131	451.16
403.579	452.01
404.026	456.24
404.474	431.12
404.921	449.47
405.369	435.07
405.816	444.39
406.263	482.48
406.71	441.85
407.158	459.91
407.605	473.73
408.052	483.89
408.499	464.42
408.946	486.71
409.393	489.53
409.84	472.6
410.286	505.04
410.733	501.94
411.18	545.07
411.626	589.59
412.073	645.06
412.52	751.67
412.966	887.3
413.413	1129.89
413.859	1366.41
414.305	1701.12
414.752	2185.48
415.198	2637.33
415.644	3189.85
416.09	3739.94
416.536	4351.57
416.982	4990.83
417.428	5702.28
417.874	6476.59
418.32	7126.49
418.766	7828.64
419.211	8696.88
419.657	9389.59
420.103	10276.05
420.548	10881.63
420.994	11913.44
421.439	12695.83
421.885	13503.38
422.33	14574.09
422.776	15366.09
423.221	16063.25
423.666	16952.72
424.111	17984.96
424.556	18536.72
425.001	19654.59
425.446	20653.29
425.891	21536.45
426.336	21837.77
426.781	22830.42
427.226	24164.53
427.671	24469.54
428.115	24781.99
428.56	25812.44
429.005	26544.89
429.449	26385.53
429.894	27026.64
430.338	27456.86
430.782	26918.61
431.227	27520.25
431.671	27283.04
432.115	27640.17
432.559	27649.96
433.003	27087.14
433.447	26947.52
433.891	26633.63
434.335	26054.65
434.779	26106.42
435.223	25524.93
435.667	24959.78
436.111	24609.55
436.554	24002.47
436.998	23207.61
437.442	22815.11
437.885	23187.63
438.328	22035.74
438.772	21635.51
439.215	21503.26
439.659	20924.73
440.102	20713.1
440.545	20050.48
440.988	19772.75
441.431	19809.56
441.874	19465.96
442.317	19341.24
442.76	18809.56
443.203	18439.15
443.646	18624.52
444.089	18259.69
444.531	18496.05
444.974	17991.71
445.417	18336.58
445.859	17833.78
446.302	18294.64
446.744	17981.46
447.186	18620.53
447.629	18060.16
448.071	18208
448.513	18141.33
448.956	18802.83
449.398	18444.64
449.84	18004.2
450.282	18368.78
450.724	18468.85
451.166	18554.93
451.607	18429.92
452.049	18444.39
452.491	18935.69
452.933	18780.14
453.374	18921.73
453.816	19228.19
454.257	18997
454.699	19340.5
455.14	19195.81
455.582	18870.39
456.023	19084.96
456.464	19004.97
456.905	19113.36
457.347	19125.32
457.788	18531.97
458.229	18547.19
458.67	18916.75
459.111	18016.94
459.552	17924.75
459.992	17772.54
460.433	17517.23
460.874	17075.96
461.315	17295.53
461.755	16864.02
462.196	16548.9
462.636	16029.09
463.077	15801.95
463.517	15625.46
463.957	15595.79
464.398	15298.13
464.838	15058.65
465.278	14564.5
465.718	14474.67
466.158	14018.5
466.598	13914.59
467.038	13671.99
467.478	13595.29
467.918	13541.61
468.358	13057.56
468.798	12859.11
469.237	12743.84
469.677	12508.29
470.117	12715.39
470.556	11831.87
470.996	11903.76
471.435	11714.56
471.874	11831.87
472.314	11696.71
472.753	11366.61
473.192	11299.4
473.631	11064.4
474.07	11056.98
474.509	11009.12
474.948	11035.74
475.387	10745.59
475.826	10518.15
476.265	10860.88
476.704	10735.6
477.143	10812.73
477.581	10747.39
478.02	10873.18
478.458	10502.24
478.897	10667.93
479.335	10927.97
479.774	10762.76
480.212	10883.68
480.65	10855.25
481.089	10796.59
481.527	10660.24
481.965	10601.26
482.403	11043.16
482.841	11057.23
483.279	11021.15
483.717	11054.42
484.155	10930.54
484.592	10968.68
485.03	11090.49
485.468	10822.72
485.905	10809.65
486.343	10956.14
486.781	10770.19
487.218	10682.03
487.655	10619.47
488.093	10438.34
488.53	10780.7
488.967	10553.55
489.405	10476.07
489.842	10327.68
490.279	10254.72
490.716	10048.55
491.153	10230.06
491.59	10012.79
492.027	9756.88
492.463	9694.77
492.9	9386.49
493.337	9352.67
493.773	9350.34
494.21	9096.52
494.647	9035.98
495.083	8850.07
495.519	8668.61
495.956	8599.6
496.392	8455.24
496.828	8348.96
497.265	8072.63
497.701	8029.91
498.137	7991.09
498.573	7702.56
499.009	7812.72
499.445	7559.11
499.881	7380.69
500.316	7383.83
500.752	7090.29
501.188	7022.84
501.624	6967.69
502.059	6673.43
502.495	6590.73
502.93	6552.52
503.366	6641.04
503.801	6381.34
504.236	6199.87
504.672	6102.28
505.107	5989.5
505.542	5841.61
505.977	5849.04
506.412	5702.28
506.847	5682.1
507.282	5551.34
507.717	5448.1
508.152	5415.62
508.587	5345.83
509.021	5175.69
509.456	5113.22
509.891	5084.37
510.325	5067.54
510.76	4941.08
511.194	4918.07
511.628	4902.82
512.063	4726.3
512.497	4743.72
512.931	4644.23
513.366	4601.02
513.8	4617.12
514.234	4426.63
514.668	4470.46
515.102	4494.38
515.536	4369.87
515.969	4359.91
516.403	4258.13
516.837	4171.88
517.271	4198.03
517.704	4105.79
518.138	4110.1
518.571	4053.96
519.005	3992.38
519.438	3976.16
519.871	3923.99
520.305	3837.7
520.738	3816.58
521.171	3800.34
521.604	3786.26
522.037	3755.65
522.47	3697.66
522.903	3621.19
523.336	3588.9
523.769	3608.98
524.202	3467.77
524.634	3490.33
525.067	3450.65
525.5	3422.37
525.932	3413.95
526.365	3290.67
526.797	3261.25
527.23	3305.37
527.662	3200.21
528.094	3167.22
528.527	3121.94
528.959	3081.55
529.391	3026.66
529.823	2945.49
530.255	3018.19
530.687	2879.57
531.119	2872.73
531.551	2833.04
531.982	2796.89
532.414	2736.07
532.846	2739.36
533.277	2628
533.709	2564.85
534.14	2573.09
534.572	2517.05
535.003	2515.4
535.435	2449.96
535.866	2399.06
536.297	2345.1
536.728	2330.5
537.159	2318.66
537.59	2277.05
538.022	2232.93
538.452	2171.13
538.883	2141.32
539.314	2150.98
539.745	2128.34
540.176	2045.46
540.606	2028.32
541.037	1997.07
541.468	1976.87
541.898	1969.96
542.328	1899.93
542.759	1904.36
543.189	1875.55
543.619	1868.9
544.05	1784.08
544.48	1768.55
544.91	1771.33
545.34	1703.89
545.77	1708.33
546.2	1665.85
546.63	1660.29
547.06	1636.12
547.489	1613.06
547.919	1581.09
548.349	1573.58
548.778	1560.51
549.208	1554.39
549.637	1492.06
550.067	1485.1
550.496	1473.13
550.926	1472.29
551.355	1462.55
551.784	1465.33
552.213	1442.22
552.642	1391.23
553.071	1392.06
553.5	1330.16
553.929	1334.06
554.358	1328.49
554.787	1297.52
555.216	1307.56
555.645	1304.49
556.073	1273.51
556.502	1268.21
556.93	1244.75
557.359	1279.09
557.787	1261.23
558.216	1233.3
558.644	1169.87
559.072	1222.13
559.5	1181.89
559.929	1172.11
560.357	1167.36
560.785	1158.41
561.213	1174.91
561.641	1132.97
562.068	1131.29
562.496	1112.55
562.924	1085.41
563.352	1142.75
563.779	1122.9
564.207	1099.68
564.634	1081.21
565.062	1106.67
565.489	1061.34
565.917	1070.02
566.344	1077.57
566.771	1073.09
567.198	1047.62
567.625	1064.42
568.053	1044.26
568.48	1021.58
568.907	1038.38
569.333	1021.02
569.76	981.8
570.187	970.59
570.614	988.52
571.04	2048.5
571.467	1016.82
571.894	969.75
572.32	947.6
572.747	960.78
573.173	919.28
573.599	932.74
574.026	909.46
574.452	921.24
574.878	908.62
575.304	875.8
575.73	852.78
576.156	840.43
576.582	845.49
577.008	849.14
577.434	837.91
577.86	837.34
578.285	814.32
578.711	804.77
579.137	843.24
579.562	817.41
579.988	797.75
580.413	789.6
580.838	782.3
581.264	791.29
581.689	760.94
582.114	774.15
582.539	859.52
582.964	754.76
583.39	749.14
583.814	744.08
584.239	722.43
584.664	706.12
585.089	730.3
585.514	703.02
585.939	703.87
586.363	692.34
586.788	692.9
587.212	690.08
587.637	677.99
588.061	686.99
588.485	663.07
588.91	685.58
589.334	658.01
589.758	664.2
590.182	650.13
590.606	655.2
591.03	652.1
591.454	646.19
591.878	628.17
592.302	639.71
592.726	626.48
593.15	635.49
593.573	629.3
593.997	637.18
594.42	623.67
594.844	611.28
595.267	617.75
595.691	623.67
596.114	603.67
596.537	610.72
596.96	610.15
597.384	597.2
597.807	582.83
598.23	598.32
598.653	567.34
599.076	597.48
599.499	569.87
599.921	573.82
600.344	589.87
600.767	555.22
601.189	578.89
601.612	587.9
602.034	582.83
602.457	547.89
602.879	563.95
603.302	597.48
603.724	583.96
604.146	561.98
604.568	535.77
604.991	567.62
605.413	563.95
605.835	574.1
606.257	526.47
606.678	556.63
607.1	563.39
607.522	547.89
607.944	561.98
608.365	543.38
608.787	543.1
609.209	545.36
609.63	535.21
610.051	519.7
610.473	539.44
610.894	572.41
611.315	525.34
611.737	541.69
612.158	517.17
612.579	519.7
613	564.8
613.421	509.83
613.842	536.34
614.263	510.68
614.683	514.35
615.104	516.32
615.525	520.27
615.945	506.73
616.366	480.78
616.787	496.58
617.207	512.65
617.627	494.04
618.048	499.68
618.468	503.07
618.888	475.99
619.308	475.99
619.728	464.14
620.148	501.66
620.568	494.89
620.988	477.96
621.408	489.81
621.828	489.81
622.248	508.42
622.668	503.91
623.087	464.14
623.507	481.35
623.926	463.86
624.346	443.26
624.765	483.61
625.185	478.25
625.604	467.81
626.023	459.34
626.442	461.32
626.861	490.66
627.28	459.62
627.699	465.55
628.118	475.14
628.537	476.84
628.956	462.16
629.375	451.72
629.794	448.34
630.212	439.87
630.631	465.55
631.049	458.21
631.468	470.06
631.886	477.4
632.305	454.55
632.723	448.62
633.141	435.64
633.559	451.44
633.978	446.93
634.396	473.73
634.814	441.56
635.232	444.1
635.65	439.59
636.067	464.14
636.485	471.47
636.903	446.08
637.321	455.67
637.738	455.67
638.156	444.67
638.573	444.95
638.991	442.13
639.408	466.96
639.825	443.82
640.243	430.84
640.66	463.01
641.077	428.3
641.494	445.51
641.911	445.23
642.328	407.41
642.745	417.29
643.162	459.91
643.579	432.53
643.995	441.56
644.412	457.65
644.829	431.97
645.245	425.47
645.662	435.35
646.078	425.76
646.495	419.26
646.911	406.84
647.327	443.26
647.743	427.73
648.159	446.36
648.576	412.21
648.992	421.52
649.408	404.58
649.824	394.42
650.239	428.02
650.655	428.86
651.071	424.06
651.487	418.7
651.902	409.66
652.318	419.83
652.733	409.95
653.149	407.97
653.564	417.57
653.979	411.92
654.395	393
654.81	425.76
655.225	437.33
655.64	415.88
656.055	409.38
656.47	427.17
656.885	418.7
657.3	418.13
657.715	378.03
658.13	376.9
658.544	430.56
658.959	395.83
659.374	441
659.788	394.98
660.202	390.74
660.617	411.64
661.031	405.71
661.445	400.91
661.86	400.91
662.274	432.81
662.688	433.38
663.102	402.04
663.516	426.32
663.93	409.38
664.344	391.59
664.758	410.51
665.171	413.05
665.585	398.37
665.999	402.89
666.412	400.91
666.826	410.79
667.239	417.57
667.653	414.18
668.066	414.46
668.479	428.58
668.892	418.7
669.306	370.12
669.719	404.02
670.132	389.33
670.545	404.02
670.958	396.11
671.37	398.37
671.783	425.19
672.196	410.79
672.609	382.27
673.021	412.77
673.434	389.61
673.846	395.54
674.259	421.24
674.671	387.64
675.084	395.83
675.496	381.14
675.908	392.72
676.32	437.89
676.732	454.55
677.144	413.9
677.556	401.48
677.968	403.45
678.38	401.48
678.792	403.17
679.204	433.94
679.615	416.44
680.027	415.31
680.439	398.37
680.85	408.25
681.262	401.19
681.673	415.59
682.084	410.79
682.496	394.13
682.907	422.37
683.318	398.93
683.729	408.25
684.14	397.52
684.551	401.19
684.962	394.98
685.373	411.08
685.784	391.59
686.194	407.69
686.605	403.73
687.016	395.26
687.426	406.84
687.837	394.42
688.247	405.71
688.657	402.04
689.068	386.22
689.478	408.53
689.888	411.08
690.298	384.25
690.708	381.14
691.118	377.19
691.528	408.25
691.938	396.11
692.348	390.46
692.758	411.36
693.168	404.02
693.577	406.84
693.987	411.08
694.396	390.46
694.806	392.16
695.215	399.22
695.625	427.17
696.034	369.28
696.443	411.08
696.852	381.14
697.262	396.39
697.671	377.19
698.08	395.26
698.489	380.29
698.897	394.42
699.306	396.39
699.715	399.22
700.124	406.84
700.532	389.61
700.941	365.89
701.35	412.21
701.758	409.95
702.166	395.54
702.575	379.73
702.983	398.65
703.391	389.9
703.799	401.19
704.208	394.98
704.616	399.5
705.024	409.95
705.432	403.45
705.839	382.84
706.247	374.64
706.655	414.75
707.063	401.19
707.47	396.39
707.878	346.11
708.285	417.57
708.693	433.1
709.1	402.89
709.508	386.51
709.915	398.93
710.322	405.99
710.729	406.84
711.136	383.4
711.543	396.39
711.95	410.79
712.357	395.54
712.764	400.63
713.171	398.09
713.578	374.08
713.984	382.27
714.391	401.19
714.797	401.48
715.204	393.57
715.61	385.38
716.017	412.21
716.423	398.09
716.829	364.19
717.236	410.79
717.642	391.59
718.048	398.65
718.454	407.97
718.86	394.7
719.266	400.35
719.671	373.51
720.077	377.75
720.483	400.06
720.889	418.13
721.294	377.75
721.7	413.33
722.105	399.22
722.511	398.93
722.916	416.16
723.321	403.17
723.726	409.38
724.132	401.19
724.537	376.9
724.942	420.96
725.347	397.8
725.752	373.8
726.156	398.65
726.561	393
726.966	366.73
727.371	415.31
727.775	393.57
728.18	396.67
728.584	397.8
728.989	397.24
729.393	416.72
729.798	396.11
730.202	414.75
730.606	382.84
731.01	402.04
731.414	384.53
731.818	404.58
732.222	410.23
732.626	393.57
733.03	387.92
733.434	399.22
733.837	380.01
734.241	392.16
734.645	404.3
735.048	387.35
735.452	392.44
735.855	422.93
736.258	415.03
736.662	412.49
737.065	419.83
737.468	398.37
737.871	408.82
738.274	377.75
738.677	381.99
739.08	410.23
739.483	407.41
739.886	418.42
740.289	411.64
740.691	394.13
741.094	363.63
741.497	378.6
741.899	383.96
742.302	396.39
742.704	366.73
743.106	400.35
743.508	408.53
743.911	402.32
744.313	406.56
744.715	365.6
745.117	424.91
745.519	370.97
745.921	413.33
746.323	404.3
746.724	374.93
747.126	394.13
747.528	406.28
747.929	389.05
748.331	394.13
748.732	371.54
749.134	390.74
749.535	366.45
749.936	355.43
750.338	371.54
750.739	391.59
751.14	384.25
751.541	376.34
751.942	374.08
752.343	397.52
752.744	389.9
753.144	388.77
753.545	434.51
753.946	401.76
754.346	384.25
754.747	389.61
755.148	411.64
755.548	404.02
755.948	392.72
756.349	387.92
756.749	399.5
757.149	391.03
757.549	417.29
757.949	364.47
758.349	401.76
758.749	376.06
759.149	367.86
759.549	383.4
759.949	379.73
760.348	400.91
760.748	379.16
761.148	367.58
761.547	402.89
761.947	385.94
762.346	374.93
762.745	422.09
763.145	375.77
763.544	385.66
763.943	372.67
764.342	390.46
764.741	399.78
765.14	382.55
765.539	366.17
765.938	394.42
766.336	371.82
766.735	413.62
767.134	405.15
767.532	378.03
767.931	388.2
768.329	398.65
768.728	365.32
769.126	374.93
769.525	383.96
769.923	403.17
770.321	364.19
770.719	385.38
771.117	380.29
771.515	409.66
771.913	381.42
772.311	376.9
772.709	390.18
773.106	398.93
773.504	396.11
773.902	387.92
774.299	404.58
774.697	389.05
775.094	387.64
775.491	404.02
775.889	368.99
776.286	404.58
776.683	365.6
777.08	359.67
777.477	377.19
777.874	380.01
778.271	389.9
778.668	392.72
779.065	383.68
779.462	386.22
779.858	369.84
780.255	399.22
780.652	386.51
781.048	390.46
781.444	379.45
781.841	353.17
782.237	401.19
782.633	400.06
783.03	354.3
783.426	372.67
783.822	409.95
784.218	378.03
784.614	364.76
785.01	406.84
785.405	380.29
785.801	364.76
786.197	388.48
786.593	370.97
786.988	371.54
787.384	390.18
787.779	374.93
788.174	394.7
788.57	399.22
788.965	350.06
789.36	376.06
789.755	371.54
790.15	407.97
790.545	389.9
790.94	366.73
791.335	368.15
791.73	404.02
792.125	412.21
792.52	394.13
792.914	359.39
793.309	363.34
793.703	409.38
794.098	405.15
794.492	396.11
794.887	370.41
795.281	409.95
795.675	402.89
796.069	400.06
796.463	383.68
796.857	387.07
797.251	371.82
797.645	385.38
798.039	387.07
798.433	373.51
798.826	374.93
799.22	383.4
799.614	404.86
800.007	404.86
800.401	382.55
800.794	385.09
801.187	363.34
801.581	367.86
801.974	388.48
802.367	383.12
802.76	392.16
803.153	400.63
803.546	378.03
803.939	404.86
804.332	376.34
804.725	394.13
805.117	392.44
805.51	399.5
805.903	368.43
806.295	393.85
806.688	385.94
807.08	406.28
807.472	395.26
807.865	400.35
808.257	385.66
808.649	394.42
809.041	364.76
809.433	397.8
809.825	372.67
810.217	359.39
810.609	398.37
811.001	389.9
811.392	387.07
811.784	374.36
812.175	385.38
812.567	359.67
812.958	389.9
813.35	421.8
813.741	381.42
814.132	410.23
814.524	405.99
814.915	398.65
815.306	375.21
815.697	388.2
816.088	372.67
816.479	382.84
816.87	371.54
817.26	409.95
817.651	394.42
818.042	385.66
818.432	402.6
818.823	382.27
819.213	391.03
819.604	365.89
819.994	405.15
820.384	377.75
820.775	380.29
821.165	363.06
821.555	367.02
821.945	396.39
822.335	385.09
822.725	386.51
823.114	378.6
823.504	389.05
823.894	365.6
824.284	405.43
824.673	389.33
825.063	368.71
825.452	390.74
825.842	386.51
826.231	404.3
826.62	387.07
827.009	357.13
827.399	403.73
827.788	373.23
828.177	390.46
828.566	391.87
828.954	408.82
829.343	384.53
829.732	373.8
830.121	403.45
830.509	389.61
830.898	414.75
831.286	371.54
831.675	398.09
832.063	372.95
832.452	387.07
832.84	405.43
833.228	379.45
833.616	385.09
834.004	400.06
834.392	354.3
834.78	385.38
835.168	374.93
835.556	379.73
835.944	396.67
836.331	410.51
836.719	380.29
837.107	397.24
837.494	398.37
837.881	365.89
838.269	381.99
838.656	393.57
839.043	410.79
839.431	386.22
839.818	377.19
840.205	381.99
840.592	370.69
840.979	387.35
841.366	374.64
841.752	382.84
842.139	378.32
842.526	389.61
842.912	383.4
843.299	383.96
843.685	392.44
844.072	386.51
844.458	382.55
844.844	368.99
845.231	396.67
845.617	398.93
846.003	386.22
846.389	389.61
846.775	392.72
847.161	388.48
847.547	364.76
847.933	380.58
848.318	380.86
848.704	389.9
849.09	378.88
849.475	367.3
849.861	383.68
850.246	387.35
850.631	383.12
851.017	361.93
851.402	387.64
851.787	393.85
852.172	410.23
852.557	404.3
852.942	402.6
853.327	370.41
853.712	380.29
854.097	404.02
854.481	387.35
854.866	370.41
855.25	410.79
855.635	354.87
856.019	374.64
856.404	397.52
856.788	373.8
857.172	386.79
857.557	363.34
857.941	357.69
858.325	380.86
858.709	387.64
859.093	360.52
859.477	389.61
859.86	400.35
860.244	359.95
860.628	407.69
861.012	372.67
861.395	366.45
861.779	374.93
862.162	353.45
862.545	373.8
862.929	391.59
863.312	385.09
863.695	362.21
864.078	398.09
864.461	413.9
864.844	402.04
865.227	398.65
865.61	384.53
865.993	369.84
866.376	361.93
866.758	361.37
867.141	389.9
867.523	397.24
867.906	380.01
868.288	383.96
868.671	400.63
869.053	370.69
869.435	378.03
869.817	380.58
870.199	380.29
870.581	379.16
870.963	374.08
871.345	402.04
871.727	379.73
872.109	403.17
872.491	370.41
872.872	391.59
873.254	370.41
873.635	359.95
874.017	376.9
874.398	370.12
874.779	394.98
875.161	389.9
875.542	396.96
875.923	396.39
876.304	356
876.685	386.22
877.066	362.21
877.447	362.5
877.828	405.99
878.208	377.75
878.589	374.08
878.97	396.67
879.35	366.45
879.731	367.02
880.111	366.73
880.491	396.96
880.872	355.43
881.252	344.69
881.632	387.07
882.012	378.32
882.392	367.3
882.772	361.37
883.152	387.07
883.532	404.58
883.912	396.96
884.291	378.32
884.671	388.77
885.051	365.04
885.43	398.65
885.81	378.32
886.189	371.25
886.568	390.18
886.948	363.63
887.327	383.96
887.706	375.77
888.085	392.44
888.464	362.21
888.843	408.53
889.222	401.48
889.601	415.31
889.979	399.22
890.358	396.96
890.737	397.24
891.115	383.96
891.494	391.31
891.872	391.59
892.25	398.93
892.629	380.58
893.007	396.67
893.385	393
893.763	381.42
894.141	368.71
894.519	351.48
894.897	359.95
895.275	389.9
895.653	368.15
896.03	390.74
896.408	375.21
896.786	377.75
897.163	354.3
897.541	383.12
897.918	379.16
898.295	360.23
898.673	362.21
899.05	402.89
899.427	410.79
899.804	360.52
900.181	384.25
900.558	395.26
900.935	383.68
901.312	414.75
901.688	358.54
902.065	369.28
902.442	378.88
902.818	396.96
903.195	379.73
903.571	384.53
903.947	361.37
904.324	370.41
904.7	420.96
905.076	378.6
905.452	382.84
905.828	394.98
906.204	351.19
906.58	370.41
906.956	388.2
907.331	396.11
907.707	399.78
908.083	379.73
908.458	374.08
908.834	394.7
909.209	376.9
909.585	358.26
909.96	361.65
910.335	389.05
910.71	377.19
911.086	382.55
911.461	381.71
911.836	368.99
912.21	371.25
912.585	381.71
912.96	415.03
913.335	383.96
913.709	380.86
914.084	373.51
914.459	398.65
914.833	374.64
915.207	374.64
915.582	368.71
915.956	373.51
916.33	385.38
916.704	392.72
917.078	400.06
917.452	401.19
917.826	400.63
918.2	372.1
918.574	367.58
918.948	374.36
919.321	371.25
919.695	366.73
920.068	370.41
920.442	399.5
920.815	388.2
921.189	382.84
921.562	402.04
921.935	392.44
922.308	389.61
922.681	365.04
923.054	378.03
923.427	394.98
923.8	366.17
924.173	414.75
924.546	383.12
924.919	374.36
925.291	343
925.664	371.25
926.036	393.85
926.409	387.35
926.781	379.45
927.153	386.79
927.526	374.36
927.898	371.54
928.27	377.47
928.642	376.34
929.014	415.88
929.386	399.5
929.758	382.27
930.129	370.97
930.501	368.43
930.873	368.15
931.244	369.28
931.616	365.89
931.987	382.55
932.359	365.04
932.73	374.64
933.101	392.44
933.472	371.82
933.843	384.81
934.214	372.67
934.585	411.64
934.956	355.71
935.327	405.99
935.698	383.68
936.069	375.21
936.439	355.71
936.81	400.35
937.18	389.61
937.551	375.77
937.921	391.31
938.292	405.43
938.662	363.91
939.032	383.12
939.402	380.86
939.772	367.02
940.142	354.02
940.512	371.54
940.882	373.8
941.252	408.25
941.621	375.21
941.991	370.69
942.361	399.5
942.73	382.84
943.1	361.93
943.469	387.07
943.838	399.78
944.208	373.23
944.577	380.29
944.946	360.8
945.315	376.62
945.684	380.58
946.053	391.59
946.422	380.86
946.791	378.6
947.159	402.6
947.528	367.58
947.897	378.88
948.265	350.63
948.634	389.61
949.002	376.9
949.371	396.11
949.739	360.23
950.107	393.57
950.475	363.63
950.843	372.67
951.211	398.09
951.579	387.07
951.947	405.15
952.315	388.2
952.683	387.07
953.05	350.91
953.418	375.77
953.785	366.45
954.153	372.1
954.52	387.92
954.888	390.74
955.255	378.32
955.622	381.71
955.989	390.18
956.356	393.85
956.723	372.38
957.09	368.71
957.457	394.7
957.824	387.64
958.191	375.49
958.557	364.19
958.924	383.12
959.291	384.25
959.657	405.43
960.023	381.14
960.39	395.26
960.756	388.2
961.122	352.04
961.488	370.12
961.855	390.74
962.221	399.78
962.586	376.06
962.952	408.53
963.318	383.12
963.684	374.64
964.05	387.64
964.415	355.71
964.781	376.06
965.146	373.51
965.512	381.14
965.877	350.91
966.242	393.85
966.608	393.85
966.973	381.42
967.338	382.27
967.703	371.82
968.068	374.93
968.433	395.83
968.797	378.32
969.162	386.22
969.527	367.58
969.891	396.96
970.256	359.1
970.62	376.62
970.985	369.28
971.349	398.09
971.714	382.27
972.078	378.6
972.442	386.22
972.806	376.62
973.17	383.68
973.534	369.56
973.898	380.01
974.262	379.16
974.625	354.58
974.989	410.79
975.353	397.52
975.716	400.63
976.08	363.63
976.443	381.42
976.806	380.01
977.17	391.03
977.533	397.8
977.896	375.77
978.259	371.82
978.622	385.38
978.985	407.97
979.348	390.46
979.711	363.34
980.073	415.03
980.436	402.32
980.799	388.2
981.161	348.65
981.524	380.58
981.886	371.82
982.248	358.82
982.611	384.53
982.973	389.61
983.335	404.86
983.697	351.19
984.059	373.8
984.421	401.48
984.783	392.44
985.145	371.54
985.506	388.2
985.868	355.71
986.23	370.12
986.591	381.42
986.953	388.77
987.314	365.6
987.675	354.87
988.037	1081.77
988.398	387.07
988.759	357.13
989.12	386.79
989.481	381.71
989.842	372.95
990.203	358.26
990.564	386.51
990.924	373.8
991.285	1106.95
991.646	391.03
992.006	374.64
992.367	391.59
992.727	379.73
993.087	372.95
993.448	372.1
993.808	370.12
994.168	378.88
994.528	360.52
994.888	389.61
995.248	353.17
995.608	363.91
995.967	387.35
996.327	383.68
996.687	380.29
997.046	381.42
997.406	400.91
997.765	370.12
998.125	379.45
998.484	398.65
998.843	387.35
999.202	364.19
999.561	345.82
999.92	372.1
1000.279	367.02
1000.638	364.47
1000.997	380.29
1001.356	381.14
1001.715	380.29
1002.073	393.57
1002.432	374.93
1002.79	363.06
1003.149	382.84
1003.507	391.03
1003.865	384.25
1004.224	371.25
1004.582	379.16
1004.94	381.14
1005.298	376.06
1005.656	377.47
1006.014	381.71
1006.371	362.21
1006.729	373.8
1007.087	409.1
1007.445	372.67
1007.802	381.99
1008.16	366.17
1008.517	350.91
1008.874	351.76
1009.232	391.03
1009.589	418.13
1009.946	381.71
1010.303	363.91
1010.66	390.74
1011.017	372.38
1011.374	380.01
1011.731	382.27
1012.087	378.88
1012.444	337.35
1012.801	408.82
1013.157	361.93
1013.513	368.99
1013.87	391.03
1014.226	381.71
1014.582	347.8
1014.939	374.93
1015.295	377.75
1015.651	389.05
1016.007	375.77
1016.363	376.06
1016.719	379.45
1017.074	371.25
1017.43	377.47
1017.786	343.56
1018.141	372.95
1018.497	383.96
1018.852	372.67
1019.208	380.01
1019.563	365.6
1019.918	383.4
1020.273	373.8
1020.628	388.77
1020.983	400.63
1021.338	367.3
1021.693	398.09
1022.048	381.99
1022.403	391.87
1022.757	396.96
1023.112	386.51
1023.467	381.42
1023.821	385.09
1024.175	371.25
1024.53	356.56
1024.884	380.86
1025.238	365.89
1025.592	377.75
1025.946	367.86
1026.3	347.24
1026.654	375.49
1027.008	362.5
1027.362	385.66
1027.716	378.03
1028.069	361.65
1028.423	387.07
1028.777	367.02
1029.13	360.8
1029.483	391.31
1029.837	351.48
1030.19	390.18
1030.543	390.46
1030.896	377.47
1031.249	383.4
1031.602	374.08
1031.955	379.16
1032.308	377.47
1032.661	363.06
1033.013	384.53
1033.366	386.79
1033.719	371.25
1034.071	357.13
1034.424	361.65
1034.776	366.45
1035.128	375.77
1035.48	394.7
1035.833	376.06
1036.185	352.89
1036.537	352.89
1036.889	352.89
