Data from NOL_irradiation_FLMS019251_07-27-04-236.txt Node
Date: Wed Feb 20 07:27:04 PST 2019
User: mu3e
Spectrometer: FLMS01925
Trigger mode: 0
Integration Time (sec): 6.500000E-2
Scans to average: 10
Electric dark correction enabled: true
Nonlinearity correction enabled: true
Boxcar width: 0
XAxis mode: Wavelengths
Number of Pixels in Spectrum: 2048
>>>>>Begin Spectral Data<<<<<
187.103	-82.51
187.574	-82.51
188.045	-82.51
188.516	-107.81
188.987	-114.92
189.458	-106.1
189.929	-112.36
190.4	-96.15
190.871	-93.31
191.342	-98.43
191.813	-76.54
192.284	-40.45
192.754	-16.03
193.225	-8.07
193.696	36.21
194.166	37.91
194.637	71.11
195.107	118.74
195.578	106.55
196.048	122.71
196.518	153.32
196.989	206
197.459	217.89
197.929	235.72
198.399	277.88
198.869	279.58
199.339	306.16
199.809	305.03
200.279	336.97
200.749	334.71
201.219	333.87
201.689	342.91
202.159	337.82
202.628	382.18
203.098	360.15
203.568	370.6
204.037	374.27
204.507	363.54
204.976	364.38
205.445	379.07
205.915	385.57
206.384	356.19
206.853	387.83
207.323	401.67
207.792	396.87
208.261	397.15
208.73	367.49
209.199	395.17
209.668	350.82
210.137	392.35
210.606	386.42
211.075	367.21
211.543	375.4
212.012	382.46
212.481	354.78
212.95	346.87
213.418	371.73
213.887	343.76
214.355	349.41
214.824	339.24
215.292	350.54
215.76	396.02
216.229	340.37
216.697	358.17
217.165	344.04
217.633	351.39
218.101	327.93
218.569	379.07
219.037	338.95
219.505	364.67
219.973	338.1
220.441	343.76
220.909	344.04
221.377	329.63
221.844	330.76
222.312	354.5
222.78	342.63
223.247	350.26
223.715	306.44
224.182	373.99
224.65	359.3
225.117	360.43
225.584	356.19
226.052	350.82
226.519	344.32
226.986	360.99
227.453	334.71
227.92	354.78
228.387	336.13
228.854	339.24
229.321	366.93
229.788	364.1
230.255	359.3
230.722	350.82
231.189	310.12
231.655	356.19
232.122	338.1
232.589	366.08
233.055	357.89
233.522	358.17
233.988	340.37
234.454	372.86
234.921	354.5
235.387	359.86
235.853	359.86
236.32	369.75
236.786	383.59
237.252	375.12
237.718	373.99
238.184	383.59
238.65	364.1
239.116	370.88
239.582	358.73
240.047	350.26
240.513	377.38
240.979	345.17
241.445	385.29
241.91	343.47
242.376	345.17
242.841	378.79
243.307	374.84
243.772	346.87
244.238	372.86
244.703	353.08
245.168	324.25
245.633	353.08
246.099	380.49
246.564	349.41
247.029	339.24
247.494	374.27
247.959	366.08
248.424	356.19
248.889	362.12
249.353	343.47
249.818	366.93
250.283	386.98
250.748	345.17
251.212	368.06
251.677	360.15
252.141	367.49
252.606	399.69
253.07	357.6
253.535	364.95
253.999	368.06
254.463	357.04
254.927	367.77
255.392	368.62
255.856	370.88
256.32	342.91
256.784	352.52
257.248	376.25
257.712	369.19
258.176	405.06
258.64	373.71
259.103	358.17
259.567	381.62
260.031	377.66
260.495	349.41
260.958	379.36
261.422	369.19
261.885	386.42
262.349	363.25
262.812	372.58
263.275	370.04
263.739	350.26
264.202	372.58
264.665	374.27
265.128	375.4
265.591	368.62
266.054	360.43
266.517	388.96
266.98	364.95
267.443	372.86
267.906	376.25
268.369	361.28
268.832	380.2
269.294	368.91
269.757	384.16
270.22	365.8
270.682	363.25
271.145	360.71
271.607	366.36
272.07	385.29
272.532	367.77
272.994	366.36
273.456	362.97
273.919	414.94
274.381	372.01
274.843	368.91
275.305	375.12
275.767	399.69
276.229	382.46
276.691	359.02
277.153	358.17
277.614	369.75
278.076	391.5
278.538	381.9
279	390.66
279.461	372.58
279.923	384.16
280.384	379.07
280.846	357.32
281.307	372.3
281.769	374.27
282.23	418.33
282.691	368.34
283.152	401.95
283.613	370.04
284.075	360.99
284.536	394.61
284.997	369.47
285.458	380.77
285.918	391.22
286.379	373.71
286.84	376.81
287.301	373.43
287.762	382.46
288.222	363.82
288.683	384.44
289.143	381.62
289.604	375.12
290.064	370.88
290.525	362.12
290.985	378.79
291.445	368.62
291.906	403.93
292.366	384.44
292.826	383.31
293.286	407.6
293.746	386.98
294.206	388.4
294.666	363.54
295.126	410.42
295.586	374.27
296.046	343.76
296.506	367.21
296.965	380.49
297.425	386.42
297.884	385.29
298.344	399.13
298.804	386.42
299.263	391.5
299.722	367.49
300.182	378.23
300.641	371.73
301.1	360.99
301.559	378.23
302.019	383.31
302.478	399.69
302.937	379.36
303.396	387.55
303.855	418.61
304.314	379.92
304.772	418.89
305.231	381.33
305.69	388.4
306.149	379.36
306.607	396.02
307.066	390.09
307.524	399.41
307.983	395.17
308.441	406.47
308.9	399.69
309.358	390.09
309.816	407.6
310.275	399.97
310.733	381.62
311.191	372.86
311.649	387.27
312.107	373.99
312.565	377.94
313.023	381.62
313.481	386.98
313.939	385.85
314.397	404.78
314.854	385.85
315.312	382.75
315.77	373.14
316.227	386.7
316.685	391.22
317.142	386.14
317.6	392.63
318.057	409.58
318.514	398
318.972	383.03
319.429	372.01
319.886	409.86
320.343	373.99
320.8	392.35
321.257	388.68
321.714	390.94
322.171	426.52
322.628	397.43
323.085	380.49
323.542	386.7
323.998	373.14
324.455	388.4
324.912	377.1
325.368	393.2
325.825	387.83
326.281	404.49
326.738	388.96
327.194	374.27
327.65	367.77
328.107	346.87
328.563	367.49
329.019	416.63
329.475	414.66
329.931	383.88
330.387	406.47
330.843	403.08
331.299	401.1
331.755	394.04
332.211	384.16
332.666	403.93
333.122	412.4
333.578	415.79
334.033	386.14
334.489	399.13
334.944	398
335.4	415.79
335.855	394.04
336.31	406.19
336.766	396.02
337.221	392.35
337.676	377.1
338.131	382.46
338.586	420.59
339.041	399.97
339.496	392.35
339.951	382.18
340.406	388.96
340.861	386.98
341.316	386.42
341.771	410.42
342.225	402.23
342.68	394.04
343.134	376.25
343.589	389.53
344.043	386.98
344.498	402.8
344.952	422.56
345.406	465.46
345.861	401.95
346.315	390.94
346.769	383.31
347.223	386.14
347.677	387.55
348.131	377.1
348.585	399.69
349.039	404.49
349.493	372.86
349.947	379.36
350.401	394.33
350.854	406.75
351.308	401.1
351.762	409.29
352.215	404.78
352.669	418.05
353.122	381.9
353.575	368.91
354.029	398.28
354.482	391.79
354.935	399.97
355.388	422.28
355.842	403.36
356.295	383.31
356.748	412.4
357.201	405.91
357.654	396.87
358.106	398
358.559	406.47
359.012	375.97
359.465	384.16
359.917	369.75
360.37	412.12
360.823	412.68
361.275	398.28
361.728	386.42
362.18	392.63
362.632	392.35
363.085	406.75
363.537	396.59
363.989	377.66
364.441	406.19
364.893	388.96
365.345	405.06
365.797	382.46
366.249	405.06
366.701	391.5
367.153	392.07
367.605	405.34
368.057	394.33
368.508	368.62
368.96	396.87
369.411	396.59
369.863	416.63
370.314	414.38
370.766	397.72
371.217	411.27
371.669	394.33
372.12	413.53
372.571	384.16
373.022	397.43
373.473	410.42
373.924	408.73
374.375	402.52
374.826	426.52
375.277	408.45
375.728	415.51
376.179	394.33
376.63	433.01
377.08	383.31
377.531	392.07
377.981	397.43
378.432	409.01
378.883	408.16
379.333	385.01
379.783	405.91
380.234	444.86
380.684	409.29
381.134	402.8
381.584	381.9
382.034	419.46
382.485	394.61
382.935	403.36
383.385	404.49
383.834	405.06
384.284	417.2
384.734	396.02
385.184	412.4
385.634	403.65
386.083	395.74
386.533	412.4
386.982	416.07
387.432	429.62
387.881	364.1
388.331	431.03
388.78	399.97
389.229	417.2
389.679	393.2
390.128	387.83
390.577	404.78
391.026	401.67
391.475	419.74
391.924	408.16
392.373	406.19
392.822	432.44
393.27	438.37
393.719	433.85
394.168	429.9
394.617	433.01
395.065	451.07
395.514	442.04
395.962	437.81
396.411	419.46
396.859	433.01
397.307	433.01
397.756	429.9
398.204	429.9
398.652	438.94
399.1	438.65
399.548	433.57
399.996	436.68
400.444	436.96
400.892	416.07
401.34	422.56
401.788	463.49
402.236	451.64
402.683	446.27
403.131	476.75
403.579	428.49
404.026	459.82
404.474	447.97
404.921	464.33
405.369	478.44
405.816	437.24
406.263	477.03
406.71	467.44
407.158	487.47
407.605	471.1
408.052	467.15
408.499	486.34
408.946	491.98
409.393	498.75
409.84	507.49
410.286	490.57
410.733	510.87
411.18	519.33
411.626	586.41
412.073	623.02
412.52	742.3
412.966	873.47
413.413	1139.31
413.859	1421.79
414.305	1739.89
414.752	2225.95
415.198	2657
415.644	3248.64
416.09	3862.51
416.536	4492.42
416.982	5189.49
417.428	5866.45
417.874	6673.87
418.32	7361.49
418.766	8058.23
419.211	9022.45
419.657	9789.52
420.103	10779.08
420.548	11227.49
420.994	12407.77
421.439	13224.34
421.885	13986.82
422.33	15171.66
422.776	16095.82
423.221	16820.59
423.666	17682.71
424.111	18879.78
424.556	19450.21
425.001	20701.61
425.446	21688.17
425.891	22573.18
426.336	23147.82
426.781	23970.62
427.226	25467.14
427.671	25678.33
428.115	26188.28
428.56	26991.05
429.005	27839.02
429.449	27880.61
429.894	28469.92
430.338	28872.16
430.782	28435.21
431.227	28990.4
431.671	28822.81
432.115	29119.13
432.559	29285.45
433.003	28637.34
433.447	28509.27
433.891	28083.37
434.335	27633
434.779	27564.72
435.223	26980.27
435.667	26314.1
436.111	26048.69
436.554	25309.92
436.998	24564.45
437.442	23991.06
437.885	24430.58
438.328	23140.91
438.772	22866.89
439.215	22669.79
439.659	21944.61
440.102	21830.27
440.545	21084.11
440.988	20739.82
441.431	20870.33
441.874	20390.54
442.317	20298.39
442.76	19959.17
443.203	19459.91
443.646	19654.76
444.089	19297.34
444.531	19467.38
444.974	18818.46
445.417	19306.55
445.859	18879.78
446.302	19273.93
446.744	18950.57
447.186	19630.63
447.629	19127.23
448.071	19136.45
448.513	19191.5
448.956	19719.94
449.398	19385.98
449.84	18976.49
450.282	19232.59
450.724	19575.89
451.166	19440.5
451.607	19469.62
452.049	19516.16
452.491	19959.17
452.933	19758.75
453.374	19793.57
453.816	20270.57
454.257	19955.94
454.699	20410.65
455.14	20294.66
455.582	19933.32
456.023	20124.96
456.464	19998.95
456.905	20113.78
457.347	20114.77
457.788	19678.4
458.229	19601.27
458.67	19917.9
459.111	18912.43
459.552	19012.87
459.992	18831.67
460.433	18478.75
460.874	17998.88
461.315	18261.36
461.755	17809.21
462.196	17298.71
462.636	16871.71
463.077	16559.6
463.517	16557.6
463.957	16453.25
464.398	16084.27
464.838	15917.98
465.278	15361.23
465.718	15283.95
466.158	14776.04
466.598	14764.45
467.038	14421.58
467.478	14433.19
467.918	14241.29
468.358	13784
468.798	13578.5
469.237	13456.19
469.677	13226.11
470.117	13284.92
470.556	12443.88
470.996	12576.58
471.435	12411.59
471.874	12492.7
472.314	12243.42
472.753	11979.36
473.192	11837.91
473.631	11720.86
474.07	11702.24
474.509	11522.58
474.948	11546.06
475.387	11422.73
475.826	11097.06
476.265	11443.67
476.704	11312.35
477.143	11370.61
477.581	11314.91
478.02	11495.77
478.458	11070.46
478.897	11192.98
479.335	11608.09
479.774	11384.92
480.212	11463.59
480.65	11341.49
481.089	11350.43
481.527	11226.73
481.965	11156.15
482.403	11622.12
482.841	11617.02
483.279	11543.77
483.717	11603.49
484.155	11449.03
484.592	11545.3
485.03	11677.49
485.468	11340.46
485.905	11469.72
486.343	11586.39
486.781	11342.25
487.218	11232.35
487.655	11161.27
488.093	11016.98
488.53	11402.29
488.967	11101.92
489.405	11048.71
489.842	10781.13
490.279	10814.7
490.716	10691.95
491.153	10700.15
491.59	10466.24
492.027	10294.98
492.463	10178.83
492.9	9986.72
493.337	9906.43
493.773	9887.63
494.21	9535.08
494.647	9497.92
495.083	9215.65
495.519	9105.24
495.956	9017.01
496.392	8868.91
496.828	8766.29
497.265	8537.74
497.701	8494.64
498.137	8331.2
498.573	8138.95
499.009	8199.33
499.445	7868.47
499.881	7721.8
500.316	7739.82
500.752	7506.47
501.188	7371.7
501.624	7301.52
502.059	6994.13
502.495	6870.92
502.93	6862.77
503.366	6934.51
503.801	6617.52
504.236	6522.12
504.672	6438.79
505.107	6273.26
505.542	6165.15
505.977	6066.47
506.412	5960.28
506.847	5977.24
507.282	5799.61
507.717	5734.59
508.152	5703.79
508.587	5620.37
509.021	5439.23
509.456	5400.09
509.891	5318.3
510.325	5264.18
510.76	5247.38
511.194	5166.53
511.628	5098.45
512.063	4933.78
512.497	5020.15
512.931	4832.59
513.366	4796.7
513.8	4842.5
514.234	4708.25
514.668	4621.33
515.102	4683.85
515.536	4529.5
515.969	4554.75
516.403	4463.66
516.837	4359.56
517.271	4392.93
517.704	4356.87
518.138	4252.93
518.571	4223.82
519.005	4180.42
519.438	4146.17
519.871	4117.03
520.305	4059.27
520.738	4009.04
521.171	3931.75
521.604	3985
522.037	3901.19
522.47	3834.09
522.903	3747.44
523.336	3777.24
523.769	3744.19
524.202	3642.81
524.634	3668.3
525.067	3574.97
525.5	3564.11
525.932	3532.07
526.365	3494.59
526.797	3455.46
527.23	3448.12
527.662	3286.23
528.094	3318.9
528.527	3275.61
528.959	3231.74
529.391	3185.95
529.823	3072.73
530.255	3087.74
530.687	2996.52
531.119	2984.77
531.551	2964.54
531.982	2901.65
532.414	2855.4
532.846	2807.76
533.277	2734.34
533.709	2697.6
534.14	2665.78
534.572	2636.7
535.003	2602.66
535.435	2582.34
535.866	2512.01
536.297	2436.67
536.728	2440.25
537.159	2380.53
537.59	2392.09
538.022	2346.94
538.452	2279.16
538.883	2267.04
539.314	2232.29
539.745	2160.56
540.176	2157.8
540.606	2067.76
541.037	2115
541.468	2037.63
541.898	2027.68
542.328	1992.83
542.759	1981.77
543.189	1959.91
543.619	1905.1
544.05	1914.51
544.48	1839.17
544.91	1824.2
545.34	1772.63
545.77	1792.04
546.2	1728.51
546.63	1733.23
547.06	1738.78
547.489	1677.43
547.919	1651.04
548.349	1671.6
548.778	1631.04
549.208	1607.69
549.637	1511.46
550.067	1515.35
550.496	1549.02
550.926	1506.73
551.355	1486.13
551.784	1464.13
552.213	1455.22
552.642	1436.56
553.071	1418.17
553.5	1441.02
553.929	1358.8
554.358	1364.93
554.787	1325.33
555.216	1344.3
555.645	1339.56
556.073	1294.08
556.502	1306.36
556.93	1255.56
557.359	1258.91
557.787	1282.91
558.216	1253.04
558.644	1244.94
559.072	1246.62
559.5	1191.87
559.929	1196.06
560.357	1183.76
560.785	1200.53
561.213	1201.65
561.641	1171.46
562.068	1156.09
562.496	1129.52
562.924	1156.93
563.352	1158.05
563.779	1130.64
564.207	1135.12
564.634	1154.97
565.062	1132.88
565.489	1141.55
565.917	1071.61
566.344	1097.07
566.771	1073.85
567.198	1046.41
567.625	1081.4
568.053	1045.85
568.48	1057.05
568.907	1089.24
569.333	1066.29
569.76	1006.92
570.187	1059.57
570.614	993.2
571.04	2115.83
571.467	1010.29
571.894	995.44
572.32	959.57
572.747	960.41
573.173	938.26
573.599	950.04
574.026	925.08
574.452	934.34
574.878	923.4
575.304	893.95
575.73	902.36
576.156	887.78
576.582	898.44
577.008	858.03
577.434	862.52
577.86	836.7
578.285	828.83
578.711	811.7
579.137	826.31
579.562	811.98
579.988	799.35
580.413	805.52
580.838	787.27
581.264	785.02
581.689	806.37
582.114	760.29
582.539	896.19
582.964	756.92
583.39	728.24
583.814	746.8
584.239	746.52
584.664	716.72
585.089	727.12
585.514	703.78
585.939	686.06
586.363	728.24
586.788	734.99
587.212	671.99
587.637	693.94
588.061	711.09
588.485	686.9
588.91	696.75
589.334	666.93
589.758	666.93
590.182	671.43
590.606	666.65
591.03	668.9
591.454	666.93
591.878	652.29
592.302	635.97
592.726	634.84
593.15	632.03
593.573	606.4
593.997	638.5
594.42	613.44
594.844	597.67
595.267	605.84
595.691	626.96
596.114	610.35
596.537	602.18
596.96	597.11
597.384	628.93
597.807	595.14
598.23	586.41
598.653	577.11
599.076	571.47
599.499	565.56
599.921	603.02
600.344	578.8
600.767	579.08
601.189	590.63
601.612	581.05
602.034	559.36
602.457	572.32
602.879	595.14
603.302	594.57
603.724	578.52
604.146	573.16
604.568	546.39
604.991	559.36
605.413	569.78
605.835	559.64
606.257	544.7
606.678	555.98
607.1	538.78
607.522	533.43
607.944	577.39
608.365	546.96
608.787	537.94
609.209	524.41
609.63	549.21
610.051	551.47
610.473	548.65
610.894	550.34
611.315	546.96
611.737	553.44
612.158	552.59
612.579	532.58
613	513.13
613.421	502.98
613.842	523.56
614.263	533.43
614.683	525.54
615.104	536.53
615.525	516.51
615.945	486.9
616.366	517.08
616.787	495.08
617.207	505.23
617.627	511.72
618.048	469.13
618.468	487.18
618.888	493.39
619.308	486.06
619.728	496.77
620.148	496.21
620.568	499.03
620.988	485.77
621.408	491.13
621.828	498.75
622.248	478.44
622.668	499.03
623.087	521.59
623.507	487.75
623.926	487.75
624.346	504.67
624.765	465.74
625.185	454.74
625.604	464.33
626.023	459.54
626.442	477.31
626.861	473.36
627.28	473.64
627.699	456.15
628.118	463.2
628.537	453.89
628.956	473.08
629.375	468.57
629.794	466.87
630.212	481.82
630.631	466.87
631.049	473.36
631.468	473.64
631.886	436.96
632.305	475.05
632.723	478.44
633.141	465.74
633.559	455.59
633.978	447.68
634.396	465.46
634.814	447.4
635.232	436.4
635.65	438.65
636.067	471.95
636.485	445.99
636.903	443.45
637.321	447.68
637.738	465.18
638.156	448.25
638.573	443.45
638.991	461.23
639.408	453.05
639.825	433.01
640.243	464.9
640.66	424.82
641.077	427.93
641.494	444.3
641.911	449.1
642.328	422.85
642.745	445.71
643.162	443.45
643.579	426.52
643.995	429.9
644.412	444.3
644.829	447.4
645.245	425.95
645.662	412.12
646.078	418.05
646.495	439.22
646.911	434.7
647.327	463.77
647.743	422
648.159	431.31
648.576	414.09
648.992	450.79
649.408	410.71
649.824	443.17
650.239	418.89
650.655	412.4
651.071	414.94
651.487	426.23
651.902	425.95
652.318	401.95
652.733	418.05
653.149	447.68
653.564	424.82
653.979	394.61
654.395	445.43
654.81	404.78
655.225	433.57
655.64	441.19
656.055	423.97
656.47	414.38
656.885	416.92
657.3	418.89
657.715	419.46
658.13	404.21
658.544	414.09
658.959	414.09
659.374	403.36
659.788	422.85
660.202	424.54
660.617	407.6
661.031	392.35
661.445	424.54
661.86	429.34
662.274	423.13
662.688	405.06
663.102	406.75
663.516	409.86
663.93	413.53
664.344	408.16
664.758	406.75
665.171	417.2
665.585	400.82
665.999	392.35
666.412	422.85
666.826	435.27
667.239	409.58
667.653	409.58
668.066	428.77
668.479	407.32
668.892	392.07
669.306	389.81
669.719	403.36
670.132	423.97
670.545	403.08
670.958	424.26
671.37	412.4
671.783	410.71
672.196	410.99
672.609	409.01
673.021	414.94
673.434	385.85
673.846	422
674.259	409.01
674.671	402.52
675.084	439.5
675.496	408.16
675.908	423.41
676.32	394.89
676.732	399.41
677.144	412.96
677.556	393.48
677.968	397.43
678.38	396.3
678.792	407.6
679.204	407.32
679.615	401.1
680.027	396.3
680.439	392.07
680.85	406.75
681.262	392.63
681.673	412.68
682.084	403.93
682.496	388.11
682.907	390.09
683.318	389.24
683.729	395.46
684.14	396.87
684.551	402.23
684.962	404.78
685.373	402.52
685.784	395.46
686.194	385.29
686.605	428.77
687.016	431.6
687.426	388.11
687.837	414.38
688.247	429.9
688.657	402.8
689.068	401.95
689.478	369.19
689.888	393.48
690.298	421.43
690.708	406.75
691.118	410.99
691.528	407.03
691.938	378.23
692.348	400.26
692.758	398
693.168	373.71
693.577	388.96
693.987	393.76
694.396	425.1
694.806	410.42
695.215	427.64
695.625	403.93
696.034	418.33
696.443	417.76
696.852	401.1
697.262	393.48
697.671	412.68
698.08	382.75
698.489	357.6
698.897	397.72
699.306	411.83
699.715	396.02
700.124	401.39
700.532	403.93
700.941	399.41
701.35	418.33
701.758	409.86
702.166	400.82
702.575	404.21
702.983	388.11
703.391	409.86
703.799	414.38
704.208	414.38
704.616	415.79
705.024	395.17
705.432	403.36
705.839	413.25
706.247	416.63
706.655	396.3
707.063	394.33
707.47	392.63
707.878	360.99
708.285	379.07
708.693	382.75
709.1	388.68
709.508	355.63
709.915	413.81
710.322	384.44
710.729	410.71
711.136	397.15
711.543	386.14
711.95	396.59
712.357	410.99
712.764	392.35
713.171	386.98
713.578	399.97
713.984	368.06
714.391	384.16
714.797	383.59
715.204	383.88
715.61	404.49
716.017	377.38
716.423	391.5
716.829	389.24
717.236	403.08
717.642	419.74
718.048	384.44
718.454	402.8
718.86	400.26
719.266	388.11
719.671	407.32
720.077	403.36
720.483	396.3
720.889	403.08
721.294	383.03
721.7	367.49
722.105	394.61
722.511	390.37
722.916	384.44
723.321	423.97
723.726	409.86
724.132	391.79
724.537	404.78
724.942	425.1
725.347	382.46
725.752	388.96
726.156	409.01
726.561	406.47
726.966	388.11
727.371	422.56
727.775	381.33
728.18	393.2
728.584	396.87
728.989	383.03
729.393	392.07
729.798	409.01
730.202	398.56
730.606	385.01
731.01	391.79
731.414	374.27
731.818	405.34
732.222	398.56
732.626	373.43
733.03	388.96
733.434	406.47
733.837	382.75
734.241	408.45
734.645	403.65
735.048	402.8
735.452	399.41
735.855	399.41
736.258	361.28
736.662	425.95
737.065	385.01
737.468	399.41
737.871	390.09
738.274	412.68
738.677	395.46
739.08	373.43
739.483	394.33
739.886	391.5
740.289	403.65
740.691	394.04
741.094	375.4
741.497	389.24
741.899	350.54
742.302	383.31
742.704	405.06
743.106	384.16
743.508	412.68
743.911	418.05
744.313	376.53
744.715	386.98
745.117	390.37
745.519	398
745.921	388.68
746.323	392.63
746.724	393.76
747.126	394.04
747.528	398
747.929	373.43
748.331	412.96
748.732	410.42
749.134	358.73
749.535	389.81
749.936	384.72
750.338	389.81
750.739	385.01
751.14	403.65
751.541	404.21
751.942	407.32
752.343	420.59
752.744	391.79
753.144	379.07
753.545	408.45
753.946	390.66
754.346	390.09
754.747	407.6
755.148	401.39
755.548	414.66
755.948	387.55
756.349	409.01
756.749	387.83
757.149	410.71
757.549	374.84
757.949	396.3
758.349	396.3
758.749	389.24
759.149	383.31
759.549	388.11
759.949	398.85
760.348	414.66
760.748	398.28
761.148	378.79
761.547	387.27
761.947	388.4
762.346	397.72
762.745	395.74
763.145	383.03
763.544	383.03
763.943	378.79
764.342	385.29
764.741	377.38
765.14	389.81
765.539	373.43
765.938	404.21
766.336	384.72
766.735	382.18
767.134	397.15
767.532	412.4
767.931	382.18
768.329	404.49
768.728	392.91
769.126	368.34
769.525	385.57
769.923	402.23
770.321	390.37
770.719	401.67
771.117	368.91
771.515	383.31
771.913	388.11
772.311	390.66
772.709	390.09
773.106	395.74
773.504	387.83
773.902	367.77
774.299	398
774.697	416.35
775.094	389.53
775.491	380.2
775.889	410.71
776.286	414.38
776.683	375.97
777.08	428.49
777.477	399.41
777.874	417.48
778.271	393.2
778.668	366.08
779.065	372.01
779.462	398.28
779.858	385.01
780.255	398.28
780.652	399.13
781.048	390.37
781.444	378.23
781.841	379.07
782.237	401.95
782.633	405.06
783.03	381.05
783.426	407.32
783.822	379.64
784.218	371.17
784.614	368.62
785.01	370.88
785.405	403.93
785.801	382.46
786.197	387.55
786.593	387.55
786.988	384.72
787.384	401.39
787.779	388.68
788.174	398
788.57	373.43
788.965	404.49
789.36	388.68
789.755	386.42
790.15	383.03
790.545	380.2
790.94	367.77
791.335	406.19
791.73	399.41
792.125	388.68
792.52	398
792.914	391.5
793.309	391.5
793.703	394.89
794.098	396.3
794.492	394.33
794.887	388.68
795.281	392.91
795.675	399.69
796.069	406.19
796.463	373.71
796.857	402.23
797.251	384.72
797.645	401.95
798.039	415.79
798.433	399.69
798.826	378.79
799.22	392.35
799.614	416.07
800.007	401.95
800.401	405.34
800.794	374.84
801.187	375.69
801.581	385.01
801.974	370.32
802.367	378.51
802.76	393.2
803.153	398.56
803.546	368.62
803.939	361.84
804.332	358.73
804.725	410.99
805.117	381.05
805.51	401.1
805.903	385.01
806.295	391.79
806.688	369.75
807.08	389.81
807.472	379.36
807.865	390.94
808.257	394.04
808.649	394.04
809.041	379.36
809.433	390.66
809.825	393.76
810.217	370.32
810.609	393.48
811.001	397.43
811.392	399.97
811.784	378.79
812.175	388.11
812.567	394.33
812.958	391.5
813.35	421.72
813.741	383.88
814.132	394.04
814.524	406.47
814.915	391.22
815.306	362.69
815.697	394.89
816.088	378.79
816.479	386.42
816.87	380.2
817.26	400.82
817.651	398.28
818.042	395.17
818.432	379.64
818.823	408.16
819.213	372.58
819.604	397.15
819.994	385.29
820.384	395.74
820.775	372.86
821.165	369.19
821.555	401.1
821.945	405.62
822.335	397.72
822.725	384.16
823.114	372.01
823.504	390.09
823.894	402.8
824.284	392.63
824.673	391.22
825.063	382.75
825.452	396.87
825.842	376.53
826.231	405.91
826.62	386.98
827.009	392.07
827.399	397.15
827.788	389.53
828.177	383.88
828.566	427.64
828.954	385.57
829.343	386.14
829.732	395.46
830.121	398.85
830.509	385.01
830.898	370.04
831.286	379.92
831.675	387.55
832.063	394.89
832.452	370.88
832.84	367.77
833.228	413.25
833.616	397.72
834.004	383.03
834.392	401.95
834.78	402.52
835.168	371.17
835.556	397.15
835.944	392.63
836.331	404.49
836.719	377.38
837.107	412.68
837.494	407.6
837.881	366.36
838.269	421.15
838.656	394.33
839.043	356.76
839.431	386.14
839.818	378.51
840.205	380.77
840.592	379.36
840.979	392.91
841.366	385.57
841.752	383.03
842.139	402.23
842.526	382.18
842.912	393.48
843.299	383.03
843.685	396.3
844.072	380.2
844.458	385.85
844.844	377.1
845.231	381.62
845.617	388.68
846.003	384.72
846.389	381.9
846.775	381.62
847.161	381.33
847.547	369.19
847.933	374.27
848.318	387.27
848.704	397.72
849.09	386.7
849.475	380.77
849.861	379.07
850.246	377.94
850.631	392.63
851.017	379.36
851.402	376.25
851.787	400.26
852.172	395.74
852.557	362.69
852.942	396.87
853.327	378.23
853.712	386.42
854.097	401.39
854.481	368.91
854.866	398.85
855.25	409.01
855.635	393.48
856.019	375.12
856.404	400.82
856.788	383.03
857.172	400.54
857.557	390.66
857.941	372.3
858.325	384.44
858.709	388.11
859.093	356.19
859.477	375.69
859.86	361.28
860.244	385.85
860.628	387.83
861.012	374.27
861.395	373.71
861.779	375.4
862.162	378.23
862.545	398
862.929	357.6
863.312	382.18
863.695	370.04
864.078	390.94
864.461	396.87
864.844	372.86
865.227	384.16
865.61	375.4
865.993	381.05
866.376	369.75
866.758	394.89
867.141	391.5
867.523	393.2
867.906	380.77
868.288	390.37
868.671	390.37
869.053	370.04
869.435	380.49
869.817	416.35
870.199	385.01
870.581	385.01
870.963	373.14
871.345	371.17
871.727	439.78
872.109	395.46
872.491	386.7
872.872	372.58
873.254	376.53
873.635	365.23
874.017	412.68
874.398	390.94
874.779	398.28
875.161	402.8
875.542	354.78
875.923	402.8
876.304	388.96
876.685	392.91
877.066	378.79
877.447	380.49
877.828	391.5
878.208	385.57
878.589	369.47
878.97	392.91
879.35	409.01
879.731	389.24
880.111	383.88
880.491	393.2
880.872	410.14
881.252	361.28
881.632	384.72
882.012	377.1
882.392	395.74
882.772	394.33
883.152	384.16
883.532	363.82
883.912	401.95
884.291	379.36
884.671	370.6
885.051	376.81
885.43	369.47
885.81	367.49
886.189	375.69
886.568	361.28
886.948	387.55
887.327	373.99
887.706	372.3
888.085	385.57
888.464	364.1
888.843	406.47
889.222	351.1
889.601	416.07
889.979	403.65
890.358	416.92
890.737	361.28
891.115	366.36
891.494	377.94
891.872	384.16
892.25	384.16
892.629	372.86
893.007	386.14
893.385	386.42
893.763	372.86
894.141	382.46
894.519	390.09
894.897	372.3
895.275	405.06
895.653	387.83
896.03	388.11
896.408	367.21
896.786	385.85
897.163	374.56
897.541	366.36
897.918	382.18
898.295	372.01
898.673	375.69
899.05	385.57
899.427	404.21
899.804	388.96
900.181	401.1
900.558	386.98
900.935	368.06
901.312	380.77
901.688	384.44
902.065	379.92
902.442	405.06
902.818	365.51
903.195	389.53
903.571	375.4
903.947	359.58
904.324	368.62
904.7	393.48
905.076	402.8
905.452	417.76
905.828	370.04
906.204	374.56
906.58	361.56
906.956	371.73
907.331	379.36
907.707	399.13
908.083	397.15
908.458	383.03
908.834	382.46
909.209	366.36
909.585	390.09
909.96	412.4
910.335	394.04
910.71	369.19
911.086	368.91
911.461	391.22
911.836	389.81
912.21	375.12
912.585	381.62
912.96	365.23
913.335	376.81
913.709	389.53
914.084	397.72
914.459	361.84
914.833	383.59
915.207	408.73
915.582	387.55
915.956	376.81
916.33	368.62
916.704	383.03
917.078	380.2
917.452	391.5
917.826	388.11
918.2	348.28
918.574	377.1
918.948	410.99
919.321	395.17
919.695	399.13
920.068	379.64
920.442	391.79
920.815	367.49
921.189	367.21
921.562	396.87
921.935	374.84
922.308	415.22
922.681	386.98
923.054	381.33
923.427	394.33
923.8	399.41
924.173	385.01
924.546	370.88
924.919	398
925.291	376.53
925.664	392.07
926.036	368.62
926.409	386.42
926.781	371.17
927.153	373.99
927.526	368.62
927.898	383.31
928.27	367.77
928.642	375.97
929.014	377.1
929.386	414.38
929.758	404.78
930.129	373.14
930.501	381.05
930.873	401.67
931.244	350.82
931.616	370.88
931.987	372.58
932.359	383.03
932.73	394.33
933.101	376.81
933.472	369.75
933.843	361.56
934.214	412.68
934.585	381.33
934.956	372.58
935.327	409.01
935.698	390.37
936.069	389.24
936.439	385.01
936.81	370.32
937.18	377.1
937.551	398.28
937.921	386.7
938.292	388.96
938.662	375.4
939.032	360.99
939.402	366.64
939.772	377.1
940.142	395.46
940.512	370.32
940.882	375.12
941.252	407.88
941.621	398.85
941.991	391.79
942.361	392.07
942.73	376.81
943.1	394.89
943.469	383.03
943.838	377.66
944.208	387.55
944.577	399.97
944.946	388.11
945.315	343.47
945.684	377.94
946.053	388.4
946.422	387.83
946.791	379.07
947.159	387.55
947.528	367.77
947.897	368.62
948.265	356.19
948.634	381.33
949.002	385.85
949.371	390.09
949.739	384.16
950.107	346.87
950.475	398
950.843	369.75
951.211	399.41
951.579	379.92
951.947	386.42
952.315	382.18
952.683	368.62
953.05	394.89
953.418	396.3
953.785	381.62
954.153	381.33
954.52	375.12
954.888	372.01
955.255	393.2
955.622	388.68
955.989	392.07
956.356	381.33
956.723	383.88
957.09	392.63
957.457	370.32
957.824	364.67
958.191	411.55
958.557	393.48
958.924	390.94
959.291	373.14
959.657	410.42
960.023	393.2
960.39	388.68
960.756	368.62
961.122	385.01
961.488	383.88
961.855	372.58
962.221	344.32
962.586	363.82
962.952	357.32
963.318	373.14
963.684	381.05
964.05	394.89
964.415	387.27
964.781	375.12
965.146	395.74
965.512	411.27
965.877	352.8
966.242	372.86
966.608	378.23
966.973	361.56
967.338	400.26
967.703	401.95
968.068	348.84
968.433	380.77
968.797	383.31
969.162	372.3
969.527	403.36
969.891	381.05
970.256	383.88
970.62	377.38
970.985	388.96
971.349	401.39
971.714	375.12
972.078	385.29
972.442	377.1
972.806	380.2
973.17	370.6
973.534	372.86
973.898	384.72
974.262	393.2
974.625	375.69
974.989	370.6
975.353	376.81
975.716	399.69
976.08	402.23
976.443	388.11
976.806	370.88
977.17	380.2
977.533	384.44
977.896	365.8
978.259	379.64
978.622	430.19
978.985	386.14
979.348	344.32
979.711	378.79
980.073	405.06
980.436	366.36
980.799	371.45
981.161	398
981.524	373.43
981.886	379.36
982.248	372.58
982.611	392.35
982.973	371.45
983.335	375.4
983.697	376.25
984.059	366.36
984.421	395.74
984.783	381.62
985.145	379.92
985.506	381.33
985.868	409.86
986.23	398.56
986.591	377.66
986.953	373.14
987.314	372.3
987.675	391.22
988.037	1074.13
988.398	394.61
988.759	365.8
989.12	367.21
989.481	384.16
989.842	396.87
990.203	366.36
990.564	355.34
990.924	386.14
991.285	1010.57
991.646	398.85
992.006	381.05
992.367	388.96
992.727	368.91
993.087	405.91
993.448	381.33
993.808	386.14
994.168	388.4
994.528	383.03
994.888	389.53
995.248	384.72
995.608	386.14
995.967	389.24
996.327	370.04
996.687	379.36
997.046	367.49
997.406	354.21
997.765	336.97
998.125	384.16
998.484	390.09
998.843	376.53
999.202	365.8
999.561	387.27
999.92	364.67
1000.279	378.79
1000.638	381.05
1000.997	375.4
1001.356	374.56
1001.715	406.75
1002.073	387.83
1002.432	417.2
1002.79	352.23
1003.149	362.12
1003.507	385.29
1003.865	351.95
1004.224	373.14
1004.582	392.35
1004.94	381.9
1005.298	373.71
1005.656	368.62
1006.014	372.3
1006.371	348.56
1006.729	387.27
1007.087	402.23
1007.445	393.48
1007.802	377.66
1008.16	362.97
1008.517	360.71
1008.874	376.53
1009.232	367.21
1009.589	393.2
1009.946	388.4
1010.303	379.07
1010.66	396.59
1011.017	374.56
1011.374	374.56
1011.731	370.6
1012.087	372.86
1012.444	367.77
1012.801	387.83
1013.157	358.45
1013.513	366.36
1013.87	380.49
1014.226	390.94
1014.582	375.97
1014.939	391.79
1015.295	378.51
1015.651	373.14
1016.007	389.81
1016.363	395.74
1016.719	374.27
1017.074	374.56
1017.43	375.69
1017.786	375.97
1018.141	377.66
1018.497	372.01
1018.852	370.04
1019.208	372.01
1019.563	356.76
1019.918	353.93
1020.273	387.27
1020.628	368.91
1020.983	390.37
1021.338	373.99
1021.693	400.82
1022.048	386.42
1022.403	373.14
1022.757	372.58
1023.112	379.36
1023.467	382.75
1023.821	389.24
1024.175	375.12
1024.53	404.21
1024.884	391.22
1025.238	377.38
1025.592	396.3
1025.946	358.73
1026.3	377.94
1026.654	390.94
1027.008	339.8
1027.362	346.02
1027.716	342.91
1028.069	370.88
1028.423	363.82
1028.777	400.54
1029.13	367.21
1029.483	385.29
1029.837	380.49
1030.19	393.2
1030.543	364.1
1030.896	384.72
1031.249	359.58
1031.602	364.38
1031.955	365.51
1032.308	393.48
1032.661	393.2
1033.013	396.3
1033.366	367.49
1033.719	394.89
1034.071	378.79
1034.424	412.4
1034.776	392.07
1035.128	392.07
1035.48	386.7
1035.833	394.61
1036.185	390.37
1036.537	390.37
1036.889	390.37
