Data from NOL_irradiation_FLMS019251_08-12-04-714.txt Node
Date: Wed Feb 20 08:12:04 PST 2019
User: mu3e
Spectrometer: FLMS01925
Trigger mode: 0
Integration Time (sec): 6.500000E-2
Scans to average: 10
Electric dark correction enabled: true
Nonlinearity correction enabled: true
Boxcar width: 0
XAxis mode: Wavelengths
Number of Pixels in Spectrum: 2048
>>>>>Begin Spectral Data<<<<<
187.103	-70.11
187.574	-70.11
188.045	-70.11
188.516	-124.98
188.987	-119.57
189.458	-122.13
189.929	-109.91
190.4	-106.78
190.871	-105.93
191.342	-82.05
191.813	-41.13
192.284	-44.82
192.754	-17.55
193.225	14.25
193.696	21.91
194.166	16.52
194.637	71
195.107	97.37
195.578	121.47
196.048	124.87
196.518	161.99
196.989	177.86
197.459	188.9
197.929	212.41
198.399	255.71
198.869	268.44
199.339	284.56
199.809	293.33
200.279	300.68
200.749	326.13
201.219	354.95
201.689	348.46
202.159	349.87
202.628	362.87
203.098	375.86
203.568	364.56
204.037	384.34
204.507	381.79
204.976	388.01
205.445	377.27
205.915	388.01
206.384	403.82
206.853	379.53
207.323	362.3
207.792	398.17
208.261	395.35
208.73	348.74
209.199	372.47
209.668	354.39
210.137	361.74
210.606	369.93
211.075	378.12
211.543	379.53
212.012	347.61
212.481	363.71
212.95	358.06
213.418	379.82
213.887	342.24
214.355	361.45
214.824	332.91
215.292	346.48
215.76	317.65
216.229	330.93
216.697	329.24
217.165	334.32
217.633	330.65
218.101	351.85
218.569	376.71
219.037	352.98
219.505	351
219.973	328.39
220.441	334.32
220.909	337.43
221.377	349.02
221.844	323.3
222.312	334.61
222.78	335.17
223.247	345.06
223.715	341.11
224.182	337.72
224.65	341.11
225.117	346.19
225.584	322.74
226.052	328.39
226.519	336.3
226.986	341.39
227.453	335.74
227.92	343.65
228.387	360.32
228.854	342.8
229.321	345.91
229.788	354.39
230.255	369.65
230.722	336.59
231.189	347.32
231.655	344.78
232.122	344.78
232.589	359.76
233.055	353.82
233.522	336.3
233.988	338
234.454	344.78
234.921	332.06
235.387	360.89
235.853	339.69
236.32	351
236.786	349.87
237.252	347.32
237.718	354.11
238.184	319.06
238.65	319.34
239.116	347.61
239.582	363.15
240.047	356.08
240.513	330.65
240.979	343.09
241.445	336.87
241.91	337.15
242.376	373.6
242.841	369.36
243.307	365.41
243.772	358.63
244.238	332.35
244.703	376.14
245.168	344.78
245.633	376.43
246.099	358.06
246.564	354.39
247.029	330.08
247.494	343.65
247.959	367.39
248.424	352.69
248.889	358.35
249.353	352.69
249.818	375.58
250.283	347.32
250.748	368.8
251.212	367.95
251.677	339.41
252.141	356.65
252.606	336.59
253.07	380.95
253.535	340.54
253.999	363.43
254.463	340.26
254.927	342.24
255.392	365.69
255.856	350.15
256.32	357.5
256.784	333.76
257.248	342.24
257.712	376.43
258.176	371.06
258.64	362.02
259.103	363.71
259.567	360.89
260.031	352.13
260.495	329.52
260.958	386.03
261.422	384.34
261.885	355.24
262.349	352.69
262.812	325.56
263.275	340.26
263.739	376.43
264.202	357.22
264.665	386.88
265.128	375.01
265.591	366.54
266.054	366.26
266.517	390.27
266.98	349.87
267.443	329.24
267.906	388.29
268.369	369.36
268.832	376.14
269.294	349.3
269.757	364.28
270.22	357.78
270.682	359.48
271.145	360.04
271.607	352.41
272.07	367.39
272.532	386.88
272.994	349.02
273.456	380.38
273.919	373.32
274.381	358.63
274.843	345.91
275.305	362.87
275.767	343.65
276.229	365.69
276.691	355.8
277.153	370.78
277.614	382.64
278.076	367.39
278.538	354.95
279	376.14
279.461	388.57
279.923	392.53
280.384	375.86
280.846	402.13
281.307	393.37
281.769	358.35
282.23	352.98
282.691	378.12
283.152	358.63
283.613	373.88
284.075	373.32
284.536	360.32
284.997	343.93
285.458	371.34
285.918	373.04
286.379	377.27
286.84	390.55
287.301	371.62
287.762	384.05
288.222	373.6
288.683	376.71
289.143	342.52
289.604	383.21
290.064	376.99
290.525	360.61
290.985	372.19
291.445	340.26
291.906	380.1
292.366	371.62
292.826	367.67
293.286	375.86
293.746	360.89
294.206	396.76
294.666	364.28
295.126	355.8
295.586	374.73
296.046	355.52
296.506	365.97
296.965	389.14
297.425	345.35
297.884	382.92
298.344	402.69
298.804	370.49
299.263	369.65
299.722	339.98
300.182	388.85
300.641	348.46
301.1	367.95
301.559	376.71
302.019	370.78
302.478	371.62
302.937	361.17
303.396	370.78
303.855	397.05
304.314	362.87
304.772	432.9
305.231	373.88
305.69	382.36
306.149	367.95
306.607	364.84
307.066	392.24
307.524	384.62
307.983	396.48
308.441	386.88
308.9	387.73
309.358	367.39
309.816	395.35
310.275	352.13
310.733	366.82
311.191	382.64
311.649	396.2
312.107	369.08
312.565	382.64
313.023	369.08
313.481	377.84
313.939	355.24
314.397	380.66
314.854	377.27
315.312	350.72
315.77	374.17
316.227	364.28
316.685	404.39
317.142	386.03
317.6	362.3
318.057	385.18
318.514	358.91
318.972	356.65
319.429	390.55
319.886	382.92
320.343	360.32
320.8	371.62
321.257	386.6
321.714	399.87
322.171	410.03
322.628	391.4
323.085	391.96
323.542	388.85
323.998	393.94
324.455	407.49
324.912	397.61
325.368	393.09
325.825	389.98
326.281	382.36
326.738	381.23
327.194	397.61
327.65	389.98
328.107	369.93
328.563	390.27
329.019	403.82
329.475	395.07
329.931	378.69
330.387	380.95
330.843	383.77
331.299	343.65
331.755	372.19
332.211	367.1
332.666	368.52
333.122	358.63
333.578	396.76
334.033	361.74
334.489	387.16
334.944	357.78
335.4	407.49
335.855	372.75
336.31	376.71
336.766	387.44
337.221	389.42
337.676	388.85
338.131	393.66
338.586	356.93
339.041	368.52
339.496	373.04
339.951	400.15
340.406	367.39
340.861	378.4
341.316	408.91
341.771	376.99
342.225	386.03
342.68	390.83
343.134	404.39
343.589	386.6
344.043	381.79
344.498	393.37
344.952	387.44
345.406	423.02
345.861	411.45
346.315	385.47
346.769	392.24
347.223	380.95
347.677	396.2
348.131	378.4
348.585	400.72
349.039	384.62
349.493	401.28
349.947	370.78
350.401	362.58
350.854	368.52
351.308	386.03
351.762	412.86
352.215	418.22
352.669	373.88
353.122	382.64
353.575	391.4
354.029	388.57
354.482	382.64
354.935	386.03
355.388	399.87
355.842	392.53
356.295	367.95
356.748	371.34
357.201	373.32
357.654	407.21
358.106	401.28
358.559	405.52
359.012	364
359.465	395.07
359.917	391.96
360.37	410.03
360.823	399.87
361.275	387.44
361.728	366.54
362.18	408.34
362.632	385.47
363.085	397.89
363.537	386.03
363.989	404.39
364.441	375.01
364.893	383.21
365.345	372.75
365.797	388.29
366.249	398.74
366.701	392.81
367.153	393.66
367.605	396.2
368.057	393.09
368.508	385.18
368.96	405.8
369.411	411.16
369.863	374.45
370.314	415.4
370.766	386.03
371.217	402.69
371.669	395.92
372.12	408.34
372.571	384.34
373.022	400.72
373.473	404.67
373.924	393.37
374.375	409.75
374.826	394.79
375.277	399.87
375.728	394.5
376.179	380.95
376.63	395.07
377.08	379.25
377.531	394.5
377.981	389.98
378.432	391.96
378.883	381.23
379.333	376.14
379.783	390.83
380.234	386.31
380.684	400.72
381.134	390.27
381.584	399.59
382.034	389.98
382.485	367.95
382.935	404.67
383.385	406.93
383.834	391.4
384.284	378.4
384.734	391.68
385.184	380.95
385.634	379.53
386.083	395.07
386.533	386.03
386.982	390.83
387.432	391.4
387.881	388.01
388.331	388.85
388.78	409.19
389.229	403.54
389.679	395.92
390.128	409.47
390.577	396.2
391.026	407.21
391.475	383.21
391.924	415.68
392.373	412.01
392.822	375.01
393.27	425.28
393.719	414.83
394.168	402.41
394.617	427.54
395.065	435.16
395.514	433.75
395.962	395.92
396.411	416.25
396.859	392.53
397.307	439.68
397.756	420.48
398.204	418.22
398.652	434.6
399.1	441.93
399.548	430.64
399.996	423.87
400.444	445.04
400.892	448.99
401.34	436.85
401.788	425.56
402.236	450.97
402.683	426.69
403.131	456.33
403.579	447.3
404.026	422.74
404.474	441.65
404.921	450.68
405.369	467.9
405.816	455.76
406.263	448.14
406.71	459.15
407.158	429.51
407.605	469.59
408.052	466.2
408.499	494.13
408.946	459.71
409.393	486.8
409.84	458.02
410.286	474.67
410.733	489.9
411.18	489.62
411.626	552.49
412.073	609.96
412.52	747.54
412.966	907.87
413.413	1138.65
413.859	1339.45
414.305	1703.42
414.752	2109.37
415.198	2554.5
415.644	3060.06
416.09	3660.06
416.536	4157.13
416.982	4821.51
417.428	5467.88
417.874	6193.87
418.32	6914.44
418.766	7486.49
419.211	8381.79
419.657	8998.28
420.103	9903.5
420.548	10391.96
420.994	11422.63
421.439	12168.24
421.885	12814
422.33	13902.03
422.776	14751.49
423.221	15339.99
423.666	16258.93
424.111	17260.32
424.556	17754.12
425.001	18768
425.446	19612.87
425.891	20380.76
426.336	20932.25
426.781	21717.79
427.226	22947.54
427.671	23132.92
428.115	23498.03
428.56	24440.34
429.005	25195.57
429.449	25135.86
429.894	25539.01
430.338	25859.15
430.782	25529.19
431.227	25986.52
431.671	25771.03
432.115	26220.81
432.559	26234.54
433.003	25605.8
433.447	25473.68
433.891	25126.52
434.335	24720.33
434.779	24627.1
435.223	24128.16
435.667	23521.7
436.111	23406.04
436.554	22737.13
436.998	22021.47
437.442	21591.01
437.885	22024.68
438.328	20841.7
438.772	20481.83
439.215	20395.66
439.659	19846.45
440.102	19667.61
440.545	19078.81
440.988	18722.37
441.431	18825.09
441.874	18407.29
442.317	18294.22
442.76	17848.6
443.203	17477.28
443.646	17682.12
444.089	17389.96
444.531	17565.83
444.974	16990.63
445.417	17334.4
445.859	17010.92
446.302	17405.72
446.744	17128.88
447.186	17498.79
447.629	17172.95
448.071	17144.9
448.513	17309.88
448.956	17707.37
449.398	17493.04
449.84	17031.71
450.282	17409.73
450.724	17496.29
451.166	17505.55
451.607	17474.53
452.049	17550.82
452.491	17961.8
452.933	17694.37
453.374	17966.3
453.816	18204.09
454.257	17893.34
454.699	18279.74
455.14	18195.6
455.582	17968.05
456.023	17889.34
456.464	17983.04
456.905	18187.86
457.347	17983.79
457.788	17601.85
458.229	17493.54
458.67	17891.34
459.111	17053
459.552	17092.57
459.992	16796.69
460.433	16601.39
460.874	16045.75
461.315	16376.63
461.755	15879.19
462.196	15593.35
462.636	15181.64
463.077	14992.97
463.517	14846.79
463.957	14703.07
464.398	14440.42
464.838	14329.59
465.278	13764.68
465.718	13696.36
466.158	13302.31
466.598	13274.68
467.038	12900.82
467.478	12934.07
467.918	12761.18
468.358	12413.02
468.798	12241.8
469.237	12095.93
469.677	11892.11
470.117	11940.53
470.556	11207.97
470.996	11253.22
471.435	11203.62
471.874	11207.45
472.314	11084.18
472.753	10786.16
473.192	10664.42
473.631	10538.24
474.07	10510.53
474.509	10462.03
474.948	10515.66
475.387	10296.68
475.826	10065.09
476.265	10336.49
476.704	10198.27
477.143	10265.34
477.581	10207.78
478.02	10381.94
478.458	10019.05
478.897	10190.82
479.335	10368.08
479.774	10237.85
480.212	10290.51
480.65	10273.82
481.089	10223.46
481.527	10021.62
481.965	9995.12
482.403	10445.86
482.841	10514.64
483.279	10392.98
483.717	10425.84
484.155	10408.9
484.592	10405.56
485.03	10485.9
485.468	10284.61
485.905	10302.84
486.343	10484.36
486.781	10203.41
487.218	10099.04
487.655	10085.67
488.093	9929.5
488.53	10195.96
488.967	9910.96
489.405	9959.61
489.842	9709.03
490.279	9687.12
490.716	9557.94
491.153	9679.65
491.59	9441.31
492.027	9297.21
492.463	9222.01
492.9	8966.7
493.337	8887.98
493.773	8938.22
494.21	8680.36
494.647	8545.17
495.083	8342.03
495.519	8231.24
495.956	8123.49
496.392	8032.34
496.828	7891.84
497.265	7684.36
497.701	7627.67
498.137	7549.25
498.573	7363.49
499.009	7393.86
499.445	7171.95
499.881	6979.59
500.316	6986.42
500.752	6741.16
501.188	6639.81
501.624	6634.28
502.059	6384.59
502.495	6314.63
502.93	6229.03
503.366	6311.19
503.801	6037.78
504.236	5918.31
504.672	5802.17
505.107	5738.21
505.542	5648.18
505.977	5522.69
506.412	5412.78
506.847	5459.37
507.282	5311.54
507.717	5206.73
508.152	5158.96
508.587	5072.7
509.021	4954.81
509.456	4839.46
509.891	4853.38
510.325	4787.49
510.76	4721.02
511.194	4690.72
511.628	4669.8
512.063	4514.62
512.497	4548.2
512.931	4458.45
513.366	4430.21
513.8	4399.82
514.234	4216.45
514.668	4235.58
515.102	4276.53
515.536	4119.09
515.969	4152.54
516.403	4046.21
516.837	3980.03
517.271	3989.76
517.704	3950.3
518.138	3880.53
518.571	3875.66
519.005	3785.26
519.438	3801.78
519.871	3769.55
520.305	3676.06
520.738	3711.57
521.171	3598.75
521.604	3615.03
522.037	3619.92
522.47	3517.31
522.903	3449.1
523.336	3455.63
523.769	3398.26
524.202	3325.33
524.634	3353.91
525.067	3314.44
525.5	3271.15
525.932	3233
526.365	3190.21
526.797	3119.3
527.23	3110.56
527.662	3050.78
528.094	2996.69
528.527	2959.52
528.959	2959.25
529.391	2910.85
529.823	2791.78
530.255	2844.35
530.687	2763.56
531.119	2743.55
531.551	2692.83
531.982	2645.65
532.414	2629.46
532.846	2582.24
533.277	2519.88
533.709	2473.42
534.14	2455
534.572	2434.09
535.003	2373.82
535.435	2348.21
535.866	2335.55
536.297	2275.75
536.728	2262.52
537.159	2215.64
537.59	2177.02
538.022	2166.53
538.452	2074.29
538.883	2080.09
539.314	2080.37
539.745	2039.74
540.176	1999.92
540.606	1967.83
541.037	1959.81
541.468	1888.1
541.898	1867.05
542.328	1867.33
542.759	1788.88
543.189	1800.53
543.619	1767.53
544.05	1732.29
544.48	1695.65
544.91	1685.1
545.34	1675.66
545.77	1640.66
546.2	1620.37
546.63	1622.6
547.06	1587.85
547.489	1569.5
547.919	1526.66
548.349	1528.05
548.778	1518.87
549.208	1469.04
549.637	1455.4
550.067	1425.59
550.496	1452.89
550.926	1420.3
551.355	1372.91
551.784	1398.56
552.213	1392.43
552.642	1332.2
553.071	1333.87
553.5	1314.9
553.929	1281.97
554.358	1285.6
554.787	1281.41
555.216	1233.39
555.645	1244.84
556.073	1238.7
556.502	1198.19
556.93	1209.65
557.359	1209.09
557.787	1156.54
558.216	1160.74
558.644	1156.54
559.072	1173.87
559.5	1142
559.929	1130.54
560.357	1122.15
560.785	1149.83
561.213	1122.43
561.641	1103.68
562.068	1107.04
562.496	1084.66
562.924	1077.38
563.352	1090.81
563.779	1092.77
564.207	1062.27
564.634	1050.51
565.062	1063.95
565.489	1055.27
565.917	1039.87
566.344	1050.51
566.771	1017.46
567.198	1046.87
567.625	1012.7
568.053	1032.03
568.48	993.37
568.907	995.33
569.333	974.04
569.76	967.31
570.187	973.2
570.614	961.71
571.04	2090.04
571.467	980.2
571.894	951.05
572.32	904.78
572.747	935.63
573.173	926.94
573.599	889.07
574.026	901.98
574.452	849.5
574.878	844.45
575.304	843.05
575.73	863.26
576.156	848.94
576.582	815.81
577.008	808.51
577.434	800.36
577.86	792.78
578.285	811.04
578.711	791.09
579.137	775.36
579.562	796.71
579.988	780.7
580.413	782.1
580.838	752.32
581.264	745.29
581.689	756.53
582.114	746.69
582.539	831.26
582.964	735.73
583.39	720.55
583.814	716.61
584.239	695.52
584.664	698.61
585.089	698.89
585.514	695.8
585.939	691.58
586.363	702.83
586.788	670.2
587.212	663.16
587.637	633.61
588.061	693.83
588.485	679.48
588.91	644.31
589.334	647.12
589.758	665.98
590.182	642.34
590.606	661.47
591.03	634.17
591.454	652.47
591.878	627.13
592.302	587.71
592.726	620.1
593.15	631.08
593.573	598.13
593.997	620.38
594.42	586.86
594.844	595.88
595.267	589.12
595.691	606.86
596.114	597.57
596.537	584.05
596.96	586.58
597.384	553.9
597.807	571.37
598.23	569.68
598.653	587.71
599.076	553.9
599.499	551.93
599.921	563.76
600.344	562.07
600.767	578.69
601.189	553.9
601.612	572.21
602.034	556.43
602.457	541.5
602.879	562.63
603.302	538.4
603.724	530.5
604.146	547.13
604.568	537.27
604.991	533.89
605.413	532.48
605.835	550.52
606.257	552.21
606.678	531.63
607.1	560.38
607.522	538.11
607.944	544.32
608.365	517.25
608.787	488.21
609.209	512.46
609.63	500.62
610.051	520.35
610.473	538.96
610.894	534.73
611.315	546.29
611.737	517.82
612.158	520.07
612.579	517.82
613	535.58
613.421	489.33
613.842	501.46
614.263	493
614.683	491.87
615.104	497.23
615.525	495.54
615.945	497.8
616.366	480.31
616.787	497.51
617.207	476.36
617.627	479.18
618.048	495.54
618.468	480.31
618.888	464.51
619.308	458.02
619.728	457.46
620.148	489.9
620.568	480.03
620.988	500.05
621.408	495.26
621.828	471.85
622.248	489.9
622.668	467.9
623.087	470.43
623.507	485.39
623.926	459.43
624.346	470.15
624.765	489.9
625.185	442.5
625.604	450.12
626.023	448.14
626.442	433.18
626.861	454.63
627.28	469.59
627.699	465.36
628.118	482.28
628.537	465.64
628.956	455.48
629.375	460.28
629.794	447.86
630.212	451.53
630.631	457.74
631.049	442.5
631.468	450.12
631.886	454.35
632.305	444.76
632.723	427.54
633.141	447.3
633.559	447.58
633.978	417.94
634.396	447.86
634.814	437.42
635.232	442.78
635.65	430.64
636.067	430.36
636.485	453.5
636.903	425.28
637.321	439.39
637.738	455.76
638.156	426.13
638.573	385.75
638.991	426.13
639.408	443.91
639.825	432.9
640.243	439.68
640.66	423.87
641.077	395.35
641.494	443.35
641.911	433.75
642.328	424.43
642.745	407.78
643.162	412.86
643.579	415.68
643.995	407.21
644.412	410.6
644.829	404.1
645.245	421.05
645.662	412.86
646.078	429.51
646.495	405.52
646.911	408.91
647.327	440.81
647.743	425.28
648.159	419.92
648.576	428.95
648.992	450.97
649.408	403.26
649.824	469.59
650.239	415.96
650.655	422.74
651.071	388.85
651.487	430.08
651.902	408.34
652.318	380.1
652.733	395.63
653.149	385.18
653.564	415.68
653.979	387.73
654.395	421.05
654.81	409.47
655.225	430.93
655.64	423.3
656.055	423.59
656.47	419.07
656.885	418.5
657.3	400.72
657.715	434.88
658.13	419.92
658.544	402.41
658.959	404.95
659.374	383.49
659.788	436.29
660.202	416.81
660.617	415.68
661.031	435.72
661.445	389.98
661.86	385.18
662.274	434.88
662.688	419.63
663.102	420.2
663.516	406.93
663.93	417.38
664.344	388.85
664.758	375.58
665.171	386.31
665.585	410.03
665.999	389.42
666.412	397.33
666.826	402.69
667.239	423.87
667.653	382.92
668.066	366.54
668.479	424.43
668.892	408.34
669.306	408.91
669.719	378.4
670.132	381.23
670.545	384.9
670.958	406.65
671.37	423.87
671.783	393.37
672.196	400.43
672.609	417.66
673.021	394.79
673.434	374.17
673.846	394.5
674.259	382.92
674.671	367.95
675.084	358.91
675.496	416.53
675.908	386.88
676.32	395.92
676.732	404.67
677.144	402.13
677.556	390.27
677.968	411.73
678.38	366.54
678.792	412.58
679.204	399.87
679.615	424.43
680.027	414.55
680.439	393.94
680.85	406.08
681.262	407.21
681.673	401
682.084	404.67
682.496	412.01
682.907	399.3
683.318	407.21
683.729	389.7
684.14	382.36
684.551	404.67
684.962	395.07
685.373	401.85
685.784	402.13
686.194	394.79
686.605	389.14
687.016	380.38
687.426	408.34
687.837	363.43
688.247	378.4
688.657	376.99
689.068	396.2
689.478	384.34
689.888	388.29
690.298	398.17
690.708	429.51
691.118	392.24
691.528	389.98
691.938	371.62
692.348	405.23
692.758	405.23
693.168	409.47
693.577	393.94
693.987	382.08
694.396	399.02
694.806	375.3
695.215	418.79
695.625	402.98
696.034	396.76
696.443	372.19
696.852	405.23
697.262	387.16
697.671	409.19
698.08	391.4
698.489	382.64
698.897	381.79
699.306	366.26
699.715	384.05
700.124	393.66
700.532	383.21
700.941	396.76
701.35	385.75
701.758	425.28
702.166	397.61
702.575	363.15
702.983	375.58
703.391	387.16
703.799	390.27
704.208	417.38
704.616	419.07
705.024	398.74
705.432	379.82
705.839	391.96
706.247	395.92
706.655	410.88
707.063	372.47
707.47	365.41
707.878	374.17
708.285	376.99
708.693	412.01
709.1	385.75
709.508	363.15
709.915	389.42
710.322	397.05
710.729	399.02
711.136	389.98
711.543	376.71
711.95	404.95
712.357	396.2
712.764	379.53
713.171	388.57
713.578	387.16
713.984	377.27
714.391	390.55
714.797	381.23
715.204	381.23
715.61	406.65
716.017	359.48
716.423	365.97
716.829	395.92
717.236	402.13
717.642	383.77
718.048	404.67
718.454	386.03
718.86	369.36
719.266	393.09
719.671	390.55
720.077	398.74
720.483	391.4
720.889	412.58
721.294	377.84
721.7	377.27
722.105	380.66
722.511	373.88
722.916	393.66
723.321	401.28
723.726	387.16
724.132	394.79
724.537	390.55
724.942	399.02
725.347	402.69
725.752	366.54
726.156	387.73
726.561	401.28
726.966	370.21
727.371	418.79
727.775	416.53
728.18	354.39
728.584	386.31
728.989	359.76
729.393	412.29
729.798	407.78
730.202	401.56
730.606	390.83
731.01	383.77
731.414	362.02
731.818	368.8
732.222	374.73
732.626	372.47
733.03	377.84
733.434	377.27
733.837	383.49
734.241	390.83
734.645	373.6
735.048	413.42
735.452	369.65
735.855	387.16
736.258	375.58
736.662	387.44
737.065	396.48
737.468	397.33
737.871	392.81
738.274	382.64
738.677	380.66
739.08	408.91
739.483	373.32
739.886	377.56
740.289	375.01
740.691	380.1
741.094	377.27
741.497	373.6
741.899	410.03
742.302	387.73
742.704	400.72
743.106	390.27
743.508	379.82
743.911	400.43
744.313	358.91
744.715	363.15
745.117	360.89
745.519	406.93
745.921	393.37
746.323	392.81
746.724	387.16
747.126	343.65
747.528	390.55
747.929	361.74
748.331	389.42
748.732	391.11
749.134	406.08
749.535	365.97
749.936	379.82
750.338	379.25
750.739	384.05
751.14	383.77
751.541	380.66
751.942	404.39
752.343	407.78
752.744	357.78
753.144	378.12
753.545	374.73
753.946	400.43
754.346	364.28
754.747	388.85
755.148	383.21
755.548	388.57
755.948	371.62
756.349	406.65
756.749	417.94
757.149	394.22
757.549	373.32
757.949	382.08
758.349	385.47
758.749	363.15
759.149	364.56
759.549	363.15
759.949	357.5
760.348	398.46
760.748	388.57
761.148	389.42
761.547	382.64
761.947	382.08
762.346	398.46
762.745	392.81
763.145	370.21
763.544	374.45
763.943	382.64
764.342	365.41
764.741	406.36
765.14	387.16
765.539	386.31
765.938	393.66
766.336	390.83
766.735	378.69
767.134	364
767.532	382.92
767.931	384.05
768.329	407.49
768.728	372.75
769.126	371.06
769.525	400.43
769.923	397.89
770.321	358.63
770.719	379.82
771.117	394.79
771.515	375.58
771.913	386.31
772.311	351
772.709	364.28
773.106	367.39
773.504	375.86
773.902	381.23
774.299	396.48
774.697	418.22
775.094	387.73
775.491	401.85
775.889	394.5
776.286	365.97
776.683	361.74
777.08	371.06
777.477	390.83
777.874	382.36
778.271	352.69
778.668	402.41
779.065	367.1
779.462	386.03
779.858	389.98
780.255	391.96
780.652	370.21
781.048	396.2
781.444	356.93
781.841	374.73
782.237	388.57
782.633	369.36
783.03	376.43
783.426	394.22
783.822	383.77
784.218	375.86
784.614	375.58
785.01	389.42
785.405	349.02
785.801	375.3
786.197	350.72
786.593	365.69
786.988	374.17
787.384	371.91
787.779	362.58
788.174	384.05
788.57	382.36
788.965	357.5
789.36	372.19
789.755	380.66
790.15	367.1
790.545	363.15
790.94	399.02
791.335	367.67
791.73	326.98
792.125	369.93
792.52	366.82
792.914	386.31
793.309	368.8
793.703	368.23
794.098	356.65
794.492	375.3
794.887	380.38
795.281	387.73
795.675	369.93
796.069	393.37
796.463	363.43
796.857	357.78
797.251	391.68
797.645	386.31
798.039	352.41
798.433	356.93
798.826	371.06
799.22	380.1
799.614	365.13
800.007	355.8
800.401	373.32
800.794	350.43
801.187	361.17
801.581	377.84
801.974	364.28
802.367	367.39
802.76	358.35
803.153	364
803.546	382.08
803.939	388.57
804.332	357.22
804.725	404.39
805.117	390.83
805.51	392.24
805.903	368.23
806.295	389.98
806.688	399.59
807.08	374.17
807.472	391.4
807.865	380.66
808.257	386.03
808.649	380.1
809.041	395.35
809.433	375.58
809.825	382.08
810.217	376.71
810.609	363.43
811.001	380.66
811.392	388.29
811.784	367.95
812.175	385.18
812.567	402.98
812.958	400.43
813.35	385.47
813.741	389.7
814.132	367.67
814.524	372.19
814.915	373.6
815.306	369.93
815.697	386.6
816.088	376.99
816.479	376.99
816.87	396.48
817.26	375.58
817.651	382.92
818.042	389.98
818.432	369.65
818.823	358.63
819.213	388.85
819.604	399.59
819.994	397.89
820.384	384.62
820.775	373.32
821.165	349.02
821.555	381.51
821.945	377.56
822.335	370.78
822.725	386.31
823.114	387.73
823.504	365.13
823.894	365.97
824.284	379.82
824.673	365.97
825.063	389.98
825.452	383.21
825.842	364.56
826.231	408.06
826.62	388.85
827.009	354.95
827.399	383.49
827.788	369.36
828.177	371.06
828.566	395.07
828.954	383.21
829.343	361.17
829.732	339.13
830.121	408.62
830.509	378.12
830.898	399.59
831.286	399.59
831.675	383.49
832.063	394.79
832.452	377.84
832.84	389.7
833.228	387.16
833.616	360.61
834.004	385.75
834.392	390.55
834.78	352.41
835.168	356.37
835.556	381.79
835.944	362.3
836.331	378.12
836.719	386.6
837.107	399.02
837.494	383.77
837.881	334.61
838.269	371.06
838.656	357.5
839.043	359.76
839.431	384.05
839.818	383.49
840.205	374.17
840.592	381.51
840.979	375.86
841.366	363.15
841.752	392.81
842.139	378.69
842.526	339.41
842.912	360.32
843.299	369.65
843.685	385.75
844.072	396.2
844.458	387.73
844.844	410.32
845.231	364
845.617	373.32
846.003	395.92
846.389	385.18
846.775	374.73
847.161	400.15
847.547	395.63
847.933	359.19
848.318	389.7
848.704	352.13
849.09	391.11
849.475	339.69
849.861	375.3
850.246	370.49
850.631	364.28
851.017	372.75
851.402	356.65
851.787	395.35
852.172	391.96
852.557	377.56
852.942	362.02
853.327	376.43
853.712	399.87
854.097	373.6
854.481	386.6
854.866	412.58
855.25	380.95
855.635	384.34
856.019	371.91
856.404	364.56
856.788	353.26
857.172	352.98
857.557	383.21
857.941	357.78
858.325	359.19
858.709	375.86
859.093	386.6
859.477	382.08
859.86	365.69
860.244	380.66
860.628	372.75
861.012	371.62
861.395	377.27
861.779	386.03
862.162	384.34
862.545	361.17
862.929	373.88
863.312	379.25
863.695	362.02
864.078	347.89
864.461	380.1
864.844	400.43
865.227	384.62
865.61	364.56
865.993	402.69
866.376	370.49
866.758	377.27
867.141	386.31
867.523	379.53
867.906	379.25
868.288	374.45
868.671	379.82
869.053	378.69
869.435	377.56
869.817	358.63
870.199	379.25
870.581	356.08
870.963	396.76
871.345	393.37
871.727	370.49
872.109	350.43
872.491	356.93
872.872	350.43
873.254	378.97
873.635	360.89
874.017	380.38
874.398	366.54
874.779	384.05
875.161	373.6
875.542	378.97
875.923	376.14
876.304	366.26
876.685	389.14
877.066	363.43
877.447	378.97
877.828	352.69
878.208	380.38
878.589	393.09
878.97	377.84
879.35	361.17
879.731	406.65
880.111	376.43
880.491	388.57
880.872	371.91
881.252	371.34
881.632	351.56
882.012	365.41
882.392	362.02
882.772	401
883.152	385.18
883.532	374.45
883.912	348.46
884.291	386.31
884.671	373.32
885.051	377.27
885.43	367.39
885.81	371.34
886.189	362.87
886.568	380.1
886.948	359.76
887.327	380.95
887.706	381.23
888.085	376.14
888.464	386.03
888.843	386.03
889.222	368.52
889.601	388.01
889.979	380.95
890.358	344.78
890.737	374.17
891.115	368.52
891.494	378.4
891.872	398.74
892.25	376.71
892.629	377.84
893.007	388.57
893.385	371.62
893.763	365.69
894.141	361.17
894.519	378.12
894.897	389.42
895.275	387.73
895.653	352.98
896.03	347.32
896.408	354.67
896.786	387.44
897.163	389.98
897.541	364.56
897.918	356.08
898.295	380.1
898.673	370.49
899.05	360.61
899.427	437.14
899.804	367.95
900.181	357.22
900.558	390.55
900.935	373.88
901.312	392.53
901.688	367.1
902.065	393.94
902.442	371.91
902.818	389.42
903.195	390.27
903.571	370.49
903.947	353.26
904.324	356.65
904.7	371.34
905.076	345.06
905.452	389.42
905.828	362.3
906.204	400.15
906.58	375.86
906.956	389.42
907.331	377.27
907.707	386.31
908.083	387.73
908.458	386.88
908.834	372.47
909.209	361.74
909.585	387.73
909.96	351.56
910.335	369.08
910.71	371.91
911.086	387.73
911.461	373.6
911.836	364
912.21	371.06
912.585	373.6
912.96	376.43
913.335	381.51
913.709	385.75
914.084	364.84
914.459	352.69
914.833	358.63
915.207	362.02
915.582	343.09
915.956	364
916.33	386.88
916.704	385.75
917.078	366.26
917.452	386.88
917.826	370.21
918.2	356.93
918.574	374.45
918.948	356.93
919.321	388.57
919.695	365.97
920.068	377.27
920.442	365.13
920.815	371.06
921.189	384.05
921.562	395.07
921.935	386.6
922.308	356.65
922.681	392.53
923.054	396.48
923.427	389.7
923.8	382.36
924.173	383.21
924.546	336.02
924.919	365.69
925.291	362.58
925.664	369.93
926.036	382.08
926.409	345.91
926.781	391.96
927.153	368.52
927.526	378.4
927.898	366.54
928.27	367.1
928.642	362.3
929.014	370.49
929.386	360.32
929.758	364.28
930.129	362.87
930.501	383.77
930.873	358.35
931.244	382.08
931.616	370.78
931.987	381.79
932.359	383.21
932.73	378.97
933.101	378.12
933.472	366.82
933.843	368.23
934.214	360.89
934.585	393.94
934.956	364.84
935.327	435.44
935.698	373.6
936.069	380.1
936.439	387.16
936.81	380.38
937.18	390.83
937.551	376.14
937.921	374.17
938.292	364.56
938.662	364
939.032	389.42
939.402	356.37
939.772	362.02
940.142	350.43
940.512	350.15
940.882	395.07
941.252	383.21
941.621	380.66
941.991	401.56
942.361	379.25
942.73	367.1
943.1	353.54
943.469	377.84
943.838	386.31
944.208	376.71
944.577	373.04
944.946	391.4
945.315	365.41
945.684	361.74
946.053	368.23
946.422	365.69
946.791	362.3
947.159	394.79
947.528	372.47
947.897	357.78
948.265	383.49
948.634	367.67
949.002	358.91
949.371	379.53
949.739	394.22
950.107	357.22
950.475	372.19
950.843	376.71
951.211	381.23
951.579	354.39
951.947	351.85
952.315	349.59
952.683	376.99
953.05	343.37
953.418	380.1
953.785	378.4
954.153	377.27
954.52	348.17
954.888	386.88
955.255	356.93
955.622	358.06
955.989	388.01
956.356	403.26
956.723	368.52
957.09	393.09
957.457	384.62
957.824	378.4
958.191	363.15
958.557	401.56
958.924	368.23
959.291	389.42
959.657	366.26
960.023	377.84
960.39	365.97
960.756	380.1
961.122	368.8
961.488	406.08
961.855	379.82
962.221	363.15
962.586	372.47
962.952	375.01
963.318	346.19
963.684	411.45
964.05	371.06
964.415	381.79
964.781	359.48
965.146	370.49
965.512	371.06
965.877	350.43
966.242	391.4
966.608	383.49
966.973	392.53
967.338	370.21
967.703	402.41
968.068	368.8
968.433	362.87
968.797	359.48
969.162	392.53
969.527	361.45
969.891	376.99
970.256	357.5
970.62	374.17
970.985	382.64
971.349	377.84
971.714	370.49
972.078	404.95
972.442	371.62
972.806	386.88
973.17	385.18
973.534	376.14
973.898	362.58
974.262	370.49
974.625	380.1
974.989	360.04
975.353	380.38
975.716	362.87
976.08	366.54
976.443	367.1
976.806	376.71
977.17	350.15
977.533	373.6
977.896	354.67
978.259	385.75
978.622	396.76
978.985	375.01
979.348	382.92
979.711	388.85
980.073	386.6
980.436	359.76
980.799	356.93
981.161	391.4
981.524	351.28
981.886	382.36
982.248	365.41
982.611	368.23
982.973	378.69
983.335	360.04
983.697	376.43
984.059	380.95
984.421	393.37
984.783	374.73
985.145	367.67
985.506	349.3
985.868	375.01
986.23	353.54
986.591	372.75
986.953	375.58
987.314	376.14
987.675	364.28
988.037	1306.25
988.398	390.27
988.759	378.12
989.12	370.78
989.481	373.88
989.842	373.32
990.203	394.22
990.564	351.85
990.924	390.55
991.285	1185.05
991.646	377.56
992.006	372.19
992.367	379.53
992.727	348.46
993.087	372.47
993.448	361.45
993.808	351
994.168	361.45
994.528	361.17
994.888	404.95
995.248	397.05
995.608	356.37
995.967	352.13
996.327	381.79
996.687	370.21
997.046	385.75
997.406	364.84
997.765	362.3
998.125	367.95
998.484	370.49
998.843	368.52
999.202	355.52
999.561	352.69
999.92	364
1000.279	390.55
1000.638	358.35
1000.997	372.47
1001.356	364.28
1001.715	356.08
1002.073	350.43
1002.432	368.52
1002.79	380.38
1003.149	377.84
1003.507	375.3
1003.865	369.65
1004.224	395.92
1004.582	380.95
1004.94	353.82
1005.298	386.31
1005.656	350.15
1006.014	367.95
1006.371	365.41
1006.729	352.41
1007.087	378.4
1007.445	370.78
1007.802	363.71
1008.16	382.36
1008.517	376.71
1008.874	372.19
1009.232	373.6
1009.589	402.13
1009.946	363.15
1010.303	375.86
1010.66	364.28
1011.017	375.86
1011.374	365.97
1011.731	358.06
1012.087	371.06
1012.444	369.36
1012.801	360.89
1013.157	383.49
1013.513	383.77
1013.87	371.06
1014.226	356.93
1014.582	393.66
1014.939	379.82
1015.295	400.72
1015.651	346.76
1016.007	373.88
1016.363	380.95
1016.719	380.66
1017.074	406.93
1017.43	339.98
1017.786	350.72
1018.141	354.67
1018.497	339.41
1018.852	364.56
1019.208	381.51
1019.563	384.05
1019.918	366.26
1020.273	401
1020.628	382.92
1020.983	381.79
1021.338	393.37
1021.693	377.84
1022.048	377.84
1022.403	393.94
1022.757	371.91
1023.112	345.35
1023.467	360.89
1023.821	361.17
1024.175	373.32
1024.53	377.84
1024.884	362.3
1025.238	371.91
1025.592	375.01
1025.946	360.61
1026.3	354.67
1026.654	361.17
1027.008	372.47
1027.362	358.63
1027.716	369.36
1028.069	347.61
1028.423	378.4
1028.777	385.47
1029.13	362.87
1029.483	343.37
1029.837	383.49
1030.19	377.84
1030.543	376.99
1030.896	380.95
1031.249	384.9
1031.602	379.53
1031.955	384.34
1032.308	345.63
1032.661	373.32
1033.013	342.52
1033.366	362.02
1033.719	355.8
1034.071	358.91
1034.424	355.52
1034.776	348.46
1035.128	386.31
1035.48	367.95
1035.833	369.36
1036.185	373.32
1036.537	373.32
1036.889	373.32
