Data from NOL_irradiation_FLMS019251_07-56-04-761.txt Node
Date: Wed Feb 20 07:56:04 PST 2019
User: mu3e
Spectrometer: FLMS01925
Trigger mode: 0
Integration Time (sec): 6.500000E-2
Scans to average: 10
Electric dark correction enabled: true
Nonlinearity correction enabled: true
Boxcar width: 0
XAxis mode: Wavelengths
Number of Pixels in Spectrum: 2048
>>>>>Begin Spectral Data<<<<<
187.103	-81.65
187.574	-81.65
188.045	-81.65
188.516	-137.39
188.987	-123.16
189.458	-104.4
189.929	-106.67
190.4	-136.82
190.871	-101.84
191.342	-104.4
191.813	-79.1
192.284	-28.81
192.754	-31.93
193.225	-6.94
193.696	12.37
194.166	64.87
194.637	90.67
195.107	107.69
195.578	134.9
196.048	128.95
196.518	160.4
196.989	196.66
197.459	230.06
197.929	244.5
198.399	271.94
198.869	268.55
199.339	288.35
199.809	307.57
200.279	325.1
200.749	333.02
201.219	341.21
201.689	331.89
202.159	373.99
202.628	340.08
203.098	381.9
203.568	372.01
204.037	379.64
204.507	403.36
204.976	404.78
205.445	386.7
205.915	383.59
206.384	377.94
206.853	393.48
207.323	402.52
207.792	385.29
208.261	385.85
208.73	390.66
209.199	381.62
209.668	380.77
210.137	377.66
210.606	372.58
211.075	387.83
211.543	392.63
212.012	377.1
212.481	357.6
212.95	378.79
213.418	352.52
213.887	360.43
214.355	362.41
214.824	357.89
215.292	362.41
215.76	336.69
216.229	345.45
216.697	353.08
217.165	355.63
217.633	355.34
218.101	344.32
218.569	353.65
219.037	349.41
219.505	340.65
219.973	336.97
220.441	342.63
220.909	351.67
221.377	344.04
221.844	349.69
222.312	372.01
222.78	341.21
223.247	367.77
223.715	336.13
224.182	336.97
224.65	354.5
225.117	356.47
225.584	321.99
226.052	370.6
226.519	354.5
226.986	331.6
227.453	353.08
227.92	350.82
228.387	351.39
228.854	328.78
229.321	344.6
229.788	380.2
230.255	338.39
230.722	355.06
231.189	366.08
231.655	364.95
232.122	333.3
232.589	346.58
233.055	338.1
233.522	363.54
233.988	339.52
234.454	377.94
234.921	373.43
235.387	366.93
235.853	370.04
236.32	334.43
236.786	356.47
237.252	346.02
237.718	368.62
238.184	350.26
238.65	369.19
239.116	336.97
239.582	349.41
240.047	354.5
240.513	367.49
240.979	378.51
241.445	388.4
241.91	366.93
242.376	341.78
242.841	354.78
243.307	367.21
243.772	370.6
244.238	346.3
244.703	360.99
245.168	355.34
245.633	359.3
246.099	365.23
246.564	353.37
247.029	380.2
247.494	363.25
247.959	362.69
248.424	355.63
248.889	357.89
249.353	365.23
249.818	359.86
250.283	341.5
250.748	373.71
251.212	367.21
251.677	361.84
252.141	359.58
252.606	385.01
253.07	387.55
253.535	376.81
253.999	347.15
254.463	370.32
254.927	366.36
255.392	385.01
255.856	391.22
256.32	355.34
256.784	364.95
257.248	362.97
257.712	397.72
258.176	380.2
258.64	358.73
259.103	381.9
259.567	383.59
260.031	373.99
260.495	350.54
260.958	364.67
261.422	346.02
261.885	370.32
262.349	365.8
262.812	389.24
263.275	367.21
263.739	382.46
264.202	390.66
264.665	359.3
265.128	376.25
265.591	360.15
266.054	351.1
266.517	383.59
266.98	381.33
267.443	379.36
267.906	368.06
268.369	350.54
268.832	370.04
269.294	379.36
269.757	357.32
270.22	361.28
270.682	375.12
271.145	375.69
271.607	381.9
272.07	387.83
272.532	382.18
272.994	380.77
273.456	383.59
273.919	405.06
274.381	368.91
274.843	371.45
275.305	399.69
275.767	332.45
276.229	391.5
276.691	396.3
277.153	364.95
277.614	390.66
278.076	380.77
278.538	383.03
279	398.85
279.461	365.8
279.923	372.01
280.384	373.99
280.846	397.72
281.307	380.77
281.769	386.42
282.23	353.08
282.691	375.69
283.152	385.57
283.613	378.51
284.075	365.51
284.536	381.05
284.997	384.72
285.458	369.47
285.918	372.86
286.379	371.73
286.84	405.34
287.301	359.3
287.762	363.25
288.222	355.91
288.683	391.79
289.143	392.07
289.604	355.91
290.064	369.47
290.525	381.62
290.985	378.51
291.445	375.69
291.906	390.66
292.366	381.05
292.826	372.58
293.286	393.2
293.746	377.1
294.206	370.32
294.666	376.53
295.126	371.45
295.586	375.4
296.046	400.54
296.506	392.91
296.965	379.07
297.425	387.27
297.884	387.27
298.344	377.94
298.804	376.81
299.263	392.91
299.722	394.61
300.182	392.63
300.641	383.59
301.1	392.35
301.559	381.62
302.019	404.21
302.478	402.8
302.937	388.11
303.396	377.94
303.855	399.13
304.314	389.53
304.772	391.5
305.231	409.86
305.69	393.48
306.149	377.94
306.607	378.23
307.066	393.76
307.524	415.79
307.983	375.4
308.441	384.44
308.9	386.98
309.358	413.81
309.816	408.45
310.275	381.62
310.733	378.51
311.191	411.55
311.649	401.1
312.107	390.37
312.565	370.04
313.023	395.46
313.481	390.94
313.939	364.95
314.397	374.56
314.854	380.49
315.312	386.14
315.77	414.94
316.227	386.14
316.685	379.92
317.142	382.46
317.6	393.48
318.057	392.35
318.514	386.98
318.972	396.3
319.429	391.22
319.886	409.01
320.343	381.9
320.8	392.07
321.257	366.64
321.714	405.06
322.171	390.09
322.628	383.59
323.085	403.65
323.542	377.66
323.998	396.87
324.455	377.1
324.912	375.69
325.368	393.76
325.825	391.5
326.281	382.18
326.738	419.46
327.194	385.29
327.65	427.93
328.107	398
328.563	402.52
329.019	382.18
329.475	405.34
329.931	382.18
330.387	375.12
330.843	429.9
331.299	393.48
331.755	396.87
332.211	407.32
332.666	385.01
333.122	384.16
333.578	405.91
334.033	414.66
334.489	408.16
334.944	394.89
335.4	407.32
335.855	415.22
336.31	368.34
336.766	387.55
337.221	390.66
337.676	404.78
338.131	407.6
338.586	381.33
339.041	392.91
339.496	395.74
339.951	400.26
340.406	410.14
340.861	399.97
341.316	395.17
341.771	405.62
342.225	381.05
342.68	401.39
343.134	411.27
343.589	409.58
344.043	406.75
344.498	406.75
344.952	393.76
345.406	409.29
345.861	404.49
346.315	377.66
346.769	399.13
347.223	375.12
347.677	391.5
348.131	392.63
348.585	410.14
349.039	412.68
349.493	377.66
349.947	370.6
350.401	409.01
350.854	384.16
351.308	398.56
351.762	399.69
352.215	415.79
352.669	402.52
353.122	397.43
353.575	407.88
354.029	371.73
354.482	373.71
354.935	407.03
355.388	381.33
355.842	394.04
356.295	404.49
356.748	379.36
357.201	413.81
357.654	409.01
358.106	390.37
358.559	405.91
359.012	385.85
359.465	403.93
359.917	401.95
360.37	423.69
360.823	405.06
361.275	388.68
361.728	390.94
362.18	409.86
362.632	394.61
363.085	395.17
363.537	429.06
363.989	386.98
364.441	394.04
364.893	419.74
365.345	390.09
365.797	395.74
366.249	405.62
366.701	393.2
367.153	399.13
367.605	396.3
368.057	406.19
368.508	365.8
368.96	421.15
369.411	373.71
369.863	393.48
370.314	406.47
370.766	407.03
371.217	421.43
371.669	422.85
372.12	403.36
372.571	407.88
373.022	408.45
373.473	406.47
373.924	425.95
374.375	385.57
374.826	411.83
375.277	387.55
375.728	406.47
376.179	392.91
376.63	410.71
377.08	403.65
377.531	414.09
377.981	378.79
378.432	408.16
378.883	402.52
379.333	368.91
379.783	410.42
380.234	407.03
380.684	400.26
381.134	397.72
381.584	375.97
382.034	414.66
382.485	401.39
382.935	406.19
383.385	410.14
383.834	401.39
384.284	414.09
384.734	393.76
385.184	417.2
385.634	399.69
386.083	409.01
386.533	405.34
386.982	398
387.432	413.53
387.881	408.45
388.331	416.07
388.78	422.56
389.229	398.85
389.679	434.14
390.128	433.57
390.577	397.72
391.026	416.92
391.475	399.13
391.924	411.83
392.373	410.14
392.822	431.03
393.27	420.59
393.719	400.26
394.168	420.59
394.617	428.49
395.065	413.81
395.514	448.53
395.962	438.65
396.411	438.09
396.859	412.68
397.307	435.27
397.756	427.08
398.204	425.67
398.652	429.62
399.1	412.12
399.548	444.3
399.996	454.74
400.444	456.71
400.892	428.21
401.34	449.94
401.788	453.89
402.236	448.25
402.683	431.6
403.131	440.06
403.579	444.02
404.026	436.68
404.474	455.02
404.921	441.48
405.369	446.84
405.816	466.87
406.263	469.13
406.71	449.66
407.158	445.43
407.605	462.64
408.052	493.39
408.499	476.46
408.946	502.13
409.393	493.95
409.84	493.11
410.286	513.13
410.733	509.46
411.18	498.18
411.626	566.68
412.073	638.5
412.52	721.78
412.966	885.25
413.413	1108.26
413.859	1391.14
414.305	1714.08
414.752	2153.11
415.198	2590.03
415.644	3156.5
416.09	3738.77
416.536	4262.36
416.982	4977.91
417.428	5650.93
417.874	6350.11
418.32	7061.6
418.766	7726.5
419.211	8631.69
419.657	9236.32
420.103	10195.03
420.548	10774.98
420.994	11709.89
421.439	12501.34
421.885	13251.71
422.33	14371.34
422.776	15212.7
423.221	15890.09
423.666	16815.33
424.111	17720.71
424.556	18357.22
425.001	19417.1
425.446	20280.25
425.891	21194.93
426.336	21654.99
426.781	22562.31
427.226	23743.67
427.671	24054.12
428.115	24384.31
428.56	25273.81
429.005	26080.58
429.449	26027.59
429.894	26563.2
430.338	26792.11
430.782	26391.09
431.227	27049.34
431.671	26731.34
432.115	27126.98
432.559	27268.77
433.003	26722.76
433.447	26537.22
433.891	26233.16
434.335	25806.96
434.779	25604.42
435.223	25121.45
435.667	24508.6
436.111	24207.06
436.554	23613.52
436.998	22833.06
437.442	22345.54
437.885	22770.32
438.328	21724.32
438.772	21371.13
439.215	21070.97
439.659	20538.78
440.102	20340.61
440.545	19772.43
440.988	19320
441.431	19560.96
441.874	19099.58
442.317	19037.54
442.76	18631.43
443.203	18098.29
443.646	18361.21
444.089	18032.1
444.531	18091.05
444.974	17576.18
445.417	18078.31
445.859	17629.95
446.302	18041.09
446.744	17721.46
447.186	18243.13
447.629	17832.45
448.071	17867.19
448.513	17971.39
448.956	18443.82
449.398	18186.45
449.84	17788.71
450.282	17996.88
450.724	18135.01
451.166	18204.43
451.607	18132.26
452.049	18179.46
452.491	18730.19
452.933	18333.25
453.374	18638.66
453.816	18820.45
454.257	18582.54
454.699	19028.57
455.14	18898.23
455.582	18631.43
456.023	18672.58
456.464	18673.58
456.905	18804.25
457.347	18795.02
457.788	18175.71
458.229	18244.38
458.67	18542.87
459.111	17736.71
459.552	17679.46
459.992	17448.6
460.433	17295.96
460.874	16766.45
461.315	17029.55
461.755	16638.1
462.196	16190.24
462.636	15747.08
463.077	15595.96
463.517	15442.01
463.957	15328.51
464.398	15044.71
464.838	14929.81
465.278	14386.49
465.718	14213.76
466.158	13691.14
466.598	13813.09
467.038	13458.22
467.478	13392.86
467.918	13237.01
468.358	12904.98
468.798	12647.48
469.237	12465.5
469.677	12371.15
470.117	12458.63
470.556	11646.88
470.996	11704.79
471.435	11599.16
471.874	11627.99
472.314	11453.89
472.753	11148.48
473.192	11123.16
473.631	10897.17
474.07	10998.04
474.509	10872.07
474.948	10846.2
475.387	10587.59
475.826	10463.16
476.265	10786.77
476.704	10670.41
477.143	10642.47
477.581	10569.38
478.02	10776.78
478.458	10384.35
478.897	10476.5
479.335	10847.23
479.774	10608.87
480.212	10641.95
480.65	10630.67
481.089	10597.85
481.527	10483.43
481.965	10416.44
482.403	10862.34
482.841	10852.61
483.279	10772.93
483.717	10853.12
484.155	10719.63
484.592	10832.88
485.03	10887.95
485.468	10700.66
485.905	10689.64
486.343	10781.65
486.781	10627.34
487.218	10513.19
487.655	10473.42
488.093	10259.01
488.53	10652.72
488.967	10383.07
489.405	10307.56
489.842	10083.96
490.279	10091.68
490.716	10002.16
491.153	10012.2
491.59	9856.48
492.027	9671.75
492.463	9507.73
492.9	9320.3
493.337	9291.88
493.773	9225.47
494.21	8929.25
494.647	8905.94
495.083	8706.4
495.519	8556.17
495.956	8526.06
496.392	8335.62
496.828	8205.06
497.265	8008.2
497.701	7924.01
498.137	7877.86
498.573	7629.33
499.009	7679.75
499.445	7363.85
499.881	7213.21
500.316	7296.02
500.752	7013.04
501.188	6951.32
501.624	6868.02
502.059	6606.72
502.495	6512.63
502.93	6478.09
503.366	6515.27
503.801	6236.26
504.236	6118.86
504.672	6004.78
505.107	6013.78
505.542	5808.63
505.977	5722.38
506.412	5646.68
506.847	5616.92
507.282	5506.3
507.717	5369.2
508.152	5404.35
508.587	5292.44
509.021	5131.03
509.456	5008.39
509.891	5020.42
510.325	5039.4
510.76	4871.42
511.194	4859.91
511.628	4831.52
512.063	4703.42
512.497	4694.31
512.931	4586.97
513.366	4564.42
513.8	4524.39
514.234	4420.63
514.668	4380.01
515.102	4409.07
515.536	4242.69
515.969	4321.61
516.403	4190.67
516.837	4112.18
517.271	4196.33
517.704	4078.17
518.138	4026.33
518.571	3973.38
519.005	3945.54
519.438	3927.42
519.871	3894.43
520.305	3825.97
520.738	3752.32
521.171	3702.19
521.604	3722.24
522.037	3652.03
522.47	3636.3
522.903	3558.14
523.336	3528.54
523.769	3519.85
524.202	3469.05
524.634	3469.86
525.067	3385.57
525.5	3364.35
525.932	3357.82
526.365	3263.35
526.797	3242.92
527.23	3227.11
527.662	3141.22
528.094	3123.76
528.527	3063.99
528.959	3011.82
529.391	2995.43
529.823	2910.68
530.255	2900.55
530.687	2847.19
531.119	2827.21
531.551	2830.77
531.982	2747.77
532.414	2713.78
532.846	2643.01
533.277	2599.09
533.709	2533.45
534.14	2598.27
534.572	2517.51
535.003	2496.89
535.435	2409.71
535.866	2406.68
536.297	2332.07
536.728	2310.58
537.159	2328.76
537.59	2249.12
538.022	2217.95
538.452	2193.68
538.883	2157.25
539.314	2112.79
539.745	2097.32
540.176	2045.1
540.606	2003.34
541.037	2003.9
541.468	1948.01
541.898	1938.88
542.328	1928.08
542.759	1878.51
543.189	1830.58
543.619	1844.43
544.05	1784
544.48	1785.11
544.91	1713.24
545.34	1716.3
545.77	1666.87
546.2	1674.37
546.63	1650.76
547.06	1634.65
547.489	1598.24
547.919	1568.77
548.349	1551.8
548.778	1566.82
549.208	1515.63
549.637	1473.04
550.067	1473.6
550.496	1457.45
550.926	1446.59
551.355	1418.17
551.784	1430.15
552.213	1402.01
552.642	1411.48
553.071	1370.51
553.5	1374.69
553.929	1303.57
554.358	1313.89
554.787	1313.61
555.216	1318.08
555.645	1269.52
556.073	1272.87
556.502	1256.11
556.93	1208.63
557.359	1212.82
557.787	1246.62
558.216	1230.14
558.644	1184.32
559.072	1174.82
559.5	1148.54
559.929	1151.34
560.357	1179.29
560.785	1141.27
561.213	1154.97
561.641	1132.6
562.068	1167.27
562.496	1103.51
562.924	1118.06
563.352	1109.94
563.779	1109.38
564.207	1093.72
564.634	1116.94
565.062	1094.28
565.489	1096.23
565.917	1098.47
566.344	1070.49
566.771	1041.65
567.198	1049.21
567.625	1026.53
568.053	1032.97
568.48	1067.97
568.907	999.92
569.333	1029.05
569.76	1003.28
570.187	983.67
570.614	970.5
571.04	2107.27
571.467	975.54
571.894	983.67
572.32	955.08
572.747	947.51
573.173	952.56
573.599	918.91
574.026	896.47
574.452	885.53
574.878	886.93
575.304	858.59
575.73	859.43
576.156	830.24
576.582	851.29
577.008	824.06
577.434	822.94
577.86	813.95
578.285	799.91
578.711	827.71
579.137	805.52
579.562	785.58
579.988	807.77
580.413	766.19
580.838	780.24
581.264	802.72
581.689	774.62
582.114	767.6
582.539	864.49
582.964	744.27
583.39	746.8
583.814	720.65
584.239	722.62
584.664	708.28
585.089	698.15
585.514	702.37
585.939	696.19
586.363	685.5
586.788	679.31
587.212	659.89
587.637	666.36
588.061	684.65
588.485	666.36
588.91	648.07
589.334	661.02
589.758	667.49
590.182	654.83
590.606	651.17
591.03	652.86
591.454	634
591.878	630.34
592.302	639.91
592.726	622.45
593.15	614.57
593.573	622.17
593.997	624.99
594.42	610.06
594.844	583.03
595.267	608.66
595.691	596.83
596.114	617.95
596.537	588.38
596.96	617.95
597.384	590.63
597.807	604.15
598.23	580.49
598.653	568.38
599.076	565.56
599.499	565.56
599.921	579.36
600.344	574.57
600.767	566.12
601.189	557.1
601.612	558.23
602.034	583.87
602.457	546.39
602.879	590.63
603.302	591.76
603.724	577.39
604.146	569.78
604.568	539.63
604.991	539.91
605.413	562.18
605.835	571.76
606.257	561.33
606.678	551.19
607.1	537.38
607.522	543.86
607.944	550.06
608.365	539.91
608.787	530.89
609.209	515.67
609.63	544.14
610.051	510.87
610.473	516.8
610.894	543.01
611.315	515.1
611.737	525.54
612.158	525.82
612.579	519.9
613	541.88
613.421	513.69
613.842	527.51
614.263	545.55
614.683	511.16
615.104	511.44
615.525	529.48
615.945	546.11
616.366	502.41
616.787	510.87
617.207	505.23
617.627	505.52
618.048	498.47
618.468	472.52
618.888	524.69
619.308	520.74
619.728	511.44
620.148	487.75
620.568	484.08
620.988	497.62
621.408	466.03
621.828	498.75
622.248	464.05
622.668	473.93
623.087	467.15
623.507	464.9
623.926	504.95
624.346	482.39
624.765	502.7
625.185	491.7
625.604	457.28
626.023	488.31
626.442	499.31
626.861	472.23
627.28	455.59
627.699	471.39
628.118	459.54
628.537	482.39
628.956	455.02
629.375	429.34
629.794	459.54
630.212	444.58
630.631	446.84
631.049	455.59
631.468	455.87
631.886	477.03
632.305	462.36
632.723	438.94
633.141	458.97
633.559	453.89
633.978	452.2
634.396	420.3
634.814	455.87
635.232	456.43
635.65	440.06
636.067	454.18
636.485	435.27
636.903	424.26
637.321	438.37
637.738	444.58
638.156	427.93
638.573	431.6
638.991	445.71
639.408	451.35
639.825	427.36
640.243	439.78
640.66	437.52
641.077	419.18
641.494	446.56
641.911	435.83
642.328	451.64
642.745	408.73
643.162	457
643.579	447.4
643.995	442.32
644.412	443.45
644.829	449.94
645.245	427.93
645.662	434.42
646.078	435.83
646.495	413.25
646.911	441.19
647.327	457.56
647.743	443.73
648.159	453.33
648.576	442.32
648.992	422
649.408	420.87
649.824	421.43
650.239	431.6
650.655	448.25
651.071	409.86
651.487	432.73
651.902	408.73
652.318	446.27
652.733	409.58
653.149	413.53
653.564	440.35
653.979	426.52
654.395	412.4
654.81	440.91
655.225	414.38
655.64	435.83
656.055	430.19
656.47	428.21
656.885	398
657.3	409.01
657.715	428.49
658.13	398.28
658.544	399.41
658.959	426.8
659.374	388.4
659.788	428.77
660.202	422.56
660.617	432.44
661.031	409.29
661.445	421.43
661.86	398
662.274	411.83
662.688	428.77
663.102	425.1
663.516	425.1
663.93	381.05
664.344	406.75
664.758	393.2
665.171	409.86
665.585	424.82
665.999	433.01
666.412	391.5
666.826	425.95
667.239	417.48
667.653	395.17
668.066	394.04
668.479	420.3
668.892	395.74
669.306	413.53
669.719	406.47
670.132	394.89
670.545	417.76
670.958	390.66
671.37	388.11
671.783	396.87
672.196	446.56
672.609	384.72
673.021	423.13
673.434	398.28
673.846	391.5
674.259	382.75
674.671	414.38
675.084	444.02
675.496	406.75
675.908	416.63
676.32	413.53
676.732	396.59
677.144	417.48
677.556	400.26
677.968	429.62
678.38	419.74
678.792	410.71
679.204	407.32
679.615	417.48
680.027	400.82
680.439	393.48
680.85	386.7
681.262	403.65
681.673	407.03
682.084	437.81
682.496	386.42
682.907	425.67
683.318	394.89
683.729	420.87
684.14	392.91
684.551	381.9
684.962	377.66
685.373	377.66
685.784	417.2
686.194	401.67
686.605	381.33
687.016	401.67
687.426	374.27
687.837	389.81
688.247	416.92
688.657	390.66
689.068	394.89
689.478	413.53
689.888	385.29
690.298	408.73
690.708	374.27
691.118	392.63
691.528	403.36
691.938	410.42
692.348	394.04
692.758	402.52
693.168	406.47
693.577	401.95
693.987	403.36
694.396	400.82
694.806	396.02
695.215	401.67
695.625	412.96
696.034	406.75
696.443	406.75
696.852	392.35
697.262	406.47
697.671	387.27
698.08	400.26
698.489	408.16
698.897	404.49
699.306	390.94
699.715	386.98
700.124	399.69
700.532	422.56
700.941	406.47
701.35	405.06
701.758	414.09
702.166	363.54
702.575	424.54
702.983	402.8
703.391	400.26
703.799	384.16
704.208	390.09
704.616	404.49
705.024	416.07
705.432	398.56
705.839	381.9
706.247	371.17
706.655	411.27
707.063	407.6
707.47	396.87
707.878	380.2
708.285	387.55
708.693	396.59
709.1	378.51
709.508	389.53
709.915	392.63
710.322	388.11
710.729	390.66
711.136	420.02
711.543	398.85
711.95	406.47
712.357	377.1
712.764	425.95
713.171	386.98
713.578	422.56
713.984	399.97
714.391	407.6
714.797	369.19
715.204	378.51
715.61	363.82
716.017	372.86
716.423	393.2
716.829	399.69
717.236	384.72
717.642	393.76
718.048	393.48
718.454	401.1
718.86	385.57
719.266	406.47
719.671	412.12
720.077	398.28
720.483	371.45
720.889	404.21
721.294	405.34
721.7	404.78
722.105	415.22
722.511	358.17
722.916	394.61
723.321	388.68
723.726	410.71
724.132	397.43
724.537	370.6
724.942	385.85
725.347	418.33
725.752	398.28
726.156	413.81
726.561	380.49
726.966	414.94
727.371	394.04
727.775	402.23
728.18	407.03
728.584	390.94
728.989	379.64
729.393	409.29
729.798	403.65
730.202	378.51
730.606	399.69
731.01	396.02
731.414	394.89
731.818	397.43
732.222	387.27
732.626	409.86
733.03	375.97
733.434	408.16
733.837	414.94
734.241	390.09
734.645	385.01
735.048	399.41
735.452	380.49
735.855	405.62
736.258	379.92
736.662	392.63
737.065	400.82
737.468	401.1
737.871	395.74
738.274	384.44
738.677	376.25
739.08	385.57
739.483	414.38
739.886	393.2
740.289	419.46
740.691	371.45
741.094	383.59
741.497	382.46
741.899	386.14
742.302	393.48
742.704	370.32
743.106	367.49
743.508	405.34
743.911	382.46
744.313	357.89
744.715	412.4
745.117	377.38
745.519	399.41
745.921	391.5
746.323	399.97
746.724	403.36
747.126	394.04
747.528	388.4
747.929	393.48
748.331	385.01
748.732	401.39
749.134	383.31
749.535	377.1
749.936	400.82
750.338	389.81
750.739	403.08
751.14	386.98
751.541	374.56
751.942	399.13
752.343	400.26
752.744	380.2
753.144	383.88
753.545	385.29
753.946	382.75
754.346	396.02
754.747	426.23
755.148	434.7
755.548	395.74
755.948	412.4
756.349	372.3
756.749	383.59
757.149	388.96
757.549	382.18
757.949	383.88
758.349	390.09
758.749	396.87
759.149	375.69
759.549	405.34
759.949	414.66
760.348	390.09
760.748	420.59
761.148	385.85
761.547	382.75
761.947	385.57
762.346	376.81
762.745	427.64
763.145	374.56
763.544	384.72
763.943	406.47
764.342	394.33
764.741	393.2
765.14	377.94
765.539	398.85
765.938	385.29
766.336	386.42
766.735	418.61
767.134	388.4
767.532	391.22
767.931	377.38
768.329	396.87
768.728	373.99
769.126	389.81
769.525	404.78
769.923	402.52
770.321	383.31
770.719	397.43
771.117	387.27
771.515	372.86
771.913	387.55
772.311	382.18
772.709	404.49
773.106	359.58
773.504	370.32
773.902	385.85
774.299	390.66
774.697	400.26
775.094	398
775.491	381.62
775.889	424.26
776.286	372.86
776.683	377.1
777.08	377.66
777.477	382.46
777.874	395.17
778.271	405.34
778.668	390.37
779.065	388.11
779.462	392.35
779.858	388.96
780.255	359.86
780.652	378.51
781.048	397.43
781.444	379.36
781.841	371.73
782.237	396.87
782.633	379.92
783.03	361.28
783.426	391.79
783.822	351.95
784.218	385.57
784.614	381.33
785.01	384.16
785.405	390.66
785.801	405.62
786.197	383.31
786.593	369.19
786.988	381.05
787.384	391.22
787.779	411.83
788.174	388.96
788.57	391.5
788.965	395.17
789.36	388.11
789.755	374.27
790.15	397.15
790.545	389.53
790.94	381.62
791.335	385.01
791.73	372.3
792.125	397.43
792.52	368.91
792.914	374.84
793.309	385.29
793.703	392.91
794.098	385.57
794.492	392.91
794.887	388.11
795.281	408.73
795.675	374.56
796.069	375.4
796.463	385.29
796.857	400.26
797.251	396.59
797.645	380.77
798.039	374.56
798.433	389.81
798.826	375.69
799.22	368.91
799.614	393.48
800.007	379.64
800.401	393.76
800.794	408.16
801.187	407.88
801.581	399.41
801.974	402.8
802.367	406.19
802.76	390.66
803.153	376.25
803.546	384.16
803.939	395.17
804.332	380.2
804.725	388.68
805.117	401.1
805.51	386.98
805.903	380.2
806.295	366.93
806.688	374.56
807.08	390.66
807.472	396.3
807.865	368.62
808.257	388.11
808.649	399.13
809.041	377.1
809.433	391.79
809.825	378.79
810.217	401.95
810.609	399.41
811.001	384.44
811.392	390.37
811.784	381.62
812.175	364.67
812.567	364.1
812.958	361.84
813.35	394.04
813.741	382.46
814.132	380.49
814.524	398
814.915	379.64
815.306	368.62
815.697	385.85
816.088	382.75
816.479	384.16
816.87	420.3
817.26	395.17
817.651	388.96
818.042	368.91
818.432	414.94
818.823	364.1
819.213	375.69
819.604	378.79
819.994	385.29
820.384	372.3
820.775	407.03
821.165	394.89
821.555	370.32
821.945	386.7
822.335	387.55
822.725	378.79
823.114	388.4
823.504	385.57
823.894	383.31
824.284	427.08
824.673	403.93
825.063	367.77
825.452	377.66
825.842	403.08
826.231	405.62
826.62	387.27
827.009	403.08
827.399	384.44
827.788	368.62
828.177	385.57
828.566	394.33
828.954	387.27
829.343	399.13
829.732	381.62
830.121	411.27
830.509	376.53
830.898	408.16
831.286	382.18
831.675	386.14
832.063	406.19
832.452	369.19
832.84	370.04
833.228	389.24
833.616	381.33
834.004	377.38
834.392	372.86
834.78	400.82
835.168	409.86
835.556	378.23
835.944	403.36
836.331	384.44
836.719	385.57
837.107	380.77
837.494	396.87
837.881	373.71
838.269	373.99
838.656	418.61
839.043	389.53
839.431	404.21
839.818	370.6
840.205	376.53
840.592	371.17
840.979	383.88
841.366	396.02
841.752	379.36
842.139	408.45
842.526	392.91
842.912	385.57
843.299	368.91
843.685	389.24
844.072	386.42
844.458	379.64
844.844	401.95
845.231	364.67
845.617	376.53
846.003	355.63
846.389	407.6
846.775	377.1
847.161	394.89
847.547	388.4
847.933	386.98
848.318	381.05
848.704	378.23
849.09	366.64
849.475	363.25
849.861	396.59
850.246	388.11
850.631	420.3
851.017	385.85
851.402	374.27
851.787	405.91
852.172	375.12
852.557	415.79
852.942	396.87
853.327	380.2
853.712	392.07
854.097	409.58
854.481	365.23
854.866	376.53
855.25	401.95
855.635	386.98
856.019	363.54
856.404	366.08
856.788	379.64
857.172	377.66
857.557	388.4
857.941	374.56
858.325	377.38
858.709	410.42
859.093	396.87
859.477	398
859.86	381.9
860.244	411.83
860.628	392.35
861.012	393.2
861.395	401.39
861.779	387.27
862.162	382.75
862.545	368.91
862.929	366.08
863.312	393.76
863.695	388.68
864.078	387.55
864.461	387.83
864.844	405.06
865.227	395.17
865.61	377.1
865.993	385.85
866.376	378.23
866.758	386.42
867.141	414.94
867.523	380.2
867.906	377.38
868.288	388.11
868.671	378.51
869.053	377.66
869.435	365.8
869.817	388.68
870.199	394.04
870.581	384.72
870.963	366.64
871.345	381.9
871.727	363.25
872.109	400.26
872.491	410.42
872.872	371.17
873.254	377.66
873.635	406.19
874.017	392.91
874.398	369.19
874.779	378.79
875.161	413.53
875.542	377.38
875.923	390.94
876.304	395.74
876.685	385.85
877.066	377.1
877.447	394.33
877.828	380.77
878.208	371.45
878.589	378.79
878.97	380.2
879.35	387.83
879.731	363.82
880.111	368.06
880.491	371.17
880.872	380.77
881.252	377.1
881.632	356.76
882.012	370.04
882.392	399.41
882.772	401.95
883.152	374.56
883.532	371.17
883.912	379.64
884.291	395.46
884.671	382.46
885.051	383.31
885.43	399.41
885.81	389.24
886.189	384.44
886.568	361.84
886.948	390.37
887.327	394.04
887.706	389.53
888.085	380.2
888.464	397.72
888.843	404.49
889.222	393.48
889.601	359.58
889.979	381.33
890.358	377.1
890.737	384.72
891.115	364.1
891.494	392.35
891.872	379.92
892.25	375.12
892.629	387.83
893.007	405.91
893.385	379.64
893.763	383.31
894.141	364.67
894.519	384.44
894.897	365.51
895.275	398.56
895.653	365.8
896.03	374.27
896.408	397.43
896.786	373.43
897.163	375.12
897.541	372.86
897.918	392.07
898.295	377.1
898.673	401.39
899.05	376.25
899.427	402.8
899.804	364.1
900.181	396.02
900.558	371.73
900.935	389.53
901.312	362.97
901.688	395.74
902.065	379.36
902.442	368.62
902.818	367.77
903.195	371.17
903.571	393.48
903.947	367.49
904.324	389.81
904.7	382.18
905.076	416.35
905.452	391.5
905.828	407.88
906.204	365.23
906.58	366.64
906.956	414.66
907.331	399.69
907.707	371.17
908.083	389.53
908.458	377.1
908.834	361.84
909.209	374.27
909.585	362.12
909.96	390.37
910.335	381.05
910.71	382.18
911.086	391.5
911.461	382.46
911.836	349.41
912.21	345.74
912.585	382.75
912.96	365.8
913.335	394.33
913.709	396.3
914.084	394.89
914.459	383.03
914.833	367.49
915.207	371.45
915.582	392.91
915.956	399.69
916.33	407.88
916.704	391.79
917.078	370.6
917.452	374.84
917.826	370.6
918.2	361.56
918.574	375.4
918.948	373.99
919.321	401.39
919.695	368.91
920.068	382.75
920.442	386.14
920.815	384.16
921.189	361.84
921.562	392.91
921.935	390.66
922.308	359.86
922.681	396.3
923.054	400.26
923.427	377.38
923.8	376.25
924.173	355.63
924.546	379.64
924.919	375.4
925.291	376.81
925.664	388.68
926.036	379.07
926.409	374.27
926.781	413.81
927.153	389.53
927.526	407.32
927.898	371.17
928.27	398.28
928.642	390.09
929.014	388.96
929.386	382.18
929.758	387.83
930.129	395.46
930.501	392.07
930.873	384.44
931.244	361.28
931.616	366.36
931.987	406.75
932.359	381.62
932.73	395.74
933.101	360.43
933.472	406.19
933.843	368.62
934.214	405.62
934.585	367.77
934.956	389.24
935.327	433.85
935.698	365.51
936.069	396.02
936.439	385.85
936.81	386.42
937.18	377.94
937.551	371.17
937.921	378.79
938.292	362.69
938.662	360.43
939.032	378.23
939.402	383.59
939.772	389.81
940.142	377.94
940.512	365.8
940.882	374.27
941.252	374.27
941.621	390.37
941.991	403.08
942.361	390.66
942.73	389.53
943.1	367.77
943.469	367.49
943.838	386.14
944.208	390.66
944.577	360.71
944.946	361.28
945.315	374.27
945.684	395.17
946.053	372.86
946.422	389.53
946.791	373.71
947.159	420.02
947.528	373.14
947.897	388.4
948.265	392.07
948.634	388.11
949.002	378.51
949.371	382.46
949.739	375.69
950.107	402.52
950.475	375.4
950.843	393.76
951.211	399.41
951.579	393.48
951.947	407.6
952.315	341.78
952.683	358.45
953.05	373.71
953.418	386.14
953.785	381.62
954.153	408.45
954.52	370.32
954.888	378.79
955.255	383.03
955.622	358.45
955.989	382.75
956.356	398.85
956.723	364.38
957.09	365.51
957.457	383.88
957.824	391.22
958.191	382.46
958.557	386.42
958.924	360.15
959.291	376.25
959.657	377.1
960.023	398.85
960.39	402.52
960.756	399.69
961.122	388.96
961.488	392.07
961.855	360.15
962.221	394.89
962.586	372.58
962.952	388.96
963.318	377.1
963.684	407.03
964.05	391.79
964.415	360.15
964.781	376.81
965.146	385.85
965.512	373.43
965.877	376.81
966.242	367.49
966.608	376.81
966.973	384.44
967.338	362.41
967.703	385.29
968.068	364.95
968.433	378.51
968.797	379.92
969.162	390.37
969.527	370.6
969.891	362.41
970.256	377.38
970.62	378.51
970.985	378.23
971.349	368.34
971.714	333.02
972.078	386.7
972.442	380.49
972.806	385.29
973.17	353.08
973.534	380.2
973.898	376.53
974.262	376.81
974.625	409.29
974.989	371.73
975.353	382.18
975.716	382.75
976.08	339.52
976.443	406.75
976.806	392.63
977.17	369.75
977.533	358.45
977.896	395.74
978.259	395.74
978.622	423.41
978.985	390.66
979.348	383.31
979.711	384.72
980.073	374.27
980.436	353.65
980.799	374.56
981.161	418.05
981.524	380.77
981.886	392.63
982.248	390.66
982.611	377.94
982.973	365.51
983.335	367.77
983.697	372.58
984.059	374.84
984.421	357.6
984.783	386.98
985.145	363.82
985.506	372.3
985.868	395.46
986.23	354.5
986.591	383.31
986.953	385.01
987.314	386.14
987.675	384.16
988.037	1206.96
988.398	401.1
988.759	381.05
989.12	379.07
989.481	375.97
989.842	380.49
990.203	388.68
990.564	383.31
990.924	397.43
991.285	1177.61
991.646	401.67
992.006	361.56
992.367	384.44
992.727	405.62
993.087	367.77
993.448	344.89
993.808	348.84
994.168	357.04
994.528	370.6
994.888	409.01
995.248	373.71
995.608	381.9
995.967	377.66
996.327	376.81
996.687	376.81
997.046	381.33
997.406	379.07
997.765	356.19
998.125	365.8
998.484	379.92
998.843	409.86
999.202	381.05
999.561	372.3
999.92	369.47
1000.279	396.59
1000.638	371.45
1000.997	373.14
1001.356	377.1
1001.715	345.74
1002.073	401.39
1002.432	371.17
1002.79	380.2
1003.149	390.37
1003.507	385.01
1003.865	359.3
1004.224	371.73
1004.582	385.01
1004.94	359.3
1005.298	388.4
1005.656	393.2
1006.014	388.68
1006.371	376.25
1006.729	367.49
1007.087	402.52
1007.445	367.21
1007.802	383.59
1008.16	368.34
1008.517	379.07
1008.874	411.83
1009.232	370.6
1009.589	402.23
1009.946	374.27
1010.303	384.16
1010.66	387.27
1011.017	344.04
1011.374	353.08
1011.731	356.19
1012.087	382.18
1012.444	373.71
1012.801	374.27
1013.157	351.95
1013.513	368.34
1013.87	370.32
1014.226	373.99
1014.582	363.82
1014.939	401.67
1015.295	360.71
1015.651	351.39
1016.007	367.77
1016.363	376.53
1016.719	353.93
1017.074	399.69
1017.43	372.01
1017.786	370.6
1018.141	347.71
1018.497	367.21
1018.852	366.64
1019.208	390.66
1019.563	413.81
1019.918	373.43
1020.273	392.07
1020.628	372.58
1020.983	385.29
1021.338	384.16
1021.693	395.17
1022.048	391.22
1022.403	392.91
1022.757	390.37
1023.112	403.36
1023.467	383.88
1023.821	365.23
1024.175	365.8
1024.53	373.43
1024.884	376.81
1025.238	390.66
1025.592	392.07
1025.946	375.4
1026.3	373.99
1026.654	347.15
1027.008	395.74
1027.362	385.85
1027.716	362.41
1028.069	376.25
1028.423	367.49
1028.777	389.53
1029.13	369.75
1029.483	375.97
1029.837	394.33
1030.19	366.08
1030.543	372.86
1030.896	371.73
1031.249	360.71
1031.602	370.04
1031.955	371.73
1032.308	366.08
1032.661	382.46
1033.013	392.91
1033.366	377.1
1033.719	340.08
1034.071	366.08
1034.424	392.07
1034.776	387.27
1035.128	362.97
1035.48	388.96
1035.833	370.6
1036.185	368.34
1036.537	368.34
1036.889	368.34
