Data from NOL_irradiation_FLMS019251_08-32-57-138.txt Node
Date: Wed Feb 20 08:32:57 PST 2019
User: mu3e
Spectrometer: FLMS01925
Trigger mode: 0
Integration Time (sec): 6.500000E-2
Scans to average: 10
Electric dark correction enabled: true
Nonlinearity correction enabled: true
Boxcar width: 0
XAxis mode: Wavelengths
Number of Pixels in Spectrum: 2048
>>>>>Begin Spectral Data<<<<<
187.103	-94.11
187.574	-94.11
188.045	-94.11
188.516	-136.76
188.987	-126.81
189.458	-144.44
189.929	-121.12
190.4	-64.83
190.871	-120.55
191.342	-74.5
191.813	-43.52
192.284	-37.27
192.754	-18.53
193.225	-18.53
193.696	-5.47
194.166	28.88
194.637	74
195.107	91.86
195.578	124.75
196.048	174.33
196.518	153.94
196.989	192.74
197.459	190.2
197.929	218.79
198.399	251.62
198.869	260.68
199.339	248.23
199.809	295.19
200.279	315.83
200.749	291.79
201.219	328.55
201.689	322.89
202.159	328.83
202.628	349.74
203.098	378
203.568	374.89
204.037	372.63
204.507	380.82
204.976	373.2
205.445	372.91
205.915	382.8
206.384	401.44
206.853	375.17
207.323	394.1
207.792	365.29
208.261	358.79
208.73	381.11
209.199	366.7
209.668	362.46
210.137	373.76
210.606	333.35
211.075	364.16
211.543	374.33
212.012	352.01
212.481	374.04
212.95	341.27
213.418	362.74
213.887	359.92
214.355	358.22
214.824	348.33
215.292	342.68
215.76	327.7
216.229	323.18
216.697	329.11
217.165	366.98
217.633	331.94
218.101	339.85
218.569	320.07
219.037	340.98
219.505	344.66
219.973	333.35
220.441	330.24
220.909	332.5
221.377	322.33
221.844	326.29
222.312	303.1
222.78	300.56
223.247	324.31
223.715	316.11
224.182	367.55
224.65	342.68
225.117	353.7
225.584	342.4
226.052	309.32
226.519	349.18
226.986	327.98
227.453	320.92
227.92	350.87
228.387	366.42
228.854	313.85
229.321	334.77
229.788	339.57
230.255	317.52
230.722	334.2
231.189	349.18
231.655	344.09
232.122	352.29
232.589	342.68
233.055	324.31
233.522	337.88
233.988	358.5
234.454	354.83
234.921	343.53
235.387	355.4
235.853	342.4
236.32	323.46
236.786	343.81
237.252	334.48
237.718	347.48
238.184	333.64
238.65	366.42
239.116	340.14
239.582	343.53
240.047	366.7
240.513	348.05
240.979	327.98
241.445	337.03
241.91	347.77
242.376	351.16
242.841	349.18
243.307	321.2
243.772	336.18
244.238	344.38
244.703	365.85
245.168	338.72
245.633	354.27
246.099	340.98
246.564	358.22
247.029	354.27
247.494	347.2
247.959	359.35
248.424	365.85
248.889	348.05
249.353	378.85
249.818	346.35
250.283	338.44
250.748	352.85
251.212	360.48
251.677	341.83
252.141	361.61
252.606	369.81
253.07	352.57
253.535	324.59
253.999	347.48
254.463	349.74
254.927	348.33
255.392	363.87
255.856	342.4
256.32	330.81
256.784	360.48
257.248	347.2
257.712	357.94
258.176	390.14
258.64	364.44
259.103	344.09
259.567	352.57
260.031	339.01
260.495	351.16
260.958	363.02
261.422	360.2
261.885	376.02
262.349	369.52
262.812	347.48
263.275	370.94
263.739	356.53
264.202	363.31
264.665	365.29
265.128	376.02
265.591	367.55
266.054	363.59
266.517	362.46
266.98	366.42
267.443	339.01
267.906	333.64
268.369	383.08
268.832	367.83
269.294	352.57
269.757	397.77
270.22	373.76
270.682	383.08
271.145	366.13
271.607	368.96
272.07	379.98
272.532	375.74
272.994	349.74
273.456	363.59
273.919	374.33
274.381	348.9
274.843	360.76
275.305	367.83
275.767	365
276.229	355.68
276.691	344.94
277.153	349.46
277.614	365.57
278.076	370.37
278.538	381.39
279	333.07
279.461	364.44
279.923	375.46
280.384	352.57
280.846	356.24
281.307	368.68
281.769	365
282.23	360.48
282.691	393.53
283.152	366.42
283.613	356.24
284.075	361.05
284.536	371.22
284.997	353.98
285.458	365.57
285.918	335.61
286.379	352.29
286.84	371.22
287.301	358.22
287.762	340.7
288.222	359.07
288.683	378.56
289.143	376.87
289.604	392.12
290.064	355.4
290.525	340.7
290.985	368.96
291.445	356.24
291.906	353.98
292.366	363.87
292.826	372.63
293.286	345.79
293.746	392.69
294.206	364.44
294.666	370.65
295.126	363.59
295.586	363.59
296.046	355.11
296.506	363.59
296.965	367.55
297.425	344.38
297.884	381.39
298.344	367.26
298.804	358.5
299.263	368.68
299.722	389.3
300.182	382.23
300.641	374.33
301.1	354.55
301.559	400.03
302.019	385.34
302.478	347.77
302.937	378.85
303.396	375.74
303.855	400.88
304.314	375.17
304.772	386.19
305.231	367.26
305.69	374.61
306.149	366.13
306.607	364.16
307.066	376.59
307.524	382.23
307.983	370.65
308.441	379.13
308.9	395.23
309.358	380.82
309.816	390.14
310.275	370.37
310.733	369.81
311.191	376.87
311.649	349.74
312.107	380.82
312.565	387.32
313.023	370.09
313.481	367.55
313.939	383.93
314.397	366.13
314.854	368.39
315.312	380.26
315.77	351.72
316.227	360.48
316.685	377.43
317.142	381.95
317.6	380.82
318.057	387.04
318.514	366.13
318.972	359.07
319.429	366.42
319.886	383.08
320.343	375.46
320.8	397.77
321.257	353.14
321.714	386.47
322.171	392.12
322.628	375.74
323.085	386.75
323.542	363.87
323.998	368.11
324.455	399.75
324.912	366.13
325.368	372.91
325.825	413.02
326.281	360.76
326.738	357.94
327.194	381.39
327.65	378.28
328.107	383.93
328.563	388.45
329.019	380.26
329.475	393.25
329.931	388.45
330.387	374.89
330.843	395.51
331.299	405.96
331.755	356.53
332.211	363.02
332.666	372.63
333.122	396.07
333.578	365.29
334.033	359.92
334.489	355.11
334.944	388.45
335.4	378
335.855	388.17
336.31	379.13
336.766	365.57
337.221	402
337.676	373.2
338.131	386.19
338.586	379.13
339.041	385.91
339.496	355.4
339.951	379.41
340.406	380.82
340.861	373.2
341.316	391.27
341.771	388.17
342.225	384.78
342.68	384.49
343.134	368.68
343.589	396.92
344.043	376.87
344.498	370.65
344.952	387.32
345.406	410.48
345.861	365
346.315	378.56
346.769	390.14
347.223	398.33
347.677	366.13
348.131	378
348.585	348.61
349.039	369.52
349.493	393.81
349.947	391.56
350.401	376.59
350.854	380.26
351.308	387.32
351.762	381.67
352.215	400.59
352.669	376.02
353.122	379.13
353.575	368.96
354.029	394.38
354.482	359.35
354.935	344.38
355.388	365
355.842	373.2
356.295	349.18
356.748	360.76
357.201	375.46
357.654	355.11
358.106	361.61
358.559	368.11
359.012	395.79
359.465	383.93
359.917	395.79
360.37	386.47
360.823	384.49
361.275	385.34
361.728	377.15
362.18	377.15
362.632	382.8
363.085	383.65
363.537	381.11
363.989	382.52
364.441	392.97
364.893	379.13
365.345	373.76
365.797	389.3
366.249	341.27
366.701	377.43
367.153	365.29
367.605	385.91
368.057	396.64
368.508	387.32
368.96	360.2
369.411	367.83
369.863	413.86
370.314	397.2
370.766	378.85
371.217	390.99
371.669	385.91
372.12	404.26
372.571	384.78
373.022	383.65
373.473	365.85
373.924	383.08
374.375	369.52
374.826	387.04
375.277	376.87
375.728	378.56
376.179	373.76
376.63	355.4
377.08	381.39
377.531	390.71
377.981	391.27
378.432	400.88
378.883	375.74
379.333	374.33
379.783	370.37
380.234	386.47
380.684	368.96
381.134	381.39
381.584	348.33
382.034	418.95
382.485	378.85
382.935	402
383.385	390.71
383.834	391.84
384.284	398.05
384.734	376.87
385.184	411.04
385.634	389.58
386.083	388.73
386.533	379.98
386.982	385.06
387.432	383.93
387.881	402.29
388.331	414.15
388.78	392.69
389.229	383.36
389.679	380.54
390.128	375.46
390.577	367.26
391.026	386.47
391.475	366.13
391.924	364.44
392.373	378
392.822	385.62
393.27	392.97
393.719	378.85
394.168	401.44
394.617	393.81
395.065	388.45
395.514	399.75
395.962	422.9
396.411	389.58
396.859	378.28
397.307	390.43
397.756	362.74
398.204	383.65
398.652	387.04
399.1	375.17
399.548	380.26
399.996	436.17
400.444	390.43
400.892	402.85
401.34	405.11
401.788	381.67
402.236	348.9
402.683	397.77
403.131	390.99
403.579	390.43
404.026	385.62
404.474	389.3
404.921	389.01
405.369	365.85
405.816	410.76
406.263	391.84
406.71	388.45
407.158	393.25
407.605	388.17
408.052	410.19
408.499	370.94
408.946	395.79
409.393	388.45
409.84	381.67
410.286	373.2
410.733	381.11
411.18	395.79
411.626	400.59
412.073	362.18
412.52	358.5
412.966	356.53
413.413	359.35
413.859	374.04
414.305	390.14
414.752	376.3
415.198	427.98
415.644	376.59
416.09	386.75
416.536	370.37
416.982	386.19
417.428	388.73
417.874	363.87
418.32	383.65
418.766	380.82
419.211	413.02
419.657	389.58
420.103	409.35
420.548	381.67
420.994	391.84
421.439	398.33
421.885	372.91
422.33	364.72
422.776	359.07
423.221	431.37
423.666	375.17
424.111	386.47
424.556	382.8
425.001	381.39
425.446	402
425.891	374.04
426.336	399.18
426.781	409.91
427.226	405.68
427.671	373.48
428.115	405.11
428.56	385.62
429.005	415.56
429.449	403.42
429.894	370.09
430.338	355.96
430.782	396.92
431.227	386.47
431.671	400.03
432.115	387.32
432.559	369.52
433.003	399.46
433.447	393.25
433.891	374.61
434.335	398.62
434.779	386.75
435.223	409.63
435.667	391.56
436.111	457.05
436.554	386.75
436.998	379.41
437.442	397.2
437.885	392.69
438.328	394.94
438.772	387.6
439.215	355.11
439.659	371.22
440.102	397.77
440.545	383.08
440.988	391.27
441.431	374.33
441.874	385.06
442.317	359.63
442.76	399.75
443.203	391.56
443.646	394.66
444.089	392.12
444.531	373.48
444.974	361.89
445.417	395.51
445.859	401.72
446.302	379.69
446.744	381.39
447.186	379.41
447.629	390.99
448.071	396.64
448.513	382.23
448.956	366.13
449.398	387.88
449.84	403.13
450.282	385.91
450.724	380.82
451.166	389.86
451.607	364.44
452.049	392.4
452.491	388.45
452.933	390.43
453.374	403.7
453.816	376.3
454.257	389.58
454.699	399.18
455.14	405.96
455.582	377.72
456.023	405.68
456.464	422.33
456.905	388.17
457.347	369.81
457.788	358.5
458.229	418.38
458.67	390.71
459.111	381.95
459.552	380.54
459.992	400.88
460.433	379.13
460.874	380.82
461.315	382.23
461.755	376.3
462.196	362.18
462.636	416.12
463.077	400.31
463.517	398.33
463.957	404.55
464.398	382.23
464.838	402.85
465.278	365.85
465.718	363.31
466.158	378.28
466.598	400.03
467.038	386.47
467.478	370.37
467.918	394.94
468.358	397.49
468.798	379.13
469.237	380.54
469.677	399.18
470.117	414.99
470.556	371.22
470.996	404.83
471.435	381.67
471.874	373.2
472.314	377.72
472.753	357.09
473.192	376.02
473.631	381.95
474.07	382.23
474.509	377.15
474.948	363.87
475.387	378
475.826	380.82
476.265	385.34
476.704	393.53
477.143	379.41
477.581	376.02
478.02	405.68
478.458	397.77
478.897	420.92
479.335	409.91
479.774	392.69
480.212	397.2
480.65	387.32
481.089	394.1
481.527	380.82
481.965	391.27
482.403	377.43
482.841	383.36
483.279	390.43
483.717	360.48
484.155	365.85
484.592	386.75
485.03	383.65
485.468	374.04
485.905	372.07
486.343	382.52
486.781	375.74
487.218	383.08
487.655	374.61
488.093	379.69
488.53	384.78
488.967	382.52
489.405	385.62
489.842	399.75
490.279	389.01
490.716	397.77
491.153	400.88
491.59	402.57
492.027	380.82
492.463	381.39
492.9	396.64
493.337	365.85
493.773	340.98
494.21	375.17
494.647	371.5
495.083	380.26
495.519	392.97
495.956	379.41
496.392	383.93
496.828	368.96
497.265	397.49
497.701	361.33
498.137	375.46
498.573	397.49
499.009	390.99
499.445	384.78
499.881	401.16
500.316	362.18
500.752	396.92
501.188	369.81
501.624	373.2
502.059	383.65
502.495	379.13
502.93	383.08
503.366	457.05
503.801	376.59
504.236	389.01
504.672	395.51
505.107	403.98
505.542	387.32
505.977	387.04
506.412	399.46
506.847	398.62
507.282	378.28
507.717	375.17
508.152	410.48
508.587	372.35
509.021	410.19
509.456	402.85
509.891	357.37
510.325	398.33
510.76	365
511.194	382.52
511.628	388.73
512.063	393.81
512.497	358.79
512.931	379.98
513.366	381.39
513.8	375.17
514.234	363.59
514.668	370.09
515.102	376.02
515.536	390.71
515.969	396.92
516.403	361.33
516.837	381.39
517.271	377.15
517.704	387.88
518.138	363.87
518.571	430.8
519.005	388.73
519.438	363.31
519.871	380.54
520.305	384.49
520.738	393.25
521.171	395.79
521.604	403.7
522.037	375.46
522.47	402.85
522.903	390.14
523.336	396.36
523.769	415.56
524.202	386.75
524.634	379.13
525.067	383.36
525.5	379.69
525.932	376.02
526.365	382.52
526.797	381.11
527.23	405.96
527.662	373.2
528.094	403.7
528.527	368.96
528.959	378.85
529.391	368.11
529.823	366.13
530.255	371.5
530.687	385.06
531.119	365.85
531.551	385.34
531.982	401.72
532.414	391.84
532.846	387.88
533.277	363.87
533.709	386.19
534.14	379.13
534.572	358.5
535.003	396.07
535.435	389.3
535.866	389.3
536.297	383.65
536.728	390.14
537.159	370.65
537.59	389.01
538.022	394.38
538.452	395.23
538.883	391.27
539.314	367.55
539.745	397.49
540.176	404.26
540.606	400.59
541.037	382.52
541.468	390.43
541.898	391.27
542.328	393.81
542.759	389.58
543.189	390.14
543.619	362.18
544.05	393.25
544.48	387.04
544.91	365.29
545.34	359.92
545.77	373.76
546.2	381.39
546.63	405.39
547.06	394.94
547.489	408.5
547.919	414.71
548.349	378.85
548.778	377.43
549.208	386.75
549.637	374.89
550.067	397.2
550.496	373.48
550.926	384.78
551.355	393.25
551.784	407.65
552.213	400.03
552.642	398.62
553.071	380.54
553.5	391.56
553.929	398.33
554.358	385.91
554.787	390.14
555.216	402.29
555.645	405.68
556.073	363.31
556.502	391.56
556.93	383.93
557.359	371.78
557.787	406.24
558.216	379.98
558.644	374.04
559.072	376.02
559.5	414.43
559.929	375.74
560.357	380.82
560.785	385.62
561.213	389.3
561.641	372.63
562.068	405.11
562.496	381.67
562.924	386.19
563.352	396.64
563.779	384.21
564.207	385.34
564.634	391.84
565.062	383.93
565.489	378.56
565.917	392.97
566.344	380.26
566.771	401.44
567.198	386.75
567.625	376.02
568.053	373.2
568.48	371.22
568.907	382.23
569.333	396.36
569.76	402.85
570.187	400.31
570.614	396.36
571.04	1510.12
571.467	435.04
571.894	378.56
572.32	377.72
572.747	378.28
573.173	409.06
573.599	389.86
574.026	402.29
574.452	385.34
574.878	389.58
575.304	386.75
575.73	410.76
576.156	381.39
576.582	391.27
577.008	384.21
577.434	361.33
577.86	398.9
578.285	381.11
578.711	399.75
579.137	395.23
579.562	367.55
579.988	394.1
580.413	377.15
580.838	389.3
581.264	358.79
581.689	406.81
582.114	372.35
582.539	497.95
582.964	367.26
583.39	386.47
583.814	391.27
584.239	404.55
584.664	371.78
585.089	369.24
585.514	405.68
585.939	400.31
586.363	389.01
586.788	394.94
587.212	407.93
587.637	402.29
588.061	369.24
588.485	405.11
588.91	370.37
589.334	389.58
589.758	389.01
590.182	379.69
590.606	389.86
591.03	381.95
591.454	394.66
591.878	382.52
592.302	352.29
592.726	396.36
593.15	368.11
593.573	392.97
593.997	400.88
594.42	366.98
594.844	396.92
595.267	381.39
595.691	388.45
596.114	377.15
596.537	372.35
596.96	394.94
597.384	381.95
597.807	369.81
598.23	367.83
598.653	413.86
599.076	405.68
599.499	396.64
599.921	379.69
600.344	403.98
600.767	390.43
601.189	403.13
601.612	381.95
602.034	374.33
602.457	390.43
602.879	425.72
603.302	372.07
603.724	394.1
604.146	386.19
604.568	380.82
604.991	368.11
605.413	382.8
605.835	395.79
606.257	384.21
606.678	384.78
607.1	386.47
607.522	392.4
607.944	384.21
608.365	400.59
608.787	391.27
609.209	437.86
609.63	384.49
610.051	373.76
610.473	390.99
610.894	390.14
611.315	376.87
611.737	416.97
612.158	388.73
612.579	398.05
613	393.81
613.421	377.15
613.842	370.09
614.263	404.26
614.683	377.72
615.104	401.16
615.525	378
615.945	383.65
616.366	406.81
616.787	384.21
617.207	398.05
617.627	373.2
618.048	376.59
618.468	359.07
618.888	398.9
619.308	376.59
619.728	391.27
620.148	363.02
620.568	380.82
620.988	370.37
621.408	361.05
621.828	389.86
622.248	373.2
622.668	388.17
623.087	374.04
623.507	363.31
623.926	403.13
624.346	392.97
624.765	391.56
625.185	384.21
625.604	361.33
626.023	392.97
626.442	394.38
626.861	394.38
627.28	385.34
627.699	367.55
628.118	407.37
628.537	393.53
628.956	381.67
629.375	392.12
629.794	375.74
630.212	408.22
630.631	379.13
631.049	386.19
631.468	378.28
631.886	400.31
632.305	359.63
632.723	372.91
633.141	376.3
633.559	380.82
633.978	386.19
634.396	408.5
634.814	395.23
635.232	384.78
635.65	369.24
636.067	370.65
636.485	375.74
636.903	366.13
637.321	380.54
637.738	394.38
638.156	396.92
638.573	394.1
638.991	396.64
639.408	379.98
639.825	369.81
640.243	378
640.66	374.33
641.077	404.55
641.494	392.97
641.911	378.56
642.328	391.56
642.745	370.09
643.162	393.81
643.579	391.27
643.995	382.52
644.412	384.21
644.829	380.26
645.245	403.98
645.662	374.33
646.078	398.33
646.495	401.72
646.911	376.02
647.327	405.68
647.743	372.63
648.159	382.8
648.576	396.36
648.992	396.36
649.408	403.7
649.824	395.23
650.239	400.59
650.655	394.94
651.071	370.65
651.487	372.07
651.902	388.17
652.318	389.01
652.733	392.69
653.149	377.72
653.564	387.88
653.979	393.25
654.395	372.63
654.81	380.82
655.225	394.1
655.64	377.72
656.055	357.94
656.47	386.19
656.885	384.21
657.3	357.94
657.715	385.91
658.13	381.67
658.544	379.41
658.959	385.06
659.374	380.26
659.788	398.9
660.202	381.39
660.617	396.07
661.031	385.06
661.445	389.86
661.86	352.01
662.274	373.48
662.688	375.46
663.102	387.32
663.516	381.11
663.93	354.83
664.344	375.17
664.758	369.81
665.171	374.61
665.585	395.79
665.999	370.65
666.412	400.31
666.826	393.25
667.239	404.55
667.653	373.76
668.066	379.69
668.479	382.52
668.892	358.79
669.306	384.21
669.719	385.62
670.132	397.77
670.545	373.2
670.958	377.15
671.37	380.82
671.783	394.94
672.196	374.04
672.609	374.04
673.021	383.08
673.434	371.22
673.846	388.45
674.259	370.37
674.671	359.35
675.084	372.35
675.496	385.91
675.908	389.3
676.32	391.27
676.732	378.85
677.144	372.07
677.556	404.26
677.968	408.5
678.38	378.28
678.792	392.12
679.204	390.14
679.615	353.7
680.027	372.63
680.439	384.49
680.85	386.47
681.262	371.22
681.673	402.57
682.084	360.76
682.496	388.45
682.907	370.09
683.318	401.72
683.729	376.02
684.14	393.25
684.551	370.09
684.962	369.24
685.373	371.22
685.784	379.13
686.194	410.19
686.605	383.93
687.016	373.48
687.426	400.88
687.837	367.26
688.247	367.83
688.657	369.52
689.068	392.69
689.478	392.4
689.888	391.27
690.298	394.38
690.708	376.02
691.118	375.17
691.528	373.48
691.938	370.09
692.348	395.51
692.758	375.46
693.168	371.5
693.577	385.62
693.987	347.2
694.396	375.46
694.806	366.98
695.215	368.39
695.625	392.69
696.034	393.53
696.443	379.13
696.852	366.13
697.262	371.5
697.671	376.3
698.08	375.46
698.489	378.56
698.897	393.25
699.306	407.65
699.715	370.37
700.124	397.2
700.532	371.5
700.941	379.69
701.35	366.42
701.758	396.64
702.166	371.78
702.575	379.69
702.983	379.41
703.391	377.72
703.799	407.09
704.208	384.21
704.616	350.31
705.024	387.88
705.432	366.42
705.839	381.67
706.247	390.71
706.655	405.39
707.063	384.21
707.47	381.95
707.878	377.15
708.285	406.52
708.693	387.04
709.1	386.19
709.508	378.28
709.915	408.5
710.322	379.69
710.729	394.94
711.136	391.84
711.543	384.78
711.95	392.69
712.357	411.32
712.764	397.2
713.171	374.61
713.578	372.91
713.984	378.85
714.391	372.35
714.797	386.47
715.204	383.93
715.61	399.75
716.017	383.65
716.423	408.5
716.829	361.89
717.236	346.35
717.642	381.67
718.048	396.36
718.454	405.96
718.86	367.55
719.266	391.56
719.671	384.78
720.077	379.13
720.483	368.11
720.889	397.49
721.294	384.78
721.7	394.1
722.105	402
722.511	416.12
722.916	379.69
723.321	368.68
723.726	390.71
724.132	373.76
724.537	375.17
724.942	364.16
725.347	402.85
725.752	383.93
726.156	380.54
726.561	395.51
726.966	352.85
727.371	375.74
727.775	403.7
728.18	393.81
728.584	394.38
728.989	369.52
729.393	385.34
729.798	383.65
730.202	411.04
730.606	372.07
731.01	386.75
731.414	380.82
731.818	390.43
732.222	399.18
732.626	390.14
733.03	372.35
733.434	391.56
733.837	422.9
734.241	389.3
734.645	376.87
735.048	386.75
735.452	360.2
735.855	375.46
736.258	387.6
736.662	367.83
737.065	378.56
737.468	400.88
737.871	376.87
738.274	363.59
738.677	372.63
739.08	381.39
739.483	374.04
739.886	373.48
740.289	344.09
740.691	381.95
741.094	353.98
741.497	376.3
741.899	415.56
742.302	370.09
742.704	372.63
743.106	391.27
743.508	398.05
743.911	397.49
744.313	375.74
744.715	388.73
745.117	370.09
745.519	398.9
745.921	402.29
746.323	377.43
746.724	373.76
747.126	383.08
747.528	362.46
747.929	381.67
748.331	384.21
748.732	371.78
749.134	383.93
749.535	385.62
749.936	381.39
750.338	379.98
750.739	366.13
751.14	376.87
751.541	372.91
751.942	368.68
752.343	369.52
752.744	387.32
753.144	394.38
753.545	398.33
753.946	373.48
754.346	380.54
754.747	372.63
755.148	409.35
755.548	382.52
755.948	389.01
756.349	373.48
756.749	388.45
757.149	384.49
757.549	403.98
757.949	390.71
758.349	407.93
758.749	382.8
759.149	380.54
759.549	391.56
759.949	374.33
760.348	412.45
760.748	372.91
761.148	386.19
761.547	406.24
761.947	382.52
762.346	378.85
762.745	388.17
763.145	394.94
763.544	384.21
763.943	392.69
764.342	350.31
764.741	391.27
765.14	384.21
765.539	376.3
765.938	415.56
766.336	372.07
766.735	370.94
767.134	368.96
767.532	413.58
767.931	390.71
768.329	384.49
768.728	373.2
769.126	385.91
769.525	382.23
769.923	383.36
770.321	364.16
770.719	372.07
771.117	375.46
771.515	366.42
771.913	375.46
772.311	370.09
772.709	372.07
773.106	382.23
773.504	375.17
773.902	381.11
774.299	365.29
774.697	402.57
775.094	363.87
775.491	398.9
775.889	374.61
776.286	388.73
776.683	382.8
777.08	375.17
777.477	380.26
777.874	380.26
778.271	386.75
778.668	361.89
779.065	370.65
779.462	373.2
779.858	376.59
780.255	383.36
780.652	370.94
781.048	375.74
781.444	348.9
781.841	381.11
782.237	368.11
782.633	369.81
783.03	344.94
783.426	398.33
783.822	386.47
784.218	387.04
784.614	384.78
785.01	365.85
785.405	378
785.801	377.72
786.197	363.02
786.593	380.26
786.988	387.04
787.384	401.16
787.779	379.98
788.174	405.39
788.57	357.37
788.965	387.04
789.36	365.85
789.755	388.17
790.15	377.15
790.545	363.59
790.94	387.04
791.335	399.75
791.73	371.5
792.125	369.52
792.52	380.26
792.914	389.86
793.309	385.62
793.703	395.51
794.098	370.94
794.492	407.93
794.887	361.89
795.281	402
795.675	374.04
796.069	399.46
796.463	396.07
796.857	385.91
797.251	354.83
797.645	370.65
798.039	381.67
798.433	392.69
798.826	385.91
799.22	370.94
799.614	379.41
800.007	360.2
800.401	387.32
800.794	376.02
801.187	362.74
801.581	393.81
801.974	375.17
802.367	378.28
802.76	381.95
803.153	388.17
803.546	371.78
803.939	366.98
804.332	364.16
804.725	406.24
805.117	362.74
805.51	383.93
805.903	381.11
806.295	386.75
806.688	372.91
807.08	382.8
807.472	393.53
807.865	376.59
808.257	395.51
808.649	390.43
809.041	373.2
809.433	387.32
809.825	367.83
810.217	372.91
810.609	357.66
811.001	417.53
811.392	381.11
811.784	370.94
812.175	374.61
812.567	376.3
812.958	384.78
813.35	374.33
813.741	348.05
814.132	379.41
814.524	380.82
814.915	380.82
815.306	381.39
815.697	385.06
816.088	372.07
816.479	367.83
816.87	383.08
817.26	373.48
817.651	385.62
818.042	374.61
818.432	394.66
818.823	384.78
819.213	378
819.604	362.46
819.994	376.3
820.384	362.74
820.775	376.02
821.165	380.82
821.555	353.14
821.945	358.79
822.335	411.04
822.725	384.21
823.114	389.3
823.504	370.37
823.894	371.78
824.284	367.83
824.673	382.52
825.063	373.76
825.452	396.07
825.842	352.01
826.231	390.99
826.62	377.15
827.009	384.21
827.399	380.82
827.788	403.13
828.177	356.81
828.566	363.59
828.954	389.58
829.343	393.53
829.732	357.37
830.121	376.59
830.509	402.29
830.898	385.34
831.286	386.75
831.675	385.06
832.063	388.45
832.452	355.68
832.84	364.16
833.228	398.33
833.616	379.13
834.004	377.72
834.392	371.5
834.78	388.17
835.168	385.34
835.556	379.98
835.944	365.85
836.331	385.06
836.719	389.86
837.107	401.72
837.494	396.92
837.881	390.71
838.269	370.37
838.656	364.72
839.043	394.38
839.431	402.85
839.818	363.02
840.205	394.38
840.592	367.26
840.979	350.03
841.366	395.23
841.752	398.33
842.139	413.02
842.526	383.36
842.912	389.3
843.299	393.53
843.685	384.78
844.072	400.31
844.458	388.17
844.844	381.95
845.231	357.66
845.617	392.69
846.003	381.67
846.389	367.26
846.775	366.13
847.161	359.07
847.547	402.29
847.933	370.09
848.318	377.15
848.704	376.02
849.09	377.15
849.475	382.8
849.861	352.57
850.246	360.76
850.631	381.95
851.017	385.62
851.402	361.89
851.787	398.9
852.172	385.91
852.557	402.85
852.942	376.87
853.327	409.35
853.712	388.73
854.097	372.07
854.481	370.09
854.866	381.11
855.25	386.75
855.635	397.49
856.019	355.68
856.404	387.88
856.788	352.29
857.172	350.31
857.557	398.9
857.941	373.2
858.325	387.04
858.709	382.23
859.093	371.22
859.477	383.65
859.86	396.92
860.244	359.07
860.628	362.74
861.012	374.04
861.395	373.76
861.779	349.74
862.162	359.07
862.545	371.78
862.929	381.39
863.312	370.65
863.695	366.98
864.078	368.39
864.461	373.2
864.844	375.46
865.227	352.29
865.61	396.07
865.993	380.26
866.376	371.5
866.758	406.52
867.141	372.91
867.523	393.81
867.906	379.41
868.288	381.67
868.671	387.6
869.053	389.58
869.435	392.12
869.817	391.27
870.199	383.36
870.581	391.56
870.963	385.34
871.345	355.68
871.727	373.48
872.109	368.39
872.491	404.83
872.872	396.64
873.254	385.62
873.635	368.96
874.017	403.42
874.398	397.77
874.779	364.72
875.161	396.07
875.542	376.02
875.923	378.56
876.304	391.84
876.685	370.65
877.066	371.5
877.447	363.02
877.828	388.17
878.208	386.47
878.589	381.11
878.97	349.46
879.35	355.4
879.731	384.49
880.111	384.49
880.491	363.59
880.872	356.81
881.252	379.98
881.632	364.44
882.012	380.82
882.392	380.54
882.772	393.81
883.152	353.14
883.532	366.98
883.912	367.83
884.291	361.05
884.671	373.48
885.051	400.59
885.43	405.11
885.81	396.36
886.189	378.85
886.568	369.52
886.948	367.55
887.327	398.33
887.706	377.15
888.085	399.75
888.464	369.81
888.843	394.94
889.222	374.89
889.601	373.2
889.979	413.02
890.358	365
890.737	372.07
891.115	408.22
891.494	387.88
891.872	366.98
892.25	390.71
892.629	378.85
893.007	390.43
893.385	389.01
893.763	402
894.141	371.78
894.519	379.69
894.897	386.19
895.275	381.67
895.653	379.13
896.03	371.22
896.408	382.23
896.786	390.99
897.163	385.34
897.541	372.07
897.918	388.45
898.295	373.2
898.673	376.87
899.05	346.64
899.427	396.07
899.804	376.3
900.181	413.86
900.558	402.57
900.935	382.8
901.312	381.95
901.688	378.85
902.065	383.93
902.442	385.06
902.818	398.9
903.195	373.76
903.571	379.13
903.947	361.89
904.324	372.35
904.7	371.5
905.076	381.11
905.452	386.75
905.828	383.93
906.204	383.08
906.58	354.83
906.956	401.16
907.331	415.56
907.707	374.04
908.083	381.67
908.458	381.67
908.834	393.25
909.209	396.64
909.585	408.5
909.96	374.89
910.335	367.55
910.71	401.72
911.086	374.61
911.461	412.17
911.836	362.74
912.21	370.09
912.585	362.74
912.96	383.08
913.335	353.42
913.709	370.65
914.084	373.76
914.459	393.81
914.833	358.22
915.207	357.66
915.582	385.91
915.956	380.54
916.33	378
916.704	377.15
917.078	368.11
917.452	372.35
917.826	388.73
918.2	354.27
918.574	390.99
918.948	378.85
919.321	388.73
919.695	368.11
920.068	386.19
920.442	386.75
920.815	367.83
921.189	378.85
921.562	375.17
921.935	364.16
922.308	357.09
922.681	381.95
923.054	377.15
923.427	388.73
923.8	386.75
924.173	366.7
924.546	348.9
924.919	368.96
925.291	383.36
925.664	376.59
926.036	372.91
926.409	379.13
926.781	357.37
927.153	371.22
927.526	383.93
927.898	359.92
928.27	380.54
928.642	377.43
929.014	376.3
929.386	378.28
929.758	377.43
930.129	388.17
930.501	371.78
930.873	391.27
931.244	404.26
931.616	362.46
931.987	372.91
932.359	374.61
932.73	381.39
933.101	387.6
933.472	383.08
933.843	372.07
934.214	405.39
934.585	393.81
934.956	373.76
935.327	378.85
935.698	355.96
936.069	379.69
936.439	389.86
936.81	378.56
937.18	361.33
937.551	368.68
937.921	411.04
938.292	379.98
938.662	372.35
939.032	384.78
939.402	382.52
939.772	404.55
940.142	370.09
940.512	361.61
940.882	369.52
941.252	372.07
941.621	403.13
941.991	372.35
942.361	385.34
942.73	379.41
943.1	362.46
943.469	357.94
943.838	396.92
944.208	362.18
944.577	354.83
944.946	369.24
945.315	362.74
945.684	397.2
946.053	388.17
946.422	360.76
946.791	395.51
947.159	377.43
947.528	361.05
947.897	383.93
948.265	366.42
948.634	366.98
949.002	355.68
949.371	380.26
949.739	398.33
950.107	378.85
950.475	379.13
950.843	380.54
951.211	394.38
951.579	374.61
951.947	370.94
952.315	382.52
952.683	385.34
953.05	359.07
953.418	361.33
953.785	356.81
954.153	348.61
954.52	391.56
954.888	365.29
955.255	382.23
955.622	378
955.989	375.74
956.356	379.69
956.723	378.56
957.09	369.24
957.457	402.85
957.824	367.83
958.191	367.55
958.557	372.63
958.924	367.83
959.291	364.44
959.657	369.81
960.023	394.66
960.39	380.54
960.756	364.72
961.122	361.89
961.488	375.74
961.855	362.74
962.221	376.3
962.586	377.43
962.952	374.33
963.318	381.95
963.684	426.29
964.05	367.83
964.415	392.12
964.781	384.49
965.146	371.78
965.512	384.49
965.877	370.37
966.242	376.02
966.608	382.52
966.973	364.72
967.338	378
967.703	379.41
968.068	372.35
968.433	367.26
968.797	389.58
969.162	368.68
969.527	376.3
969.891	372.35
970.256	399.46
970.62	386.19
970.985	380.26
971.349	391.84
971.714	362.74
972.078	385.91
972.442	369.24
972.806	359.63
973.17	370.94
973.534	387.04
973.898	359.63
974.262	353.7
974.625	372.91
974.989	377.72
975.353	386.47
975.716	358.22
976.08	378
976.443	389.01
976.806	356.24
977.17	405.68
977.533	382.8
977.896	382.52
978.259	349.18
978.622	371.22
978.985	379.41
979.348	384.78
979.711	372.91
980.073	371.5
980.436	376.59
980.799	390.43
981.161	387.04
981.524	385.91
981.886	385.62
982.248	380.82
982.611	384.49
982.973	386.75
983.335	379.41
983.697	365.29
984.059	392.69
984.421	402.85
984.783	333.92
985.145	359.07
985.506	382.23
985.868	381.39
986.23	381.67
986.591	390.99
986.953	378.56
987.314	377.15
987.675	356.24
988.037	1034.15
988.398	388.73
988.759	392.4
989.12	375.17
989.481	372.91
989.842	381.95
990.203	369.81
990.564	379.13
990.924	372.07
991.285	1119.51
991.646	386.75
992.006	371.22
992.367	378.56
992.727	400.03
993.087	381.95
993.448	378
993.808	372.63
994.168	366.98
994.528	366.7
994.888	378.85
995.248	391.84
995.608	346.92
995.967	395.51
996.327	387.6
996.687	368.68
997.046	392.69
997.406	384.49
997.765	374.61
998.125	380.26
998.484	377.15
998.843	354.83
999.202	365
999.561	381.39
999.92	338.44
1000.279	364.16
1000.638	359.92
1000.997	355.68
1001.356	394.66
1001.715	371.22
1002.073	394.38
1002.432	399.18
1002.79	389.01
1003.149	372.07
1003.507	372.63
1003.865	365.57
1004.224	368.96
1004.582	401.72
1004.94	402
1005.298	371.78
1005.656	368.39
1006.014	360.76
1006.371	370.37
1006.729	370.94
1007.087	386.19
1007.445	374.04
1007.802	365.29
1008.16	372.91
1008.517	401.44
1008.874	357.66
1009.232	372.07
1009.589	395.79
1009.946	385.34
1010.303	365.29
1010.66	376.3
1011.017	379.69
1011.374	367.55
1011.731	371.78
1012.087	362.74
1012.444	348.61
1012.801	380.26
1013.157	399.75
1013.513	372.07
1013.87	365.85
1014.226	405.68
1014.582	384.78
1014.939	364.16
1015.295	379.13
1015.651	390.71
1016.007	399.46
1016.363	405.68
1016.719	393.81
1017.074	374.61
1017.43	406.52
1017.786	375.46
1018.141	382.8
1018.497	381.39
1018.852	365.29
1019.208	344.94
1019.563	384.49
1019.918	371.5
1020.273	385.34
1020.628	421.77
1020.983	372.35
1021.338	385.91
1021.693	400.03
1022.048	365
1022.403	359.35
1022.757	368.11
1023.112	363.59
1023.467	358.22
1023.821	374.04
1024.175	375.46
1024.53	366.13
1024.884	372.63
1025.238	356.53
1025.592	368.96
1025.946	365
1026.3	372.91
1026.654	381.67
1027.008	372.07
1027.362	368.96
1027.716	379.41
1028.069	381.95
1028.423	326.85
1028.777	398.9
1029.13	359.63
1029.483	380.26
1029.837	366.42
1030.19	397.49
1030.543	359.92
1030.896	389.3
1031.249	392.97
1031.602	357.09
1031.955	403.13
1032.308	371.5
1032.661	371.78
1033.013	365.57
1033.366	386.75
1033.719	377.43
1034.071	390.71
1034.424	395.51
1034.776	387.04
1035.128	350.03
1035.48	378.28
1035.833	396.64
1036.185	366.13
1036.537	366.13
1036.889	366.13
