Data from NOL_irradiation_FLMS019251_05-08-25-490.txt Node
Date: Wed Feb 20 05:08:25 PST 2019
User: mu3e
Spectrometer: FLMS01925
Trigger mode: 0
Integration Time (sec): 6.500000E-2
Scans to average: 10
Electric dark correction enabled: true
Nonlinearity correction enabled: true
Boxcar width: 0
XAxis mode: Wavelengths
Number of Pixels in Spectrum: 2048
>>>>>Begin Spectral Data<<<<<
187.103	-79.7
187.574	-79.7
188.045	-79.7
188.516	-131.45
188.987	-91.64
189.458	-111.26
189.929	-109.55
190.4	-104.15
190.871	-110.4
191.342	-67.76
191.813	-54.69
192.284	-40.2
192.754	-24.58
193.225	6.37
193.696	27.38
194.166	45.25
194.637	80.71
195.107	88.65
195.578	112.75
196.048	131.46
196.518	129.2
196.989	164.33
197.459	175.38
197.929	208.8
198.399	243.05
198.869	254.93
199.339	284.07
199.809	278.13
200.279	308.95
200.749	303.58
201.219	320.26
201.689	331.57
202.159	375.37
202.628	359.83
203.098	373.11
203.568	372.26
204.037	363.5
204.507	358.42
204.976	366.33
205.445	372.54
205.915	384.41
206.384	394.29
206.853	364.35
207.323	374.24
207.792	362.65
208.261	364.91
208.73	387.8
209.199	371.13
209.668	367.46
210.137	355.59
210.606	389.77
211.075	402.2
211.543	376.78
212.012	368.02
212.481	348.81
212.95	331.85
213.418	371.69
213.887	346.27
214.355	357.57
214.824	317.15
215.292	337.79
215.76	332.98
216.229	345.42
216.697	349.66
217.165	324.78
217.633	315.46
218.101	332.42
218.569	355.59
219.037	334.68
219.505	360.11
219.973	331
220.441	332.42
220.909	346.55
221.377	336.66
221.844	315.17
222.312	344
222.78	328.74
223.247	317.43
223.715	344
224.182	333.26
224.65	341.18
225.117	314.61
225.584	323.37
226.052	331.57
226.519	335.81
226.986	348.81
227.453	319.7
227.92	310.37
228.387	357
228.854	349.09
229.321	335.81
229.788	349.94
230.255	327.61
230.722	352.76
231.189	349.37
231.655	333.55
232.122	341.74
232.589	374.52
233.055	369.15
233.522	358.98
233.988	345.42
234.454	357.29
234.921	363.5
235.387	328.46
235.853	337.79
236.32	367.46
236.786	358.7
237.252	338.07
237.718	350.5
238.184	350.5
238.65	359.83
239.116	338.63
239.582	367.46
240.047	360.96
240.513	348.81
240.979	356.16
241.445	354.46
241.91	342.87
242.376	353.61
242.841	337.22
243.307	359.55
243.772	346.27
244.238	348.53
244.703	362.37
245.168	366.89
245.633	348.24
246.099	340.61
246.564	353.9
247.029	341.74
247.494	351.35
247.959	351.63
248.424	352.48
248.889	385.25
249.353	360.68
249.818	352.76
250.283	368.02
250.748	362.37
251.212	323.94
251.677	332.7
252.141	349.66
252.606	339.48
253.07	354.18
253.535	375.08
253.999	352.2
254.463	371.41
254.927	353.9
255.392	392.03
255.856	351.35
256.32	380.73
256.784	339.77
257.248	338.92
257.712	353.33
258.176	383.28
258.64	347.68
259.103	355.03
259.567	365.2
260.031	356.44
260.495	395.42
260.958	370.28
261.422	361.81
261.885	351.35
262.349	338.92
262.812	332.7
263.275	345.98
263.739	382.15
264.202	344
264.665	364.91
265.128	352.48
265.591	341.74
266.054	368.87
266.517	366.61
266.98	370.56
267.443	375.93
267.906	343.44
268.369	358.98
268.832	353.61
269.294	364.63
269.757	347.68
270.22	349.66
270.682	376.21
271.145	361.24
271.607	357.57
272.07	377.06
272.532	362.65
272.994	362.09
273.456	353.05
273.919	401.63
274.381	372.54
274.843	380.73
275.305	368.87
275.767	344.85
276.229	370.28
276.691	391.75
277.153	361.24
277.614	363.22
278.076	358.42
278.538	368.87
279	390.34
279.461	357.57
279.923	365.76
280.384	346.55
280.846	338.92
281.307	373.11
281.769	376.5
282.23	368.3
282.691	394.86
283.152	380.45
283.613	370
284.075	381.58
284.536	358.7
284.997	384.41
285.458	383.84
285.918	365.76
286.379	346.27
286.84	360.96
287.301	377.63
287.762	397.68
288.222	346.55
288.683	379.04
289.143	399.09
289.604	362.09
290.064	360.39
290.525	371.13
290.985	373.11
291.445	361.81
291.906	399.66
292.366	376.5
292.826	371.13
293.286	358.98
293.746	361.81
294.206	382.43
294.666	380.17
295.126	367.74
295.586	393.44
296.046	368.3
296.506	356.44
296.965	381.3
297.425	374.8
297.884	386.1
298.344	375.65
298.804	379.04
299.263	347.96
299.722	380.17
300.182	356.72
300.641	368.87
301.1	364.35
301.559	368.3
302.019	361.52
302.478	402.48
302.937	367.17
303.396	368.59
303.855	392.88
304.314	370.85
304.772	405.59
305.231	372.26
305.69	374.52
306.149	368.02
306.607	387.23
307.066	376.78
307.524	371.13
307.983	377.34
308.441	387.8
308.9	383.56
309.358	398.81
309.816	393.44
310.275	356.44
310.733	389.49
311.191	373.67
311.649	370.56
312.107	388.36
312.565	370.56
313.023	357.29
313.481	381.86
313.939	375.93
314.397	341.18
314.854	377.34
315.312	380.73
315.77	367.74
316.227	362.65
316.685	373.39
317.142	360.11
317.6	389.21
318.057	361.52
318.514	365.48
318.972	360.68
319.429	387.23
319.886	369.72
320.343	360.11
320.8	399.94
321.257	382.15
321.714	386.1
322.171	377.06
322.628	382.99
323.085	379.6
323.542	380.17
323.998	381.3
324.455	370
324.912	401.35
325.368	368.3
325.825	403.61
326.281	357.85
326.738	362.94
327.194	363.22
327.65	381.58
328.107	389.49
328.563	383.56
329.019	385.82
329.475	380.17
329.931	367.74
330.387	366.89
330.843	359.83
331.299	375.37
331.755	360.11
332.211	386.38
332.666	371.69
333.122	380.17
333.578	372.26
334.033	382.15
334.489	351.63
334.944	385.82
335.4	417.16
335.855	405.02
336.31	362.94
336.766	388.64
337.221	388.64
337.676	357.85
338.131	381.58
338.586	371.41
339.041	388.08
339.496	392.6
339.951	391.75
340.406	381.86
340.861	371.41
341.316	403.33
341.771	391.18
342.225	375.37
342.68	387.51
343.134	395.42
343.589	354.46
344.043	379.04
344.498	373.95
344.952	384.41
345.406	410.95
345.861	370.56
346.315	394.29
346.769	379.04
347.223	375.93
347.677	369.72
348.131	395.99
348.585	382.99
349.039	365.48
349.493	393.73
349.947	382.71
350.401	384.41
350.854	387.51
351.308	392.6
351.762	373.39
352.215	372.54
352.669	355.59
353.122	372.82
353.575	375.93
354.029	373.11
354.482	383.84
354.935	384.97
355.388	401.63
355.842	399.66
356.295	379.6
356.748	406.15
357.201	379.04
357.654	388.64
358.106	375.37
358.559	384.12
359.012	381.86
359.465	391.75
359.917	401.07
360.37	402.2
360.823	393.44
361.275	399.37
361.728	407.28
362.18	395.99
362.632	402.76
363.085	396.83
363.537	393.44
363.989	397.4
364.441	398.25
364.893	384.97
365.345	397.68
365.797	369.15
366.249	376.21
366.701	377.63
367.153	402.76
367.605	381.02
368.057	408.41
368.508	380.45
368.96	386.1
369.411	395.7
369.863	410.95
370.314	383.84
370.766	399.66
371.217	389.49
371.669	395.7
372.12	413.49
372.571	378.19
373.022	405.02
373.473	389.77
373.924	384.12
374.375	404.46
374.826	405.87
375.277	400.5
375.728	373.95
376.179	391.47
376.63	377.91
377.08	415.19
377.531	396.55
377.981	405.02
378.432	398.25
378.883	399.09
379.333	365.48
379.783	381.58
380.234	381.58
380.684	397.96
381.134	388.93
381.584	396.83
382.034	389.21
382.485	399.66
382.935	370
383.385	397.4
383.834	386.38
384.284	383.28
384.734	393.16
385.184	401.35
385.634	404.74
386.083	366.61
386.533	352.2
386.982	371.98
387.432	391.18
387.881	383.28
388.331	377.06
388.78	378.47
389.229	371.98
389.679	393.73
390.128	387.8
390.577	379.6
391.026	392.31
391.475	393.44
391.924	374.52
392.373	393.44
392.822	381.3
393.27	411.23
393.719	378.47
394.168	387.51
394.617	384.12
395.065	393.73
395.514	377.63
395.962	388.36
396.411	369.15
396.859	401.35
397.307	387.51
397.756	388.93
398.204	384.97
398.652	403.33
399.1	375.93
399.548	392.03
399.996	415.75
400.444	403.89
400.892	384.12
401.34	374.8
401.788	393.44
402.236	403.05
402.683	373.95
403.131	384.97
403.579	381.86
404.026	376.5
404.474	382.15
404.921	397.96
405.369	384.12
405.816	388.08
406.263	377.34
406.71	386.1
407.158	394.86
407.605	375.93
408.052	369.72
408.499	395.14
408.946	409.26
409.393	381.3
409.84	368.59
410.286	375.08
410.733	371.98
411.18	390.9
411.626	382.99
412.073	421.4
412.52	389.77
412.966	404.74
413.413	381.86
413.859	393.73
414.305	392.88
414.752	369.43
415.198	373.39
415.644	392.03
416.09	380.17
416.536	385.82
416.982	392.88
417.428	405.59
417.874	384.41
418.32	386.95
418.766	389.49
419.211	363.22
419.657	396.83
420.103	402.2
420.548	386.95
420.994	403.89
421.439	390.06
421.885	382.99
422.33	366.33
422.776	420.83
423.221	391.18
423.666	407
424.111	397.96
424.556	416.6
425.001	401.92
425.446	382.99
425.891	384.41
426.336	395.7
426.781	404.46
427.226	385.54
427.671	391.47
428.115	394.86
428.56	392.6
429.005	405.59
429.449	411.8
429.894	380.17
430.338	423.94
430.782	384.12
431.227	386.38
431.671	390.62
432.115	384.12
432.559	414.62
433.003	385.25
433.447	401.35
433.891	412.36
434.335	356.72
434.779	392.31
435.223	402.76
435.667	393.44
436.111	479.25
436.554	400.79
436.998	385.54
437.442	391.47
437.885	369.15
438.328	383.56
438.772	397.96
439.215	399.66
439.659	379.32
440.102	373.39
440.545	383.28
440.988	400.22
441.431	404.18
441.874	396.27
442.317	412.65
442.76	405.02
443.203	375.65
443.646	365.2
444.089	380.17
444.531	423.37
444.974	387.8
445.417	376.5
445.859	381.58
446.302	415.19
446.744	392.31
447.186	382.43
447.629	409.82
448.071	395.42
448.513	410.11
448.956	418.29
449.398	401.07
449.84	393.16
450.282	388.93
450.724	370.28
451.166	367.74
451.607	404.74
452.049	384.97
452.491	410.67
452.933	395.42
453.374	411.52
453.816	414.91
454.257	392.6
454.699	411.52
455.14	410.11
455.582	396.83
456.023	373.39
456.464	384.97
456.905	376.21
457.347	402.2
457.788	395.99
458.229	391.75
458.67	401.35
459.111	398.53
459.552	420.55
459.992	383.84
460.433	373.95
460.874	380.45
461.315	375.37
461.755	392.31
462.196	392.31
462.636	375.65
463.077	369.72
463.517	400.5
463.957	369.72
464.398	366.33
464.838	412.93
465.278	382.43
465.718	405.59
466.158	387.51
466.598	380.17
467.038	364.07
467.478	414.06
467.918	396.55
468.358	380.73
468.798	373.39
469.237	369.72
469.677	394.01
470.117	394.29
470.556	388.36
470.996	432.97
471.435	421.4
471.874	378.76
472.314	410.11
472.753	403.61
473.192	375.08
473.631	383.56
474.07	388.36
474.509	382.71
474.948	380.17
475.387	390.9
475.826	391.75
476.265	391.75
476.704	373.39
477.143	393.44
477.581	403.61
478.02	401.07
478.458	381.58
478.897	369.43
479.335	391.47
479.774	403.05
480.212	376.5
480.65	395.14
481.089	394.57
481.527	381.02
481.965	385.25
482.403	386.38
482.841	368.87
483.279	410.95
483.717	395.14
484.155	385.25
484.592	379.32
485.03	406.15
485.468	374.24
485.905	386.38
486.343	375.37
486.781	388.36
487.218	409.82
487.655	398.53
488.093	375.93
488.53	401.07
488.967	405.3
489.405	406.43
489.842	373.95
490.279	402.76
490.716	383.28
491.153	397.4
491.59	412.93
492.027	384.69
492.463	394.29
492.9	375.08
493.337	393.16
493.773	390.62
494.21	386.67
494.647	380.73
495.083	390.34
495.519	379.04
495.956	380.73
496.392	395.7
496.828	413.49
497.265	387.23
497.701	396.83
498.137	409.54
498.573	380.45
499.009	401.92
499.445	382.71
499.881	382.99
500.316	393.44
500.752	393.16
501.188	386.1
501.624	373.39
502.059	386.95
502.495	371.41
502.93	388.93
503.366	460.35
503.801	399.94
504.236	386.1
504.672	417.45
505.107	362.65
505.542	375.37
505.977	388.08
506.412	395.7
506.847	396.55
507.282	370.28
507.717	387.23
508.152	403.61
508.587	384.41
509.021	394.86
509.456	387.51
509.891	401.35
510.325	403.89
510.76	389.21
511.194	382.43
511.628	399.66
512.063	382.15
512.497	388.08
512.931	390.06
513.366	380.17
513.8	406.43
514.234	382.71
514.668	370.28
515.102	397.4
515.536	391.18
515.969	403.33
516.403	384.69
516.837	429.87
517.271	402.48
517.704	403.33
518.138	405.87
518.571	379.6
519.005	395.99
519.438	386.67
519.871	392.88
520.305	400.22
520.738	389.21
521.171	386.95
521.604	399.94
522.037	381.02
522.47	376.5
522.903	385.25
523.336	389.77
523.769	410.39
524.202	368.3
524.634	424.5
525.067	384.97
525.5	419.14
525.932	408.98
526.365	393.16
526.797	366.61
527.23	381.58
527.662	363.22
528.094	387.51
528.527	381.58
528.959	382.71
529.391	389.77
529.823	368.87
530.255	371.69
530.687	389.77
531.119	375.08
531.551	400.5
531.982	380.17
532.414	401.35
532.846	397.12
533.277	387.23
533.709	390.62
534.14	388.64
534.572	405.87
535.003	391.75
535.435	421.4
535.866	406.15
536.297	403.05
536.728	409.54
537.159	379.32
537.59	392.88
538.022	402.48
538.452	391.47
538.883	387.23
539.314	405.59
539.745	391.47
540.176	397.96
540.606	408.13
541.037	371.41
541.468	392.31
541.898	384.69
542.328	394.01
542.759	405.02
543.189	378.19
543.619	410.39
544.05	401.35
544.48	384.41
544.91	389.49
545.34	410.11
545.77	378.76
546.2	432.41
546.63	367.74
547.06	383.84
547.489	408.98
547.919	407.28
548.349	362.94
548.778	394.86
549.208	378.19
549.637	375.93
550.067	385.25
550.496	359.83
550.926	378.19
551.355	396.55
551.784	378.76
552.213	363.78
552.642	374.52
553.071	390.62
553.5	398.25
553.929	374.8
554.358	398.53
554.787	394.29
555.216	406.43
555.645	416.03
556.073	391.18
556.502	396.83
556.93	405.59
557.359	395.14
557.787	378.19
558.216	401.92
558.644	392.6
559.072	379.32
559.5	357.29
559.929	407.28
560.357	395.14
560.785	369.72
561.213	380.73
561.641	383.56
562.068	407.56
562.496	379.32
562.924	395.14
563.352	378.47
563.779	412.65
564.207	391.75
564.634	400.22
565.062	401.92
565.489	392.03
565.917	403.61
566.344	397.68
566.771	355.03
567.198	391.18
567.625	359.26
568.053	376.78
568.48	390.62
568.907	402.48
569.333	396.83
569.76	386.1
570.187	371.41
570.614	393.44
571.04	1564.56
571.467	439.75
571.894	376.21
572.32	387.51
572.747	382.99
573.173	413.21
573.599	387.8
574.026	392.03
574.452	369.72
574.878	398.25
575.304	405.3
575.73	392.03
576.156	367.74
576.582	393.44
577.008	391.75
577.434	383.56
577.86	377.63
578.285	389.77
578.711	390.34
579.137	390.06
579.562	412.08
579.988	400.79
580.413	394.29
580.838	396.27
581.264	386.95
581.689	390.62
582.114	401.63
582.539	501.53
582.964	363.78
583.39	399.66
583.814	375.37
584.239	371.13
584.664	380.73
585.089	406.15
585.514	394.57
585.939	402.48
586.363	372.82
586.788	414.34
587.212	388.36
587.637	398.81
588.061	385.54
588.485	370.85
588.91	385.25
589.334	382.43
589.758	384.69
590.182	384.97
590.606	402.76
591.03	403.89
591.454	388.64
591.878	400.22
592.302	397.68
592.726	406.72
593.15	402.2
593.573	369.72
593.997	387.51
594.42	376.78
594.844	385.25
595.267	425.35
595.691	420.55
596.114	389.49
596.537	384.97
596.96	380.45
597.384	389.49
597.807	397.96
598.23	381.58
598.653	395.99
599.076	394.29
599.499	388.08
599.921	387.8
600.344	375.93
600.767	407.85
601.189	392.03
601.612	396.27
602.034	396.27
602.457	365.48
602.879	403.89
603.302	376.5
603.724	384.97
604.146	380.17
604.568	377.06
604.991	399.37
605.413	386.38
605.835	389.77
606.257	400.79
606.678	382.71
607.1	392.88
607.522	364.63
607.944	390.34
608.365	392.03
608.787	416.88
609.209	397.12
609.63	421.96
610.051	384.97
610.473	380.73
610.894	358.42
611.315	380.17
611.737	401.35
612.158	384.12
612.579	390.06
613	398.25
613.421	392.31
613.842	404.18
614.263	395.99
614.683	398.53
615.104	410.11
615.525	364.91
615.945	397.68
616.366	394.86
616.787	376.5
617.207	371.69
617.627	399.94
618.048	391.47
618.468	369.15
618.888	375.37
619.308	380.73
619.728	413.78
620.148	405.59
620.568	408.41
620.988	425.92
621.408	399.37
621.828	367.17
622.248	378.47
622.668	380.73
623.087	386.67
623.507	374.24
623.926	390.06
624.346	380.73
624.765	392.31
625.185	354.74
625.604	389.49
626.023	380.17
626.442	383.28
626.861	383.28
627.28	382.99
627.699	388.08
628.118	391.47
628.537	410.95
628.956	406.43
629.375	378.47
629.794	400.79
630.212	408.41
630.631	402.48
631.049	398.53
631.468	400.79
631.886	395.14
632.305	408.41
632.723	356.44
633.141	421.96
633.559	393.16
633.978	390.06
634.396	392.6
634.814	397.12
635.232	378.47
635.65	391.47
636.067	381.58
636.485	374.24
636.903	384.12
637.321	387.51
637.738	413.49
638.156	388.64
638.573	375.93
638.991	397.4
639.408	397.68
639.825	367.74
640.243	410.95
640.66	390.9
641.077	381.58
641.494	371.13
641.911	403.33
642.328	389.21
642.745	383.84
643.162	375.08
643.579	373.11
643.995	356.16
644.412	409.54
644.829	383.28
645.245	373.95
645.662	401.63
646.078	370.85
646.495	371.69
646.911	386.38
647.327	396.27
647.743	399.37
648.159	392.03
648.576	397.4
648.992	406.72
649.408	377.06
649.824	401.35
650.239	399.94
650.655	379.04
651.071	399.09
651.487	408.41
651.902	379.6
652.318	392.31
652.733	367.17
653.149	373.67
653.564	410.95
653.979	374.8
654.395	367.74
654.81	390.62
655.225	371.98
655.64	396.83
656.055	401.92
656.47	410.95
656.885	382.71
657.3	370.85
657.715	386.1
658.13	365.76
658.544	385.25
658.959	391.75
659.374	377.06
659.788	393.16
660.202	358.98
660.617	388.93
661.031	405.3
661.445	392.88
661.86	362.37
662.274	378.47
662.688	395.7
663.102	398.25
663.516	403.33
663.93	394.01
664.344	375.93
664.758	407.28
665.171	372.54
665.585	363.5
665.999	386.67
666.412	403.05
666.826	388.93
667.239	386.67
667.653	409.54
668.066	371.98
668.479	400.79
668.892	387.8
669.306	369.15
669.719	384.41
670.132	416.88
670.545	364.63
670.958	374.24
671.37	376.21
671.783	377.63
672.196	386.38
672.609	371.98
673.021	397.96
673.434	380.17
673.846	367.46
674.259	371.41
674.671	403.05
675.084	369.43
675.496	352.76
675.908	375.37
676.32	396.83
676.732	392.6
677.144	383.28
677.556	390.62
677.968	401.07
678.38	384.97
678.792	401.35
679.204	385.82
679.615	391.75
680.027	396.83
680.439	372.54
680.85	393.44
681.262	393.73
681.673	392.03
682.084	396.27
682.496	378.19
682.907	417.73
683.318	386.1
683.729	386.38
684.14	400.5
684.551	361.81
684.962	381.58
685.373	401.63
685.784	396.55
686.194	361.81
686.605	395.14
687.016	373.67
687.426	396.27
687.837	375.37
688.247	389.49
688.657	406.43
689.068	379.32
689.478	374.52
689.888	414.91
690.298	391.47
690.708	390.34
691.118	360.11
691.528	369.43
691.938	387.51
692.348	390.06
692.758	405.59
693.168	384.12
693.577	378.19
693.987	386.38
694.396	396.83
694.806	394.29
695.215	395.14
695.625	410.11
696.034	375.08
696.443	392.88
696.852	376.5
697.262	388.93
697.671	378.76
698.08	381.58
698.489	382.99
698.897	401.92
699.306	370
699.715	373.67
700.124	368.59
700.532	413.78
700.941	388.36
701.35	372.54
701.758	384.41
702.166	377.06
702.575	396.83
702.983	377.63
703.391	366.04
703.799	361.52
704.208	378.47
704.616	370.56
705.024	364.63
705.432	391.18
705.839	384.12
706.247	405.02
706.655	424.5
707.063	401.92
707.47	397.12
707.878	387.8
708.285	400.5
708.693	403.33
709.1	393.44
709.508	425.35
709.915	383.28
710.322	370.28
710.729	410.95
711.136	388.93
711.543	407
711.95	394.57
712.357	388.08
712.764	402.2
713.171	388.08
713.578	388.93
713.984	361.52
714.391	367.74
714.797	388.36
715.204	381.3
715.61	409.26
716.017	388.64
716.423	378.19
716.829	365.76
717.236	373.39
717.642	378.19
718.048	390.06
718.454	382.15
718.86	408.41
719.266	396.83
719.671	386.38
720.077	403.61
720.483	372.54
720.889	363.5
721.294	372.82
721.7	382.43
722.105	390.9
722.511	387.51
722.916	376.5
723.321	371.41
723.726	392.31
724.132	372.54
724.537	402.2
724.942	403.33
725.347	384.12
725.752	391.75
726.156	377.06
726.561	379.89
726.966	396.27
727.371	398.25
727.775	368.87
728.18	363.5
728.584	379.04
728.989	373.39
729.393	405.3
729.798	381.86
730.202	391.47
730.606	394.86
731.01	398.25
731.414	385.54
731.818	381.86
732.222	373.95
732.626	371.13
733.03	385.54
733.434	424.22
733.837	388.64
734.241	360.96
734.645	363.78
735.048	364.35
735.452	386.95
735.855	392.31
736.258	377.91
736.662	380.73
737.065	373.11
737.468	375.37
737.871	387.8
738.274	417.73
738.677	400.22
739.08	380.45
739.483	391.47
739.886	374.8
740.289	393.73
740.691	387.23
741.094	383.84
741.497	388.08
741.899	394.29
742.302	361.24
742.704	392.88
743.106	367.74
743.508	395.14
743.911	387.8
744.313	410.39
744.715	390.9
745.117	356.16
745.519	388.36
745.921	390.62
746.323	386.38
746.724	354.74
747.126	381.02
747.528	391.18
747.929	390.06
748.331	396.55
748.732	392.31
749.134	385.82
749.535	361.52
749.936	364.63
750.338	379.32
750.739	405.59
751.14	365.2
751.541	375.65
751.942	376.5
752.343	375.37
752.744	372.54
753.144	398.81
753.545	368.3
753.946	369.72
754.346	386.67
754.747	394.86
755.148	401.63
755.548	383.56
755.948	381.02
756.349	358.13
756.749	382.99
757.149	367.74
757.549	392.88
757.949	419.7
758.349	406.43
758.749	376.5
759.149	402.76
759.549	360.68
759.949	399.66
760.348	412.36
760.748	380.17
761.148	372.54
761.547	369.43
761.947	394.86
762.346	385.25
762.745	366.33
763.145	370
763.544	377.06
763.943	371.13
764.342	372.82
764.741	397.68
765.14	398.53
765.539	374.24
765.938	402.76
766.336	402.76
766.735	372.54
767.134	398.81
767.532	386.67
767.931	407
768.329	397.4
768.728	370.28
769.126	407
769.525	373.39
769.923	379.32
770.321	384.97
770.719	401.35
771.117	402.76
771.515	412.93
771.913	403.05
772.311	407.85
772.709	371.69
773.106	390.62
773.504	366.61
773.902	391.47
774.299	370.56
774.697	404.74
775.094	376.21
775.491	390.62
775.889	383.84
776.286	379.04
776.683	355.03
777.08	395.42
777.477	363.5
777.874	377.63
778.271	379.6
778.668	391.75
779.065	381.58
779.462	384.69
779.858	380.73
780.255	384.12
780.652	370.28
781.048	394.57
781.444	369.72
781.841	362.37
782.237	398.53
782.633	365.2
783.03	383.56
783.426	364.91
783.822	393.44
784.218	385.82
784.614	371.41
785.01	373.67
785.405	402.48
785.801	403.89
786.197	382.99
786.593	371.98
786.988	366.89
787.384	381.02
787.779	389.49
788.174	392.88
788.57	372.82
788.965	393.73
789.36	372.26
789.755	372.82
790.15	363.78
790.545	394.57
790.94	401.92
791.335	392.88
791.73	405.02
792.125	388.64
792.52	403.61
792.914	382.15
793.309	353.05
793.703	400.79
794.098	377.91
794.492	356.44
794.887	368.87
795.281	375.37
795.675	399.37
796.069	413.49
796.463	384.97
796.857	382.15
797.251	378.47
797.645	363.22
798.039	381.3
798.433	385.54
798.826	391.75
799.22	386.95
799.614	392.6
800.007	394.86
800.401	377.34
800.794	367.17
801.187	375.93
801.581	406.72
801.974	365.2
802.367	384.97
802.76	373.39
803.153	371.98
803.546	403.33
803.939	392.6
804.332	379.89
804.725	381.58
805.117	398.53
805.51	379.6
805.903	378.19
806.295	368.87
806.688	370.56
807.08	392.03
807.472	375.08
807.865	371.98
808.257	397.68
808.649	360.96
809.041	370.28
809.433	410.39
809.825	384.69
810.217	365.76
810.609	359.26
811.001	414.34
811.392	379.89
811.784	394.57
812.175	381.86
812.567	377.06
812.958	363.5
813.35	384.12
813.741	385.25
814.132	394.86
814.524	384.41
814.915	394.29
815.306	375.93
815.697	371.69
816.088	382.71
816.479	367.74
816.87	390.06
817.26	370.28
817.651	418.86
818.042	425.92
818.432	391.18
818.823	376.5
819.213	390.34
819.604	394.86
819.994	377.63
820.384	386.38
820.775	377.91
821.165	371.41
821.555	407.56
821.945	384.41
822.335	380.17
822.725	403.33
823.114	369.43
823.504	389.49
823.894	406.15
824.284	397.68
824.673	380.73
825.063	375.08
825.452	386.95
825.842	400.22
826.231	390.9
826.62	387.51
827.009	384.97
827.399	377.06
827.788	385.54
828.177	390.34
828.566	376.5
828.954	387.8
829.343	392.31
829.732	392.31
830.121	371.13
830.509	398.81
830.898	376.21
831.286	390.34
831.675	381.86
832.063	368.3
832.452	375.93
832.84	361.24
833.228	372.26
833.616	390.06
834.004	384.41
834.392	379.6
834.78	377.63
835.168	379.32
835.556	384.41
835.944	380.73
836.331	401.63
836.719	384.69
837.107	377.06
837.494	407.56
837.881	368.3
838.269	390.62
838.656	376.21
839.043	370
839.431	401.63
839.818	395.14
840.205	383.84
840.592	382.15
840.979	384.69
841.366	386.38
841.752	370.28
842.139	386.67
842.526	380.45
842.912	388.36
843.299	386.67
843.685	396.83
844.072	402.2
844.458	406.72
844.844	380.17
845.231	345.13
845.617	364.91
846.003	383.56
846.389	364.63
846.775	403.61
847.161	372.26
847.547	357.85
847.933	404.46
848.318	380.17
848.704	361.52
849.09	372.82
849.475	377.91
849.861	377.34
850.246	400.79
850.631	372.82
851.017	372.82
851.402	381.02
851.787	386.1
852.172	405.87
852.557	379.6
852.942	380.73
853.327	400.5
853.712	389.49
854.097	398.53
854.481	399.66
854.866	394.29
855.25	405.02
855.635	383.84
856.019	415.47
856.404	365.48
856.788	383.84
857.172	385.82
857.557	402.48
857.941	391.75
858.325	377.06
858.709	383.56
859.093	382.15
859.477	411.52
859.86	382.15
860.244	394.29
860.628	390.34
861.012	389.77
861.395	374.52
861.779	407.28
862.162	389.77
862.545	395.42
862.929	415.19
863.312	371.69
863.695	389.77
864.078	386.1
864.461	373.39
864.844	380.45
865.227	399.09
865.61	398.81
865.993	370.56
866.376	384.97
866.758	384.69
867.141	378.47
867.523	384.97
867.906	385.54
868.288	384.69
868.671	373.39
869.053	421.4
869.435	387.51
869.817	389.49
870.199	375.37
870.581	381.02
870.963	364.07
871.345	388.93
871.727	403.61
872.109	368.59
872.491	390.34
872.872	386.1
873.254	384.12
873.635	397.96
874.017	395.14
874.398	376.78
874.779	414.34
875.161	379.89
875.542	390.06
875.923	373.67
876.304	390.9
876.685	386.1
877.066	366.04
877.447	413.49
877.828	390.06
878.208	386.38
878.589	391.47
878.97	410.67
879.35	383.84
879.731	371.98
880.111	395.7
880.491	387.8
880.872	374.52
881.252	375.93
881.632	367.74
882.012	398.25
882.392	398.53
882.772	386.1
883.152	399.66
883.532	379.32
883.912	403.89
884.291	390.62
884.671	377.34
885.051	385.54
885.43	424.79
885.81	405.87
886.189	369.15
886.568	371.41
886.948	399.66
887.327	411.8
887.706	382.99
888.085	390.34
888.464	387.51
888.843	408.69
889.222	398.81
889.601	357.29
889.979	391.47
890.358	408.13
890.737	368.59
891.115	367.74
891.494	355.31
891.872	376.5
892.25	368.3
892.629	413.78
893.007	390.34
893.385	398.81
893.763	393.16
894.141	385.82
894.519	396.83
894.897	376.78
895.275	388.36
895.653	397.12
896.03	390.34
896.408	381.86
896.786	371.98
897.163	387.51
897.541	403.61
897.918	388.64
898.295	366.04
898.673	380.17
899.05	364.63
899.427	429.02
899.804	381.86
900.181	378.76
900.558	409.26
900.935	401.07
901.312	374.52
901.688	384.97
902.065	382.43
902.442	383.84
902.818	389.21
903.195	362.94
903.571	387.51
903.947	399.94
904.324	358.98
904.7	375.08
905.076	377.91
905.452	403.61
905.828	397.12
906.204	371.13
906.58	397.96
906.956	385.25
907.331	414.62
907.707	398.81
908.083	393.44
908.458	390.62
908.834	373.11
909.209	373.11
909.585	399.37
909.96	377.63
910.335	376.5
910.71	408.41
911.086	373.95
911.461	406.15
911.836	386.95
912.21	384.97
912.585	403.61
912.96	378.19
913.335	387.23
913.709	385.54
914.084	382.15
914.459	393.44
914.833	379.32
915.207	374.8
915.582	379.32
915.956	368.3
916.33	387.51
916.704	381.3
917.078	389.21
917.452	391.75
917.826	394.29
918.2	407.56
918.574	382.71
918.948	380.45
919.321	387.51
919.695	355.87
920.068	388.36
920.442	359.26
920.815	379.6
921.189	388.64
921.562	378.19
921.935	385.54
922.308	395.14
922.681	376.5
923.054	375.93
923.427	396.27
923.8	372.54
924.173	375.65
924.546	390.9
924.919	403.33
925.291	397.96
925.664	385.82
926.036	378.19
926.409	373.39
926.781	378.19
927.153	384.69
927.526	396.55
927.898	371.69
928.27	372.54
928.642	378.19
929.014	399.66
929.386	402.2
929.758	357.57
930.129	365.48
930.501	381.86
930.873	386.67
931.244	400.79
931.616	387.8
931.987	406.43
932.359	382.43
932.73	398.81
933.101	371.69
933.472	360.39
933.843	392.88
934.214	408.41
934.585	375.65
934.956	385.25
935.327	424.79
935.698	348.24
936.069	384.69
936.439	386.38
936.81	357.57
937.18	385.82
937.551	359.26
937.921	377.91
938.292	397.12
938.662	399.66
939.032	421.96
939.402	406.15
939.772	414.06
940.142	381.02
940.512	377.34
940.882	380.17
941.252	373.39
941.621	361.81
941.991	359.26
942.361	402.48
942.73	343.16
943.1	366.61
943.469	360.68
943.838	392.6
944.208	369.15
944.577	370.85
944.946	374.52
945.315	383.84
945.684	391.18
946.053	398.53
946.422	373.11
946.791	390.34
947.159	371.98
947.528	358.42
947.897	415.19
948.265	357.57
948.634	388.93
949.002	395.7
949.371	375.65
949.739	387.51
950.107	395.14
950.475	363.22
950.843	378.19
951.211	396.27
951.579	386.1
951.947	364.35
952.315	361.52
952.683	370.85
953.05	381.02
953.418	405.87
953.785	387.23
954.153	349.66
954.52	353.33
954.888	396.55
955.255	391.75
955.622	375.37
955.989	397.96
956.356	380.73
956.723	362.37
957.09	371.69
957.457	351.63
957.824	389.21
958.191	380.45
958.557	388.93
958.924	393.16
959.291	371.41
959.657	397.68
960.023	396.55
960.39	375.65
960.756	381.58
961.122	396.55
961.488	374.52
961.855	392.88
962.221	375.65
962.586	391.18
962.952	397.12
963.318	406.72
963.684	403.61
964.05	381.86
964.415	363.22
964.781	361.81
965.146	376.78
965.512	374.52
965.877	385.82
966.242	370.56
966.608	384.97
966.973	401.35
967.338	370.85
967.703	386.95
968.068	383.28
968.433	379.04
968.797	397.12
969.162	381.02
969.527	383.28
969.891	382.71
970.256	372.54
970.62	375.08
970.985	379.6
971.349	390.62
971.714	373.67
972.078	379.89
972.442	383.28
972.806	365.76
973.17	397.4
973.534	376.5
973.898	368.3
974.262	396.83
974.625	417.45
974.989	366.61
975.353	405.02
975.716	385.82
976.08	414.34
976.443	376.78
976.806	395.14
977.17	382.15
977.533	366.04
977.896	402.2
978.259	397.4
978.622	417.45
978.985	390.34
979.348	384.41
979.711	390.34
980.073	351.92
980.436	400.22
980.799	389.49
981.161	380.45
981.524	378.19
981.886	396.55
982.248	400.22
982.611	395.99
982.973	404.18
983.335	371.13
983.697	362.37
984.059	410.11
984.421	404.18
984.783	372.26
985.145	361.81
985.506	396.83
985.868	383.56
986.23	394.57
986.591	365.76
986.953	378.76
987.314	368.59
987.675	360.11
988.037	961.78
988.398	407.56
988.759	394.29
989.12	410.67
989.481	357.85
989.842	394.86
990.203	357.85
990.564	372.82
990.924	394.86
991.285	1157.45
991.646	387.51
992.006	384.69
992.367	382.99
992.727	368.3
993.087	386.95
993.448	352.2
993.808	397.4
994.168	390.06
994.528	369.15
994.888	388.08
995.248	398.53
995.608	379.89
995.967	368.59
996.327	377.06
996.687	377.34
997.046	367.74
997.406	395.14
997.765	394.01
998.125	378.47
998.484	377.34
998.843	368.59
999.202	379.6
999.561	378.19
999.92	395.14
1000.279	396.27
1000.638	378.19
1000.997	355.03
1001.356	372.82
1001.715	358.13
1002.073	363.22
1002.432	393.44
1002.79	378.47
1003.149	377.06
1003.507	397.4
1003.865	361.52
1004.224	365.2
1004.582	366.61
1004.94	361.52
1005.298	362.37
1005.656	377.34
1006.014	393.44
1006.371	363.22
1006.729	369.72
1007.087	394.01
1007.445	388.08
1007.802	391.18
1008.16	381.3
1008.517	388.93
1008.874	369.72
1009.232	366.61
1009.589	383.56
1009.946	381.86
1010.303	359.83
1010.66	358.98
1011.017	415.19
1011.374	393.44
1011.731	358.98
1012.087	367.46
1012.444	368.3
1012.801	379.32
1013.157	343.72
1013.513	375.37
1013.87	363.78
1014.226	370.56
1014.582	364.91
1014.939	401.35
1015.295	383.84
1015.651	380.45
1016.007	373.39
1016.363	380.17
1016.719	373.11
1017.074	389.49
1017.43	384.69
1017.786	368.3
1018.141	368.59
1018.497	384.12
1018.852	378.76
1019.208	390.9
1019.563	394.01
1019.918	357.57
1020.273	432.69
1020.628	395.7
1020.983	388.36
1021.338	379.04
1021.693	373.39
1022.048	384.69
1022.403	384.12
1022.757	373.39
1023.112	385.82
1023.467	384.69
1023.821	363.78
1024.175	357
1024.53	353.9
1024.884	389.77
1025.238	392.31
1025.592	381.86
1025.946	374.24
1026.3	373.11
1026.654	364.91
1027.008	377.91
1027.362	373.39
1027.716	336.66
1028.069	377.63
1028.423	384.97
1028.777	400.5
1029.13	398.53
1029.483	366.04
1029.837	399.37
1030.19	381.58
1030.543	365.76
1030.896	370.85
1031.249	358.98
1031.602	370.85
1031.955	379.32
1032.308	371.69
1032.661	379.89
1033.013	385.25
1033.366	382.43
1033.719	369.43
1034.071	376.5
1034.424	391.18
1034.776	363.22
1035.128	373.39
1035.48	374.24
1035.833	391.47
1036.185	392.03
1036.537	392.03
1036.889	392.03
