Data from NOL_irradiation_FLMS019251_06-06-04-564.txt Node
Date: Wed Feb 20 06:06:04 PST 2019
User: mu3e
Spectrometer: FLMS01925
Trigger mode: 0
Integration Time (sec): 6.500000E-2
Scans to average: 10
Electric dark correction enabled: true
Nonlinearity correction enabled: true
Boxcar width: 0
XAxis mode: Wavelengths
Number of Pixels in Spectrum: 2048
>>>>>Begin Spectral Data<<<<<
187.103	-79.97
187.574	-79.97
188.045	-79.97
188.516	-130.58
188.987	-86.22
189.458	-119.2
189.929	-105.84
190.4	-102.71
190.871	-103.56
191.342	-87.93
191.813	-63.77
192.284	-21.16
192.754	-29.68
193.225	12.07
193.696	35.91
194.166	47.54
194.637	65.13
195.107	106.25
195.578	98.31
196.048	134.03
196.518	133.75
196.989	194.37
197.459	224.1
197.929	236.55
198.399	266.55
198.869	282.11
199.339	269.94
199.809	295.4
200.279	331.02
200.749	316.04
201.219	342.89
201.689	356.46
202.159	371.15
202.628	360.13
203.098	351.37
203.568	366.63
204.037	368.32
204.507	379.9
204.976	410.12
205.445	390.07
205.915	384.71
206.384	390.92
206.853	399.96
207.323	406.17
207.792	400.8
208.261	406.73
208.73	375.67
209.199	388.1
209.668	403.63
210.137	397.98
210.606	407.3
211.075	373.41
211.543	386.68
212.012	380.47
212.481	347.41
212.95	325.37
213.418	375.38
213.887	352.78
214.355	361.54
214.824	362.67
215.292	340.35
215.76	359.85
216.229	353.63
216.697	342.04
217.165	371.15
217.633	345.44
218.101	358.72
218.569	361.82
219.037	342.61
219.505	344.59
219.973	347.41
220.441	352.5
220.909	331.87
221.377	341.2
221.844	361.26
222.312	371.71
222.78	348.83
223.247	360.41
223.715	346.57
224.182	332.72
224.65	357.87
225.117	363.8
225.584	362.39
226.052	347.7
226.519	361.26
226.986	357.3
227.453	363.52
227.92	359.85
228.387	357.59
228.854	355.33
229.321	371.43
229.788	372.56
230.255	374.54
230.722	358.15
231.189	356.46
231.655	366.91
232.122	384.71
232.589	377.36
233.055	370.58
233.522	366.06
233.988	369.45
234.454	363.24
234.921	359.85
235.387	337.8
235.853	359.85
236.32	318.87
236.786	342.89
237.252	384.99
237.718	352.78
238.184	355.33
238.65	381.32
239.116	354.2
239.582	369.45
240.047	348.54
240.513	352.78
240.979	375.1
241.445	359.28
241.91	357.02
242.376	340.91
242.841	388.38
243.307	340.63
243.772	365.78
244.238	377.08
244.703	397.42
245.168	362.95
245.633	373.69
246.099	365.21
246.564	376.8
247.029	379.9
247.494	375.67
247.959	365.78
248.424	383.86
248.889	359.28
249.353	341.2
249.818	352.22
250.283	353.91
250.748	363.8
251.212	346
251.677	386.68
252.141	366.06
252.606	362.11
253.07	344.59
253.535	364.08
253.999	393.46
254.463	374.25
254.927	396.57
255.392	391.2
255.856	343.17
256.32	381.03
256.784	375.1
257.248	378.77
257.712	397.13
258.176	386.97
258.64	388.94
259.103	371.43
259.567	375.1
260.031	357.87
260.495	385.27
260.958	378.21
261.422	381.03
261.885	379.9
262.349	369.17
262.812	398.83
263.275	355.33
263.739	381.32
264.202	395.44
264.665	367.76
265.128	375.67
265.591	370.3
266.054	368.04
266.517	365.5
266.98	381.88
267.443	410.41
267.906	385.27
268.369	369.17
268.832	381.6
269.294	357.59
269.757	377.64
270.22	380.47
270.682	364.37
271.145	371.15
271.607	381.03
272.07	390.92
272.532	371.43
272.994	380.19
273.456	377.93
273.919	417.46
274.381	402.5
274.843	393.46
275.305	346.57
275.767	401.65
276.229	369.45
276.691	369.73
277.153	365.5
277.614	388.94
278.076	351.09
278.538	391.48
279	400.24
279.461	403.06
279.923	377.08
280.384	374.82
280.846	373.12
281.307	388.1
281.769	390.64
282.23	384.99
282.691	366.06
283.152	360.98
283.613	362.39
284.075	390.36
284.536	363.24
284.997	380.75
285.458	368.32
285.918	371.71
286.379	372.28
286.84	373.69
287.301	374.25
287.762	370.58
288.222	383.86
288.683	390.64
289.143	378.21
289.604	400.24
290.064	390.36
290.525	387.81
290.985	384.99
291.445	362.67
291.906	383.29
292.366	395.72
292.826	373.69
293.286	383.01
293.746	393.46
294.206	382.16
294.666	389.51
295.126	429.32
295.586	395.16
296.046	392.9
296.506	392.9
296.965	379.62
297.425	401.65
297.884	384.42
298.344	374.82
298.804	391.2
299.263	390.36
299.722	403.06
300.182	412.38
300.641	396.85
301.1	410.41
301.559	403.06
302.019	395.16
302.478	380.47
302.937	378.49
303.396	409.56
303.855	395.72
304.314	391.77
304.772	422.55
305.231	398.83
305.69	400.24
306.149	391.77
306.607	392.61
307.066	405.61
307.524	397.13
307.983	399.11
308.441	403.35
308.9	386.4
309.358	381.32
309.816	393.46
310.275	369.45
310.733	389.23
311.191	400.24
311.649	372.84
312.107	397.42
312.565	392.9
313.023	386.4
313.481	401.65
313.939	367.47
314.397	415.21
314.854	396.85
315.312	368.89
315.77	401.37
316.227	370.58
316.685	393.46
317.142	375.67
317.6	405.04
318.057	402.22
318.514	390.07
318.972	391.77
319.429	390.36
319.886	399.96
320.343	408.15
320.8	404.19
321.257	404.76
321.714	427.91
322.171	395.44
322.628	355.61
323.085	370.3
323.542	383.58
323.998	384.99
324.455	401.93
324.912	419.16
325.368	393.74
325.825	410.12
326.281	369.45
326.738	404.48
327.194	416.9
327.65	389.51
328.107	410.12
328.563	425.93
329.019	403.91
329.475	378.77
329.931	425.37
330.387	417.18
330.843	398.83
331.299	414.08
331.755	409.84
332.211	402.78
332.666	390.07
333.122	391.2
333.578	381.6
334.033	394.03
334.489	413.23
334.944	380.47
335.4	431.01
335.855	424.24
336.31	378.77
336.766	384.99
337.221	399.11
337.676	388.66
338.131	418.31
338.586	390.64
339.041	427.06
339.496	423.11
339.951	416.62
340.406	394.87
340.861	394.31
341.316	403.63
341.771	398.55
342.225	405.89
342.68	404.48
343.134	406.45
343.589	405.04
344.043	387.81
344.498	388.38
344.952	406.45
345.406	464.88
345.861	397.7
346.315	388.94
346.769	397.7
347.223	399.39
347.677	387.53
348.131	417.18
348.585	384.99
349.039	419.44
349.493	410.12
349.947	381.6
350.401	393.46
350.854	405.32
351.308	422.26
351.762	414.08
352.215	411.82
352.669	397.7
353.122	403.63
353.575	402.22
354.029	405.61
354.482	394.03
354.935	392.61
355.388	410.12
355.842	393.18
356.295	403.63
356.748	427.34
357.201	397.98
357.654	427.06
358.106	392.61
358.559	405.61
359.012	413.51
359.465	420.29
359.917	409.84
360.37	399.67
360.823	414.64
361.275	397.98
361.728	377.36
362.18	428.76
362.632	392.05
363.085	393.18
363.537	394.03
363.989	422.26
364.441	404.76
364.893	397.42
365.345	403.06
365.797	416.9
366.249	418.03
366.701	408.43
367.153	421.98
367.605	410.69
368.057	398.26
368.508	396.57
368.96	395.16
369.411	402.5
369.863	416.9
370.314	401.09
370.766	431.3
371.217	414.92
371.669	407.3
372.12	410.41
372.571	412.38
373.022	412.1
373.473	435.53
373.924	432.14
374.375	438.35
374.826	407.58
375.277	419.44
375.728	404.48
376.179	385.27
376.63	426.5
377.08	415.49
377.531	421.7
377.981	409.28
378.432	395.72
378.883	423.11
379.333	425.93
379.783	408.71
380.234	394.31
380.684	422.83
381.134	397.13
381.584	392.9
382.034	416.05
382.485	418.59
382.935	395.44
383.385	423.11
383.834	419.44
384.284	424.24
384.734	396.57
385.184	411.82
385.634	407.02
386.083	405.04
386.533	423.11
386.982	419.16
387.432	444.56
387.881	407.3
388.331	428.47
388.78	420.85
389.229	424.8
389.679	435.81
390.128	423.96
390.577	421.98
391.026	414.08
391.475	425.93
391.924	432.99
392.373	444.84
392.822	432.14
393.27	444.56
393.719	434.97
394.168	436.94
394.617	448.8
395.065	445.69
395.514	452.46
395.962	455
396.411	466.86
396.859	425.93
397.307	440.89
397.756	464.03
398.204	464.88
398.652	437.51
399.1	456.13
399.548	451.62
399.996	480.11
400.444	454.44
400.892	451.9
401.34	463.19
401.788	462.06
402.236	467.14
402.683	462.34
403.131	484.63
403.579	469.96
404.026	484.06
404.474	485.19
404.921	473.63
405.369	480.68
405.816	502.96
406.263	475.04
406.71	473.63
407.158	496.19
407.605	484.35
408.052	487.73
408.499	498.45
408.946	544.69
409.393	497.04
409.84	511.14
410.286	546.94
410.733	555.11
411.18	562.72
411.626	626.66
412.073	671.97
412.52	811.69
412.966	962.91
413.413	1221.47
413.859	1522.85
414.305	1887.91
414.752	2406.11
415.198	2895.89
415.644	3535.59
416.09	4285.24
416.536	4934.29
416.982	5745.72
417.428	6566.91
417.874	7475.06
418.32	8400.59
418.766	9315.12
419.211	10497.53
419.657	11215.72
420.103	12529.29
420.548	13364.22
420.994	14661.28
421.439	15701.81
421.885	16656.38
422.33	18198.17
422.776	19246.03
423.221	20345.07
423.666	21611.89
424.111	23023.65
424.556	23910.24
425.001	25338.65
425.446	26607.31
425.891	27966.45
426.336	28673.74
426.781	29763.48
427.226	31852.69
427.671	32082.6
428.115	32593.36
428.56	33984
429.005	34989.28
429.449	34944.37
429.894	35813.5
430.338	36406.73
430.782	35723.59
431.227	36519.22
431.671	36317.23
432.115	36622.69
432.559	36876.16
433.003	36084.02
433.447	35820.58
433.891	35304.23
434.335	34780.84
434.779	34556.33
435.223	33867.9
435.667	33029.05
436.111	32727.45
436.554	31690.79
436.998	30811.43
437.442	30167.87
437.885	30710.69
438.328	29098.35
438.772	28650.03
439.215	28438.62
439.659	27600.19
440.102	27310.13
440.545	26560.73
440.988	26039.84
441.431	26140.18
441.874	25597.29
442.317	25542.03
442.76	24914.69
443.203	24419.98
443.646	24580.92
444.089	24185.37
444.531	24411.37
444.974	23664.04
445.417	24212.46
445.859	23701.26
446.302	24249.14
446.744	23814.63
447.186	24563.95
447.629	24097.95
448.071	24172.81
448.513	24287.8
448.956	24923.05
449.398	24636.77
449.84	24086.37
450.282	24390.2
450.724	24755.83
451.166	24663.83
451.607	24537.62
452.049	24689.91
452.491	25380.66
452.933	25076.7
453.374	25302.54
453.816	25631.17
454.257	25373.05
454.699	25891.63
455.14	25627.24
455.582	25424.63
456.023	25371.57
456.464	25456.56
456.905	25570.52
457.347	25459.27
457.788	24926.49
458.229	24857.15
458.67	25242.83
459.111	24027.51
459.552	24132.67
459.992	23626.08
460.433	23423.87
460.874	22788.59
461.315	23126.09
461.755	22427.85
462.196	21913.91
462.636	21259.11
463.077	21035.99
463.517	20814.74
463.957	20661.88
464.398	20198.25
464.838	19986.26
465.278	19315.5
465.718	19098.32
466.158	18456.78
466.598	18557.33
467.038	18005.36
467.478	17985.87
467.918	17748.45
468.358	17300.19
468.798	16955.13
469.237	16658.14
469.677	16459.26
470.117	16562.1
470.556	15526.52
470.996	15607.26
471.435	15465.14
471.874	15544.13
472.314	15325.97
472.753	14887.96
473.192	14913.16
473.631	14599.48
474.07	14580.56
474.509	14495.02
474.948	14541.45
475.387	14307.95
475.826	13840.9
476.265	14359.71
476.704	14287.24
477.143	14256.18
477.581	14191.26
478.02	14256.68
478.458	13845.2
478.897	14100.3
479.335	14412.23
479.774	14269.81
480.212	14318.3
480.65	14326.89
481.089	14199.34
481.527	14085.89
481.965	13948.89
482.403	14657.5
482.841	14472.81
483.279	14524.54
483.717	14554.82
484.155	14415.76
484.592	14583.33
485.03	14634.29
485.468	14295.83
485.905	14473.31
486.343	14479.37
486.781	14339.26
487.218	14134.16
487.655	14148.81
488.093	13786.01
488.53	14204.14
488.967	13913.99
489.405	13817.38
489.842	13608.11
490.279	13543.04
490.716	13367
491.153	13399.69
491.59	13290.22
492.027	12892.78
492.463	12724.94
492.9	12500.06
493.337	12415.13
493.773	12388.94
494.21	12048.13
494.647	11926.85
495.083	11603.48
495.519	11458.72
495.956	11320.77
496.392	11095.77
496.828	10955.27
497.265	10640.14
497.701	10622.71
498.137	10501.63
498.573	10207.35
499.009	10199.89
499.445	9923.91
499.881	9642.86
500.316	9699.83
500.752	9385.62
501.188	9124.88
501.624	9137.81
502.059	8704.31
502.495	8641.79
502.93	8553.82
503.366	8637.38
503.801	8245.11
504.236	8088.42
504.672	7966.23
505.107	7784.7
505.542	7597.7
505.977	7530.77
506.412	7366.45
506.847	7332.41
507.282	7147.9
507.717	7124.03
508.152	7010.14
508.587	6926.35
509.021	6708.87
509.456	6567.44
509.891	6514.2
510.325	6507.61
510.76	6370.42
511.194	6341.65
511.628	6294.11
512.063	6176.24
512.497	6134.72
512.931	5957.35
513.366	5942.78
513.8	5907
514.234	5743.87
514.668	5775.19
515.102	5761.38
515.536	5606.01
515.969	5571.98
516.403	5477.81
516.837	5366.51
517.271	5404.07
517.704	5302.82
518.138	5203.88
518.571	5173.99
519.005	5095.76
519.438	5075.72
519.871	5014.26
520.305	4965.86
520.738	4911.02
521.171	4856.14
521.604	4839.01
522.037	4773.11
522.47	4761.85
522.903	4641.44
523.336	4567.89
523.769	4629.37
524.202	4441.59
524.634	4448.31
525.067	4339.63
525.5	4348.24
525.932	4343.4
526.365	4226.77
526.797	4165.03
527.23	4194.16
527.662	4064.39
528.094	3995.52
528.527	3987.68
528.959	3944.98
529.391	3875.21
529.823	3725.75
530.255	3759.34
530.687	3706.51
531.119	3643.87
531.551	3574.14
531.982	3507.07
532.414	3432.33
532.846	3389.91
533.277	3312.35
533.709	3252.98
534.14	3280.49
534.572	3158.12
535.003	3128.38
535.435	3052.78
535.866	3018.09
536.297	2913.39
536.728	2971.36
537.159	2903
537.59	2803.91
538.022	2772.96
538.452	2728.84
538.883	2692.37
539.314	2660.83
539.745	2614.17
540.176	2604.02
540.606	2498.8
541.037	2464.98
541.468	2424.82
541.898	2384.64
542.328	2389.87
542.759	2318.28
543.189	2271.71
543.619	2308.91
544.05	2222.35
544.48	2156.4
544.91	2126.03
545.34	2133.76
545.77	2058.07
546.2	1995.86
546.63	2025.45
547.06	2024.62
547.489	1981.75
547.919	1871.85
548.349	1916.99
548.778	1902.59
549.208	1861.87
549.637	1815.87
550.067	1781.48
550.496	1771.22
550.926	1759.29
551.355	1727.38
551.784	1691.29
552.213	1676.86
552.642	1663.25
553.071	1662.69
553.5	1642.13
553.929	1597.67
554.358	1576.81
554.787	1550.67
555.216	1566.53
555.645	1513.95
556.073	1488.62
556.502	1508.94
556.93	1464.95
557.359	1418.71
557.787	1438.21
558.216	1410.07
558.644	1387.78
559.072	1402.55
559.5	1408.12
559.929	1409.24
560.357	1379.41
560.785	1352.37
561.213	1380.53
561.641	1317.22
562.068	1369.66
562.496	1329.5
562.924	1314.43
563.352	1315.27
563.779	1277.04
564.207	1290.43
564.634	1260.01
565.062	1275.64
565.489	1264.75
565.917	1294.9
566.344	1262.24
566.771	1224.54
567.198	1199.11
567.625	1218.95
568.053	1179.83
568.48	1239.9
568.907	1203.31
569.333	1164.18
569.76	1110.49
570.187	1142.65
570.614	1134.54
571.04	2299.27
571.467	1157.19
571.894	1085.3
572.32	1064.87
572.747	1061.23
573.173	1058.71
573.599	1043.6
574.026	1035.2
574.452	987.3
574.878	1025.11
575.304	1020.35
575.73	995.42
576.156	975.81
576.582	969.36
577.008	937.96
577.434	965.72
577.86	934.32
578.285	921.98
578.711	946.66
579.137	903.19
579.562	898.7
579.988	873.17
580.413	868.68
580.838	841.73
581.264	857.45
581.689	853.24
582.114	843.7
582.539	928.99
582.964	829.38
583.39	839.77
583.814	789.78
584.239	796.8
584.664	804.38
585.089	789.78
585.514	784.44
585.939	786.69
586.363	753.25
586.788	746.22
587.212	757.18
587.637	743.69
588.061	743.41
588.485	714.45
588.91	722.32
589.334	710.79
589.758	698.7
590.182	733.01
590.606	725.98
591.03	725.7
591.454	698.7
591.878	685.2
592.302	688.57
592.726	675.91
593.15	669.16
593.573	707.42
593.997	644.96
594.42	674.22
594.844	647.21
595.267	614.27
595.691	606.67
596.114	637.08
596.537	627.22
596.96	672.54
597.384	650.59
597.807	632.57
598.23	619.62
598.653	617.93
599.076	595.4
599.499	605.54
599.921	617.37
600.344	586.39
600.767	586.39
601.189	603.01
601.612	584.7
602.034	587.23
602.457	598.5
602.879	638.48
603.302	590.89
603.724	583.01
604.146	597.65
604.568	571.46
604.991	595.96
605.413	576.81
605.835	584.7
606.257	584.13
606.678	568.36
607.1	559.06
607.522	577.94
607.944	580.19
608.365	575.12
608.787	572.87
609.209	594.27
609.63	558.78
610.051	544.12
610.473	574.27
610.894	566.67
611.315	561.88
611.737	555.4
612.158	553.42
612.579	516.78
613	555.11
613.421	534.26
613.842	559.06
614.263	560.47
614.683	551.45
615.104	528.62
615.525	532.85
615.945	527.21
616.366	522.98
616.787	536.79
617.207	514.24
617.627	528.62
618.048	523.26
618.468	508.04
618.888	499.01
619.308	510.86
619.728	510.57
620.148	494.5
620.568	501.55
620.988	549.48
621.408	510.57
621.828	520.44
622.248	513.96
622.668	477.01
623.087	480.96
623.507	481.81
623.926	477.86
624.346	487.17
624.765	499.01
625.185	484.91
625.604	479.83
626.023	471.37
626.442	477.58
626.861	491.68
627.28	466.86
627.699	473.06
628.118	475.04
628.537	477.58
628.956	481.24
629.375	491.12
629.794	480.68
630.212	506.34
630.631	501.55
631.049	468.83
631.468	476.45
631.886	464.88
632.305	484.91
632.723	484.91
633.141	450.21
633.559	433.55
633.978	436.1
634.396	460.93
634.814	467.98
635.232	465.16
635.65	471.93
636.067	493.94
636.485	469.11
636.903	459.52
637.321	446.82
637.738	467.42
638.156	448.51
638.573	453.59
638.991	435.53
639.408	447.38
639.825	447.38
640.243	462.9
640.66	458.95
641.077	434.12
641.494	452.46
641.911	434.12
642.328	469.68
642.745	459.52
643.162	453.03
643.579	456.7
643.995	445.41
644.412	460.93
644.829	465.44
645.245	417.18
645.662	451.62
646.078	443.72
646.495	466.57
646.911	422.83
647.327	405.04
647.743	433.55
648.159	432.14
648.576	409.84
648.992	442.02
649.408	451.34
649.824	420.29
650.239	452.46
650.655	414.64
651.071	458.39
651.487	439.76
651.902	424.24
652.318	419.16
652.733	420
653.149	413.79
653.564	432.99
653.979	423.67
654.395	428.47
654.81	440.61
655.225	446.82
655.64	426.5
656.055	410.41
656.47	420.29
656.885	448.51
657.3	411.82
657.715	436.66
658.13	421.7
658.544	428.47
658.959	396.57
659.374	423.67
659.788	422.26
660.202	411.82
660.617	419.16
661.031	424.52
661.445	405.04
661.86	408.71
662.274	433.27
662.688	426.5
663.102	415.21
663.516	403.06
663.93	393.18
664.344	413.23
664.758	434.97
665.171	433.27
665.585	403.06
665.999	447.67
666.412	424.8
666.826	438.64
667.239	405.04
667.653	404.48
668.066	399.11
668.479	430.45
668.892	413.79
669.306	425.65
669.719	388.38
670.132	410.41
670.545	400.24
670.958	410.12
671.37	425.93
671.783	410.41
672.196	432.14
672.609	403.35
673.021	422.26
673.434	397.13
673.846	422.55
674.259	398.55
674.671	396.29
675.084	436.1
675.496	399.11
675.908	391.2
676.32	440.61
676.732	400.24
677.144	398.55
677.556	428.47
677.968	407.86
678.38	417.75
678.792	407.86
679.204	420
679.615	397.98
680.027	397.13
680.439	392.05
680.85	407.58
681.262	429.6
681.673	399.11
682.084	431.3
682.496	391.77
682.907	426.22
683.318	400.24
683.729	421.42
684.14	412.1
684.551	405.89
684.962	415.49
685.373	390.07
685.784	404.19
686.194	391.2
686.605	409.56
687.016	388.1
687.426	417.18
687.837	416.33
688.247	416.33
688.657	420.57
689.068	399.11
689.478	410.12
689.888	391.2
690.298	394.31
690.708	407.3
691.118	430.73
691.528	392.33
691.938	414.36
692.348	404.76
692.758	410.12
693.168	410.41
693.577	414.36
693.987	378.49
694.396	401.37
694.806	385.55
695.215	392.9
695.625	401.65
696.034	401.65
696.443	420
696.852	404.76
697.262	387.81
697.671	405.89
698.08	424.24
698.489	398.55
698.897	425.09
699.306	388.66
699.715	414.92
700.124	405.32
700.532	376.8
700.941	408.43
701.35	412.66
701.758	411.25
702.166	400.24
702.575	418.88
702.983	409.28
703.391	375.95
703.799	442.59
704.208	415.77
704.616	423.11
705.024	411.82
705.432	408.71
705.839	407.86
706.247	407.86
706.655	426.78
707.063	412.95
707.47	388.38
707.878	385.55
708.285	408.15
708.693	409.84
709.1	406.45
709.508	413.79
709.915	415.21
710.322	405.32
710.729	403.63
711.136	405.61
711.543	420.57
711.95	434.4
712.357	410.97
712.764	409.28
713.171	431.58
713.578	431.58
713.984	399.96
714.391	399.39
714.797	392.9
715.204	412.66
715.61	427.34
716.017	428.47
716.423	388.66
716.829	378.77
717.236	412.95
717.642	384.42
718.048	403.06
718.454	439.76
718.86	397.13
719.266	437.51
719.671	375.95
720.077	405.32
720.483	405.32
720.889	402.22
721.294	388.66
721.7	407.58
722.105	409.84
722.511	421.98
722.916	391.48
723.321	389.51
723.726	394.87
724.132	406.17
724.537	401.65
724.942	405.89
725.347	388.66
725.752	430.73
726.156	408.99
726.561	404.48
726.966	396.85
727.371	397.13
727.775	379.06
728.18	378.21
728.584	388.38
728.989	387.53
729.393	399.67
729.798	400.52
730.202	393.18
730.606	397.42
731.01	363.8
731.414	401.37
731.818	360.98
732.222	406.45
732.626	395.72
733.03	416.62
733.434	368.32
733.837	385.27
734.241	389.51
734.645	380.19
735.048	368.89
735.452	392.9
735.855	380.47
736.258	397.42
736.662	405.89
737.065	406.45
737.468	417.46
737.871	425.09
738.274	385.55
738.677	398.83
739.08	397.98
739.483	391.77
739.886	390.07
740.289	411.25
740.691	388.66
741.094	384.14
741.497	429.04
741.899	393.18
742.302	380.19
742.704	406.73
743.106	418.88
743.508	396.85
743.911	379.34
744.313	419.44
744.715	398.83
745.117	384.71
745.519	388.94
745.921	401.37
746.323	410.12
746.724	377.08
747.126	382.73
747.528	410.41
747.929	386.68
748.331	401.37
748.732	377.93
749.134	401.65
749.535	383.01
749.936	400.52
750.338	411.82
750.739	399.67
751.14	399.67
751.541	391.48
751.942	377.93
752.343	393.18
752.744	371.15
753.144	370.3
753.545	399.96
753.946	399.96
754.346	379.9
754.747	398.83
755.148	413.79
755.548	417.18
755.948	398.55
756.349	378.49
756.749	377.64
757.149	387.25
757.549	411.82
757.949	400.52
758.349	380.19
758.749	386.12
759.149	401.37
759.549	393.74
759.949	390.92
760.348	406.45
760.748	402.78
761.148	384.71
761.547	384.99
761.947	395.44
762.346	397.98
762.745	408.71
763.145	396.85
763.544	401.37
763.943	412.38
764.342	395.16
764.741	406.17
765.14	389.79
765.539	407.02
765.938	436.38
766.336	390.64
766.735	389.79
767.134	412.95
767.532	423.67
767.931	397.13
768.329	370.3
768.728	399.96
769.126	409.84
769.525	418.31
769.923	394.03
770.321	393.46
770.719	406.45
771.117	403.91
771.515	407.58
771.913	402.22
772.311	399.11
772.709	380.75
773.106	385.55
773.504	399.39
773.902	397.42
774.299	409.84
774.697	403.91
775.094	380.19
775.491	389.23
775.889	390.36
776.286	388.1
776.683	394.59
777.08	418.03
777.477	388.94
777.874	420.85
778.271	382.16
778.668	376.8
779.065	388.38
779.462	404.19
779.858	402.78
780.255	388.94
780.652	380.75
781.048	405.61
781.444	377.93
781.841	369.45
782.237	393.18
782.633	406.17
783.03	401.93
783.426	399.67
783.822	406.17
784.218	401.65
784.614	396.85
785.01	432.99
785.405	408.43
785.801	381.03
786.197	373.97
786.593	411.25
786.988	416.9
787.384	420.29
787.779	385.84
788.174	382.16
788.57	392.9
788.965	400.8
789.36	394.87
789.755	395.16
790.15	399.96
790.545	388.38
790.94	382.73
791.335	392.9
791.73	389.23
792.125	407.3
792.52	383.29
792.914	408.43
793.309	378.77
793.703	413.51
794.098	386.68
794.492	385.55
794.887	393.74
795.281	397.42
795.675	411.25
796.069	388.94
796.463	380.47
796.857	381.88
797.251	397.13
797.645	357.59
798.039	428.19
798.433	403.06
798.826	367.19
799.22	405.61
799.614	414.92
800.007	389.79
800.401	388.66
800.794	397.13
801.187	385.55
801.581	398.55
801.974	421.42
802.367	396
802.76	428.76
803.153	379.9
803.546	395.16
803.939	408.71
804.332	382.45
804.725	415.21
805.117	404.19
805.51	394.03
805.903	388.66
806.295	403.35
806.688	390.07
807.08	390.36
807.472	388.94
807.865	377.08
808.257	399.11
808.649	404.19
809.041	389.51
809.433	401.09
809.825	385.27
810.217	387.53
810.609	370.86
811.001	420.29
811.392	388.66
811.784	418.59
812.175	398.26
812.567	362.67
812.958	398.83
813.35	390.92
813.741	390.07
814.132	386.97
814.524	399.67
814.915	388.66
815.306	397.42
815.697	392.33
816.088	388.1
816.479	388.94
816.87	383.58
817.26	390.64
817.651	418.88
818.042	373.97
818.432	389.23
818.823	400.52
819.213	413.51
819.604	370.86
819.994	397.98
820.384	394.87
820.775	400.8
821.165	400.24
821.555	394.59
821.945	393.46
822.335	372.28
822.725	401.37
823.114	407.86
823.504	405.61
823.894	398.26
824.284	403.63
824.673	384.99
825.063	388.94
825.452	384.71
825.842	364.93
826.231	403.06
826.62	375.95
827.009	390.36
827.399	403.35
827.788	418.31
828.177	380.19
828.566	390.36
828.954	399.11
829.343	405.32
829.732	362.95
830.121	415.77
830.509	399.67
830.898	364.37
831.286	371.43
831.675	379.06
832.063	390.07
832.452	360.98
832.84	379.62
833.228	401.09
833.616	393.18
834.004	402.22
834.392	429.89
834.78	391.2
835.168	394.87
835.556	390.07
835.944	387.53
836.331	403.63
836.719	379.9
837.107	397.42
837.494	384.42
837.881	402.22
838.269	395.44
838.656	383.01
839.043	382.16
839.431	405.04
839.818	384.14
840.205	402.78
840.592	388.66
840.979	397.7
841.366	395.72
841.752	383.01
842.139	378.21
842.526	363.52
842.912	375.38
843.299	393.18
843.685	394.59
844.072	394.87
844.458	395.44
844.844	396
845.231	381.03
845.617	382.45
846.003	379.34
846.389	399.96
846.775	400.52
847.161	385.27
847.547	381.32
847.933	384.42
848.318	404.19
848.704	356.46
849.09	370.86
849.475	404.19
849.861	388.1
850.246	399.11
850.631	371.15
851.017	394.59
851.402	411.25
851.787	402.78
852.172	413.23
852.557	402.22
852.942	414.92
853.327	391.48
853.712	403.35
854.097	400.24
854.481	352.5
854.866	419.16
855.25	366.34
855.635	358.72
856.019	407.58
856.404	385.84
856.788	362.11
857.172	400.24
857.557	389.51
857.941	384.99
858.325	404.19
858.709	401.37
859.093	394.87
859.477	398.26
859.86	378.49
860.244	374.25
860.628	394.03
861.012	399.11
861.395	393.18
861.779	364.37
862.162	378.77
862.545	357.3
862.929	375.38
863.312	391.77
863.695	406.45
864.078	389.51
864.461	362.11
864.844	385.27
865.227	371.99
865.61	394.03
865.993	363.24
866.376	386.97
866.758	403.06
867.141	381.03
867.523	403.35
867.906	377.36
868.288	388.66
868.671	371.15
869.053	379.06
869.435	394.87
869.817	407.86
870.199	393.74
870.581	401.93
870.963	367.76
871.345	429.32
871.727	380.47
872.109	381.6
872.491	380.47
872.872	397.7
873.254	352.5
873.635	373.12
874.017	384.71
874.398	387.81
874.779	381.32
875.161	374.82
875.542	406.73
875.923	368.04
876.304	363.24
876.685	338.37
877.066	422.83
877.447	386.68
877.828	378.77
878.208	383.29
878.589	408.15
878.97	418.59
879.35	392.9
879.731	422.26
880.111	367.47
880.491	392.61
880.872	392.61
881.252	377.36
881.632	396
882.012	403.63
882.392	370.3
882.772	390.92
883.152	382.45
883.532	388.66
883.912	393.18
884.291	364.93
884.671	354.2
885.051	396.85
885.43	372.56
885.81	412.95
886.189	384.14
886.568	382.73
886.948	346
887.327	406.17
887.706	371.99
888.085	361.82
888.464	375.67
888.843	390.36
889.222	400.52
889.601	402.22
889.979	379.34
890.358	421.98
890.737	391.48
891.115	378.21
891.494	391.48
891.872	367.19
892.25	384.42
892.629	423.96
893.007	391.77
893.385	413.51
893.763	399.96
894.141	390.07
894.519	405.04
894.897	375.38
895.275	382.45
895.653	396.29
896.03	416.62
896.408	366.91
896.786	393.46
897.163	389.79
897.541	384.14
897.918	397.42
898.295	381.32
898.673	387.25
899.05	401.93
899.427	421.7
899.804	360.13
900.181	374.82
900.558	405.89
900.935	355.89
901.312	375.67
901.688	402.22
902.065	362.67
902.442	391.2
902.818	368.6
903.195	409.56
903.571	383.01
903.947	393.74
904.324	379.9
904.7	372.28
905.076	377.64
905.452	361.54
905.828	399.96
906.204	375.38
906.58	392.9
906.956	383.01
907.331	403.06
907.707	394.87
908.083	387.81
908.458	385.55
908.834	381.03
909.209	377.93
909.585	380.75
909.96	394.87
910.335	391.2
910.71	354.76
911.086	372.28
911.461	409.84
911.836	386.97
912.21	364.93
912.585	388.66
912.96	369.17
913.335	396
913.709	383.58
914.084	400.8
914.459	384.42
914.833	384.71
915.207	365.21
915.582	391.77
915.956	384.14
916.33	378.49
916.704	386.68
917.078	372.28
917.452	397.13
917.826	380.75
918.2	379.62
918.574	399.96
918.948	382.16
919.321	399.67
919.695	352.78
920.068	366.91
920.442	392.33
920.815	373.41
921.189	398.83
921.562	394.59
921.935	408.15
922.308	385.55
922.681	390.36
923.054	380.47
923.427	379.9
923.8	395.72
924.173	399.67
924.546	366.06
924.919	401.93
925.291	378.77
925.664	414.36
926.036	384.14
926.409	374.25
926.781	403.63
927.153	418.03
927.526	388.1
927.898	381.88
928.27	390.64
928.642	374.25
929.014	407.3
929.386	385.27
929.758	363.52
930.129	381.32
930.501	397.13
930.873	377.36
931.244	397.98
931.616	390.64
931.987	368.32
932.359	389.51
932.73	399.96
933.101	385.55
933.472	379.34
933.843	386.97
934.214	386.97
934.585	369.17
934.956	394.59
935.327	387.25
935.698	370.02
936.069	388.1
936.439	398.83
936.81	384.14
937.18	400.8
937.551	356.46
937.921	373.12
938.292	388.38
938.662	391.2
939.032	401.09
939.402	349.11
939.772	396.57
940.142	400.8
940.512	368.04
940.882	380.19
941.252	394.31
941.621	381.03
941.991	418.31
942.361	385.84
942.73	368.6
943.1	400.52
943.469	401.65
943.838	423.67
944.208	388.66
944.577	380.75
944.946	396.85
945.315	393.74
945.684	410.41
946.053	413.51
946.422	387.25
946.791	345.15
947.159	385.84
947.528	375.1
947.897	381.32
948.265	366.63
948.634	394.87
949.002	377.08
949.371	392.05
949.739	369.73
950.107	386.97
950.475	373.69
950.843	407.02
951.211	375.67
951.579	387.25
951.947	379.62
952.315	384.99
952.683	392.33
953.05	384.71
953.418	398.55
953.785	373.41
954.153	359.28
954.52	383.01
954.888	368.89
955.255	397.98
955.622	390.36
955.989	387.81
956.356	369.17
956.723	409.84
957.09	385.84
957.457	405.32
957.824	363.24
958.191	375.67
958.557	400.52
958.924	383.86
959.291	416.62
959.657	405.32
960.023	401.65
960.39	401.65
960.756	390.07
961.122	403.63
961.488	386.12
961.855	402.22
962.221	401.37
962.586	367.19
962.952	387.25
963.318	390.36
963.684	386.68
964.05	398.26
964.415	383.29
964.781	358.72
965.146	390.92
965.512	373.69
965.877	392.61
966.242	409.28
966.608	383.58
966.973	390.92
967.338	364.37
967.703	403.91
968.068	374.54
968.433	382.45
968.797	404.76
969.162	395.44
969.527	384.14
969.891	380.75
970.256	370.3
970.62	390.92
970.985	381.32
971.349	389.79
971.714	389.23
972.078	360.41
972.442	389.79
972.806	398.83
973.17	368.04
973.534	378.21
973.898	387.81
974.262	400.52
974.625	374.54
974.989	372.56
975.353	407.86
975.716	385.55
976.08	381.6
976.443	378.77
976.806	381.32
977.17	374.25
977.533	391.77
977.896	376.23
978.259	396.57
978.622	398.55
978.985	388.94
979.348	384.14
979.711	378.21
980.073	351.09
980.436	396.85
980.799	381.03
981.161	385.84
981.524	368.89
981.886	404.48
982.248	353.06
982.611	350.8
982.973	369.73
983.335	396.85
983.697	396
984.059	378.77
984.421	381.32
984.783	392.05
985.145	369.73
985.506	375.95
985.868	395.72
986.23	383.58
986.591	377.08
986.953	401.09
987.314	359
987.675	375.38
988.037	1317.5
988.398	396.57
988.759	416.62
989.12	377.93
989.481	407.3
989.842	371.71
990.203	381.6
990.564	396.85
990.924	384.14
991.285	1191.57
991.646	392.33
992.006	386.12
992.367	388.66
992.727	373.12
993.087	387.25
993.448	357.59
993.808	358.72
994.168	371.15
994.528	369.73
994.888	400.52
995.248	367.76
995.608	373.69
995.967	384.14
996.327	385.27
996.687	382.16
997.046	381.32
997.406	389.51
997.765	386.4
998.125	381.32
998.484	361.54
998.843	372.56
999.202	376.8
999.561	375.38
999.92	397.13
1000.279	401.93
1000.638	351.65
1000.997	406.45
1001.356	397.98
1001.715	376.23
1002.073	380.75
1002.432	370.58
1002.79	399.67
1003.149	389.51
1003.507	391.2
1003.865	381.03
1004.224	389.51
1004.582	386.68
1004.94	344.3
1005.298	363.8
1005.656	364.37
1006.014	363.52
1006.371	381.32
1006.729	392.05
1007.087	415.49
1007.445	388.66
1007.802	363.24
1008.16	382.45
1008.517	378.21
1008.874	348.54
1009.232	391.2
1009.589	427.06
1009.946	399.96
1010.303	375.67
1010.66	402.78
1011.017	357.02
1011.374	401.65
1011.731	375.38
1012.087	399.11
1012.444	410.97
1012.801	384.42
1013.157	367.76
1013.513	375.67
1013.87	359.56
1014.226	359.56
1014.582	373.69
1014.939	374.25
1015.295	373.69
1015.651	371.99
1016.007	403.91
1016.363	398.83
1016.719	389.51
1017.074	392.61
1017.43	369.45
1017.786	387.25
1018.141	388.1
1018.497	395.72
1018.852	400.8
1019.208	387.25
1019.563	377.93
1019.918	386.4
1020.273	385.84
1020.628	365.21
1020.983	378.49
1021.338	376.8
1021.693	353.91
1022.048	394.87
1022.403	371.15
1022.757	392.33
1023.112	392.33
1023.467	386.12
1023.821	385.27
1024.175	386.97
1024.53	395.72
1024.884	390.07
1025.238	366.34
1025.592	351.09
1025.946	352.78
1026.3	388.66
1026.654	417.18
1027.008	390.92
1027.362	396
1027.716	405.61
1028.069	379.62
1028.423	373.97
1028.777	348.83
1029.13	394.59
1029.483	366.91
1029.837	394.59
1030.19	378.21
1030.543	371.99
1030.896	385.84
1031.249	366.63
1031.602	382.45
1031.955	376.8
1032.308	377.64
1032.661	381.88
1033.013	367.19
1033.366	396.29
1033.719	414.92
1034.071	375.67
1034.424	379.34
1034.776	362.67
1035.128	386.68
1035.48	372.28
1035.833	397.98
1036.185	392.9
1036.537	392.9
1036.889	392.9
