Data from NOL_irradiation_FLMS019251_06-14-04-216.txt Node
Date: Wed Feb 20 06:14:04 PST 2019
User: mu3e
Spectrometer: FLMS01925
Trigger mode: 0
Integration Time (sec): 6.500000E-2
Scans to average: 10
Electric dark correction enabled: true
Nonlinearity correction enabled: true
Boxcar width: 0
XAxis mode: Wavelengths
Number of Pixels in Spectrum: 2048
>>>>>Begin Spectral Data<<<<<
187.103	-97.13
187.574	-97.13
188.045	-97.13
188.516	-139.22
188.987	-111.63
189.458	-131.54
189.929	-124.71
190.4	-99.4
190.871	-85.47
191.342	-78.37
191.813	-78.08
192.284	-50.52
192.754	-10.75
193.225	-0.25
193.696	53.39
194.166	13.38
194.637	99.34
195.107	111.53
195.578	95.94
196.048	118.34
196.518	166.23
196.989	177.56
197.459	202.19
197.929	241.54
198.399	279.74
198.869	268.7
199.339	265.31
199.809	293.59
200.279	313.67
200.749	333.46
201.219	311.69
201.689	340.81
202.159	331.76
202.628	378.67
203.098	371.04
203.568	362.57
204.037	391.38
204.507	394.49
204.976	363.41
205.445	395.05
205.915	384.32
206.384	391.1
206.853	373.58
207.323	404.93
207.792	416.23
208.261	389.68
208.73	376.41
209.199	375.84
209.668	385.17
210.137	395.62
210.606	363.98
211.075	376.41
211.543	378.39
212.012	366.52
212.481	351.26
212.95	366.8
213.418	369.63
213.887	366.8
214.355	384.32
214.824	363.41
215.292	345.89
215.76	341.37
216.229	319.04
216.697	351.26
217.165	354.65
217.633	357.2
218.101	345.89
218.569	349.85
219.037	335.72
219.505	345.89
219.973	361.44
220.441	347.31
220.909	364.83
221.377	369.06
221.844	348.72
222.312	341.94
222.78	342.5
223.247	354.37
223.715	342.5
224.182	322.72
224.65	325.26
225.117	364.26
225.584	347.31
226.052	371.61
226.519	349.29
226.986	360.02
227.453	325.54
227.92	357.2
228.387	358.33
228.854	349.29
229.321	338.26
229.788	338.26
230.255	338.55
230.722	351.55
231.189	349.29
231.655	358.89
232.122	395.05
232.589	345.89
233.055	339.96
233.522	362.57
233.988	356.91
234.454	362
234.921	357.76
235.387	346.46
235.853	365.11
236.32	351.83
236.786	343.07
237.252	358.33
237.718	353.81
238.184	382.91
238.65	356.35
239.116	348.44
239.582	354.37
240.047	358.33
240.513	355.22
240.979	365.67
241.445	363.98
241.91	355.22
242.376	380.65
242.841	360.31
243.307	363.41
243.772	361.15
244.238	393.36
244.703	372.17
245.168	362.85
245.633	365.67
246.099	354.94
246.564	371.89
247.029	354.65
247.494	354.65
247.959	391.1
248.424	370.19
248.889	358.33
249.353	352.68
249.818	379.23
250.283	356.63
250.748	364.83
251.212	353.52
251.677	353.52
252.141	355.78
252.606	374.15
253.07	386.01
253.535	376.41
253.999	363.41
254.463	371.32
254.927	349.85
255.392	382.34
255.856	343.35
256.32	370.19
256.784	354.09
257.248	353.81
257.712	361.15
258.176	370.48
258.64	391.1
259.103	362.85
259.567	337.13
260.031	386.86
260.495	386.86
260.958	395.62
261.422	364.54
261.885	360.59
262.349	364.26
262.812	397.31
263.275	383.75
263.739	388.27
264.202	365.96
264.665	376.69
265.128	390.25
265.591	388.84
266.054	397.87
266.517	397.59
266.98	379.52
267.443	380.93
267.906	376.69
268.369	367.09
268.832	355.22
269.294	356.91
269.757	377.82
270.22	343.07
270.682	356.07
271.145	408.04
271.607	363.98
272.07	382.62
272.532	355.5
272.994	389.12
273.456	369.35
273.919	436.84
274.381	367.37
274.843	389.4
275.305	353.81
275.767	375.84
276.229	375.28
276.691	365.39
277.153	382.62
277.614	411.71
278.076	377.26
278.538	372.74
279	388.84
279.461	391.94
279.923	391.38
280.384	397.87
280.846	362.28
281.307	379.23
281.769	380.65
282.23	393.07
282.691	387.42
283.152	391.1
283.613	387.14
284.075	351.83
284.536	357.2
284.997	404.65
285.458	359.18
285.918	359.74
286.379	375.56
286.84	413.69
287.301	369.35
287.762	383.75
288.222	359.18
288.683	387.14
289.143	375.84
289.604	368.78
290.064	368.78
290.525	365.96
290.985	387.71
291.445	374.15
291.906	382.06
292.366	369.06
292.826	362.28
293.286	407.48
293.746	389.4
294.206	374.43
294.666	389.12
295.126	387.99
295.586	373.3
296.046	379.8
296.506	386.58
296.965	399.57
297.425	377.82
297.884	367.93
298.344	365.11
298.804	375.84
299.263	395.9
299.722	402.11
300.182	392.79
300.641	371.89
301.1	379.23
301.559	372.45
302.019	386.01
302.478	380.65
302.937	389.12
303.396	381.21
303.855	381.21
304.314	395.05
304.772	410.3
305.231	385.45
305.69	397.03
306.149	415.38
306.607	360.59
307.066	387.14
307.524	393.92
307.983	400.98
308.441	382.91
308.9	404.65
309.358	372.45
309.816	380.93
310.275	392.51
310.733	392.79
311.191	399.57
311.649	403.8
312.107	387.42
312.565	401.83
313.023	404.09
313.481	376.41
313.939	382.91
314.397	382.62
314.854	408.61
315.312	423.29
315.77	397.87
316.227	394.2
316.685	373.3
317.142	406.91
317.6	398.72
318.057	363.41
318.514	382.06
318.972	380.08
319.429	378.1
319.886	371.32
320.343	368.5
320.8	394.2
321.257	403.8
321.714	381.21
322.171	395.05
322.628	376.69
323.085	402.39
323.542	397.31
323.998	405.78
324.455	404.37
324.912	381.21
325.368	391.1
325.825	391.94
326.281	401.83
326.738	404.09
327.194	406.63
327.65	382.34
328.107	387.14
328.563	392.51
329.019	386.86
329.475	398.72
329.931	406.63
330.387	388.84
330.843	397.31
331.299	378.1
331.755	386.58
332.211	375.84
332.666	408.89
333.122	389.4
333.578	382.91
334.033	386.58
334.489	407.48
334.944	400.13
335.4	417.36
335.855	404.37
336.31	401.83
336.766	382.91
337.221	400.98
337.676	397.31
338.131	373.3
338.586	371.04
339.041	367.65
339.496	409.73
339.951	391.38
340.406	370.19
340.861	399.57
341.316	368.5
341.771	380.08
342.225	388.55
342.68	410.3
343.134	394.77
343.589	402.39
344.043	414.82
344.498	389.12
344.952	378.1
345.406	426.67
345.861	402.96
346.315	373.3
346.769	416.79
347.223	387.99
347.677	399.85
348.131	402.68
348.585	380.65
349.039	401.26
349.493	392.79
349.947	386.3
350.401	407.48
350.854	372.17
351.308	386.58
351.762	390.53
352.215	388.84
352.669	389.12
353.122	398.72
353.575	434.58
354.029	396.46
354.482	419.62
354.935	417.36
355.388	403.8
355.842	388.27
356.295	398.44
356.748	404.65
357.201	410.86
357.654	399.85
358.106	404.93
358.559	389.12
359.012	411.43
359.465	395.05
359.917	423.57
360.37	438.25
360.823	389.4
361.275	409.17
361.728	398.72
362.18	402.96
362.632	399
363.085	405.78
363.537	400.98
363.989	375
364.441	384.04
364.893	384.88
365.345	394.2
365.797	381.49
366.249	382.62
366.701	392.23
367.153	415.1
367.605	394.49
368.057	393.36
368.508	380.36
368.96	384.88
369.411	428.93
369.863	400.42
370.314	421.59
370.766	424.7
371.217	413.69
371.669	404.93
372.12	432.6
372.571	408.89
373.022	400.13
373.473	420.46
373.924	431.19
374.375	417.08
374.826	392.79
375.277	367.09
375.728	375.84
376.179	399.85
376.63	389.4
377.08	424.98
377.531	401.55
377.981	402.11
378.432	361.15
378.883	399.29
379.333	400.42
379.783	409.73
380.234	414.53
380.684	411.43
381.134	404.65
381.584	425.55
382.034	399.85
382.485	392.23
382.935	415.95
383.385	426.67
383.834	404.09
384.284	420.75
384.734	394.2
385.184	405.22
385.634	403.24
386.083	421.59
386.533	397.87
386.982	415.1
387.432	412.84
387.881	426.11
388.331	402.11
388.78	408.32
389.229	408.32
389.679	407.76
390.128	430.34
390.577	442.48
391.026	413.41
391.475	415.38
391.924	447
392.373	431.47
392.822	424.13
393.27	428.37
393.719	417.36
394.168	443.61
394.617	455.46
395.065	421.31
395.514	424.13
395.962	410.86
396.411	416.23
396.859	442.76
397.307	459.41
397.756	448.97
398.204	439.38
398.652	445.59
399.1	434.58
399.548	439.94
399.996	476.06
400.444	458.28
400.892	467.03
401.34	467.31
401.788	444.46
402.236	476.62
402.683	474.65
403.131	459.7
403.579	487.34
404.026	472.39
404.474	433.73
404.921	490.73
405.369	475.21
405.816	473.8
406.263	474.37
406.71	488.47
407.158	477.19
407.605	482.27
408.052	499.75
408.499	509.06
408.946	519.21
409.393	518.36
409.84	524.57
410.286	506.52
410.733	551.06
411.18	568.82
411.626	616.7
412.073	628.81
412.52	776.75
412.966	985.51
413.413	1178.05
413.859	1489.35
414.305	1860.38
414.752	2337.18
415.198	2834.21
415.644	3494.2
416.09	4190.28
416.536	4873.44
416.982	5678.44
417.428	6460.83
417.874	7374.21
418.32	8189.85
418.766	9068.39
419.211	10184.63
419.657	11053.2
420.103	12189.35
420.548	12920.1
420.994	14313.16
421.439	15349.29
421.885	16331.7
422.33	17680.1
422.776	18690.93
423.221	19698.94
423.666	21065.9
424.111	22359.77
424.556	23143.27
425.001	24665.46
425.446	25968.59
425.891	26993.88
426.336	27682.57
426.781	28848.11
427.226	30724.75
427.671	31094.74
428.115	31628.77
428.56	32715.66
429.005	33736.6
429.449	33984.88
429.894	34739.26
430.338	35295.35
430.782	34650.43
431.227	35232.35
431.671	35124.43
432.115	35520.51
432.559	35709.09
433.003	34725.1
433.447	34742.92
433.891	34200.76
434.335	33684.89
434.779	33336.18
435.223	32769.05
435.667	31976.21
436.111	31633.64
436.554	30729.14
436.998	29667.7
437.442	29132.46
437.885	29773.88
438.328	28099.9
438.772	27790.23
439.215	27603.77
439.659	26872.12
440.102	26444.93
440.545	25647.04
440.988	25136.09
441.431	25298.27
441.874	24765.82
442.317	24655.62
442.76	24149.08
443.203	23638.8
443.646	23917.79
444.089	23502.95
444.531	23536.24
444.974	22820.6
445.417	23497.52
445.859	22922.34
446.302	23449.68
446.744	23106.25
447.186	23827.11
447.629	23307.35
448.071	23284.66
448.513	23415.4
448.956	24140.22
449.398	23814.54
449.84	23255.05
450.282	23593.44
450.724	23977.9
451.166	23888.96
451.607	23748
452.049	23895.86
452.491	24482.9
452.933	24205.96
453.374	24506.77
453.816	24872.55
454.257	24546.38
454.699	25121.34
455.14	24764.34
455.582	24534.57
456.023	24542.69
456.464	24522.27
456.905	24750.57
457.347	24671.61
457.788	23988.74
458.229	23983.57
458.67	24467.88
459.111	23193.36
459.552	23252.34
459.992	22806.77
460.433	22644.23
460.874	21902.43
461.315	22315.03
461.755	21746
462.196	21176.97
462.636	20563.99
463.077	20328.58
463.517	20044.58
463.957	20036.38
464.398	19609.12
464.838	19434.66
465.278	18544.01
465.718	18566.22
466.158	17793.35
466.598	17840.34
467.038	17411.21
467.478	17416.47
467.918	17204.48
468.358	16669.33
468.798	16477.73
469.237	16207.2
469.677	16026.9
470.117	16082.15
470.556	15074.83
470.996	15086.67
471.435	15079.11
471.874	15102.04
472.314	14852.83
472.753	14426.02
473.192	14388.15
473.631	14189.14
474.07	14126.99
474.509	14051.68
474.948	14066.08
475.387	13737.59
475.826	13425.18
476.265	13878.24
476.704	13796.03
477.143	13794.01
477.581	13613.07
478.02	13882.29
478.458	13429.99
478.897	13520.91
479.335	13991.52
479.774	13778.58
480.212	13861.29
480.65	13817.54
481.089	13812.48
481.527	13649.52
481.965	13519.9
482.403	14251.79
482.841	14077.21
483.279	14067.85
483.717	14086.56
484.155	13976.35
484.592	14066.59
485.03	14132.55
485.468	13855.48
485.905	13918.45
486.343	14094.9
486.781	13861.8
487.218	13641.42
487.655	13635.1
488.093	13301.53
488.53	13776.55
488.967	13522.94
489.405	13402.63
489.842	13095.41
490.279	13168.19
490.716	12948.01
491.153	13030.48
491.59	12811.45
492.027	12525.38
492.463	12363.4
492.9	12063.31
493.337	12022.56
493.773	11946.89
494.21	11563.82
494.647	11486.46
495.083	11211.53
495.519	11059.6
495.956	11002.02
496.392	10733.61
496.828	10669.53
497.265	10278.68
497.701	10287.67
498.137	10130.13
498.573	9825.72
499.009	9909.66
499.445	9578.3
499.881	9374.16
500.316	9403.86
500.752	8999.3
501.188	8913.34
501.624	8855.32
502.059	8460.5
502.495	8280.65
502.93	8246.83
503.366	8355.53
503.801	7964.83
504.236	7851.92
504.672	7684.6
505.107	7552.9
505.542	7381.27
505.977	7352.47
506.412	7159.61
506.847	7170.62
507.282	6964.61
507.717	6863.44
508.152	6794.55
508.587	6722.19
509.021	6452.13
509.456	6431.02
509.891	6354.22
510.325	6284.76
510.76	6188.83
511.194	6163.18
511.628	6082.5
512.063	5919.89
512.497	5922.01
512.931	5785.17
513.366	5738.72
513.8	5719.87
514.234	5587.3
514.668	5565.23
515.102	5556.99
515.536	5355.49
515.969	5375.74
516.403	5279.26
516.837	5204.31
517.271	5270.73
517.704	5119.69
518.138	5011.22
518.571	5046.5
519.005	4976.99
519.438	4926.17
519.871	4860.33
520.305	4780.78
520.738	4762.02
521.171	4632.75
521.604	4687.75
522.037	4620.41
522.47	4582.02
522.903	4501.17
523.336	4506.81
523.769	4409.76
524.202	4322.03
524.634	4306.41
525.067	4245
525.5	4242.57
525.932	4206.19
526.365	4160.35
526.797	4078.59
527.23	4026.21
527.662	3921.63
528.094	3925.14
528.527	3918.65
528.959	3784.97
529.391	3786.6
529.823	3637.81
530.255	3610.68
530.687	3564.54
531.119	3504.79
531.551	3514.84
531.982	3341.65
532.414	3388.99
532.846	3316.61
533.277	3231.62
533.709	3137.01
534.14	3161.83
534.572	3043.12
535.003	3070.69
535.435	2981.92
535.866	2932.16
536.297	2874.72
536.728	2866.23
537.159	2796.96
537.59	2761.9
538.022	2703.24
538.452	2650.85
538.883	2624.78
539.314	2582.77
539.745	2514.09
540.176	2515.19
540.606	2408.76
541.037	2387.02
541.468	2379.04
541.898	2327.82
542.328	2285.66
542.759	2273.81
543.189	2264.71
543.619	2198.8
544.05	2135.59
544.48	2140.56
544.91	2120.13
545.34	2040.83
545.77	2045.53
546.2	1962.56
546.63	1968.37
547.06	1925.19
547.489	1942.08
547.919	1877.84
548.349	1833.78
548.778	1810.22
549.208	1867.59
549.637	1761.41
550.067	1747.54
550.496	1736.71
550.926	1754.75
551.355	1690.08
551.784	1693.97
552.213	1657.31
552.642	1617.02
553.071	1593.11
553.5	1566.98
553.929	1550.57
554.358	1538.61
554.787	1520.24
555.216	1523.3
555.645	1472.64
556.073	1482.67
556.502	1455.66
556.93	1452.59
557.359	1421.67
557.787	1387.39
558.216	1392.41
558.644	1373.18
559.072	1404.4
559.5	1380.15
559.929	1347.24
560.357	1374.57
560.785	1312.93
561.213	1328.28
561.641	1297.31
562.068	1325.21
562.496	1269.95
562.924	1292.28
563.352	1288.93
563.779	1264.09
564.207	1259.62
564.634	1250.69
565.062	1237.56
565.489	1216.33
565.917	1224.15
566.344	1223.88
566.771	1173.86
567.198	1178.33
567.625	1160.72
568.053	1151.21
568.48	1150.37
568.907	1183.08
569.333	1123.53
569.76	1114.02
570.187	1161.56
570.614	1132.76
571.04	2253.68
571.467	1110.94
571.894	1074.28
572.32	1074
572.747	1060.01
573.173	1023.33
573.599	1004.28
574.026	1036.77
574.452	998.68
574.878	988.03
575.304	991.95
575.73	987.47
576.156	936.74
576.582	975.98
577.008	935.62
577.434	937.02
577.86	951.32
578.285	920.47
578.711	919.63
579.137	914.86
579.562	873.06
579.988	897.75
580.413	882.32
580.838	829.27
581.264	830.96
581.689	838.26
582.114	820.01
582.539	953.56
582.964	834.89
583.39	814.67
583.814	775.62
584.239	768.32
584.664	763.82
585.089	783.49
585.514	791.08
585.939	748.92
586.363	760.17
586.788	766.35
587.212	766.63
587.637	766.07
588.061	699.72
588.485	709.28
588.91	693.25
589.334	736.28
589.758	698.59
590.182	694.09
590.606	667.08
591.03	680.31
591.454	709.56
591.878	698.88
592.302	674.96
592.726	657.24
593.15	666.52
593.573	669.05
593.997	688.19
594.42	650.76
594.844	639.22
595.267	594.73
595.691	637.53
596.114	627.68
596.537	652.17
596.96	634.15
597.384	612.19
597.807	628.24
598.23	626.84
598.653	587.13
599.076	611.35
599.499	602.06
599.921	583.75
600.344	602.62
600.767	596.99
601.189	591.35
601.612	601.49
602.034	578.11
602.457	581.78
602.879	598.11
603.302	606.84
603.724	595.58
604.146	599.52
604.568	576.42
604.991	584.03
605.413	551.91
605.835	593.89
606.257	556.14
606.678	555.85
607.1	578.39
607.522	574.73
607.944	567.69
608.365	595.01
608.787	577.55
609.209	578.68
609.63	541.76
610.051	547.68
610.473	568.25
610.894	529.08
611.315	549.65
611.737	551.63
612.158	532.46
612.579	518.93
613	555.29
613.421	556.98
613.842	524.57
614.263	545.14
614.683	518.65
615.104	534.15
615.525	526.54
615.945	545.99
616.366	508.49
616.787	533.02
617.207	478.32
617.627	478.03
618.048	525.69
618.468	514.7
618.888	500.03
619.308	491.86
619.728	500.6
620.148	487.62
620.568	499.47
620.988	507.93
621.408	514.98
621.828	523.16
622.248	490.45
622.668	480.29
623.087	505.96
623.507	518.36
623.926	477.75
624.346	484.52
624.765	478.88
625.185	461.67
625.604	457.72
626.023	476.34
626.442	472.11
626.861	480.01
627.28	481.14
627.699	456.03
628.118	469.85
628.537	474.93
628.956	482.27
629.375	482.83
629.794	479.16
630.212	488.47
630.631	461.67
631.049	492.98
631.468	482.83
631.886	475.78
632.305	480.86
632.723	442.48
633.141	447
633.559	461.39
633.978	426.96
634.396	461.11
634.814	448.69
635.232	442.48
635.65	438.53
636.067	469.01
636.485	419.9
636.903	454.33
637.321	456.31
637.738	469.85
638.156	428.37
638.573	434.86
638.991	443.61
639.408	453.49
639.825	443.61
640.243	464.49
640.66	461.39
641.077	438.81
641.494	440.22
641.911	447.56
642.328	433.73
642.745	431.76
643.162	427.8
643.579	457.44
643.995	446.43
644.412	449.82
644.829	448.97
645.245	425.26
645.662	419.62
646.078	442.2
646.495	426.67
646.911	439.66
647.327	456.31
647.743	434.86
648.159	424.98
648.576	435.71
648.992	440.22
649.408	428.65
649.824	425.26
650.239	437.97
650.655	428.09
651.071	432.88
651.487	423.57
651.902	428.09
652.318	425.83
652.733	432.04
653.149	424.13
653.564	429.78
653.979	425.26
654.395	413.12
654.81	423.29
655.225	435.99
655.64	430.06
656.055	437.97
656.47	408.32
656.885	423.29
657.3	416.79
657.715	435.14
658.13	418.2
658.544	417.64
658.959	424.42
659.374	410.58
659.788	418.49
660.202	415.95
660.617	437.97
661.031	413.97
661.445	441.35
661.86	412.28
662.274	432.6
662.688	421.31
663.102	403.24
663.516	430.63
663.93	416.51
664.344	423.57
664.758	408.89
665.171	429.78
665.585	409.45
665.999	403.8
666.412	432.32
666.826	426.11
667.239	394.2
667.653	405.22
668.066	411.71
668.479	431.76
668.892	423.85
669.306	407.76
669.719	406.91
670.132	408.32
670.545	428.65
670.958	420.46
671.37	383.47
671.783	405.22
672.196	397.03
672.609	410.86
673.021	428.93
673.434	419.62
673.846	412.56
674.259	400.7
674.671	411.15
675.084	388.55
675.496	431.19
675.908	427.8
676.32	400.98
676.732	410.58
677.144	411.43
677.556	382.62
677.968	417.36
678.38	433.17
678.792	385.17
679.204	406.35
679.615	401.55
680.027	398.72
680.439	403.8
680.85	409.73
681.262	414.25
681.673	375.84
682.084	360.87
682.496	413.41
682.907	412.84
683.318	412.28
683.729	376.69
684.14	419.9
684.551	408.32
684.962	379.23
685.373	406.06
685.784	406.35
686.194	407.76
686.605	404.65
687.016	397.59
687.426	404.09
687.837	388.27
688.247	386.01
688.657	392.51
689.068	390.25
689.478	399
689.888	396.75
690.298	395.05
690.708	406.35
691.118	393.36
691.528	395.05
691.938	375.28
692.348	401.55
692.758	386.3
693.168	421.59
693.577	403.8
693.987	400.13
694.396	404.65
694.806	399.57
695.215	393.92
695.625	405.78
696.034	401.26
696.443	417.64
696.852	425.26
697.262	420.46
697.671	406.35
698.08	426.67
698.489	391.38
698.897	393.92
699.306	418.2
699.715	397.03
700.124	385.73
700.532	394.77
700.941	404.37
701.35	398.44
701.758	420.46
702.166	387.99
702.575	425.83
702.983	399.57
703.391	425.26
703.799	409.17
704.208	382.91
704.616	392.51
705.024	403.8
705.432	412.84
705.839	380.93
706.247	421.88
706.655	426.96
707.063	396.75
707.47	391.66
707.878	412.28
708.285	383.47
708.693	393.64
709.1	413.12
709.508	393.92
709.915	417.36
710.322	386.58
710.729	404.09
711.136	417.92
711.543	392.79
711.95	410.58
712.357	375
712.764	387.14
713.171	386.01
713.578	395.33
713.984	393.36
714.391	396.46
714.797	397.87
715.204	390.25
715.61	408.89
716.017	399.29
716.423	400.13
716.829	389.12
717.236	364.54
717.642	410.86
718.048	395.05
718.454	402.96
718.86	389.68
719.266	404.93
719.671	385.73
720.077	421.31
720.483	403.24
720.889	400.7
721.294	399.29
721.7	397.03
722.105	391.66
722.511	385.17
722.916	405.5
723.321	379.8
723.726	391.1
724.132	391.1
724.537	362
724.942	387.71
725.347	395.62
725.752	397.03
726.156	387.14
726.561	396.46
726.966	403.52
727.371	410.02
727.775	415.95
728.18	393.92
728.584	379.23
728.989	390.25
729.393	404.93
729.798	344.76
730.202	386.3
730.606	373.3
731.01	411.71
731.414	384.04
731.818	401.55
732.222	414.53
732.626	382.62
733.03	410.86
733.434	379.8
733.837	402.68
734.241	364.26
734.645	385.17
735.048	391.94
735.452	400.13
735.855	390.53
736.258	388.84
736.662	387.71
737.065	399.85
737.468	380.36
737.871	388.27
738.274	376.41
738.677	404.37
739.08	406.63
739.483	402.11
739.886	386.58
740.289	387.42
740.691	396.46
741.094	407.19
741.497	411.43
741.899	375.28
742.302	383.19
742.704	381.49
743.106	399
743.508	398.44
743.911	374.43
744.313	408.61
744.715	393.92
745.117	375.28
745.519	387.42
745.921	400.7
746.323	384.6
746.724	402.68
747.126	367.93
747.528	399
747.929	402.39
748.331	419.9
748.732	393.36
749.134	397.03
749.535	417.36
749.936	413.12
750.338	385.45
750.739	395.05
751.14	377.54
751.541	367.65
751.942	380.65
752.343	390.25
752.744	365.11
753.144	364.26
753.545	380.08
753.946	387.14
754.346	392.23
754.747	402.11
755.148	421.59
755.548	386.3
755.948	385.73
756.349	390.53
756.749	391.66
757.149	387.99
757.549	395.33
757.949	376.97
758.349	410.86
758.749	421.88
759.149	395.62
759.549	370.19
759.949	376.69
760.348	418.77
760.748	381.49
761.148	380.36
761.547	379.23
761.947	391.94
762.346	387.42
762.745	376.13
763.145	379.8
763.544	391.94
763.943	390.81
764.342	383.75
764.741	406.63
765.14	373.3
765.539	402.39
765.938	395.33
766.336	386.58
766.735	377.26
767.134	380.36
767.532	402.11
767.931	368.22
768.329	405.5
768.728	385.73
769.126	392.51
769.525	375.56
769.923	388.84
770.321	371.61
770.719	377.54
771.117	367.37
771.515	387.14
771.913	413.12
772.311	404.93
772.709	404.93
773.106	363.13
773.504	395.33
773.902	393.07
774.299	384.6
774.697	424.7
775.094	382.06
775.491	383.75
775.889	397.31
776.286	370.76
776.683	397.59
777.08	370.19
777.477	373.87
777.874	397.03
778.271	386.86
778.668	401.26
779.065	380.65
779.462	384.32
779.858	379.52
780.255	382.62
780.652	417.92
781.048	391.66
781.444	374.71
781.841	379.8
782.237	391.94
782.633	403.24
783.03	392.51
783.426	385.17
783.822	387.71
784.218	387.71
784.614	358.89
785.01	369.35
785.405	400.13
785.801	384.04
786.197	360.59
786.593	406.63
786.988	410.3
787.384	378.67
787.779	375.56
788.174	393.36
788.57	391.1
788.965	397.31
789.36	385.45
789.755	391.1
790.15	379.52
790.545	380.93
790.94	400.13
791.335	402.96
791.73	378.67
792.125	403.24
792.52	399
792.914	382.62
793.309	360.59
793.703	405.78
794.098	377.26
794.492	365.67
794.887	411.99
795.281	418.2
795.675	366.24
796.069	405.5
796.463	374.43
796.857	361.44
797.251	397.03
797.645	370.19
798.039	387.42
798.433	372.74
798.826	373.58
799.22	395.33
799.614	390.81
800.007	402.39
800.401	387.99
800.794	402.39
801.187	401.55
801.581	379.52
801.974	402.96
802.367	391.38
802.76	376.41
803.153	380.65
803.546	391.38
803.939	381.49
804.332	381.21
804.725	386.01
805.117	387.71
805.51	411.99
805.903	389.68
806.295	370.76
806.688	406.63
807.08	400.42
807.472	403.8
807.865	376.69
808.257	374.43
808.649	406.06
809.041	380.08
809.433	371.89
809.825	384.32
810.217	384.6
810.609	364.83
811.001	406.06
811.392	396.18
811.784	384.88
812.175	359.74
812.567	377.26
812.958	386.3
813.35	409.17
813.741	389.12
814.132	396.75
814.524	385.45
814.915	389.12
815.306	393.92
815.697	372.74
816.088	402.39
816.479	384.6
816.87	375
817.26	376.13
817.651	384.6
818.042	402.39
818.432	399
818.823	378.95
819.213	388.27
819.604	371.89
819.994	367.37
820.384	397.87
820.775	384.6
821.165	377.54
821.555	395.05
821.945	369.63
822.335	385.73
822.725	406.35
823.114	386.86
823.504	380.65
823.894	384.6
824.284	376.97
824.673	392.23
825.063	400.7
825.452	364.26
825.842	387.71
826.231	378.95
826.62	388.27
827.009	384.88
827.399	390.81
827.788	368.78
828.177	386.3
828.566	367.37
828.954	395.33
829.343	375.84
829.732	386.86
830.121	408.89
830.509	403.52
830.898	369.06
831.286	369.91
831.675	373.02
832.063	398.16
832.452	391.66
832.84	381.49
833.228	391.1
833.616	376.41
834.004	414.25
834.392	375
834.78	366.24
835.168	385.45
835.556	376.13
835.944	371.04
836.331	392.23
836.719	395.05
837.107	365.67
837.494	377.82
837.881	392.23
838.269	387.14
838.656	405.5
839.043	372.74
839.431	392.23
839.818	395.9
840.205	389.12
840.592	378.1
840.979	371.89
841.366	387.99
841.752	387.14
842.139	365.39
842.526	393.64
842.912	392.23
843.299	370.48
843.685	400.42
844.072	410.02
844.458	336.85
844.844	389.68
845.231	402.96
845.617	399.57
846.003	388.27
846.389	346.74
846.775	372.17
847.161	390.25
847.547	369.63
847.933	382.91
848.318	378.39
848.704	365.39
849.09	383.47
849.475	386.58
849.861	399.85
850.246	389.68
850.631	392.79
851.017	386.3
851.402	374.43
851.787	412.84
852.172	381.21
852.557	370.76
852.942	373.02
853.327	378.95
853.712	413.12
854.097	390.25
854.481	376.97
854.866	375.84
855.25	406.91
855.635	351.55
856.019	386.58
856.404	371.04
856.788	381.78
857.172	366.24
857.557	389.68
857.941	392.79
858.325	367.65
858.709	382.91
859.093	376.13
859.477	384.6
859.86	395.33
860.244	387.71
860.628	388.55
861.012	404.09
861.395	374.15
861.779	385.73
862.162	393.07
862.545	390.53
862.929	374.15
863.312	389.12
863.695	382.62
864.078	380.08
864.461	387.42
864.844	387.71
865.227	397.87
865.61	373.87
865.993	375
866.376	393.36
866.758	374.15
867.141	407.76
867.523	413.12
867.906	394.2
868.288	388.55
868.671	370.19
869.053	390.25
869.435	388.84
869.817	381.78
870.199	378.39
870.581	366.8
870.963	398.16
871.345	393.92
871.727	393.64
872.109	349.57
872.491	389.97
872.872	379.52
873.254	387.99
873.635	383.75
874.017	376.69
874.398	355.5
874.779	404.93
875.161	392.79
875.542	400.42
875.923	387.42
876.304	381.49
876.685	393.64
877.066	385.73
877.447	389.68
877.828	380.93
878.208	411.99
878.589	384.04
878.97	390.81
879.35	397.59
879.731	405.22
880.111	384.88
880.491	377.26
880.872	388.55
881.252	373.87
881.632	419.62
882.012	381.78
882.392	367.65
882.772	401.26
883.152	393.92
883.532	357.76
883.912	413.69
884.291	398.16
884.671	395.9
885.051	364.26
885.43	393.64
885.81	396.75
886.189	393.92
886.568	381.49
886.948	371.04
887.327	387.71
887.706	378.1
888.085	379.23
888.464	372.45
888.843	419.05
889.222	398.44
889.601	393.36
889.979	412.84
890.358	389.12
890.737	395.33
891.115	384.32
891.494	350.98
891.872	385.45
892.25	399.29
892.629	366.24
893.007	406.35
893.385	375.28
893.763	395.33
894.141	395.05
894.519	401.26
894.897	414.82
895.275	373.02
895.653	360.31
896.03	365.96
896.408	395.05
896.786	379.52
897.163	374.15
897.541	368.22
897.918	391.94
898.295	363.7
898.673	368.5
899.05	387.14
899.427	431.19
899.804	386.58
900.181	392.79
900.558	400.13
900.935	424.13
901.312	369.91
901.688	359.46
902.065	400.7
902.442	391.38
902.818	379.52
903.195	374.71
903.571	349
903.947	385.45
904.324	375.84
904.7	391.94
905.076	389.68
905.452	384.88
905.828	392.79
906.204	372.17
906.58	369.06
906.956	388.27
907.331	410.3
907.707	387.14
908.083	371.04
908.458	394.77
908.834	376.13
909.209	379.8
909.585	392.23
909.96	386.86
910.335	362.85
910.71	397.03
911.086	405.78
911.461	385.17
911.836	386.3
912.21	373.58
912.585	381.21
912.96	358.61
913.335	392.79
913.709	371.61
914.084	402.96
914.459	379.52
914.833	382.34
915.207	389.12
915.582	375.28
915.956	382.34
916.33	406.35
916.704	366.24
917.078	366.24
917.452	385.45
917.826	377.54
918.2	385.73
918.574	378.95
918.948	362.85
919.321	379.23
919.695	361.15
920.068	371.61
920.442	368.22
920.815	377.26
921.189	377.82
921.562	361.44
921.935	366.52
922.308	387.14
922.681	399
923.054	402.68
923.427	393.92
923.8	371.89
924.173	400.42
924.546	369.06
924.919	393.07
925.291	373.58
925.664	402.68
926.036	369.35
926.409	393.92
926.781	377.54
927.153	350.7
927.526	387.71
927.898	366.24
928.27	377.54
928.642	386.01
929.014	387.71
929.386	365.96
929.758	384.04
930.129	412.28
930.501	386.58
930.873	366.8
931.244	380.65
931.616	385.17
931.987	364.83
932.359	367.65
932.73	381.21
933.101	372.45
933.472	403.52
933.843	366.24
934.214	396.46
934.585	372.17
934.956	354.37
935.327	397.59
935.698	367.65
936.069	380.65
936.439	385.45
936.81	388.55
937.18	375.56
937.551	372.45
937.921	393.36
938.292	372.45
938.662	386.01
939.032	398.44
939.402	376.13
939.772	376.41
940.142	357.2
940.512	387.99
940.882	374.43
941.252	410.86
941.621	353.81
941.991	362.28
942.361	404.09
942.73	366.24
943.1	363.13
943.469	387.99
943.838	382.91
944.208	363.98
944.577	374.15
944.946	370.48
945.315	359.18
945.684	371.04
946.053	372.45
946.422	392.23
946.791	395.9
947.159	391.38
947.528	379.23
947.897	364.26
948.265	380.65
948.634	373.87
949.002	335.72
949.371	388.55
949.739	378.67
950.107	381.49
950.475	348.44
950.843	377.26
951.211	388.84
951.579	367.93
951.947	367.93
952.315	371.32
952.683	374.15
953.05	362
953.418	383.19
953.785	376.97
954.153	366.8
954.52	384.88
954.888	360.87
955.255	383.75
955.622	374.43
955.989	362
956.356	391.38
956.723	376.41
957.09	350.42
957.457	386.86
957.824	384.88
958.191	356.91
958.557	381.78
958.924	370.19
959.291	370.48
959.657	348.16
960.023	383.19
960.39	379.52
960.756	361.44
961.122	384.32
961.488	363.7
961.855	369.91
962.221	371.89
962.586	380.08
962.952	365.67
963.318	366.52
963.684	375.84
964.05	372.74
964.415	358.33
964.781	367.37
965.146	355.5
965.512	423
965.877	368.78
966.242	393.92
966.608	373.3
966.973	409.45
967.338	350.13
967.703	352.68
968.068	371.61
968.433	395.33
968.797	400.13
969.162	384.04
969.527	387.99
969.891	362
970.256	376.69
970.62	410.58
970.985	377.54
971.349	384.88
971.714	375.28
972.078	363.98
972.442	375.84
972.806	378.39
973.17	406.91
973.534	384.32
973.898	386.01
974.262	368.78
974.625	378.39
974.989	378.95
975.353	373.58
975.716	369.06
976.08	375.56
976.443	373.87
976.806	396.46
977.17	346.74
977.533	381.21
977.896	358.89
978.259	365.39
978.622	412.28
978.985	378.67
979.348	370.19
979.711	370.76
980.073	374.43
980.436	377.82
980.799	386.01
981.161	407.19
981.524	376.69
981.886	393.36
982.248	364.54
982.611	387.71
982.973	393.92
983.335	385.45
983.697	388.27
984.059	416.23
984.421	391.66
984.783	400.7
985.145	374.43
985.506	376.13
985.868	376.41
986.23	365.96
986.591	380.08
986.953	367.09
987.314	395.05
987.675	379.23
988.037	1349.2
988.398	395.62
988.759	384.04
989.12	390.25
989.481	390.81
989.842	413.41
990.203	371.32
990.564	376.97
990.924	376.13
991.285	1009.04
991.646	400.42
992.006	378.67
992.367	378.39
992.727	393.07
993.087	389.12
993.448	397.31
993.808	375
994.168	389.12
994.528	405.5
994.888	366.24
995.248	374.15
995.608	372.45
995.967	364.54
996.327	360.31
996.687	382.06
997.046	399.57
997.406	406.91
997.765	387.42
998.125	369.63
998.484	375.84
998.843	375
999.202	354.94
999.561	403.52
999.92	412.56
1000.279	381.21
1000.638	375.56
1000.997	365.11
1001.356	371.89
1001.715	365.39
1002.073	354.09
1002.432	384.32
1002.79	387.14
1003.149	370.76
1003.507	378.67
1003.865	398.16
1004.224	358.33
1004.582	378.95
1004.94	390.81
1005.298	381.49
1005.656	362.28
1006.014	395.33
1006.371	363.13
1006.729	396.46
1007.087	367.65
1007.445	377.26
1007.802	384.32
1008.16	352.68
1008.517	370.76
1008.874	361.44
1009.232	347.59
1009.589	411.71
1009.946	362.28
1010.303	399.29
1010.66	384.88
1011.017	381.49
1011.374	399.85
1011.731	367.37
1012.087	377.26
1012.444	367.93
1012.801	380.08
1013.157	357.48
1013.513	377.54
1013.87	385.17
1014.226	362.28
1014.582	366.8
1014.939	352.96
1015.295	358.61
1015.651	366.8
1016.007	374.71
1016.363	372.45
1016.719	374.71
1017.074	389.68
1017.43	386.01
1017.786	377.54
1018.141	371.89
1018.497	382.06
1018.852	350.7
1019.208	366.52
1019.563	371.61
1019.918	379.23
1020.273	371.32
1020.628	377.54
1020.983	365.96
1021.338	388.55
1021.693	369.91
1022.048	378.67
1022.403	368.78
1022.757	373.3
1023.112	373.02
1023.467	359.74
1023.821	363.98
1024.175	386.01
1024.53	378.39
1024.884	372.45
1025.238	359.74
1025.592	360.31
1025.946	387.71
1026.3	373.87
1026.654	358.33
1027.008	383.19
1027.362	399.57
1027.716	390.53
1028.069	355.5
1028.423	399
1028.777	397.87
1029.13	374.71
1029.483	362.28
1029.837	371.89
1030.19	357.48
1030.543	364.83
1030.896	364.26
1031.249	392.51
1031.602	354.94
1031.955	355.22
1032.308	374.43
1032.661	402.68
1033.013	376.41
1033.366	400.98
1033.719	363.13
1034.071	355.78
1034.424	388.84
1034.776	387.42
1035.128	390.53
1035.48	369.35
1035.833	381.21
1036.185	396.46
1036.537	396.46
1036.889	396.46
