Data from NOL_irradiation_FLMS019251_07-26-04-442.txt Node
Date: Wed Feb 20 07:26:04 PST 2019
User: mu3e
Spectrometer: FLMS01925
Trigger mode: 0
Integration Time (sec): 6.500000E-2
Scans to average: 10
Electric dark correction enabled: true
Nonlinearity correction enabled: true
Boxcar width: 0
XAxis mode: Wavelengths
Number of Pixels in Spectrum: 2048
>>>>>Begin Spectral Data<<<<<
187.103	-75.67
187.574	-75.67
188.045	-75.67
188.516	-131.11
188.987	-124.57
189.458	-110.63
189.929	-115.47
190.4	-109.21
190.871	-109.78
191.342	-85.05
191.813	-66.01
192.284	-1.53
192.754	-3.23
193.225	-12.6
193.696	14.94
194.166	31.4
194.637	65.45
195.107	81.33
195.578	128.68
196.048	122.16
196.518	168.63
196.989	202.05
197.459	204.6
197.929	251.3
198.399	265.45
198.869	278.46
199.339	281.01
199.809	320.31
200.279	329.93
200.749	347.17
201.219	339.54
201.689	331.62
202.159	343.21
202.628	403.95
203.098	368.08
203.568	390.67
204.037	379.94
204.507	414.96
204.976	379.66
205.445	395.76
205.915	396.04
206.384	381.63
206.853	409.88
207.323	385.31
207.792	398.3
208.261	398.02
208.73	378.81
209.199	362.71
209.668	375.7
210.137	403.1
210.606	408.18
211.075	376.55
211.543	371.47
212.012	359.6
212.481	330.77
212.95	366.95
213.418	380.79
213.887	360.73
214.355	361.01
214.824	356.77
215.292	383.61
215.76	351.69
216.229	384.74
216.697	358.75
217.165	378.25
217.633	366.95
218.101	346.32
218.569	377.68
219.037	356.49
219.505	365.25
219.973	368.92
220.441	336.99
220.909	339.54
221.377	354.23
221.844	356.21
222.312	355.08
222.78	339.82
223.247	357.9
223.715	348.01
224.182	350.56
224.65	328.8
225.117	366.1
225.584	340.67
226.052	362.71
226.519	360.45
226.986	348.3
227.453	337.56
227.92	349.14
228.387	343.21
228.854	353.95
229.321	345.75
229.788	346.32
230.255	332.75
230.722	368.36
231.189	367.23
231.655	373.16
232.122	352.82
232.589	332.19
233.055	348.01
233.522	364.68
233.988	375.7
234.454	359.03
234.921	380.79
235.387	362.99
235.853	354.8
236.32	378.25
236.786	370.34
237.252	377.96
237.718	371.75
238.184	365.25
238.65	359.6
239.116	341.51
239.582	351.12
240.047	388.7
240.513	361.58
240.979	375.42
241.445	338.69
241.91	367.79
242.376	368.36
242.841	375.99
243.307	349.14
243.772	368.64
244.238	342.08
244.703	361.01
245.168	354.23
245.633	368.36
246.099	340.1
246.564	349.14
247.029	385.02
247.494	370.34
247.959	372.88
248.424	377.68
248.889	367.79
249.353	349.14
249.818	373.16
250.283	362.71
250.748	356.49
251.212	347.73
251.677	340.67
252.141	382.2
252.606	366.66
253.07	348.86
253.535	366.38
253.999	379.09
254.463	327.95
254.927	358.47
255.392	349.71
255.856	360.45
256.32	362.99
256.784	356.77
257.248	407.9
257.712	380.79
258.176	410.44
258.64	410.44
259.103	366.1
259.567	370.9
260.031	361.29
260.495	362.99
260.958	381.63
261.422	385.02
261.885	360.16
262.349	403.95
262.812	379.09
263.275	379.09
263.739	372.6
264.202	363.55
264.665	399.71
265.128	389.54
265.591	379.94
266.054	368.92
266.517	366.95
266.98	358.19
267.443	375.99
267.906	389.26
268.369	394.06
268.832	365.53
269.294	378.81
269.757	348.3
270.22	378.25
270.682	389.83
271.145	383.89
271.607	379.94
272.07	391.24
272.532	373.44
272.994	372.31
273.456	383.05
273.919	416.93
274.381	381.92
274.843	396.04
275.305	379.94
275.767	366.95
276.229	401.12
276.691	366.38
277.153	393.78
277.614	398.86
278.076	398.3
278.538	373.44
279	382.48
279.461	371.75
279.923	376.55
280.384	380.79
280.846	381.92
281.307	400.84
281.769	375.42
282.23	405.08
282.691	388.13
283.152	379.09
283.613	384.18
284.075	373.73
284.536	389.54
284.997	377.68
285.458	395.47
285.918	398.86
286.379	390.11
286.84	386.15
287.301	380.79
287.762	381.07
288.222	424.84
288.683	398.02
289.143	369.77
289.604	382.2
290.064	414.68
290.525	400.84
290.985	406.49
291.445	351.12
291.906	379.09
292.366	387.28
292.826	369.49
293.286	375.14
293.746	382.2
294.206	399.43
294.666	379.66
295.126	387
295.586	400.56
296.046	418.63
296.506	398.58
296.965	383.61
297.425	370.34
297.884	386.15
298.344	372.88
298.804	405.08
299.263	374.29
299.722	369.49
300.182	419.76
300.641	398.02
301.1	385.02
301.559	397.73
302.019	379.09
302.478	392.37
302.937	383.05
303.396	373.16
303.855	385.02
304.314	392.37
304.772	437.54
305.231	412.42
305.69	405.92
306.149	408.75
306.607	393.78
307.066	417.78
307.524	385.87
307.983	384.46
308.441	400.28
308.9	421.45
309.358	399.71
309.816	403.1
310.275	376.55
310.733	390.67
311.191	397.73
311.649	387.28
312.107	394.34
312.565	365.25
313.023	403.1
313.481	390.39
313.939	369.77
314.397	414.68
314.854	374.29
315.312	379.09
315.77	395.76
316.227	391.8
316.685	392.93
317.142	381.63
317.6	385.87
318.057	425.97
318.514	408.75
318.972	377.12
319.429	414.39
319.886	407.62
320.343	389.83
320.8	406.49
321.257	409.59
321.714	387.85
322.171	402.82
322.628	380.22
323.085	390.67
323.542	404.79
323.998	387.85
324.455	401.12
324.912	368.92
325.368	397.17
325.825	379.09
326.281	400.84
326.738	383.61
327.194	384.46
327.65	416.37
328.107	418.06
328.563	417.22
329.019	414.68
329.475	393.21
329.931	395.19
330.387	392.65
330.843	397.45
331.299	381.35
331.755	400.56
332.211	394.34
332.666	411.01
333.122	387.85
333.578	386.44
334.033	418.06
334.489	400.56
334.944	391.52
335.4	407.9
335.855	404.79
336.31	399.43
336.766	418.91
337.221	406.77
337.676	413.55
338.131	425.12
338.586	403.1
339.041	394.06
339.496	403.1
339.951	383.89
340.406	388.98
340.861	411.29
341.316	376.27
341.771	393.5
342.225	403.95
342.68	377.96
343.134	412.98
343.589	372.03
344.043	414.11
344.498	403.95
344.952	430.2
345.406	448.83
345.861	396.6
346.315	412.7
346.769	394.91
347.223	403.38
347.677	396.89
348.131	391.24
348.585	407.33
349.039	414.68
349.493	401.97
349.947	416.65
350.401	412.13
350.854	402.25
351.308	398.86
351.762	404.79
352.215	437.54
352.669	414.39
353.122	391.52
353.575	416.93
354.029	418.35
354.482	390.67
354.935	399.71
355.388	415.81
355.842	399.71
356.295	398.02
356.748	401.12
357.201	409.88
357.654	383.89
358.106	418.06
358.559	393.5
359.012	418.06
359.465	379.94
359.917	401.69
360.37	379.09
360.823	378.53
361.275	374.01
361.728	417.22
362.18	431.05
362.632	409.03
363.085	397.73
363.537	392.65
363.989	397.45
364.441	392.65
364.893	403.38
365.345	422.58
365.797	414.39
366.249	390.67
366.701	405.36
367.153	416.65
367.605	401.4
368.057	425.12
368.508	404.79
368.96	375.14
369.411	416.37
369.863	410.72
370.314	429.64
370.766	407.33
371.217	409.31
371.669	422.58
372.12	411.01
372.571	441.49
373.022	435.57
373.473	416.65
373.924	430.49
374.375	407.05
374.826	401.97
375.277	407.9
375.728	386.44
376.179	415.81
376.63	387.57
377.08	426.25
377.531	410.44
377.981	420.6
378.432	427.94
378.883	377.96
379.333	417.5
379.783	407.33
380.234	425.4
380.684	405.92
381.134	404.51
381.584	405.64
382.034	397.73
382.485	420.04
382.935	407.05
383.385	416.09
383.834	397.73
384.284	431.61
384.734	387.28
385.184	426.82
385.634	388.7
386.083	382.48
386.533	420.6
386.982	402.82
387.432	399.99
387.881	402.25
388.331	426.82
388.78	429.36
389.229	415.81
389.679	436.13
390.128	414.39
390.577	402.82
391.026	418.91
391.475	394.63
391.924	440.08
392.373	422.58
392.822	404.51
393.27	412.98
393.719	411.85
394.168	423.15
394.617	455.04
395.065	405.08
395.514	414.96
395.962	425.97
396.411	435.85
396.859	431.9
397.307	448.27
397.756	447.42
398.204	450.81
398.652	442.62
399.1	438.67
399.548	438.39
399.996	476.76
400.444	439.8
400.892	489.74
401.34	446.01
401.788	451.09
402.236	433.87
402.683	460.97
403.131	454.48
403.579	462.94
404.026	451.09
404.474	488.05
404.921	463.5
405.369	457.58
405.816	473.38
406.263	450.81
406.71	461.25
407.158	464.92
407.605	450.24
408.052	498.2
408.499	505.82
408.946	480.71
409.393	482.69
409.84	513.43
410.286	531.75
410.733	536.27
411.18	551.2
411.626	571.77
412.073	650.62
412.52	762.28
412.966	918.09
413.413	1151.35
413.859	1437.69
414.305	1785.68
414.752	2208.59
415.198	2694.6
415.644	3242.66
416.09	3838.17
416.536	4494.05
416.982	5172.42
417.428	5910.74
417.874	6684.42
418.32	7330.87
418.766	8109.81
419.211	8979.24
419.657	9750.89
420.103	10724.26
420.548	11302.4
420.994	12425.59
421.439	13209.65
421.885	14155.67
422.33	15327.77
422.776	16163.89
423.221	16776.75
423.666	17785.23
424.111	18936.13
424.556	19595.07
425.001	20708.57
425.446	21671.1
425.891	22606.06
426.336	23143.14
426.781	24035.17
427.226	25561.71
427.671	25723.03
428.115	26150.76
428.56	27205.85
429.005	27916.09
429.449	27946.42
429.894	28574.06
430.338	28979.67
430.782	28377.04
431.227	29022.66
431.671	28862.16
432.115	29224.17
432.559	29326.25
433.003	28503.67
433.447	28515.64
433.891	28223.51
434.335	27678.77
434.779	27506
435.223	26806.09
435.667	26404.11
436.111	26130.89
436.554	25319.03
436.998	24529.53
437.442	24058.82
437.885	24571.11
438.328	23229.27
438.772	22854.31
439.215	22753.3
439.659	22091.83
440.102	21803.8
440.545	21068.5
440.988	20785
441.431	20925.66
441.874	20486.9
442.317	20399.99
442.76	19913.44
443.203	19453.46
443.646	19732.89
444.089	19395.95
444.531	19502.74
444.974	18891.26
445.417	19234.35
445.859	18962.3
446.302	19309.31
446.744	18999.18
447.186	19598.3
447.629	19164.11
448.071	19192.26
448.513	19291.13
448.956	19936.07
449.398	19576.4
449.84	18995.44
450.282	19360.85
450.724	19611.99
451.166	19489.8
451.607	19487.81
452.049	19558.73
452.491	19967.39
452.933	19882.11
453.374	20097.64
453.816	20207.48
454.257	20026.06
454.699	20518.43
455.14	20285.24
455.582	20174.18
456.023	20086.21
456.464	20087.7
456.905	20264.62
457.347	20217.66
457.788	19693.09
458.229	19662
458.67	20079.25
459.111	19056.24
459.552	19020.86
459.992	18769.85
460.433	18612.99
460.874	17977.9
461.315	18248.89
461.755	17772.23
462.196	17436.61
462.636	16919.59
463.077	16735.64
463.517	16538.8
463.957	16464.81
464.398	16135.26
464.838	15964.22
465.278	15434.98
465.718	15265.84
466.158	14774.8
466.598	14770.51
467.038	14427.15
467.478	14354.95
467.918	14283.48
468.358	13811.59
468.798	13645.35
469.237	13417.2
469.677	13184.8
470.117	13301.41
470.556	12483.06
470.996	12500.34
471.435	12431.95
471.874	12542.8
472.314	12284.92
472.753	11990.59
473.192	11884.83
473.631	11718.58
474.07	11642.3
474.509	11642.3
474.948	11695.37
475.387	11379.57
475.826	11121.38
476.265	11503.7
476.704	11441.13
477.143	11387.24
477.581	11301.89
478.02	11476.12
478.458	11114.48
478.897	11259.21
479.335	11659.14
479.774	11434.24
480.212	11496.29
480.65	11463.86
481.089	11413.55
481.527	11257.67
481.965	11139.54
482.403	11737.46
482.841	11599.43
483.279	11534.08
483.717	11736.95
484.155	11523.36
484.592	11581.05
485.03	11686.69
485.468	11438.07
485.905	11523.87
486.343	11560.12
486.781	11359.64
487.218	11259.46
487.655	11257.67
488.093	11006.5
488.53	11380.34
488.967	11050
489.405	11093.5
489.842	10810.1
490.279	10803.7
490.716	10657.61
491.153	10695.29
491.59	10551.95
492.027	10373.32
492.463	10237.96
492.9	9984.94
493.337	9944.79
493.773	9855.72
494.21	9606.8
494.647	9558.05
495.083	9355.96
495.519	9165.77
495.956	9119.74
496.392	8919.69
496.828	8791.71
497.265	8538.28
497.701	8490.24
498.137	8444.53
498.573	8137.93
499.009	8173.33
499.445	7961.05
499.881	7754.19
500.316	7790.73
500.752	7495.5
501.188	7392.4
501.624	7377.74
502.059	7065.82
502.495	6965.26
502.93	6883.81
503.366	6879.87
503.801	6679.95
504.236	6573.27
504.672	6387.35
505.107	6348.81
505.542	6135.54
505.977	6109.09
506.412	5930.09
506.847	5939.9
507.282	5774.42
507.717	5773.89
508.152	5706.46
508.587	5576.53
509.021	5418.22
509.456	5412.89
509.891	5335.11
510.325	5318.32
510.76	5202.85
511.194	5158.01
511.628	5152.14
512.063	4985.15
512.497	5003.86
512.931	4866.08
513.366	4776.89
513.8	4821.63
514.234	4724.62
514.668	4652.21
515.102	4731.06
515.536	4534.35
515.969	4615.44
516.403	4485.98
516.837	4361.73
517.271	4373.57
517.704	4292.54
518.138	4327.82
518.571	4281.77
519.005	4211.71
519.438	4122.99
519.871	4165.61
520.305	4093.57
520.738	4023.38
521.171	3905.27
521.604	3963.66
522.037	3859.28
522.47	3848.18
522.903	3798.92
523.336	3775.9
523.769	3759.38
524.202	3690.28
524.634	3684.04
525.067	3607.83
525.5	3581.77
525.932	3613.8
526.365	3447.86
526.797	3425.03
527.23	3442.7
527.662	3343.96
528.094	3291.96
528.527	3299.86
528.959	3199.6
529.391	3199.33
529.823	3069.74
530.255	3067.28
530.687	3002
531.119	2935.03
531.551	2964.56
531.982	2874.3
532.414	2872.12
532.846	2784.77
533.277	2743.12
533.709	2695.15
534.14	2715.99
534.572	2629.3
535.003	2602.13
535.435	2593.07
535.866	2491.41
536.297	2463.37
536.728	2479.04
537.159	2450.99
537.59	2368.16
538.022	2309.22
538.452	2312.8
538.883	2245.55
539.314	2238.93
539.745	2203.9
540.176	2185.69
540.606	2089.05
541.037	2142.91
541.468	2045.94
541.898	2051.75
542.328	1980.13
542.759	1972.93
543.189	1971
543.619	1907.06
544.05	1898.75
544.48	1875.48
544.91	1875.21
545.34	1759.33
545.77	1798.43
546.2	1765.15
546.63	1724.09
547.06	1712.71
547.489	1674.11
547.919	1653.28
548.349	1646.89
548.778	1616.88
549.208	1592.98
549.637	1562.39
550.067	1561.83
550.496	1567.39
550.926	1519.27
551.355	1498.95
551.784	1481.69
552.213	1474.17
552.642	1447.44
553.071	1445.21
553.5	1387.81
553.929	1379.17
554.358	1378.05
554.787	1359.65
555.216	1361.61
555.645	1334
556.073	1318.93
556.502	1292.14
556.93	1272.88
557.359	1281.54
557.787	1255.29
558.216	1270.65
558.644	1240.77
559.072	1253.9
559.5	1225.41
559.929	1260.6
560.357	1215.63
560.785	1187.41
561.213	1205.3
561.641	1185.74
562.068	1170.36
562.496	1168.13
562.924	1167.85
563.352	1125.07
563.779	1143.52
564.207	1153.59
564.634	1112.76
565.062	1125.35
565.489	1108.56
565.917	1088.14
566.344	1132.9
566.771	1107.44
567.198	1108.56
567.625	1085.06
568.053	1073.3
568.48	1051.19
568.907	1060.99
569.333	1032.15
569.76	1014.79
570.187	1032.43
570.614	993.21
571.04	2117.23
571.467	1037.75
571.894	992.37
572.32	951.18
572.747	951.74
573.173	950.05
573.599	946.97
574.026	938.28
574.452	930.71
574.878	931.27
575.304	907.43
575.73	880.22
576.156	887.23
576.582	881.9
577.008	890.32
577.434	873.2
577.86	837.56
578.285	842.33
578.711	843.73
579.137	824.92
579.562	823.24
579.988	806.67
580.413	803.58
580.838	781.38
581.264	788.69
581.689	767.33
582.114	802.17
582.539	895.37
582.964	784.19
583.39	774.92
583.814	748.22
584.239	749.07
584.664	741.76
585.089	722.64
585.514	746.54
585.939	711.11
586.363	718.7
586.788	724.89
587.212	720.39
587.637	702.11
588.061	675.1
588.485	664.41
588.91	666.94
589.334	688.89
589.758	648.93
590.182	667.79
590.606	646.12
591.03	649.21
591.454	666.38
591.878	655.12
592.302	663.57
592.726	661.03
593.15	621.91
593.573	645.27
593.997	651.75
594.42	634.58
594.844	623.88
595.267	626.69
595.691	628.1
596.114	628.38
596.537	595.72
596.96	625.01
597.384	546.69
597.807	562.48
598.23	588.96
598.653	618.81
599.076	612.05
599.499	576
599.921	607.83
600.344	596.28
600.767	556.84
601.189	575.15
601.612	584.45
602.034	547.26
602.457	570.08
602.879	608.11
603.302	592.34
603.724	581.07
604.146	583.61
604.568	554.59
604.991	585.01
605.413	552.61
605.835	597.13
606.257	567.55
606.678	548.67
607.1	553.18
607.522	555.99
607.944	570.65
608.365	562.76
608.787	544.16
609.209	547.82
609.63	552.61
610.051	538.52
610.473	515.97
610.894	557.12
611.315	537.39
611.737	530.06
612.158	548.1
612.579	537.96
613	550.08
613.421	526.96
613.842	501.3
614.263	538.52
614.683	513.15
615.104	487.48
615.525	510.89
615.945	530.06
616.366	534.01
616.787	523.02
617.207	520.48
617.627	527.81
618.048	487.77
618.468	516.81
618.888	506.94
619.308	503
619.728	481.84
620.148	496.79
620.568	492.84
620.988	506.94
621.408	459.55
621.828	481
622.248	478.46
622.668	523.58
623.087	487.77
623.507	484.66
623.926	505.53
624.346	502.71
624.765	485.51
625.185	474.23
625.604	483.53
626.023	488.05
626.442	503.56
626.861	466.89
627.28	460.4
627.699	483.53
628.118	456.17
628.537	446.01
628.956	466.89
629.375	462.38
629.794	474.79
630.212	462.09
630.631	483.25
631.049	479.87
631.468	475.07
631.886	479.02
632.305	484.95
632.723	455.04
633.141	435.85
633.559	454.76
633.978	488.05
634.396	450.81
634.814	468.02
635.232	428.23
635.65	453.91
636.067	464.92
636.485	435.28
636.903	456.45
637.321	450.52
637.738	460.4
638.156	456.45
638.573	435.28
638.991	454.48
639.408	473.94
639.825	438.11
640.243	420.6
640.66	446.57
641.077	459.84
641.494	449.96
641.911	458.14
642.328	430.49
642.745	423.71
643.162	458.14
643.579	438.95
643.995	444.6
644.412	462.94
644.829	453.06
645.245	442.9
645.662	459.84
646.078	440.65
646.495	440.08
646.911	445.16
647.327	436.41
647.743	430.77
648.159	442.9
648.576	460.68
648.992	447.14
649.408	421.73
649.824	436.13
650.239	424.84
650.655	472.53
651.071	415.24
651.487	448.27
651.902	416.93
652.318	390.11
652.733	436.98
653.149	433.03
653.564	421.45
653.979	434.15
654.395	403.66
654.81	431.61
655.225	427.38
655.64	446.01
656.055	446.57
656.47	425.4
656.885	416.93
657.3	436.41
657.715	442.06
658.13	444.88
658.544	420.32
658.959	402.25
659.374	429.92
659.788	448.27
660.202	392.37
660.617	429.92
661.031	399.43
661.445	409.59
661.86	422.86
662.274	419.76
662.688	429.36
663.102	430.2
663.516	437.54
663.93	431.33
664.344	388.98
664.758	418.35
665.171	402.82
665.585	412.98
665.999	412.98
666.412	414.96
666.826	399.43
667.239	412.42
667.653	417.5
668.066	394.91
668.479	439.52
668.892	402.25
669.306	422.02
669.719	410.44
670.132	401.69
670.545	416.93
670.958	419.76
671.37	407.05
671.783	408.18
672.196	398.02
672.609	404.51
673.021	412.98
673.434	428.51
673.846	402.53
674.259	395.47
674.671	377.4
675.084	407.9
675.496	415.81
675.908	407.62
676.32	392.37
676.732	407.9
677.144	420.6
677.556	408.75
677.968	416.65
678.38	449.96
678.792	385.31
679.204	391.8
679.615	423.99
680.027	400.56
680.439	395.47
680.85	406.77
681.262	419.76
681.673	438.39
682.084	408.46
682.496	393.5
682.907	435.57
683.318	385.59
683.729	410.16
684.14	431.61
684.551	414.96
684.962	396.04
685.373	428.23
685.784	423.43
686.194	391.24
686.605	399.15
687.016	406.21
687.426	394.06
687.837	403.95
688.247	405.36
688.657	390.67
689.068	383.89
689.478	419.76
689.888	403.95
690.298	403.1
690.708	444.32
691.118	405.92
691.528	365.53
691.938	408.18
692.348	412.42
692.758	397.73
693.168	408.75
693.577	404.79
693.987	408.75
694.396	408.18
694.806	405.92
695.215	398.86
695.625	397.17
696.034	390.39
696.443	399.71
696.852	394.91
697.262	400.56
697.671	383.33
698.08	382.48
698.489	401.12
698.897	424.84
699.306	413.83
699.715	411.85
700.124	432.18
700.532	409.59
700.941	392.37
701.35	374.01
701.758	391.8
702.166	414.39
702.575	420.32
702.983	380.22
703.391	397.45
703.799	408.18
704.208	404.51
704.616	414.68
705.024	413.55
705.432	409.59
705.839	409.88
706.247	381.07
706.655	423.43
707.063	420.6
707.47	392.93
707.878	395.47
708.285	382.48
708.693	431.33
709.1	407.62
709.508	409.03
709.915	402.25
710.322	420.04
710.729	418.63
711.136	412.13
711.543	399.71
711.95	424.27
712.357	412.13
712.764	417.5
713.171	395.76
713.578	407.33
713.984	403.38
714.391	401.97
714.797	385.87
715.204	372.31
715.61	390.39
716.017	388.98
716.423	399.15
716.829	416.93
717.236	399.43
717.642	417.78
718.048	411.29
718.454	411.01
718.86	401.69
719.266	410.44
719.671	411.57
720.077	400.56
720.483	405.36
720.889	417.78
721.294	385.59
721.7	389.83
722.105	414.11
722.511	383.61
722.916	392.37
723.321	383.89
723.726	392.93
724.132	408.18
724.537	403.95
724.942	396.04
725.347	399.43
725.752	403.66
726.156	388.7
726.561	398.02
726.966	407.62
727.371	391.52
727.775	412.98
728.18	387
728.584	389.54
728.989	414.39
729.393	399.71
729.798	383.89
730.202	411.85
730.606	395.47
731.01	408.46
731.414	399.99
731.818	386.44
732.222	407.9
732.626	393.21
733.03	426.82
733.434	402.25
733.837	428.23
734.241	402.25
734.645	390.96
735.048	405.36
735.452	406.77
735.855	403.66
736.258	375.99
736.662	370.05
737.065	404.51
737.468	376.83
737.871	382.48
738.274	410.72
738.677	372.03
739.08	411.29
739.483	416.93
739.886	419.19
740.289	417.22
740.691	411.57
741.094	387.85
741.497	361.29
741.899	394.91
742.302	376.55
742.704	399.15
743.106	386.44
743.508	383.89
743.911	375.7
744.313	409.31
744.715	397.73
745.117	405.36
745.519	402.53
745.921	396.04
746.323	396.04
746.724	425.69
747.126	381.07
747.528	380.79
747.929	381.07
748.331	387.85
748.732	379.09
749.134	400.56
749.535	392.09
749.936	405.64
750.338	374.86
750.739	424.84
751.14	385.02
751.541	419.48
751.942	373.73
752.343	396.89
752.744	397.73
753.144	409.03
753.545	363.84
753.946	422.02
754.346	368.08
754.747	407.05
755.148	416.37
755.548	414.39
755.948	375.14
756.349	388.41
756.749	405.36
757.149	387.85
757.549	407.62
757.949	396.04
758.349	384.74
758.749	395.19
759.149	395.47
759.549	366.38
759.949	382.48
760.348	398.58
760.748	406.77
761.148	407.05
761.547	407.9
761.947	384.18
762.346	397.73
762.745	413.26
763.145	396.6
763.544	394.91
763.943	414.39
764.342	382.2
764.741	406.77
765.14	385.87
765.539	382.2
765.938	407.33
766.336	370.9
766.735	387.57
767.134	406.21
767.532	401.97
767.931	370.9
768.329	424.27
768.728	393.21
769.126	396.6
769.525	403.38
769.923	420.32
770.321	389.26
770.719	389.54
771.117	398.3
771.515	420.32
771.913	400.84
772.311	403.1
772.709	382.2
773.106	405.08
773.504	401.97
773.902	422.02
774.299	399.71
774.697	442.62
775.094	383.05
775.491	371.75
775.889	388.98
776.286	390.11
776.683	411.85
777.08	388.98
777.477	397.17
777.874	427.66
778.271	381.63
778.668	372.03
779.065	392.37
779.462	389.83
779.858	395.76
780.255	392.37
780.652	379.37
781.048	418.06
781.444	383.61
781.841	379.66
782.237	391.8
782.633	398.86
783.03	408.46
783.426	391.24
783.822	388.98
784.218	382.48
784.614	387.28
785.01	400.56
785.405	390.11
785.801	386.72
786.197	405.08
786.593	376.55
786.988	402.53
787.384	396.04
787.779	367.23
788.174	375.7
788.57	411.57
788.965	404.79
789.36	393.21
789.755	371.75
790.15	390.96
790.545	412.42
790.94	396.04
791.335	386.15
791.73	395.76
792.125	418.91
792.52	392.65
792.914	379.37
793.309	373.16
793.703	390.96
794.098	387.57
794.492	370.34
794.887	406.49
795.281	405.36
795.675	416.65
796.069	414.39
796.463	397.73
796.857	380.79
797.251	399.43
797.645	390.96
798.039	409.31
798.433	373.44
798.826	403.95
799.22	387.85
799.614	385.02
800.007	417.5
800.401	390.96
800.794	391.52
801.187	378.53
801.581	401.97
801.974	406.49
802.367	397.45
802.76	400.56
803.153	386.72
803.546	416.93
803.939	394.91
804.332	401.97
804.725	378.81
805.117	384.74
805.51	387
805.903	386.44
806.295	391.24
806.688	410.72
807.08	395.19
807.472	401.4
807.865	392.37
808.257	377.4
808.649	394.63
809.041	367.23
809.433	396.6
809.825	392.93
810.217	392.09
810.609	420.32
811.001	406.21
811.392	399.43
811.784	399.71
812.175	414.68
812.567	371.47
812.958	387.85
813.35	408.46
813.741	373.73
814.132	368.36
814.524	389.26
814.915	396.6
815.306	381.07
815.697	381.92
816.088	373.73
816.479	384.74
816.87	415.24
817.26	391.24
817.651	394.34
818.042	400.84
818.432	407.05
818.823	372.6
819.213	401.4
819.604	378.53
819.994	377.68
820.384	409.59
820.775	383.33
821.165	409.03
821.555	383.33
821.945	387.85
822.335	368.64
822.725	387
823.114	416.65
823.504	359.32
823.894	403.38
824.284	404.23
824.673	386.44
825.063	401.69
825.452	378.25
825.842	400.28
826.231	390.11
826.62	378.53
827.009	402.53
827.399	390.39
827.788	367.51
828.177	400.56
828.566	382.76
828.954	435.57
829.343	385.31
829.732	383.61
830.121	400.56
830.509	396.89
830.898	380.79
831.286	409.59
831.675	394.06
832.063	405.64
832.452	403.66
832.84	392.37
833.228	405.36
833.616	403.1
834.004	403.1
834.392	370.62
834.78	415.81
835.168	380.79
835.556	394.06
835.944	394.34
836.331	401.12
836.719	399.43
837.107	394.34
837.494	374.01
837.881	388.41
838.269	376.83
838.656	377.68
839.043	374.57
839.431	397.45
839.818	413.26
840.205	369.77
840.592	405.36
840.979	414.11
841.366	388.41
841.752	403.38
842.139	381.07
842.526	383.33
842.912	409.59
843.299	379.09
843.685	405.64
844.072	427.1
844.458	408.18
844.844	384.46
845.231	361.58
845.617	392.37
846.003	372.6
846.389	371.18
846.775	377.12
847.161	408.46
847.547	360.45
847.933	383.61
848.318	398.58
848.704	379.66
849.09	370.34
849.475	391.52
849.861	389.54
850.246	377.4
850.631	395.47
851.017	420.04
851.402	379.94
851.787	402.25
852.172	405.64
852.557	394.63
852.942	399.99
853.327	389.26
853.712	390.67
854.097	408.18
854.481	384.46
854.866	379.37
855.25	379.37
855.635	374.01
856.019	394.63
856.404	385.87
856.788	374.57
857.172	392.93
857.557	364.4
857.941	380.22
858.325	366.66
858.709	379.66
859.093	393.5
859.477	377.12
859.86	406.21
860.244	372.6
860.628	408.46
861.012	374.29
861.395	380.5
861.779	390.67
862.162	386.15
862.545	394.34
862.929	393.21
863.312	378.25
863.695	368.08
864.078	389.26
864.461	383.33
864.844	380.79
865.227	387.85
865.61	392.37
865.993	387.28
866.376	409.88
866.758	389.83
867.141	418.35
867.523	415.24
867.906	418.63
868.288	401.97
868.671	385.02
869.053	361.58
869.435	392.65
869.817	408.18
870.199	371.75
870.581	396.32
870.963	370.62
871.345	377.4
871.727	391.8
872.109	383.61
872.491	367.51
872.872	399.71
873.254	372.31
873.635	382.48
874.017	390.67
874.398	374.57
874.779	398.58
875.161	355.36
875.542	397.45
875.923	385.31
876.304	403.66
876.685	381.63
877.066	415.24
877.447	379.37
877.828	396.04
878.208	375.99
878.589	402.53
878.97	424.84
879.35	390.39
879.731	385.02
880.111	403.1
880.491	364.12
880.872	389.83
881.252	397.45
881.632	398.58
882.012	356.49
882.392	388.41
882.772	402.53
883.152	372.88
883.532	400.56
883.912	384.18
884.291	403.95
884.671	389.26
885.051	362.42
885.43	394.06
885.81	391.24
886.189	371.75
886.568	402.25
886.948	388.98
887.327	377.12
887.706	395.47
888.085	404.79
888.464	397.73
888.843	397.73
889.222	363.84
889.601	387.85
889.979	381.07
890.358	372.03
890.737	388.98
891.115	392.37
891.494	369.21
891.872	386.44
892.25	372.31
892.629	385.59
893.007	406.49
893.385	376.27
893.763	398.86
894.141	402.25
894.519	406.21
894.897	394.91
895.275	386.15
895.653	399.43
896.03	388.41
896.408	357.9
896.786	373.44
897.163	375.42
897.541	416.93
897.918	408.46
898.295	377.96
898.673	383.61
899.05	386.72
899.427	436.41
899.804	392.93
900.181	385.87
900.558	390.39
900.935	407.62
901.312	408.46
901.688	398.02
902.065	390.96
902.442	372.31
902.818	396.89
903.195	403.66
903.571	392.65
903.947	355.64
904.324	405.08
904.7	390.67
905.076	402.53
905.452	360.16
905.828	379.66
906.204	400.28
906.58	381.92
906.956	387.28
907.331	374.01
907.707	409.59
908.083	393.78
908.458	407.9
908.834	412.42
909.209	379.37
909.585	398.02
909.96	409.59
910.335	371.18
910.71	374.86
911.086	388.41
911.461	401.69
911.836	402.53
912.21	367.51
912.585	389.26
912.96	384.18
913.335	375.99
913.709	367.23
914.084	379.66
914.459	370.9
914.833	380.22
915.207	373.44
915.582	395.47
915.956	404.79
916.33	364.4
916.704	370.9
917.078	392.93
917.452	391.52
917.826	397.73
918.2	350.56
918.574	377.96
918.948	383.33
919.321	398.3
919.695	383.89
920.068	387.28
920.442	369.77
920.815	385.02
921.189	405.08
921.562	409.88
921.935	401.4
922.308	397.45
922.681	374.29
923.054	373.16
923.427	373.16
923.8	386.44
924.173	352.54
924.546	398.02
924.919	390.39
925.291	409.31
925.664	396.32
926.036	394.91
926.409	378.81
926.781	389.54
927.153	375.7
927.526	384.74
927.898	393.78
928.27	379.94
928.642	381.92
929.014	369.21
929.386	381.35
929.758	395.76
930.129	380.5
930.501	403.38
930.873	401.97
931.244	386.72
931.616	405.36
931.987	421.45
932.359	379.09
932.73	371.47
933.101	365.25
933.472	390.96
933.843	383.89
934.214	395.76
934.585	381.07
934.956	390.11
935.327	399.71
935.698	386.44
936.069	394.34
936.439	393.21
936.81	397.45
937.18	393.21
937.551	365.53
937.921	406.77
938.292	398.02
938.662	416.65
939.032	379.37
939.402	382.76
939.772	403.95
940.142	412.42
940.512	376.27
940.882	381.07
941.252	388.13
941.621	365.25
941.991	369.77
942.361	388.98
942.73	361.58
943.1	358.47
943.469	385.59
943.838	361.58
944.208	410.72
944.577	382.48
944.946	406.77
945.315	381.07
945.684	407.05
946.053	388.7
946.422	369.49
946.791	386.44
947.159	392.09
947.528	375.99
947.897	385.31
948.265	378.53
948.634	375.14
949.002	361.01
949.371	367.51
949.739	347.45
950.107	398.02
950.475	389.83
950.843	389.26
951.211	381.63
951.579	393.5
951.947	362.42
952.315	363.27
952.683	402.25
953.05	373.16
953.418	397.17
953.785	383.05
954.153	360.16
954.52	379.66
954.888	369.49
955.255	397.45
955.622	388.7
955.989	386.15
956.356	397.45
956.723	409.59
957.09	362.42
957.457	392.65
957.824	380.5
958.191	387
958.557	372.31
958.924	336.43
959.291	388.98
959.657	364.4
960.023	399.43
960.39	409.59
960.756	382.48
961.122	433.59
961.488	376.55
961.855	385.59
962.221	385.02
962.586	401.97
962.952	393.5
963.318	390.11
963.684	388.98
964.05	365.53
964.415	380.5
964.781	414.96
965.146	355.64
965.512	380.79
965.877	371.18
966.242	400.56
966.608	383.33
966.973	372.03
967.338	383.61
967.703	387.85
968.068	389.83
968.433	357.06
968.797	396.32
969.162	394.34
969.527	393.21
969.891	372.88
970.256	372.03
970.62	397.45
970.985	370.34
971.349	391.24
971.714	392.37
972.078	395.47
972.442	388.41
972.806	373.73
973.17	372.31
973.534	410.16
973.898	373.44
974.262	369.49
974.625	421.45
974.989	399.99
975.353	385.02
975.716	383.89
976.08	372.31
976.443	350.56
976.806	376.55
977.17	407.05
977.533	365.81
977.896	368.92
978.259	384.18
978.622	398.3
978.985	382.48
979.348	372.03
979.711	398.02
980.073	388.13
980.436	377.12
980.799	372.6
981.161	398.02
981.524	389.26
981.886	402.82
982.248	407.62
982.611	381.63
982.973	379.37
983.335	385.87
983.697	396.6
984.059	388.98
984.421	381.63
984.783	373.73
985.145	388.7
985.506	378.81
985.868	403.95
986.23	380.79
986.591	371.18
986.953	379.37
987.314	378.53
987.675	370.62
988.037	1098.49
988.398	417.78
988.759	360.16
989.12	406.21
989.481	381.92
989.842	398.86
990.203	383.33
990.564	379.66
990.924	397.17
991.285	981.17
991.646	414.11
992.006	366.95
992.367	402.25
992.727	406.77
993.087	363.27
993.448	368.08
993.808	370.05
994.168	407.62
994.528	401.12
994.888	415.24
995.248	392.93
995.608	384.46
995.967	370.34
996.327	375.7
996.687	379.66
997.046	374.57
997.406	397.73
997.765	384.74
998.125	396.04
998.484	397.45
998.843	405.36
999.202	369.49
999.561	408.75
999.92	389.83
1000.279	386.72
1000.638	368.64
1000.997	364.97
1001.356	376.83
1001.715	360.73
1002.073	397.73
1002.432	362.71
1002.79	387.85
1003.149	356.77
1003.507	389.26
1003.865	376.83
1004.224	400.56
1004.582	376.27
1004.94	405.64
1005.298	374.29
1005.656	392.37
1006.014	355.64
1006.371	372.88
1006.729	400.56
1007.087	409.31
1007.445	373.16
1007.802	380.79
1008.16	366.66
1008.517	388.98
1008.874	398.02
1009.232	393.21
1009.589	424.56
1009.946	384.46
1010.303	373.73
1010.66	401.4
1011.017	356.49
1011.374	375.99
1011.731	369.49
1012.087	395.47
1012.444	381.07
1012.801	392.37
1013.157	372.31
1013.513	412.42
1013.87	377.4
1014.226	374.57
1014.582	364.4
1014.939	388.98
1015.295	385.31
1015.651	394.06
1016.007	377.4
1016.363	370.9
1016.719	390.39
1017.074	404.23
1017.43	395.19
1017.786	374.29
1018.141	368.92
1018.497	368.64
1018.852	417.5
1019.208	388.41
1019.563	393.78
1019.918	383.33
1020.273	373.16
1020.628	393.21
1020.983	390.67
1021.338	372.31
1021.693	370.05
1022.048	389.54
1022.403	361.86
1022.757	364.97
1023.112	359.03
1023.467	375.14
1023.821	377.96
1024.175	386.44
1024.53	375.7
1024.884	395.47
1025.238	375.42
1025.592	399.99
1025.946	395.47
1026.3	403.1
1026.654	378.53
1027.008	393.21
1027.362	386.44
1027.716	407.9
1028.069	388.41
1028.423	381.63
1028.777	370.9
1029.13	401.69
1029.483	400.28
1029.837	375.42
1030.19	406.21
1030.543	370.9
1030.896	381.63
1031.249	371.18
1031.602	384.46
1031.955	365.53
1032.308	390.11
1032.661	425.69
1033.013	383.61
1033.366	391.24
1033.719	391.24
1034.071	390.67
1034.424	409.88
1034.776	364.12
1035.128	371.75
1035.48	377.12
1035.833	395.47
1036.185	396.04
1036.537	396.04
1036.889	396.04
