Data from NOL_irradiation_FLMS019251_05-24-04-700.txt Node
Date: Wed Feb 20 05:24:04 PST 2019
User: mu3e
Spectrometer: FLMS01925
Trigger mode: 0
Integration Time (sec): 6.500000E-2
Scans to average: 10
Electric dark correction enabled: true
Nonlinearity correction enabled: true
Boxcar width: 0
XAxis mode: Wavelengths
Number of Pixels in Spectrum: 2048
>>>>>Begin Spectral Data<<<<<
187.103	-90.2
187.574	-90.2
188.045	-90.2
188.516	-145.94
188.987	-102.14
189.458	-119.2
189.929	-122.9
190.4	-82.53
190.871	-98.44
191.342	-78.55
191.813	-52.69
192.284	-33.37
192.754	-32.52
193.225	0.71
193.696	14.34
194.166	35.62
194.637	83.57
195.107	97.18
195.578	108.52
196.048	117.02
196.518	162.37
196.989	196.07
197.459	210.51
197.929	238.25
198.399	252.68
198.869	252.4
199.339	292.57
199.809	303.32
200.279	304.16
200.749	299.64
201.219	338.09
201.689	320.28
202.159	347.13
202.628	356.74
203.098	370.02
203.568	360.98
204.037	372.84
204.507	389.79
204.976	384.14
205.445	399.96
205.915	392.33
206.384	383.01
206.853	376.8
207.323	381.6
207.792	378.49
208.261	404.48
208.73	377.36
209.199	403.35
209.668	370.58
210.137	380.47
210.606	383.86
211.075	347.7
211.543	360.13
212.012	403.06
212.481	337.8
212.95	351.93
213.418	384.14
213.887	355.04
214.355	357.3
214.824	346.28
215.292	342.89
215.76	333.28
216.229	331.87
216.697	352.5
217.165	342.89
217.633	350.24
218.101	341.2
218.569	350.8
219.037	349.39
219.505	354.2
219.973	357.02
220.441	336.39
220.909	347.7
221.377	331.3
221.844	341.2
222.312	336.11
222.78	321.13
223.247	354.48
223.715	339.22
224.182	317.73
224.65	356.74
225.117	342.33
225.584	344.87
226.052	315.47
226.519	336.96
226.986	324.24
227.453	347.41
227.92	346
228.387	349.11
228.854	305.01
229.321	348.26
229.788	351.93
230.255	334.98
230.722	348.54
231.189	373.12
231.655	354.48
232.122	353.35
232.589	349.96
233.055	370.58
233.522	350.52
233.988	366.91
234.454	366.63
234.921	329.89
235.387	367.47
235.853	335.54
236.32	349.11
236.786	368.04
237.252	365.78
237.718	363.52
238.184	354.2
238.65	360.41
239.116	343.46
239.582	357.02
240.047	359.85
240.513	347.41
240.979	363.52
241.445	333.56
241.91	357.87
242.376	373.69
242.841	357.59
243.307	364.08
243.772	360.98
244.238	346.85
244.703	340.63
245.168	349.39
245.633	346.85
246.099	358.15
246.564	340.07
247.029	335.54
247.494	354.48
247.959	362.39
248.424	361.82
248.889	347.7
249.353	391.77
249.818	372.28
250.283	363.8
250.748	345.72
251.212	382.73
251.677	343.17
252.141	361.82
252.606	376.23
253.07	361.26
253.535	353.06
253.999	377.64
254.463	359.28
254.927	350.52
255.392	356.74
255.856	368.32
256.32	358.15
256.784	365.78
257.248	384.71
257.712	354.48
258.176	393.46
258.64	374.82
259.103	375.67
259.567	355.89
260.031	374.82
260.495	373.69
260.958	365.78
261.422	367.47
261.885	381.03
262.349	374.25
262.812	373.12
263.275	388.1
263.739	390.07
264.202	356.74
264.665	374.25
265.128	396.85
265.591	353.06
266.054	369.45
266.517	379.9
266.98	377.93
267.443	358.15
267.906	377.08
268.369	361.54
268.832	370.3
269.294	360.69
269.757	372.56
270.22	362.67
270.682	365.21
271.145	362.95
271.607	395.44
272.07	389.79
272.532	347.98
272.994	349.67
273.456	377.64
273.919	408.43
274.381	360.41
274.843	362.39
275.305	383.01
275.767	346.57
276.229	370.3
276.691	378.49
277.153	365.5
277.614	396.57
278.076	334.41
278.538	375.1
279	378.77
279.461	380.19
279.923	412.1
280.384	359.56
280.846	379.06
281.307	373.41
281.769	371.71
282.23	401.37
282.691	383.86
283.152	379.62
283.613	403.06
284.075	406.73
284.536	391.48
284.997	362.11
285.458	358.72
285.918	377.08
286.379	376.8
286.84	394.31
287.301	378.77
287.762	372.56
288.222	370.02
288.683	390.92
289.143	375.95
289.604	374.54
290.064	380.47
290.525	386.4
290.985	381.88
291.445	373.12
291.906	357.87
292.366	394.59
292.826	373.12
293.286	396
293.746	389.23
294.206	385.55
294.666	363.8
295.126	391.2
295.586	379.62
296.046	372.56
296.506	373.97
296.965	375.1
297.425	388.66
297.884	389.51
298.344	384.71
298.804	392.33
299.263	359.85
299.722	394.87
300.182	387.81
300.641	383.29
301.1	389.79
301.559	381.32
302.019	377.64
302.478	387.81
302.937	389.23
303.396	380.47
303.855	400.8
304.314	373.41
304.772	414.64
305.231	372.56
305.69	369.17
306.149	370.3
306.607	387.81
307.066	378.49
307.524	403.06
307.983	391.77
308.441	366.06
308.9	370.3
309.358	379.9
309.816	383.58
310.275	365.5
310.733	389.51
311.191	392.05
311.649	392.33
312.107	410.69
312.565	387.25
313.023	394.87
313.481	405.61
313.939	391.48
314.397	374.54
314.854	381.6
315.312	403.35
315.77	382.16
316.227	377.08
316.685	366.06
317.142	388.94
317.6	389.79
318.057	391.48
318.514	363.8
318.972	360.41
319.429	371.15
319.886	375.67
320.343	363.52
320.8	386.4
321.257	389.23
321.714	394.59
322.171	384.42
322.628	382.16
323.085	384.99
323.542	393.18
323.998	402.5
324.455	374.54
324.912	385.55
325.368	395.44
325.825	373.12
326.281	377.93
326.738	385.84
327.194	399.39
327.65	384.99
328.107	402.22
328.563	381.6
329.019	389.79
329.475	370.58
329.931	390.36
330.387	377.64
330.843	395.44
331.299	368.89
331.755	390.36
332.211	349.39
332.666	371.43
333.122	366.06
333.578	406.45
334.033	380.75
334.489	377.64
334.944	413.79
335.4	403.06
335.855	397.98
336.31	386.12
336.766	408.43
337.221	392.9
337.676	384.42
338.131	403.35
338.586	408.15
339.041	417.75
339.496	412.38
339.951	362.39
340.406	378.77
340.861	373.97
341.316	372.84
341.771	379.9
342.225	416.05
342.68	418.31
343.134	385.27
343.589	370.02
344.043	401.93
344.498	404.19
344.952	396.57
345.406	462.9
345.861	380.75
346.315	403.91
346.769	390.07
347.223	372.84
347.677	398.26
348.131	411.82
348.585	368.89
349.039	412.38
349.493	367.76
349.947	389.79
350.401	384.71
350.854	383.01
351.308	378.21
351.762	383.01
352.215	397.98
352.669	380.47
353.122	386.68
353.575	386.12
354.029	405.04
354.482	391.77
354.935	403.91
355.388	389.79
355.842	413.23
356.295	371.71
356.748	418.03
357.201	400.52
357.654	412.95
358.106	388.38
358.559	385.27
359.012	364.93
359.465	401.09
359.917	393.18
360.37	402.22
360.823	413.51
361.275	391.77
361.728	402.78
362.18	418.88
362.632	397.13
363.085	401.93
363.537	384.14
363.989	382.73
364.441	372.84
364.893	398.55
365.345	396.57
365.797	384.14
366.249	401.65
366.701	389.79
367.153	386.68
367.605	396
368.057	415.49
368.508	392.05
368.96	397.7
369.411	383.86
369.863	372.28
370.314	398.26
370.766	392.05
371.217	369.73
371.669	389.23
372.12	416.62
372.571	418.88
373.022	402.5
373.473	392.9
373.924	407.02
374.375	374.82
374.826	410.41
375.277	399.67
375.728	408.43
376.179	374.25
376.63	406.73
377.08	367.47
377.531	387.53
377.981	382.16
378.432	399.11
378.883	411.82
379.333	423.67
379.783	411.82
380.234	378.49
380.684	398.55
381.134	414.36
381.584	417.46
382.034	403.63
382.485	390.92
382.935	418.88
383.385	384.71
383.834	405.61
384.284	392.05
384.734	394.31
385.184	412.38
385.634	427.34
386.083	428.19
386.533	382.16
386.982	401.37
387.432	426.22
387.881	411.53
388.331	416.33
388.78	429.89
389.229	414.36
389.679	408.71
390.128	432.71
390.577	412.66
391.026	433.55
391.475	408.43
391.924	441.74
392.373	401.37
392.822	440.33
393.27	444.28
393.719	433.84
394.168	427.34
394.617	425.37
395.065	454.72
395.514	399.67
395.962	455.85
396.411	436.38
396.859	459.24
397.307	458.39
397.756	476.17
398.204	483.22
398.652	466.86
399.1	466.57
399.548	462.9
399.996	472.22
400.444	480.68
400.892	457.54
401.34	473.34
401.788	471.37
402.236	468.27
402.683	484.91
403.131	466.86
403.579	491.68
404.026	485.76
404.474	488.29
404.921	485.19
405.369	479.55
405.816	491.4
406.263	518.75
406.71	502.4
407.158	501.83
407.605	497.32
408.052	515.93
408.499	522.98
408.946	513.96
409.393	535.38
409.84	516.5
410.286	531.44
410.733	552.58
411.18	615.4
411.626	612.86
412.073	671.13
412.52	761.96
412.966	978.89
413.413	1172.84
413.859	1507.54
414.305	1920.87
414.752	2417.39
415.198	3014.26
415.644	3703.53
416.09	4449.66
416.536	5219.89
416.982	6103.5
417.428	7055.02
417.874	8012.62
418.32	9115.05
418.766	10158.77
419.211	11400.49
419.657	12440.31
420.103	13788.79
420.548	14757.37
420.994	16262.77
421.439	17587.17
421.885	18831.65
422.33	20676.77
422.776	21974.78
423.221	23308.43
423.666	24984.76
424.111	26545.05
424.556	27663.82
425.001	29629.95
425.446	31218.72
425.891	32710.14
426.336	33732.05
426.781	35096.69
427.226	37531.39
427.671	37942.67
428.115	38806.86
428.56	40341.72
429.005	41717.85
429.449	41795.92
429.894	42812.46
430.338	43333.89
430.782	42747.02
431.227	43731.56
431.671	43339.38
432.115	44047.87
432.559	44285.74
433.003	43088.1
433.447	43111.28
433.891	42482.69
434.335	41623.7
434.779	41570.69
435.223	40533.71
435.667	39598.73
436.111	39062.44
436.554	38181.07
436.998	36798.83
437.442	36050.29
437.885	36657.18
438.328	34659.79
438.772	34137.18
439.215	33848.88
439.659	32870.57
440.102	32630.42
440.545	31610.57
440.988	30950.7
441.431	31062.88
441.874	30506.76
442.317	30414.3
442.76	29620.43
443.203	29067.33
443.646	29317.91
444.089	28945.68
444.531	29160.88
444.974	28264.55
445.417	28954.96
445.859	28441.79
446.302	28948.86
446.744	28506.32
447.186	29381.65
447.629	28687.67
448.071	28821.57
448.513	29030.94
448.956	29844.51
449.398	29437.81
449.84	28651.5
450.282	29237.08
450.724	29556.47
451.166	29548.9
451.607	29407.04
452.049	29593.33
452.491	30313.54
452.933	30109.79
453.374	30384.29
453.816	30688.5
454.257	30394.29
454.699	31018.25
455.14	30668.74
455.582	30371.85
456.023	30490.17
456.464	30298.41
456.905	30688.98
457.347	30601.17
457.788	29679.5
458.229	29648.75
458.67	30145.91
459.111	28803.98
459.552	28883.14
459.992	28327.63
460.433	27903.1
460.874	27221.25
461.315	27517.96
461.755	26762.93
462.196	26200.52
462.636	25516.74
463.077	25055.31
463.517	24850.76
463.957	24668.01
464.398	24065.68
464.838	23916.89
465.278	23047.6
465.718	22721.4
466.158	21982.95
466.598	21982.45
467.038	21328.99
467.478	21383.75
467.918	21095.5
468.358	20462.04
468.798	20135.39
469.237	19846.52
469.677	19578.36
470.117	19703.26
470.556	18353.71
470.996	18526.14
471.435	18309.27
471.874	18541.36
472.314	18186.44
472.753	17637.43
473.192	17586.92
473.631	17440.08
474.07	17271.16
474.509	17123.45
474.948	17270.66
475.387	16843.38
475.826	16486.6
476.265	17058.84
476.704	16787.74
477.143	16971.17
477.581	16724.83
478.02	17051.57
478.458	16530.24
478.897	16758.67
479.335	17199.31
479.774	16929.58
480.212	17011.75
480.65	17051.57
481.089	16920.56
481.527	16772.2
481.965	16671.18
482.403	17471.6
482.841	17323.97
483.279	17356.26
483.717	17400.3
484.155	17188.55
484.592	17334.98
485.03	17391.79
485.468	17155.25
485.905	17109.92
486.343	17351.75
486.781	17064.1
487.218	16937.35
487.655	16889.24
488.093	16540.78
488.53	17107.67
488.967	16671.93
489.405	16612.5
489.842	16322.25
490.279	16150.55
490.716	15998.36
491.153	16033.52
491.59	15769.18
492.027	15514.45
492.463	15320.69
492.9	15021.01
493.337	14934.84
493.773	14822.92
494.21	14368.3
494.647	14256.43
495.083	13848.74
495.519	13687.33
495.956	13632.91
496.392	13296.56
496.828	13156.88
497.265	12725.96
497.701	12662.71
498.137	12453.28
498.573	12155.84
499.009	12138.79
499.445	11770.58
499.881	11493.2
500.316	11524.6
500.752	11148.21
501.188	10997.76
501.624	10861.3
502.059	10355.57
502.495	10191.67
502.93	10148.23
503.366	10180.1
503.801	9823.5
504.236	9599.54
504.672	9415.57
505.107	9237.86
505.542	8985.93
505.977	8946.33
506.412	8748.13
506.847	8706.9
507.282	8478.78
507.717	8384.99
508.152	8278.14
508.587	8092.33
509.021	7865.32
509.456	7778.69
509.891	7756.77
510.325	7644.99
510.76	7544.37
511.194	7409.9
511.628	7416.45
512.063	7209
512.497	7214.24
512.931	7018.54
513.366	6958.66
513.8	6928.71
514.234	6737.03
514.668	6675.96
515.102	6764.13
515.536	6572.45
515.969	6492.05
516.403	6434.81
516.837	6280.11
517.271	6353.53
517.704	6237.83
518.138	6125.46
518.571	6101.65
519.005	5976.42
519.438	6020.39
519.871	5935.36
520.305	5781.29
520.738	5773.33
521.171	5607.33
521.604	5695.81
522.037	5639.49
522.47	5491.92
522.903	5399.81
523.336	5402.47
523.769	5380.37
524.202	5186.8
524.634	5144.89
525.067	5143.56
525.5	5079.2
525.932	5076.52
526.365	4932.69
526.797	4866.05
527.23	4904.86
527.662	4688.12
528.094	4679.54
528.527	4639.56
528.959	4505.57
529.391	4537
529.823	4349.32
530.255	4389.14
530.687	4283.62
531.119	4227.04
531.551	4169.35
531.982	4048.46
532.414	4034.69
532.846	3932.54
533.277	3853.56
533.709	3713.28
534.14	3701.63
534.572	3671.26
535.003	3618.38
535.435	3525.81
535.866	3488.59
536.297	3403.78
536.728	3398.61
537.159	3271.5
537.59	3278.31
538.022	3194.39
538.452	3181.84
538.883	3064.24
539.314	3067.79
539.745	2948.94
540.176	2958.51
540.606	2825
541.037	2850.19
541.468	2750.49
541.898	2720.06
542.328	2704.71
542.759	2634.48
543.189	2593.58
543.619	2540.57
544.05	2530.13
544.48	2449.03
544.91	2452.33
545.34	2372.81
545.77	2351.61
546.2	2272.81
546.63	2227.04
547.06	2216.28
547.489	2221.52
547.919	2093.16
548.349	2125.2
548.778	2119.95
549.208	2069.4
549.637	2035.13
550.067	1977.32
550.496	1979.81
550.926	1945.23
551.355	1854.11
551.784	1908.41
552.213	1829.17
552.642	1847.46
553.071	1849.96
553.5	1810.04
553.929	1729.05
554.358	1747.09
554.787	1730.71
555.216	1740.7
555.645	1673.52
556.073	1660.47
556.502	1650.47
556.93	1575.7
557.359	1569.86
557.787	1571.81
558.216	1530.64
558.644	1550.67
559.072	1498.36
559.5	1511.16
559.929	1518.4
560.357	1534.81
560.785	1493.63
561.213	1506.71
561.641	1490.29
562.068	1489.45
562.496	1445.73
562.924	1409.52
563.352	1430.13
563.779	1413.97
564.207	1409.79
564.634	1401.43
565.062	1344.84
565.489	1366.03
565.917	1350.42
566.344	1341.77
566.771	1342.89
567.198	1353.76
567.625	1327.82
568.053	1306.34
568.48	1296.02
568.907	1311.64
569.333	1235.71
569.76	1234.87
570.187	1266.71
570.614	1192.69
571.04	2411.62
571.467	1234.31
571.894	1188.5
572.32	1156.91
572.747	1157.19
573.173	1128.39
573.599	1119.16
574.026	1106.29
574.452	1089.78
574.878	1117.48
575.304	1054.23
575.73	1055.35
576.156	1027.35
576.582	1022.59
577.008	1009.71
577.434	1012.79
577.86	996.54
578.285	999.06
578.711	978.05
579.137	962.35
579.562	971.88
579.988	924.5
580.413	915.25
580.838	908.24
581.264	879.9
581.689	894.77
582.114	885.23
582.539	1004.95
582.964	881.59
583.39	862.78
583.814	868.4
584.239	841.45
584.664	847.07
585.089	827.69
585.514	798.77
585.939	812.53
586.363	787.25
586.788	803.82
587.212	779.94
587.637	797.08
588.061	763.36
588.485	744.25
588.91	741.16
589.334	732.16
589.758	750.44
590.182	741.72
590.606	722.04
591.03	719.79
591.454	707.14
591.878	700.95
592.302	687.17
592.726	704.32
593.15	687.73
593.573	709.11
593.997	689.7
594.42	710.79
594.844	661
595.267	638.2
595.691	659.31
596.114	649.74
596.537	631.73
596.96	656.78
597.384	621.03
597.807	629.19
598.23	653.96
598.653	637.08
599.076	613.71
599.499	613.14
599.921	615.96
600.344	597.09
600.767	603.29
601.189	607.23
601.612	589.49
602.034	579.91
602.457	587.51
602.879	629.47
603.302	612.58
603.724	619.34
604.146	586.39
604.568	595.96
604.991	585.82
605.413	588.92
605.835	588.08
606.257	583.01
606.678	577.65
607.1	576.81
607.522	584.42
607.944	566.1
608.365	568.92
608.787	572.87
609.209	566.1
609.63	551.45
610.051	554.83
610.473	566.67
610.894	564.41
611.315	544.12
611.737	586.67
612.158	541.59
612.579	551.17
613	564.41
613.421	530.03
613.842	557.65
614.263	530.59
614.683	514.8
615.104	528.62
615.525	556.24
615.945	532.57
616.366	528.62
616.787	488.29
617.207	519.88
617.627	529.75
618.048	486.04
618.468	517.91
618.888	505.5
619.308	505.5
619.728	493.09
620.148	519.6
620.568	470.52
620.988	500.14
621.408	492.24
621.828	466.29
622.248	469.11
622.668	486.04
623.087	465.16
623.507	477.29
623.926	490.27
624.346	497.32
624.765	480.4
625.185	474.19
625.604	480.68
626.023	464.03
626.442	483.78
626.861	495.35
627.28	476.73
627.699	460.08
628.118	454.16
628.537	451.05
628.956	454.16
629.375	493.09
629.794	459.8
630.212	462.34
630.631	480.96
631.049	464.6
631.468	471.09
631.886	460.37
632.305	459.8
632.723	454.44
633.141	458.95
633.559	464.88
633.978	445.97
634.396	465.16
634.814	503.52
635.232	463.75
635.65	457.54
636.067	431.01
636.485	432.43
636.903	445.13
637.321	445.13
637.738	425.09
638.156	477.01
638.573	440.61
638.991	471.93
639.408	427.91
639.825	410.97
640.243	422.26
640.66	436.38
641.077	444.28
641.494	464.6
641.911	434.68
642.328	448.23
642.745	440.61
643.162	434.97
643.579	405.04
643.995	418.88
644.412	435.81
644.829	392.9
645.245	435.81
645.662	429.04
646.078	453.59
646.495	411.25
646.911	443.43
647.327	412.1
647.743	446.82
648.159	432.14
648.576	450.77
648.992	452.18
649.408	440.05
649.824	383.58
650.239	431.58
650.655	420.29
651.071	420.85
651.487	422.55
651.902	430.17
652.318	458.39
652.733	446.54
653.149	431.86
653.564	447.1
653.979	416.62
654.395	404.48
654.81	410.12
655.225	415.49
655.64	410.97
656.055	441.46
656.47	409.28
656.885	431.01
657.3	403.35
657.715	405.32
658.13	420.57
658.544	429.89
658.959	411.25
659.374	405.89
659.788	423.11
660.202	398.83
660.617	402.78
661.031	414.36
661.445	395.72
661.86	382.73
662.274	416.33
662.688	428.19
663.102	419.72
663.516	406.45
663.93	382.16
664.344	371.15
664.758	419.44
665.171	396.29
665.585	408.43
665.999	427.34
666.412	380.47
666.826	403.35
667.239	401.93
667.653	420.29
668.066	420
668.479	427.06
668.892	389.23
669.306	375.67
669.719	416.62
670.132	382.73
670.545	414.92
670.958	384.42
671.37	415.49
671.783	388.94
672.196	371.99
672.609	386.12
673.021	405.89
673.434	410.69
673.846	400.52
674.259	399.39
674.671	401.65
675.084	401.65
675.496	398.26
675.908	396
676.32	386.97
676.732	383.86
677.144	410.41
677.556	399.11
677.968	416.33
678.38	418.88
678.792	412.1
679.204	389.51
679.615	404.19
680.027	409.56
680.439	405.04
680.85	413.51
681.262	395.44
681.673	385.27
682.084	394.87
682.496	382.16
682.907	384.99
683.318	390.07
683.729	393.74
684.14	376.23
684.551	403.35
684.962	396
685.373	411.25
685.784	397.42
686.194	390.07
686.605	380.47
687.016	375.95
687.426	406.73
687.837	386.4
688.247	386.12
688.657	410.12
689.068	396.29
689.478	396.29
689.888	384.99
690.298	406.17
690.708	400.52
691.118	385.27
691.528	414.36
691.938	394.59
692.348	381.6
692.758	390.07
693.168	391.2
693.577	384.99
693.987	376.23
694.396	394.31
694.806	379.34
695.215	373.12
695.625	391.77
696.034	402.78
696.443	388.38
696.852	395.72
697.262	416.33
697.671	397.7
698.08	392.33
698.489	402.78
698.897	382.16
699.306	397.42
699.715	390.07
700.124	381.03
700.532	362.95
700.941	398.55
701.35	404.76
701.758	395.44
702.166	388.66
702.575	394.31
702.983	395.72
703.391	382.16
703.799	386.4
704.208	392.33
704.616	403.63
705.024	391.77
705.432	393.18
705.839	405.61
706.247	384.14
706.655	414.92
707.063	396.57
707.47	374.54
707.878	365.21
708.285	380.75
708.693	384.42
709.1	393.18
709.508	386.97
709.915	378.49
710.322	392.05
710.729	394.03
711.136	416.05
711.543	409.84
711.95	372.56
712.357	387.25
712.764	383.58
713.171	394.31
713.578	385.84
713.984	399.67
714.391	408.15
714.797	370.86
715.204	388.94
715.61	398.55
716.017	389.23
716.423	394.31
716.829	421.98
717.236	401.65
717.642	404.19
718.048	386.12
718.454	409.56
718.86	373.69
719.266	401.09
719.671	369.73
720.077	407.58
720.483	381.6
720.889	406.17
721.294	376.23
721.7	367.47
722.105	371.43
722.511	408.15
722.916	368.04
723.321	410.41
723.726	373.69
724.132	384.71
724.537	375.1
724.942	393.46
725.347	396.29
725.752	392.9
726.156	381.32
726.561	390.07
726.966	395.72
727.371	384.14
727.775	386.97
728.18	383.29
728.584	404.76
728.989	388.1
729.393	420
729.798	360.13
730.202	378.77
730.606	360.98
731.01	370.86
731.414	392.9
731.818	382.45
732.222	392.05
732.626	381.32
733.03	384.99
733.434	362.39
733.837	364.93
734.241	379.9
734.645	394.59
735.048	394.59
735.452	396.57
735.855	415.21
736.258	389.23
736.662	391.77
737.065	395.44
737.468	410.41
737.871	373.41
738.274	401.09
738.677	375.67
739.08	391.77
739.483	387.81
739.886	392.61
740.289	390.36
740.691	393.18
741.094	373.69
741.497	387.81
741.899	404.19
742.302	373.12
742.704	350.24
743.106	368.89
743.508	396.57
743.911	391.77
744.313	375.95
744.715	390.64
745.117	374.25
745.519	364.08
745.921	377.93
746.323	405.89
746.724	407.02
747.126	392.05
747.528	361.82
747.929	378.21
748.331	400.24
748.732	406.73
749.134	418.88
749.535	367.47
749.936	377.64
750.338	382.73
750.739	391.2
751.14	380.19
751.541	386.12
751.942	390.07
752.343	372.56
752.744	386.12
753.144	412.66
753.545	365.78
753.946	398.26
754.346	416.33
754.747	404.76
755.148	398.83
755.548	384.71
755.948	380.19
756.349	382.45
756.749	375.1
757.149	373.69
757.549	384.99
757.949	377.93
758.349	360.41
758.749	348.26
759.149	361.54
759.549	366.06
759.949	391.77
760.348	397.13
760.748	382.45
761.148	369.17
761.547	389.79
761.947	390.92
762.346	362.67
762.745	382.73
763.145	382.16
763.544	385.27
763.943	399.96
764.342	398.83
764.741	393.46
765.14	355.33
765.539	361.54
765.938	403.06
766.336	401.37
766.735	377.93
767.134	356.74
767.532	364.37
767.931	367.19
768.329	398.26
768.728	380.75
769.126	381.88
769.525	408.99
769.923	390.36
770.321	398.83
770.719	380.19
771.117	373.69
771.515	395.16
771.913	358.43
772.311	375.67
772.709	395.72
773.106	369.17
773.504	388.94
773.902	391.48
774.299	377.93
774.697	409.56
775.094	381.6
775.491	399.96
775.889	396.57
776.286	384.99
776.683	384.71
777.08	374.25
777.477	360.41
777.874	370.02
778.271	367.19
778.668	362.67
779.065	383.58
779.462	377.93
779.858	384.42
780.255	366.34
780.652	384.99
781.048	371.99
781.444	399.96
781.841	396
782.237	362.39
782.633	370.86
783.03	361.82
783.426	399.11
783.822	381.03
784.218	375.1
784.614	397.7
785.01	358.72
785.405	398.26
785.801	384.99
786.197	380.47
786.593	409.56
786.988	388.38
787.384	364.93
787.779	389.79
788.174	396.57
788.57	393.46
788.965	377.08
789.36	377.64
789.755	381.32
790.15	369.17
790.545	354.48
790.94	393.18
791.335	391.77
791.73	362.95
792.125	398.26
792.52	389.23
792.914	410.97
793.309	399.67
793.703	393.46
794.098	379.06
794.492	402.5
794.887	348.83
795.281	391.48
795.675	403.91
796.069	395.72
796.463	375.67
796.857	364.65
797.251	383.86
797.645	362.39
798.039	373.12
798.433	379.34
798.826	363.24
799.22	374.54
799.614	390.36
800.007	373.41
800.401	395.44
800.794	360.98
801.187	369.17
801.581	399.96
801.974	386.12
802.367	397.98
802.76	390.64
803.153	380.75
803.546	373.97
803.939	377.36
804.332	383.86
804.725	392.05
805.117	358.72
805.51	374.25
805.903	378.49
806.295	391.2
806.688	391.48
807.08	373.41
807.472	373.69
807.865	374.25
808.257	352.78
808.649	390.36
809.041	363.24
809.433	365.5
809.825	390.64
810.217	380.19
810.609	379.9
811.001	379.06
811.392	377.08
811.784	374.82
812.175	379.34
812.567	379.34
812.958	371.99
813.35	379.06
813.741	364.37
814.132	367.19
814.524	373.97
814.915	369.73
815.306	408.71
815.697	386.4
816.088	386.4
816.479	375.38
816.87	369.17
817.26	392.33
817.651	383.29
818.042	366.34
818.432	375.38
818.823	402.22
819.213	386.12
819.604	374.25
819.994	395.72
820.384	378.49
820.775	412.1
821.165	378.49
821.555	366.63
821.945	397.42
822.335	390.64
822.725	407.58
823.114	376.8
823.504	377.08
823.894	395.72
824.284	379.06
824.673	387.81
825.063	371.15
825.452	364.65
825.842	344.3
826.231	401.09
826.62	384.14
827.009	390.36
827.399	371.43
827.788	378.49
828.177	410.69
828.566	381.6
828.954	387.25
829.343	397.7
829.732	355.04
830.121	366.06
830.509	384.14
830.898	356.74
831.286	400.8
831.675	386.12
832.063	373.97
832.452	377.93
832.84	393.18
833.228	385.84
833.616	361.26
834.004	396.29
834.392	359.28
834.78	378.49
835.168	373.69
835.556	390.64
835.944	392.33
836.331	390.36
836.719	374.54
837.107	370.58
837.494	374.82
837.881	348.54
838.269	383.01
838.656	363.52
839.043	395.44
839.431	371.15
839.818	393.46
840.205	362.95
840.592	373.12
840.979	386.12
841.366	381.03
841.752	393.18
842.139	372.56
842.526	392.9
842.912	388.66
843.299	366.34
843.685	383.01
844.072	368.04
844.458	381.03
844.844	382.73
845.231	347.13
845.617	371.43
846.003	396.85
846.389	372.28
846.775	373.41
847.161	375.67
847.547	368.89
847.933	376.8
848.318	408.99
848.704	356.17
849.09	381.6
849.475	368.89
849.861	369.45
850.246	375.95
850.631	373.41
851.017	362.67
851.402	390.92
851.787	392.61
852.172	376.51
852.557	374.25
852.942	354.2
853.327	382.73
853.712	386.97
854.097	385.27
854.481	359.28
854.866	389.51
855.25	388.94
855.635	390.07
856.019	377.36
856.404	364.37
856.788	354.2
857.172	372.56
857.557	389.51
857.941	356.46
858.325	368.6
858.709	363.8
859.093	388.1
859.477	374.54
859.86	383.29
860.244	359.85
860.628	385.55
861.012	399.11
861.395	362.67
861.779	384.71
862.162	366.91
862.545	369.45
862.929	365.78
863.312	367.47
863.695	356.17
864.078	399.11
864.461	371.43
864.844	380.47
865.227	381.03
865.61	391.2
865.993	360.13
866.376	371.71
866.758	379.06
867.141	383.29
867.523	389.23
867.906	377.64
868.288	360.13
868.671	370.02
869.053	352.22
869.435	379.62
869.817	396.57
870.199	378.77
870.581	361.54
870.963	383.01
871.345	375.38
871.727	385.84
872.109	359
872.491	379.06
872.872	394.87
873.254	376.23
873.635	363.8
874.017	359.28
874.398	360.98
874.779	382.73
875.161	372.56
875.542	380.19
875.923	387.53
876.304	379.34
876.685	402.22
877.066	370.58
877.447	368.32
877.828	382.16
878.208	391.48
878.589	387.53
878.97	399.96
879.35	380.19
879.731	369.45
880.111	386.4
880.491	376.51
880.872	366.34
881.252	398.26
881.632	384.42
882.012	403.35
882.392	379.62
882.772	399.39
883.152	387.25
883.532	391.77
883.912	379.06
884.291	382.73
884.671	383.58
885.051	384.71
885.43	375.67
885.81	386.68
886.189	370.3
886.568	375.1
886.948	375.1
887.327	398.55
887.706	375.1
888.085	399.39
888.464	381.32
888.843	384.99
889.222	381.6
889.601	397.13
889.979	390.36
890.358	362.39
890.737	372.28
891.115	384.42
891.494	374.25
891.872	374.25
892.25	355.33
892.629	410.12
893.007	379.34
893.385	380.75
893.763	378.21
894.141	394.03
894.519	385.55
894.897	362.67
895.275	389.51
895.653	377.36
896.03	389.23
896.408	377.93
896.786	361.82
897.163	372.56
897.541	374.25
897.918	370.02
898.295	369.73
898.673	377.93
899.05	365.5
899.427	412.66
899.804	372.28
900.181	382.73
900.558	355.04
900.935	375.95
901.312	321.41
901.688	339.5
902.065	375.38
902.442	366.63
902.818	355.61
903.195	384.99
903.571	398.26
903.947	379.34
904.324	384.14
904.7	396.29
905.076	391.2
905.452	379.34
905.828	401.93
906.204	373.12
906.58	377.93
906.956	382.73
907.331	398.83
907.707	392.61
908.083	385.27
908.458	378.21
908.834	370.58
909.209	366.91
909.585	394.03
909.96	356.74
910.335	362.67
910.71	361.54
911.086	377.08
911.461	375.1
911.836	395.44
912.21	368.89
912.585	386.68
912.96	382.73
913.335	372.84
913.709	394.59
914.084	358.72
914.459	373.97
914.833	377.08
915.207	371.15
915.582	374.82
915.956	379.06
916.33	377.64
916.704	379.9
917.078	382.45
917.452	396.29
917.826	379.06
918.2	361.82
918.574	374.82
918.948	358.43
919.321	352.5
919.695	358.15
920.068	370.02
920.442	391.2
920.815	370.86
921.189	361.26
921.562	378.49
921.935	400.52
922.308	341.48
922.681	392.05
923.054	364.93
923.427	389.79
923.8	357.87
924.173	374.82
924.546	375.95
924.919	392.05
925.291	371.71
925.664	372.84
926.036	365.78
926.409	369.17
926.781	365.5
927.153	386.12
927.526	357.3
927.898	377.64
928.27	358.43
928.642	371.99
929.014	375.95
929.386	386.68
929.758	376.51
930.129	379.9
930.501	383.58
930.873	385.27
931.244	393.74
931.616	387.81
931.987	360.69
932.359	386.12
932.73	366.91
933.101	371.43
933.472	370.3
933.843	401.93
934.214	396.29
934.585	371.43
934.956	373.97
935.327	370.58
935.698	370.58
936.069	375.38
936.439	390.36
936.81	388.66
937.18	399.39
937.551	340.07
937.921	371.15
938.292	387.53
938.662	363.52
939.032	371.43
939.402	363.52
939.772	367.47
940.142	370.86
940.512	358.43
940.882	370.58
941.252	390.92
941.621	389.79
941.991	354.76
942.361	386.97
942.73	374.54
943.1	360.13
943.469	353.91
943.838	393.46
944.208	369.73
944.577	351.93
944.946	385.27
945.315	377.64
945.684	349.67
946.053	356.46
946.422	357.02
946.791	384.42
947.159	371.43
947.528	366.91
947.897	382.45
948.265	376.8
948.634	363.24
949.002	349.96
949.371	382.73
949.739	357.87
950.107	366.06
950.475	392.05
950.843	360.98
951.211	380.47
951.579	352.22
951.947	369.73
952.315	369.45
952.683	380.47
953.05	384.99
953.418	372.28
953.785	377.36
954.153	384.71
954.52	382.16
954.888	405.32
955.255	368.04
955.622	381.03
955.989	364.08
956.356	371.99
956.723	378.77
957.09	377.64
957.457	375.38
957.824	360.69
958.191	384.99
958.557	365.21
958.924	381.6
959.291	367.47
959.657	390.64
960.023	410.97
960.39	364.08
960.756	357.59
961.122	371.71
961.488	364.93
961.855	372.56
962.221	352.78
962.586	361.26
962.952	380.47
963.318	381.6
963.684	405.61
964.05	362.67
964.415	385.27
964.781	392.05
965.146	380.75
965.512	392.61
965.877	374.54
966.242	383.58
966.608	384.71
966.973	390.36
967.338	383.01
967.703	374.54
968.068	373.97
968.433	371.71
968.797	370.86
969.162	404.76
969.527	353.35
969.891	361.26
970.256	361.26
970.62	362.39
970.985	367.76
971.349	372.28
971.714	372.56
972.078	369.17
972.442	374.82
972.806	363.24
973.17	371.71
973.534	349.67
973.898	363.24
974.262	363.24
974.625	359.85
974.989	369.45
975.353	353.06
975.716	380.75
976.08	393.74
976.443	376.8
976.806	357.87
977.17	376.51
977.533	376.51
977.896	369.45
978.259	374.54
978.622	362.11
978.985	361.82
979.348	370.3
979.711	363.24
980.073	378.77
980.436	364.08
980.799	371.99
981.161	392.9
981.524	366.34
981.886	380.19
982.248	359.85
982.611	368.89
982.973	359.28
983.335	400.52
983.697	392.05
984.059	372.84
984.421	358.72
984.783	381.03
985.145	364.08
985.506	364.65
985.868	364.08
986.23	369.17
986.591	353.35
986.953	378.77
987.314	379.9
987.675	349.67
988.037	1289.88
988.398	410.69
988.759	377.08
989.12	393.18
989.481	376.23
989.842	391.77
990.203	383.86
990.564	354.48
990.924	372.84
991.285	1197.72
991.646	400.52
992.006	363.24
992.367	369.45
992.727	395.16
993.087	386.68
993.448	351.65
993.808	371.71
994.168	366.63
994.528	362.67
994.888	377.93
995.248	381.88
995.608	366.91
995.967	346
996.327	346
996.687	343.17
997.046	356.46
997.406	380.75
997.765	368.89
998.125	375.38
998.484	378.21
998.843	369.73
999.202	383.86
999.561	400.24
999.92	364.37
1000.279	393.18
1000.638	362.39
1000.997	365.21
1001.356	384.42
1001.715	357.3
1002.073	377.64
1002.432	397.98
1002.79	377.36
1003.149	390.36
1003.507	384.99
1003.865	364.65
1004.224	349.96
1004.582	372.28
1004.94	381.03
1005.298	393.46
1005.656	391.77
1006.014	362.95
1006.371	378.21
1006.729	359.56
1007.087	388.66
1007.445	389.23
1007.802	369.73
1008.16	394.03
1008.517	388.66
1008.874	368.6
1009.232	400.8
1009.589	419.16
1009.946	367.76
1010.303	396.57
1010.66	399.11
1011.017	372.56
1011.374	399.96
1011.731	394.03
1012.087	369.73
1012.444	389.51
1012.801	373.97
1013.157	360.98
1013.513	369.17
1013.87	384.14
1014.226	372.84
1014.582	392.05
1014.939	390.64
1015.295	369.17
1015.651	340.07
1016.007	362.95
1016.363	404.48
1016.719	392.61
1017.074	388.66
1017.43	366.63
1017.786	361.82
1018.141	353.91
1018.497	392.9
1018.852	386.68
1019.208	373.97
1019.563	375.67
1019.918	362.11
1020.273	353.35
1020.628	377.64
1020.983	384.42
1021.338	383.58
1021.693	375.1
1022.048	358.72
1022.403	374.25
1022.757	383.29
1023.112	358.43
1023.467	342.33
1023.821	365.5
1024.175	379.9
1024.53	375.67
1024.884	362.39
1025.238	382.45
1025.592	359
1025.946	365.21
1026.3	376.51
1026.654	368.89
1027.008	361.26
1027.362	371.99
1027.716	373.12
1028.069	403.06
1028.423	379.9
1028.777	382.73
1029.13	359.56
1029.483	352.78
1029.837	373.69
1030.19	362.95
1030.543	364.08
1030.896	347.7
1031.249	351.09
1031.602	377.64
1031.955	393.74
1032.308	380.75
1032.661	401.93
1033.013	367.47
1033.366	360.69
1033.719	408.99
1034.071	367.47
1034.424	373.12
1034.776	380.19
1035.128	381.32
1035.48	377.08
1035.833	374.54
1036.185	353.63
1036.537	353.63
1036.889	353.63
