Data from NOL_irradiation_FLMS019251_07-13-04-521.txt Node
Date: Wed Feb 20 07:13:04 PST 2019
User: mu3e
Spectrometer: FLMS01925
Trigger mode: 0
Integration Time (sec): 6.500000E-2
Scans to average: 10
Electric dark correction enabled: true
Nonlinearity correction enabled: true
Boxcar width: 0
XAxis mode: Wavelengths
Number of Pixels in Spectrum: 2048
>>>>>Begin Spectral Data<<<<<
187.103	-69.63
187.574	-69.63
188.045	-69.63
188.516	-124.5
188.987	-136.44
189.458	-144.41
189.929	-125.92
190.4	-112.27
190.871	-98.62
191.342	-81.57
191.813	-75.88
192.284	-61.39
192.754	-25.31
193.225	4.51
193.696	30.91
194.166	40.84
194.637	88.49
195.107	132.72
195.578	117.98
196.048	145.76
196.518	163.04
196.989	189.66
197.459	212.88
197.929	206.37
198.399	282.49
198.869	291.83
199.339	297.48
199.809	289.56
200.279	289
200.749	326.89
201.219	344.98
201.689	326.04
202.159	359.39
202.628	343.28
203.098	372.95
203.568	364.76
204.037	364.19
204.507	385.09
204.976	385.94
205.445	382.84
205.915	393.85
206.384	379.16
206.853	371.54
207.323	389.05
207.792	373.23
208.261	396.96
208.73	365.04
209.199	393.57
209.668	394.42
210.137	382.84
210.606	356.56
211.075	399.5
211.543	375.21
212.012	381.71
212.481	352.32
212.95	347.52
213.418	371.25
213.887	352.89
214.355	370.69
214.824	348.93
215.292	357.97
215.76	361.65
216.229	337.06
216.697	355.43
217.165	366.73
217.633	341.58
218.101	329.71
218.569	371.82
219.037	361.93
219.505	368.99
219.973	337.06
220.441	346.11
220.909	365.32
221.377	348.65
221.844	316.71
222.312	351.76
222.78	363.06
223.247	341.3
223.715	322.93
224.182	349.78
224.65	370.69
225.117	357.41
225.584	356
226.052	349.21
226.519	344.13
226.986	343.85
227.453	374.08
227.92	345.26
228.387	320.1
228.854	361.65
229.321	331.13
229.788	377.75
230.255	365.89
230.722	347.52
231.189	356.28
231.655	368.71
232.122	381.99
232.589	353.74
233.055	367.58
233.522	368.71
233.988	353.74
234.454	380.58
234.921	375.21
235.387	362.21
235.853	337.35
236.32	376.34
236.786	333.67
237.252	356.84
237.718	352.61
238.184	340.17
238.65	362.21
239.116	343.56
239.582	378.6
240.047	356
240.513	363.63
240.979	351.48
241.445	367.3
241.91	340.74
242.376	366.73
242.841	346.67
243.307	366.73
243.772	350.06
244.238	356.56
244.703	363.91
245.168	382.84
245.633	354.3
246.099	356.84
246.564	367.86
247.029	368.15
247.494	355.15
247.959	375.21
248.424	359.67
248.889	376.06
249.353	393.29
249.818	363.91
250.283	384.25
250.748	331.97
251.212	372.38
251.677	359.95
252.141	355.15
252.606	351.48
253.07	372.1
253.535	381.99
253.999	361.37
254.463	364.76
254.927	339.04
255.392	375.77
255.856	363.34
256.32	363.06
256.784	368.71
257.248	365.32
257.712	375.77
258.176	384.25
258.64	371.25
259.103	365.6
259.567	357.69
260.031	376.62
260.495	395.26
260.958	364.19
261.422	376.34
261.885	370.69
262.349	401.19
262.812	354.87
263.275	382.84
263.739	370.41
264.202	370.41
264.665	381.42
265.128	367.3
265.591	358.54
266.054	386.79
266.517	381.14
266.98	392.44
267.443	363.06
267.906	377.19
268.369	359.67
268.832	368.15
269.294	361.08
269.757	376.34
270.22	386.79
270.682	381.14
271.145	378.88
271.607	374.36
272.07	400.91
272.532	378.88
272.994	360.52
273.456	379.45
273.919	421.24
274.381	393
274.843	392.44
275.305	398.09
275.767	381.99
276.229	378.32
276.691	349.5
277.153	366.17
277.614	367.86
278.076	396.11
278.538	367.3
279	365.04
279.461	405.43
279.923	391.31
280.384	379.16
280.846	407.69
281.307	375.49
281.769	365.6
282.23	387.07
282.691	380.86
283.152	374.93
283.613	376.34
284.075	385.94
284.536	370.97
284.997	387.07
285.458	376.9
285.918	376.62
286.379	368.43
286.84	369.56
287.301	359.39
287.762	343.28
288.222	355.71
288.683	380.86
289.143	379.73
289.604	389.61
290.064	374.36
290.525	365.04
290.985	395.54
291.445	380.86
291.906	384.81
292.366	356.84
292.826	385.09
293.286	363.06
293.746	370.69
294.206	391.03
294.666	399.5
295.126	365.6
295.586	367.86
296.046	356
296.506	394.42
296.965	385.94
297.425	376.62
297.884	368.71
298.344	409.38
298.804	380.29
299.263	395.26
299.722	393.29
300.182	405.43
300.641	379.16
301.1	413.33
301.559	383.96
302.019	374.08
302.478	372.67
302.937	401.48
303.396	374.36
303.855	400.91
304.314	382.84
304.772	408.25
305.231	366.17
305.69	388.77
306.149	387.64
306.607	378.03
307.066	386.51
307.524	383.4
307.983	394.7
308.441	394.13
308.9	394.7
309.358	397.24
309.816	400.91
310.275	377.75
310.733	393.57
311.191	371.54
311.649	407.97
312.107	384.25
312.565	404.02
313.023	367.3
313.481	361.37
313.939	384.81
314.397	406.28
314.854	389.33
315.312	396.96
315.77	395.26
316.227	387.35
316.685	405.15
317.142	401.19
317.6	377.75
318.057	368.71
318.514	384.53
318.972	389.33
319.429	390.74
319.886	382.55
320.343	402.32
320.8	390.74
321.257	392.16
321.714	408.25
322.171	402.6
322.628	382.84
323.085	395.54
323.542	392.44
323.998	391.59
324.455	421.52
324.912	415.03
325.368	401.48
325.825	402.04
326.281	379.45
326.738	385.66
327.194	372.67
327.65	383.68
328.107	383.4
328.563	383.4
329.019	405.43
329.475	405.71
329.931	398.09
330.387	405.71
330.843	392.16
331.299	411.92
331.755	391.87
332.211	397.8
332.666	412.21
333.122	391.31
333.578	383.68
334.033	410.51
334.489	375.77
334.944	394.98
335.4	416.16
335.855	386.79
336.31	400.06
336.766	377.47
337.221	385.94
337.676	399.78
338.131	407.41
338.586	374.64
339.041	381.71
339.496	409.38
339.951	406.28
340.406	402.04
340.861	394.42
341.316	437.05
341.771	385.66
342.225	368.43
342.68	383.4
343.134	383.12
343.589	371.82
344.043	368.43
344.498	407.12
344.952	418.13
345.406	463.29
345.861	406.56
346.315	410.23
346.769	380.01
347.223	401.48
347.677	400.91
348.131	398.37
348.585	384.25
349.039	396.67
349.493	365.89
349.947	394.98
350.401	418.13
350.854	395.26
351.308	378.32
351.762	381.42
352.215	427.73
352.669	432.81
353.122	394.7
353.575	393.85
354.029	389.05
354.482	391.31
354.935	387.07
355.388	375.77
355.842	390.46
356.295	391.03
356.748	402.04
357.201	416.44
357.654	404.86
358.106	389.61
358.559	391.31
359.012	403.73
359.465	406.56
359.917	382.55
360.37	398.37
360.823	394.98
361.275	403.17
361.728	405.15
362.18	373.23
362.632	409.95
363.085	373.23
363.537	407.97
363.989	385.66
364.441	391.59
364.893	408.53
365.345	406.56
365.797	395.83
366.249	411.36
366.701	395.83
367.153	415.31
367.605	403.17
368.057	403.45
368.508	380.58
368.96	394.98
369.411	398.93
369.863	402.6
370.314	383.4
370.766	420.68
371.217	404.86
371.669	404.02
372.12	416.16
372.571	380.29
373.022	378.88
373.473	406.56
373.924	409.66
374.375	424.06
374.826	405.15
375.277	413.62
375.728	391.87
376.179	419.26
376.63	415.88
377.08	405.43
377.531	361.37
377.981	383.96
378.432	413.33
378.883	411.08
379.333	407.41
379.783	401.76
380.234	420.68
380.684	395.83
381.134	423.22
381.584	405.43
382.034	419.26
382.485	412.21
382.935	391.31
383.385	404.02
383.834	410.23
384.284	396.67
384.734	403.17
385.184	402.89
385.634	413.62
386.083	422.09
386.533	411.92
386.982	393.29
387.432	425.76
387.881	401.48
388.331	401.76
388.78	439.59
389.229	414.46
389.679	431.4
390.128	420.96
390.577	417.29
391.026	438.46
391.475	430.56
391.924	430.27
392.373	421.24
392.822	429.43
393.27	456.52
393.719	435.35
394.168	412.21
394.617	439.87
395.065	440.72
395.514	443.54
395.962	433.1
396.411	451.44
396.859	410.23
397.307	441
397.756	413.9
398.204	468.94
398.652	439.31
399.1	431.12
399.548	421.8
399.996	453.7
400.444	452.57
400.892	451.16
401.34	455.96
401.788	442.41
402.236	450.03
402.683	442.97
403.131	475.42
403.579	458.78
404.026	454.55
404.474	446.08
404.921	473.17
405.369	470.35
405.816	474.01
406.263	479.66
406.71	482.48
407.158	454.83
407.605	460.19
408.052	485.86
408.499	502.78
408.946	514.91
409.393	501.37
409.84	508.14
410.286	498.84
410.733	524.21
411.18	545.07
411.626	576.07
412.073	654.91
412.52	766.84
412.966	918.72
413.413	1134.92
413.859	1392.34
414.305	1761.34
414.752	2247.27
415.198	2698.51
415.644	3249.27
416.09	3956.97
416.536	4524.48
416.982	5266.13
417.428	5943.67
417.874	6752.39
418.32	7502.1
418.766	8204.88
419.211	9179.79
419.657	9956.18
420.103	10900.83
420.548	11676.81
420.994	12678.3
421.439	13662.87
421.885	14335.32
422.33	15641.05
422.776	16478.16
423.221	17320.56
423.666	18273.42
424.111	19426.14
424.556	20039.3
425.001	21241.35
425.446	22220.75
425.891	23303.84
426.336	23778.5
426.781	24716.57
427.226	26130.71
427.671	26631.67
428.115	26938.21
428.56	27934.25
429.005	28855.38
429.449	28837.79
429.894	29436.19
430.338	29876.33
430.782	29454.99
431.227	29912.21
431.671	29721.83
432.115	30022.03
432.559	30278.25
433.003	29440.1
433.447	29365.38
433.891	29075
434.335	28554.32
434.779	28455.33
435.223	27855.24
435.667	27178.24
436.111	26907.34
436.554	26184.18
436.998	25337.27
437.442	24703.53
437.885	25292.31
438.328	24020.45
438.772	23545.54
439.215	23344.54
439.659	22723.72
440.102	22598.46
440.545	21919.44
440.988	21469.57
441.431	21668.44
441.874	21127.82
442.317	21071.04
442.76	20524.21
443.203	20114.36
443.646	20313.87
444.089	20054.71
444.531	20150.39
444.974	19428.88
445.417	19951.55
445.859	19453.77
446.302	20072.11
446.744	19693.65
447.186	20220.21
447.629	19830.2
448.071	19765.04
448.513	19876.21
448.956	20447.73
449.398	20110.13
449.84	19641.16
450.282	19868.75
450.724	20243.07
451.166	20156.1
451.607	19999.53
452.049	20152.63
452.491	20686.79
452.933	20396.82
453.374	20618.29
453.816	20830.96
454.257	20640.13
454.699	21119.39
455.14	20921.5
455.582	20794.49
456.023	20723.77
456.464	20689.77
456.905	20902.9
457.347	20905.13
457.788	20212.01
458.229	20239.09
458.67	20616.8
459.111	19727.48
459.552	19674.99
459.992	19365.64
460.433	19187.59
460.874	18598.33
461.315	18873.88
461.755	18241.21
462.196	17904.26
462.636	17468.7
463.077	17192.4
463.517	17069.2
463.957	17015.85
464.398	16663.5
464.838	16512.28
465.278	15949.21
465.718	15860.51
466.158	15170.98
466.598	15155.62
467.038	14817.47
467.478	14787.97
467.918	14764.78
468.358	14241.87
468.798	13981.85
469.237	13794.2
469.677	13632.25
470.117	13683.37
470.556	12873.08
470.996	12901
471.435	12862.67
471.874	12926.38
472.314	12665.6
472.753	12356.98
473.192	12295.67
473.631	12076.49
474.07	12007.21
474.509	11966.19
474.948	11894.84
475.387	11760.98
475.826	11494.06
476.265	11831.36
476.704	11745.94
477.143	11743.39
477.581	11716.6
478.02	11832.38
478.458	11363.28
478.897	11552.78
479.335	11971.03
479.774	11695.94
480.212	11843.09
480.65	11801.79
481.089	11758.18
481.527	11589.28
481.965	11520.61
482.403	12030.39
482.841	11908.09
483.279	11948.86
483.717	11883.62
484.155	11872.91
484.592	11945.55
485.03	12040.07
485.468	11777.82
485.905	11807.39
486.343	11972.05
486.781	11818.1
487.218	11618.89
487.655	11606.89
488.093	11355.62
488.53	11713.29
488.967	11443.24
489.405	11348.98
489.842	11169.27
490.279	11127.33
490.716	11027.04
491.153	11115.31
491.59	10816.57
492.027	10618.19
492.463	10484.79
492.9	10288.38
493.337	10214.12
493.773	10225.95
494.21	9852.18
494.647	9846.26
495.083	9590.87
495.519	9326.84
495.956	9392.69
496.392	9093.16
496.828	9078.42
497.265	8768.96
497.701	8779.33
498.137	8660.57
498.573	8340.38
499.009	8411.86
499.445	8182.5
499.881	7938.7
500.316	7970.76
500.752	7684.8
501.188	7636.47
501.624	7568.52
502.059	7176.59
502.495	7169.24
502.93	7033.07
503.366	7129.64
503.801	6836.56
504.236	6750.29
504.672	6565.17
505.107	6478.17
505.542	6271.23
505.977	6246.39
506.412	6119.47
506.847	6103.07
507.282	5968.84
507.717	5909.75
508.152	5884.83
508.587	5750.87
509.021	5586.17
509.456	5522.61
509.891	5497.6
510.325	5466.2
510.76	5390.32
511.194	5247.2
511.628	5281.06
512.063	5113.22
512.497	5176.49
512.931	4977.46
513.366	4973.72
513.8	4943.49
514.234	4810.45
514.668	4801.88
515.102	4800.8
515.536	4691.71
515.969	4687.95
516.403	4606.38
516.837	4511.58
517.271	4584.37
517.704	4413.46
518.138	4386.55
518.571	4363.68
519.005	4268.64
519.438	4285.07
519.871	4219.87
520.305	4149.76
520.738	4146.8
521.171	4003.99
521.604	4094.72
522.037	4012.1
522.47	3975.35
522.903	3913.45
523.336	3858.81
523.769	3882.61
524.202	3701.19
524.634	3758.36
525.067	3694.41
525.5	3707.42
525.932	3640.18
526.365	3541.93
526.797	3527
527.23	3544.38
527.662	3375.59
528.094	3437.6
528.527	3370.42
528.959	3332.6
529.391	3249.54
529.823	3198.58
530.255	3163.68
530.687	3099.02
531.119	3027.48
531.551	3024.47
531.982	2965.72
532.414	2886.69
532.846	2859.87
533.277	2818.8
533.709	2768.13
534.14	2726.2
534.572	2692.2
535.003	2677.94
535.435	2645.29
535.866	2564.58
536.297	2484.06
536.728	2536.83
537.159	2451.34
537.59	2451.61
538.022	2399.06
538.452	2358.87
538.883	2330.5
539.314	2258.3
539.745	2221.07
540.176	2179.14
540.606	2102.11
541.037	2126.13
541.468	2099.62
541.898	2053.47
542.328	2013.94
542.759	2017.53
543.189	1953.35
543.619	1959.72
544.05	1899.37
544.48	1871.4
544.91	1861.42
545.34	1803.77
545.77	1778.54
546.2	1749.96
546.63	1781.31
547.06	1764.67
547.489	1731.09
547.919	1647.52
548.349	1676.4
548.778	1646.68
549.208	1622.51
549.637	1605.55
550.067	1571.91
550.496	1566.91
550.926	1545.21
551.355	1525.74
551.784	1487.89
552.213	1484.82
552.642	1436.65
553.071	1463.38
553.5	1439.15
553.929	1396.52
554.358	1393.46
554.787	1351.08
555.216	1380.08
555.645	1345.78
556.073	1291.93
556.502	1330.72
556.93	1297.24
557.359	1316.21
557.787	1286.07
558.216	1291.1
558.644	1239.17
559.072	1246.71
559.5	1248.38
559.929	1214.03
560.357	1218.78
560.785	1204.53
561.213	1193.91
561.641	1210.95
562.068	1192.23
562.496	1172.11
562.924	1158.13
563.352	1159.25
563.779	1185.81
564.207	1183.85
564.634	1137.16
565.062	1144.43
565.489	1122.34
565.917	1115.35
566.344	1153.1
566.771	1084.57
567.198	1087.09
567.625	1104.99
568.053	1081.49
568.48	1092.96
568.907	1056.58
569.333	1061.34
569.76	1045.1
570.187	1029.7
570.614	1046.78
571.04	2143.25
571.467	1033.9
571.894	999.17
572.32	975.35
572.747	996.37
573.173	934.98
573.599	979.55
574.026	922.09
574.452	943.12
574.878	913.39
575.304	911.15
575.73	888.43
576.156	866.54
576.582	892.35
577.008	858.96
577.434	888.99
577.86	855.31
578.285	836.22
578.711	858.4
579.137	801.96
579.562	825.83
579.988	807.3
580.413	804.49
580.838	821.06
581.264	803.93
581.689	767.12
582.114	782.58
582.539	919.28
582.964	777.24
583.39	766
583.814	747.45
584.239	748.85
584.664	749.14
585.089	752.51
585.514	752.51
585.939	724.96
586.363	713.71
586.788	709.49
587.212	702.74
587.637	709.77
588.061	708.65
588.485	667.86
588.91	670.95
589.334	668.98
589.758	658.01
590.182	659.7
590.606	648.16
591.03	657.45
591.454	650.69
591.878	660.26
592.302	666.17
592.726	656.88
593.15	629.58
593.573	642.25
593.997	627.33
594.42	633.52
594.844	632.68
595.267	596.35
595.691	596.92
596.114	609.03
596.537	604.52
596.96	605.36
597.384	612.97
597.807	601.42
598.23	583.96
598.653	566.21
599.076	574.1
599.499	589.03
599.921	605.93
600.344	574.94
600.767	576.07
601.189	591
601.612	577.48
602.034	569.31
602.457	563.39
602.879	594.38
603.302	584.24
603.724	582.83
604.146	611
604.568	573.82
604.991	564.8
605.413	561.98
605.835	580.86
606.257	575.51
606.678	549.02
607.1	549.86
607.522	563.67
607.944	560.86
608.365	563.95
608.787	571
609.209	545.36
609.63	510.96
610.051	557.47
610.473	556.06
610.894	532.95
611.315	555.22
611.737	533.8
612.158	517.45
612.579	545.36
613	553.25
613.421	512.65
613.842	514.35
614.263	529.85
614.683	515.76
615.104	522.24
615.525	528.72
615.945	520.27
616.366	510.68
616.787	520.83
617.207	506.17
617.627	521.39
618.048	531.54
618.468	513.78
618.888	518.01
619.308	519.14
619.728	494.89
620.148	516.32
620.568	507.3
620.988	502.5
621.408	495.73
621.828	485.58
622.248	478.81
622.668	500.25
623.087	458.21
623.507	495.17
623.926	504.19
624.346	488.12
624.765	480.78
625.185	492.07
625.604	473.17
626.023	450.31
626.442	462.16
626.861	501.09
627.28	458.21
627.699	450.59
628.118	484.73
628.537	468.37
628.956	473.73
629.375	484.73
629.794	458.21
630.212	464.14
630.631	452.29
631.049	441.56
631.468	468.94
631.886	472.89
632.305	454.55
632.723	452.01
633.141	437.33
633.559	467.81
633.978	462.45
634.396	452.29
634.814	456.8
635.232	438.46
635.65	446.93
636.067	446.08
636.485	445.8
636.903	462.45
637.321	446.36
637.738	464.99
638.156	424.35
638.573	398.93
638.991	451.44
639.408	473.45
639.825	426.89
640.243	434.23
640.66	412.21
641.077	417.85
641.494	410.79
641.911	437.89
642.328	427.17
642.745	431.97
643.162	424.06
643.579	430.84
643.995	450.59
644.412	442.13
644.829	443.26
645.245	444.67
645.662	412.49
646.078	437.05
646.495	437.61
646.911	417.57
647.327	436.48
647.743	455.96
648.159	441.85
648.576	417
648.992	420.11
649.408	436.48
649.824	456.8
650.239	445.23
650.655	448.9
651.071	426.32
651.487	416.16
651.902	424.06
652.318	422.93
652.733	429.71
653.149	437.33
653.564	416.44
653.979	411.36
654.395	396.96
654.81	407.12
655.225	418.7
655.64	420.68
656.055	438.46
656.47	420.96
656.885	398.65
657.3	414.18
657.715	431.4
658.13	415.59
658.544	387.35
658.959	407.12
659.374	415.03
659.788	445.23
660.202	397.24
660.617	442.13
661.031	405.71
661.445	434.51
661.86	411.92
662.274	448.9
662.688	404.86
663.102	403.17
663.516	399.78
663.93	415.59
664.344	384.81
664.758	422.65
665.171	394.7
665.585	396.11
665.999	429.43
666.412	394.98
666.826	430.84
667.239	396.67
667.653	411.64
668.066	407.41
668.479	410.79
668.892	421.24
669.306	420.68
669.719	396.11
670.132	415.88
670.545	420.39
670.958	398.65
671.37	395.26
671.783	389.61
672.196	401.48
672.609	393.85
673.021	394.98
673.434	412.21
673.846	398.09
674.259	407.97
674.671	429.43
675.084	371.25
675.496	413.9
675.908	426.32
676.32	405.71
676.732	416.72
677.144	433.1
677.556	400.06
677.968	398.93
678.38	412.21
678.792	429.99
679.204	399.78
679.615	424.63
680.027	398.09
680.439	420.11
680.85	399.22
681.262	418.13
681.673	418.42
682.084	412.77
682.496	391.03
682.907	417.29
683.318	406.84
683.729	404.3
684.14	394.7
684.551	411.08
684.962	393
685.373	376.9
685.784	389.33
686.194	415.31
686.605	388.77
687.016	387.92
687.426	404.02
687.837	397.24
688.247	398.65
688.657	421.52
689.068	422.37
689.478	398.93
689.888	420.39
690.298	403.73
690.708	392.72
691.118	384.81
691.528	389.33
691.938	400.63
692.348	400.91
692.758	401.48
693.168	401.76
693.577	445.51
693.987	418.7
694.396	411.08
694.806	367.02
695.215	387.92
695.625	418.7
696.034	398.09
696.443	372.95
696.852	385.94
697.262	384.25
697.671	398.37
698.08	418.98
698.489	382.27
698.897	397.24
699.306	404.02
699.715	385.38
700.124	397.24
700.532	360.8
700.941	392.16
701.35	418.42
701.758	393.57
702.166	385.38
702.575	398.93
702.983	391.31
703.391	391.87
703.799	369.56
704.208	384.53
704.616	393
705.024	389.33
705.432	412.77
705.839	383.68
706.247	380.01
706.655	407.97
707.063	425.19
707.47	399.78
707.878	392.16
708.285	383.96
708.693	394.13
709.1	388.2
709.508	402.04
709.915	376.34
710.322	410.51
710.729	411.92
711.136	390.46
711.543	400.35
711.95	403.45
712.357	407.12
712.764	414.18
713.171	402.32
713.578	391.59
713.984	402.32
714.391	405.71
714.797	395.83
715.204	410.51
715.61	412.77
716.017	390.18
716.423	413.62
716.829	385.94
717.236	406.84
717.642	406.28
718.048	407.41
718.454	389.9
718.86	408.82
719.266	410.51
719.671	385.09
720.077	385.38
720.483	400.63
720.889	415.88
721.294	376.62
721.7	397.52
722.105	418.7
722.511	395.26
722.916	404.58
723.321	405.15
723.726	405.99
724.132	393
724.537	401.48
724.942	385.94
725.347	420.68
725.752	384.53
726.156	396.39
726.561	415.88
726.966	418.7
727.371	396.67
727.775	393.57
728.18	403.17
728.584	394.13
728.989	400.91
729.393	395.83
729.798	388.48
730.202	404.86
730.606	397.52
731.01	420.96
731.414	385.94
731.818	381.71
732.222	387.64
732.626	393.29
733.03	395.83
733.434	384.53
733.837	403.73
734.241	385.94
734.645	389.9
735.048	401.48
735.452	426.32
735.855	395.83
736.258	369.28
736.662	426.32
737.065	411.64
737.468	377.75
737.871	380.86
738.274	398.93
738.677	384.25
739.08	384.81
739.483	408.53
739.886	413.33
740.289	393
740.691	367.3
741.094	394.42
741.497	393.29
741.899	389.9
742.302	387.92
742.704	380.01
743.106	389.05
743.508	395.83
743.911	388.2
744.313	385.66
744.715	375.49
745.117	414.75
745.519	386.51
745.921	404.58
746.323	379.73
746.724	393.57
747.126	400.35
747.528	400.91
747.929	402.32
748.331	389.33
748.732	397.52
749.134	407.69
749.535	428.86
749.936	441
750.338	415.03
750.739	407.41
751.14	362.5
751.541	367.58
751.942	389.61
752.343	367.86
752.744	398.09
753.144	384.25
753.545	379.73
753.946	410.79
754.346	399.22
754.747	390.74
755.148	385.94
755.548	379.45
755.948	389.61
756.349	372.1
756.749	400.35
757.149	391.87
757.549	388.77
757.949	392.44
758.349	379.73
758.749	397.24
759.149	379.16
759.549	381.99
759.949	410.79
760.348	396.67
760.748	392.44
761.148	370.41
761.547	385.94
761.947	363.63
762.346	409.66
762.745	372.67
763.145	409.95
763.544	388.48
763.943	387.07
764.342	387.07
764.741	396.67
765.14	391.87
765.539	365.6
765.938	409.66
766.336	370.41
766.735	368.43
767.134	410.51
767.532	396.67
767.931	379.45
768.329	415.88
768.728	396.67
769.126	391.03
769.525	389.05
769.923	374.36
770.321	368.99
770.719	405.71
771.117	387.35
771.515	399.78
771.913	391.59
772.311	392.44
772.709	382.27
773.106	381.14
773.504	428.58
773.902	380.01
774.299	381.42
774.697	413.05
775.094	407.97
775.491	364.47
775.889	408.82
776.286	391.87
776.683	377.75
777.08	417.85
777.477	380.29
777.874	403.17
778.271	394.13
778.668	383.96
779.065	362.21
779.462	396.39
779.858	390.46
780.255	387.35
780.652	380.29
781.048	385.94
781.444	387.07
781.841	398.65
782.237	405.15
782.633	353.74
783.03	367.02
783.426	376.06
783.822	380.58
784.218	384.81
784.614	416.72
785.01	364.19
785.405	393
785.801	375.21
786.197	382.84
786.593	377.47
786.988	370.12
787.384	400.91
787.779	401.48
788.174	382.55
788.57	391.31
788.965	391.87
789.36	369.84
789.755	385.38
790.15	378.88
790.545	382.84
790.94	371.82
791.335	378.03
791.73	332.26
792.125	390.74
792.52	421.8
792.914	396.39
793.309	411.92
793.703	406.28
794.098	402.04
794.492	400.91
794.887	348.08
795.281	391.31
795.675	361.65
796.069	378.6
796.463	376.62
796.857	402.32
797.251	416.44
797.645	384.25
798.039	402.04
798.433	408.25
798.826	388.77
799.22	391.03
799.614	389.9
800.007	383.96
800.401	369.28
800.794	380.01
801.187	386.22
801.581	368.71
801.974	394.13
802.367	391.87
802.76	393.85
803.153	344.41
803.546	376.34
803.939	393.85
804.332	400.35
804.725	383.68
805.117	401.19
805.51	385.94
805.903	393.29
806.295	380.58
806.688	377.19
807.08	388.48
807.472	397.24
807.865	391.87
808.257	395.26
808.649	383.96
809.041	382.27
809.433	371.54
809.825	414.75
810.217	373.51
810.609	394.42
811.001	381.42
811.392	391.31
811.784	423.78
812.175	395.26
812.567	393.85
812.958	380.86
813.35	365.04
813.741	409.66
814.132	388.48
814.524	380.86
814.915	388.48
815.306	364.76
815.697	392.44
816.088	350.06
816.479	398.37
816.87	385.94
817.26	399.22
817.651	394.42
818.042	388.2
818.432	365.89
818.823	365.32
819.213	395.26
819.604	390.46
819.994	390.18
820.384	424.35
820.775	373.23
821.165	380.58
821.555	394.98
821.945	364.76
822.335	398.37
822.725	405.99
823.114	387.07
823.504	352.32
823.894	376.34
824.284	395.26
824.673	397.8
825.063	392.44
825.452	391.31
825.842	390.46
826.231	414.18
826.62	387.07
827.009	385.38
827.399	383.4
827.788	372.1
828.177	377.75
828.566	375.77
828.954	389.61
829.343	403.17
829.732	367.3
830.121	415.88
830.509	409.66
830.898	387.35
831.286	405.43
831.675	381.14
832.063	407.69
832.452	361.37
832.84	379.45
833.228	363.06
833.616	377.19
834.004	400.06
834.392	378.6
834.78	381.14
835.168	377.19
835.556	390.46
835.944	377.19
836.331	403.73
836.719	379.45
837.107	383.4
837.494	405.71
837.881	358.82
838.269	401.76
838.656	408.25
839.043	382.27
839.431	375.49
839.818	373.23
840.205	408.25
840.592	392.16
840.979	386.51
841.366	359.95
841.752	357.69
842.139	389.9
842.526	370.41
842.912	356.84
843.299	379.73
843.685	382.84
844.072	372.95
844.458	381.42
844.844	394.42
845.231	390.18
845.617	378.03
846.003	408.82
846.389	374.36
846.775	357.97
847.161	396.39
847.547	375.49
847.933	364.76
848.318	395.54
848.704	401.19
849.09	393.57
849.475	383.96
849.861	382.27
850.246	360.52
850.631	415.88
851.017	371.54
851.402	399.22
851.787	372.38
852.172	387.07
852.557	379.45
852.942	420.96
853.327	381.71
853.712	400.35
854.097	401.76
854.481	413.9
854.866	381.42
855.25	396.39
855.635	356.56
856.019	375.21
856.404	365.04
856.788	394.13
857.172	357.41
857.557	409.66
857.941	391.87
858.325	387.35
858.709	395.83
859.093	373.23
859.477	409.1
859.86	395.83
860.244	404.58
860.628	397.52
861.012	394.42
861.395	392.72
861.779	383.4
862.162	383.12
862.545	356.56
862.929	395.54
863.312	380.58
863.695	368.15
864.078	390.18
864.461	392.72
864.844	370.41
865.227	406.56
865.61	387.92
865.993	387.07
866.376	370.69
866.758	397.24
867.141	378.88
867.523	380.29
867.906	383.4
868.288	375.77
868.671	380.58
869.053	390.18
869.435	401.48
869.817	348.08
870.199	388.2
870.581	356.56
870.963	395.54
871.345	377.19
871.727	382.27
872.109	396.96
872.491	376.62
872.872	378.32
873.254	405.71
873.635	371.25
874.017	403.73
874.398	402.04
874.779	391.87
875.161	403.17
875.542	384.53
875.923	375.77
876.304	389.61
876.685	371.54
877.066	397.52
877.447	375.77
877.828	403.73
878.208	374.93
878.589	374.36
878.97	386.79
879.35	400.63
879.731	402.04
880.111	406.56
880.491	388.48
880.872	404.02
881.252	368.99
881.632	358.54
882.012	376.06
882.392	404.02
882.772	393.57
883.152	391.31
883.532	389.33
883.912	376.9
884.291	394.7
884.671	352.04
885.051	372.95
885.43	395.26
885.81	381.71
886.189	372.95
886.568	364.47
886.948	391.31
887.327	373.51
887.706	377.75
888.085	402.89
888.464	390.46
888.843	375.49
889.222	393.57
889.601	411.64
889.979	358.82
890.358	384.53
890.737	401.19
891.115	395.54
891.494	396.67
891.872	359.95
892.25	370.97
892.629	389.9
893.007	407.41
893.385	367.3
893.763	371.82
894.141	397.52
894.519	373.51
894.897	408.25
895.275	385.38
895.653	394.98
896.03	381.14
896.408	359.67
896.786	394.42
897.163	387.64
897.541	368.15
897.918	379.45
898.295	364.76
898.673	371.82
899.05	374.93
899.427	393.85
899.804	361.37
900.181	379.73
900.558	399.78
900.935	392.72
901.312	372.38
901.688	369.84
902.065	378.03
902.442	412.77
902.818	387.07
903.195	363.06
903.571	365.89
903.947	403.45
904.324	374.64
904.7	393
905.076	368.99
905.452	389.05
905.828	383.68
906.204	380.58
906.58	404.3
906.956	388.48
907.331	394.42
907.707	378.88
908.083	389.05
908.458	361.93
908.834	392.44
909.209	397.52
909.585	389.9
909.96	383.68
910.335	384.81
910.71	378.32
911.086	387.92
911.461	381.14
911.836	368.43
912.21	373.51
912.585	402.04
912.96	363.91
913.335	375.21
913.709	383.96
914.084	395.83
914.459	376.62
914.833	385.38
915.207	406.56
915.582	392.44
915.956	386.51
916.33	374.64
916.704	380.01
917.078	391.59
917.452	379.73
917.826	394.7
918.2	387.35
918.574	377.19
918.948	385.09
919.321	399.78
919.695	385.09
920.068	404.3
920.442	400.35
920.815	390.46
921.189	357.69
921.562	401.19
921.935	393.85
922.308	384.53
922.681	381.71
923.054	376.06
923.427	372.38
923.8	394.98
924.173	384.81
924.546	369.84
924.919	393.85
925.291	415.31
925.664	365.6
926.036	385.38
926.409	390.18
926.781	387.92
927.153	379.16
927.526	380.86
927.898	354.3
928.27	381.42
928.642	356
929.014	383.4
929.386	391.87
929.758	365.89
930.129	380.29
930.501	389.61
930.873	367.02
931.244	386.79
931.616	383.4
931.987	394.13
932.359	372.1
932.73	384.53
933.101	396.11
933.472	387.64
933.843	382.27
934.214	384.81
934.585	371.54
934.956	373.23
935.327	422.65
935.698	373.23
936.069	401.48
936.439	415.31
936.81	363.34
937.18	404.3
937.551	364.19
937.921	385.66
938.292	380.58
938.662	394.98
939.032	392.16
939.402	380.58
939.772	375.77
940.142	378.6
940.512	378.03
940.882	404.58
941.252	361.37
941.621	369.84
941.991	391.03
942.361	405.71
942.73	363.06
943.1	376.34
943.469	363.34
943.838	387.07
944.208	398.37
944.577	348.08
944.946	381.71
945.315	380.29
945.684	358.54
946.053	377.19
946.422	365.6
946.791	381.14
947.159	391.31
947.528	378.03
947.897	379.16
948.265	368.43
948.634	403.17
949.002	370.69
949.371	346.11
949.739	383.4
950.107	368.99
950.475	373.8
950.843	384.25
951.211	389.33
951.579	365.6
951.947	354.02
952.315	378.6
952.683	401.19
953.05	374.36
953.418	374.08
953.785	399.78
954.153	397.24
954.52	368.43
954.888	381.42
955.255	359.95
955.622	392.16
955.989	370.97
956.356	380.58
956.723	345.54
957.09	402.32
957.457	381.14
957.824	372.95
958.191	400.63
958.557	358.82
958.924	397.52
959.291	352.61
959.657	370.97
960.023	402.04
960.39	359.95
960.756	375.77
961.122	386.51
961.488	370.69
961.855	382.27
962.221	395.83
962.586	366.73
962.952	387.92
963.318	379.16
963.684	390.46
964.05	389.61
964.415	391.87
964.781	381.71
965.146	395.83
965.512	395.54
965.877	378.88
966.242	374.64
966.608	363.06
966.973	390.18
967.338	356
967.703	365.89
968.068	362.21
968.433	376.34
968.797	390.74
969.162	394.13
969.527	363.34
969.891	379.45
970.256	369.28
970.62	378.6
970.985	388.77
971.349	401.48
971.714	383.68
972.078	395.54
972.442	361.93
972.806	365.32
973.17	363.91
973.534	401.48
973.898	381.42
974.262	367.02
974.625	373.23
974.989	367.86
975.353	406.84
975.716	384.25
976.08	384.53
976.443	406.28
976.806	387.07
977.17	372.1
977.533	359.39
977.896	371.25
978.259	381.99
978.622	383.12
978.985	393
979.348	393.85
979.711	402.32
980.073	385.38
980.436	385.94
980.799	380.58
981.161	407.97
981.524	374.64
981.886	356.84
982.248	392.44
982.611	368.43
982.973	383.68
983.335	372.67
983.697	365.89
984.059	376.62
984.421	387.07
984.783	356
985.145	379.73
985.506	385.38
985.868	384.81
986.23	386.22
986.591	365.04
986.953	396.39
987.314	394.42
987.675	378.03
988.037	1095.76
988.398	385.94
988.759	382.27
989.12	364.47
989.481	374.08
989.842	372.38
990.203	393
990.564	422.65
990.924	390.74
991.285	1131.85
991.646	375.49
992.006	381.14
992.367	399.78
992.727	377.19
993.087	369.28
993.448	372.95
993.808	374.08
994.168	402.6
994.528	348.65
994.888	380.01
995.248	401.48
995.608	388.2
995.967	400.63
996.327	376.34
996.687	367.58
997.046	378.32
997.406	385.38
997.765	396.39
998.125	370.97
998.484	397.8
998.843	403.17
999.202	389.05
999.561	356.28
999.92	394.98
1000.279	382.84
1000.638	395.54
1000.997	384.25
1001.356	390.74
1001.715	376.06
1002.073	367.3
1002.432	362.78
1002.79	383.96
1003.149	369.56
1003.507	392.16
1003.865	382.84
1004.224	371.54
1004.582	412.21
1004.94	386.79
1005.298	375.21
1005.656	377.47
1006.014	359.39
1006.371	393.85
1006.729	367.86
1007.087	400.06
1007.445	357.97
1007.802	408.82
1008.16	375.21
1008.517	346.11
1008.874	359.39
1009.232	383.12
1009.589	396.96
1009.946	382.55
1010.303	401.48
1010.66	371.25
1011.017	386.51
1011.374	388.2
1011.731	378.03
1012.087	383.4
1012.444	390.74
1012.801	372.38
1013.157	392.44
1013.513	395.83
1013.87	374.36
1014.226	390.46
1014.582	363.34
1014.939	364.47
1015.295	357.41
1015.651	368.71
1016.007	394.42
1016.363	369.56
1016.719	379.45
1017.074	372.38
1017.43	370.69
1017.786	381.42
1018.141	364.76
1018.497	371.54
1018.852	388.2
1019.208	378.88
1019.563	400.63
1019.918	373.8
1020.273	388.48
1020.628	379.73
1020.983	400.63
1021.338	394.98
1021.693	360.8
1022.048	365.89
1022.403	367.58
1022.757	374.93
1023.112	387.92
1023.467	364.76
1023.821	394.42
1024.175	380.58
1024.53	421.52
1024.884	391.03
1025.238	360.52
1025.592	382.84
1025.946	378.32
1026.3	374.93
1026.654	385.38
1027.008	378.03
1027.362	365.89
1027.716	356.84
1028.069	375.21
1028.423	388.77
1028.777	359.67
1029.13	365.32
1029.483	364.76
1029.837	412.21
1030.19	372.1
1030.543	363.91
1030.896	371.82
1031.249	379.73
1031.602	373.23
1031.955	396.67
1032.308	401.48
1032.661	385.94
1033.013	362.5
1033.366	381.14
1033.719	378.88
1034.071	381.71
1034.424	397.52
1034.776	378.88
1035.128	343.56
1035.48	370.41
1035.833	376.9
1036.185	369.84
1036.537	369.84
1036.889	369.84
