Data from NOL_irradiation_FLMS019251_07-28-04-680.txt Node
Date: Wed Feb 20 07:28:04 PST 2019
User: mu3e
Spectrometer: FLMS01925
Trigger mode: 0
Integration Time (sec): 6.500000E-2
Scans to average: 10
Electric dark correction enabled: true
Nonlinearity correction enabled: true
Boxcar width: 0
XAxis mode: Wavelengths
Number of Pixels in Spectrum: 2048
>>>>>Begin Spectral Data<<<<<
187.103	-70.29
187.574	-70.29
188.045	-70.29
188.516	-129.99
188.987	-122.6
189.458	-96.72
189.929	-133.97
190.4	-102.98
190.871	-93.88
191.342	-85.63
191.813	-72.56
192.284	-43.29
192.754	-31.08
193.225	3.28
193.696	30.82
194.166	39.61
194.637	73.09
195.107	91.81
195.578	124.98
196.048	142.27
196.518	153.32
196.989	163.52
197.459	211.1
197.929	199.49
198.399	252.7
198.869	279.58
199.339	296.26
199.809	290.33
200.279	324.25
200.749	322.84
201.219	332.17
201.689	359.3
202.159	356.76
202.628	345.74
203.098	342.34
203.568	375.4
204.037	396.3
204.507	394.04
204.976	392.07
205.445	392.91
205.915	388.96
206.384	399.97
206.853	388.96
207.323	381.33
207.792	375.4
208.261	377.66
208.73	374.27
209.199	388.68
209.668	365.51
210.137	388.4
210.606	362.69
211.075	357.6
211.543	387.55
212.012	363.25
212.481	353.08
212.95	325.95
213.418	370.6
213.887	379.07
214.355	348.28
214.824	365.8
215.292	360.15
215.76	351.39
216.229	374.56
216.697	357.04
217.165	355.34
217.633	348.28
218.101	327.93
218.569	380.2
219.037	357.89
219.505	362.97
219.973	351.1
220.441	342.91
220.909	345.74
221.377	322.56
221.844	350.54
222.312	366.64
222.78	340.08
223.247	346.87
223.715	332.73
224.182	348
224.65	321.15
225.117	345.45
225.584	352.8
226.052	326.23
226.519	340.93
226.986	344.32
227.453	348.56
227.92	329.63
228.387	364.67
228.854	337.26
229.321	346.87
229.788	346.3
230.255	327.36
230.722	347.71
231.189	335.84
231.655	351.1
232.122	349.41
232.589	355.34
233.055	364.38
233.522	353.37
233.988	357.6
234.454	344.6
234.921	371.45
235.387	375.4
235.853	348.28
236.32	344.04
236.786	346.3
237.252	367.21
237.718	365.23
238.184	349.69
238.65	334.43
239.116	328.21
239.582	359.58
240.047	351.67
240.513	400.82
240.979	364.1
241.445	357.89
241.91	380.2
242.376	362.12
242.841	335.84
243.307	351.1
243.772	362.12
244.238	359.86
244.703	357.04
245.168	386.98
245.633	372.58
246.099	377.1
246.564	365.8
247.029	365.8
247.494	339.24
247.959	364.1
248.424	353.08
248.889	358.73
249.353	404.78
249.818	377.1
250.283	375.97
250.748	350.54
251.212	355.34
251.677	366.64
252.141	357.89
252.606	364.67
253.07	357.6
253.535	358.45
253.999	346.87
254.463	381.62
254.927	358.45
255.392	386.98
255.856	374.84
256.32	366.36
256.784	360.71
257.248	359.86
257.712	359.86
258.176	378.51
258.64	371.45
259.103	352.8
259.567	356.47
260.031	357.89
260.495	391.22
260.958	360.43
261.422	370.88
261.885	372.01
262.349	374.56
262.812	349.41
263.275	371.73
263.739	367.21
264.202	373.14
264.665	383.31
265.128	366.64
265.591	364.38
266.054	342.34
266.517	364.38
266.98	384.44
267.443	366.36
267.906	370.32
268.369	390.66
268.832	391.22
269.294	361.28
269.757	359.86
270.22	368.91
270.682	339.52
271.145	379.07
271.607	381.9
272.07	412.4
272.532	364.38
272.994	374.56
273.456	402.52
273.919	398.28
274.381	382.46
274.843	382.75
275.305	392.07
275.767	367.49
276.229	357.89
276.691	375.69
277.153	368.62
277.614	394.61
278.076	406.47
278.538	372.86
279	386.42
279.461	363.25
279.923	383.88
280.384	401.95
280.846	381.62
281.307	402.23
281.769	388.68
282.23	392.07
282.691	409.01
283.152	370.6
283.613	370.32
284.075	390.94
284.536	398.85
284.997	385.85
285.458	403.36
285.918	367.49
286.379	365.51
286.84	392.07
287.301	368.34
287.762	376.81
288.222	420.02
288.683	360.15
289.143	367.49
289.604	382.75
290.064	357.89
290.525	388.96
290.985	412.12
291.445	385.01
291.906	360.15
292.366	374.27
292.826	365.51
293.286	381.9
293.746	398
294.206	385.29
294.666	375.69
295.126	379.92
295.586	386.42
296.046	366.36
296.506	374.56
296.965	367.77
297.425	372.58
297.884	405.06
298.344	390.09
298.804	403.08
299.263	352.8
299.722	377.38
300.182	393.76
300.641	415.22
301.1	386.98
301.559	372.86
302.019	380.2
302.478	381.33
302.937	388.96
303.396	382.75
303.855	398.28
304.314	376.81
304.772	407.88
305.231	400.54
305.69	349.69
306.149	390.09
306.607	384.44
307.066	357.6
307.524	396.02
307.983	402.8
308.441	386.7
308.9	390.37
309.358	383.31
309.816	385.57
310.275	366.36
310.733	407.6
311.191	397.15
311.649	388.11
312.107	388.11
312.565	390.37
313.023	377.1
313.481	389.53
313.939	385.29
314.397	370.88
314.854	392.91
315.312	375.69
315.77	381.9
316.227	368.06
316.685	364.67
317.142	386.42
317.6	372.01
318.057	400.82
318.514	392.91
318.972	392.07
319.429	405.91
319.886	404.49
320.343	407.03
320.8	390.37
321.257	375.97
321.714	397.43
322.171	378.79
322.628	379.07
323.085	400.82
323.542	390.66
323.998	393.2
324.455	383.03
324.912	409.58
325.368	363.82
325.825	406.47
326.281	358.73
326.738	370.32
327.194	392.07
327.65	397.72
328.107	379.07
328.563	379.92
329.019	400.26
329.475	375.12
329.931	401.39
330.387	429.06
330.843	386.7
331.299	394.61
331.755	362.12
332.211	395.17
332.666	399.13
333.122	398.85
333.578	409.01
334.033	396.02
334.489	383.31
334.944	424.54
335.4	395.46
335.855	401.39
336.31	389.24
336.766	394.61
337.221	387.27
337.676	402.8
338.131	401.39
338.586	388.96
339.041	416.07
339.496	397.72
339.951	415.79
340.406	379.07
340.861	375.97
341.316	391.5
341.771	409.29
342.225	385.29
342.68	372.86
343.134	392.07
343.589	411.55
344.043	421.15
344.498	401.95
344.952	394.61
345.406	421.43
345.861	383.59
346.315	392.35
346.769	419.46
347.223	410.14
347.677	386.98
348.131	422.56
348.585	379.64
349.039	370.88
349.493	374.84
349.947	395.74
350.401	407.6
350.854	399.13
351.308	389.81
351.762	398
352.215	401.95
352.669	414.66
353.122	409.29
353.575	382.75
354.029	388.96
354.482	410.42
354.935	375.69
355.388	397.43
355.842	388.4
356.295	411.83
356.748	429.62
357.201	432.16
357.654	398.56
358.106	400.82
358.559	401.1
359.012	388.96
359.465	381.05
359.917	388.4
360.37	409.01
360.823	398.28
361.275	409.86
361.728	401.67
362.18	393.76
362.632	424.26
363.085	393.76
363.537	402.8
363.989	378.79
364.441	383.03
364.893	401.39
365.345	404.49
365.797	413.53
366.249	388.11
366.701	380.2
367.153	413.25
367.605	394.61
368.057	409.01
368.508	401.67
368.96	410.14
369.411	407.88
369.863	415.51
370.314	393.48
370.766	404.78
371.217	369.47
371.669	398.28
372.12	405.06
372.571	390.09
373.022	398.28
373.473	394.89
373.924	396.87
374.375	420.3
374.826	398.56
375.277	406.47
375.728	414.09
376.179	407.03
376.63	398.85
377.08	376.53
377.531	405.91
377.981	408.45
378.432	387.83
378.883	404.21
379.333	419.74
379.783	396.87
380.234	391.22
380.684	387.27
381.134	391.22
381.584	407.03
382.034	392.35
382.485	393.48
382.935	403.93
383.385	425.95
383.834	407.88
384.284	419.74
384.734	408.73
385.184	382.46
385.634	396.02
386.083	413.53
386.533	398
386.982	383.31
387.432	428.77
387.881	425.39
388.331	403.36
388.78	434.98
389.229	398.28
389.679	397.72
390.128	389.81
390.577	402.52
391.026	415.79
391.475	394.33
391.924	372.86
392.373	406.75
392.822	410.99
393.27	425.1
393.719	445.43
394.168	428.77
394.617	436.4
395.065	437.24
395.514	454.18
395.962	418.33
396.411	431.31
396.859	447.68
397.307	441.76
397.756	433.57
398.204	448.25
398.652	433.85
399.1	438.94
399.548	417.48
399.996	441.76
400.444	443.17
400.892	469.41
401.34	447.97
401.788	444.86
402.236	443.45
402.683	439.78
403.131	436.96
403.579	475.9
404.026	458.97
404.474	442.89
404.921	458.97
405.369	457
405.816	460.38
406.263	459.54
406.71	457.28
407.158	479.85
407.605	479.57
408.052	515.67
408.499	496.49
408.946	503.54
409.393	500.16
409.84	498.18
410.286	493.95
410.733	525.82
411.18	528.07
411.626	572.6
412.073	638.5
412.52	777.71
412.966	895.35
413.413	1135.96
413.859	1403.12
414.305	1743.22
414.752	2154.21
415.198	2642.73
415.644	3232.56
416.09	3897.68
416.536	4481.4
416.982	5152.65
417.428	5808.37
417.874	6606.72
418.32	7341.07
418.766	8078.02
419.211	8986.73
419.657	9747.78
420.103	10629.9
420.548	11349.92
420.994	12379.03
421.439	13198.48
421.885	13962.3
422.33	15201.88
422.776	16041.58
423.221	16826.61
423.666	17657.71
424.111	18866.07
424.556	19438.51
425.001	20581.48
425.446	21543.06
425.891	22516.1
426.336	22905.41
426.781	23908.04
427.226	25434.23
427.671	25614.74
428.115	26018.75
428.56	26946.95
429.005	27912.9
429.449	27763.91
429.894	28367.01
430.338	28837.96
430.782	28285.11
431.227	28946.67
431.671	28658.85
432.115	29019.96
432.559	29145.02
433.003	28380.21
433.447	28444.01
433.891	28048.16
434.335	27568.39
434.779	27437.69
435.223	26813.67
435.667	26191.71
436.111	26042.06
436.554	25241.86
436.998	24430.09
437.442	23873.3
437.885	24303.08
438.328	23152.01
438.772	22858.49
439.215	22500.53
439.659	21934.71
440.102	21736.95
440.545	20990.87
440.988	20705.33
441.431	20935.81
441.874	20371.41
442.317	20264.35
442.76	19865.69
443.203	19391.21
443.646	19480.07
444.089	19206.94
444.531	19373.53
444.974	18794.27
445.417	19302.07
445.859	18936.86
446.302	19219.64
446.744	18962.53
447.186	19506.71
447.629	19083.88
448.071	19053.73
448.513	19162.35
448.956	19694.07
449.398	19399.42
449.84	18934.12
450.282	19214.66
450.724	19516.16
451.166	19362.83
451.607	19410.87
452.049	19442.74
452.491	19845.05
452.933	19701.04
453.374	19952.71
453.816	20130.43
454.257	19894.78
454.699	20446.41
455.14	20224.11
455.582	20034.99
456.023	19982.79
456.464	19929.59
456.905	20190.81
457.347	20188.08
457.788	19574.15
458.229	19573.4
458.67	19863.95
459.111	18888.26
459.552	18995.43
459.992	18613.97
460.433	18422.61
460.874	17812.21
461.315	18093.3
461.755	17683.21
462.196	17306.72
462.636	16807.31
463.077	16668.44
463.517	16450.24
463.957	16363.68
464.398	16090.55
464.838	15867.47
465.278	15317.94
465.718	15166.37
466.158	14682.74
466.598	14749.82
467.038	14346.85
467.478	14275.89
467.918	14293.57
468.358	13721.51
468.798	13534.19
469.237	13379.44
469.677	13162.47
470.117	13265.4
470.556	12343.67
470.996	12405.48
471.435	12384.12
471.874	12451.51
472.314	12135.75
472.753	11909.79
473.192	11824.4
473.631	11662.95
474.07	11623.14
474.509	11558.83
474.948	11580.78
475.387	11333.57
475.826	11044.87
476.265	11389.78
476.704	11307.75
477.143	11376.23
477.581	11262.77
478.02	11419.15
478.458	11058.43
478.897	11217.78
479.335	11503.17
479.774	11325.9
480.212	11375.21
480.65	11360.14
481.089	11282.96
481.527	11099.11
481.965	11092.46
482.403	11585.88
482.841	11589.46
483.279	11521.04
483.717	11511.6
484.155	11448.52
484.592	11502.92
485.03	11609.62
485.468	11370.36
485.905	11466.15
486.343	11521.55
486.781	11251.52
487.218	11265.07
487.655	11216.75
488.093	10990.87
488.53	11311.84
488.967	11062.01
489.405	10984.98
489.842	10766.78
490.279	10727.32
490.716	10648.36
491.153	10692.46
491.59	10502.42
492.027	10329.65
492.463	10180.89
492.9	9970.51
493.337	9831.5
493.773	9869.87
494.21	9582.54
494.647	9446.57
495.083	9250.8
495.519	9153.6
495.956	9039.01
496.392	8839.11
496.828	8663.86
497.265	8468.67
497.701	8478.54
498.137	8322.1
498.573	8083.75
499.009	8138.95
499.445	7854.12
499.881	7753.65
500.316	7772.19
500.752	7480.57
501.188	7355.21
501.624	7274.27
502.059	6962.88
502.495	6911.65
502.93	6807.81
503.366	6881.95
503.801	6596.97
504.236	6499.71
504.672	6388.12
505.107	6285.94
505.542	6073.35
505.977	6081.29
506.412	5978.03
506.847	5934.84
507.282	5750.25
507.717	5682.28
508.152	5650.93
508.587	5560.56
509.021	5400.63
509.456	5320.97
509.891	5324.43
510.325	5317.77
510.76	5196.16
511.194	5101.12
511.628	5093.37
512.063	4897.12
512.497	5009.46
512.931	4843.84
513.366	4818.67
513.8	4820.81
514.234	4634.48
514.668	4629.65
515.102	4658.36
515.536	4524.39
515.969	4552.06
516.403	4461.51
516.837	4397.5
517.271	4411.49
517.704	4291.18
518.138	4296.56
518.571	4234.33
519.005	4192.02
519.438	4171.79
519.871	4092.48
520.305	4025.25
520.738	4026.06
521.171	3885.51
521.604	3962.84
522.037	3904.98
522.47	3885.51
522.903	3809.19
523.336	3764.78
523.769	3724.68
524.202	3611.34
524.634	3678.33
525.067	3606.18
525.5	3535.88
525.932	3553.25
526.365	3441.05
526.797	3402.71
527.23	3430.99
527.662	3284.59
528.094	3270.7
528.527	3267.43
528.959	3207.76
529.391	3165.5
529.823	3104.93
530.255	3029.03
530.687	3019.2
531.119	2952.79
531.551	2956.89
531.982	2897.27
532.414	2803.66
532.846	2799.27
533.277	2754.34
533.709	2674.83
534.14	2672.36
534.572	2643.28
535.003	2618.86
535.435	2535.65
535.866	2519.98
536.297	2416.59
536.728	2417.14
537.159	2410.26
537.59	2375.03
538.022	2322.7
538.452	2314.16
538.883	2214.92
539.314	2200.02
539.745	2190.36
540.176	2120.52
540.606	2088.76
541.037	2059.74
541.468	2014.41
541.898	2040.12
542.328	1976.79
542.759	1959.08
543.189	1899.84
543.619	1893.47
544.05	1838.06
544.48	1871.59
544.91	1801.74
545.34	1813.11
545.77	1764.03
546.2	1715.47
546.63	1720.46
547.06	1708.8
547.489	1677.71
547.919	1648.82
548.349	1607.14
548.778	1630.48
549.208	1602.13
549.637	1537.89
550.067	1538.17
550.496	1525.37
550.926	1518.42
551.355	1487.8
551.784	1482.79
552.213	1462.74
552.642	1422.35
553.071	1411.76
553.5	1381.66
553.929	1399.22
554.358	1343.18
554.787	1332.3
555.216	1359.08
555.645	1308.59
556.073	1277.61
556.502	1288.5
556.93	1283.75
557.359	1242.43
557.787	1247.46
558.216	1225.67
558.644	1242.99
559.072	1236.57
559.5	1192.15
559.929	1203.32
560.357	1191.59
560.785	1195.22
561.213	1173.42
561.641	1158.6
562.068	1168.39
562.496	1110.78
562.924	1132.6
563.352	1139.31
563.779	1117.22
564.207	1115.82
564.634	1128.96
565.062	1149.1
565.489	1079.72
565.917	1112.46
566.344	1099.03
566.771	1069.09
567.198	1067.13
567.625	1042.77
568.053	1043.89
568.48	1049.21
568.907	1038.29
569.333	1056.21
569.76	1042.49
570.187	992.64
570.614	1009.45
571.04	2111.69
571.467	1037.73
571.894	1027.09
572.32	945.55
572.747	959.29
573.173	942.19
573.599	946.39
574.026	892.83
574.452	927.33
574.878	919.19
575.304	893.39
575.73	865.33
576.156	876.27
576.582	897.6
577.008	854.66
577.434	821.25
577.86	865.05
578.285	810.02
578.711	831.92
579.137	843.71
579.562	793.45
579.988	820.97
580.413	798.5
580.838	790.08
581.264	763.1
581.689	773.78
582.114	743.14
582.539	874.31
582.964	763.1
583.39	756.36
583.814	729.93
584.239	723.18
584.664	756.07
585.089	727.68
585.514	727.68
585.939	740.05
586.363	717.84
586.788	710.53
587.212	706.59
587.637	687.75
588.061	667.21
588.485	700.97
588.91	670.87
589.334	679.31
589.758	669.18
590.182	672.84
590.606	664.39
591.03	662.71
591.454	662.99
591.878	635.12
592.302	630.06
592.726	655.67
593.15	643.57
593.573	639.06
593.997	621.89
594.42	603.02
594.844	612.6
595.267	591.48
595.691	590.35
596.114	577.95
596.537	599.93
596.96	625.83
597.384	600.21
597.807	583.31
598.23	584.43
598.653	583.03
599.076	586.41
599.499	599.93
599.921	574.01
600.344	561.05
600.767	576.83
601.189	579.93
601.612	579.36
602.034	574.86
602.457	594.57
602.879	577.11
603.302	563.02
603.724	564.71
604.146	554
604.568	557.95
604.991	529.48
605.413	563.87
605.835	585
606.257	552.88
606.678	556.54
607.1	563.87
607.522	546.39
607.944	559.36
608.365	563.3
608.787	523.28
609.209	545.55
609.63	550.06
610.051	542.17
610.473	537.94
610.894	560.49
611.315	524.41
611.737	516.23
612.158	529.2
612.579	512.28
613	540.48
613.421	508.9
613.842	522.43
614.263	520.46
614.683	506.36
615.104	516.23
615.525	528.92
615.945	496.49
616.366	528.35
616.787	502.41
617.207	472.23
617.627	493.67
618.048	524.13
618.468	491.7
618.888	492.26
619.308	495.65
619.728	477.03
620.148	512
620.568	496.77
620.988	512.57
621.408	471.95
621.828	490
622.248	477.88
622.668	490.85
623.087	490.29
623.507	493.39
623.926	486.62
624.346	491.42
624.765	478.44
625.185	493.39
625.604	470.26
626.023	477.88
626.442	489.16
626.861	499.59
627.28	457.28
627.699	471.95
628.118	470.82
628.537	483.8
628.956	473.93
629.375	476.18
629.794	473.36
630.212	471.67
630.631	463.2
631.049	467.15
631.468	467.44
631.886	465.74
632.305	439.22
632.723	439.22
633.141	445.43
633.559	445.71
633.978	430.19
634.396	452.48
634.814	431.88
635.232	459.82
635.65	447.12
636.067	428.77
636.485	438.65
636.903	447.68
637.321	443.45
637.738	466.03
638.156	431.88
638.573	416.63
638.991	461.79
639.408	449.66
639.825	443.45
640.243	451.92
640.66	453.89
641.077	453.33
641.494	402.52
641.911	434.98
642.328	444.02
642.745	432.44
643.162	440.63
643.579	449.38
643.995	438.09
644.412	442.6
644.829	435.83
645.245	433.01
645.662	445.43
646.078	427.08
646.495	441.19
646.911	435.27
647.327	423.13
647.743	413.25
648.159	447.12
648.576	401.39
648.992	404.78
649.408	418.89
649.824	432.44
650.239	410.99
650.655	416.07
651.071	417.76
651.487	427.36
651.902	418.05
652.318	425.95
652.733	421.15
653.149	428.21
653.564	409.86
653.979	400.54
654.395	415.22
654.81	406.75
655.225	410.99
655.64	422.28
656.055	431.03
656.47	418.05
656.885	421.72
657.3	441.19
657.715	417.2
658.13	436.11
658.544	421.43
658.959	406.19
659.374	414.09
659.788	414.66
660.202	384.72
660.617	420.87
661.031	429.06
661.445	409.29
661.86	390.37
662.274	416.35
662.688	409.29
663.102	394.61
663.516	433.29
663.93	413.25
664.344	440.91
664.758	409.29
665.171	400.54
665.585	408.73
665.999	403.36
666.412	402.8
666.826	395.17
667.239	401.95
667.653	396.59
668.066	449.94
668.479	429.34
668.892	412.96
669.306	407.88
669.719	388.11
670.132	393.48
670.545	400.26
670.958	416.92
671.37	391.79
671.783	401.67
672.196	426.23
672.609	404.49
673.021	386.98
673.434	424.82
673.846	394.04
674.259	413.81
674.671	402.23
675.084	409.29
675.496	418.05
675.908	438.94
676.32	405.91
676.732	387.55
677.144	390.94
677.556	414.94
677.968	414.09
678.38	419.46
678.792	383.03
679.204	388.4
679.615	435.27
680.027	396.59
680.439	407.32
680.85	388.4
681.262	432.44
681.673	379.92
682.084	405.62
682.496	410.99
682.907	395.17
683.318	393.48
683.729	401.67
684.14	396.02
684.551	390.66
684.962	395.46
685.373	389.81
685.784	392.07
686.194	402.8
686.605	390.37
687.016	420.3
687.426	384.44
687.837	391.79
688.247	391.22
688.657	388.68
689.068	396.59
689.478	392.35
689.888	402.8
690.298	395.74
690.708	415.51
691.118	402.52
691.528	389.81
691.938	405.06
692.348	396.87
692.758	377.66
693.168	390.66
693.577	387.55
693.987	425.95
694.396	405.62
694.806	399.13
695.215	417.48
695.625	389.24
696.034	388.11
696.443	385.01
696.852	414.94
697.262	408.73
697.671	429.06
698.08	391.22
698.489	407.32
698.897	403.36
699.306	376.53
699.715	400.54
700.124	417.2
700.532	394.04
700.941	377.66
701.35	380.77
701.758	418.33
702.166	387.27
702.575	392.91
702.983	395.74
703.391	400.82
703.799	387.83
704.208	389.24
704.616	402.8
705.024	378.23
705.432	378.79
705.839	401.95
706.247	394.04
706.655	419.18
707.063	411.27
707.47	403.65
707.878	408.73
708.285	401.67
708.693	398.85
709.1	386.7
709.508	376.81
709.915	396.3
710.322	421.15
710.729	406.19
711.136	388.11
711.543	389.53
711.95	409.01
712.357	403.36
712.764	392.07
713.171	392.91
713.578	385.57
713.984	383.59
714.391	403.65
714.797	404.21
715.204	406.75
715.61	396.3
716.017	360.71
716.423	409.01
716.829	400.26
717.236	405.62
717.642	392.91
718.048	412.4
718.454	421.43
718.86	376.53
719.266	406.19
719.671	382.46
720.077	403.65
720.483	389.81
720.889	390.94
721.294	389.24
721.7	388.96
722.105	399.69
722.511	395.74
722.916	403.36
723.321	393.76
723.726	384.72
724.132	405.06
724.537	418.05
724.942	410.14
725.347	381.33
725.752	382.46
726.156	387.27
726.561	406.47
726.966	379.92
727.371	380.2
727.775	396.02
728.18	392.63
728.584	347.43
728.989	412.4
729.393	410.14
729.798	372.3
730.202	391.79
730.606	367.49
731.01	385.57
731.414	410.99
731.818	421.72
732.222	374.84
732.626	399.69
733.03	403.36
733.434	387.55
733.837	395.46
734.241	407.88
734.645	366.64
735.048	408.16
735.452	408.16
735.855	398.56
736.258	370.32
736.662	395.17
737.065	407.03
737.468	412.4
737.871	394.89
738.274	389.81
738.677	410.14
739.08	366.36
739.483	391.22
739.886	400.26
740.289	414.09
740.691	390.37
741.094	368.91
741.497	378.51
741.899	381.62
742.302	390.09
742.704	395.74
743.106	389.24
743.508	380.2
743.911	396.87
744.313	385.01
744.715	381.62
745.117	405.06
745.519	380.2
745.921	406.75
746.323	408.16
746.724	399.69
747.126	388.96
747.528	373.43
747.929	355.06
748.331	408.73
748.732	366.93
749.134	360.15
749.535	403.08
749.936	374.84
750.338	380.2
750.739	416.63
751.14	405.34
751.541	385.01
751.942	374.84
752.343	373.14
752.744	417.48
753.144	407.6
753.545	424.54
753.946	384.44
754.346	396.3
754.747	391.79
755.148	387.83
755.548	400.26
755.948	399.69
756.349	373.14
756.749	367.21
757.149	405.06
757.549	362.97
757.949	403.93
758.349	414.66
758.749	408.45
759.149	387.27
759.549	389.24
759.949	371.73
760.348	409.86
760.748	389.81
761.148	400.54
761.547	414.38
761.947	384.72
762.346	422
762.745	374.84
763.145	388.11
763.544	398.85
763.943	401.1
764.342	390.37
764.741	367.77
765.14	399.97
765.539	379.92
765.938	405.34
766.336	379.64
766.735	394.33
767.134	389.24
767.532	354.5
767.931	365.23
768.329	386.98
768.728	388.68
769.126	356.47
769.525	388.11
769.923	383.59
770.321	400.54
770.719	423.13
771.117	380.2
771.515	388.68
771.913	383.59
772.311	398.85
772.709	398.56
773.106	403.36
773.504	386.98
773.902	370.6
774.299	370.88
774.697	415.51
775.094	393.76
775.491	390.66
775.889	387.27
776.286	386.14
776.683	374.84
777.08	383.03
777.477	392.35
777.874	384.44
778.271	389.81
778.668	399.41
779.065	404.49
779.462	403.93
779.858	407.32
780.255	389.24
780.652	383.59
781.048	401.1
781.444	392.91
781.841	416.35
782.237	376.25
782.633	387.27
783.03	381.05
783.426	377.66
783.822	393.2
784.218	415.22
784.614	373.43
785.01	377.1
785.405	393.76
785.801	394.61
786.197	399.41
786.593	416.35
786.988	388.68
787.384	406.47
787.779	379.36
788.174	370.04
788.57	406.19
788.965	409.01
789.36	379.07
789.755	397.15
790.15	400.26
790.545	411.27
790.94	375.69
791.335	387.55
791.73	392.91
792.125	383.88
792.52	412.68
792.914	390.66
793.309	388.4
793.703	387.27
794.098	390.94
794.492	375.97
794.887	388.96
795.281	427.08
795.675	384.44
796.069	414.94
796.463	385.57
796.857	375.12
797.251	391.22
797.645	396.3
798.039	387.55
798.433	382.46
798.826	371.45
799.22	380.77
799.614	403.93
800.007	377.66
800.401	395.74
800.794	401.39
801.187	376.53
801.581	366.08
801.974	398.85
802.367	419.18
802.76	387.27
803.153	376.81
803.546	374.56
803.939	386.42
804.332	360.99
804.725	415.79
805.117	403.08
805.51	413.81
805.903	391.5
806.295	364.95
806.688	388.68
807.08	394.04
807.472	397.72
807.865	404.49
808.257	400.54
808.649	412.96
809.041	392.35
809.433	372.58
809.825	399.41
810.217	403.65
810.609	396.87
811.001	386.7
811.392	379.92
811.784	410.71
812.175	373.99
812.567	407.03
812.958	403.36
813.35	380.77
813.741	388.4
814.132	381.62
814.524	397.72
814.915	387.27
815.306	392.91
815.697	393.48
816.088	374.56
816.479	392.63
816.87	402.52
817.26	415.79
817.651	407.03
818.042	398
818.432	399.97
818.823	363.25
819.213	388.11
819.604	378.79
819.994	383.03
820.384	367.49
820.775	365.23
821.165	366.08
821.555	379.07
821.945	399.97
822.335	379.07
822.725	378.79
823.114	356.47
823.504	399.97
823.894	370.6
824.284	366.93
824.673	373.14
825.063	389.53
825.452	371.17
825.842	394.89
826.231	409.29
826.62	380.77
827.009	403.36
827.399	389.53
827.788	369.19
828.177	374.84
828.566	381.33
828.954	375.97
829.343	394.89
829.732	384.72
830.121	409.29
830.509	396.3
830.898	373.43
831.286	383.88
831.675	401.67
832.063	385.85
832.452	358.45
832.84	369.19
833.228	392.91
833.616	386.7
834.004	401.39
834.392	385.01
834.78	410.14
835.168	390.94
835.556	373.43
835.944	383.03
836.331	383.88
836.719	368.06
837.107	414.94
837.494	410.14
837.881	394.04
838.269	385.85
838.656	372.3
839.043	390.66
839.431	390.94
839.818	384.16
840.205	374.27
840.592	381.33
840.979	389.24
841.366	410.42
841.752	377.66
842.139	377.38
842.526	360.43
842.912	389.81
843.299	390.09
843.685	381.62
844.072	372.58
844.458	380.2
844.844	401.95
845.231	391.79
845.617	361.28
846.003	404.21
846.389	367.77
846.775	367.49
847.161	371.73
847.547	390.94
847.933	384.72
848.318	388.11
848.704	373.99
849.09	368.91
849.475	374.56
849.861	404.49
850.246	381.62
850.631	391.5
851.017	418.33
851.402	391.79
851.787	404.78
852.172	369.19
852.557	398
852.942	394.04
853.327	380.2
853.712	386.98
854.097	385.57
854.481	404.49
854.866	382.18
855.25	390.37
855.635	398.56
856.019	380.2
856.404	385.57
856.788	374.56
857.172	385.29
857.557	413.53
857.941	405.06
858.325	372.86
858.709	393.48
859.093	407.32
859.477	391.79
859.86	391.5
860.244	359.02
860.628	405.62
861.012	398.28
861.395	385.29
861.779	359.58
862.162	396.3
862.545	385.29
862.929	392.07
863.312	394.61
863.695	382.75
864.078	375.4
864.461	377.66
864.844	387.83
865.227	356.19
865.61	397.72
865.993	377.66
866.376	383.59
866.758	372.3
867.141	391.22
867.523	410.14
867.906	376.53
868.288	385.57
868.671	403.65
869.053	385.57
869.435	388.68
869.817	403.08
870.199	391.22
870.581	401.39
870.963	357.6
871.345	388.96
871.727	400.54
872.109	380.49
872.491	384.44
872.872	360.43
873.254	406.19
873.635	386.98
874.017	378.79
874.398	366.08
874.779	400.26
875.161	371.17
875.542	393.2
875.923	367.21
876.304	405.34
876.685	386.98
877.066	376.53
877.447	385.29
877.828	375.97
878.208	388.11
878.589	377.38
878.97	374.84
879.35	372.58
879.731	359.86
880.111	376.53
880.491	386.7
880.872	391.5
881.252	385.29
881.632	391.79
882.012	391.79
882.392	373.71
882.772	361.56
883.152	379.36
883.532	372.01
883.912	409.58
884.291	379.36
884.671	381.62
885.051	375.12
885.43	392.91
885.81	374.27
886.189	368.62
886.568	368.62
886.948	360.43
887.327	366.08
887.706	388.96
888.085	368.91
888.464	381.9
888.843	409.58
889.222	353.08
889.601	375.97
889.979	379.07
890.358	377.1
890.737	390.09
891.115	382.75
891.494	380.77
891.872	375.12
892.25	348
892.629	380.2
893.007	406.75
893.385	394.33
893.763	386.98
894.141	387.55
894.519	399.69
894.897	407.32
895.275	361.28
895.653	379.36
896.03	389.81
896.408	402.23
896.786	376.25
897.163	379.36
897.541	384.72
897.918	400.82
898.295	379.64
898.673	384.44
899.05	399.97
899.427	401.39
899.804	373.14
900.181	365.23
900.558	391.22
900.935	392.07
901.312	388.68
901.688	376.25
902.065	375.69
902.442	386.98
902.818	363.54
903.195	371.17
903.571	399.69
903.947	383.03
904.324	369.47
904.7	385.57
905.076	391.22
905.452	386.14
905.828	359.3
906.204	371.45
906.58	383.31
906.956	401.39
907.331	390.66
907.707	387.83
908.083	393.2
908.458	389.53
908.834	380.2
909.209	377.66
909.585	352.23
909.96	372.58
910.335	383.03
910.71	366.64
911.086	372.58
911.461	380.2
911.836	391.79
912.21	374.84
912.585	379.64
912.96	392.07
913.335	379.92
913.709	368.62
914.084	389.53
914.459	389.81
914.833	375.12
915.207	384.44
915.582	375.12
915.956	396.59
916.33	353.93
916.704	413.53
917.078	377.66
917.452	382.18
917.826	386.42
918.2	393.48
918.574	400.82
918.948	365.8
919.321	394.89
919.695	367.21
920.068	386.7
920.442	393.2
920.815	380.2
921.189	385.01
921.562	377.94
921.935	374.27
922.308	367.49
922.681	370.88
923.054	363.54
923.427	383.03
923.8	351.95
924.173	370.04
924.546	386.98
924.919	394.33
925.291	390.09
925.664	368.91
926.036	335
926.409	427.08
926.781	372.3
927.153	372.01
927.526	390.66
927.898	372.01
928.27	407.88
928.642	379.07
929.014	377.94
929.386	376.25
929.758	355.91
930.129	375.4
930.501	386.98
930.873	383.88
931.244	371.73
931.616	346.02
931.987	385.01
932.359	400.82
932.73	370.04
933.101	376.81
933.472	405.34
933.843	396.02
934.214	395.46
934.585	388.96
934.956	372.86
935.327	383.88
935.698	398
936.069	364.67
936.439	397.43
936.81	374.84
937.18	402.52
937.551	393.76
937.921	397.72
938.292	382.18
938.662	371.17
939.032	374.27
939.402	375.97
939.772	403.65
940.142	363.82
940.512	388.96
940.882	365.23
941.252	386.7
941.621	370.04
941.991	399.97
942.361	395.46
942.73	382.46
943.1	357.6
943.469	399.69
943.838	402.23
944.208	395.17
944.577	384.16
944.946	389.81
945.315	375.69
945.684	377.66
946.053	369.75
946.422	369.47
946.791	372.3
947.159	369.19
947.528	381.9
947.897	389.53
948.265	390.09
948.634	384.16
949.002	398.85
949.371	360.15
949.739	385.01
950.107	383.88
950.475	382.75
950.843	350.82
951.211	392.63
951.579	383.31
951.947	397.15
952.315	381.05
952.683	376.53
953.05	373.43
953.418	383.31
953.785	369.19
954.153	384.44
954.52	401.1
954.888	374.84
955.255	362.69
955.622	375.69
955.989	388.4
956.356	390.37
956.723	402.8
957.09	387.27
957.457	364.95
957.824	388.96
958.191	392.35
958.557	377.94
958.924	373.71
959.291	373.14
959.657	359.3
960.023	395.46
960.39	398.56
960.756	393.2
961.122	378.51
961.488	377.38
961.855	355.91
962.221	348.84
962.586	366.36
962.952	402.23
963.318	405.34
963.684	384.16
964.05	390.94
964.415	379.07
964.781	374.56
965.146	374.56
965.512	396.02
965.877	366.93
966.242	370.04
966.608	372.3
966.973	383.03
967.338	380.77
967.703	390.94
968.068	395.17
968.433	368.91
968.797	390.94
969.162	371.73
969.527	365.23
969.891	355.34
970.256	387.83
970.62	360.15
970.985	381.33
971.349	351.95
971.714	412.68
972.078	364.38
972.442	360.15
972.806	372.86
973.17	386.42
973.534	392.07
973.898	397.43
974.262	384.72
974.625	385.85
974.989	369.19
975.353	400.54
975.716	401.1
976.08	374.27
976.443	384.72
976.806	407.88
977.17	370.32
977.533	369.75
977.896	374.56
978.259	390.09
978.622	407.88
978.985	395.46
979.348	373.14
979.711	388.11
980.073	393.2
980.436	394.04
980.799	397.43
981.161	383.59
981.524	370.32
981.886	407.03
982.248	363.82
982.611	362.12
982.973	346.3
983.335	406.75
983.697	390.94
984.059	384.16
984.421	400.54
984.783	389.24
985.145	378.51
985.506	392.35
985.868	371.17
986.23	372.86
986.591	405.91
986.953	418.05
987.314	348.56
987.675	388.68
988.037	1198.29
988.398	396.02
988.759	391.79
989.12	381.33
989.481	401.67
989.842	354.21
990.203	359.3
990.564	382.18
990.924	391.79
991.285	942.47
991.646	398.85
992.006	374.56
992.367	381.33
992.727	377.94
993.087	386.42
993.448	366.36
993.808	387.55
994.168	357.04
994.528	354.21
994.888	386.98
995.248	359.3
995.608	360.71
995.967	375.69
996.327	370.04
996.687	374.27
997.046	385.85
997.406	383.59
997.765	383.88
998.125	384.16
998.484	369.75
998.843	392.35
999.202	366.64
999.561	378.23
999.92	369.19
1000.279	373.43
1000.638	357.04
1000.997	393.76
1001.356	387.27
1001.715	370.04
1002.073	387.55
1002.432	375.97
1002.79	392.07
1003.149	373.43
1003.507	386.14
1003.865	372.3
1004.224	376.81
1004.582	398.85
1004.94	371.73
1005.298	392.07
1005.656	389.24
1006.014	380.77
1006.371	383.31
1006.729	364.95
1007.087	403.36
1007.445	373.99
1007.802	391.5
1008.16	406.19
1008.517	377.66
1008.874	365.8
1009.232	393.48
1009.589	405.06
1009.946	361.56
1010.303	389.24
1010.66	405.62
1011.017	372.3
1011.374	384.72
1011.731	363.25
1012.087	375.69
1012.444	355.06
1012.801	375.12
1013.157	372.3
1013.513	406.19
1013.87	359.86
1014.226	404.21
1014.582	372.86
1014.939	372.3
1015.295	375.4
1015.651	394.33
1016.007	380.2
1016.363	391.22
1016.719	353.93
1017.074	394.04
1017.43	392.35
1017.786	369.19
1018.141	395.74
1018.497	377.94
1018.852	372.86
1019.208	406.19
1019.563	378.51
1019.918	372.3
1020.273	373.71
1020.628	406.75
1020.983	401.1
1021.338	381.62
1021.693	372.86
1022.048	362.97
1022.403	367.21
1022.757	402.8
1023.112	377.38
1023.467	361.56
1023.821	394.89
1024.175	351.95
1024.53	362.41
1024.884	396.3
1025.238	372.86
1025.592	397.72
1025.946	380.77
1026.3	399.13
1026.654	377.66
1027.008	389.53
1027.362	402.23
1027.716	373.43
1028.069	362.41
1028.423	368.91
1028.777	373.43
1029.13	372.86
1029.483	381.33
1029.837	397.43
1030.19	363.54
1030.543	385.85
1030.896	375.4
1031.249	395.46
1031.602	345.74
1031.955	372.3
1032.308	407.6
1032.661	381.62
1033.013	394.33
1033.366	397.43
1033.719	372.58
1034.071	392.35
1034.424	389.53
1034.776	362.41
1035.128	397.43
1035.48	370.88
1035.833	364.95
1036.185	370.04
1036.537	370.04
1036.889	370.04
