Data from NOL_irradiation_FLMS019251_08-27-04-223.txt Node
Date: Wed Feb 20 08:27:04 PST 2019
User: mu3e
Spectrometer: FLMS01925
Trigger mode: 0
Integration Time (sec): 6.500000E-2
Scans to average: 10
Electric dark correction enabled: true
Nonlinearity correction enabled: true
Boxcar width: 0
XAxis mode: Wavelengths
Number of Pixels in Spectrum: 2048
>>>>>Begin Spectral Data<<<<<
187.103	-56.26
187.574	-56.26
188.045	-56.26
188.516	-126.19
188.987	-81.83
189.458	-116.23
189.929	-119.36
190.4	-102.3
190.871	-92.07
191.342	-63.64
191.813	-56.54
192.284	-56.54
192.754	-46.03
193.225	-2.01
193.696	38.87
194.166	41.42
194.637	55.33
195.107	104.68
195.578	118.85
196.048	157.11
196.518	137.56
196.989	161.92
197.459	195.35
197.929	238.38
198.399	247.15
198.869	287.04
199.339	283.08
199.809	297.22
200.279	333.97
200.749	350.36
201.219	328.04
201.689	365.62
202.159	367.03
202.628	345.56
203.098	337.93
203.568	371.27
204.037	367.88
204.507	369.01
204.976	374.1
205.445	379.18
205.915	400.36
206.384	386.81
206.853	398.39
207.323	375.79
207.792	383.42
208.261	417.02
208.73	414.48
209.199	389.35
209.668	390.48
210.137	383.98
210.606	373.53
211.075	356.58
211.543	382.85
212.012	376.36
212.481	392.46
212.95	335.1
213.418	396.69
213.887	382.29
214.355	346.12
214.824	366.19
215.292	346.41
215.76	344.15
216.229	336.51
216.697	347.82
217.165	335.1
217.633	332.56
218.101	337.93
218.569	373.53
219.037	341.04
219.505	377.77
219.973	345.84
220.441	340.19
220.909	335.1
221.377	348.1
221.844	353.19
222.312	339.06
222.78	389.07
223.247	352.34
223.715	333.97
224.182	353.75
224.65	359.69
225.117	360.54
225.584	341.6
226.052	347.82
226.519	353.47
226.986	350.08
227.453	371.27
227.92	357.71
228.387	369.29
228.854	361.1
229.321	337.36
229.788	369.29
230.255	340.75
230.722	352.91
231.189	350.08
231.655	340.19
232.122	369.01
232.589	343.02
233.055	343.3
233.522	364.77
233.988	352.62
234.454	403.19
234.921	328.32
235.387	357.14
235.853	360.82
236.32	365.06
236.786	377.2
237.252	351.49
237.718	356.86
238.184	339.91
238.65	379.18
239.116	355.45
239.582	353.75
240.047	349.8
240.513	379.18
240.979	368.16
241.445	357.14
241.91	371.27
242.376	374.38
242.841	362.51
243.307	342.73
243.772	381.72
244.238	361.67
244.703	363.36
245.168	352.91
245.633	357.71
246.099	365.62
246.564	379.75
247.029	381.72
247.494	373.81
247.959	353.47
248.424	350.93
248.889	360.54
249.353	358.56
249.818	355.73
250.283	360.54
250.748	351.49
251.212	361.95
251.677	355.45
252.141	371.27
252.606	376.92
253.07	347.82
253.535	340.47
253.999	374.66
254.463	367.03
254.927	382.85
255.392	385.39
255.856	369.58
256.32	369.58
256.784	349.52
257.248	353.47
257.712	362.51
258.176	363.08
258.64	352.34
259.103	364.77
259.567	390.48
260.031	368.16
260.495	382.57
260.958	375.51
261.422	373.53
261.885	365.62
262.349	380.31
262.812	365.9
263.275	391.89
263.739	337.08
264.202	383.14
264.665	371.84
265.128	387.65
265.591	374.66
266.054	351.21
266.517	368.16
266.98	375.51
267.443	382.29
267.906	346.69
268.369	376.36
268.832	366.75
269.294	366.19
269.757	350.65
270.22	370.14
270.682	394.72
271.145	389.63
271.607	380.59
272.07	380.31
272.532	391.33
272.994	380.59
273.456	394.15
273.919	404.88
274.381	384.55
274.843	395.28
275.305	377.2
275.767	367.32
276.229	384.55
276.691	410.53
277.153	387.37
277.614	376.92
278.076	368.45
278.538	394.72
279	391.33
279.461	374.38
279.923	368.73
280.384	367.88
280.846	377.77
281.307	389.35
281.769	374.38
282.23	376.07
282.691	362.23
283.152	358.27
283.613	369.29
284.075	401.21
284.536	390.48
284.997	388.78
285.458	353.75
285.918	371.55
286.379	383.14
286.84	395
287.301	387.37
287.762	367.03
288.222	390.76
288.683	366.19
289.143	390.2
289.604	376.07
290.064	375.23
290.525	386.24
290.985	387.09
291.445	383.98
291.906	394.15
292.366	376.36
292.826	376.36
293.286	386.81
293.746	410.25
294.206	377.49
294.666	386.52
295.126	405.45
295.586	368.45
296.046	365.9
296.506	377.49
296.965	378.62
297.425	386.52
297.884	395.28
298.344	389.63
298.804	395.28
299.263	398.95
299.722	375.79
300.182	384.83
300.641	372.4
301.1	363.64
301.559	386.24
302.019	375.79
302.478	393.87
302.937	389.07
303.396	396.69
303.855	420.98
304.314	387.09
304.772	431.42
305.231	389.63
305.69	397.82
306.149	374.38
306.607	388.5
307.066	409.12
307.524	400.93
307.983	383.98
308.441	360.82
308.9	406.58
309.358	371.55
309.816	437.07
310.275	403.75
310.733	387.09
311.191	395.84
311.649	381.16
312.107	392.17
312.565	395.28
313.023	371.27
313.481	378.62
313.939	385.39
314.397	420.69
314.854	370.99
315.312	373.25
315.77	383.14
316.227	385.39
316.685	369.01
317.142	404.03
317.6	375.23
318.057	396.13
318.514	374.94
318.972	383.7
319.429	384.27
319.886	377.49
320.343	396.13
320.8	377.77
321.257	365.06
321.714	394.43
322.171	393.87
322.628	388.22
323.085	391.89
323.542	392.74
323.998	407.14
324.455	398.1
324.912	393.02
325.368	404.88
325.825	404.88
326.281	364.77
326.738	396.41
327.194	396.13
327.65	388.78
328.107	388.22
328.563	416.74
329.019	371.27
329.475	409.12
329.931	413.35
330.387	395.56
330.843	393.02
331.299	373.53
331.755	392.17
332.211	380.59
332.666	393.3
333.122	402.06
333.578	396.13
334.033	400.93
334.489	398.95
334.944	411.66
335.4	388.22
335.855	391.61
336.31	360.54
336.766	403.47
337.221	359.69
337.676	401.49
338.131	392.46
338.586	415.05
339.041	383.7
339.496	402.34
339.951	372.4
340.406	398.95
340.861	413.92
341.316	385.68
341.771	396.69
342.225	402.9
342.68	385.39
343.134	390.2
343.589	376.07
344.043	419.56
344.498	426.34
344.952	379.46
345.406	422.39
345.861	400.65
346.315	388.5
346.769	400.65
347.223	391.33
347.677	391.33
348.131	376.64
348.585	398.95
349.039	406.01
349.493	419.56
349.947	404.32
350.401	400.65
350.854	408.83
351.308	408.83
351.762	405.73
352.215	399.8
352.669	415.61
353.122	394.72
353.575	404.32
354.029	424.65
354.482	386.52
354.935	369.01
355.388	376.36
355.842	403.75
356.295	380.31
356.748	396.41
357.201	395.28
357.654	399.52
358.106	389.63
358.559	394.72
359.012	405.73
359.465	426.62
359.917	389.07
360.37	388.5
360.823	390.48
361.275	388.22
361.728	407.42
362.18	373.53
362.632	378.62
363.085	396.97
363.537	410.25
363.989	439.61
364.441	402.62
364.893	417.3
365.345	395.84
365.797	417.3
366.249	395.56
366.701	400.93
367.153	405.73
367.605	405.73
368.057	392.17
368.508	374.66
368.96	383.14
369.411	386.81
369.863	380.88
370.314	395.28
370.766	419.28
371.217	376.07
371.669	412.22
372.12	440.73
372.571	419.85
373.022	399.23
373.473	400.08
373.924	430.01
374.375	418.72
374.826	404.32
375.277	380.03
375.728	395
376.179	416.74
376.63	420.41
377.08	410.53
377.531	396.13
377.981	409.96
378.432	406.86
378.883	428.32
379.333	408.83
379.783	383.14
380.234	400.36
380.684	402.06
381.134	408.27
381.584	397.26
382.034	417.02
382.485	408.27
382.935	406.86
383.385	440.73
383.834	397.82
384.284	412.22
384.734	425.21
385.184	411.66
385.634	380.88
386.083	410.25
386.533	408.27
386.982	396.41
387.432	410.53
387.881	398.67
388.331	428.6
388.78	418.15
389.229	409.12
389.679	423.23
390.128	404.32
390.577	405.16
391.026	412.22
391.475	396.41
391.924	429.16
392.373	410.81
392.822	417.02
393.27	432.83
393.719	406.58
394.168	428.03
394.617	405.45
395.065	426.34
395.514	405.45
395.962	404.32
396.411	413.63
396.859	447.79
397.307	432.55
397.756	439.61
398.204	442.43
398.652	439.32
399.1	426.34
399.548	465.85
399.996	433.11
400.444	458.8
400.892	454.56
401.34	459.36
401.788	437.63
402.236	448.35
402.683	456.26
403.131	456.26
403.579	451.18
404.026	466.41
404.474	420.69
404.921	457.67
405.369	457.67
405.816	450.33
406.263	450.61
406.71	450.33
407.158	480.24
407.605	471.77
408.052	463.59
408.499	481.93
408.946	485.6
409.393	481.08
409.84	476.29
410.286	486.73
410.733	514.65
411.18	539.17
411.626	561.15
412.073	617.77
412.52	738.47
412.966	873.01
413.413	1073.67
413.859	1341.33
414.305	1634.2
414.752	2087.76
415.198	2547.84
415.644	3047.43
416.09	3596.79
416.536	4140.34
416.982	4756.61
417.428	5381.02
417.874	6078.74
418.32	6749.78
418.766	7407.66
419.211	8158.05
419.657	8781.94
420.103	9673.65
420.548	10251.4
420.994	11182.84
421.439	11874.46
421.885	12530.67
422.33	13563.66
422.776	14209.3
423.221	14926.13
423.666	15765.52
424.111	16707.64
424.556	17152.85
425.001	18189.54
425.446	19046.6
425.891	19815.55
426.336	20237.37
426.781	20986.5
427.226	22313.99
427.671	22503.59
428.115	22752.39
428.56	23589.94
429.005	24393.26
429.449	24218.72
429.894	24896.6
430.338	25176.84
430.782	24797.75
431.227	25193.79
431.671	24870.54
432.115	25357.19
432.559	25439.72
433.003	24744.87
433.447	24674.27
433.891	24316.46
434.335	23971.69
434.779	23942.38
435.223	23438.78
435.667	22836.61
436.111	22630.84
436.554	22025.61
436.998	21370.98
437.442	20880.09
437.885	21329.1
438.328	20259.48
438.772	19972.2
439.215	19728.99
439.659	19049.09
440.102	19058.31
440.545	18412.22
440.988	18089.15
441.431	18252.21
441.874	17762.56
442.317	17635.79
442.76	17341.1
443.203	17010.35
443.646	17209.69
444.089	16872.31
444.531	17015.11
444.974	16463.88
445.417	16803.39
445.859	16459.87
446.302	16856.77
446.744	16470.15
447.186	17007.35
447.629	16742.99
448.071	16619.89
448.513	16704.63
448.956	17260.51
449.398	16992.57
449.84	16523.08
450.282	16833.72
450.724	17004.34
451.166	16939.21
451.607	16912.9
452.049	16927.18
452.491	17304.06
452.933	17238.73
453.374	17452.7
453.816	17539.01
454.257	17384.14
454.699	17658.05
455.14	17543.76
455.582	17390.15
456.023	17463.71
456.464	17311.57
456.905	17483.47
457.347	17414.92
457.788	17042.16
458.229	17057.44
458.67	17323.33
459.111	16405.42
459.552	16457.86
459.992	16174.76
460.433	16083.11
460.874	15542.98
461.315	15859.27
461.755	15366.35
462.196	15156.64
462.636	14709.06
463.077	14528.44
463.517	14333.06
463.957	14306.29
464.398	14076.4
464.838	13818.5
465.278	13385.36
465.718	13297.43
466.158	12834.5
466.598	12885.02
467.038	12472.96
467.478	12498.64
467.918	12514.91
468.358	12048.75
468.798	11877.01
469.237	11696.47
469.677	11481.56
470.117	11639.32
470.556	10909.81
470.996	10925.17
471.435	10857.82
471.874	10910.07
472.314	10748.17
472.753	10506.62
473.192	10365.19
473.631	10248.06
474.07	10154.51
474.509	10123.66
474.948	10157.85
475.387	9959.54
475.826	9813.05
476.265	10058.6
476.704	9939.98
477.143	9952.34
477.581	9873.83
478.02	10058.08
478.458	9704.07
478.897	9851.94
479.335	10104.63
479.774	9971.38
480.212	9975.5
480.65	9983.73
481.089	9884.64
481.527	9805.32
481.965	9754.83
482.403	10199.23
482.841	10144.48
483.279	10177.39
483.717	10124.43
484.155	10021.81
484.592	10145.51
485.03	10186.9
485.468	10025.16
485.905	9985.28
486.343	10147.31
486.781	9868.16
487.218	9786.52
487.655	9768.23
488.093	9659.22
488.53	9911.41
488.967	9711.54
489.405	9671.59
489.842	9448.73
490.279	9418.78
490.716	9359.65
491.153	9344.16
491.59	9240.81
492.027	9073.26
492.463	8914.07
492.9	8747.2
493.337	8711.16
493.773	8698.71
494.21	8390.05
494.647	8344.04
495.083	8093.74
495.519	7988.5
495.956	7986.15
496.392	7805.17
496.828	7695.52
497.265	7451.11
497.701	7446.92
498.137	7388.29
498.573	7134.9
499.009	7140.15
499.445	6962.98
499.881	6791.08
500.316	6821.59
500.752	6655.8
501.188	6531.98
501.624	6434.14
502.059	6227.9
502.495	6116.32
502.93	6067.36
503.366	6121.61
503.801	5864.43
504.236	5729.65
504.672	5682.91
505.107	5602.4
505.542	5443.33
505.977	5380.48
506.412	5303.74
506.847	5337.86
507.282	5189.59
507.717	5076.37
508.152	5028.27
508.587	4990.85
509.021	4828.41
509.456	4752.59
509.891	4748.83
510.325	4667.05
510.76	4602.11
511.194	4534.7
511.628	4586.53
512.063	4412.4
512.497	4432.3
512.931	4322.52
513.366	4284.01
513.8	4236.32
514.234	4142.23
514.668	4156.79
515.102	4185.92
515.536	4033.18
515.969	4026.43
516.403	4003.2
516.837	3917.79
517.271	3925.36
517.704	3825.81
518.138	3809.56
518.571	3800.63
519.005	3818.23
519.438	3722.34
519.871	3670.3
520.305	3610.9
520.738	3604.66
521.171	3561.77
521.604	3573.72
522.037	3496.86
522.47	3436.8
522.903	3311.38
523.336	3388.4
523.769	3354.93
524.202	3270.26
524.634	3273.26
525.067	3252.28
525.5	3177.33
525.932	3207.32
526.365	3158.78
526.797	3055.9
527.23	3068.46
527.662	2961.37
528.094	2956.72
528.527	2953.16
528.959	2919.26
529.391	2865.91
529.823	2785.95
530.255	2775.27
530.687	2715.52
531.119	2696.05
531.551	2658.75
531.982	2588.76
532.414	2558.83
532.846	2523.11
533.277	2476.38
533.709	2410.36
534.14	2413.11
534.572	2371.83
535.003	2376.23
535.435	2321.43
535.866	2274.86
536.297	2187.71
536.728	2198.75
537.159	2203.16
537.59	2140.79
538.022	2140.51
538.452	2064.82
538.883	2043.26
539.314	2017
539.745	1985.74
540.176	1948.39
540.606	1903.27
541.037	1926.25
541.468	1877.23
541.898	1860.05
542.328	1830.68
542.759	1781.6
543.189	1747.48
543.619	1752.48
544.05	1745.26
544.48	1686.97
544.91	1700.58
545.34	1625.86
545.77	1631.42
546.2	1622.8
546.63	1565.26
547.06	1571.93
547.489	1542.73
547.919	1481.5
548.349	1496.53
548.778	1524.36
549.208	1463.96
549.637	1434.71
550.067	1452.54
550.496	1432.48
550.926	1414.65
551.355	1392.64
551.784	1356.12
552.213	1354.44
552.642	1328.5
553.071	1372.57
553.5	1311.48
553.929	1264.87
554.358	1274.65
554.787	1253.15
555.216	1250.91
555.645	1228.01
556.073	1218.52
556.502	1246.45
556.93	1198.96
557.359	1193.65
557.787	1190.29
558.216	1148.08
558.644	1194.21
559.072	1161.51
559.5	1132.98
559.929	1151.72
560.357	1084.31
560.785	1111.45
561.213	1138.02
561.641	1108.37
562.068	1106.13
562.496	1085.15
562.924	1050.16
563.352	1071.43
563.779	1049.88
564.207	1068.91
564.634	1070.31
565.062	1044.84
565.489	1050.72
565.917	1059.12
566.344	1008.15
566.771	1019.63
567.198	1028.04
567.625	1022.16
568.053	1019.91
568.48	1032.52
568.907	996.38
569.333	993.02
569.76	977.33
570.187	972.57
570.614	954.07
571.04	2139.41
571.467	997.79
571.894	941.73
572.32	922.94
572.747	914.53
573.173	888.72
573.599	920.42
574.026	900.51
574.452	906.68
574.878	870.48
575.304	838.2
575.73	866.56
576.156	841.85
576.582	851.4
577.008	851.12
577.434	842.42
577.86	813.49
578.285	816.3
578.711	799.45
579.137	790.18
579.562	764.33
579.988	771.07
580.413	771.92
580.838	721.32
581.264	756.18
581.689	733.69
582.114	740.16
582.539	870.48
582.964	765.45
583.39	729.19
583.814	711.2
584.239	701.64
584.664	688.7
585.089	696.85
585.514	735.38
585.939	704.17
586.363	699.67
586.788	691.51
587.212	696.85
587.637	690.38
588.061	682.23
588.485	677.72
588.91	663.09
589.334	647.9
589.758	663.09
590.182	650.71
590.606	647.33
591.03	639.73
591.454	638.89
591.878	634.95
592.302	625.37
592.726	638.89
593.15	604.54
593.573	629.88
593.997	616.65
594.42	588.2
594.844	592.99
595.267	603.97
595.691	595.81
596.114	575.52
596.537	593.55
596.96	558.34
597.384	574.12
597.807	577.78
598.23	576.37
598.653	594.12
599.076	582.29
599.499	576.65
599.921	566.51
600.344	580.31
600.767	573.27
601.189	555.24
601.612	555.52
602.034	566.51
602.457	547.91
602.879	587.36
603.302	577.5
603.724	555.24
604.146	554.39
604.568	543.68
604.991	566.23
605.413	554.11
605.835	580.31
606.257	536.92
606.678	557.77
607.1	551.86
607.522	545.09
607.944	560.03
608.365	551.29
608.787	547.06
609.209	559.18
609.63	514.36
610.051	567.64
610.473	538.33
610.894	540.58
611.315	510.13
611.737	529.87
612.158	551.57
612.579	513.8
613	540.02
613.421	524.51
613.842	513.52
614.263	530.15
614.683	558.9
615.104	509.01
615.525	511.26
615.945	520
616.366	498.57
616.787	495.19
617.207	512.95
617.627	484.75
618.048	504.21
618.468	488.98
618.888	489.55
619.308	485.03
619.728	496.6
620.148	474.31
620.568	478.55
620.988	496.03
621.408	483.91
621.828	493.5
622.248	485.32
622.668	466.7
623.087	457.95
623.507	498.57
623.926	473.47
624.346	476.85
624.765	470.36
625.185	474.03
625.604	465.29
626.023	446.66
626.442	472.06
626.861	472.62
627.28	453.15
627.699	482.21
628.118	447.79
628.537	479.67
628.956	444.97
629.375	441.3
629.794	455.13
630.212	455.97
630.631	434.53
631.049	483.91
631.468	480.24
631.886	472.06
632.305	465.57
632.723	464.16
633.141	437.35
633.559	442.71
633.978	435.65
634.396	452.02
634.814	452.87
635.232	444.69
635.65	441.58
636.067	450.33
636.485	438.19
636.903	427.19
637.321	412.51
637.738	462.18
638.156	437.91
638.573	446.1
638.991	486.73
639.408	446.66
639.825	424.36
640.243	452.02
640.66	433.96
641.077	419.56
641.494	444.97
641.911	440.45
642.328	456.82
642.745	444.4
643.162	421.82
643.579	452.02
643.995	440.17
644.412	431.7
644.829	435.94
645.245	433.68
645.662	429.73
646.078	421.82
646.495	424.93
646.911	424.08
647.327	432.83
647.743	443.84
648.159	444.4
648.576	437.07
648.992	442.15
649.408	425.77
649.824	415.61
650.239	425.21
650.655	437.63
651.071	417.3
651.487	424.93
651.902	437.91
652.318	408.55
652.733	407.71
653.149	417.87
653.564	429.16
653.979	443.84
654.395	431.42
654.81	439.89
655.225	427.19
655.64	428.6
656.055	442.43
656.47	419
656.885	444.97
657.3	414.2
657.715	442.15
658.13	425.49
658.544	418.72
658.959	424.36
659.374	428.88
659.788	406.86
660.202	428.32
660.617	390.2
661.031	439.89
661.445	433.68
661.86	412.79
662.274	429.73
662.688	429.16
663.102	405.73
663.516	422.1
663.93	393.87
664.344	405.45
664.758	405.73
665.171	426.34
665.585	421.26
665.999	440.17
666.412	382.57
666.826	422.1
667.239	463.03
667.653	423.8
668.066	442.71
668.479	431.14
668.892	395.56
669.306	420.41
669.719	427.47
670.132	431.98
670.545	399.23
670.958	410.25
671.37	414.2
671.783	405.16
672.196	386.81
672.609	401.49
673.021	405.45
673.434	403.19
673.846	390.48
674.259	385.68
674.671	398.39
675.084	418.72
675.496	393.59
675.908	395.84
676.32	412.79
676.732	396.69
677.144	412.22
677.556	414.48
677.968	392.74
678.38	395.28
678.792	422.39
679.204	381.16
679.615	387.94
680.027	407.71
680.439	419.56
680.85	401.49
681.262	411.66
681.673	411.09
682.084	406.01
682.496	407.42
682.907	414.48
683.318	419.28
683.729	372.68
684.14	410.81
684.551	403.47
684.962	412.22
685.373	433.68
685.784	411.09
686.194	419.28
686.605	395
687.016	398.95
687.426	405.73
687.837	364.49
688.247	414.48
688.657	419.85
689.068	401.21
689.478	400.08
689.888	399.52
690.298	405.16
690.708	391.61
691.118	393.3
691.528	407.71
691.938	391.04
692.348	373.81
692.758	396.97
693.168	401.49
693.577	410.25
693.987	413.07
694.396	403.75
694.806	412.22
695.215	398.1
695.625	408.27
696.034	412.22
696.443	410.25
696.852	398.39
697.262	397.54
697.671	406.29
698.08	397.26
698.489	409.4
698.897	394.43
699.306	397.26
699.715	413.63
700.124	387.65
700.532	398.67
700.941	407.99
701.35	412.22
701.758	402.34
702.166	396.97
702.575	396.97
702.983	385.68
703.391	395.56
703.799	401.49
704.208	417.87
704.616	404.6
705.024	414.76
705.432	406.58
705.839	404.88
706.247	409.12
706.655	428.32
707.063	404.6
707.47	410.25
707.878	397.82
708.285	379.75
708.693	396.97
709.1	407.99
709.508	405.45
709.915	414.2
710.322	390.2
710.729	409.96
711.136	421.26
711.543	398.95
711.95	401.49
712.357	417.87
712.764	364.49
713.171	407.99
713.578	401.78
713.984	398.1
714.391	407.99
714.797	400.36
715.204	411.38
715.61	373.81
716.017	390.2
716.423	418.72
716.829	407.42
717.236	387.65
717.642	415.61
718.048	380.88
718.454	402.06
718.86	373.81
719.266	417.87
719.671	375.23
720.077	391.33
720.483	385.68
720.889	392.74
721.294	395
721.7	389.91
722.105	421.82
722.511	385.11
722.916	381.72
723.321	388.22
723.726	434.81
724.132	402.62
724.537	407.14
724.942	435.09
725.347	401.21
725.752	397.54
726.156	401.49
726.561	394.15
726.966	364.49
727.371	399.8
727.775	393.3
728.18	392.46
728.584	413.35
728.989	396.69
729.393	430.01
729.798	408.55
730.202	398.67
730.606	398.1
731.01	393.02
731.414	377.2
731.818	392.46
732.222	395.84
732.626	381.44
733.03	375.23
733.434	416.74
733.837	407.71
734.241	411.09
734.645	381.44
735.048	387.37
735.452	369.29
735.855	400.93
736.258	371.84
736.662	415.61
737.065	391.89
737.468	386.52
737.871	370.71
738.274	408.27
738.677	396.97
739.08	381.72
739.483	403.75
739.886	402.62
740.289	394.43
740.691	405.16
741.094	421.54
741.497	375.51
741.899	397.54
742.302	397.26
742.704	386.24
743.106	400.36
743.508	421.26
743.911	376.36
744.313	370.14
744.715	397.54
745.117	412.22
745.519	402.9
745.921	398.39
746.323	406.29
746.724	431.42
747.126	420.41
747.528	408.83
747.929	389.07
748.331	392.17
748.732	398.95
749.134	393.59
749.535	420.69
749.936	392.46
750.338	394.15
750.739	378.9
751.14	376.92
751.541	398.39
751.942	385.39
752.343	403.19
752.744	407.14
753.144	394.15
753.545	398.95
753.946	434.81
754.346	389.91
754.747	390.76
755.148	389.63
755.548	410.53
755.948	407.42
756.349	411.09
756.749	401.21
757.149	380.88
757.549	412.79
757.949	388.78
758.349	407.14
758.749	376.64
759.149	397.26
759.549	397.26
759.949	398.1
760.348	382.85
760.748	377.77
761.148	400.93
761.547	395.84
761.947	392.46
762.346	402.62
762.745	415.33
763.145	411.09
763.544	394.72
763.943	421.54
764.342	401.49
764.741	398.1
765.14	392.74
765.539	404.88
765.938	411.94
766.336	415.89
766.735	381.44
767.134	411.66
767.532	400.65
767.931	372.4
768.329	415.61
768.728	392.74
769.126	393.02
769.525	409.4
769.923	400.65
770.321	411.94
770.719	398.39
771.117	404.03
771.515	394.72
771.913	381.44
772.311	365.06
772.709	392.17
773.106	394.43
773.504	397.26
773.902	400.65
774.299	398.95
774.697	430.29
775.094	401.21
775.491	386.81
775.889	394.15
776.286	402.9
776.683	362.8
777.08	392.17
777.477	403.47
777.874	412.22
778.271	391.61
778.668	410.81
779.065	400.36
779.462	408.27
779.858	405.16
780.255	382.85
780.652	378.05
781.048	408.55
781.444	390.76
781.841	402.9
782.237	386.52
782.633	372.4
783.03	415.33
783.426	395.28
783.822	382.57
784.218	383.98
784.614	397.26
785.01	380.31
785.405	394.72
785.801	406.58
786.197	358.84
786.593	406.58
786.988	379.75
787.384	364.49
787.779	396.69
788.174	394.15
788.57	409.68
788.965	388.22
789.36	411.66
789.755	405.73
790.15	407.42
790.545	374.1
790.94	384.83
791.335	389.07
791.73	382.01
792.125	400.93
792.52	412.51
792.914	408.27
793.309	402.06
793.703	395.56
794.098	395
794.492	380.59
794.887	404.6
795.281	410.25
795.675	417.3
796.069	398.95
796.463	389.63
796.857	403.19
797.251	402.34
797.645	405.16
798.039	372.97
798.433	369.01
798.826	367.32
799.22	408.27
799.614	400.65
800.007	380.59
800.401	392.17
800.794	407.14
801.187	392.46
801.581	387.94
801.974	410.81
802.367	436.22
802.76	387.94
803.153	393.87
803.546	406.86
803.939	380.88
804.332	384.83
804.725	361.67
805.117	396.41
805.51	364.49
805.903	378.05
806.295	395.28
806.688	402.62
807.08	374.1
807.472	386.52
807.865	377.2
808.257	366.75
808.649	404.88
809.041	388.5
809.433	388.5
809.825	381.44
810.217	381.72
810.609	378.9
811.001	404.32
811.392	366.19
811.784	396.13
812.175	395.56
812.567	403.19
812.958	379.18
813.35	377.49
813.741	402.62
814.132	377.49
814.524	393.87
814.915	384.83
815.306	404.32
815.697	388.22
816.088	380.03
816.479	403.47
816.87	413.63
817.26	377.77
817.651	401.78
818.042	404.88
818.432	371.55
818.823	373.53
819.213	393.87
819.604	368.16
819.994	364.77
820.384	386.81
820.775	394.72
821.165	407.71
821.555	420.41
821.945	379.75
822.335	355.45
822.725	391.04
823.114	424.36
823.504	381.72
823.894	373.25
824.284	384.27
824.673	402.62
825.063	403.75
825.452	396.13
825.842	423.23
826.231	413.07
826.62	385.68
827.009	397.82
827.399	374.66
827.788	408.27
828.177	402.34
828.566	396.41
828.954	400.36
829.343	395.56
829.732	376.92
830.121	407.14
830.509	414.48
830.898	415.61
831.286	390.48
831.675	389.91
832.063	406.01
832.452	399.23
832.84	382.57
833.228	376.92
833.616	371.84
834.004	409.68
834.392	402.62
834.78	402.62
835.168	372.12
835.556	388.78
835.944	392.74
836.331	405.16
836.719	392.74
837.107	383.98
837.494	389.35
837.881	375.23
838.269	406.01
838.656	394.43
839.043	356.86
839.431	398.67
839.818	385.11
840.205	376.07
840.592	409.12
840.979	402.06
841.366	393.3
841.752	381.16
842.139	406.58
842.526	401.78
842.912	378.9
843.299	385.11
843.685	400.93
844.072	385.11
844.458	417.87
844.844	391.89
845.231	358.84
845.617	398.1
846.003	382.57
846.389	406.29
846.775	385.96
847.161	388.78
847.547	391.33
847.933	390.48
848.318	383.42
848.704	392.17
849.09	370.42
849.475	381.44
849.861	396.41
850.246	406.01
850.631	367.32
851.017	385.96
851.402	390.48
851.787	405.16
852.172	392.46
852.557	371.84
852.942	402.34
853.327	386.52
853.712	391.33
854.097	380.31
854.481	384.55
854.866	384.27
855.25	373.25
855.635	375.23
856.019	380.03
856.404	389.35
856.788	378.9
857.172	394.72
857.557	404.88
857.941	377.2
858.325	387.94
858.709	382.01
859.093	390.48
859.477	361.95
859.86	381.16
860.244	383.14
860.628	393.02
861.012	389.35
861.395	387.09
861.779	385.68
862.162	368.16
862.545	392.74
862.929	374.38
863.312	389.07
863.695	383.98
864.078	413.35
864.461	420.69
864.844	390.2
865.227	383.98
865.61	375.79
865.993	389.63
866.376	396.13
866.758	405.16
867.141	398.67
867.523	380.59
867.906	365.06
868.288	389.63
868.671	384.83
869.053	384.27
869.435	374.94
869.817	414.2
870.199	378.62
870.581	407.14
870.963	378.62
871.345	404.03
871.727	423.23
872.109	378.9
872.491	365.06
872.872	375.23
873.254	389.91
873.635	407.99
874.017	418.43
874.398	359.97
874.779	374.38
875.161	393.87
875.542	392.17
875.923	401.49
876.304	409.68
876.685	391.04
877.066	385.68
877.447	405.73
877.828	381.44
878.208	393.3
878.589	406.29
878.97	411.38
879.35	379.75
879.731	402.34
880.111	366.47
880.491	394.15
880.872	405.73
881.252	424.36
881.632	372.12
882.012	392.17
882.392	413.35
882.772	393.3
883.152	401.49
883.532	379.46
883.912	396.69
884.291	388.78
884.671	377.49
885.051	395.56
885.43	392.74
885.81	375.79
886.189	391.61
886.568	395.28
886.948	400.65
887.327	391.61
887.706	398.95
888.085	384.27
888.464	393.59
888.843	411.09
889.222	396.69
889.601	393.59
889.979	385.96
890.358	412.51
890.737	390.2
891.115	415.61
891.494	383.42
891.872	371.84
892.25	373.53
892.629	413.35
893.007	396.97
893.385	375.79
893.763	386.52
894.141	391.61
894.519	390.48
894.897	390.76
895.275	379.75
895.653	363.93
896.03	402.06
896.408	366.19
896.786	387.94
897.163	373.81
897.541	361.67
897.918	409.68
898.295	370.99
898.673	408.55
899.05	365.06
899.427	418.43
899.804	371.55
900.181	404.32
900.558	387.94
900.935	387.09
901.312	403.75
901.688	372.97
902.065	386.24
902.442	400.36
902.818	353.19
903.195	397.54
903.571	360.54
903.947	374.1
904.324	396.13
904.7	375.23
905.076	409.4
905.452	384.27
905.828	401.78
906.204	360.82
906.58	386.52
906.956	395
907.331	380.31
907.707	402.34
908.083	403.75
908.458	377.2
908.834	394.43
909.209	373.25
909.585	385.39
909.96	384.55
910.335	372.12
910.71	382.57
911.086	372.4
911.461	392.74
911.836	399.8
912.21	380.31
912.585	352.34
912.96	382.01
913.335	393.02
913.709	390.48
914.084	376.36
914.459	384.83
914.833	391.61
915.207	362.8
915.582	400.36
915.956	379.75
916.33	365.34
916.704	377.77
917.078	380.31
917.452	382.01
917.826	369.29
918.2	376.64
918.574	397.82
918.948	385.96
919.321	393.59
919.695	375.51
920.068	391.33
920.442	367.32
920.815	396.97
921.189	391.89
921.562	395.84
921.935	376.64
922.308	390.48
922.681	367.6
923.054	375.79
923.427	388.78
923.8	412.79
924.173	439.04
924.546	393.02
924.919	394.43
925.291	368.45
925.664	382.29
926.036	370.71
926.409	390.76
926.781	389.91
927.153	386.24
927.526	360.54
927.898	378.33
928.27	391.33
928.642	380.59
929.014	398.39
929.386	380.88
929.758	368.16
930.129	381.44
930.501	404.32
930.873	383.7
931.244	378.33
931.616	395
931.987	377.49
932.359	382.57
932.73	375.51
933.101	382.29
933.472	427.75
933.843	401.78
934.214	406.29
934.585	369.29
934.956	362.51
935.327	408.83
935.698	370.42
936.069	376.64
936.439	388.78
936.81	382.85
937.18	383.42
937.551	388.5
937.921	387.65
938.292	397.82
938.662	366.47
939.032	390.2
939.402	377.77
939.772	389.63
940.142	378.05
940.512	396.41
940.882	372.68
941.252	398.1
941.621	393.3
941.991	389.07
942.361	373.81
942.73	400.36
943.1	380.03
943.469	378.33
943.838	382.57
944.208	411.38
944.577	375.51
944.946	408.55
945.315	402.34
945.684	380.59
946.053	393.02
946.422	388.5
946.791	404.03
947.159	386.24
947.528	375.51
947.897	365.06
948.265	396.41
948.634	387.65
949.002	374.1
949.371	379.46
949.739	367.03
950.107	392.17
950.475	358.84
950.843	406.01
951.211	390.48
951.579	404.6
951.947	401.49
952.315	401.49
952.683	371.84
953.05	383.14
953.418	401.78
953.785	399.52
954.153	369.86
954.52	400.93
954.888	394.72
955.255	388.22
955.622	401.21
955.989	389.91
956.356	371.84
956.723	384.55
957.09	392.74
957.457	381.44
957.824	418.43
958.191	370.14
958.557	398.1
958.924	413.63
959.291	368.45
959.657	375.79
960.023	420.98
960.39	377.77
960.756	384.83
961.122	385.11
961.488	412.79
961.855	379.75
962.221	372.12
962.586	396.97
962.952	407.71
963.318	407.71
963.684	404.32
964.05	386.24
964.415	406.29
964.781	386.24
965.146	402.34
965.512	389.91
965.877	395
966.242	389.91
966.608	396.97
966.973	399.8
967.338	370.71
967.703	367.03
968.068	380.88
968.433	397.54
968.797	407.42
969.162	370.42
969.527	371.27
969.891	377.49
970.256	362.23
970.62	395.56
970.985	381.72
971.349	389.91
971.714	376.92
972.078	394.43
972.442	361.95
972.806	369.01
973.17	350.65
973.534	340.75
973.898	380.03
974.262	362.23
974.625	384.55
974.989	404.32
975.353	395.56
975.716	404.03
976.08	355.17
976.443	369.29
976.806	378.33
977.17	367.6
977.533	369.29
977.896	351.49
978.259	397.54
978.622	406.86
978.985	343.3
979.348	376.92
979.711	381.44
980.073	388.5
980.436	388.5
980.799	377.49
981.161	395.28
981.524	369.86
981.886	417.87
982.248	369.29
982.611	375.51
982.973	365.06
983.335	387.65
983.697	365.34
984.059	378.62
984.421	381.72
984.783	369.86
985.145	375.23
985.506	380.31
985.868	374.38
986.23	390.48
986.591	399.23
986.953	371.55
987.314	376.64
987.675	353.19
988.037	1288.88
988.398	413.35
988.759	378.62
989.12	376.92
989.481	379.18
989.842	404.32
990.203	384.27
990.564	358.84
990.924	376.07
991.285	1212.65
991.646	395.56
992.006	359.97
992.367	384.55
992.727	366.19
993.087	374.1
993.448	391.33
993.808	374.1
994.168	395.56
994.528	355.73
994.888	365.62
995.248	367.6
995.608	373.25
995.967	386.24
996.327	357.14
996.687	393.87
997.046	359.4
997.406	385.11
997.765	390.76
998.125	388.22
998.484	385.39
998.843	387.09
999.202	369.29
999.561	367.88
999.92	374.38
1000.279	395
1000.638	398.39
1000.997	367.32
1001.356	361.1
1001.715	362.8
1002.073	380.31
1002.432	382.01
1002.79	376.92
1003.149	377.2
1003.507	407.99
1003.865	407.71
1004.224	387.94
1004.582	406.01
1004.94	398.67
1005.298	373.25
1005.656	368.16
1006.014	363.93
1006.371	382.29
1006.729	380.59
1007.087	398.1
1007.445	376.36
1007.802	394.15
1008.16	371.55
1008.517	378.05
1008.874	382.85
1009.232	392.74
1009.589	413.07
1009.946	402.34
1010.303	396.13
1010.66	400.65
1011.017	381.72
1011.374	395.56
1011.731	368.16
1012.087	403.47
1012.444	363.64
1012.801	400.65
1013.157	394.43
1013.513	389.91
1013.87	375.51
1014.226	395.56
1014.582	374.66
1014.939	399.23
1015.295	387.94
1015.651	385.96
1016.007	400.65
1016.363	386.52
1016.719	381.44
1017.074	389.63
1017.43	365.06
1017.786	377.77
1018.141	359.4
1018.497	367.32
1018.852	378.9
1019.208	362.23
1019.563	367.6
1019.918	398.1
1020.273	364.77
1020.628	351.78
1020.983	406.86
1021.338	401.49
1021.693	407.14
1022.048	352.06
1022.403	387.65
1022.757	396.13
1023.112	368.73
1023.467	358.27
1023.821	363.08
1024.175	370.42
1024.53	369.58
1024.884	407.71
1025.238	387.09
1025.592	378.33
1025.946	365.9
1026.3	372.97
1026.654	368.45
1027.008	380.31
1027.362	393.59
1027.716	367.32
1028.069	375.51
1028.423	371.84
1028.777	386.24
1029.13	351.49
1029.483	395
1029.837	385.39
1030.19	369.29
1030.543	387.94
1030.896	398.1
1031.249	387.09
1031.602	407.71
1031.955	387.65
1032.308	374.66
1032.661	392.17
1033.013	381.16
1033.366	390.2
1033.719	385.39
1034.071	402.34
1034.424	360.25
1034.776	399.23
1035.128	356.86
1035.48	365.62
1035.833	404.88
1036.185	383.98
1036.537	383.98
1036.889	383.98
